# SR785 Measurement - Timestamp: Jan 16 2019 - 00:36:53
#---------- Measurement Setup ------------
# Start Frequency (Hz): 0.000000
# Frequency Span (Hz): 6400.000000
# Frequency Resolution: 800
# Number of Averages: 2
# Averaging Mode: None
# Window function: Uniform
#---------- Measurement Parameters ----------
# Measurement Group:  "FFT" "FFT"
# Measurements:  "FFT 1" "FFT 2"
# View:  "Log Magnitude" "Log Magnitude"
# Unit:  "Vrms/rtHz" "Vpk"
#---------- Input Parameters ----------
# Input Source: Analog
# Input Mode: Single ended, Single ended
# Input Grounding: Float, Float
# Input Coupling: AC, AC
# Input Range: 24.0dBVpk, -10.0dBVpk
# Auto Range: On, On
# Auto Range Mode: Up Only, Normal
# Anti-Aliasing Filter: On, On
#---------- Source Parameters ----------
# Source Type: Sine
# Source Amplitude: 500.0mVpk
# Source On: 0

#---------- Measurement Data ----------
# [Freq(Hz) Display 0(Vrms/rtHz) Display 1(Vpk) ]
+0.0000000e+000    +8.9918254e-003
+8.0000000e+000    +5.9921267e-003
+1.6000000e+001    +6.3276314e-004
+2.4000000e+001    +2.5390217e-004
+3.2000000e+001    +1.6262680e-003
+4.0000000e+001    +7.2674011e-004
+4.8000000e+001    +3.7799767e-004
+5.6000000e+001    +3.7542297e-004
+6.4000000e+001    +2.6162504e-004
+7.2000000e+001    +2.0387181e-004
+8.0000000e+001    +3.7929916e-004
+8.8000000e+001    +3.3577820e-004
+9.6000000e+001    +2.1636771e-004
+1.0400000e+002    +2.7192832e-004
+1.1200000e+002    +4.4391203e-005
+1.2000000e+002    +2.7617949e-004
+1.2800000e+002    +2.3112671e-005
+1.3600000e+002    +3.2515090e-004
+1.4400000e+002    +2.0395633e-004
+1.5200000e+002    +1.3077169e-004
+1.6000000e+002    +3.5566187e-005
+1.6800000e+002    +3.0325382e-005
+1.7600000e+002    +3.1995143e-005
+1.8400000e+002    +6.6171953e-005
+1.9200000e+002    +3.9230610e-005
+2.0000000e+002    +1.3361317e-004
+2.0800000e+002    +1.1482342e-004
+2.1600000e+002    +3.9948853e-005
+2.2400000e+002    +7.6913071e-005
+2.3200000e+002    +1.2857714e-004
+2.4000000e+002    +5.3268443e-005
+2.4800000e+002    +4.7044487e-005
+2.5600000e+002    +4.7224268e-005
+2.6400000e+002    +9.9161181e-005
+2.7200000e+002    +9.4954012e-005
+2.8000000e+002    +1.0920076e-004
+2.8800000e+002    +9.5452509e-005
+2.9600000e+002    +1.5025654e-004
+3.0400000e+002    +1.3847192e-004
+3.1200000e+002    +1.6285105e-004
+3.2000000e+002    +1.2859995e-004
+3.2800000e+002    +1.5940923e-004
+3.3600000e+002    +1.3203350e-005
+3.4400000e+002    +3.3966640e-005
+3.5200000e+002    +4.8122034e-005
+3.6000000e+002    +1.9237777e-004
+3.6800000e+002    +5.7185895e-005
+3.7600000e+002    +1.0173818e-004
+3.8400000e+002    +1.7480523e-004
+3.9200000e+002    +1.2475210e-005
+4.0000000e+002    +1.3094669e-004
+4.0800000e+002    +8.2651481e-005
+4.1600000e+002    +1.5789254e-004
+4.2400000e+002    +1.8010622e-004
+4.3200000e+002    +1.3779133e-004
+4.4000000e+002    +1.0194896e-004
+4.4800000e+002    +1.0737286e-004
+4.5600000e+002    +3.3441393e-005
+4.6400000e+002    +1.0351379e-004
+4.7200000e+002    +7.1499875e-005
+4.8000000e+002    +1.7970227e-004
+4.8800000e+002    +2.1577071e-004
+4.9600000e+002    +4.5876430e-005
+5.0400000e+002    +2.1817558e-004
+5.1200000e+002    +7.2622563e-005
+5.2000000e+002    +6.1423809e-005
+5.2800000e+002    +1.1239418e-004
+5.3600000e+002    +1.6956167e-004
+5.4400000e+002    +4.9817834e-005
+5.5200000e+002    +6.0326620e-005
+5.6000000e+002    +8.5398991e-005
+5.6800000e+002    +1.0992065e-004
+5.7600000e+002    +4.7656646e-005
+5.8400000e+002    +3.7719154e-005
+5.9200000e+002    +2.0888589e-005
+6.0000000e+002    +1.0189446e-004
+6.0800000e+002    +1.7745989e-004
+6.1600000e+002    +7.7197423e-005
+6.2400000e+002    +1.6452641e-004
+6.3200000e+002    +2.6627602e-005
+6.4000000e+002    +7.7598015e-005
+6.4800000e+002    +2.2326036e-004
+6.5600000e+002    +6.4466811e-005
+6.6400000e+002    +1.0675342e-004
+6.7200000e+002    +2.0412367e-004
+6.8000000e+002    +6.0516621e-005
+6.8800000e+002    +1.4773988e-004
+6.9600000e+002    +1.2421115e-004
+7.0400000e+002    +3.2576086e-004
+7.1200000e+002    +8.5590487e-005
+7.2000000e+002    +1.1785641e-004
+7.2800000e+002    +1.2348617e-004
+7.3600000e+002    +3.3323519e-004
+7.4400000e+002    +9.8485856e-005
+7.5200000e+002    +3.5351652e-004
+7.6000000e+002    +1.8052166e-004
+7.6800000e+002    +8.5528860e-005
+7.7600000e+002    +2.1970179e-004
+7.8400000e+002    +1.0758309e-004
+7.9200000e+002    +8.1141159e-005
+8.0000000e+002    +9.7480624e-005
+8.0800000e+002    +1.9474460e-004
+8.1600000e+002    +4.1337567e-005
+8.2400000e+002    +2.5245946e-004
+8.3200000e+002    +4.2961934e-004
+8.4000000e+002    +2.1647821e-004
+8.4800000e+002    +2.3604467e-004
+8.5600000e+002    +6.6056964e-005
+8.6400000e+002    +7.0429945e-005
+8.7200000e+002    +1.4567432e-004
+8.8000000e+002    +1.9330686e-004
+8.8800000e+002    +2.6729950e-004
+8.9600000e+002    +8.0073645e-005
+9.0400000e+002    +3.9047009e-004
+9.1200000e+002    +2.1964728e-004
+9.2000000e+002    +1.0920963e-005
+9.2800000e+002    +1.8936393e-004
+9.3600000e+002    +2.1916212e-004
+9.4400000e+002    +5.6190496e-005
+9.5200000e+002    +1.6488231e-004
+9.6000000e+002    +6.2823885e-005
+9.6800000e+002    +2.9681707e-004
+9.7600000e+002    +3.6305469e-004
+9.8400000e+002    +2.7026192e-004
+9.9200000e+002    +1.9698152e-004
+1.0000000e+003    +2.0565429e-004
+1.0080000e+003    +1.5879703e-004
+1.0160000e+003    +1.0958210e-004
+1.0240000e+003    +1.4251233e-004
+1.0320000e+003    +2.8288495e-004
+1.0400000e+003    +4.2227937e-005
+1.0480000e+003    +8.9868612e-005
+1.0560000e+003    +3.0562977e-004
+1.0640000e+003    +1.8170086e-004
+1.0720000e+003    +5.0105993e-004
+1.0800000e+003    +2.3874064e-004
+1.0880000e+003    +1.2492131e-004
+1.0960000e+003    +2.1596292e-004
+1.1040000e+003    +2.3217394e-004
+1.1120000e+003    +2.6245264e-004
+1.1200000e+003    +4.3400793e-004
+1.1280000e+003    +1.9530658e-004
+1.1360000e+003    +3.3167345e-004
+1.1440000e+003    +1.7156941e-004
+1.1520000e+003    +2.5353517e-004
+1.1600000e+003    +1.2026636e-004
+1.1680000e+003    +1.8473619e-004
+1.1760000e+003    +1.4716183e-004
+1.1840000e+003    +4.2538371e-004
+1.1920000e+003    +1.7155867e-004
+1.2000000e+003    +3.2264960e-004
+1.2080000e+003    +1.6698821e-005
+1.2160000e+003    +1.0085638e-004
+1.2240000e+003    +6.9046189e-004
+1.2320000e+003    +7.4969830e-005
+1.2400000e+003    +4.2757092e-004
+1.2480000e+003    +2.7141572e-004
+1.2560000e+003    +2.0355788e-004
+1.2640000e+003    +2.3674090e-004
+1.2720000e+003    +8.3531027e-005
+1.2800000e+003    +2.2950677e-004
+1.2880000e+003    +2.3064783e-004
+1.2960000e+003    +1.4047428e-004
+1.3040000e+003    +3.5580894e-004
+1.3120000e+003    +3.5494837e-004
+1.3200000e+003    +4.0685921e-004
+1.3280000e+003    +3.2148513e-004
+1.3360000e+003    +6.2785961e-004
+1.3440000e+003    +5.9702352e-004
+1.3520000e+003    +3.5266110e-004
+1.3600000e+003    +3.7254760e-004
+1.3680000e+003    +3.9525563e-004
+1.3760000e+003    +2.4493143e-004
+1.3840000e+003    +3.9112550e-004
+1.3920000e+003    +4.6912697e-005
+1.4000000e+003    +3.0480939e-004
+1.4080000e+003    +3.6798953e-004
+1.4160000e+003    +8.4384628e-005
+1.4240000e+003    +4.4849610e-005
+1.4320000e+003    +3.5677536e-004
+1.4400000e+003    +3.5110489e-004
+1.4480000e+003    +1.6424910e-004
+1.4560000e+003    +2.1250491e-004
+1.4640000e+003    +2.8025595e-004
+1.4720000e+003    +3.0606327e-004
+1.4800000e+003    +3.8295396e-004
+1.4880000e+003    +8.5357419e-004
+1.4960000e+003    +3.2636590e-004
+1.5040000e+003    +3.3221321e-004
+1.5120000e+003    +2.5404383e-005
+1.5200000e+003    +4.2093740e-004
+1.5280000e+003    +6.6308101e-004
+1.5360000e+003    +6.8325613e-004
+1.5440000e+003    +1.5356945e-004
+1.5520000e+003    +5.4501952e-004
+1.5600000e+003    +5.4044870e-004
+1.5680000e+003    +2.5461111e-004
+1.5760000e+003    +5.3100759e-004
+1.5840000e+003    +4.8322219e-004
+1.5920000e+003    +3.8481061e-004
+1.6000000e+003    +5.6228763e-004
+1.6080000e+003    +6.0776511e-004
+1.6160000e+003    +3.7983843e-004
+1.6240000e+003    +5.7815138e-004
+1.6320000e+003    +4.2844992e-004
+1.6400000e+003    +4.6361779e-004
+1.6480000e+003    +2.7192876e-004
+1.6560000e+003    +1.0367286e-004
+1.6640000e+003    +5.4474728e-004
+1.6720000e+003    +3.0223071e-004
+1.6800000e+003    +5.9397728e-004
+1.6880000e+003    +1.2276265e-004
+1.6960000e+003    +3.4603229e-004
+1.7040000e+003    +6.2886305e-004
+1.7120000e+003    +3.6145697e-004
+1.7200000e+003    +1.5225043e-004
+1.7280000e+003    +6.3242728e-004
+1.7360000e+003    +3.9443712e-005
+1.7440000e+003    +9.2667621e-004
+1.7520000e+003    +8.8686863e-004
+1.7600000e+003    +1.6835087e-004
+1.7680000e+003    +5.8747263e-004
+1.7760000e+003    +1.7068838e-004
+1.7840000e+003    +3.8805683e-004
+1.7920000e+003    +9.0849400e-004
+1.8000000e+003    +4.1668350e-004
+1.8080000e+003    +6.6744455e-004
+1.8160000e+003    +4.9674488e-004
+1.8240000e+003    +1.6503589e-004
+1.8320000e+003    +5.5468536e-004
+1.8400000e+003    +4.2718847e-004
+1.8480000e+003    +8.4314100e-004
+1.8560000e+003    +4.9162499e-004
+1.8640000e+003    +1.2915328e-004
+1.8720000e+003    +5.1981601e-004
+1.8800000e+003    +2.5207031e-004
+1.8880000e+003    +1.0963962e-003
+1.8960000e+003    +3.6659202e-004
+1.9040000e+003    +5.7056826e-004
+1.9120000e+003    +2.6704677e-004
+1.9200000e+003    +8.5194735e-004
+1.9280000e+003    +3.5702184e-004
+1.9360000e+003    +1.2265743e-003
+1.9440000e+003    +8.5352032e-005
+1.9520000e+003    +4.8230469e-004
+1.9600000e+003    +6.1809190e-004
+1.9680000e+003    +4.9640652e-004
+1.9760000e+003    +2.8839955e-004
+1.9840000e+003    +1.1006944e-003
+1.9920000e+003    +5.5299001e-004
+2.0000000e+003    +2.7344131e-004
+2.0080000e+003    +5.6938111e-004
+2.0160000e+003    +4.3757906e-004
+2.0240000e+003    +1.6907507e-004
+2.0320000e+003    +4.3597541e-004
+2.0400000e+003    +6.4916030e-004
+2.0480000e+003    +3.1455088e-004
+2.0560000e+003    +2.3147157e-004
+2.0640000e+003    +4.8879173e-004
+2.0720000e+003    +2.2421707e-004
+2.0800000e+003    +4.1905939e-004
+2.0880000e+003    +7.3463394e-004
+2.0960000e+003    +4.2609678e-004
+2.1040000e+003    +2.9048728e-004
+2.1120000e+003    +3.6890744e-004
+2.1200000e+003    +6.3411240e-004
+2.1280000e+003    +4.5178796e-004
+2.1360000e+003    +4.5414906e-004
+2.1440000e+003    +9.0225675e-004
+2.1520000e+003    +2.3367220e-004
+2.1600000e+003    +1.3685931e-003
+2.1680000e+003    +5.6470052e-004
+2.1760000e+003    +3.6948913e-004
+2.1840000e+003    +6.3950202e-004
+2.1920000e+003    +1.8521417e-004
+2.2000000e+003    +5.3352141e-004
+2.2080000e+003    +5.7365466e-004
+2.2160000e+003    +3.7509005e-004
+2.2240000e+003    +7.4602867e-004
+2.2320000e+003    +4.2593587e-004
+2.2400000e+003    +6.4385886e-004
+2.2480000e+003    +3.7681195e-004
+2.2560000e+003    +1.1220541e-004
+2.2640000e+003    +3.3387481e-004
+2.2720000e+003    +9.5916231e-004
+2.2800000e+003    +7.1163336e-004
+2.2880000e+003    +7.1064016e-004
+2.2960000e+003    +4.3786070e-004
+2.3040000e+003    +8.6539116e-004
+2.3120000e+003    +5.9397565e-004
+2.3200000e+003    +6.0813891e-004
+2.3280000e+003    +9.0224334e-005
+2.3360000e+003    +7.5043616e-004
+2.3440000e+003    +3.9158788e-004
+2.3520000e+003    +6.4098951e-004
+2.3600000e+003    +3.4890519e-004
+2.3680000e+003    +8.0985221e-004
+2.3760000e+003    +4.8985041e-004
+2.3840000e+003    +6.3565432e-004
+2.3920000e+003    +4.1788502e-004
+2.4000000e+003    +8.2436780e-004
+2.4080000e+003    +4.8656989e-004
+2.4160000e+003    +4.0744705e-004
+2.4240000e+003    +6.1636145e-004
+2.4320000e+003    +4.2296518e-004
+2.4400000e+003    +5.2253524e-004
+2.4480000e+003    +4.9018400e-004
+2.4560000e+003    +3.9538366e-004
+2.4640000e+003    +7.8049261e-004
+2.4720000e+003    +3.1824378e-004
+2.4800000e+003    +6.4408407e-004
+2.4880000e+003    +3.0938824e-004
+2.4960000e+003    +3.1393985e-004
+2.5040000e+003    +3.2009830e-004
+2.5120000e+003    +8.3330413e-004
+2.5200000e+003    +1.8550336e-004
+2.5280000e+003    +5.2391831e-004
+2.5360000e+003    +5.3146988e-004
+2.5440000e+003    +5.4677628e-004
+2.5520000e+003    +5.3578266e-004
+2.5600000e+003    +3.5988563e-004
+2.5680000e+003    +2.2699269e-004
+2.5760000e+003    +4.4177653e-004
+2.5840000e+003    +5.5073266e-004
+2.5920000e+003    +7.9126963e-005
+2.6000000e+003    +5.0145813e-004
+2.6080000e+003    +6.1889325e-004
+2.6160000e+003    +2.8439646e-004
+2.6240000e+003    +4.8756163e-004
+2.6320000e+003    +9.8974037e-004
+2.6400000e+003    +4.4552921e-004
+2.6480000e+003    +2.1820026e-004
+2.6560000e+003    +1.6836029e-004
+2.6640000e+003    +5.9652753e-004
+2.6720000e+003    +5.0870719e-004
+2.6800000e+003    +5.1578943e-004
+2.6880000e+003    +2.1649306e-004
+2.6960000e+003    +1.8374225e-004
+2.7040000e+003    +6.1688339e-004
+2.7120000e+003    +8.3311618e-004
+2.7200000e+003    +5.0363567e-004
+2.7280000e+003    +1.9688433e-004
+2.7360000e+003    +4.5792339e-004
+2.7440000e+003    +1.5391676e-004
+2.7520000e+003    +6.2792923e-004
+2.7600000e+003    +1.0224697e-003
+2.7680000e+003    +8.2216947e-004
+2.7760000e+003    +1.2616623e-004
+2.7840000e+003    +5.8570347e-004
+2.7920000e+003    +7.2832697e-004
+2.8000000e+003    +4.4954941e-004
+2.8080000e+003    +8.3593419e-005
+2.8160000e+003    +1.8125820e-004
+2.8240000e+003    +7.6942466e-004
+2.8320000e+003    +5.7512254e-004
+2.8400000e+003    +1.0313811e-003
+2.8480000e+003    +8.1500271e-005
+2.8560000e+003    +5.7861052e-004
+2.8640000e+003    +1.7862271e-004
+2.8720000e+003    +8.9475281e-005
+2.8800000e+003    +2.0804862e-004
+2.8880000e+003    +1.6443324e-004
+2.8960000e+003    +1.0811382e-003
+2.9040000e+003    +4.3049949e-004
+2.9120000e+003    +2.5290044e-004
+2.9200000e+003    +5.2885193e-004
+2.9280000e+003    +2.3882742e-004
+2.9360000e+003    +7.5872353e-004
+2.9440000e+003    +5.5680296e-004
+2.9520000e+003    +3.5701107e-004
+2.9600000e+003    +5.2515476e-004
+2.9680000e+003    +4.9578994e-005
+2.9760000e+003    +6.7832501e-004
+2.9840000e+003    +1.7986888e-004
+2.9920000e+003    +1.1304113e-003
+3.0000000e+003    +1.2040364e-003
+3.0080000e+003    +1.0108575e-003
+3.0160000e+003    +1.1676757e-004
+3.0240000e+003    +7.3992484e-004
+3.0320000e+003    +2.1973171e-004
+3.0400000e+003    +9.3279697e-004
+3.0480000e+003    +1.2017014e-003
+3.0560000e+003    +1.4950170e-003
+3.0640000e+003    +4.1308554e-004
+3.0720000e+003    +3.9259094e-004
+3.0800000e+003    +4.9457862e-004
+3.0880000e+003    +5.1345612e-004
+3.0960000e+003    +5.7904364e-004
+3.1040000e+003    +1.3924313e-003
+3.1120000e+003    +6.8973337e-004
+3.1200000e+003    +6.3668424e-004
+3.1280000e+003    +1.2107323e-003
+3.1360000e+003    +4.1748260e-004
+3.1440000e+003    +8.1325381e-004
+3.1520000e+003    +6.8614777e-004
+3.1600000e+003    +2.7031815e-004
+3.1680000e+003    +3.1645509e-004
+3.1760000e+003    +2.8512682e-004
+3.1840000e+003    +3.9313443e-004
+3.1920000e+003    +5.6452042e-004
+3.2000000e+003    +5.5616355e-004
+3.2080000e+003    +3.6928515e-004
+3.2160000e+003    +6.3329726e-004
+3.2240000e+003    +5.7012646e-004
+3.2320000e+003    +4.3160649e-004
+3.2400000e+003    +8.1521884e-004
+3.2480000e+003    +6.4811407e-004
+3.2560000e+003    +7.4540725e-004
+3.2640000e+003    +5.4072140e-004
+3.2720000e+003    +1.1943871e-003
+3.2800000e+003    +9.8172983e-004
+3.2880000e+003    +9.1933704e-004
+3.2960000e+003    +5.3634535e-004
+3.3040000e+003    +1.3883309e-003
+3.3120000e+003    +5.2382972e-004
+3.3200000e+003    +8.7844895e-004
+3.3280000e+003    +4.0088204e-004
+3.3360000e+003    +5.7717750e-004
+3.3440000e+003    +4.6137028e-004
+3.3520000e+003    +6.3264294e-004
+3.3600000e+003    +3.5531059e-004
+3.3680000e+003    +9.8084530e-004
+3.3760000e+003    +8.9533016e-004
+3.3840000e+003    +7.2712044e-004
+3.3920000e+003    +6.6083443e-004
+3.4000000e+003    +7.2949182e-004
+3.4080000e+003    +4.5589366e-004
+3.4160000e+003    +6.7887263e-004
+3.4240000e+003    +3.7367662e-004
+3.4320000e+003    +4.8548821e-004
+3.4400000e+003    +7.3032087e-004
+3.4480000e+003    +3.3820354e-004
+3.4560000e+003    +9.2845183e-004
+3.4640000e+003    +1.2885866e-003
+3.4720000e+003    +1.9376776e-003
+3.4800000e+003    +3.8768377e-004
+3.4880000e+003    +1.2994847e-003
+3.4960000e+003    +9.0711995e-004
+3.5040000e+003    +4.3284844e-004
+3.5120000e+003    +1.3960012e-003
+3.5200000e+003    +5.4232765e-004
+3.5280000e+003    +4.7655965e-004
+3.5360000e+003    +7.7520270e-004
+3.5440000e+003    +3.2699970e-004
+3.5520000e+003    +6.7620829e-004
+3.5600000e+003    +5.0866947e-004
+3.5680000e+003    +6.8064634e-004
+3.5760000e+003    +2.1714474e-004
+3.5840000e+003    +1.4367511e-003
+3.5920000e+003    +6.2440749e-004
+3.6000000e+003    +2.9849051e-004
+3.6080000e+003    +7.1054033e-004
+3.6160000e+003    +1.2072782e-003
+3.6240000e+003    +5.2385154e-004
+3.6320000e+003    +7.3990208e-004
+3.6400000e+003    +6.4040138e-004
+3.6480000e+003    +4.2963019e-004
+3.6560000e+003    +3.7096225e-004
+3.6640000e+003    +4.7761700e-004
+3.6720000e+003    +2.1713783e-004
+3.6800000e+003    +6.7607954e-004
+3.6880000e+003    +1.2584415e-003
+3.6960000e+003    +2.2128216e-004
+3.7040000e+003    +9.2742738e-004
+3.7120000e+003    +6.8383175e-004
+3.7200000e+003    +3.0411608e-004
+3.7280000e+003    +6.7387626e-004
+3.7360000e+003    +2.1560162e-003
+3.7440000e+003    +6.8251119e-004
+3.7520000e+003    +5.9381069e-004
+3.7600000e+003    +1.6140420e-004
+3.7680000e+003    +6.4345816e-004
+3.7760000e+003    +1.3900164e-003
+3.7840000e+003    +4.3353715e-004
+3.7920000e+003    +3.7461097e-004
+3.8000000e+003    +4.1040854e-004
+3.8080000e+003    +1.8549532e-003
+3.8160000e+003    +1.0395565e-003
+3.8240000e+003    +6.9990772e-004
+3.8320000e+003    +9.4197539e-004
+3.8400000e+003    +6.8838027e-004
+3.8480000e+003    +8.0505776e-004
+3.8560000e+003    +4.2546590e-004
+3.8640000e+003    +8.3256385e-004
+3.8720000e+003    +9.0139924e-004
+3.8800000e+003    +6.6472404e-004
+3.8880000e+003    +7.2193146e-004
+3.8960000e+003    +2.8005862e-004
+3.9040000e+003    +1.8363758e-003
+3.9120000e+003    +7.6645083e-004
+3.9200000e+003    +2.0305396e-004
+3.9280000e+003    +9.2320150e-004
+3.9360000e+003    +5.5653497e-004
+3.9440000e+003    +4.8158821e-004
+3.9520000e+003    +8.6401694e-004
+3.9600000e+003    +7.0687960e-004
+3.9680000e+003    +4.4736493e-004
+3.9760000e+003    +6.1470800e-004
+3.9840000e+003    +1.4894849e-003
+3.9920000e+003    +7.0455775e-004
+4.0000000e+003    +7.8503561e-004
+4.0080000e+003    +7.6884025e-004
+4.0160000e+003    +1.3440055e-003
+4.0240000e+003    +3.2463972e-004
+4.0320000e+003    +2.2059855e-004
+4.0400000e+003    +3.5794207e-004
+4.0480000e+003    +2.1564767e-004
+4.0560000e+003    +5.5935907e-005
+4.0640000e+003    +6.7453616e-004
+4.0720000e+003    +4.5729533e-004
+4.0800000e+003    +5.9262331e-004
+4.0880000e+003    +2.9954899e-004
+4.0960000e+003    +4.9538509e-004
+4.1040000e+003    +1.4190667e-003
+4.1120000e+003    +2.9080099e-004
+4.1200000e+003    +4.1293976e-004
+4.1280000e+003    +6.4401020e-004
+4.1360000e+003    +5.2901276e-004
+4.1440000e+003    +7.3002744e-004
+4.1520000e+003    +6.3021021e-004
+4.1600000e+003    +1.1877354e-003
+4.1680000e+003    +7.0260139e-004
+4.1760000e+003    +5.0911761e-004
+4.1840000e+003    +2.4608933e-004
+4.1920000e+003    +9.9468903e-005
+4.2000000e+003    +7.2072999e-004
+4.2080000e+003    +5.3359318e-004
+4.2160000e+003    +5.7906623e-004
+4.2240000e+003    +5.4039556e-004
+4.2320000e+003    +4.2385660e-004
+4.2400000e+003    +3.0309605e-004
+4.2480000e+003    +4.0359705e-004
+4.2560000e+003    +1.2280963e-003
+4.2640000e+003    +4.6390880e-004
+4.2720000e+003    +4.6043712e-004
+4.2800000e+003    +9.3404885e-004
+4.2880000e+003    +1.1943307e-003
+4.2960000e+003    +9.8721974e-004
+4.3040000e+003    +1.3829111e-003
+4.3120000e+003    +4.8985955e-004
+4.3200000e+003    +6.7282643e-004
+4.3280000e+003    +7.6454628e-004
+4.3360000e+003    +1.0558112e-003
+4.3440000e+003    +1.1116347e-003
+4.3520000e+003    +4.4026575e-004
+4.3600000e+003    +2.2598654e-004
+4.3680000e+003    +1.0997648e-003
+4.3760000e+003    +1.8352772e-003
+4.3840000e+003    +6.5812859e-004
+4.3920000e+003    +1.0733891e-003
+4.4000000e+003    +1.2174941e-003
+4.4080000e+003    +3.7968936e-004
+4.4160000e+003    +1.1174124e-003
+4.4240000e+003    +1.1196235e-003
+4.4320000e+003    +8.7639887e-004
+4.4400000e+003    +5.8433914e-004
+4.4480000e+003    +3.7807674e-004
+4.4560000e+003    +4.0554575e-004
+4.4640000e+003    +4.6073599e-004
+4.4720000e+003    +7.8358973e-004
+4.4800000e+003    +1.1135770e-003
+4.4880000e+003    +2.8464638e-004
+4.4960000e+003    +3.6480164e-004
+4.5040000e+003    +1.0765912e-003
+4.5120000e+003    +2.2085762e-004
+4.5200000e+003    +2.3096777e-004
+4.5280000e+003    +1.7372992e-004
+4.5360000e+003    +8.6180511e-004
+4.5440000e+003    +6.3365337e-004
+4.5520000e+003    +2.9450802e-003
+4.5600000e+003    +2.5328391e-004
+4.5680000e+003    +6.9295825e-004
+4.5760000e+003    +6.6022488e-004
+4.5840000e+003    +1.2362284e-003
+4.5920000e+003    +1.1027345e-003
+4.6000000e+003    +8.2757312e-004
+4.6080000e+003    +1.0657425e-003
+4.6160000e+003    +1.7527253e-003
+4.6240000e+003    +1.1566435e-003
+4.6320000e+003    +1.1397483e-003
+4.6400000e+003    +5.1523617e-004
+4.6480000e+003    +6.8502623e-004
+4.6560000e+003    +2.7823605e-004
+4.6640000e+003    +3.2107648e-004
+4.6720000e+003    +6.4989983e-004
+4.6800000e+003    +6.9833110e-004
+4.6880000e+003    +2.6355920e-004
+4.6960000e+003    +3.8246988e-004
+4.7040000e+003    +3.5233967e-004
+4.7120000e+003    +4.6241982e-004
+4.7200000e+003    +1.8309219e-003
+4.7280000e+003    +5.5139093e-004
+4.7360000e+003    +2.3303691e-003
+4.7440000e+003    +7.8898802e-004
+4.7520000e+003    +1.1428014e-004
+4.7600000e+003    +1.1151229e-003
+4.7680000e+003    +6.6117122e-004
+4.7760000e+003    +1.0828387e-003
+4.7840000e+003    +2.2124874e-003
+4.7920000e+003    +8.9782267e-004
+4.8000000e+003    +4.9019529e-004
+4.8080000e+003    +3.3948632e-004
+4.8160000e+003    +5.7073712e-004
+4.8240000e+003    +1.0626134e-003
+4.8320000e+003    +1.0846099e-003
+4.8400000e+003    +1.6162551e-003
+4.8480000e+003    +2.1210152e-003
+4.8560000e+003    +1.5355595e-003
+4.8640000e+003    +2.1849682e-003
+4.8720000e+003    +2.3075156e-003
+4.8800000e+003    +8.9395593e-004
+4.8880000e+003    +9.8025473e-004
+4.8960000e+003    +9.8312460e-004
+4.9040000e+003    +1.1957182e-003
+4.9120000e+003    +6.5044698e-004
+4.9200000e+003    +1.2739444e-003
+4.9280000e+003    +1.1547015e-003
+4.9360000e+003    +2.3317551e-003
+4.9440000e+003    +1.7358548e-003
+4.9520000e+003    +1.0110168e-003
+4.9600000e+003    +2.8800699e-003
+4.9680000e+003    +1.3077771e-003
+4.9760000e+003    +1.9434890e-003
+4.9840000e+003    +1.8695480e-003
+4.9920000e+003    +9.0333272e-004
+5.0000000e+003    +2.0869195e-003
+5.0080000e+003    +2.2720064e-004
+5.0160000e+003    +9.2265988e-004
+5.0240000e+003    +1.1874862e-003
+5.0320000e+003    +2.3248491e-003
+5.0400000e+003    +1.9645062e-003
+5.0480000e+003    +3.6830158e-004
+5.0560000e+003    +5.0635281e-004
+5.0640000e+003    +1.7722039e-003
+5.0720000e+003    +1.2218531e-003
+5.0800000e+003    +1.6795752e-003
+5.0880000e+003    +1.0445948e-003
+5.0960000e+003    +8.0883433e-004
+5.1040000e+003    +6.3359458e-004
+5.1120000e+003    +1.3528895e-003
+5.1200000e+003    +1.8673632e-003
+5.1280000e+003    +1.3784929e-003
+5.1360000e+003    +1.1806953e-003
+5.1440000e+003    +1.9186066e-003
+5.1520000e+003    +8.6874131e-004
+5.1600000e+003    +6.8769051e-004
+5.1680000e+003    +1.4323567e-003
+5.1760000e+003    +3.0003613e-004
+5.1840000e+003    +1.4538639e-003
+5.1920000e+003    +8.6190540e-004
+5.2000000e+003    +1.5667379e-003
+5.2080000e+003    +6.2716409e-004
+5.2160000e+003    +1.2070099e-003
+5.2240000e+003    +1.3411273e-003
+5.2320000e+003    +1.2352596e-003
+5.2400000e+003    +9.8924770e-004
+5.2480000e+003    +1.2375580e-003
+5.2560000e+003    +5.5731402e-004
+5.2640000e+003    +2.6118234e-003
+5.2720000e+003    +3.2111807e-004
+5.2800000e+003    +1.9971766e-003
+5.2880000e+003    +4.7972685e-004
+5.2960000e+003    +9.4157160e-004
+5.3040000e+003    +1.1783196e-003
+5.3120000e+003    +2.1970854e-003
+5.3200000e+003    +1.5651501e-003
+5.3280000e+003    +1.4226736e-003
+5.3360000e+003    +1.0930751e-003
+5.3440000e+003    +2.9211043e-004
+5.3520000e+003    +1.9030217e-003
+5.3600000e+003    +4.2769182e-004
+5.3680000e+003    +2.6669239e-003
+5.3760000e+003    +3.7224321e-003
+5.3840000e+003    +2.5412487e-003
+5.3920000e+003    +3.9295922e-003
+5.4000000e+003    +2.0467136e-003
+5.4080000e+003    +2.2339057e-003
+5.4160000e+003    +6.9155666e-004
+5.4240000e+003    +2.9935548e-003
+5.4320000e+003    +4.3254937e-003
+5.4400000e+003    +4.2338870e-003
+5.4480000e+003    +5.5859191e-003
+5.4560000e+003    +2.3368516e-003
+5.4640000e+003    +2.3602315e-003
+5.4720000e+003    +2.4318271e-003
+5.4800000e+003    +6.3400553e-004
+5.4880000e+003    +2.1667997e-003
+5.4960000e+003    +6.8454875e-004
+5.5040000e+003    +7.5428310e-004
+5.5120000e+003    +1.0664208e-003
+5.5200000e+003    +1.3974826e-003
+5.5280000e+003    +9.7170041e-004
+5.5360000e+003    +1.0992348e-003
+5.5440000e+003    +2.4511800e-003
+5.5520000e+003    +2.1456080e-003
+5.5600000e+003    +2.3647787e-003
+5.5680000e+003    +3.1595238e-004
+5.5760000e+003    +3.8480660e-004
+5.5840000e+003    +2.7230477e-003
+5.5920000e+003    +1.1514617e-002
+5.6000000e+003    +1.3399344e-003
+5.6080000e+003    +8.0806874e-003
+5.6160000e+003    +2.4612986e-003
+5.6240000e+003    +1.0582095e-003
+5.6320000e+003    +1.2013069e-003
+5.6400000e+003    +2.4504871e-003
+5.6480000e+003    +1.6200253e-003
+5.6560000e+003    +1.7746486e-003
+5.6640000e+003    +1.1562651e-003
+5.6720000e+003    +1.1181156e-003
+5.6800000e+003    +1.5920781e-003
+5.6880000e+003    +1.5015726e-003
+5.6960000e+003    +1.2587309e-003
+5.7040000e+003    +1.5994456e-003
+5.7120000e+003    +6.0022143e-003
+5.7200000e+003    +4.6418523e-003
+5.7280000e+003    +1.0016884e-003
+5.7360000e+003    +8.8534941e-004
+5.7440000e+003    +3.2077134e-003
+5.7520000e+003    +3.1019640e-003
+5.7600000e+003    +2.0646991e-003
+5.7680000e+003    +4.0235198e-003
+5.7760000e+003    +3.8512149e-003
+5.7840000e+003    +4.5642732e-003
+5.7920000e+003    +4.3491786e-003
+5.8000000e+003    +1.0580753e-003
+5.8080000e+003    +1.5032123e-003
+5.8160000e+003    +5.8224495e-004
+5.8240000e+003    +5.6958869e-003
+5.8320000e+003    +4.6290088e-004
+5.8400000e+003    +5.2247928e-003
+5.8480000e+003    +3.9286257e-004
+5.8560000e+003    +7.2742430e-003
+5.8640000e+003    +2.6400667e-003
+5.8720000e+003    +1.6914386e-003
+5.8800000e+003    +4.1813790e-003
+5.8880000e+003    +1.4498420e-003
+5.8960000e+003    +9.5465820e-004
+5.9040000e+003    +8.5641770e-003
+5.9120000e+003    +1.3096322e-002
+5.9200000e+003    +2.7115911e-003
+5.9280000e+003    +1.2627161e-003
+5.9360000e+003    +9.0606732e-004
+5.9440000e+003    +1.1443056e-003
+5.9520000e+003    +1.2591373e-003
+5.9600000e+003    +3.1143040e-003
+5.9680000e+003    +4.0639932e-003
+5.9760000e+003    +2.8166138e-003
+5.9840000e+003    +1.8135714e-003
+5.9920000e+003    +1.0677986e-003
+6.0000000e+003    +9.4459311e-004
+6.0080000e+003    +2.1354491e-003
+6.0160000e+003    +4.1851359e-003
+6.0240000e+003    +2.3141338e-003
+6.0320000e+003    +1.0739173e-003
+6.0400000e+003    +9.8722847e-004
+6.0480000e+003    +1.3398402e-003
+6.0560000e+003    +9.3887158e-004
+6.0640000e+003    +6.0079275e-003
+6.0720000e+003    +5.5976794e-003
+6.0800000e+003    +4.2094411e-003
+6.0880000e+003    +1.5698641e-003
+6.0960000e+003    +2.0069850e-003
+6.1040000e+003    +1.5588792e-003
+6.1120000e+003    +2.1778285e-003
+6.1200000e+003    +3.7477553e-004
+6.1280000e+003    +1.7660775e-003
+6.1360000e+003    +1.5041046e-003
+6.1440000e+003    +6.2148896e-004
+6.1520000e+003    +3.1812955e-003
+6.1600000e+003    +2.5075511e-003
+6.1680000e+003    +4.3400815e-003
+6.1760000e+003    +8.7983697e-004
+6.1840000e+003    +1.6742091e-003
+6.1920000e+003    +1.7814541e-003
+6.2000000e+003    +1.4313520e-003
+6.2080000e+003    +2.0757460e-003
+6.2160000e+003    +1.6665934e-003
+6.2240000e+003    +1.6749107e-003
+6.2320000e+003    +1.0359173e-003
+6.2400000e+003    +8.9352910e-004
+6.2480000e+003    +1.5262510e-003
+6.2560000e+003    +1.1739483e-003
+6.2640000e+003    +4.6135383e-003
+6.2720000e+003    +5.5756555e-003
+6.2800000e+003    +1.8574866e-003
+6.2880000e+003    +9.5816661e-004
+6.2960000e+003    +1.7034053e-003
+6.3040000e+003    +3.9190226e-003
+6.3120000e+003    +2.9995248e-003
+6.3200000e+003    +2.5527927e-003
+6.3280000e+003    +1.4682468e-003
+6.3360000e+003    +2.6257052e-003
+6.3440000e+003    +2.9686384e-003
+6.3520000e+003    +4.8340713e-003
+6.3600000e+003    +4.4343220e-003
+6.3680000e+003    +1.2863291e-003
+6.3760000e+003    +5.3131644e-004
+6.3840000e+003    +1.1011561e-003
+6.3920000e+003    +1.7481972e-003
