# SR785 Measurement - Timestamp: Jan 23 2019 - 21:14:16
#---------- Measurement Setup ------------
# Start Frequency (Hz): 0.000000
# Frequency Span (Hz): 12800.000000
# Frequency Resolution: 800
# Number of Averages: 2
# Averaging Mode: None
# Window function: BMH
#---------- Measurement Parameters ----------
# Measurement Group:  "FFT" "FFT"
# Measurements:  "FFT 1" "FFT 2"
# View:  "Log Magnitude" "Log Magnitude"
# Unit:  "Vrms/rtHz" "Vpk"
#---------- Input Parameters ----------
# Input Source: Analog
# Input Mode: Single ended, Single ended
# Input Grounding: Float, Float
# Input Coupling: AC, AC
# Input Range: 6.0dBVpk, 6.0dBVpk
# Auto Range: Off, Off
# Auto Range Mode: Up Only, Normal
# Anti-Aliasing Filter: On, On
#---------- Source Parameters ----------
# Source Type: Sine
# Source Amplitude: 500.0mVpk
# Source On: 0

#---------- Measurement Data ----------
# [Freq(Hz) Display 0(Vrms/rtHz) Display 1(Vpk) ]
+0.0000000e+000    +8.1350300e-003
+1.6000000e+001    +7.0852456e-003
+3.2000000e+001    +4.9957479e-003
+4.8000000e+001    +3.0639952e-003
+6.4000000e+001    +2.8866406e-003
+8.0000000e+001    +3.6202513e-003
+9.6000000e+001    +3.3543992e-003
+1.1200000e+002    +1.4381913e-003
+1.2800000e+002    +1.0826907e-003
+1.4400000e+002    +1.4562835e-003
+1.6000000e+002    +1.5892724e-003
+1.7600000e+002    +2.5786050e-003
+1.9200000e+002    +8.5003804e-003
+2.0800000e+002    +1.1307850e-002
+2.2400000e+002    +9.0501690e-003
+2.4000000e+002    +5.7463148e-003
+2.5600000e+002    +8.4957946e-003
+2.7200000e+002    +8.9171156e-003
+2.8800000e+002    +8.8971164e-003
+3.0400000e+002    +6.7112800e-003
+3.2000000e+002    +4.5592994e-003
+3.3600000e+002    +6.2699849e-003
+3.5200000e+002    +2.5728119e-003
+3.6800000e+002    +2.7750705e-003
+3.8400000e+002    +3.1032823e-003
+4.0000000e+002    +2.9692333e-003
+4.1600000e+002    +2.6708387e-003
+4.3200000e+002    +3.1223551e-003
+4.4800000e+002    +4.4421162e-003
+4.6400000e+002    +4.6744798e-003
+4.8000000e+002    +3.4268186e-003
+4.9600000e+002    +3.3201703e-003
+5.1200000e+002    +3.8849188e-003
+5.2800000e+002    +2.5309904e-003
+5.4400000e+002    +9.1481901e-004
+5.6000000e+002    +6.7744376e-003
+5.7600000e+002    +6.6755083e-003
+5.9200000e+002    +5.2188789e-003
+6.0800000e+002    +4.9872040e-003
+6.2400000e+002    +6.5282774e-003
+6.4000000e+002    +5.1954980e-003
+6.5600000e+002    +6.5435013e-003
+6.7200000e+002    +8.9796511e-003
+6.8800000e+002    +1.0453359e-002
+7.0400000e+002    +9.5084207e-003
+7.2000000e+002    +4.3371427e-003
+7.3600000e+002    +3.4504891e-003
+7.5200000e+002    +8.5371053e-003
+7.6800000e+002    +6.4038807e-003
+7.8400000e+002    +5.3832233e-003
+8.0000000e+002    +2.2961905e-003
+8.1600000e+002    +3.9014076e-003
+8.3200000e+002    +3.8419445e-003
+8.4800000e+002    +4.1135591e-003
+8.6400000e+002    +2.3084569e-003
+8.8000000e+002    +2.7787825e-003
+8.9600000e+002    +2.5637206e-003
+9.1200000e+002    +2.1623413e-003
+9.2800000e+002    +3.9684889e-003
+9.4400000e+002    +3.8543832e-003
+9.6000000e+002    +2.0683361e-003
+9.7600000e+002    +1.5705468e-003
+9.9200000e+002    +2.7760000e-003
+1.0080000e+003    +4.4340007e-003
+1.0240000e+003    +4.0882053e-003
+1.0400000e+003    +7.3112035e-004
+1.0560000e+003    +3.2369776e-003
+1.0720000e+003    +5.6894710e-003
+1.0880000e+003    +6.7724222e-003
+1.1040000e+003    +5.6029521e-003
+1.1200000e+003    +2.5913869e-003
+1.1360000e+003    +2.3060401e-003
+1.1520000e+003    +3.0804037e-003
+1.1680000e+003    +2.7867495e-003
+1.1840000e+003    +1.6880425e-003
+1.2000000e+003    +1.4226720e-003
+1.2160000e+003    +9.7636855e-004
+1.2320000e+003    +7.0634816e-004
+1.2480000e+003    +6.0875347e-004
+1.2640000e+003    +2.3879439e-003
+1.2800000e+003    +8.7150466e-004
+1.2960000e+003    +2.5700533e-003
+1.3120000e+003    +3.5669429e-003
+1.3280000e+003    +4.8181377e-003
+1.3440000e+003    +4.8758090e-003
+1.3600000e+003    +3.5065548e-003
+1.3760000e+003    +1.9962427e-003
+1.3920000e+003    +4.0284265e-003
+1.4080000e+003    +2.6931418e-003
+1.4240000e+003    +1.2988122e-003
+1.4400000e+003    +1.2723068e-003
+1.4560000e+003    +3.1803474e-003
+1.4720000e+003    +5.0927722e-004
+1.4880000e+003    +1.5731571e-003
+1.5040000e+003    +4.9833944e-003
+1.5200000e+003    +5.6449720e-003
+1.5360000e+003    +4.1419528e-003
+1.5520000e+003    +1.6213562e-003
+1.5680000e+003    +2.0212086e-003
+1.5840000e+003    +3.2531051e-003
+1.6000000e+003    +4.1332552e-003
+1.6160000e+003    +1.8375204e-003
+1.6320000e+003    +1.2367362e-003
+1.6480000e+003    +1.5790209e-003
+1.6640000e+003    +2.2547301e-003
+1.6800000e+003    +2.0523237e-003
+1.6960000e+003    +1.7780510e-003
+1.7120000e+003    +3.3689453e-003
+1.7280000e+003    +5.9657334e-003
+1.7440000e+003    +5.5623562e-003
+1.7600000e+003    +1.7111123e-003
+1.7760000e+003    +9.3229575e-004
+1.7920000e+003    +5.5033824e-004
+1.8080000e+003    +9.9556532e-004
+1.8240000e+003    +1.7270386e-003
+1.8400000e+003    +1.8083957e-003
+1.8560000e+003    +2.4807854e-003
+1.8720000e+003    +2.9071958e-003
+1.8880000e+003    +7.9331081e-004
+1.9040000e+003    +1.0543175e-003
+1.9200000e+003    +5.8162707e-004
+1.9360000e+003    +6.3864037e-004
+1.9520000e+003    +1.4590627e-003
+1.9680000e+003    +1.3839653e-003
+1.9840000e+003    +9.6552365e-004
+2.0000000e+003    +1.9486684e-003
+2.0160000e+003    +2.4706707e-003
+2.0320000e+003    +2.1644325e-003
+2.0480000e+003    +2.7369559e-003
+2.0640000e+003    +1.8746560e-003
+2.0800000e+003    +1.7730837e-003
+2.0960000e+003    +2.0042863e-003
+2.1120000e+003    +1.4001703e-003
+2.1280000e+003    +6.5153558e-004
+2.1440000e+003    +1.5976606e-003
+2.1600000e+003    +1.1041119e-003
+2.1760000e+003    +5.7617709e-004
+2.1920000e+003    +1.2238408e-003
+2.2080000e+003    +2.2630177e-003
+2.2240000e+003    +3.3570260e-003
+2.2400000e+003    +3.7670771e-003
+2.2560000e+003    +3.5766922e-003
+2.2720000e+003    +3.1084623e-003
+2.2880000e+003    +2.4374286e-003
+2.3040000e+003    +2.5246430e-003
+2.3200000e+003    +2.5566889e-003
+2.3360000e+003    +2.0078379e-003
+2.3520000e+003    +2.4079045e-003
+2.3680000e+003    +3.3107949e-003
+2.3840000e+003    +3.6264535e-003
+2.4000000e+003    +3.6750361e-003
+2.4160000e+003    +3.2429434e-003
+2.4320000e+003    +6.2038488e-004
+2.4480000e+003    +2.5058982e-003
+2.4640000e+003    +4.1295290e-003
+2.4800000e+003    +6.5695648e-003
+2.4960000e+003    +5.6452043e-003
+2.5120000e+003    +1.1864433e-002
+2.5280000e+003    +1.4709677e-002
+2.5440000e+003    +2.7520102e-003
+2.5600000e+003    +2.3330676e-003
+2.5760000e+003    +2.1946046e-003
+2.5920000e+003    +1.3338509e-003
+2.6080000e+003    +5.0658552e-004
+2.6240000e+003    +2.8939696e-003
+2.6400000e+003    +3.6510779e-003
+2.6560000e+003    +2.1844609e-003
+2.6720000e+003    +3.9042423e-003
+2.6880000e+003    +2.8142876e-003
+2.7040000e+003    +1.1342635e-003
+2.7200000e+003    +4.9579242e-004
+2.7360000e+003    +1.8677937e-003
+2.7520000e+003    +1.3255562e-003
+2.7680000e+003    +9.9926023e-004
+2.7840000e+003    +1.1457023e-003
+2.8000000e+003    +1.6269860e-003
+2.8160000e+003    +2.1669543e-003
+2.8320000e+003    +1.0680747e-003
+2.8480000e+003    +1.4744519e-003
+2.8640000e+003    +1.5434185e-003
+2.8800000e+003    +2.2465631e-003
+2.8960000e+003    +1.7809269e-003
+2.9120000e+003    +8.5927063e-004
+2.9280000e+003    +7.3906500e-004
+2.9440000e+003    +6.1549409e-004
+2.9600000e+003    +7.8211393e-004
+2.9760000e+003    +7.2648004e-004
+2.9920000e+003    +5.1166792e-004
+3.0080000e+003    +7.6889474e-004
+3.0240000e+003    +5.9951603e-004
+3.0400000e+003    +2.6849459e-004
+3.0560000e+003    +6.5727392e-004
+3.0720000e+003    +2.8385568e-004
+3.0880000e+003    +8.3882752e-004
+3.1040000e+003    +6.6907343e-004
+3.1200000e+003    +2.5468576e-004
+3.1360000e+003    +5.8095407e-004
+3.1520000e+003    +1.0658969e-003
+3.1680000e+003    +1.6931294e-003
+3.1840000e+003    +1.7685224e-003
+3.2000000e+003    +1.1541159e-003
+3.2160000e+003    +1.0166537e-003
+3.2320000e+003    +1.1477672e-003
+3.2480000e+003    +1.4228774e-003
+3.2640000e+003    +8.1051048e-004
+3.2800000e+003    +2.4562718e-003
+3.2960000e+003    +8.4992184e-004
+3.3120000e+003    +1.2154786e-003
+3.3280000e+003    +1.4784065e-003
+3.3440000e+003    +3.6233230e-003
+3.3600000e+003    +1.9629840e-003
+3.3760000e+003    +1.1743022e-003
+3.3920000e+003    +1.1403691e-003
+3.4080000e+003    +2.1878849e-003
+3.4240000e+003    +3.9844662e-003
+3.4400000e+003    +2.4984176e-003
+3.4560000e+003    +2.4959240e-003
+3.4720000e+003    +1.1901124e-003
+3.4880000e+003    +7.8958465e-004
+3.5040000e+003    +7.3671708e-004
+3.5200000e+003    +1.7482606e-003
+3.5360000e+003    +2.9601580e-003
+3.5520000e+003    +2.3426341e-003
+3.5680000e+003    +1.9201797e-003
+3.5840000e+003    +8.4273890e-004
+3.6000000e+003    +1.4805888e-003
+3.6160000e+003    +7.6589728e-004
+3.6320000e+003    +1.3772470e-003
+3.6480000e+003    +1.3321729e-003
+3.6640000e+003    +1.2156528e-003
+3.6800000e+003    +1.4855855e-003
+3.6960000e+003    +1.4108345e-003
+3.7120000e+003    +1.1266804e-003
+3.7280000e+003    +1.9965528e-003
+3.7440000e+003    +1.1445412e-003
+3.7600000e+003    +6.7960686e-004
+3.7760000e+003    +1.7417636e-003
+3.7920000e+003    +1.1872184e-003
+3.8080000e+003    +2.2411332e-003
+3.8240000e+003    +5.2725489e-004
+3.8400000e+003    +1.0184279e-003
+3.8560000e+003    +1.0113121e-003
+3.8720000e+003    +7.0780457e-004
+3.8880000e+003    +8.0140709e-004
+3.9040000e+003    +1.7487895e-004
+3.9200000e+003    +4.6636246e-004
+3.9360000e+003    +2.1749346e-004
+3.9520000e+003    +6.9572101e-004
+3.9680000e+003    +1.7545545e-003
+3.9840000e+003    +1.3495899e-003
+4.0000000e+003    +1.2427082e-003
+4.0160000e+003    +2.5573880e-003
+4.0320000e+003    +2.0597551e-003
+4.0480000e+003    +1.3824026e-003
+4.0640000e+003    +1.4871220e-003
+4.0800000e+003    +2.0118044e-003
+4.0960000e+003    +1.6771225e-003
+4.1120000e+003    +2.4161884e-003
+4.1280000e+003    +2.0497486e-003
+4.1440000e+003    +1.4047745e-003
+4.1600000e+003    +2.5778776e-003
+4.1760000e+003    +3.0665817e-003
+4.1920000e+003    +2.4169406e-003
+4.2080000e+003    +1.5070405e-003
+4.2240000e+003    +2.4429397e-004
+4.2400000e+003    +7.8038377e-004
+4.2560000e+003    +8.1163255e-004
+4.2720000e+003    +1.7977598e-003
+4.2880000e+003    +1.2925939e-003
+4.3040000e+003    +6.4996729e-004
+4.3200000e+003    +2.1268698e-004
+4.3360000e+003    +3.1471672e-004
+4.3520000e+003    +1.9822481e-004
+4.3680000e+003    +1.6190801e-003
+4.3840000e+003    +2.4735166e-003
+4.4000000e+003    +2.3321724e-003
+4.4160000e+003    +1.1997515e-003
+4.4320000e+003    +2.0438191e-003
+4.4480000e+003    +2.9355148e-003
+4.4640000e+003    +2.5267410e-003
+4.4800000e+003    +1.0634070e-003
+4.4960000e+003    +6.6996878e-004
+4.5120000e+003    +1.8561328e-003
+4.5280000e+003    +2.3830787e-003
+4.5440000e+003    +1.7189778e-003
+4.5600000e+003    +2.2423984e-003
+4.5760000e+003    +2.4233430e-003
+4.5920000e+003    +1.3719421e-003
+4.6080000e+003    +2.4235148e-004
+4.6240000e+003    +1.8953211e-003
+4.6400000e+003    +9.2367857e-004
+4.6560000e+003    +1.5463716e-004
+4.6720000e+003    +1.2443507e-003
+4.6880000e+003    +2.8609252e-003
+4.7040000e+003    +8.2330225e-004
+4.7200000e+003    +1.2626468e-003
+4.7360000e+003    +1.4343238e-003
+4.7520000e+003    +1.4691135e-003
+4.7680000e+003    +1.3500411e-003
+4.7840000e+003    +1.6912427e-003
+4.8000000e+003    +4.3695781e-004
+4.8160000e+003    +1.0742038e-003
+4.8320000e+003    +2.1536858e-003
+4.8480000e+003    +2.0771150e-003
+4.8640000e+003    +1.6254630e-003
+4.8800000e+003    +8.3847670e-004
+4.8960000e+003    +9.8651170e-004
+4.9120000e+003    +1.1013199e-003
+4.9280000e+003    +7.4450346e-004
+4.9440000e+003    +1.8895074e-003
+4.9600000e+003    +4.1312250e-004
+4.9760000e+003    +7.3926058e-004
+4.9920000e+003    +9.0302434e-004
+5.0080000e+003    +8.3861343e-004
+5.0240000e+003    +1.3081621e-003
+5.0400000e+003    +1.5620753e-003
+5.0560000e+003    +1.7451643e-003
+5.0720000e+003    +1.2246373e-003
+5.0880000e+003    +8.8805740e-004
+5.1040000e+003    +4.9546943e-004
+5.1200000e+003    +7.9224847e-004
+5.1360000e+003    +1.7848293e-003
+5.1520000e+003    +1.6627578e-003
+5.1680000e+003    +8.9485594e-004
+5.1840000e+003    +5.7830918e-004
+5.2000000e+003    +7.7085791e-004
+5.2160000e+003    +1.5580894e-003
+5.2320000e+003    +6.6446245e-004
+5.2480000e+003    +4.5385398e-004
+5.2640000e+003    +8.4157614e-004
+5.2800000e+003    +1.2586494e-003
+5.2960000e+003    +3.6596524e-004
+5.3120000e+003    +2.5840069e-004
+5.3280000e+003    +6.6966913e-004
+5.3440000e+003    +7.9096301e-004
+5.3600000e+003    +5.0254416e-004
+5.3760000e+003    +3.4616853e-004
+5.3920000e+003    +2.5720434e-004
+5.4080000e+003    +1.5698459e-003
+5.4240000e+003    +2.0575593e-003
+5.4400000e+003    +9.7114308e-004
+5.4560000e+003    +5.9988408e-004
+5.4720000e+003    +1.1109520e-003
+5.4880000e+003    +2.8553940e-003
+5.5040000e+003    +3.4263053e-003
+5.5200000e+003    +2.5769989e-003
+5.5360000e+003    +1.6600289e-003
+5.5520000e+003    +9.3599578e-004
+5.5680000e+003    +8.4592419e-004
+5.5840000e+003    +5.7826057e-004
+5.6000000e+003    +7.0026901e-004
+5.6160000e+003    +1.3695055e-003
+5.6320000e+003    +1.3349395e-003
+5.6480000e+003    +1.2239517e-003
+5.6640000e+003    +1.5264646e-003
+5.6800000e+003    +9.4495353e-004
+5.6960000e+003    +6.4259011e-004
+5.7120000e+003    +4.7317406e-004
+5.7280000e+003    +3.3580419e-004
+5.7440000e+003    +5.9696520e-004
+5.7600000e+003    +8.1499148e-004
+5.7760000e+003    +6.2422891e-004
+5.7920000e+003    +2.2127802e-004
+5.8080000e+003    +8.0969220e-004
+5.8240000e+003    +8.2078495e-004
+5.8400000e+003    +3.3702105e-004
+5.8560000e+003    +6.7377416e-004
+5.8720000e+003    +1.2370247e-003
+5.8880000e+003    +6.8436615e-004
+5.9040000e+003    +3.0188131e-004
+5.9200000e+003    +5.6781439e-004
+5.9360000e+003    +6.3383952e-004
+5.9520000e+003    +1.8679434e-003
+5.9680000e+003    +1.9774321e-003
+5.9840000e+003    +1.2663648e-003
+6.0000000e+003    +5.9317960e-004
+6.0160000e+003    +9.4663113e-004
+6.0320000e+003    +8.7866117e-004
+6.0480000e+003    +8.4145094e-004
+6.0640000e+003    +4.9733178e-004
+6.0800000e+003    +1.6103964e-004
+6.0960000e+003    +1.1850317e-003
+6.1120000e+003    +7.3165918e-004
+6.1280000e+003    +7.7889947e-004
+6.1440000e+003    +6.1207067e-004
+6.1600000e+003    +6.0394150e-004
+6.1760000e+003    +8.0847426e-004
+6.1920000e+003    +5.4555893e-004
+6.2080000e+003    +5.6105113e-004
+6.2240000e+003    +7.1809179e-004
+6.2400000e+003    +8.5209287e-004
+6.2560000e+003    +9.1193384e-004
+6.2720000e+003    +8.5398712e-004
+6.2880000e+003    +1.1591257e-003
+6.3040000e+003    +1.0836237e-003
+6.3200000e+003    +6.1083742e-004
+6.3360000e+003    +8.8472752e-004
+6.3520000e+003    +3.1777555e-003
+6.3680000e+003    +2.4221954e-003
+6.3840000e+003    +2.3543471e-003
+6.4000000e+003    +6.3464381e-003
+6.4160000e+003    +5.1920596e-003
+6.4320000e+003    +5.0462508e-003
+6.4480000e+003    +4.5465296e-003
+6.4640000e+003    +1.1988880e-002
+6.4800000e+003    +1.2425213e-002
+6.4960000e+003    +1.6796065e-002
+6.5120000e+003    +1.0520311e-002
+6.5280000e+003    +1.0393439e-002
+6.5440000e+003    +5.2085207e-003
+6.5600000e+003    +5.0028209e-003
+6.5760000e+003    +9.1053862e-003
+6.5920000e+003    +1.2482924e-002
+6.6080000e+003    +4.7930302e-003
+6.6240000e+003    +4.6952735e-003
+6.6400000e+003    +2.6426215e-003
+6.6560000e+003    +1.3563080e-003
+6.6720000e+003    +6.3060096e-004
+6.6880000e+003    +5.5352424e-004
+6.7040000e+003    +6.9123972e-004
+6.7200000e+003    +4.8595192e-004
+6.7360000e+003    +1.0103049e-003
+6.7520000e+003    +8.5577334e-004
+6.7680000e+003    +6.8086159e-004
+6.7840000e+003    +6.3002238e-004
+6.8000000e+003    +2.9713288e-003
+6.8160000e+003    +2.6100029e-003
+6.8320000e+003    +1.5018076e-003
+6.8480000e+003    +1.2910933e-003
+6.8640000e+003    +9.0675201e-004
+6.8800000e+003    +8.4242900e-004
+6.8960000e+003    +9.6778799e-004
+6.9120000e+003    +1.6146508e-003
+6.9280000e+003    +4.9363490e-004
+6.9440000e+003    +1.1305205e-004
+6.9600000e+003    +5.1747984e-004
+6.9760000e+003    +5.7741330e-004
+6.9920000e+003    +8.1683020e-004
+7.0080000e+003    +6.6610117e-004
+7.0240000e+003    +1.7455188e-003
+7.0400000e+003    +2.1353131e-003
+7.0560000e+003    +1.4304456e-003
+7.0720000e+003    +1.6825200e-003
+7.0880000e+003    +1.6775121e-003
+7.1040000e+003    +1.0865862e-003
+7.1200000e+003    +2.0953030e-003
+7.1360000e+003    +2.1727567e-003
+7.1520000e+003    +1.2167203e-003
+7.1680000e+003    +5.9988740e-004
+7.1840000e+003    +5.7374284e-004
+7.2000000e+003    +4.5606587e-004
+7.2160000e+003    +1.0167068e-003
+7.2320000e+003    +1.2353383e-003
+7.2480000e+003    +8.8596839e-004
+7.2640000e+003    +3.2910373e-004
+7.2800000e+003    +6.9886073e-004
+7.2960000e+003    +9.0389425e-004
+7.3120000e+003    +4.1066931e-004
+7.3280000e+003    +7.6841580e-004
+7.3440000e+003    +1.0683591e-003
+7.3600000e+003    +1.0917000e-003
+7.3760000e+003    +7.3408766e-004
+7.3920000e+003    +6.2468008e-004
+7.4080000e+003    +2.9623641e-003
+7.4240000e+003    +3.4703352e-003
+7.4400000e+003    +2.3066050e-003
+7.4560000e+003    +1.6931117e-003
+7.4720000e+003    +1.4228086e-003
+7.4880000e+003    +9.9922845e-004
+7.5040000e+003    +7.0943258e-004
+7.5200000e+003    +2.2065064e-003
+7.5360000e+003    +2.9613364e-003
+7.5520000e+003    +2.4510454e-003
+7.5680000e+003    +8.5040677e-004
+7.5840000e+003    +9.4099180e-004
+7.6000000e+003    +2.4158715e-003
+7.6160000e+003    +6.3912611e-004
+7.6320000e+003    +9.7920385e-004
+7.6480000e+003    +3.9422518e-004
+7.6640000e+003    +1.4233673e-003
+7.6800000e+003    +4.7168357e-004
+7.6960000e+003    +6.7485840e-004
+7.7120000e+003    +1.1240874e-003
+7.7280000e+003    +8.6964981e-004
+7.7440000e+003    +2.4659864e-003
+7.7600000e+003    +1.9667249e-003
+7.7760000e+003    +1.6461712e-003
+7.7920000e+003    +1.7203599e-003
+7.8080000e+003    +1.4333288e-003
+7.8240000e+003    +1.3429228e-004
+7.8400000e+003    +4.1610425e-004
+7.8560000e+003    +6.2865665e-004
+7.8720000e+003    +1.1355239e-003
+7.8880000e+003    +8.0525223e-004
+7.9040000e+003    +8.9396868e-004
+7.9200000e+003    +7.7746745e-004
+7.9360000e+003    +3.9382826e-004
+7.9520000e+003    +3.3558175e-004
+7.9680000e+003    +5.6511734e-004
+7.9840000e+003    +9.4348559e-004
+8.0000000e+003    +1.0427665e-003
+8.0160000e+003    +7.0774433e-004
+8.0320000e+003    +1.5709866e-003
+8.0480000e+003    +2.0286588e-003
+8.0640000e+003    +1.2445488e-003
+8.0800000e+003    +5.6777109e-004
+8.0960000e+003    +8.2109415e-004
+8.1120000e+003    +9.6971588e-004
+8.1280000e+003    +8.0564403e-004
+8.1440000e+003    +9.6441648e-004
+8.1600000e+003    +6.8234635e-004
+8.1760000e+003    +8.0355076e-004
+8.1920000e+003    +6.7611627e-004
+8.2080000e+003    +1.0790047e-003
+8.2240000e+003    +5.0484872e-004
+8.2400000e+003    +6.9941417e-004
+8.2560000e+003    +8.9084014e-004
+8.2720000e+003    +1.0389951e-003
+8.2880000e+003    +1.7729085e-003
+8.3040000e+003    +2.5341827e-003
+8.3200000e+003    +1.7509952e-003
+8.3360000e+003    +1.0931916e-003
+8.3520000e+003    +2.2751505e-003
+8.3680000e+003    +2.9700387e-003
+8.3840000e+003    +3.6261268e-003
+8.4000000e+003    +5.3806705e-003
+8.4160000e+003    +4.8730662e-003
+8.4320000e+003    +3.4291937e-003
+8.4480000e+003    +5.2050361e-003
+8.4640000e+003    +3.6461644e-003
+8.4800000e+003    +8.0094306e-004
+8.4960000e+003    +1.6933952e-003
+8.5120000e+003    +1.4182817e-003
+8.5280000e+003    +8.9532870e-004
+8.5440000e+003    +4.2224064e-004
+8.5600000e+003    +3.0724087e-004
+8.5760000e+003    +7.6988351e-004
+8.5920000e+003    +1.0965876e-003
+8.6080000e+003    +1.0572787e-003
+8.6240000e+003    +1.0545444e-003
+8.6400000e+003    +3.3766220e-004
+8.6560000e+003    +3.0781387e-004
+8.6720000e+003    +5.0080748e-004
+8.6880000e+003    +4.9003330e-004
+8.7040000e+003    +5.0953001e-004
+8.7200000e+003    +2.1693885e-004
+8.7360000e+003    +6.7612960e-004
+8.7520000e+003    +1.4384282e-003
+8.7680000e+003    +9.9028123e-004
+8.7840000e+003    +1.5793607e-004
+8.8000000e+003    +7.7891914e-004
+8.8160000e+003    +1.3982906e-003
+8.8320000e+003    +3.3945353e-003
+8.8480000e+003    +4.3038703e-003
+8.8640000e+003    +4.9891099e-003
+8.8800000e+003    +4.7616763e-003
+8.8960000e+003    +1.7623110e-003
+8.9120000e+003    +3.3054591e-004
+8.9280000e+003    +1.2935373e-003
+8.9440000e+003    +1.4103358e-003
+8.9600000e+003    +7.8677392e-004
+8.9760000e+003    +3.5317356e-004
+8.9920000e+003    +4.2950566e-004
+9.0080000e+003    +1.3430150e-003
+9.0240000e+003    +1.2772910e-003
+9.0400000e+003    +6.3001650e-004
+9.0560000e+003    +9.0334460e-004
+9.0720000e+003    +9.1003138e-004
+9.0880000e+003    +4.4245101e-004
+9.1040000e+003    +5.3728663e-004
+9.1200000e+003    +8.2254870e-004
+9.1360000e+003    +1.0004722e-003
+9.1520000e+003    +1.1650019e-003
+9.1680000e+003    +8.1347080e-004
+9.1840000e+003    +6.7923387e-004
+9.2000000e+003    +4.6092574e-004
+9.2160000e+003    +7.0696848e-004
+9.2320000e+003    +2.0687461e-003
+9.2480000e+003    +4.8132389e-004
+9.2640000e+003    +9.5913286e-004
+9.2800000e+003    +5.3355278e-004
+9.2960000e+003    +7.2388159e-004
+9.3120000e+003    +1.4723254e-003
+9.3280000e+003    +5.3691480e-004
+9.3440000e+003    +5.1686657e-004
+9.3600000e+003    +6.5267831e-004
+9.3760000e+003    +3.1005766e-004
+9.3920000e+003    +3.2728506e-004
+9.4080000e+003    +5.7769485e-004
+9.4240000e+003    +3.0971927e-004
+9.4400000e+003    +7.5190590e-004
+9.4560000e+003    +7.4843335e-004
+9.4720000e+003    +7.8909373e-004
+9.4880000e+003    +7.8970607e-004
+9.5040000e+003    +1.2301328e-003
+9.5200000e+003    +1.6321909e-003
+9.5360000e+003    +1.6757245e-003
+9.5520000e+003    +2.3932091e-003
+9.5680000e+003    +3.0556147e-003
+9.5840000e+003    +6.1706058e-004
+9.6000000e+003    +9.6926617e-004
+9.6160000e+003    +1.4835895e-003
+9.6320000e+003    +1.2525106e-003
+9.6480000e+003    +3.2692411e-004
+9.6640000e+003    +9.3907054e-004
+9.6800000e+003    +1.3821855e-003
+9.6960000e+003    +7.7261106e-004
+9.7120000e+003    +8.3585846e-004
+9.7280000e+003    +1.4945230e-003
+9.7440000e+003    +1.1554669e-003
+9.7600000e+003    +9.0956938e-004
+9.7760000e+003    +1.8833455e-003
+9.7920000e+003    +3.3751485e-004
+9.8080000e+003    +2.6978593e-004
+9.8240000e+003    +3.0283423e-004
+9.8400000e+003    +2.0275988e-004
+9.8560000e+003    +5.2528945e-004
+9.8720000e+003    +8.1704505e-004
+9.8880000e+003    +9.5171161e-004
+9.9040000e+003    +7.3828438e-004
+9.9200000e+003    +5.9293344e-004
+9.9360000e+003    +7.3451738e-005
+9.9520000e+003    +1.2380288e-004
+9.9680000e+003    +1.3857739e-004
+9.9840000e+003    +1.9623635e-004
+1.0000000e+004    +3.0956816e-004
+1.0016000e+004    +3.8612599e-004
+1.0032000e+004    +6.1319163e-004
+1.0048000e+004    +6.7223347e-004
+1.0064000e+004    +6.1324751e-004
+1.0080000e+004    +1.2928679e-003
+1.0096000e+004    +1.3067925e-003
+1.0112000e+004    +8.8457257e-004
+1.0128000e+004    +4.4796409e-004
+1.0144000e+004    +2.1150411e-004
+1.0160000e+004    +6.5288617e-004
+1.0176000e+004    +1.0397180e-003
+1.0192000e+004    +8.0213335e-004
+1.0208000e+004    +2.1370428e-003
+1.0224000e+004    +9.1835891e-004
+1.0240000e+004    +2.9579570e-004
+1.0256000e+004    +3.0757146e-004
+1.0272000e+004    +7.4650801e-004
+1.0288000e+004    +5.3714297e-004
+1.0304000e+004    +5.6478730e-004
+1.0320000e+004    +1.2231832e-003
+1.0336000e+004    +1.0651704e-003
+1.0352000e+004    +4.4900851e-004
+1.0368000e+004    +6.9056725e-004
+1.0384000e+004    +1.0720694e-003
+1.0400000e+004    +1.0504535e-003
+1.0416000e+004    +1.3514219e-003
+1.0432000e+004    +1.4636114e-003
+1.0448000e+004    +8.3730282e-004
+1.0464000e+004    +7.7729591e-004
+1.0480000e+004    +3.6157583e-004
+1.0496000e+004    +4.4597092e-004
+1.0512000e+004    +2.2418814e-004
+1.0528000e+004    +1.8407340e-004
+1.0544000e+004    +8.4431336e-004
+1.0560000e+004    +8.1449817e-004
+1.0576000e+004    +2.8707346e-004
+1.0592000e+004    +4.5114479e-004
+1.0608000e+004    +3.9088403e-004
+1.0624000e+004    +8.2072639e-004
+1.0640000e+004    +7.9499674e-004
+1.0656000e+004    +7.3358451e-004
+1.0672000e+004    +8.8174210e-004
+1.0688000e+004    +8.3227048e-004
+1.0704000e+004    +1.9384096e-004
+1.0720000e+004    +2.7085963e-004
+1.0736000e+004    +1.1889350e-003
+1.0752000e+004    +9.3228760e-004
+1.0768000e+004    +1.5719018e-003
+1.0784000e+004    +1.5114077e-003
+1.0800000e+004    +1.0965491e-003
+1.0816000e+004    +3.0297742e-004
+1.0832000e+004    +4.7058018e-004
+1.0848000e+004    +1.1728314e-003
+1.0864000e+004    +1.2763531e-003
+1.0880000e+004    +5.3161604e-004
+1.0896000e+004    +1.3542627e-003
+1.0912000e+004    +1.4856540e-003
+1.0928000e+004    +1.2447572e-003
+1.0944000e+004    +5.5632112e-004
+1.0960000e+004    +2.0683543e-003
+1.0976000e+004    +2.7175222e-003
+1.0992000e+004    +3.4251674e-003
+1.1008000e+004    +3.2470264e-003
+1.1024000e+004    +8.0861186e-004
+1.1040000e+004    +7.5526931e-004
+1.1056000e+004    +6.3298026e-004
+1.1072000e+004    +3.4307697e-004
+1.1088000e+004    +1.3159282e-003
+1.1104000e+004    +9.6964772e-004
+1.1120000e+004    +1.2759903e-003
+1.1136000e+004    +9.1143633e-004
+1.1152000e+004    +3.3154874e-004
+1.1168000e+004    +2.9573382e-003
+1.1184000e+004    +3.7545594e-003
+1.1200000e+004    +5.4443157e-003
+1.1216000e+004    +4.9232990e-003
+1.1232000e+004    +3.5855784e-003
+1.1248000e+004    +4.2655575e-003
+1.1264000e+004    +5.0008162e-003
+1.1280000e+004    +6.2260940e-003
+1.1296000e+004    +4.3773474e-003
+1.1312000e+004    +1.0443603e-002
+1.1328000e+004    +8.7921657e-003
+1.1344000e+004    +8.7720370e-003
+1.1360000e+004    +1.0376159e-002
+1.1376000e+004    +6.5256581e-003
+1.1392000e+004    +6.9695693e-003
+1.1408000e+004    +4.0328121e-003
+1.1424000e+004    +2.2695456e-005
+1.1440000e+004    +3.0647605e-003
+1.1456000e+004    +4.9279742e-003
+1.1472000e+004    +5.9340759e-003
+1.1488000e+004    +1.0007109e-002
+1.1504000e+004    +1.0700302e-002
+1.1520000e+004    +6.9398917e-003
+1.1536000e+004    +6.0996581e-003
+1.1552000e+004    +2.7730756e-003
+1.1568000e+004    +3.8089878e-003
+1.1584000e+004    +9.6448055e-003
+1.1600000e+004    +7.2715199e-003
+1.1616000e+004    +2.9743658e-003
+1.1632000e+004    +5.6587728e-003
+1.1648000e+004    +1.3517075e-003
+1.1664000e+004    +3.8690814e-003
+1.1680000e+004    +7.0383986e-003
+1.1696000e+004    +9.0299752e-003
+1.1712000e+004    +1.0696905e-002
+1.1728000e+004    +4.0232837e-003
+1.1744000e+004    +2.6677966e-003
+1.1760000e+004    +8.2568713e-003
+1.1776000e+004    +1.1285821e-002
+1.1792000e+004    +1.9945710e-003
+1.1808000e+004    +1.2414937e-003
+1.1824000e+004    +1.5346418e-003
+1.1840000e+004    +2.8107625e-003
+1.1856000e+004    +6.4783413e-003
+1.1872000e+004    +3.1165548e-003
+1.1888000e+004    +2.6064806e-003
+1.1904000e+004    +2.0545274e-003
+1.1920000e+004    +4.9697286e-003
+1.1936000e+004    +2.7117906e-003
+1.1952000e+004    +2.5246029e-003
+1.1968000e+004    +1.6083325e-003
+1.1984000e+004    +4.4574672e-003
+1.2000000e+004    +7.2612599e-003
+1.2016000e+004    +2.9442930e-003
+1.2032000e+004    +3.2076710e-003
+1.2048000e+004    +6.8616322e-003
+1.2064000e+004    +4.8386194e-003
+1.2080000e+004    +4.4067828e-003
+1.2096000e+004    +4.4211377e-003
+1.2112000e+004    +6.7208144e-003
+1.2128000e+004    +6.9834180e-003
+1.2144000e+004    +6.8592294e-003
+1.2160000e+004    +4.9224556e-003
+1.2176000e+004    +2.6269192e-003
+1.2192000e+004    +5.1376740e-003
+1.2208000e+004    +1.0721100e-003
+1.2224000e+004    +4.1485272e-004
+1.2240000e+004    +2.4648495e-003
+1.2256000e+004    +2.2839555e-003
+1.2272000e+004    +9.7010462e-003
+1.2288000e+004    +9.0515651e-003
+1.2304000e+004    +6.7662126e-003
+1.2320000e+004    +5.2403677e-003
+1.2336000e+004    +8.1883802e-004
+1.2352000e+004    +5.2997172e-003
+1.2368000e+004    +1.0389081e-002
+1.2384000e+004    +1.2577898e-002
+1.2400000e+004    +3.8379603e-003
+1.2416000e+004    +2.3565171e-003
+1.2432000e+004    +4.0594270e-003
+1.2448000e+004    +6.4732223e-003
+1.2464000e+004    +7.4329460e-003
+1.2480000e+004    +2.2836998e-003
+1.2496000e+004    +3.0464779e-003
+1.2512000e+004    +3.2159565e-003
+1.2528000e+004    +2.2204088e-003
+1.2544000e+004    +1.5132317e-003
+1.2560000e+004    +7.1659568e-004
+1.2576000e+004    +3.1863451e-003
+1.2592000e+004    +4.6152254e-003
+1.2608000e+004    +5.4656467e-003
+1.2624000e+004    +6.5362025e-003
+1.2640000e+004    +3.5065452e-003
+1.2656000e+004    +3.7463463e-004
+1.2672000e+004    +4.1465256e-003
+1.2688000e+004    +2.2954217e-003
+1.2704000e+004    +4.2779511e-003
+1.2720000e+004    +4.7001322e-003
+1.2736000e+004    +2.4811872e-003
+1.2752000e+004    +9.6144611e-003
+1.2768000e+004    +1.5625754e-002
+1.2784000e+004    +9.6636834e-003
