# SR785 Measurement - Timestamp: Jan 24 2019 - 05:01:51
#---------- Measurement Setup ------------
# Start Frequency (Hz): 0.000000
# Frequency Span (Hz): 12800.000000
# Frequency Resolution: 800
# Number of Averages: 2
# Averaging Mode: None
# Window function: BMH
#---------- Measurement Parameters ----------
# Measurement Group:  "FFT" "FFT"
# Measurements:  "FFT 1" "FFT 2"
# View:  "Log Magnitude" "Log Magnitude"
# Unit:  "Vrms/rtHz" "Vpk"
#---------- Input Parameters ----------
# Input Source: Analog
# Input Mode: Single ended, Single ended
# Input Grounding: Float, Float
# Input Coupling: AC, AC
# Input Range: 6.0dBVpk, 6.0dBVpk
# Auto Range: Off, Off
# Auto Range Mode: Up Only, Normal
# Anti-Aliasing Filter: On, On
#---------- Source Parameters ----------
# Source Type: Sine
# Source Amplitude: 500.0mVpk
# Source On: 0

#---------- Measurement Data ----------
# [Freq(Hz) Display 0(Vrms/rtHz) Display 1(Vpk) ]
+0.0000000e+000    +1.2038847e-002
+1.6000000e+001    +6.4821090e-003
+3.2000000e+001    +2.4059964e-003
+4.8000000e+001    +1.8963888e-003
+6.4000000e+001    +3.1657463e-003
+8.0000000e+001    +3.3752690e-003
+9.6000000e+001    +8.6615877e-003
+1.1200000e+002    +8.5485205e-003
+1.2800000e+002    +3.1137534e-003
+1.4400000e+002    +2.8650037e-003
+1.6000000e+002    +5.0831386e-003
+1.7600000e+002    +5.1100939e-003
+1.9200000e+002    +3.3107549e-003
+2.0800000e+002    +9.3587145e-004
+2.2400000e+002    +3.4851334e-003
+2.4000000e+002    +3.5717555e-003
+2.5600000e+002    +1.9693298e-003
+2.7200000e+002    +4.8403838e-003
+2.8800000e+002    +2.9770450e-003
+3.0400000e+002    +3.8500016e-003
+3.2000000e+002    +3.3409079e-003
+3.3600000e+002    +2.2800106e-003
+3.5200000e+002    +4.2760517e-003
+3.6800000e+002    +4.1548040e-004
+3.8400000e+002    +9.3208899e-004
+4.0000000e+002    +1.6663811e-003
+4.1600000e+002    +1.9967754e-003
+4.3200000e+002    +8.9752011e-004
+4.4800000e+002    +2.1235691e-003
+4.6400000e+002    +2.4404975e-003
+4.8000000e+002    +2.2820667e-003
+4.9600000e+002    +1.4413173e-003
+5.1200000e+002    +5.3562797e-003
+5.2800000e+002    +5.5359229e-003
+5.4400000e+002    +2.5389437e-003
+5.6000000e+002    +3.6399504e-003
+5.7600000e+002    +1.4819916e-003
+5.9200000e+002    +4.1859518e-004
+6.0800000e+002    +3.1019214e-003
+6.2400000e+002    +4.1402364e-003
+6.4000000e+002    +4.0223915e-003
+6.5600000e+002    +3.8518386e-003
+6.7200000e+002    +1.6189744e-003
+6.8800000e+002    +2.7962860e-003
+7.0400000e+002    +4.5737620e-003
+7.2000000e+002    +5.2882838e-003
+7.3600000e+002    +2.9886288e-003
+7.5200000e+002    +4.1344217e-003
+7.6800000e+002    +3.5319857e-003
+7.8400000e+002    +3.1192489e-003
+8.0000000e+002    +6.4637553e-004
+8.1600000e+002    +1.0251558e-003
+8.3200000e+002    +4.5416779e-003
+8.4800000e+002    +6.2066009e-003
+8.6400000e+002    +3.5578841e-003
+8.8000000e+002    +6.4299912e-003
+8.9600000e+002    +4.8821117e-003
+9.1200000e+002    +1.1232102e-003
+9.2800000e+002    +2.8233030e-003
+9.4400000e+002    +2.2374245e-003
+9.6000000e+002    +3.7942016e-003
+9.7600000e+002    +3.0039707e-003
+9.9200000e+002    +2.8187700e-003
+1.0080000e+003    +3.6856169e-003
+1.0240000e+003    +5.8784205e-003
+1.0400000e+003    +8.2802717e-003
+1.0560000e+003    +3.0623926e-003
+1.0720000e+003    +3.8567137e-003
+1.0880000e+003    +4.8981062e-003
+1.1040000e+003    +3.1843428e-003
+1.1200000e+003    +2.2721984e-003
+1.1360000e+003    +3.8374127e-003
+1.1520000e+003    +4.1561886e-003
+1.1680000e+003    +3.8197846e-003
+1.1840000e+003    +2.9455621e-003
+1.2000000e+003    +2.6689554e-003
+1.2160000e+003    +5.2905199e-003
+1.2320000e+003    +4.7547361e-003
+1.2480000e+003    +4.4530770e-003
+1.2640000e+003    +4.2802184e-003
+1.2800000e+003    +2.2211024e-003
+1.2960000e+003    +1.4481533e-003
+1.3120000e+003    +5.5844226e-004
+1.3280000e+003    +2.8458356e-003
+1.3440000e+003    +8.6115533e-003
+1.3600000e+003    +1.2448058e-003
+1.3760000e+003    +4.7515864e-003
+1.3920000e+003    +5.1044412e-003
+1.4080000e+003    +2.5809007e-003
+1.4240000e+003    +2.6726488e-003
+1.4400000e+003    +2.5844383e-003
+1.4560000e+003    +3.3142881e-003
+1.4720000e+003    +3.2869403e-003
+1.4880000e+003    +3.6702314e-003
+1.5040000e+003    +8.7571883e-004
+1.5200000e+003    +1.9551986e-003
+1.5360000e+003    +1.7521135e-003
+1.5520000e+003    +6.4302451e-004
+1.5680000e+003    +2.0774924e-003
+1.5840000e+003    +1.6928822e-003
+1.6000000e+003    +2.1292074e-003
+1.6160000e+003    +1.7436082e-003
+1.6320000e+003    +5.5571157e-003
+1.6480000e+003    +6.1951019e-003
+1.6640000e+003    +2.5362468e-003
+1.6800000e+003    +4.2321556e-003
+1.6960000e+003    +1.6356824e-002
+1.7120000e+003    +2.3694465e-002
+1.7280000e+003    +1.8869149e-002
+1.7440000e+003    +1.1585589e-002
+1.7600000e+003    +8.5857278e-003
+1.7760000e+003    +7.9355305e-003
+1.7920000e+003    +7.7241934e-003
+1.8080000e+003    +5.0881808e-003
+1.8240000e+003    +3.1511693e-003
+1.8400000e+003    +6.7295684e-003
+1.8560000e+003    +6.0144416e-003
+1.8720000e+003    +3.9917701e-003
+1.8880000e+003    +7.9463897e-003
+1.9040000e+003    +5.3307028e-003
+1.9200000e+003    +2.7379235e-003
+1.9360000e+003    +2.1390019e-003
+1.9520000e+003    +3.5478647e-003
+1.9680000e+003    +1.3852438e-003
+1.9840000e+003    +7.1012892e-004
+2.0000000e+003    +1.5419247e-003
+2.0160000e+003    +1.7798011e-003
+2.0320000e+003    +3.3776860e-003
+2.0480000e+003    +4.2117871e-003
+2.0640000e+003    +4.2011300e-003
+2.0800000e+003    +2.1065786e-003
+2.0960000e+003    +1.2648961e-002
+2.1120000e+003    +9.3503390e-003
+2.1280000e+003    +6.2270616e-003
+2.1440000e+003    +2.8900036e-003
+2.1600000e+003    +3.3348810e-003
+2.1760000e+003    +8.4279440e-003
+2.1920000e+003    +1.3368382e-002
+2.2080000e+003    +1.1645549e-002
+2.2240000e+003    +3.2617175e-003
+2.2400000e+003    +2.6447172e-003
+2.2560000e+003    +1.3999114e-003
+2.2720000e+003    +4.2581991e-003
+2.2880000e+003    +3.2756387e-003
+2.3040000e+003    +2.3266480e-003
+2.3200000e+003    +1.0704591e-003
+2.3360000e+003    +1.7060406e-004
+2.3520000e+003    +1.0041788e-003
+2.3680000e+003    +1.6630107e-003
+2.3840000e+003    +2.4350157e-003
+2.4000000e+003    +2.2370964e-003
+2.4160000e+003    +1.7542694e-003
+2.4320000e+003    +6.0134544e-004
+2.4480000e+003    +9.3072018e-004
+2.4640000e+003    +2.0728500e-003
+2.4800000e+003    +4.4941914e-004
+2.4960000e+003    +3.2293526e-003
+2.5120000e+003    +4.2410498e-003
+2.5280000e+003    +3.3480502e-003
+2.5440000e+003    +2.9182851e-003
+2.5600000e+003    +6.9501175e-004
+2.5760000e+003    +2.7519227e-003
+2.5920000e+003    +2.6662680e-003
+2.6080000e+003    +4.7715208e-003
+2.6240000e+003    +9.3880966e-003
+2.6400000e+003    +1.1137831e-002
+2.6560000e+003    +3.6006724e-003
+2.6720000e+003    +2.4443683e-003
+2.6880000e+003    +1.6276632e-003
+2.7040000e+003    +3.6206290e-003
+2.7200000e+003    +8.8222045e-003
+2.7360000e+003    +6.5867798e-003
+2.7520000e+003    +6.0111107e-003
+2.7680000e+003    +3.0742849e-003
+2.7840000e+003    +3.1345782e-003
+2.8000000e+003    +2.1572569e-003
+2.8160000e+003    +1.5959617e-003
+2.8320000e+003    +3.6535379e-003
+2.8480000e+003    +4.7547775e-003
+2.8640000e+003    +5.2233217e-003
+2.8800000e+003    +5.3612101e-003
+2.8960000e+003    +6.0553374e-003
+2.9120000e+003    +4.0340191e-003
+2.9280000e+003    +5.2613937e-003
+2.9440000e+003    +7.9754395e-003
+2.9600000e+003    +9.1621019e-003
+2.9760000e+003    +8.1615606e-003
+2.9920000e+003    +1.3607522e-003
+3.0080000e+003    +1.0387921e-003
+3.0240000e+003    +3.3133149e-003
+3.0400000e+003    +7.7394233e-003
+3.0560000e+003    +7.8976806e-003
+3.0720000e+003    +5.4370849e-003
+3.0880000e+003    +5.4684710e-003
+3.1040000e+003    +4.4171228e-003
+3.1200000e+003    +1.8669891e-003
+3.1360000e+003    +1.2093678e-002
+3.1520000e+003    +9.6928952e-003
+3.1680000e+003    +1.0029199e-002
+3.1840000e+003    +6.3460446e-003
+3.2000000e+003    +8.9933565e-003
+3.2160000e+003    +1.1567775e-002
+3.2320000e+003    +7.5590974e-003
+3.2480000e+003    +1.2026587e-002
+3.2640000e+003    +6.3939919e-003
+3.2800000e+003    +7.3917005e-003
+3.2960000e+003    +6.5114475e-003
+3.3120000e+003    +1.9565558e-003
+3.3280000e+003    +1.0106858e-002
+3.3440000e+003    +1.1755609e-002
+3.3600000e+003    +7.8856712e-003
+3.3760000e+003    +3.6211456e-003
+3.3920000e+003    +1.4570680e-002
+3.4080000e+003    +1.0023386e-002
+3.4240000e+003    +3.9784773e-003
+3.4400000e+003    +3.8718330e-003
+3.4560000e+003    +6.6838986e-003
+3.4720000e+003    +7.9619130e-003
+3.4880000e+003    +5.9774043e-003
+3.5040000e+003    +1.9251088e-003
+3.5200000e+003    +4.6725632e-003
+3.5360000e+003    +4.9322234e-003
+3.5520000e+003    +4.2293570e-003
+3.5680000e+003    +3.1940755e-003
+3.5840000e+003    +1.1626589e-002
+3.6000000e+003    +1.4229301e-002
+3.6160000e+003    +1.0721291e-002
+3.6320000e+003    +3.3091540e-003
+3.6480000e+003    +9.8375678e-003
+3.6640000e+003    +6.7979679e-003
+3.6800000e+003    +4.8062047e-003
+3.6960000e+003    +3.2422331e-003
+3.7120000e+003    +1.3119760e-003
+3.7280000e+003    +7.3103206e-003
+3.7440000e+003    +8.0984375e-003
+3.7600000e+003    +4.7430876e-003
+3.7760000e+003    +1.5450632e-003
+3.7920000e+003    +2.1449507e-003
+3.8080000e+003    +3.1616390e-003
+3.8240000e+003    +5.1255915e-003
+3.8400000e+003    +2.4366139e-003
+3.8560000e+003    +2.2141011e-003
+3.8720000e+003    +3.5517213e-003
+3.8880000e+003    +8.9152800e-003
+3.9040000e+003    +1.2986817e-002
+3.9200000e+003    +1.0390319e-002
+3.9360000e+003    +7.9022255e-003
+3.9520000e+003    +4.9573961e-003
+3.9680000e+003    +4.5931293e-003
+3.9840000e+003    +6.7729205e-003
+4.0000000e+003    +4.9237260e-003
+4.0160000e+003    +3.3500670e-003
+4.0320000e+003    +2.0520950e-003
+4.0480000e+003    +7.2819419e-004
+4.0640000e+003    +6.0888818e-003
+4.0800000e+003    +4.1749449e-003
+4.0960000e+003    +4.2489450e-003
+4.1120000e+003    +5.3122514e-003
+4.1280000e+003    +4.2960611e-003
+4.1440000e+003    +8.1556570e-003
+4.1600000e+003    +8.4276805e-003
+4.1760000e+003    +6.2303748e-003
+4.1920000e+003    +6.1924937e-003
+4.2080000e+003    +3.6218057e-003
+4.2240000e+003    +2.8157309e-003
+4.2400000e+003    +3.4778076e-004
+4.2560000e+003    +3.1275789e-003
+4.2720000e+003    +4.1609029e-003
+4.2880000e+003    +8.6506009e-003
+4.3040000e+003    +1.1523821e-002
+4.3200000e+003    +9.8312404e-003
+4.3360000e+003    +6.3267872e-003
+4.3520000e+003    +1.4155521e-003
+4.3680000e+003    +1.3694145e-003
+4.3840000e+003    +6.6984887e-004
+4.4000000e+003    +1.8860149e-003
+4.4160000e+003    +2.6234300e-003
+4.4320000e+003    +1.6830780e-003
+4.4480000e+003    +1.5733100e-003
+4.4640000e+003    +1.9350116e-003
+4.4800000e+003    +1.2578599e-002
+4.4960000e+003    +9.6184835e-003
+4.5120000e+003    +8.8496599e-003
+4.5280000e+003    +8.4164357e-003
+4.5440000e+003    +9.3590226e-003
+4.5600000e+003    +8.0059227e-003
+4.5760000e+003    +3.4467084e-003
+4.5920000e+003    +1.8366601e-003
+4.6080000e+003    +5.3816126e-003
+4.6240000e+003    +6.1689694e-003
+4.6400000e+003    +5.4978649e-003
+4.6560000e+003    +2.8231295e-003
+4.6720000e+003    +2.0277034e-003
+4.6880000e+003    +6.6614510e-003
+4.7040000e+003    +1.0587863e-002
+4.7200000e+003    +1.1722825e-002
+4.7360000e+003    +9.0717673e-003
+4.7520000e+003    +5.1881447e-003
+4.7680000e+003    +6.2849964e-003
+4.7840000e+003    +7.5473543e-003
+4.8000000e+003    +9.9025453e-003
+4.8160000e+003    +2.2879934e-002
+4.8320000e+003    +2.0784598e-002
+4.8480000e+003    +1.6269574e-002
+4.8640000e+003    +1.1723575e-002
+4.8800000e+003    +5.8128298e-003
+4.8960000e+003    +1.6604910e-002
+4.9120000e+003    +1.1831522e-002
+4.9280000e+003    +7.9464419e-003
+4.9440000e+003    +2.2499745e-003
+4.9600000e+003    +8.7547367e-003
+4.9760000e+003    +7.3293759e-003
+4.9920000e+003    +6.0662040e-003
+5.0080000e+003    +5.4755849e-003
+5.0240000e+003    +5.5050561e-003
+5.0400000e+003    +2.1139232e-003
+5.0560000e+003    +6.0352590e-003
+5.0720000e+003    +5.9778243e-003
+5.0880000e+003    +2.7055184e-003
+5.1040000e+003    +5.0795344e-003
+5.1200000e+003    +5.2710641e-003
+5.1360000e+003    +4.6135206e-003
+5.1520000e+003    +3.2270434e-003
+5.1680000e+003    +4.3537840e-003
+5.1840000e+003    +3.6277974e-003
+5.2000000e+003    +2.0166943e-003
+5.2160000e+003    +1.5017317e-003
+5.2320000e+003    +5.3415210e-003
+5.2480000e+003    +3.3551948e-003
+5.2640000e+003    +5.4872907e-003
+5.2800000e+003    +1.5585574e-003
+5.2960000e+003    +5.7114051e-003
+5.3120000e+003    +6.6182525e-003
+5.3280000e+003    +5.9511545e-003
+5.3440000e+003    +4.3537458e-003
+5.3600000e+003    +1.0860923e-003
+5.3760000e+003    +1.5479149e-003
+5.3920000e+003    +2.6090946e-003
+5.4080000e+003    +2.9594074e-003
+5.4240000e+003    +6.3429060e-003
+5.4400000e+003    +6.6135600e-003
+5.4560000e+003    +7.1358941e-003
+5.4720000e+003    +5.7456051e-003
+5.4880000e+003    +1.4279716e-003
+5.5040000e+003    +5.3534103e-003
+5.5200000e+003    +6.0566505e-003
+5.5360000e+003    +4.7677634e-003
+5.5520000e+003    +4.2257272e-003
+5.5680000e+003    +2.7548885e-003
+5.5840000e+003    +1.2046393e-003
+5.6000000e+003    +9.5710671e-004
+5.6160000e+003    +1.1370715e-003
+5.6320000e+003    +2.3805054e-003
+5.6480000e+003    +2.4837207e-003
+5.6640000e+003    +1.5921210e-003
+5.6800000e+003    +3.9754272e-003
+5.6960000e+003    +3.3440255e-004
+5.7120000e+003    +6.0518747e-003
+5.7280000e+003    +1.0959163e-002
+5.7440000e+003    +1.2072279e-002
+5.7600000e+003    +1.2473629e-002
+5.7760000e+003    +6.4882252e-004
+5.7920000e+003    +5.8229095e-003
+5.8080000e+003    +7.0531047e-003
+5.8240000e+003    +6.5125306e-003
+5.8400000e+003    +4.0776907e-003
+5.8560000e+003    +4.7281338e-003
+5.8720000e+003    +4.7701956e-003
+5.8880000e+003    +5.2946485e-003
+5.9040000e+003    +3.6102305e-003
+5.9200000e+003    +9.4029983e-004
+5.9360000e+003    +4.9693878e-003
+5.9520000e+003    +2.6174916e-003
+5.9680000e+003    +8.2378509e-003
+5.9840000e+003    +9.3711456e-003
+6.0000000e+003    +7.4998192e-003
+6.0160000e+003    +6.1285039e-003
+6.0320000e+003    +3.2034670e-003
+6.0480000e+003    +3.6378310e-003
+6.0640000e+003    +9.4288541e-003
+6.0800000e+003    +1.0321386e-002
+6.0960000e+003    +6.8631056e-003
+6.1120000e+003    +3.2546967e-003
+6.1280000e+003    +2.1301345e-003
+6.1440000e+003    +3.7716047e-003
+6.1600000e+003    +2.6284049e-003
+6.1760000e+003    +1.8549451e-003
+6.1920000e+003    +4.1118748e-003
+6.2080000e+003    +4.5944103e-003
+6.2240000e+003    +9.5205702e-004
+6.2400000e+003    +4.7481940e-003
+6.2560000e+003    +1.0406659e-002
+6.2720000e+003    +1.1704495e-002
+6.2880000e+003    +1.0837861e-002
+6.3040000e+003    +4.0556891e-003
+6.3200000e+003    +4.2569279e-003
+6.3360000e+003    +3.2085129e-003
+6.3520000e+003    +1.2517140e-003
+6.3680000e+003    +5.1294533e-003
+6.3840000e+003    +5.8534727e-003
+6.4000000e+003    +3.9883861e-003
+6.4160000e+003    +6.0755195e-004
+6.4320000e+003    +2.3906077e-003
+6.4480000e+003    +2.9257201e-003
+6.4640000e+003    +2.7867388e-003
+6.4800000e+003    +3.2292693e-003
+6.4960000e+003    +5.8213691e-003
+6.5120000e+003    +3.2859407e-003
+6.5280000e+003    +4.6224645e-003
+6.5440000e+003    +5.6239474e-003
+6.5600000e+003    +3.8239683e-003
+6.5760000e+003    +7.3907352e-003
+6.5920000e+003    +7.6545803e-003
+6.6080000e+003    +5.1458376e-003
+6.6240000e+003    +1.3643390e-002
+6.6400000e+003    +6.7288736e-003
+6.6560000e+003    +3.4673947e-003
+6.6720000e+003    +6.2450655e-003
+6.6880000e+003    +3.1021598e-003
+6.7040000e+003    +2.3127254e-003
+6.7200000e+003    +7.1983319e-003
+6.7360000e+003    +1.0698746e-002
+6.7520000e+003    +6.4448481e-003
+6.7680000e+003    +2.3014848e-003
+6.7840000e+003    +6.7743631e-003
+6.8000000e+003    +4.8516849e-003
+6.8160000e+003    +5.9640012e-003
+6.8320000e+003    +4.6955417e-003
+6.8480000e+003    +2.0509181e-003
+6.8640000e+003    +1.7277603e-003
+6.8800000e+003    +4.4662384e-003
+6.8960000e+003    +5.5711763e-003
+6.9120000e+003    +2.3183390e-003
+6.9280000e+003    +8.6475294e-003
+6.9440000e+003    +7.8677610e-003
+6.9600000e+003    +1.9638820e-003
+6.9760000e+003    +5.6764955e-004
+6.9920000e+003    +1.6696474e-003
+7.0080000e+003    +1.2116325e-003
+7.0240000e+003    +5.4324958e-003
+7.0400000e+003    +8.2303425e-003
+7.0560000e+003    +5.6758039e-003
+7.0720000e+003    +1.0933758e-003
+7.0880000e+003    +1.0438301e-002
+7.1040000e+003    +5.4137162e-003
+7.1200000e+003    +4.1401298e-003
+7.1360000e+003    +7.0107370e-003
+7.1520000e+003    +2.9529240e-003
+7.1680000e+003    +7.1670152e-003
+7.1840000e+003    +9.5223421e-003
+7.2000000e+003    +6.3867685e-003
+7.2160000e+003    +1.3561993e-003
+7.2320000e+003    +1.5405210e-002
+7.2480000e+003    +1.3002419e-002
+7.2640000e+003    +7.8493562e-003
+7.2800000e+003    +6.7038345e-003
+7.2960000e+003    +5.4328567e-003
+7.3120000e+003    +1.0455506e-002
+7.3280000e+003    +1.2513076e-002
+7.3440000e+003    +9.9919112e-003
+7.3600000e+003    +4.7395867e-003
+7.3760000e+003    +7.9166722e-003
+7.3920000e+003    +6.6059907e-003
+7.4080000e+003    +3.9741136e-003
+7.4240000e+003    +9.9055527e-004
+7.4400000e+003    +5.0734198e-003
+7.4560000e+003    +8.2555301e-003
+7.4720000e+003    +6.4921305e-003
+7.4880000e+003    +2.2309716e-003
+7.5040000e+003    +8.0186520e-003
+7.5200000e+003    +5.3628823e-003
+7.5360000e+003    +2.1526231e-003
+7.5520000e+003    +4.7387984e-003
+7.5680000e+003    +2.1986528e-003
+7.5840000e+003    +4.3048933e-003
+7.6000000e+003    +5.7210200e-003
+7.6160000e+003    +7.9472661e-003
+7.6320000e+003    +8.7990463e-003
+7.6480000e+003    +1.2175793e-002
+7.6640000e+003    +1.6096327e-002
+7.6800000e+003    +1.7475322e-002
+7.6960000e+003    +1.6959006e-002
+7.7120000e+003    +1.2847409e-002
+7.7280000e+003    +9.0901535e-003
+7.7440000e+003    +7.6581654e-003
+7.7600000e+003    +6.1057354e-003
+7.7760000e+003    +6.0738153e-003
+7.7920000e+003    +6.7904149e-003
+7.8080000e+003    +4.0971967e-003
+7.8240000e+003    +1.1804270e-003
+7.8400000e+003    +5.8147577e-003
+7.8560000e+003    +5.8690207e-003
+7.8720000e+003    +3.9776191e-003
+7.8880000e+003    +2.7021519e-003
+7.9040000e+003    +4.2210994e-003
+7.9200000e+003    +4.0507317e-003
+7.9360000e+003    +2.4823220e-003
+7.9520000e+003    +4.3013450e-003
+7.9680000e+003    +7.7718068e-003
+7.9840000e+003    +6.9812029e-003
+8.0000000e+003    +8.6237537e-003
+8.0160000e+003    +9.9808481e-003
+8.0320000e+003    +1.1087836e-002
+8.0480000e+003    +7.4607376e-003
+8.0640000e+003    +4.6900390e-003
+8.0800000e+003    +1.8256735e-003
+8.0960000e+003    +1.4644456e-003
+8.1120000e+003    +8.6020562e-004
+8.1280000e+003    +6.2430877e-004
+8.1440000e+003    +1.5056512e-003
+8.1600000e+003    +2.8102009e-003
+8.1760000e+003    +3.7354783e-003
+8.1920000e+003    +2.9478932e-003
+8.2080000e+003    +2.9845659e-003
+8.2240000e+003    +2.4896357e-003
+8.2400000e+003    +6.3492922e-004
+8.2560000e+003    +3.4604178e-004
+8.2720000e+003    +3.3383283e-003
+8.2880000e+003    +2.8903051e-003
+8.3040000e+003    +1.7632613e-003
+8.3200000e+003    +3.1988996e-003
+8.3360000e+003    +5.3955754e-003
+8.3520000e+003    +6.0470854e-003
+8.3680000e+003    +4.8233806e-003
+8.3840000e+003    +3.3895706e-003
+8.4000000e+003    +6.8905777e-003
+8.4160000e+003    +4.6243328e-003
+8.4320000e+003    +4.0793410e-003
+8.4480000e+003    +2.9997355e-003
+8.4640000e+003    +4.9820077e-003
+8.4800000e+003    +6.1783544e-003
+8.4960000e+003    +3.2908693e-003
+8.5120000e+003    +5.6553194e-003
+8.5280000e+003    +5.7431138e-003
+8.5440000e+003    +4.3871100e-003
+8.5600000e+003    +7.5790966e-003
+8.5760000e+003    +6.9659427e-003
+8.5920000e+003    +5.1473519e-003
+8.6080000e+003    +5.7190857e-003
+8.6240000e+003    +5.5467407e-003
+8.6400000e+003    +5.8571054e-003
+8.6560000e+003    +5.9589548e-003
+8.6720000e+003    +4.6242364e-003
+8.6880000e+003    +2.6890836e-003
+8.7040000e+003    +2.0592939e-003
+8.7200000e+003    +6.0877055e-003
+8.7360000e+003    +2.3145734e-003
+8.7520000e+003    +3.6375534e-003
+8.7680000e+003    +3.0184800e-003
+8.7840000e+003    +3.8107573e-003
+8.8000000e+003    +5.5212090e-003
+8.8160000e+003    +1.9395858e-003
+8.8320000e+003    +4.7636111e-003
+8.8480000e+003    +5.3964197e-003
+8.8640000e+003    +3.1916164e-003
+8.8800000e+003    +4.9760463e-003
+8.8960000e+003    +8.7657310e-003
+8.9120000e+003    +1.1763760e-002
+8.9280000e+003    +5.2348445e-003
+8.9440000e+003    +8.9205625e-003
+8.9600000e+003    +9.7994432e-003
+8.9760000e+003    +7.3548658e-003
+8.9920000e+003    +9.0017086e-003
+9.0080000e+003    +9.1946675e-003
+9.0240000e+003    +9.3974611e-003
+9.0400000e+003    +5.0679222e-003
+9.0560000e+003    +4.3455125e-003
+9.0720000e+003    +8.6686853e-003
+9.0880000e+003    +9.1141583e-003
+9.1040000e+003    +9.4467448e-003
+9.1200000e+003    +5.4613911e-003
+9.1360000e+003    +6.8817018e-003
+9.1520000e+003    +9.9713951e-003
+9.1680000e+003    +9.8679224e-003
+9.1840000e+003    +6.1081327e-003
+9.2000000e+003    +1.1182884e-002
+9.2160000e+003    +1.5172707e-002
+9.2320000e+003    +1.9754313e-002
+9.2480000e+003    +2.0722641e-002
+9.2640000e+003    +2.1523950e-003
+9.2800000e+003    +4.8769279e-003
+9.2960000e+003    +9.8113017e-003
+9.3120000e+003    +6.7500290e-003
+9.3280000e+003    +9.4497949e-003
+9.3440000e+003    +6.4309160e-003
+9.3600000e+003    +4.1182660e-003
+9.3760000e+003    +9.9460769e-004
+9.3920000e+003    +8.7735495e-003
+9.4080000e+003    +7.1976045e-003
+9.4240000e+003    +1.6902449e-003
+9.4400000e+003    +4.9656979e-003
+9.4560000e+003    +7.9689138e-003
+9.4720000e+003    +1.0869441e-002
+9.4880000e+003    +9.7229537e-003
+9.5040000e+003    +5.9877792e-003
+9.5200000e+003    +6.5624854e-003
+9.5360000e+003    +3.6383183e-003
+9.5520000e+003    +9.3523618e-003
+9.5680000e+003    +9.5542157e-003
+9.5840000e+003    +3.7652825e-003
+9.6000000e+003    +1.6814932e-003
+9.6160000e+003    +6.8810028e-003
+9.6320000e+003    +6.8744407e-003
+9.6480000e+003    +5.4945252e-003
+9.6640000e+003    +7.8184558e-003
+9.6800000e+003    +8.3002234e-003
+9.6960000e+003    +4.9634553e-003
+9.7120000e+003    +2.5606360e-003
+9.7280000e+003    +1.9094492e-003
+9.7440000e+003    +1.2268261e-003
+9.7600000e+003    +9.2554855e-004
+9.7760000e+003    +1.9210686e-003
+9.7920000e+003    +3.0273036e-003
+9.8080000e+003    +7.2269915e-003
+9.8240000e+003    +4.8743025e-003
+9.8400000e+003    +1.9138244e-003
+9.8560000e+003    +4.5955000e-003
+9.8720000e+003    +2.4788671e-003
+9.8880000e+003    +6.0789189e-003
+9.9040000e+003    +1.5353902e-003
+9.9200000e+003    +1.2159341e-002
+9.9360000e+003    +5.9837671e-003
+9.9520000e+003    +7.3922607e-003
+9.9680000e+003    +9.3994420e-003
+9.9840000e+003    +5.9626265e-003
+1.0000000e+004    +4.0688803e-003
+1.0016000e+004    +3.4259798e-003
+1.0032000e+004    +4.0002512e-003
+1.0048000e+004    +4.0503712e-003
+1.0064000e+004    +2.6862049e-003
+1.0080000e+004    +5.1297210e-003
+1.0096000e+004    +4.9330955e-003
+1.0112000e+004    +2.6639723e-003
+1.0128000e+004    +4.7474536e-003
+1.0144000e+004    +3.4929002e-003
+1.0160000e+004    +6.7156805e-003
+1.0176000e+004    +8.9567676e-003
+1.0192000e+004    +5.5373000e-004
+1.0208000e+004    +2.1296984e-003
+1.0224000e+004    +4.3678535e-003
+1.0240000e+004    +6.2280390e-003
+1.0256000e+004    +2.4319284e-003
+1.0272000e+004    +4.3437476e-003
+1.0288000e+004    +5.2152216e-003
+1.0304000e+004    +4.6323771e-003
+1.0320000e+004    +8.3143432e-003
+1.0336000e+004    +4.5474060e-003
+1.0352000e+004    +1.8172060e-003
+1.0368000e+004    +4.9367691e-003
+1.0384000e+004    +5.2055507e-003
+1.0400000e+004    +1.3229408e-002
+1.0416000e+004    +1.2661497e-002
+1.0432000e+004    +1.3449635e-002
+1.0448000e+004    +4.3199952e-003
+1.0464000e+004    +5.0532618e-003
+1.0480000e+004    +1.0232314e-002
+1.0496000e+004    +1.3654718e-002
+1.0512000e+004    +1.3629529e-002
+1.0528000e+004    +7.9319542e-003
+1.0544000e+004    +7.7896146e-003
+1.0560000e+004    +4.9958988e-003
+1.0576000e+004    +2.7643859e-003
+1.0592000e+004    +1.2857915e-002
+1.0608000e+004    +1.2965678e-002
+1.0624000e+004    +1.1464057e-002
+1.0640000e+004    +1.2773874e-002
+1.0656000e+004    +1.3910943e-002
+1.0672000e+004    +1.6494468e-002
+1.0688000e+004    +1.1360149e-002
+1.0704000e+004    +4.5981798e-003
+1.0720000e+004    +2.7607686e-003
+1.0736000e+004    +5.5373274e-003
+1.0752000e+004    +4.1201995e-003
+1.0768000e+004    +2.3792551e-003
+1.0784000e+004    +3.4061312e-003
+1.0800000e+004    +1.1776547e-003
+1.0816000e+004    +5.3248093e-003
+1.0832000e+004    +7.0468849e-003
+1.0848000e+004    +5.5541755e-003
+1.0864000e+004    +6.6565303e-003
+1.0880000e+004    +1.2646270e-002
+1.0896000e+004    +1.5282493e-002
+1.0912000e+004    +6.9276690e-003
+1.0928000e+004    +8.2424516e-003
+1.0944000e+004    +8.4624980e-003
+1.0960000e+004    +9.2423549e-003
+1.0976000e+004    +1.4898194e-002
+1.0992000e+004    +1.8656842e-002
+1.1008000e+004    +1.8083977e-002
+1.1024000e+004    +1.1160189e-002
+1.1040000e+004    +1.3627280e-002
+1.1056000e+004    +1.7894130e-002
+1.1072000e+004    +2.0673826e-002
+1.1088000e+004    +1.9627864e-002
+1.1104000e+004    +1.6088527e-002
+1.1120000e+004    +1.2821252e-002
+1.1136000e+004    +1.2060528e-002
+1.1152000e+004    +1.2597859e-002
+1.1168000e+004    +1.1942362e-002
+1.1184000e+004    +9.8195514e-003
+1.1200000e+004    +5.8183884e-003
+1.1216000e+004    +9.3104877e-003
+1.1232000e+004    +1.3069080e-002
+1.1248000e+004    +2.2340149e-003
+1.1264000e+004    +1.5217372e-003
+1.1280000e+004    +2.7495050e-003
+1.1296000e+004    +4.2131282e-003
+1.1312000e+004    +4.9165520e-003
+1.1328000e+004    +4.7034570e-003
+1.1344000e+004    +3.8306098e-003
+1.1360000e+004    +4.4163587e-003
+1.1376000e+004    +3.8869134e-003
+1.1392000e+004    +2.8813321e-003
+1.1408000e+004    +2.8275764e-003
+1.1424000e+004    +8.5698059e-003
+1.1440000e+004    +1.2992298e-002
+1.1456000e+004    +9.8195784e-003
+1.1472000e+004    +5.3351498e-003
+1.1488000e+004    +5.0488887e-003
+1.1504000e+004    +1.3002334e-004
+1.1520000e+004    +4.5702481e-003
+1.1536000e+004    +4.9625724e-003
+1.1552000e+004    +3.9600362e-003
+1.1568000e+004    +3.9432412e-003
+1.1584000e+004    +5.1425644e-003
+1.1600000e+004    +3.7411260e-003
+1.1616000e+004    +2.3771517e-003
+1.1632000e+004    +3.6923466e-003
+1.1648000e+004    +7.9937093e-003
+1.1664000e+004    +3.7075318e-003
+1.1680000e+004    +1.6608493e-003
+1.1696000e+004    +1.5658420e-004
+1.1712000e+004    +8.0212457e-003
+1.1728000e+004    +8.6389882e-003
+1.1744000e+004    +4.4493354e-003
+1.1760000e+004    +2.7441487e-003
+1.1776000e+004    +4.6378989e-003
+1.1792000e+004    +1.0042485e-002
+1.1808000e+004    +1.0567799e-002
+1.1824000e+004    +4.6986775e-003
+1.1840000e+004    +5.6990492e-003
+1.1856000e+004    +6.1701383e-003
+1.1872000e+004    +5.6906235e-003
+1.1888000e+004    +1.9643942e-003
+1.1904000e+004    +2.9765465e-003
+1.1920000e+004    +4.0337644e-003
+1.1936000e+004    +2.1880879e-003
+1.1952000e+004    +1.6585223e-003
+1.1968000e+004    +9.2745846e-004
+1.1984000e+004    +3.0288296e-003
+1.2000000e+004    +3.0808859e-003
+1.2016000e+004    +1.0983717e-003
+1.2032000e+004    +1.7431382e-003
+1.2048000e+004    +3.9725476e-003
+1.2064000e+004    +5.7726367e-003
+1.2080000e+004    +9.7592482e-003
+1.2096000e+004    +3.0287183e-003
+1.2112000e+004    +5.3156647e-003
+1.2128000e+004    +6.8943463e-003
+1.2144000e+004    +3.2052770e-003
+1.2160000e+004    +4.7322395e-003
+1.2176000e+004    +5.1509277e-003
+1.2192000e+004    +6.4226775e-003
+1.2208000e+004    +5.9976918e-003
+1.2224000e+004    +6.9936696e-003
+1.2240000e+004    +1.0017420e-002
+1.2256000e+004    +1.1187287e-002
+1.2272000e+004    +3.8540892e-003
+1.2288000e+004    +2.3981831e-003
+1.2304000e+004    +1.8780892e-003
+1.2320000e+004    +2.6745715e-003
+1.2336000e+004    +1.5785346e-003
+1.2352000e+004    +1.9879956e-003
+1.2368000e+004    +3.8528517e-003
+1.2384000e+004    +5.7209539e-003
+1.2400000e+004    +6.8640965e-003
+1.2416000e+004    +8.2185538e-003
+1.2432000e+004    +6.7928643e-003
+1.2448000e+004    +5.2582119e-003
+1.2464000e+004    +5.1800879e-003
+1.2480000e+004    +1.6072724e-003
+1.2496000e+004    +3.8229693e-003
+1.2512000e+004    +3.9413106e-003
+1.2528000e+004    +5.1193596e-003
+1.2544000e+004    +4.4537368e-003
+1.2560000e+004    +2.9443819e-003
+1.2576000e+004    +1.0266327e-002
+1.2592000e+004    +5.8213309e-003
+1.2608000e+004    +4.4499119e-003
+1.2624000e+004    +6.9932393e-003
+1.2640000e+004    +6.1757294e-003
+1.2656000e+004    +8.1616146e-003
+1.2672000e+004    +8.6113643e-003
+1.2688000e+004    +4.1816337e-003
+1.2704000e+004    +5.4992535e-003
+1.2720000e+004    +9.9486765e-003
+1.2736000e+004    +2.8896626e-002
+1.2752000e+004    +4.8695602e-002
+1.2768000e+004    +4.9212076e-002
+1.2784000e+004    +1.6140819e-002
