# SR785 Measurement - Timestamp: Jan 24 2019 - 07:37:35
#---------- Measurement Setup ------------
# Start Frequency (Hz): 0.000000
# Frequency Span (Hz): 12800.000000
# Frequency Resolution: 800
# Number of Averages: 2
# Averaging Mode: None
# Window function: BMH
#---------- Measurement Parameters ----------
# Measurement Group:  "FFT" "FFT"
# Measurements:  "FFT 1" "FFT 2"
# View:  "Log Magnitude" "Log Magnitude"
# Unit:  "Vrms/rtHz" "Vpk"
#---------- Input Parameters ----------
# Input Source: Analog
# Input Mode: Single ended, Single ended
# Input Grounding: Float, Float
# Input Coupling: AC, AC
# Input Range: 6.0dBVpk, 6.0dBVpk
# Auto Range: Off, Off
# Auto Range Mode: Up Only, Normal
# Anti-Aliasing Filter: On, On
#---------- Source Parameters ----------
# Source Type: Sine
# Source Amplitude: 500.0mVpk
# Source On: 0

#---------- Measurement Data ----------
# [Freq(Hz) Display 0(Vrms/rtHz) Display 1(Vpk) ]
+0.0000000e+000    +9.7296737e-002
+1.6000000e+001    +6.9166601e-002
+3.2000000e+001    +2.4065260e-002
+4.8000000e+001    +1.2109576e-002
+6.4000000e+001    +6.5890728e-003
+8.0000000e+001    +3.9573130e-003
+9.6000000e+001    +5.1113646e-003
+1.1200000e+002    +9.8108975e-003
+1.2800000e+002    +2.6609264e-003
+1.4400000e+002    +4.8101353e-003
+1.6000000e+002    +3.8837907e-003
+1.7600000e+002    +3.1296983e-003
+1.9200000e+002    +3.3804539e-003
+2.0800000e+002    +5.6673284e-003
+2.2400000e+002    +1.7825370e-003
+2.4000000e+002    +5.8401108e-004
+2.5600000e+002    +4.6241349e-003
+2.7200000e+002    +1.2788326e-003
+2.8800000e+002    +5.0098728e-003
+3.0400000e+002    +7.5450800e-003
+3.2000000e+002    +6.8671834e-003
+3.3600000e+002    +8.1694452e-003
+3.5200000e+002    +7.5674015e-003
+3.6800000e+002    +3.3255077e-003
+3.8400000e+002    +3.3121475e-003
+4.0000000e+002    +5.9103617e-004
+4.1600000e+002    +1.1052903e-003
+4.3200000e+002    +1.7916029e-003
+4.4800000e+002    +4.5449478e-003
+4.6400000e+002    +9.6579669e-003
+4.8000000e+002    +4.2385869e-003
+4.9600000e+002    +6.7707160e-003
+5.1200000e+002    +7.8642629e-003
+5.2800000e+002    +5.0604823e-003
+5.4400000e+002    +3.1792703e-003
+5.6000000e+002    +2.9309206e-003
+5.7600000e+002    +6.9944528e-003
+5.9200000e+002    +8.2232701e-003
+6.0800000e+002    +3.8868322e-003
+6.2400000e+002    +3.2911492e-003
+6.4000000e+002    +3.3967944e-003
+6.5600000e+002    +4.4579934e-003
+6.7200000e+002    +4.6058348e-003
+6.8800000e+002    +8.3962595e-003
+7.0400000e+002    +8.4480438e-003
+7.2000000e+002    +6.6525298e-003
+7.3600000e+002    +3.9711064e-003
+7.5200000e+002    +2.4681087e-003
+7.6800000e+002    +2.7979047e-003
+7.8400000e+002    +1.1107782e-003
+8.0000000e+002    +1.3734900e-003
+8.1600000e+002    +2.2170737e-003
+8.3200000e+002    +3.2445691e-003
+8.4800000e+002    +5.1328451e-003
+8.6400000e+002    +5.7597593e-003
+8.8000000e+002    +6.0974853e-003
+8.9600000e+002    +4.1871746e-003
+9.1200000e+002    +3.7314999e-003
+9.2800000e+002    +3.5612923e-003
+9.4400000e+002    +2.7702271e-003
+9.6000000e+002    +3.0830498e-003
+9.7600000e+002    +3.6747758e-003
+9.9200000e+002    +3.8041000e-003
+1.0080000e+003    +1.9160120e-003
+1.0240000e+003    +2.1806327e-003
+1.0400000e+003    +5.3048725e-003
+1.0560000e+003    +4.9907891e-003
+1.0720000e+003    +5.0291787e-003
+1.0880000e+003    +4.2245351e-003
+1.1040000e+003    +8.7440591e-003
+1.1200000e+003    +1.1014533e-002
+1.1360000e+003    +7.3913112e-003
+1.1520000e+003    +2.2702808e-003
+1.1680000e+003    +3.6172415e-003
+1.1840000e+003    +2.6267490e-003
+1.2000000e+003    +2.1420582e-003
+1.2160000e+003    +3.7672406e-003
+1.2320000e+003    +5.2247499e-003
+1.2480000e+003    +5.2446160e-003
+1.2640000e+003    +6.6813598e-003
+1.2800000e+003    +8.6595574e-003
+1.2960000e+003    +9.4184866e-003
+1.3120000e+003    +8.4760515e-003
+1.3280000e+003    +5.8137551e-003
+1.3440000e+003    +4.7632973e-003
+1.3600000e+003    +9.5438835e-004
+1.3760000e+003    +2.4915487e-003
+1.3920000e+003    +3.2196271e-003
+1.4080000e+003    +7.3932102e-003
+1.4240000e+003    +5.7694241e-003
+1.4400000e+003    +3.9646151e-003
+1.4560000e+003    +8.1168825e-004
+1.4720000e+003    +3.6107320e-003
+1.4880000e+003    +1.2140442e-002
+1.5040000e+003    +1.3000118e-002
+1.5200000e+003    +1.3696566e-002
+1.5360000e+003    +1.3706285e-002
+1.5520000e+003    +6.8129832e-003
+1.5680000e+003    +4.3377425e-003
+1.5840000e+003    +3.8644536e-003
+1.6000000e+003    +5.1532555e-003
+1.6160000e+003    +4.2647007e-003
+1.6320000e+003    +6.4786403e-003
+1.6480000e+003    +4.8242225e-003
+1.6640000e+003    +1.0940952e-003
+1.6800000e+003    +1.5073883e-002
+1.6960000e+003    +1.2716116e-002
+1.7120000e+003    +8.6122807e-003
+1.7280000e+003    +1.6201159e-002
+1.7440000e+003    +1.9875951e-003
+1.7600000e+003    +1.7678060e-003
+1.7760000e+003    +1.1569591e-003
+1.7920000e+003    +2.2053947e-003
+1.8080000e+003    +4.1587176e-003
+1.8240000e+003    +5.8037615e-003
+1.8400000e+003    +4.4518961e-003
+1.8560000e+003    +1.8264574e-003
+1.8720000e+003    +1.0672600e-003
+1.8880000e+003    +1.0951733e-003
+1.9040000e+003    +1.2071623e-003
+1.9200000e+003    +3.8093873e-003
+1.9360000e+003    +1.7773005e-003
+1.9520000e+003    +2.3144158e-003
+1.9680000e+003    +4.5771729e-003
+1.9840000e+003    +4.9271220e-003
+2.0000000e+003    +3.0405615e-003
+2.0160000e+003    +4.7626100e-003
+2.0320000e+003    +3.4009556e-003
+2.0480000e+003    +5.1059126e-004
+2.0640000e+003    +4.0799812e-003
+2.0800000e+003    +4.3626331e-002
+2.0960000e+003    +1.3961595e-002
+2.1120000e+003    +5.0582075e-003
+2.1280000e+003    +3.2295529e-002
+2.1440000e+003    +5.1375344e-002
+2.1600000e+003    +1.5814634e-002
+2.1760000e+003    +8.3554462e-003
+2.1920000e+003    +4.6286914e-003
+2.2080000e+003    +6.1118859e-003
+2.2240000e+003    +5.1746247e-003
+2.2400000e+003    +1.1196967e-003
+2.2560000e+003    +2.5282213e-003
+2.2720000e+003    +7.1901642e-003
+2.2880000e+003    +2.9823680e-003
+2.3040000e+003    +5.6755231e-003
+2.3200000e+003    +7.2429623e-003
+2.3360000e+003    +7.3461337e-003
+2.3520000e+003    +6.5166224e-003
+2.3680000e+003    +3.9444515e-003
+2.3840000e+003    +3.7543492e-003
+2.4000000e+003    +6.7881786e-004
+2.4160000e+003    +5.1094904e-003
+2.4320000e+003    +8.2710581e-003
+2.4480000e+003    +1.9143634e-003
+2.4640000e+003    +2.0206405e-003
+2.4800000e+003    +1.0261518e-003
+2.4960000e+003    +2.6472607e-003
+2.5120000e+003    +2.3084062e-003
+2.5280000e+003    +2.4612311e-003
+2.5440000e+003    +1.8018562e-003
+2.5600000e+003    +6.2611827e-004
+2.5760000e+003    +4.3784245e-003
+2.5920000e+003    +2.1280202e-003
+2.6080000e+003    +3.2548755e-003
+2.6240000e+003    +2.7679864e-003
+2.6400000e+003    +1.1811225e-003
+2.6560000e+003    +4.7977348e-003
+2.6720000e+003    +6.8489686e-003
+2.6880000e+003    +8.5077984e-003
+2.7040000e+003    +2.8318516e-003
+2.7200000e+003    +2.1413986e-003
+2.7360000e+003    +3.2848786e-003
+2.7520000e+003    +3.6356628e-003
+2.7680000e+003    +1.9263511e-003
+2.7840000e+003    +2.2111603e-003
+2.8000000e+003    +1.7115473e-003
+2.8160000e+003    +1.8077068e-003
+2.8320000e+003    +1.4947922e-003
+2.8480000e+003    +2.8610602e-004
+2.8640000e+003    +9.8809274e-004
+2.8800000e+003    +1.2524694e-003
+2.8960000e+003    +1.1552169e-003
+2.9120000e+003    +1.1364132e-002
+2.9280000e+003    +5.0952667e-003
+2.9440000e+003    +4.0073134e-003
+2.9600000e+003    +2.0516894e-003
+2.9760000e+003    +2.4667040e-003
+2.9920000e+003    +3.8772654e-003
+3.0080000e+003    +4.3365355e-003
+3.0240000e+003    +3.4892110e-003
+3.0400000e+003    +3.7220865e-003
+3.0560000e+003    +4.2971792e-003
+3.0720000e+003    +4.7680670e-003
+3.0880000e+003    +4.1757817e-003
+3.1040000e+003    +1.5530697e-002
+3.1200000e+003    +1.6500318e-002
+3.1360000e+003    +9.5707104e-003
+3.1520000e+003    +3.1632136e-003
+3.1680000e+003    +3.2198729e-003
+3.1840000e+003    +9.6778646e-003
+3.2000000e+003    +1.1072760e-002
+3.2160000e+003    +9.7887972e-003
+3.2320000e+003    +1.4041369e-002
+3.2480000e+003    +1.8604778e-002
+3.2640000e+003    +2.4178881e-002
+3.2800000e+003    +2.6948471e-002
+3.2960000e+003    +1.3301092e-002
+3.3120000e+003    +8.4764976e-003
+3.3280000e+003    +4.1931691e-003
+3.3440000e+003    +5.3681843e-003
+3.3600000e+003    +7.6566101e-003
+3.3760000e+003    +3.5935021e-003
+3.3920000e+003    +7.7950987e-003
+3.4080000e+003    +8.5609900e-003
+3.4240000e+003    +4.1939612e-003
+3.4400000e+003    +5.1712426e-003
+3.4560000e+003    +2.2702909e-003
+3.4720000e+003    +3.8152663e-003
+3.4880000e+003    +3.9306083e-003
+3.5040000e+003    +5.7144379e-003
+3.5200000e+003    +4.2009940e-003
+3.5360000e+003    +7.5610192e-003
+3.5520000e+003    +1.0407879e-002
+3.5680000e+003    +8.4010959e-003
+3.5840000e+003    +9.5217880e-003
+3.6000000e+003    +8.6959200e-003
+3.6160000e+003    +6.3022650e-003
+3.6320000e+003    +4.1844076e-003
+3.6480000e+003    +9.7242985e-003
+3.6640000e+003    +8.2692644e-003
+3.6800000e+003    +3.9261463e-003
+3.6960000e+003    +3.4373642e-003
+3.7120000e+003    +3.7147847e-003
+3.7280000e+003    +7.3793018e-004
+3.7440000e+003    +1.2915300e-003
+3.7600000e+003    +5.7892888e-003
+3.7760000e+003    +8.0620721e-003
+3.7920000e+003    +1.2050782e-002
+3.8080000e+003    +1.2780327e-002
+3.8240000e+003    +5.1400862e-003
+3.8400000e+003    +3.3476476e-003
+3.8560000e+003    +1.7480706e-003
+3.8720000e+003    +5.4124976e-003
+3.8880000e+003    +3.9587691e-003
+3.9040000e+003    +3.3921581e-003
+3.9200000e+003    +4.1471315e-003
+3.9360000e+003    +3.5004173e-003
+3.9520000e+003    +4.3142880e-003
+3.9680000e+003    +2.0391713e-003
+3.9840000e+003    +3.8155720e-003
+4.0000000e+003    +3.6893478e-003
+4.0160000e+003    +1.1533704e-002
+4.0320000e+003    +9.8456778e-003
+4.0480000e+003    +7.2666993e-003
+4.0640000e+003    +4.5815571e-003
+4.0800000e+003    +2.8569214e-003
+4.0960000e+003    +8.0632186e-003
+4.1120000e+003    +8.9211501e-003
+4.1280000e+003    +1.0199324e-002
+4.1440000e+003    +8.6819772e-003
+4.1600000e+003    +5.7726335e-003
+4.1760000e+003    +3.8187951e-003
+4.1920000e+003    +9.0565011e-003
+4.2080000e+003    +1.2892798e-002
+4.2240000e+003    +6.3758665e-003
+4.2400000e+003    +2.1423912e-003
+4.2560000e+003    +2.9752313e-004
+4.2720000e+003    +3.4185888e-003
+4.2880000e+003    +6.9188820e-003
+4.3040000e+003    +6.1708628e-003
+4.3200000e+003    +7.5930357e-003
+4.3360000e+003    +5.4655117e-003
+4.3520000e+003    +2.6567415e-003
+4.3680000e+003    +6.3555068e-003
+4.3840000e+003    +3.4746644e-003
+4.4000000e+003    +1.4657172e-003
+4.4160000e+003    +4.2062602e-003
+4.4320000e+003    +4.4401293e-003
+4.4480000e+003    +9.8189097e-003
+4.4640000e+003    +8.0325305e-003
+4.4800000e+003    +5.8711865e-003
+4.4960000e+003    +6.1584022e-003
+4.5120000e+003    +5.8191642e-003
+4.5280000e+003    +4.4198539e-003
+4.5440000e+003    +5.1994929e-003
+4.5600000e+003    +3.7628936e-003
+4.5760000e+003    +5.6193830e-003
+4.5920000e+003    +5.0215367e-003
+4.6080000e+003    +4.6657142e-003
+4.6240000e+003    +4.4665695e-003
+4.6400000e+003    +2.6514088e-003
+4.6560000e+003    +6.2323865e-003
+4.6720000e+003    +7.3665925e-003
+4.6880000e+003    +5.7867342e-003
+4.7040000e+003    +8.0272583e-003
+4.7200000e+003    +4.9365661e-003
+4.7360000e+003    +2.4033284e-003
+4.7520000e+003    +3.6645478e-003
+4.7680000e+003    +2.3139636e-003
+4.7840000e+003    +6.8149134e-003
+4.8000000e+003    +1.1909591e-002
+4.8160000e+003    +5.4665050e-004
+4.8320000e+003    +9.6111733e-004
+4.8480000e+003    +2.3351114e-003
+4.8640000e+003    +3.3583126e-003
+4.8800000e+003    +3.7544852e-003
+4.8960000e+003    +6.0401843e-003
+4.9120000e+003    +7.0736795e-003
+4.9280000e+003    +5.5184942e-003
+4.9440000e+003    +8.6957775e-003
+4.9600000e+003    +8.7610591e-004
+4.9760000e+003    +4.8805680e-003
+4.9920000e+003    +4.9545909e-003
+5.0080000e+003    +7.3141902e-004
+5.0240000e+003    +2.3102774e-003
+5.0400000e+003    +3.9567659e-003
+5.0560000e+003    +1.7291837e-003
+5.0720000e+003    +2.2671758e-003
+5.0880000e+003    +1.5844714e-002
+5.1040000e+003    +1.4222397e-002
+5.1200000e+003    +9.0400642e-003
+5.1360000e+003    +3.8121864e-003
+5.1520000e+003    +4.3578134e-003
+5.1680000e+003    +6.7074127e-003
+5.1840000e+003    +7.9365456e-003
+5.2000000e+003    +6.5155774e-003
+5.2160000e+003    +4.7660857e-003
+5.2320000e+003    +3.1417329e-003
+5.2480000e+003    +4.2373538e-003
+5.2640000e+003    +6.8193516e-003
+5.2800000e+003    +7.4629332e-003
+5.2960000e+003    +5.6722681e-003
+5.3120000e+003    +4.3110945e-003
+5.3280000e+003    +3.5272229e-003
+5.3440000e+003    +5.7528988e-003
+5.3600000e+003    +3.0596568e-003
+5.3760000e+003    +4.0975208e-003
+5.3920000e+003    +4.2841607e-003
+5.4080000e+003    +5.3444337e-003
+5.4240000e+003    +4.0933974e-003
+5.4400000e+003    +7.0779021e-003
+5.4560000e+003    +5.8624935e-003
+5.4720000e+003    +4.2263605e-003
+5.4880000e+003    +7.1200458e-003
+5.5040000e+003    +1.2051963e-002
+5.5200000e+003    +1.1273247e-002
+5.5360000e+003    +6.4142914e-003
+5.5520000e+003    +8.6025279e-003
+5.5680000e+003    +1.1653901e-002
+5.5840000e+003    +4.2813793e-003
+5.6000000e+003    +6.5950765e-003
+5.6160000e+003    +1.1082051e-002
+5.6320000e+003    +1.4512352e-002
+5.6480000e+003    +4.8506437e-003
+5.6640000e+003    +2.3194132e-003
+5.6800000e+003    +3.4335621e-003
+5.6960000e+003    +3.9221868e-003
+5.7120000e+003    +6.9693397e-003
+5.7280000e+003    +4.7103171e-003
+5.7440000e+003    +1.8633858e-003
+5.7600000e+003    +2.8438256e-003
+5.7760000e+003    +4.7195554e-003
+5.7920000e+003    +3.0383640e-003
+5.8080000e+003    +3.5452927e-003
+5.8240000e+003    +8.3079370e-004
+5.8400000e+003    +4.8202039e-003
+5.8560000e+003    +1.9462875e-003
+5.8720000e+003    +2.9242299e-003
+5.8880000e+003    +5.6781911e-004
+5.9040000e+003    +4.3903990e-003
+5.9200000e+003    +4.2801807e-003
+5.9360000e+003    +5.1231636e-003
+5.9520000e+003    +7.4844487e-004
+5.9680000e+003    +1.8526699e-002
+5.9840000e+003    +2.4507642e-002
+6.0000000e+003    +3.1160671e-002
+6.0160000e+003    +2.9012624e-002
+6.0320000e+003    +2.2712469e-002
+6.0480000e+003    +3.9695045e-003
+6.0640000e+003    +3.3822879e-003
+6.0800000e+003    +4.8341644e-003
+6.0960000e+003    +3.4754847e-003
+6.1120000e+003    +2.3049214e-003
+6.1280000e+003    +3.8070562e-003
+6.1440000e+003    +7.5254100e-003
+6.1600000e+003    +3.5255000e-003
+6.1760000e+003    +2.7454733e-003
+6.1920000e+003    +6.4151050e-003
+6.2080000e+003    +4.6547260e-003
+6.2240000e+003    +3.0053002e-003
+6.2400000e+003    +1.9706893e-003
+6.2560000e+003    +4.7824695e-003
+6.2720000e+003    +2.4013936e-003
+6.2880000e+003    +6.1381035e-003
+6.3040000e+003    +1.7352108e-002
+6.3200000e+003    +1.6739303e-002
+6.3360000e+003    +6.6881343e-003
+6.3520000e+003    +1.7582374e-002
+6.3680000e+003    +2.6869977e-002
+6.3840000e+003    +3.3033278e-002
+6.4000000e+003    +4.1044425e-002
+6.4160000e+003    +3.2056555e-002
+6.4320000e+003    +1.3504184e-003
+6.4480000e+003    +3.4190880e-003
+6.4640000e+003    +2.1955904e-003
+6.4800000e+003    +1.8594821e-004
+6.4960000e+003    +2.8627948e-003
+6.5120000e+003    +1.6270905e-003
+6.5280000e+003    +2.4019012e-003
+6.5440000e+003    +3.9833686e-003
+6.5600000e+003    +4.9413978e-003
+6.5760000e+003    +6.5528695e-003
+6.5920000e+003    +9.1076512e-003
+6.6080000e+003    +8.4751248e-003
+6.6240000e+003    +4.3343031e-003
+6.6400000e+003    +3.2863575e-003
+6.6560000e+003    +3.7884216e-003
+6.6720000e+003    +5.1880963e-003
+6.6880000e+003    +3.6603196e-003
+6.7040000e+003    +6.4231609e-003
+6.7200000e+003    +8.6904084e-003
+6.7360000e+003    +8.4160706e-003
+6.7520000e+003    +4.9924334e-003
+6.7680000e+003    +1.1442902e-002
+6.7840000e+003    +1.4747522e-002
+6.8000000e+003    +1.2875715e-002
+6.8160000e+003    +7.5233653e-003
+6.8320000e+003    +7.4629537e-003
+6.8480000e+003    +8.4213214e-003
+6.8640000e+003    +8.5265441e-003
+6.8800000e+003    +8.3861942e-004
+6.8960000e+003    +3.5432614e-003
+6.9120000e+003    +5.5642254e-003
+6.9280000e+003    +5.2999994e-003
+6.9440000e+003    +3.6822255e-003
+6.9600000e+003    +8.0886582e-004
+6.9760000e+003    +5.0122472e-003
+6.9920000e+003    +8.4612295e-003
+7.0080000e+003    +3.4763616e-002
+7.0240000e+003    +2.8898260e-002
+7.0400000e+003    +1.6600968e-002
+7.0560000e+003    +6.4664171e-003
+7.0720000e+003    +7.5118057e-003
+7.0880000e+003    +1.9140523e-003
+7.1040000e+003    +5.4750377e-003
+7.1200000e+003    +4.8842132e-003
+7.1360000e+003    +1.8855905e-003
+7.1520000e+003    +1.3069353e-003
+7.1680000e+003    +3.7343504e-003
+7.1840000e+003    +6.5410556e-003
+7.2000000e+003    +8.9783994e-003
+7.2160000e+003    +6.9615161e-003
+7.2320000e+003    +4.3241903e-003
+7.2480000e+003    +1.0805584e-002
+7.2640000e+003    +1.3325935e-002
+7.2800000e+003    +8.1769610e-003
+7.2960000e+003    +6.3458667e-003
+7.3120000e+003    +7.0492220e-003
+7.3280000e+003    +8.6199064e-003
+7.3440000e+003    +5.7170014e-003
+7.3600000e+003    +4.0625571e-003
+7.3760000e+003    +6.2531135e-003
+7.3920000e+003    +6.5476447e-003
+7.4080000e+003    +5.7283081e-003
+7.4240000e+003    +8.2304375e-003
+7.4400000e+003    +6.3080834e-003
+7.4560000e+003    +5.4974519e-003
+7.4720000e+003    +1.0178080e-002
+7.4880000e+003    +8.0518816e-003
+7.5040000e+003    +6.2688421e-003
+7.5200000e+003    +9.5914230e-003
+7.5360000e+003    +1.2925138e-002
+7.5520000e+003    +1.3242469e-002
+7.5680000e+003    +7.9405457e-003
+7.5840000e+003    +1.6997958e-003
+7.6000000e+003    +5.0249482e-003
+7.6160000e+003    +5.9433514e-003
+7.6320000e+003    +4.2138039e-003
+7.6480000e+003    +5.8807834e-004
+7.6640000e+003    +1.6744776e-003
+7.6800000e+003    +2.6186558e-003
+7.6960000e+003    +5.8060079e-003
+7.7120000e+003    +7.0091132e-003
+7.7280000e+003    +6.1165853e-003
+7.7440000e+003    +4.4606030e-003
+7.7600000e+003    +5.0742556e-003
+7.7760000e+003    +1.7215332e-003
+7.7920000e+003    +2.0231358e-003
+7.8080000e+003    +5.7183607e-003
+7.8240000e+003    +2.9970822e-003
+7.8400000e+003    +1.9765291e-003
+7.8560000e+003    +1.8557151e-003
+7.8720000e+003    +5.7497289e-004
+7.8880000e+003    +2.7025125e-003
+7.9040000e+003    +4.6987548e-003
+7.9200000e+003    +5.1335241e-003
+7.9360000e+003    +2.8907685e-003
+7.9520000e+003    +6.1666775e-003
+7.9680000e+003    +7.2341561e-003
+7.9840000e+003    +3.8735061e-003
+8.0000000e+003    +3.6915664e-003
+8.0160000e+003    +5.9255599e-003
+8.0320000e+003    +5.4353746e-003
+8.0480000e+003    +4.7055022e-003
+8.0640000e+003    +6.4448765e-003
+8.0800000e+003    +1.6514991e-003
+8.0960000e+003    +3.5398959e-003
+8.1120000e+003    +4.3041063e-003
+8.1280000e+003    +2.3669165e-003
+8.1440000e+003    +2.6482565e-003
+8.1600000e+003    +2.9231675e-003
+8.1760000e+003    +1.7163290e-003
+8.1920000e+003    +3.4074779e-004
+8.2080000e+003    +2.2872894e-003
+8.2240000e+003    +1.4772553e-003
+8.2400000e+003    +8.6556602e-004
+8.2560000e+003    +4.3639829e-004
+8.2720000e+003    +2.5999139e-003
+8.2880000e+003    +1.0085333e-003
+8.3040000e+003    +2.2431691e-003
+8.3200000e+003    +3.5577905e-003
+8.3360000e+003    +2.0172622e-003
+8.3520000e+003    +1.3934078e-003
+8.3680000e+003    +6.8712258e-004
+8.3840000e+003    +6.9831189e-004
+8.4000000e+003    +1.2870390e-003
+8.4160000e+003    +2.4391070e-003
+8.4320000e+003    +1.6816262e-003
+8.4480000e+003    +3.7603226e-004
+8.4640000e+003    +1.6665421e-003
+8.4800000e+003    +1.3554229e-003
+8.4960000e+003    +1.3031145e-004
+8.5120000e+003    +2.1931534e-003
+8.5280000e+003    +2.8491574e-003
+8.5440000e+003    +9.6099597e-004
+8.5600000e+003    +1.5128595e-003
+8.5760000e+003    +2.1671115e-003
+8.5920000e+003    +2.1513188e-003
+8.6080000e+003    +1.4913233e-003
+8.6240000e+003    +3.8628778e-003
+8.6400000e+003    +3.4873860e-003
+8.6560000e+003    +2.1739199e-003
+8.6720000e+003    +1.7726739e-003
+8.6880000e+003    +2.1929559e-003
+8.7040000e+003    +1.9651158e-003
+8.7200000e+003    +3.0118243e-003
+8.7360000e+003    +2.5428564e-003
+8.7520000e+003    +9.8092773e-004
+8.7680000e+003    +2.0122938e-003
+8.7840000e+003    +3.9882963e-003
+8.8000000e+003    +5.2898577e-003
+8.8160000e+003    +2.2997644e-003
+8.8320000e+003    +1.6395109e-003
+8.8480000e+003    +1.6822392e-004
+8.8640000e+003    +1.3429744e-003
+8.8800000e+003    +4.9647656e-003
+8.8960000e+003    +5.6147389e-003
+8.9120000e+003    +9.2054913e-003
+8.9280000e+003    +8.2689198e-003
+8.9440000e+003    +1.3736762e-003
+8.9600000e+003    +1.6310256e-003
+8.9760000e+003    +1.7025302e-003
+8.9920000e+003    +3.6434850e-003
+9.0080000e+003    +4.3276288e-003
+9.0240000e+003    +1.3599747e-003
+9.0400000e+003    +2.0682216e-003
+9.0560000e+003    +2.9280661e-003
+9.0720000e+003    +4.0809130e-003
+9.0880000e+003    +8.2675535e-003
+9.1040000e+003    +5.0726957e-003
+9.1200000e+003    +4.7405679e-003
+9.1360000e+003    +3.7183431e-003
+9.1520000e+003    +1.0712869e-003
+9.1680000e+003    +2.7857032e-003
+9.1840000e+003    +1.9017006e-003
+9.2000000e+003    +9.9778571e-004
+9.2160000e+003    +2.3550713e-003
+9.2320000e+003    +5.3504957e-003
+9.2480000e+003    +3.5218922e-003
+9.2640000e+003    +4.1749589e-003
+9.2800000e+003    +3.9508836e-003
+9.2960000e+003    +8.5921781e-003
+9.3120000e+003    +8.0545293e-003
+9.3280000e+003    +6.9356374e-003
+9.3440000e+003    +4.2239251e-003
+9.3600000e+003    +8.3987630e-004
+9.3760000e+003    +2.1507330e-003
+9.3920000e+003    +3.3719540e-003
+9.4080000e+003    +3.6119751e-003
+9.4240000e+003    +8.3316327e-004
+9.4400000e+003    +1.9012078e-003
+9.4560000e+003    +1.2328560e-003
+9.4720000e+003    +1.2488065e-003
+9.4880000e+003    +1.6835346e-003
+9.5040000e+003    +5.8384533e-003
+9.5200000e+003    +3.6646123e-003
+9.5360000e+003    +3.8758842e-003
+9.5520000e+003    +7.6594269e-003
+9.5680000e+003    +5.1383399e-003
+9.5840000e+003    +3.1445764e-003
+9.6000000e+003    +1.3805635e-003
+9.6160000e+003    +1.0758763e-003
+9.6320000e+003    +1.3524974e-003
+9.6480000e+003    +2.5541931e-003
+9.6640000e+003    +2.0842357e-003
+9.6800000e+003    +8.3713600e-004
+9.6960000e+003    +1.7704021e-003
+9.7120000e+003    +2.4556369e-003
+9.7280000e+003    +1.8762486e-003
+9.7440000e+003    +1.9500607e-003
+9.7600000e+003    +3.5932891e-003
+9.7760000e+003    +2.0688451e-003
+9.7920000e+003    +2.7049021e-003
+9.8080000e+003    +3.8338036e-003
+9.8240000e+003    +3.0005525e-003
+9.8400000e+003    +6.4719538e-003
+9.8560000e+003    +5.3743175e-003
+9.8720000e+003    +6.9004921e-003
+9.8880000e+003    +1.0727824e-002
+9.9040000e+003    +8.5432986e-003
+9.9200000e+003    +8.9226784e-003
+9.9360000e+003    +7.7266321e-003
+9.9520000e+003    +9.1518922e-004
+9.9680000e+003    +3.4380513e-003
+9.9840000e+003    +2.7496319e-003
+1.0000000e+004    +2.2252984e-003
+1.0016000e+004    +3.8040248e-003
+1.0032000e+004    +1.0592232e-002
+1.0048000e+004    +1.0104813e-002
+1.0064000e+004    +8.3312578e-003
+1.0080000e+004    +5.0776997e-003
+1.0096000e+004    +3.4569034e-003
+1.0112000e+004    +3.3674992e-003
+1.0128000e+004    +7.1001626e-003
+1.0144000e+004    +7.8853332e-003
+1.0160000e+004    +8.3784955e-003
+1.0176000e+004    +9.0526240e-003
+1.0192000e+004    +1.0193388e-002
+1.0208000e+004    +8.6496845e-003
+1.0224000e+004    +1.1393382e-002
+1.0240000e+004    +1.1628555e-002
+1.0256000e+004    +7.7263308e-003
+1.0272000e+004    +3.4145017e-003
+1.0288000e+004    +9.7453445e-003
+1.0304000e+004    +4.0126541e-003
+1.0320000e+004    +6.5993825e-003
+1.0336000e+004    +7.9909936e-003
+1.0352000e+004    +4.4428213e-003
+1.0368000e+004    +3.4600550e-003
+1.0384000e+004    +5.1187412e-003
+1.0400000e+004    +2.0385077e-004
+1.0416000e+004    +1.5192423e-003
+1.0432000e+004    +3.7220314e-003
+1.0448000e+004    +3.1543402e-003
+1.0464000e+004    +3.4925244e-003
+1.0480000e+004    +7.0717419e-003
+1.0496000e+004    +9.0539558e-003
+1.0512000e+004    +1.0386216e-002
+1.0528000e+004    +9.9986931e-003
+1.0544000e+004    +1.1429030e-002
+1.0560000e+004    +6.4994013e-003
+1.0576000e+004    +1.8384072e-003
+1.0592000e+004    +2.3179164e-003
+1.0608000e+004    +6.1765467e-003
+1.0624000e+004    +3.7279699e-003
+1.0640000e+004    +5.1030740e-003
+1.0656000e+004    +7.4813637e-004
+1.0672000e+004    +1.0210590e-003
+1.0688000e+004    +7.9177716e-004
+1.0704000e+004    +2.1565654e-003
+1.0720000e+004    +2.9135563e-003
+1.0736000e+004    +4.2905742e-003
+1.0752000e+004    +2.9881792e-003
+1.0768000e+004    +1.8147217e-003
+1.0784000e+004    +4.2942977e-003
+1.0800000e+004    +2.5501524e-003
+1.0816000e+004    +3.1321906e-003
+1.0832000e+004    +5.7645170e-003
+1.0848000e+004    +8.2653752e-003
+1.0864000e+004    +9.5748147e-003
+1.0880000e+004    +5.2840733e-003
+1.0896000e+004    +5.9999046e-003
+1.0912000e+004    +9.5760599e-003
+1.0928000e+004    +5.3817309e-003
+1.0944000e+004    +2.6795801e-003
+1.0960000e+004    +8.4951883e-003
+1.0976000e+004    +1.1309706e-002
+1.0992000e+004    +5.2227224e-003
+1.1008000e+004    +1.0105770e-002
+1.1024000e+004    +7.3731067e-003
+1.1040000e+004    +4.4658855e-003
+1.1056000e+004    +1.0751427e-002
+1.1072000e+004    +1.2095215e-002
+1.1088000e+004    +1.2053862e-002
+1.1104000e+004    +8.6894594e-003
+1.1120000e+004    +3.0498530e-003
+1.1136000e+004    +2.7819453e-003
+1.1152000e+004    +4.5230514e-003
+1.1168000e+004    +5.7772752e-003
+1.1184000e+004    +3.5066954e-003
+1.1200000e+004    +1.8333931e-003
+1.1216000e+004    +1.6952974e-003
+1.1232000e+004    +4.2220796e-003
+1.1248000e+004    +6.4801341e-003
+1.1264000e+004    +1.2602424e-003
+1.1280000e+004    +8.7532710e-004
+1.1296000e+004    +3.9708470e-003
+1.1312000e+004    +5.2592596e-003
+1.1328000e+004    +1.7823981e-003
+1.1344000e+004    +3.5472200e-003
+1.1360000e+004    +5.5073504e-003
+1.1376000e+004    +5.1056575e-003
+1.1392000e+004    +3.9835195e-003
+1.1408000e+004    +5.0497511e-003
+1.1424000e+004    +2.3687584e-003
+1.1440000e+004    +7.7425041e-003
+1.1456000e+004    +1.0167433e-002
+1.1472000e+004    +6.5951847e-004
+1.1488000e+004    +3.6453279e-003
+1.1504000e+004    +3.9768508e-003
+1.1520000e+004    +2.2480991e-003
+1.1536000e+004    +4.7215302e-003
+1.1552000e+004    +4.3084635e-003
+1.1568000e+004    +4.0200930e-003
+1.1584000e+004    +1.7903642e-003
+1.1600000e+004    +7.0979646e-003
+1.1616000e+004    +6.9293007e-003
+1.1632000e+004    +4.4355830e-003
+1.1648000e+004    +4.4419966e-003
+1.1664000e+004    +6.5234052e-003
+1.1680000e+004    +8.8877138e-003
+1.1696000e+004    +1.0897513e-002
+1.1712000e+004    +1.1904486e-002
+1.1728000e+004    +8.3033182e-003
+1.1744000e+004    +5.3324620e-003
+1.1760000e+004    +6.1273365e-003
+1.1776000e+004    +6.8578329e-003
+1.1792000e+004    +7.1444628e-003
+1.1808000e+004    +4.7403309e-003
+1.1824000e+004    +1.4341892e-003
+1.1840000e+004    +5.0320621e-003
+1.1856000e+004    +3.1647906e-003
+1.1872000e+004    +5.7240799e-003
+1.1888000e+004    +5.5930349e-003
+1.1904000e+004    +3.7942182e-003
+1.1920000e+004    +3.5142731e-003
+1.1936000e+004    +5.6079864e-003
+1.1952000e+004    +3.2541752e-003
+1.1968000e+004    +5.7644569e-003
+1.1984000e+004    +5.5661318e-003
+1.2000000e+004    +3.0577460e-003
+1.2016000e+004    +9.3820328e-003
+1.2032000e+004    +9.2141218e-003
+1.2048000e+004    +8.1380270e-003
+1.2064000e+004    +7.1476875e-003
+1.2080000e+004    +2.4520091e-003
+1.2096000e+004    +1.2452952e-003
+1.2112000e+004    +2.1419267e-003
+1.2128000e+004    +3.3527680e-003
+1.2144000e+004    +3.9647934e-003
+1.2160000e+004    +2.1039839e-003
+1.2176000e+004    +2.7649186e-003
+1.2192000e+004    +5.5449414e-003
+1.2208000e+004    +5.6381738e-003
+1.2224000e+004    +4.3800613e-003
+1.2240000e+004    +9.2074722e-003
+1.2256000e+004    +1.2992430e-002
+1.2272000e+004    +1.4129261e-002
+1.2288000e+004    +5.2464418e-003
+1.2304000e+004    +4.1812644e-003
+1.2320000e+004    +7.1894536e-003
+1.2336000e+004    +9.8315151e-003
+1.2352000e+004    +7.6083243e-003
+1.2368000e+004    +7.3881145e-003
+1.2384000e+004    +4.7745733e-003
+1.2400000e+004    +3.2682847e-003
+1.2416000e+004    +4.8221997e-003
+1.2432000e+004    +2.0304739e-003
+1.2448000e+004    +3.4543080e-003
+1.2464000e+004    +1.6259127e-003
+1.2480000e+004    +3.3098843e-003
+1.2496000e+004    +2.7728761e-003
+1.2512000e+004    +2.6377616e-003
+1.2528000e+004    +5.1330705e-003
+1.2544000e+004    +1.1474540e-002
+1.2560000e+004    +8.9293579e-003
+1.2576000e+004    +8.9304410e-003
+1.2592000e+004    +1.0596079e-002
+1.2608000e+004    +5.4349271e-003
+1.2624000e+004    +1.2574546e-002
+1.2640000e+004    +1.7527647e-002
+1.2656000e+004    +1.1678341e-002
+1.2672000e+004    +2.6445081e-003
+1.2688000e+004    +1.2016403e-002
+1.2704000e+004    +8.8300640e-003
+1.2720000e+004    +5.5174548e-003
+1.2736000e+004    +1.0234705e-002
+1.2752000e+004    +2.7293665e-002
+1.2768000e+004    +3.5343800e-002
+1.2784000e+004    +2.0995082e-002
