# North DC Val: 0.6667962300000001 VoltsSouth DC Val: 0.6068706300000001 Volts
# SR785 Measurement - Timestamp: Jul 06 2020 - 09:09:05
# Parameter File: /home/controls/Git/cit_ctnlab/ctn_scripts/TransRINSpecLong.yml
#---------- Measurement Setup ------------
# Start Frequency (Hz): 0.000000
# Frequency Span (Hz): 800.000000
# Frequency Resolution: 800
# Number of Averages: 100
# Averaging Mode: RMS
# Window function: Hanning
#---------- Measurement Parameters ----------
# Measurement Group:  "FFT" "FFT"
# Measurements:  "FFT 1" "FFT 2"
# View:  "Log Magnitude" "Log Magnitude"
# Unit:  "Vrms/rtHz" "Vrms/rtHz"
#---------- Input Parameters ----------
# Input Source: Analog
# Input Mode: Single ended, Single ended
# Input Grounding: Float, Float
# Input Coupling: AC, AC
# Input Range: -36.0dBVpk, -36.0dBVpk
# Auto Range: Off, Off
# Auto Range Mode: Tracking, Tracking
# Anti-Aliasing Filter: On, On
#---------- Source Parameters ----------
# Source Type: Sine
# Source Amplitude: 500.0mVpk
# Source On: 0

#---------- Measurement Data ----------
# [Freq(Hz) Display 0(Vrms/rtHz) Display 1(Vrms/rtHz) ]
+0.0000000e+000    +6.3213991e-004    +2.4416446e-004
+1.0000000e+000    +4.7181253e-004    +1.4223924e-004
+2.0000000e+000    +4.1832778e-004    +3.4224719e-005
+3.0000000e+000    +3.6964761e-004    +1.9583922e-005
+4.0000000e+000    +1.3458756e-004    +9.4567176e-006
+5.0000000e+000    +3.7974754e-005    +4.0124687e-006
+6.0000000e+000    +2.3205583e-005    +2.5078305e-006
+7.0000000e+000    +2.3495932e-005    +1.9804218e-006
+8.0000000e+000    +1.5633424e-005    +1.6178246e-006
+9.0000000e+000    +1.0857525e-005    +1.4322355e-006
+1.0000000e+001    +9.6589947e-006    +1.2001184e-006
+1.1000000e+001    +8.9310388e-006    +1.0542925e-006
+1.2000000e+001    +8.6419004e-006    +8.0917050e-007
+1.3000000e+001    +9.6173535e-006    +6.7768366e-007
+1.4000000e+001    +9.5826654e-006    +5.9485512e-007
+1.5000000e+001    +6.3474449e-006    +5.4377267e-007
+1.6000000e+001    +4.1428807e-006    +5.0805215e-007
+1.7000000e+001    +4.2580891e-006    +4.5200602e-007
+1.8000000e+001    +3.7613570e-006    +3.6491761e-007
+1.9000000e+001    +3.5133239e-006    +3.4678709e-007
+2.0000000e+001    +3.7147338e-006    +3.3713985e-007
+2.1000000e+001    +3.2472776e-006    +3.0919975e-007
+2.2000000e+001    +2.3461027e-006    +2.8696914e-007
+2.3000000e+001    +2.0487732e-006    +2.6043193e-007
+2.4000000e+001    +1.7995668e-006    +2.4289812e-007
+2.5000000e+001    +1.2736667e-006    +2.0819120e-007
+2.6000000e+001    +1.2268928e-006    +2.0173641e-007
+2.7000000e+001    +1.2396223e-006    +1.9768655e-007
+2.8000000e+001    +1.1377241e-006    +2.0154800e-007
+2.9000000e+001    +1.1868743e-006    +1.7831007e-007
+3.0000000e+001    +1.2430746e-006    +1.6472072e-007
+3.1000000e+001    +9.0864461e-007    +1.5815306e-007
+3.2000000e+001    +8.3766605e-007    +1.6026890e-007
+3.3000000e+001    +9.1893031e-007    +1.6052954e-007
+3.4000000e+001    +1.2873860e-006    +1.4345616e-007
+3.5000000e+001    +8.1820440e-007    +1.3506424e-007
+3.6000000e+001    +5.0656331e-007    +1.2901580e-007
+3.7000000e+001    +4.9680295e-007    +1.1924386e-007
+3.8000000e+001    +4.6296873e-007    +1.2107408e-007
+3.9000000e+001    +4.6332318e-007    +1.2210886e-007
+4.0000000e+001    +4.7799705e-007    +1.1444444e-007
+4.1000000e+001    +4.6587064e-007    +1.1235019e-007
+4.2000000e+001    +4.1173865e-007    +1.0637352e-007
+4.3000000e+001    +4.4485566e-007    +1.1599093e-007
+4.4000000e+001    +3.9886268e-007    +1.1199266e-007
+4.5000000e+001    +3.7524430e-007    +1.0578697e-007
+4.6000000e+001    +3.5792968e-007    +1.0441791e-007
+4.7000000e+001    +3.8160286e-007    +9.3177235e-008
+4.8000000e+001    +4.2871886e-007    +9.5850432e-008
+4.9000000e+001    +4.2556076e-007    +9.1547008e-008
+5.0000000e+001    +4.5618756e-007    +8.5456769e-008
+5.1000000e+001    +4.5956489e-007    +8.8181764e-008
+5.2000000e+001    +4.6531139e-007    +8.7802562e-008
+5.3000000e+001    +4.9138401e-007    +8.8284352e-008
+5.4000000e+001    +5.7065722e-007    +8.3877595e-008
+5.5000000e+001    +5.7943123e-007    +8.3878149e-008
+5.6000000e+001    +5.5107165e-007    +8.1377323e-008
+5.7000000e+001    +5.6707211e-007    +7.9045684e-008
+5.8000000e+001    +6.3680585e-007    +8.0867402e-008
+5.9000000e+001    +6.3103386e-007    +9.1444143e-008
+6.0000000e+001    +7.7134303e-007    +1.0504333e-007
+6.1000000e+001    +6.5933494e-007    +7.8081229e-008
+6.2000000e+001    +5.8956493e-007    +7.5660807e-008
+6.3000000e+001    +5.4541761e-007    +7.5907934e-008
+6.4000000e+001    +5.4363773e-007    +7.1530181e-008
+6.5000000e+001    +5.2780746e-007    +6.8287321e-008
+6.6000000e+001    +5.0327139e-007    +7.0367022e-008
+6.7000000e+001    +5.2897997e-007    +6.7530983e-008
+6.8000000e+001    +6.0559955e-007    +6.9643676e-008
+6.9000000e+001    +4.9348455e-007    +7.3037420e-008
+7.0000000e+001    +4.2751128e-007    +7.1538587e-008
+7.1000000e+001    +4.1515412e-007    +6.3991223e-008
+7.2000000e+001    +3.9510289e-007    +5.7762410e-008
+7.3000000e+001    +3.4688381e-007    +5.7237404e-008
+7.4000000e+001    +2.8984246e-007    +5.8224238e-008
+7.5000000e+001    +2.7584721e-007    +5.7253494e-008
+7.6000000e+001    +2.6345808e-007    +5.9842662e-008
+7.7000000e+001    +2.5030357e-007    +6.3729125e-008
+7.8000000e+001    +2.1107053e-007    +6.3116133e-008
+7.9000000e+001    +2.3491005e-007    +6.0021385e-008
+8.0000000e+001    +2.2888520e-007    +5.9210464e-008
+8.1000000e+001    +2.0291802e-007    +5.8448673e-008
+8.2000000e+001    +1.9169484e-007    +5.5289831e-008
+8.3000000e+001    +1.8011580e-007    +5.4581299e-008
+8.4000000e+001    +1.9296630e-007    +5.2191741e-008
+8.5000000e+001    +1.7981526e-007    +5.2538720e-008
+8.6000000e+001    +1.6543757e-007    +5.1696418e-008
+8.7000000e+001    +1.6599616e-007    +5.1051753e-008
+8.8000000e+001    +1.6676340e-007    +5.0454837e-008
+8.9000000e+001    +1.6932111e-007    +5.0254034e-008
+9.0000000e+001    +1.6565586e-007    +4.5296485e-008
+9.1000000e+001    +1.6279778e-007    +4.7802121e-008
+9.2000000e+001    +1.7981131e-007    +5.4014230e-008
+9.3000000e+001    +1.8717374e-007    +5.3557564e-008
+9.4000000e+001    +1.8416205e-007    +5.1404360e-008
+9.5000000e+001    +1.6284211e-007    +5.3300269e-008
+9.6000000e+001    +1.5960214e-007    +5.0242338e-008
+9.7000000e+001    +1.5161386e-007    +4.5444835e-008
+9.8000000e+001    +1.8485346e-007    +4.5154668e-008
+9.9000000e+001    +2.1300609e-007    +4.9073165e-008
+1.0000000e+002    +2.0192788e-007    +4.6740716e-008
+1.0100000e+002    +1.7982394e-007    +4.4733202e-008
+1.0200000e+002    +1.7468177e-007    +5.0120022e-008
+1.0300000e+002    +1.9226944e-007    +5.4850496e-008
+1.0400000e+002    +1.9691838e-007    +5.3653910e-008
+1.0500000e+002    +2.0941152e-007    +4.8570200e-008
+1.0600000e+002    +2.0569301e-007    +4.9305505e-008
+1.0700000e+002    +1.9976218e-007    +5.0198445e-008
+1.0800000e+002    +2.1898964e-007    +4.9147360e-008
+1.0900000e+002    +2.4514088e-007    +4.4435382e-008
+1.1000000e+002    +2.3637988e-007    +4.2824979e-008
+1.1100000e+002    +2.2385117e-007    +4.9034441e-008
+1.1200000e+002    +2.2845362e-007    +5.1543616e-008
+1.1300000e+002    +2.1509445e-007    +4.6492072e-008
+1.1400000e+002    +2.0990392e-007    +4.5453369e-008
+1.1500000e+002    +2.4099609e-007    +4.5436202e-008
+1.1600000e+002    +2.4381083e-007    +4.6964079e-008
+1.1700000e+002    +2.1212622e-007    +4.5173859e-008
+1.1800000e+002    +1.9742214e-007    +4.6913470e-008
+1.1900000e+002    +5.6137401e-007    +4.5370651e-008
+1.2000000e+002    +1.0044522e-006    +4.7094616e-008
+1.2100000e+002    +5.2092014e-007    +4.6851031e-008
+1.2200000e+002    +2.1195092e-007    +4.9603006e-008
+1.2300000e+002    +2.2322213e-007    +4.9724498e-008
+1.2400000e+002    +2.2581516e-007    +4.5225971e-008
+1.2500000e+002    +2.4229587e-007    +4.4143032e-008
+1.2600000e+002    +2.4820073e-007    +4.6574893e-008
+1.2700000e+002    +2.4256764e-007    +4.2774886e-008
+1.2800000e+002    +2.3952228e-007    +3.9957495e-008
+1.2900000e+002    +2.2288636e-007    +4.3330157e-008
+1.3000000e+002    +2.2138202e-007    +4.6681890e-008
+1.3100000e+002    +1.9803782e-007    +4.4335380e-008
+1.3200000e+002    +1.7544889e-007    +4.3322501e-008
+1.3300000e+002    +1.7453090e-007    +4.4611905e-008
+1.3400000e+002    +1.9437888e-007    +4.4555172e-008
+1.3500000e+002    +1.9987100e-007    +4.2367027e-008
+1.3600000e+002    +1.9074690e-007    +4.2356842e-008
+1.3700000e+002    +1.7451077e-007    +4.2322441e-008
+1.3800000e+002    +1.6704817e-007    +4.3080636e-008
+1.3900000e+002    +1.6497086e-007    +4.4597851e-008
+1.4000000e+002    +1.8617293e-007    +4.6214648e-008
+1.4100000e+002    +1.8654184e-007    +4.5795307e-008
+1.4200000e+002    +1.9539978e-007    +4.5239876e-008
+1.4300000e+002    +2.9768097e-007    +4.5747864e-008
+1.4400000e+002    +4.6508768e-007    +4.7992970e-008
+1.4500000e+002    +6.2857902e-007    +4.3280330e-008
+1.4600000e+002    +6.6974593e-007    +4.0912720e-008
+1.4700000e+002    +5.5515142e-007    +4.0869260e-008
+1.4800000e+002    +3.6842172e-007    +4.5643105e-008
+1.4900000e+002    +2.1968442e-007    +4.6691117e-008
+1.5000000e+002    +2.0243090e-007    +4.2932321e-008
+1.5100000e+002    +2.7969725e-007    +4.0856474e-008
+1.5200000e+002    +2.0165137e-007    +4.4044658e-008
+1.5300000e+002    +1.5273950e-007    +4.5676696e-008
+1.5400000e+002    +1.5532719e-007    +4.3830561e-008
+1.5500000e+002    +1.8155907e-007    +4.1053745e-008
+1.5600000e+002    +1.4628451e-007    +4.0981057e-008
+1.5700000e+002    +1.1950810e-007    +4.2472891e-008
+1.5800000e+002    +1.1770737e-007    +4.6652787e-008
+1.5900000e+002    +1.1887001e-007    +4.1549889e-008
+1.6000000e+002    +1.1543218e-007    +4.2436582e-008
+1.6100000e+002    +1.1636979e-007    +3.9956397e-008
+1.6200000e+002    +1.1452237e-007    +3.8065462e-008
+1.6300000e+002    +1.2478868e-007    +4.0358994e-008
+1.6400000e+002    +1.3145620e-007    +4.3565336e-008
+1.6500000e+002    +1.2108033e-007    +4.4185125e-008
+1.6600000e+002    +1.1870150e-007    +4.1842380e-008
+1.6700000e+002    +1.1176026e-007    +4.0438039e-008
+1.6800000e+002    +1.1493353e-007    +4.2543927e-008
+1.6900000e+002    +1.2362135e-007    +4.2106080e-008
+1.7000000e+002    +1.1245152e-007    +4.2130313e-008
+1.7100000e+002    +1.1154266e-007    +4.0421924e-008
+1.7200000e+002    +1.0821452e-007    +3.9245560e-008
+1.7300000e+002    +1.0284139e-007    +3.7309039e-008
+1.7400000e+002    +1.0046695e-007    +4.1505341e-008
+1.7500000e+002    +9.8835095e-008    +4.1767240e-008
+1.7600000e+002    +1.0494477e-007    +4.2589402e-008
+1.7700000e+002    +1.0607309e-007    +4.2304599e-008
+1.7800000e+002    +9.9861317e-008    +4.0992848e-008
+1.7900000e+002    +2.9189147e-007    +6.4353308e-008
+1.8000000e+002    +5.0770922e-007    +1.0340071e-007
+1.8100000e+002    +2.5481120e-007    +6.0994040e-008
+1.8200000e+002    +1.1599055e-007    +4.1974253e-008
+1.8300000e+002    +1.0742905e-007    +4.0056243e-008
+1.8400000e+002    +1.1344310e-007    +4.0201904e-008
+1.8500000e+002    +1.1078788e-007    +4.2594781e-008
+1.8600000e+002    +1.0849720e-007    +4.0638731e-008
+1.8700000e+002    +1.1214869e-007    +4.1963563e-008
+1.8800000e+002    +1.1181009e-007    +3.9844075e-008
+1.8900000e+002    +1.0968911e-007    +4.3349193e-008
+1.9000000e+002    +1.1662573e-007    +4.6040931e-008
+1.9100000e+002    +1.1502872e-007    +4.5921432e-008
+1.9200000e+002    +1.0672764e-007    +4.2948585e-008
+1.9300000e+002    +1.0584797e-007    +4.2298144e-008
+1.9400000e+002    +1.0233553e-007    +3.9539884e-008
+1.9500000e+002    +1.0007183e-007    +3.8648821e-008
+1.9600000e+002    +1.0181730e-007    +4.0663501e-008
+1.9700000e+002    +9.8883945e-008    +4.2081354e-008
+1.9800000e+002    +8.9962100e-008    +4.2248249e-008
+1.9900000e+002    +8.7971628e-008    +4.2151367e-008
+2.0000000e+002    +9.3341271e-008    +4.2244260e-008
+2.0100000e+002    +9.8951169e-008    +4.1175674e-008
+2.0200000e+002    +9.8105104e-008    +4.2948823e-008
+2.0300000e+002    +9.8730432e-008    +4.2809468e-008
+2.0400000e+002    +9.1477482e-008    +4.1229100e-008
+2.0500000e+002    +9.2500805e-008    +4.0012505e-008
+2.0600000e+002    +9.0033843e-008    +4.1787057e-008
+2.0700000e+002    +8.9249319e-008    +4.3981210e-008
+2.0800000e+002    +8.6966317e-008    +4.4127237e-008
+2.0900000e+002    +8.4049525e-008    +4.5290072e-008
+2.1000000e+002    +8.3381579e-008    +4.5243201e-008
+2.1100000e+002    +9.1855910e-008    +4.3897312e-008
+2.1200000e+002    +8.8064787e-008    +4.2160622e-008
+2.1300000e+002    +8.8615515e-008    +4.3751950e-008
+2.1400000e+002    +9.1017029e-008    +4.4614943e-008
+2.1500000e+002    +9.1588838e-008    +4.1951768e-008
+2.1600000e+002    +9.6085614e-008    +3.9095550e-008
+2.1700000e+002    +1.5466993e-007    +3.9410725e-008
+2.1800000e+002    +1.3239787e-007    +3.7057106e-008
+2.1900000e+002    +9.3626404e-008    +3.9552869e-008
+2.2000000e+002    +8.7870937e-008    +4.2306272e-008
+2.2100000e+002    +8.5162469e-008    +3.9993530e-008
+2.2200000e+002    +7.9706901e-008    +3.7384815e-008
+2.2300000e+002    +8.4606725e-008    +3.7667959e-008
+2.2400000e+002    +8.3810576e-008    +4.3329351e-008
+2.2500000e+002    +8.0956688e-008    +4.3676067e-008
+2.2600000e+002    +8.3537721e-008    +4.1302410e-008
+2.2700000e+002    +8.2629434e-008    +3.9497362e-008
+2.2800000e+002    +7.6563076e-008    +4.1039502e-008
+2.2900000e+002    +7.2954947e-008    +4.1960615e-008
+2.3000000e+002    +7.7996830e-008    +3.8174452e-008
+2.3100000e+002    +7.8711651e-008    +3.9776236e-008
+2.3200000e+002    +7.2930199e-008    +4.3189662e-008
+2.3300000e+002    +7.7037228e-008    +4.4209482e-008
+2.3400000e+002    +7.7212512e-008    +4.5203183e-008
+2.3500000e+002    +7.3781841e-008    +4.3171692e-008
+2.3600000e+002    +7.4475196e-008    +4.3069051e-008
+2.3700000e+002    +7.3286117e-008    +4.0691013e-008
+2.3800000e+002    +7.6847570e-008    +3.8988425e-008
+2.3900000e+002    +2.1052779e-007    +4.0227690e-008
+2.4000000e+002    +3.5645508e-007    +4.6211909e-008
+2.4100000e+002    +1.6410749e-007    +4.3485436e-008
+2.4200000e+002    +7.4260122e-008    +4.2111907e-008
+2.4300000e+002    +8.2285311e-008    +4.1073807e-008
+2.4400000e+002    +8.3749590e-008    +4.2719176e-008
+2.4500000e+002    +8.1471278e-008    +4.4588450e-008
+2.4600000e+002    +8.8851479e-008    +4.4347455e-008
+2.4700000e+002    +8.7910990e-008    +3.8924483e-008
+2.4800000e+002    +8.4855301e-008    +3.9679183e-008
+2.4900000e+002    +9.5267922e-008    +4.3436952e-008
+2.5000000e+002    +9.3728438e-008    +4.2467530e-008
+2.5100000e+002    +8.6121112e-008    +4.2779771e-008
+2.5200000e+002    +8.9066852e-008    +4.1075701e-008
+2.5300000e+002    +9.4428458e-008    +4.1958817e-008
+2.5400000e+002    +9.5463619e-008    +4.1193761e-008
+2.5500000e+002    +9.4952448e-008    +4.5066951e-008
+2.5600000e+002    +9.4091178e-008    +4.7277549e-008
+2.5700000e+002    +9.5816134e-008    +4.5174207e-008
+2.5800000e+002    +1.1637183e-007    +4.4254261e-008
+2.5900000e+002    +1.3637960e-007    +4.6325855e-008
+2.6000000e+002    +1.3293186e-007    +5.0036391e-008
+2.6100000e+002    +1.3466902e-007    +4.4497142e-008
+2.6200000e+002    +1.4170037e-007    +4.3030102e-008
+2.6300000e+002    +1.5801889e-007    +4.4410459e-008
+2.6400000e+002    +1.6625242e-007    +4.1455426e-008
+2.6500000e+002    +2.2614491e-007    +4.3743736e-008
+2.6600000e+002    +2.7067514e-007    +4.3676692e-008
+2.6700000e+002    +2.6344881e-007    +4.8523933e-008
+2.6800000e+002    +2.4956293e-007    +4.6624162e-008
+2.6900000e+002    +2.8714786e-007    +4.5932680e-008
+2.7000000e+002    +3.5180179e-007    +4.7767863e-008
+2.7100000e+002    +4.2875840e-007    +4.4107473e-008
+2.7200000e+002    +5.5928842e-007    +4.4423871e-008
+2.7300000e+002    +7.5306502e-007    +4.2335778e-008
+2.7400000e+002    +8.6289589e-007    +4.1409479e-008
+2.7500000e+002    +1.3383516e-006    +4.3684892e-008
+2.7600000e+002    +2.0573773e-006    +4.2430944e-008
+2.7700000e+002    +1.7498256e-006    +4.5591015e-008
+2.7800000e+002    +9.8122871e-007    +4.7082466e-008
+2.7900000e+002    +8.9174779e-007    +4.9386397e-008
+2.8000000e+002    +8.4373789e-007    +4.6233176e-008
+2.8100000e+002    +6.9601094e-007    +4.9847216e-008
+2.8200000e+002    +5.9642008e-007    +4.9755464e-008
+2.8300000e+002    +5.3711022e-007    +4.5958103e-008
+2.8400000e+002    +4.1595212e-007    +4.5702279e-008
+2.8500000e+002    +3.5995578e-007    +4.6066567e-008
+2.8600000e+002    +3.1581695e-007    +4.8457650e-008
+2.8700000e+002    +2.7899458e-007    +4.8654851e-008
+2.8800000e+002    +2.3119598e-007    +4.8741416e-008
+2.8900000e+002    +1.9115406e-007    +4.6177622e-008
+2.9000000e+002    +1.8590596e-007    +4.5935906e-008
+2.9100000e+002    +1.7949552e-007    +4.7367124e-008
+2.9200000e+002    +1.6740768e-007    +4.8330445e-008
+2.9300000e+002    +1.5447579e-007    +4.7707427e-008
+2.9400000e+002    +1.3362343e-007    +4.9118498e-008
+2.9500000e+002    +1.0911099e-007    +5.1313968e-008
+2.9600000e+002    +1.0251119e-007    +4.8499381e-008
+2.9700000e+002    +1.1368575e-007    +5.2614112e-008
+2.9800000e+002    +1.1785595e-007    +5.4336443e-008
+2.9900000e+002    +1.4279584e-007    +5.2821097e-008
+3.0000000e+002    +2.0440413e-007    +5.3918299e-008
+3.0100000e+002    +1.2085296e-007    +5.0540720e-008
+3.0200000e+002    +8.3814349e-008    +5.2881273e-008
+3.0300000e+002    +8.0817877e-008    +5.5165280e-008
+3.0400000e+002    +7.6686412e-008    +4.9085504e-008
+3.0500000e+002    +7.5867938e-008    +4.7700357e-008
+3.0600000e+002    +7.1598151e-008    +4.9068422e-008
+3.0700000e+002    +7.0612600e-008    +5.1793627e-008
+3.0800000e+002    +7.6501820e-008    +5.1138823e-008
+3.0900000e+002    +7.4024541e-008    +5.0880690e-008
+3.1000000e+002    +7.8205211e-008    +5.1386866e-008
+3.1100000e+002    +8.3272795e-008    +5.2086062e-008
+3.1200000e+002    +8.8734097e-008    +5.2106198e-008
+3.1300000e+002    +8.0435974e-008    +4.9800224e-008
+3.1400000e+002    +7.6898296e-008    +5.0954650e-008
+3.1500000e+002    +8.0654146e-008    +5.2122449e-008
+3.1600000e+002    +7.8029551e-008    +5.3438967e-008
+3.1700000e+002    +7.7723357e-008    +5.0597961e-008
+3.1800000e+002    +8.1748965e-008    +5.0377892e-008
+3.1900000e+002    +8.3910017e-008    +4.9513933e-008
+3.2000000e+002    +7.7961985e-008    +5.0864323e-008
+3.2100000e+002    +7.9466773e-008    +4.8851572e-008
+3.2200000e+002    +7.4596073e-008    +4.9209724e-008
+3.2300000e+002    +7.5804657e-008    +5.0994501e-008
+3.2400000e+002    +8.0847251e-008    +4.7658006e-008
+3.2500000e+002    +7.2094721e-008    +5.2480605e-008
+3.2600000e+002    +7.4477569e-008    +5.5883913e-008
+3.2700000e+002    +7.3992766e-008    +5.4104628e-008
+3.2800000e+002    +7.7387263e-008    +5.1045870e-008
+3.2900000e+002    +7.2213474e-008    +5.2962154e-008
+3.3000000e+002    +7.7187849e-008    +5.3836960e-008
+3.3100000e+002    +8.0252406e-008    +5.0903488e-008
+3.3200000e+002    +7.8877754e-008    +5.3151364e-008
+3.3300000e+002    +8.1302751e-008    +5.5973810e-008
+3.3400000e+002    +7.5586406e-008    +5.4191069e-008
+3.3500000e+002    +7.1552016e-008    +5.1960630e-008
+3.3600000e+002    +7.2234251e-008    +4.8872440e-008
+3.3700000e+002    +7.5489041e-008    +5.0295544e-008
+3.3800000e+002    +8.1492217e-008    +5.4933849e-008
+3.3900000e+002    +8.3319073e-008    +5.8656969e-008
+3.4000000e+002    +8.4254275e-008    +5.6623403e-008
+3.4100000e+002    +9.1887379e-008    +5.6311919e-008
+3.4200000e+002    +9.3867470e-008    +5.6137097e-008
+3.4300000e+002    +9.5994302e-008    +5.4372848e-008
+3.4400000e+002    +9.7497754e-008    +5.5553802e-008
+3.4500000e+002    +1.1603908e-007    +5.3857299e-008
+3.4600000e+002    +1.1977765e-007    +5.7085526e-008
+3.4700000e+002    +1.2498860e-007    +5.8356655e-008
+3.4800000e+002    +1.6656907e-007    +5.6491569e-008
+3.4900000e+002    +2.1785817e-007    +5.5381026e-008
+3.5000000e+002    +1.6874078e-007    +5.9028714e-008
+3.5100000e+002    +1.6989431e-007    +6.1607793e-008
+3.5200000e+002    +1.7773952e-007    +5.9252933e-008
+3.5300000e+002    +1.5365082e-007    +5.1763948e-008
+3.5400000e+002    +1.2970480e-007    +5.3430696e-008
+3.5500000e+002    +1.1874400e-007    +5.3909300e-008
+3.5600000e+002    +1.1431823e-007    +5.6964058e-008
+3.5700000e+002    +1.0734097e-007    +6.1694301e-008
+3.5800000e+002    +1.0429771e-007    +5.8770233e-008
+3.5900000e+002    +1.3174923e-007    +5.9289572e-008
+3.6000000e+002    +1.6722967e-007    +6.0532166e-008
+3.6100000e+002    +1.0018001e-007    +6.1098930e-008
+3.6200000e+002    +8.0566970e-008    +5.7978955e-008
+3.6300000e+002    +7.8989203e-008    +5.8889405e-008
+3.6400000e+002    +7.3459077e-008    +6.4293843e-008
+3.6500000e+002    +7.7713715e-008    +6.2298000e-008
+3.6600000e+002    +7.9679516e-008    +5.8798243e-008
+3.6700000e+002    +8.0561129e-008    +5.7524062e-008
+3.6800000e+002    +8.0167155e-008    +6.5576124e-008
+3.6900000e+002    +7.9879669e-008    +6.7780576e-008
+3.7000000e+002    +7.7729418e-008    +6.7678101e-008
+3.7100000e+002    +7.3139738e-008    +6.3432928e-008
+3.7200000e+002    +7.0429017e-008    +6.2079025e-008
+3.7300000e+002    +7.9854942e-008    +5.9262888e-008
+3.7400000e+002    +7.8772601e-008    +6.6054646e-008
+3.7500000e+002    +7.0669842e-008    +6.7295531e-008
+3.7600000e+002    +7.0143940e-008    +6.8378633e-008
+3.7700000e+002    +7.4950158e-008    +6.8340803e-008
+3.7800000e+002    +7.4833309e-008    +6.1434939e-008
+3.7900000e+002    +7.4457127e-008    +6.1065869e-008
+3.8000000e+002    +7.8169066e-008    +7.1146069e-008
+3.8100000e+002    +7.8011738e-008    +7.4017791e-008
+3.8200000e+002    +7.5841285e-008    +6.7919657e-008
+3.8300000e+002    +7.6279051e-008    +6.5858394e-008
+3.8400000e+002    +7.2727893e-008    +6.5051985e-008
+3.8500000e+002    +7.5026563e-008    +6.4500227e-008
+3.8600000e+002    +7.9950389e-008    +6.8732930e-008
+3.8700000e+002    +7.7968579e-008    +7.1106790e-008
+3.8800000e+002    +7.1331286e-008    +7.0584619e-008
+3.8900000e+002    +7.1769414e-008    +6.7187450e-008
+3.9000000e+002    +7.3188417e-008    +6.7343208e-008
+3.9100000e+002    +7.8949498e-008    +6.7970461e-008
+3.9200000e+002    +7.4242273e-008    +6.6758091e-008
+3.9300000e+002    +6.9690948e-008    +6.9808806e-008
+3.9400000e+002    +7.5515068e-008    +6.5467496e-008
+3.9500000e+002    +7.4403928e-008    +6.4260526e-008
+3.9600000e+002    +7.4350353e-008    +6.5005359e-008
+3.9700000e+002    +7.3757782e-008    +6.6160112e-008
+3.9800000e+002    +7.6397818e-008    +6.5751031e-008
+3.9900000e+002    +7.4497031e-008    +6.5640457e-008
+4.0000000e+002    +7.6511476e-008    +6.6112037e-008
+4.0100000e+002    +7.8636667e-008    +6.6415645e-008
+4.0200000e+002    +7.2461518e-008    +6.6996144e-008
+4.0300000e+002    +7.3624449e-008    +7.3328934e-008
+4.0400000e+002    +7.0581592e-008    +7.4504065e-008
+4.0500000e+002    +6.5043345e-008    +7.0479608e-008
+4.0600000e+002    +6.8598965e-008    +7.3303738e-008
+4.0700000e+002    +6.5847985e-008    +7.0080823e-008
+4.0800000e+002    +6.7529797e-008    +6.8867998e-008
+4.0900000e+002    +7.8322245e-008    +6.9725083e-008
+4.1000000e+002    +7.3725644e-008    +7.6997566e-008
+4.1100000e+002    +6.4524663e-008    +7.6002252e-008
+4.1200000e+002    +6.3118769e-008    +7.5979813e-008
+4.1300000e+002    +6.7846543e-008    +7.4850156e-008
+4.1400000e+002    +6.6618384e-008    +7.0760372e-008
+4.1500000e+002    +7.2567644e-008    +7.3213009e-008
+4.1600000e+002    +6.8414451e-008    +7.2983148e-008
+4.1700000e+002    +6.6334607e-008    +7.1243235e-008
+4.1800000e+002    +7.0394769e-008    +7.1656267e-008
+4.1900000e+002    +1.0578093e-007    +7.9461017e-008
+4.2000000e+002    +1.4232188e-007    +7.5335201e-008
+4.2100000e+002    +8.2820534e-008    +7.8167183e-008
+4.2200000e+002    +6.8343432e-008    +7.5111132e-008
+4.2300000e+002    +7.1207339e-008    +7.3923012e-008
+4.2400000e+002    +6.9592076e-008    +8.0564668e-008
+4.2500000e+002    +6.4537701e-008    +7.9831537e-008
+4.2600000e+002    +6.0479884e-008    +7.4215130e-008
+4.2700000e+002    +5.9514321e-008    +7.6565769e-008
+4.2800000e+002    +7.4856899e-008    +7.6382975e-008
+4.2900000e+002    +7.9812693e-008    +7.5552471e-008
+4.3000000e+002    +7.3433355e-008    +7.6306861e-008
+4.3100000e+002    +6.8676130e-008    +7.7579358e-008
+4.3200000e+002    +7.1836027e-008    +7.7066581e-008
+4.3300000e+002    +8.2080838e-008    +7.4819425e-008
+4.3400000e+002    +2.0886203e-007    +7.7883186e-008
+4.3500000e+002    +2.3043773e-007    +8.1027117e-008
+4.3600000e+002    +9.9513471e-008    +8.2071921e-008
+4.3700000e+002    +9.8006055e-008    +8.2453887e-008
+4.3800000e+002    +9.3015728e-008    +7.7750670e-008
+4.3900000e+002    +8.5645858e-008    +8.0835619e-008
+4.4000000e+002    +8.1896211e-008    +8.1144186e-008
+4.4100000e+002    +8.8788191e-008    +7.3750009e-008
+4.4200000e+002    +9.4960683e-008    +8.1494811e-008
+4.4300000e+002    +9.7148970e-008    +8.0863764e-008
+4.4400000e+002    +8.0715004e-008    +8.0499149e-008
+4.4500000e+002    +7.1718524e-008    +7.8777873e-008
+4.4600000e+002    +7.2358006e-008    +7.6455464e-008
+4.4700000e+002    +7.1655165e-008    +8.1396799e-008
+4.4800000e+002    +7.1952222e-008    +8.8951040e-008
+4.4900000e+002    +7.4535897e-008    +8.5574605e-008
+4.5000000e+002    +7.1350556e-008    +8.3446054e-008
+4.5100000e+002    +6.3031365e-008    +8.2872653e-008
+4.5200000e+002    +6.2769900e-008    +7.2791323e-008
+4.5300000e+002    +6.2354388e-008    +7.5896182e-008
+4.5400000e+002    +6.3474587e-008    +8.0918298e-008
+4.5500000e+002    +6.5700227e-008    +9.1676867e-008
+4.5600000e+002    +6.3005487e-008    +8.5683482e-008
+4.5700000e+002    +6.6099339e-008    +8.1470830e-008
+4.5800000e+002    +6.7682855e-008    +8.6021977e-008
+4.5900000e+002    +7.1015656e-008    +8.2858556e-008
+4.6000000e+002    +6.6390200e-008    +8.4363322e-008
+4.6100000e+002    +6.8596627e-008    +8.6052488e-008
+4.6200000e+002    +7.0928543e-008    +8.2818261e-008
+4.6300000e+002    +6.8847285e-008    +8.1515395e-008
+4.6400000e+002    +6.4639607e-008    +8.1179387e-008
+4.6500000e+002    +6.8994240e-008    +8.0955083e-008
+4.6600000e+002    +6.6221155e-008    +8.2605027e-008
+4.6700000e+002    +6.2280293e-008    +9.3111375e-008
+4.6800000e+002    +6.9269312e-008    +9.0550543e-008
+4.6900000e+002    +6.9740928e-008    +8.3402270e-008
+4.7000000e+002    +6.7805878e-008    +8.9933067e-008
+4.7100000e+002    +6.5200290e-008    +9.3251124e-008
+4.7200000e+002    +6.4575410e-008    +9.3812446e-008
+4.7300000e+002    +6.7208916e-008    +9.3579132e-008
+4.7400000e+002    +6.6645015e-008    +9.4123102e-008
+4.7500000e+002    +6.3971548e-008    +9.3539278e-008
+4.7600000e+002    +6.2846034e-008    +9.2861747e-008
+4.7700000e+002    +6.4331267e-008    +9.2674945e-008
+4.7800000e+002    +6.6575751e-008    +9.7738692e-008
+4.7900000e+002    +2.2030592e-007    +9.0199180e-008
+4.8000000e+002    +3.2168623e-007    +9.8865705e-008
+4.8100000e+002    +1.3120574e-007    +1.0427401e-007
+4.8200000e+002    +7.5182498e-008    +9.5830757e-008
+4.8300000e+002    +6.8172930e-008    +8.5504730e-008
+4.8400000e+002    +6.7925995e-008    +8.5969198e-008
+4.8500000e+002    +7.8456338e-008    +9.1806406e-008
+4.8600000e+002    +7.3135723e-008    +9.9678161e-008
+4.8700000e+002    +7.8095979e-008    +9.4847103e-008
+4.8800000e+002    +8.2770079e-008    +9.5694176e-008
+4.8900000e+002    +8.3758415e-008    +9.4679280e-008
+4.9000000e+002    +8.4930427e-008    +9.1515453e-008
+4.9100000e+002    +7.4340640e-008    +9.5494649e-008
+4.9200000e+002    +8.1065558e-008    +1.0020751e-007
+4.9300000e+002    +9.2195407e-008    +9.7789680e-008
+4.9400000e+002    +8.9157354e-008    +9.9860216e-008
+4.9500000e+002    +8.7006811e-008    +9.7108661e-008
+4.9600000e+002    +8.0705526e-008    +9.6858955e-008
+4.9700000e+002    +8.0769354e-008    +9.2876938e-008
+4.9800000e+002    +8.4079709e-008    +9.7365422e-008
+4.9900000e+002    +8.6146265e-008    +1.0277784e-007
+5.0000000e+002    +9.5626746e-008    +9.8409110e-008
+5.0100000e+002    +8.8942450e-008    +9.6356281e-008
+5.0200000e+002    +9.1187879e-008    +1.0237621e-007
+5.0300000e+002    +1.0919477e-007    +1.0377295e-007
+5.0400000e+002    +1.1315848e-007    +9.1388038e-008
+5.0500000e+002    +1.0490929e-007    +8.7530644e-008
+5.0600000e+002    +1.0687974e-007    +9.5179885e-008
+5.0700000e+002    +1.2141021e-007    +9.7268192e-008
+5.0800000e+002    +1.2904414e-007    +9.3462383e-008
+5.0900000e+002    +1.2496157e-007    +9.5945829e-008
+5.1000000e+002    +1.2982591e-007    +9.8246524e-008
+5.1100000e+002    +1.2127059e-007    +1.0010304e-007
+5.1200000e+002    +1.1977660e-007    +9.5366502e-008
+5.1300000e+002    +9.8733580e-008    +9.2396157e-008
+5.1400000e+002    +8.3243087e-008    +9.5122431e-008
+5.1500000e+002    +8.0314813e-008    +1.0807002e-007
+5.1600000e+002    +7.6617319e-008    +1.1275466e-007
+5.1700000e+002    +7.0897165e-008    +1.0202589e-007
+5.1800000e+002    +6.7927267e-008    +1.0199094e-007
+5.1900000e+002    +6.8105521e-008    +1.0153508e-007
+5.2000000e+002    +6.6502110e-008    +1.0249206e-007
+5.2100000e+002    +5.7707897e-008    +1.0751484e-007
+5.2200000e+002    +6.0962570e-008    +1.1378740e-007
+5.2300000e+002    +6.4672690e-008    +1.0286962e-007
+5.2400000e+002    +6.4568674e-008    +9.9287234e-008
+5.2500000e+002    +6.8107617e-008    +9.6595890e-008
+5.2600000e+002    +7.9782900e-008    +9.4878978e-008
+5.2700000e+002    +8.9638114e-008    +9.0261494e-008
+5.2800000e+002    +9.9565057e-008    +9.9146376e-008
+5.2900000e+002    +1.1326749e-007    +1.0858002e-007
+5.3000000e+002    +1.9198235e-007    +1.1090277e-007
+5.3100000e+002    +2.1977078e-007    +1.0239994e-007
+5.3200000e+002    +1.9690390e-007    +9.9327359e-008
+5.3300000e+002    +1.9835620e-007    +1.0536642e-007
+5.3400000e+002    +1.9925858e-007    +1.0738683e-007
+5.3500000e+002    +2.0117437e-007    +1.0207071e-007
+5.3600000e+002    +1.9058299e-007    +9.8904792e-008
+5.3700000e+002    +1.8406300e-007    +1.0373046e-007
+5.3800000e+002    +1.8990121e-007    +1.0365305e-007
+5.3900000e+002    +2.7259733e-007    +1.1178235e-007
+5.4000000e+002    +3.3298355e-007    +1.1703789e-007
+5.4100000e+002    +1.8772862e-007    +1.0853008e-007
+5.4200000e+002    +1.7323097e-007    +1.0481050e-007
+5.4300000e+002    +1.8574498e-007    +1.0294046e-007
+5.4400000e+002    +2.2135238e-007    +1.1013381e-007
+5.4500000e+002    +2.7790159e-007    +1.1489719e-007
+5.4600000e+002    +4.3638585e-007    +1.1219894e-007
+5.4700000e+002    +6.8568465e-007    +1.0925808e-007
+5.4800000e+002    +9.4970693e-007    +1.1241794e-007
+5.4900000e+002    +1.0354352e-006    +1.1586467e-007
+5.5000000e+002    +1.0816475e-006    +1.1230641e-007
+5.5100000e+002    +1.1025674e-006    +1.0358229e-007
+5.5200000e+002    +1.0927332e-006    +9.9278509e-008
+5.5300000e+002    +1.4095292e-006    +1.0047214e-007
+5.5400000e+002    +1.0506063e-006    +1.0893359e-007
+5.5500000e+002    +4.2070775e-007    +1.0660081e-007
+5.5600000e+002    +3.6131235e-007    +1.0418669e-007
+5.5700000e+002    +3.1375808e-007    +1.1056198e-007
+5.5800000e+002    +2.4861475e-007    +1.1574934e-007
+5.5900000e+002    +2.1101771e-007    +1.1320023e-007
+5.6000000e+002    +1.9378967e-007    +1.0884106e-007
+5.6100000e+002    +1.7087908e-007    +1.1670003e-007
+5.6200000e+002    +1.6863595e-007    +1.1797118e-007
+5.6300000e+002    +1.4915011e-007    +1.2153038e-007
+5.6400000e+002    +1.4166552e-007    +1.2242151e-007
+5.6500000e+002    +1.2483568e-007    +1.1771900e-007
+5.6600000e+002    +1.1634258e-007    +1.2240497e-007
+5.6700000e+002    +1.3112350e-007    +1.1185208e-007
+5.6800000e+002    +1.2963262e-007    +1.0805483e-007
+5.6900000e+002    +1.2651995e-007    +1.1602557e-007
+5.7000000e+002    +1.4107415e-007    +1.1566028e-007
+5.7100000e+002    +1.4326019e-007    +1.1018292e-007
+5.7200000e+002    +1.4915092e-007    +1.0987426e-007
+5.7300000e+002    +1.7929854e-007    +1.1370210e-007
+5.7400000e+002    +2.0890560e-007    +1.2147342e-007
+5.7500000e+002    +2.4739131e-007    +1.1577921e-007
+5.7600000e+002    +2.6505589e-007    +1.2062189e-007
+5.7700000e+002    +2.7897005e-007    +1.2642845e-007
+5.7800000e+002    +2.8616117e-007    +1.1791109e-007
+5.7900000e+002    +2.6382455e-007    +1.1460149e-007
+5.8000000e+002    +2.3268065e-007    +1.2297033e-007
+5.8100000e+002    +2.0411706e-007    +1.2565430e-007
+5.8200000e+002    +1.7604883e-007    +1.2952520e-007
+5.8300000e+002    +1.5333836e-007    +1.2608604e-007
+5.8400000e+002    +1.3134179e-007    +1.1733420e-007
+5.8500000e+002    +1.1972362e-007    +1.1678860e-007
+5.8600000e+002    +1.0991576e-007    +1.1910778e-007
+5.8700000e+002    +8.6785846e-008    +1.1828635e-007
+5.8800000e+002    +7.4606803e-008    +1.1523464e-007
+5.8900000e+002    +7.6012682e-008    +1.0813910e-007
+5.9000000e+002    +7.4301475e-008    +1.1848210e-007
+5.9100000e+002    +7.0155032e-008    +1.2416942e-007
+5.9200000e+002    +6.4387372e-008    +1.2767428e-007
+5.9300000e+002    +6.5039984e-008    +1.2290636e-007
+5.9400000e+002    +7.0248610e-008    +1.2349817e-007
+5.9500000e+002    +7.4524685e-008    +1.2687300e-007
+5.9600000e+002    +7.2013712e-008    +1.2929928e-007
+5.9700000e+002    +7.1866957e-008    +1.2183246e-007
+5.9800000e+002    +8.4486693e-008    +1.1778273e-007
+5.9900000e+002    +2.1563642e-007    +1.1764561e-007
+6.0000000e+002    +2.9461830e-007    +1.1915291e-007
+6.0100000e+002    +1.8388907e-007    +1.1568912e-007
+6.0200000e+002    +1.7011568e-007    +1.2037357e-007
+6.0300000e+002    +1.9806545e-007    +1.2759020e-007
+6.0400000e+002    +2.2340258e-007    +1.2616178e-007
+6.0500000e+002    +1.6565150e-007    +1.1338533e-007
+6.0600000e+002    +1.0324132e-007    +1.2333312e-007
+6.0700000e+002    +7.5177212e-008    +1.2726338e-007
+6.0800000e+002    +6.5831649e-008    +1.2874298e-007
+6.0900000e+002    +6.8696494e-008    +1.3583907e-007
+6.1000000e+002    +6.1720520e-008    +1.2284295e-007
+6.1100000e+002    +5.9270370e-008    +1.2507056e-007
+6.1200000e+002    +6.0941019e-008    +1.2326556e-007
+6.1300000e+002    +6.1026192e-008    +1.1670669e-007
+6.1400000e+002    +5.7931040e-008    +1.2437941e-007
+6.1500000e+002    +6.5623588e-008    +1.3286649e-007
+6.1600000e+002    +6.7476435e-008    +1.2980681e-007
+6.1700000e+002    +6.7419407e-008    +1.4057549e-007
+6.1800000e+002    +6.4490244e-008    +1.4109970e-007
+6.1900000e+002    +6.1042812e-008    +1.3052725e-007
+6.2000000e+002    +6.0003657e-008    +1.3961153e-007
+6.2100000e+002    +5.9683344e-008    +1.3542255e-007
+6.2200000e+002    +6.7542253e-008    +1.3150616e-007
+6.2300000e+002    +7.3156684e-008    +1.4002356e-007
+6.2400000e+002    +6.9480151e-008    +1.3422971e-007
+6.2500000e+002    +6.9365285e-008    +1.2940382e-007
+6.2600000e+002    +7.0488895e-008    +1.1958305e-007
+6.2700000e+002    +6.7006589e-008    +1.2264685e-007
+6.2800000e+002    +6.4615342e-008    +1.3062173e-007
+6.2900000e+002    +6.6757870e-008    +1.3481015e-007
+6.3000000e+002    +6.6155607e-008    +1.3971014e-007
+6.3100000e+002    +6.6246173e-008    +1.3259324e-007
+6.3200000e+002    +6.6513799e-008    +1.3091994e-007
+6.3300000e+002    +6.6962826e-008    +1.4140912e-007
+6.3400000e+002    +6.1629514e-008    +1.4605084e-007
+6.3500000e+002    +6.3343080e-008    +1.3259499e-007
+6.3600000e+002    +6.3132070e-008    +1.3493454e-007
+6.3700000e+002    +6.5714367e-008    +1.4225377e-007
+6.3800000e+002    +6.5143404e-008    +1.4289684e-007
+6.3900000e+002    +6.3715838e-008    +1.3807673e-007
+6.4000000e+002    +6.4765565e-008    +1.3690439e-007
+6.4100000e+002    +6.7958673e-008    +1.4725137e-007
+6.4200000e+002    +7.3984644e-008    +1.4806182e-007
+6.4300000e+002    +8.8704489e-008    +1.3864047e-007
+6.4400000e+002    +1.2100007e-007    +1.4351083e-007
+6.4500000e+002    +1.2369412e-007    +1.3880376e-007
+6.4600000e+002    +1.0492472e-007    +1.3171106e-007
+6.4700000e+002    +9.3491941e-008    +1.3733467e-007
+6.4800000e+002    +9.3285024e-008    +1.3315390e-007
+6.4900000e+002    +8.1023288e-008    +1.2947856e-007
+6.5000000e+002    +8.6604231e-008    +1.3422203e-007
+6.5100000e+002    +1.2018195e-007    +1.3841172e-007
+6.5200000e+002    +1.6508972e-007    +1.3137772e-007
+6.5300000e+002    +1.0755581e-007    +1.3470924e-007
+6.5400000e+002    +8.3592496e-008    +1.3577122e-007
+6.5500000e+002    +7.3916517e-008    +1.3163212e-007
+6.5600000e+002    +6.9893858e-008    +1.3034537e-007
+6.5700000e+002    +6.9256458e-008    +1.2886630e-007
+6.5800000e+002    +6.9714673e-008    +1.3129869e-007
+6.5900000e+002    +2.1607084e-007    +1.4106578e-007
+6.6000000e+002    +2.8515217e-007    +1.4230110e-007
+6.6100000e+002    +1.1075030e-007    +1.3696258e-007
+6.6200000e+002    +6.1125036e-008    +1.4020432e-007
+6.6300000e+002    +6.8172554e-008    +1.4006355e-007
+6.6400000e+002    +7.2282731e-008    +1.3772244e-007
+6.6500000e+002    +7.0072510e-008    +1.3394880e-007
+6.6600000e+002    +6.5371538e-008    +1.3904904e-007
+6.6700000e+002    +6.6500505e-008    +1.4265950e-007
+6.6800000e+002    +6.9823905e-008    +1.5022594e-007
+6.6900000e+002    +6.7911678e-008    +1.4204338e-007
+6.7000000e+002    +7.5042131e-008    +1.4539629e-007
+6.7100000e+002    +7.5162689e-008    +1.4245117e-007
+6.7200000e+002    +6.9666697e-008    +1.3799171e-007
+6.7300000e+002    +6.3929072e-008    +1.3576079e-007
+6.7400000e+002    +5.6301843e-008    +1.4499916e-007
+6.7500000e+002    +6.3949642e-008    +1.5018108e-007
+6.7600000e+002    +6.4241057e-008    +1.5438508e-007
+6.7700000e+002    +6.1716321e-008    +1.4930477e-007
+6.7800000e+002    +6.3910406e-008    +1.5390577e-007
+6.7900000e+002    +6.9624711e-008    +1.5347311e-007
+6.8000000e+002    +7.0612131e-008    +1.5012041e-007
+6.8100000e+002    +7.5139504e-008    +1.4558925e-007
+6.8200000e+002    +7.4734537e-008    +1.3549825e-007
+6.8300000e+002    +7.4330195e-008    +1.4417620e-007
+6.8400000e+002    +7.2537055e-008    +1.5357391e-007
+6.8500000e+002    +7.8687798e-008    +1.4823797e-007
+6.8600000e+002    +9.8050613e-008    +1.4136394e-007
+6.8700000e+002    +1.0465653e-007    +1.3906751e-007
+6.8800000e+002    +9.8827826e-008    +1.5579535e-007
+6.8900000e+002    +1.0622880e-007    +1.4705910e-007
+6.9000000e+002    +1.1004847e-007    +1.3343680e-007
+6.9100000e+002    +1.0981166e-007    +1.3520653e-007
+6.9200000e+002    +1.1862828e-007    +1.4174364e-007
+6.9300000e+002    +1.2301463e-007    +1.4168263e-007
+6.9400000e+002    +1.4257212e-007    +1.3757025e-007
+6.9500000e+002    +1.4876723e-007    +1.5485635e-007
+6.9600000e+002    +1.1028362e-007    +1.4897319e-007
+6.9700000e+002    +1.2144407e-007    +1.4115456e-007
+6.9800000e+002    +1.1141965e-007    +1.4620100e-007
+6.9900000e+002    +1.1306273e-007    +1.4671413e-007
+7.0000000e+002    +1.1671233e-007    +1.4637560e-007
+7.0100000e+002    +1.0790948e-007    +1.4961066e-007
+7.0200000e+002    +1.0824780e-007    +1.5065689e-007
+7.0300000e+002    +9.2783580e-008    +1.6269342e-007
+7.0400000e+002    +1.1104118e-007    +1.5779679e-007
+7.0500000e+002    +1.2647953e-007    +1.3799125e-007
+7.0600000e+002    +1.0233283e-007    +1.3969617e-007
+7.0700000e+002    +9.5337612e-008    +1.4786134e-007
+7.0800000e+002    +9.2784397e-008    +1.3869209e-007
+7.0900000e+002    +9.7319997e-008    +1.5217556e-007
+7.1000000e+002    +9.7412467e-008    +1.4854639e-007
+7.1100000e+002    +9.4186056e-008    +1.4222691e-007
+7.1200000e+002    +9.9585613e-008    +1.5102323e-007
+7.1300000e+002    +1.0744096e-007    +1.5778259e-007
+7.1400000e+002    +1.1613455e-007    +1.5133995e-007
+7.1500000e+002    +1.2323810e-007    +1.4804101e-007
+7.1600000e+002    +1.1307191e-007    +1.4789690e-007
+7.1700000e+002    +1.1303951e-007    +1.5991594e-007
+7.1800000e+002    +1.1514421e-007    +1.5454110e-007
+7.1900000e+002    +2.1518255e-007    +1.5164284e-007
+7.2000000e+002    +2.6702551e-007    +1.4665953e-007
+7.2100000e+002    +1.2129576e-007    +1.5846507e-007
+7.2200000e+002    +8.2693596e-008    +1.5176192e-007
+7.2300000e+002    +8.3073623e-008    +1.5448087e-007
+7.2400000e+002    +7.9521584e-008    +1.6767497e-007
+7.2500000e+002    +7.3485779e-008    +1.6330763e-007
+7.2600000e+002    +6.8931392e-008    +1.5867259e-007
+7.2700000e+002    +7.0646955e-008    +1.5399401e-007
+7.2800000e+002    +7.2347838e-008    +1.5467079e-007
+7.2900000e+002    +7.8495113e-008    +1.6041432e-007
+7.3000000e+002    +7.3529442e-008    +1.6356873e-007
+7.3100000e+002    +6.4831589e-008    +1.6130464e-007
+7.3200000e+002    +6.6323537e-008    +1.5957585e-007
+7.3300000e+002    +6.8713916e-008    +1.6104414e-007
+7.3400000e+002    +6.9644898e-008    +1.5062679e-007
+7.3500000e+002    +7.1614657e-008    +1.4964860e-007
+7.3600000e+002    +7.2625035e-008    +1.5284502e-007
+7.3700000e+002    +7.4546129e-008    +1.5342509e-007
+7.3800000e+002    +7.1647847e-008    +1.5236013e-007
+7.3900000e+002    +6.4886493e-008    +1.6721938e-007
+7.4000000e+002    +6.8248944e-008    +1.6519670e-007
+7.4100000e+002    +6.9862324e-008    +1.6634590e-007
+7.4200000e+002    +6.9724237e-008    +1.7523173e-007
+7.4300000e+002    +6.9929477e-008    +1.6601201e-007
+7.4400000e+002    +6.7762713e-008    +1.6433775e-007
+7.4500000e+002    +7.5199836e-008    +1.7252941e-007
+7.4600000e+002    +7.4336398e-008    +1.6175814e-007
+7.4700000e+002    +7.2520734e-008    +1.5758903e-007
+7.4800000e+002    +8.3437989e-008    +1.5856392e-007
+7.4900000e+002    +8.5994401e-008    +1.6991221e-007
+7.5000000e+002    +9.1069808e-008    +1.6256575e-007
+7.5100000e+002    +8.9258435e-008    +1.6014454e-007
+7.5200000e+002    +7.4432528e-008    +1.7074967e-007
+7.5300000e+002    +8.0392184e-008    +1.6947941e-007
+7.5400000e+002    +8.0566082e-008    +1.5942086e-007
+7.5500000e+002    +7.0416412e-008    +1.5765289e-007
+7.5600000e+002    +7.3138693e-008    +1.7603413e-007
+7.5700000e+002    +6.9376860e-008    +1.6937076e-007
+7.5800000e+002    +6.5366656e-008    +1.6337543e-007
+7.5900000e+002    +7.1264516e-008    +1.7211184e-007
+7.6000000e+002    +6.9834179e-008    +1.7280753e-007
+7.6100000e+002    +6.5387901e-008    +1.6516569e-007
+7.6200000e+002    +6.9397586e-008    +1.7650636e-007
+7.6300000e+002    +7.0739787e-008    +1.8711170e-007
+7.6400000e+002    +6.3400066e-008    +1.7336112e-007
+7.6500000e+002    +6.7899002e-008    +1.7339862e-007
+7.6600000e+002    +6.4756108e-008    +1.7273867e-007
+7.6700000e+002    +7.0546655e-008    +1.8261146e-007
+7.6800000e+002    +7.1380413e-008    +1.7332647e-007
+7.6900000e+002    +6.4544082e-008    +1.7534721e-007
+7.7000000e+002    +7.2817940e-008    +1.7860967e-007
+7.7100000e+002    +6.6521615e-008    +1.7619385e-007
+7.7200000e+002    +6.4874456e-008    +1.7505117e-007
+7.7300000e+002    +7.1408394e-008    +1.5943294e-007
+7.7400000e+002    +6.9560151e-008    +1.6866650e-007
+7.7500000e+002    +7.0469007e-008    +1.7498007e-007
+7.7600000e+002    +7.0188783e-008    +1.7303232e-007
+7.7700000e+002    +6.7791142e-008    +1.7148767e-007
+7.7800000e+002    +7.2186445e-008    +1.7664111e-007
+7.7900000e+002    +2.4497729e-007    +1.6823206e-007
+7.8000000e+002    +3.0946876e-007    +1.6074296e-007
+7.8100000e+002    +1.1732570e-007    +1.6660802e-007
+7.8200000e+002    +7.7150140e-008    +1.7621514e-007
+7.8300000e+002    +7.5965048e-008    +1.7346412e-007
+7.8400000e+002    +6.6403103e-008    +1.6280349e-007
+7.8500000e+002    +6.7005189e-008    +1.8007606e-007
+7.8600000e+002    +6.7926671e-008    +1.9024993e-007
+7.8700000e+002    +6.6134476e-008    +1.7957613e-007
+7.8800000e+002    +6.9995231e-008    +1.6925792e-007
+7.8900000e+002    +7.4731496e-008    +1.7101573e-007
+7.9000000e+002    +7.6906062e-008    +1.7814804e-007
+7.9100000e+002    +6.8028996e-008    +1.8915769e-007
+7.9200000e+002    +6.4974820e-008    +1.7088264e-007
+7.9300000e+002    +7.2135499e-008    +1.6834292e-007
+7.9400000e+002    +7.5438003e-008    +1.7449047e-007
+7.9500000e+002    +7.6660228e-008    +1.8018424e-007
+7.9600000e+002    +7.7572970e-008    +1.8632221e-007
+7.9700000e+002    +7.2787650e-008    +1.8978677e-007
+7.9800000e+002    +7.8054832e-008    +1.7916020e-007
+7.9900000e+002    +9.1773245e-008    +1.7132187e-007
#
#
# North DC Val: 0.6677949900000001 VoltsSouth DC Val: 0.60637125 Volts
# SR785 Measurement - Timestamp: Jul 06 2020 - 09:08:15
# Parameter File: /home/controls/Git/cit_ctnlab/ctn_scripts/TransRINSpecShort.yml
#---------- Measurement Setup ------------
# Start Frequency (Hz): 0.000000
# Frequency Span (Hz): 102400.000000
# Frequency Resolution: 800
# Number of Averages: 100
# Averaging Mode: RMS
# Window function: Hanning
#---------- Measurement Parameters ----------
# Measurement Group:  "FFT" "FFT"
# Measurements:  "FFT 1" "FFT 2"
# View:  "Log Magnitude" "Log Magnitude"
# Unit:  "Vrms/rtHz" "Vrms/rtHz"
#---------- Input Parameters ----------
# Input Source: Analog
# Input Mode: Single ended, Single ended
# Input Grounding: Float, Float
# Input Coupling: AC, AC
# Input Range: -36.0dBVpk, -36.0dBVpk
# Auto Range: Off, Off
# Auto Range Mode: Tracking, Tracking
# Anti-Aliasing Filter: On, On
#---------- Source Parameters ----------
# Source Type: Sine
# Source Amplitude: 500.0mVpk
# Source On: 0

#---------- Measurement Data ----------
# [Freq(Hz) Display 0(Vrms/rtHz) Display 1(Vrms/rtHz) ]
+8.9600000e+002    +1.3307337e-007    +2.0345722e-007
+1.0240000e+003    +1.3691086e-007    +2.3153207e-007
+1.1520000e+003    +1.1423755e-007    +2.7236277e-007
+1.2800000e+003    +1.0778408e-007    +3.0007584e-007
+1.4080000e+003    +1.2609158e-007    +3.2279257e-007
+1.5360000e+003    +1.4122990e-007    +3.3630690e-007
+1.6640000e+003    +1.8570481e-007    +3.8710360e-007
+1.7920000e+003    +2.7762681e-007    +4.2872261e-007
+1.9200000e+003    +2.5397912e-007    +4.7733573e-007
+2.0480000e+003    +2.0062139e-007    +5.0434898e-007
+2.1760000e+003    +1.9704468e-007    +5.1309121e-007
+2.3040000e+003    +1.8639649e-007    +5.6325092e-007
+2.4320000e+003    +2.2273102e-007    +6.7555084e-007
+2.5600000e+003    +2.2768886e-007    +7.4122460e-007
+2.6880000e+003    +2.3733585e-007    +7.3020419e-007
+2.8160000e+003    +2.5825079e-007    +8.3601492e-007
+2.9440000e+003    +2.8576241e-007    +9.6629617e-007
+3.0720000e+003    +2.8232597e-007    +9.9667977e-007
+3.2000000e+003    +2.8280778e-007    +1.0869679e-006
+3.3280000e+003    +3.1156549e-007    +1.1084105e-006
+3.4560000e+003    +3.1563184e-007    +1.2303840e-006
+3.5840000e+003    +3.4339334e-007    +1.2966323e-006
+3.7120000e+003    +3.7270061e-007    +1.4440354e-006
+3.8400000e+003    +3.5073074e-007    +1.5802531e-006
+3.9680000e+003    +3.7402265e-007    +1.8303419e-006
+4.0960000e+003    +3.9535283e-007    +1.7981487e-006
+4.2240000e+003    +4.0521638e-007    +1.8094811e-006
+4.3520000e+003    +4.0330733e-007    +2.2273443e-006
+4.4800000e+003    +3.7732323e-007    +2.7435358e-006
+4.6080000e+003    +3.9932891e-007    +3.0549220e-006
+4.7360000e+003    +4.3712575e-007    +3.1413585e-006
+4.8640000e+003    +4.6014551e-007    +3.3264846e-006
+4.9920000e+003    +4.4340445e-007    +3.7488603e-006
+5.1200000e+003    +4.6587422e-007    +4.0946784e-006
+5.2480000e+003    +4.7787637e-007    +5.1154998e-006
+5.3760000e+003    +5.1526757e-007    +5.1786119e-006
+5.5040000e+003    +5.8972290e-007    +4.9475948e-006
+5.6320000e+003    +5.9495960e-007    +5.3396625e-006
+5.7600000e+003    +5.9098039e-007    +6.2518711e-006
+5.8880000e+003    +5.9257422e-007    +5.9087333e-006
+6.0160000e+003    +5.8283979e-007    +6.1792330e-006
+6.1440000e+003    +6.3511675e-007    +5.8992109e-006
+6.2720000e+003    +6.4690090e-007    +5.0670014e-006
+6.4000000e+003    +6.0791723e-007    +4.8261618e-006
+6.5280000e+003    +6.2335158e-007    +4.2272468e-006
+6.6560000e+003    +6.3862984e-007    +3.2318017e-006
+6.7840000e+003    +6.5829551e-007    +2.8463699e-006
+6.9120000e+003    +6.6941658e-007    +2.6283285e-006
+7.0400000e+003    +6.7826431e-007    +2.3583393e-006
+7.1680000e+003    +7.3234554e-007    +2.2251054e-006
+7.2960000e+003    +6.9502204e-007    +2.2324664e-006
+7.4240000e+003    +7.2257893e-007    +2.1508051e-006
+7.5520000e+003    +7.6045910e-007    +1.9180873e-006
+7.6800000e+003    +7.5738018e-007    +1.6609843e-006
+7.8080000e+003    +7.6505262e-007    +1.4422592e-006
+7.9360000e+003    +8.0159583e-007    +1.3817744e-006
+8.0640000e+003    +7.7759296e-007    +1.3866772e-006
+8.1920000e+003    +8.5355873e-007    +1.3052080e-006
+8.3200000e+003    +8.5977689e-007    +1.2906312e-006
+8.4480000e+003    +8.5149009e-007    +1.3174013e-006
+8.5760000e+003    +8.1532670e-007    +1.2075096e-006
+8.7040000e+003    +8.7002417e-007    +1.1442748e-006
+8.8320000e+003    +9.4781001e-007    +1.1734928e-006
+8.9600000e+003    +8.8596931e-007    +1.1783202e-006
+9.0880000e+003    +9.4092417e-007    +1.0404403e-006
+9.2160000e+003    +9.6838858e-007    +9.0086252e-007
+9.3440000e+003    +8.5954753e-007    +8.9818008e-007
+9.4720000e+003    +8.5492434e-007    +8.9932672e-007
+9.6000000e+003    +8.7940333e-007    +9.3679262e-007
+9.7280000e+003    +9.5724965e-007    +9.3658178e-007
+9.8560000e+003    +1.0173964e-006    +9.0450879e-007
+9.9840000e+003    +1.0580834e-006    +7.9045424e-007
+1.0112000e+004    +1.0261198e-006    +7.7979280e-007
+1.0240000e+004    +1.0747718e-006    +7.8909198e-007
+1.0368000e+004    +1.1220793e-006    +7.8264651e-007
+1.0496000e+004    +1.1248547e-006    +8.1159601e-007
+1.0624000e+004    +1.1301631e-006    +7.7995037e-007
+1.0752000e+004    +1.1178873e-006    +7.8229516e-007
+1.0880000e+004    +1.1670630e-006    +8.4761257e-007
+1.1008000e+004    +1.1379377e-006    +8.2418131e-007
+1.1136000e+004    +1.0443694e-006    +7.9147731e-007
+1.1264000e+004    +1.1533299e-006    +8.4546735e-007
+1.1392000e+004    +1.1746439e-006    +7.6939847e-007
+1.1520000e+004    +1.2056099e-006    +6.8921253e-007
+1.1648000e+004    +1.2281017e-006    +6.7801267e-007
+1.1776000e+004    +1.1783214e-006    +7.1099140e-007
+1.1904000e+004    +1.1799967e-006    +7.8134661e-007
+1.2032000e+004    +1.1729337e-006    +7.3145196e-007
+1.2160000e+004    +1.2129163e-006    +7.4791831e-007
+1.2288000e+004    +1.1596737e-006    +7.6952352e-007
+1.2416000e+004    +1.2684307e-006    +7.4238034e-007
+1.2544000e+004    +1.3215533e-006    +6.8117714e-007
+1.2672000e+004    +1.2521332e-006    +6.8877904e-007
+1.2800000e+004    +1.2356896e-006    +6.5846973e-007
+1.2928000e+004    +1.2683164e-006    +6.9230083e-007
+1.3056000e+004    +1.3374864e-006    +7.0700105e-007
+1.3184000e+004    +1.2737744e-006    +6.4302168e-007
+1.3312000e+004    +1.2269804e-006    +6.0154980e-007
+1.3440000e+004    +1.1198209e-006    +5.4269668e-007
+1.3568000e+004    +1.2180369e-006    +5.8772878e-007
+1.3696000e+004    +1.3324237e-006    +5.8285832e-007
+1.3824000e+004    +1.2932186e-006    +5.8880357e-007
+1.3952000e+004    +1.3261217e-006    +5.4368428e-007
+1.4080000e+004    +1.3184460e-006    +5.7621537e-007
+1.4208000e+004    +1.3247567e-006    +5.5254998e-007
+1.4336000e+004    +1.4100849e-006    +5.4531398e-007
+1.4464000e+004    +1.3681243e-006    +5.6912046e-007
+1.4592000e+004    +1.2183954e-006    +5.5651725e-007
+1.4720000e+004    +1.2128723e-006    +5.6673474e-007
+1.4848000e+004    +1.2747468e-006    +5.9063137e-007
+1.4976000e+004    +1.1703814e-006    +5.8603860e-007
+1.5104000e+004    +1.2882457e-006    +5.7335149e-007
+1.5232000e+004    +1.1431873e-006    +5.6949801e-007
+1.5360000e+004    +1.1196672e-006    +5.4483343e-007
+1.5488000e+004    +1.1299918e-006    +5.7967117e-007
+1.5616000e+004    +1.1994782e-006    +5.5976273e-007
+1.5744000e+004    +1.1554732e-006    +5.6507821e-007
+1.5872000e+004    +1.1549924e-006    +5.4211961e-007
+1.6000000e+004    +1.1285634e-006    +5.5089015e-007
+1.6128000e+004    +1.0939048e-006    +5.5867105e-007
+1.6256000e+004    +1.1018243e-006    +5.3197022e-007
+1.6384000e+004    +1.0988643e-006    +5.6112384e-007
+1.6512000e+004    +1.1640416e-006    +5.8237731e-007
+1.6640000e+004    +1.1792288e-006    +5.4435986e-007
+1.6768000e+004    +1.1203448e-006    +5.5338052e-007
+1.6896000e+004    +1.0798000e-006    +5.5040891e-007
+1.7024000e+004    +1.1351549e-006    +5.6506707e-007
+1.7152000e+004    +1.1596661e-006    +6.1594670e-007
+1.7280000e+004    +1.0913711e-006    +5.8123959e-007
+1.7408000e+004    +1.0136622e-006    +5.4723449e-007
+1.7536000e+004    +1.0401650e-006    +5.1977349e-007
+1.7664000e+004    +1.0523415e-006    +5.3854757e-007
+1.7792000e+004    +1.0429977e-006    +5.3223545e-007
+1.7920000e+004    +1.0884273e-006    +5.4243458e-007
+1.8048000e+004    +1.0722272e-006    +5.1286764e-007
+1.8176000e+004    +9.8597411e-007    +5.4336266e-007
+1.8304000e+004    +9.5524217e-007    +5.4762160e-007
+1.8432000e+004    +1.0209839e-006    +5.4107358e-007
+1.8560000e+004    +9.6498684e-007    +5.2514150e-007
+1.8688000e+004    +8.8254217e-007    +4.9634008e-007
+1.8816000e+004    +8.7222116e-007    +5.3179093e-007
+1.8944000e+004    +8.6168779e-007    +5.3668168e-007
+1.9072000e+004    +9.4796610e-007    +5.3217116e-007
+1.9200000e+004    +1.0048471e-006    +4.8255629e-007
+1.9328000e+004    +9.9341753e-007    +4.4936706e-007
+1.9456000e+004    +9.7325983e-007    +4.1185078e-007
+1.9584000e+004    +9.0020990e-007    +4.2801665e-007
+1.9712000e+004    +9.4653296e-007    +4.3002379e-007
+1.9840000e+004    +9.6615724e-007    +4.4182212e-007
+1.9968000e+004    +9.7971406e-007    +4.7207007e-007
+2.0096000e+004    +9.7853376e-007    +4.4836267e-007
+2.0224000e+004    +1.0195769e-006    +4.0651494e-007
+2.0352000e+004    +9.9748445e-007    +4.1159763e-007
+2.0480000e+004    +9.4848565e-007    +4.0301518e-007
+2.0608000e+004    +9.4448575e-007    +3.9749690e-007
+2.0736000e+004    +9.9753697e-007    +3.9830428e-007
+2.0864000e+004    +9.6088786e-007    +3.8142275e-007
+2.0992000e+004    +9.1371783e-007    +3.8229734e-007
+2.1120000e+004    +9.5182503e-007    +3.8529765e-007
+2.1248000e+004    +9.3604922e-007    +4.2144006e-007
+2.1376000e+004    +9.3623527e-007    +4.8848244e-007
+2.1504000e+004    +9.3880044e-007    +4.9457208e-007
+2.1632000e+004    +9.5501468e-007    +4.3280565e-007
+2.1760000e+004    +9.5846860e-007    +4.1226158e-007
+2.1888000e+004    +9.3597629e-007    +4.3767756e-007
+2.2016000e+004    +9.2115170e-007    +3.6880175e-007
+2.2144000e+004    +9.3698702e-007    +3.7938244e-007
+2.2272000e+004    +9.3112192e-007    +4.0034388e-007
+2.2400000e+004    +9.8571206e-007    +3.9546615e-007
+2.2528000e+004    +9.7774864e-007    +3.7409657e-007
+2.2656000e+004    +9.1990751e-007    +3.7520681e-007
+2.2784000e+004    +8.7832262e-007    +3.7883510e-007
+2.2912000e+004    +9.0058757e-007    +3.8636094e-007
+2.3040000e+004    +9.0284288e-007    +3.9267499e-007
+2.3168000e+004    +9.2737440e-007    +3.7941371e-007
+2.3296000e+004    +9.6804729e-007    +3.9017331e-007
+2.3424000e+004    +9.2520003e-007    +3.8152663e-007
+2.3552000e+004    +9.3848712e-007    +3.9943239e-007
+2.3680000e+004    +9.5054776e-007    +4.1757474e-007
+2.3808000e+004    +9.8309761e-007    +4.1084454e-007
+2.3936000e+004    +1.0493948e-006    +3.8624430e-007
+2.4064000e+004    +1.0430905e-006    +4.1584528e-007
+2.4192000e+004    +1.0168224e-006    +4.2299956e-007
+2.4320000e+004    +9.4295223e-007    +4.0565843e-007
+2.4448000e+004    +9.5403266e-007    +3.8352286e-007
+2.4576000e+004    +9.8584303e-007    +4.1237791e-007
+2.4704000e+004    +8.9835959e-007    +3.8937904e-007
+2.4832000e+004    +9.2245426e-007    +4.0451980e-007
+2.4960000e+004    +9.4835548e-007    +3.8783278e-007
+2.5088000e+004    +9.4505106e-007    +3.9572936e-007
+2.5216000e+004    +9.2220313e-007    +4.0510429e-007
+2.5344000e+004    +9.1823239e-007    +4.1437175e-007
+2.5472000e+004    +9.1557263e-007    +4.1743172e-007
+2.5600000e+004    +9.6433860e-007    +4.1900535e-007
+2.5728000e+004    +9.0130669e-007    +4.2542013e-007
+2.5856000e+004    +9.3396113e-007    +3.8599885e-007
+2.5984000e+004    +9.3292294e-007    +3.6823931e-007
+2.6112000e+004    +9.7734403e-007    +4.2368049e-007
+2.6240000e+004    +9.5455334e-007    +4.2297307e-007
+2.6368000e+004    +9.8745932e-007    +3.9042743e-007
+2.6496000e+004    +1.0170345e-006    +3.8323284e-007
+2.6624000e+004    +9.9615033e-007    +4.2984345e-007
+2.6752000e+004    +9.5900748e-007    +4.6307397e-007
+2.6880000e+004    +9.3661572e-007    +4.3941967e-007
+2.7008000e+004    +9.6314295e-007    +4.3398862e-007
+2.7136000e+004    +9.3496971e-007    +3.8130005e-007
+2.7264000e+004    +9.7122836e-007    +3.8036720e-007
+2.7392000e+004    +9.6127189e-007    +3.9564682e-007
+2.7520000e+004    +9.6995814e-007    +3.8699352e-007
+2.7648000e+004    +9.7324596e-007    +3.9073234e-007
+2.7776000e+004    +9.8977034e-007    +3.8119333e-007
+2.7904000e+004    +9.7155794e-007    +3.7190310e-007
+2.8032000e+004    +9.6167309e-007    +3.9103449e-007
+2.8160000e+004    +1.0090771e-006    +4.0652029e-007
+2.8288000e+004    +1.0497693e-006    +4.1968678e-007
+2.8416000e+004    +1.0425947e-006    +4.3137530e-007
+2.8544000e+004    +1.0265389e-006    +4.0727306e-007
+2.8672000e+004    +1.0319418e-006    +4.2455176e-007
+2.8800000e+004    +1.0107470e-006    +4.3293304e-007
+2.8928000e+004    +9.7614827e-007    +4.2495330e-007
+2.9056000e+004    +1.0057114e-006    +4.5022688e-007
+2.9184000e+004    +1.0357660e-006    +4.3162024e-007
+2.9312000e+004    +1.0485816e-006    +4.2660960e-007
+2.9440000e+004    +1.0372523e-006    +4.2088888e-007
+2.9568000e+004    +1.0611758e-006    +4.1088197e-007
+2.9696000e+004    +1.0643988e-006    +4.3533254e-007
+2.9824000e+004    +1.0957933e-006    +4.4417578e-007
+2.9952000e+004    +1.0628164e-006    +4.7169755e-007
+3.0080000e+004    +1.0775651e-006    +4.7885226e-007
+3.0208000e+004    +1.0489213e-006    +4.6317771e-007
+3.0336000e+004    +1.0944286e-006    +4.5119432e-007
+3.0464000e+004    +1.0766415e-006    +4.5142573e-007
+3.0592000e+004    +1.0654031e-006    +4.1514821e-007
+3.0720000e+004    +1.0949670e-006    +4.1079898e-007
+3.0848000e+004    +1.1106922e-006    +4.6101633e-007
+3.0976000e+004    +1.0982818e-006    +4.5846471e-007
+3.1104000e+004    +1.1061164e-006    +4.7503633e-007
+3.1232000e+004    +1.1171462e-006    +4.5544988e-007
+3.1360000e+004    +1.1412421e-006    +4.2509328e-007
+3.1488000e+004    +1.1278190e-006    +4.4295436e-007
+3.1616000e+004    +1.1577234e-006    +4.7642050e-007
+3.1744000e+004    +1.1744918e-006    +4.8627777e-007
+3.1872000e+004    +1.1446681e-006    +4.2828555e-007
+3.2000000e+004    +1.1219845e-006    +4.4208466e-007
+3.2128000e+004    +1.1579205e-006    +4.5295840e-007
+3.2256000e+004    +1.1857541e-006    +4.3637482e-007
+3.2384000e+004    +1.1733885e-006    +4.5259995e-007
+3.2512000e+004    +1.1480337e-006    +4.6018545e-007
+3.2640000e+004    +1.0918218e-006    +4.8539067e-007
+3.2768000e+004    +1.1559973e-006    +4.9452319e-007
+3.2896000e+004    +1.1074690e-006    +4.9813241e-007
+3.3024000e+004    +1.0578151e-006    +4.8804179e-007
+3.3152000e+004    +1.0770021e-006    +4.7394957e-007
+3.3280000e+004    +1.1455281e-006    +4.8267924e-007
+3.3408000e+004    +1.1281993e-006    +4.9531224e-007
+3.3536000e+004    +1.1219105e-006    +4.9544497e-007
+3.3664000e+004    +1.1514118e-006    +5.0513592e-007
+3.3792000e+004    +1.1688930e-006    +5.0109679e-007
+3.3920000e+004    +1.0850493e-006    +5.3348100e-007
+3.4048000e+004    +1.1026520e-006    +5.1367522e-007
+3.4176000e+004    +1.1552322e-006    +4.5011566e-007
+3.4304000e+004    +1.1271146e-006    +4.5336390e-007
+3.4432000e+004    +1.1161335e-006    +5.1196633e-007
+3.4560000e+004    +1.1414013e-006    +5.1633509e-007
+3.4688000e+004    +1.1682311e-006    +4.8501829e-007
+3.4816000e+004    +1.1958738e-006    +5.1145224e-007
+3.4944000e+004    +1.1411570e-006    +5.2097732e-007
+3.5072000e+004    +1.1204850e-006    +5.4980131e-007
+3.5200000e+004    +1.1103082e-006    +5.2638092e-007
+3.5328000e+004    +1.1320172e-006    +5.2518362e-007
+3.5456000e+004    +1.1397671e-006    +5.1420506e-007
+3.5584000e+004    +1.1558450e-006    +4.8630284e-007
+3.5712000e+004    +1.1045641e-006    +4.9562613e-007
+3.5840000e+004    +1.1293704e-006    +5.0073379e-007
+3.5968000e+004    +1.1567959e-006    +4.8040630e-007
+3.6096000e+004    +1.1380064e-006    +5.1667479e-007
+3.6224000e+004    +1.1185269e-006    +5.1048335e-007
+3.6352000e+004    +1.1597743e-006    +5.4128634e-007
+3.6480000e+004    +1.1645031e-006    +5.7006855e-007
+3.6608000e+004    +1.1168432e-006    +6.0844945e-007
+3.6736000e+004    +1.1726891e-006    +5.5422635e-007
+3.6864000e+004    +1.1695221e-006    +5.5727179e-007
+3.6992000e+004    +1.2153838e-006    +5.5075532e-007
+3.7120000e+004    +1.1634386e-006    +5.2601922e-007
+3.7248000e+004    +1.1298765e-006    +5.3243417e-007
+3.7376000e+004    +1.2024148e-006    +5.7023504e-007
+3.7504000e+004    +1.2115241e-006    +5.5759125e-007
+3.7632000e+004    +1.2034039e-006    +5.5020348e-007
+3.7760000e+004    +1.1486566e-006    +5.6050811e-007
+3.7888000e+004    +1.1621312e-006    +5.6165084e-007
+3.8016000e+004    +1.1567680e-006    +5.1461677e-007
+3.8144000e+004    +1.2003543e-006    +5.6113186e-007
+3.8272000e+004    +1.1899289e-006    +6.0510109e-007
+3.8400000e+004    +1.1785854e-006    +6.2220829e-007
+3.8528000e+004    +1.1983869e-006    +5.9185635e-007
+3.8656000e+004    +1.2153145e-006    +5.6191055e-007
+3.8784000e+004    +1.2024583e-006    +5.7012613e-007
+3.8912000e+004    +1.2172829e-006    +5.8598260e-007
+3.9040000e+004    +1.2060216e-006    +6.1650763e-007
+3.9168000e+004    +1.1905601e-006    +6.2441603e-007
+3.9296000e+004    +1.1793142e-006    +6.2540886e-007
+3.9424000e+004    +1.2048014e-006    +6.0596005e-007
+3.9552000e+004    +1.1975451e-006    +5.7464092e-007
+3.9680000e+004    +1.1809442e-006    +5.6306482e-007
+3.9808000e+004    +1.2003399e-006    +5.5328087e-007
+3.9936000e+004    +1.1661498e-006    +6.2086662e-007
+4.0064000e+004    +1.1558031e-006    +5.8812446e-007
+4.0192000e+004    +1.2157589e-006    +5.7726783e-007
+4.0320000e+004    +1.2353546e-006    +5.6838610e-007
+4.0448000e+004    +1.2886885e-006    +5.4158949e-007
+4.0576000e+004    +1.3308287e-006    +6.3143233e-007
+4.0704000e+004    +1.2748028e-006    +6.3705551e-007
+4.0832000e+004    +1.1780395e-006    +5.6697934e-007
+4.0960000e+004    +1.2251173e-006    +5.5959555e-007
+4.1088000e+004    +1.1783370e-006    +5.8136339e-007
+4.1216000e+004    +1.1624618e-006    +6.4250156e-007
+4.1344000e+004    +1.2144408e-006    +6.5187834e-007
+4.1472000e+004    +1.2661557e-006    +6.1064060e-007
+4.1600000e+004    +1.2118606e-006    +5.7962467e-007
+4.1728000e+004    +1.1364868e-006    +5.6981452e-007
+4.1856000e+004    +1.1622997e-006    +6.3526949e-007
+4.1984000e+004    +1.1831479e-006    +6.1648393e-007
+4.2112000e+004    +1.1713161e-006    +6.0174801e-007
+4.2240000e+004    +1.1298243e-006    +6.6756110e-007
+4.2368000e+004    +1.1265295e-006    +6.6295581e-007
+4.2496000e+004    +1.1630809e-006    +6.4994657e-007
+4.2624000e+004    +1.1928681e-006    +6.4739612e-007
+4.2752000e+004    +1.1840576e-006    +6.4090295e-007
+4.2880000e+004    +1.1938390e-006    +6.5770672e-007
+4.3008000e+004    +1.1509050e-006    +6.9440495e-007
+4.3136000e+004    +1.0570872e-006    +6.9199001e-007
+4.3264000e+004    +1.1616821e-006    +6.7568288e-007
+4.3392000e+004    +1.1493808e-006    +6.6575245e-007
+4.3520000e+004    +1.1771318e-006    +5.9440595e-007
+4.3648000e+004    +1.1935808e-006    +6.4272382e-007
+4.3776000e+004    +1.1628358e-006    +6.8635046e-007
+4.3904000e+004    +1.1662535e-006    +7.0578648e-007
+4.4032000e+004    +1.1386638e-006    +6.7996660e-007
+4.4160000e+004    +1.1420243e-006    +7.0737531e-007
+4.4288000e+004    +1.1237721e-006    +7.1508197e-007
+4.4416000e+004    +1.1382476e-006    +6.8761392e-007
+4.4544000e+004    +1.2019910e-006    +6.8921855e-007
+4.4672000e+004    +1.1890590e-006    +6.8552583e-007
+4.4800000e+004    +1.2069806e-006    +6.9054414e-007
+4.4928000e+004    +1.2450006e-006    +7.5024587e-007
+4.5056000e+004    +1.1756155e-006    +6.8467205e-007
+4.5184000e+004    +1.1498856e-006    +6.9808885e-007
+4.5312000e+004    +1.2508663e-006    +7.7603642e-007
+4.5440000e+004    +1.2582162e-006    +7.5832878e-007
+4.5568000e+004    +1.2070178e-006    +7.5518221e-007
+4.5696000e+004    +1.2503651e-006    +6.8732254e-007
+4.5824000e+004    +1.2826919e-006    +7.1486295e-007
+4.5952000e+004    +1.2864563e-006    +7.8538562e-007
+4.6080000e+004    +1.2207294e-006    +7.4361867e-007
+4.6208000e+004    +1.1796444e-006    +7.3138290e-007
+4.6336000e+004    +1.2146488e-006    +7.1842180e-007
+4.6464000e+004    +1.2372577e-006    +7.1879504e-007
+4.6592000e+004    +1.2203501e-006    +7.0219380e-007
+4.6720000e+004    +1.1994638e-006    +6.9873988e-007
+4.6848000e+004    +1.2408437e-006    +7.2749299e-007
+4.6976000e+004    +1.2822709e-006    +7.6006842e-007
+4.7104000e+004    +1.2771746e-006    +7.3206496e-007
+4.7232000e+004    +1.2283283e-006    +8.0430942e-007
+4.7360000e+004    +1.2373338e-006    +8.3717595e-007
+4.7488000e+004    +1.2657983e-006    +7.5744174e-007
+4.7616000e+004    +1.3310552e-006    +7.2462791e-007
+4.7744000e+004    +1.2449459e-006    +7.4851141e-007
+4.7872000e+004    +1.2156788e-006    +7.6697023e-007
+4.8000000e+004    +1.2279858e-006    +7.7226673e-007
+4.8128000e+004    +1.1399949e-006    +8.1364101e-007
+4.8256000e+004    +1.1631766e-006    +7.9595048e-007
+4.8384000e+004    +1.1294213e-006    +7.5705094e-007
+4.8512000e+004    +1.1011555e-006    +7.4647033e-007
+4.8640000e+004    +1.0759042e-006    +7.9973307e-007
+4.8768000e+004    +1.0928568e-006    +7.8866498e-007
+4.8896000e+004    +1.0175515e-006    +7.9217625e-007
+4.9024000e+004    +1.0702723e-006    +7.4565935e-007
+4.9152000e+004    +1.0755073e-006    +7.3417795e-007
+4.9280000e+004    +1.0033984e-006    +7.5481250e-007
+4.9408000e+004    +1.0367195e-006    +7.9374428e-007
+4.9536000e+004    +1.0345703e-006    +7.4663177e-007
+4.9664000e+004    +1.0242052e-006    +7.8766197e-007
+4.9792000e+004    +1.0122119e-006    +8.7401861e-007
+4.9920000e+004    +1.0371725e-006    +8.1371422e-007
+5.0048000e+004    +1.0591447e-006    +8.4208403e-007
+5.0176000e+004    +1.0377444e-006    +9.0876034e-007
+5.0304000e+004    +9.9556974e-007    +8.9233839e-007
+5.0432000e+004    +9.5951941e-007    +8.6440832e-007
+5.0560000e+004    +9.2544792e-007    +8.2755906e-007
+5.0688000e+004    +9.5357291e-007    +8.2218480e-007
+5.0816000e+004    +9.4463610e-007    +8.4672149e-007
+5.0944000e+004    +9.5103002e-007    +8.4146757e-007
+5.1072000e+004    +9.2744568e-007    +8.0201136e-007
+5.1200000e+004    +9.1709489e-007    +7.0971618e-007
+5.1328000e+004    +9.1080608e-007    +8.1768712e-007
+5.1456000e+004    +9.4184094e-007    +8.2042095e-007
+5.1584000e+004    +9.5092457e-007    +7.5578527e-007
+5.1712000e+004    +9.1850262e-007    +7.7631165e-007
+5.1840000e+004    +9.5553492e-007    +8.0987445e-007
+5.1968000e+004    +9.1458099e-007    +8.3578914e-007
+5.2096000e+004    +8.9114292e-007    +8.3896754e-007
+5.2224000e+004    +9.1867713e-007    +8.7327714e-007
+5.2352000e+004    +9.0300449e-007    +9.3650669e-007
+5.2480000e+004    +9.1390541e-007    +9.4764249e-007
+5.2608000e+004    +8.9919638e-007    +9.3848712e-007
+5.2736000e+004    +8.8264295e-007    +9.3653034e-007
+5.2864000e+004    +8.7512865e-007    +9.1898681e-007
+5.2992000e+004    +8.6561448e-007    +9.9100998e-007
+5.3120000e+004    +8.5947488e-007    +9.3678744e-007
+5.3248000e+004    +8.8044771e-007    +8.0620680e-007
+5.3376000e+004    +9.0215025e-007    +7.6944241e-007
+5.3504000e+004    +8.6850287e-007    +7.5640872e-007
+5.3632000e+004    +8.5660059e-007    +8.1760811e-007
+5.3760000e+004    +8.4309983e-007    +9.0834533e-007
+5.3888000e+004    +8.4426608e-007    +9.2823626e-007
+5.4016000e+004    +8.4110087e-007    +9.1641346e-007
+5.4144000e+004    +8.3803951e-007    +8.7053064e-007
+5.4272000e+004    +8.1556840e-007    +8.4675122e-007
+5.4400000e+004    +8.2789984e-007    +8.6028967e-007
+5.4528000e+004    +8.2866194e-007    +9.0404711e-007
+5.4656000e+004    +8.2951402e-007    +8.7354471e-007
+5.4784000e+004    +8.1504561e-007    +8.8131719e-007
+5.4912000e+004    +8.1654059e-007    +8.5955509e-007
+5.5040000e+004    +8.1273208e-007    +8.4476125e-007
+5.5168000e+004    +8.1965743e-007    +9.8604448e-007
+5.5296000e+004    +8.1173505e-007    +1.0487174e-006
+5.5424000e+004    +7.9031713e-007    +9.8076566e-007
+5.5552000e+004    +8.5521066e-007    +9.3661259e-007
+5.5680000e+004    +8.0296030e-007    +1.0171126e-006
+5.5808000e+004    +7.8890139e-007    +9.7782060e-007
+5.5936000e+004    +8.1651814e-007    +9.3424421e-007
+5.6064000e+004    +8.0331745e-007    +8.7701687e-007
+5.6192000e+004    +7.8968395e-007    +9.7983570e-007
+5.6320000e+004    +7.8665687e-007    +1.0456533e-006
+5.6448000e+004    +8.0520010e-007    +1.0308637e-006
+5.6576000e+004    +7.9173714e-007    +9.8288604e-007
+5.6704000e+004    +7.6280224e-007    +9.5021488e-007
+5.6832000e+004    +7.7982276e-007    +9.8766645e-007
+5.6960000e+004    +7.7984248e-007    +9.8608018e-007
+5.7088000e+004    +7.5969882e-007    +9.6247163e-007
+5.7216000e+004    +7.7226758e-007    +9.9263684e-007
+5.7344000e+004    +7.8287513e-007    +9.3562284e-007
+5.7472000e+004    +7.8500369e-007    +1.0181438e-006
+5.7600000e+004    +7.4840790e-007    +1.0345999e-006
+5.7728000e+004    +7.5950533e-007    +9.4769450e-007
+5.7856000e+004    +7.7516438e-007    +9.1492149e-007
+5.7984000e+004    +7.7467178e-007    +1.0018089e-006
+5.8112000e+004    +7.4462525e-007    +1.0332150e-006
+5.8240000e+004    +7.4098944e-007    +9.5345149e-007
+5.8368000e+004    +7.6523406e-007    +1.0360128e-006
+5.8496000e+004    +7.6426596e-007    +1.0534733e-006
+5.8624000e+004    +7.5773289e-007    +1.0596669e-006
+5.8752000e+004    +7.5933775e-007    +9.9765316e-007
+5.8880000e+004    +7.3135800e-007    +9.6214092e-007
+5.9008000e+004    +7.2584299e-007    +9.7022655e-007
+5.9136000e+004    +7.2563984e-007    +1.0064836e-006
+5.9264000e+004    +6.9841542e-007    +1.0241298e-006
+5.9392000e+004    +6.9083683e-007    +1.0198590e-006
+5.9520000e+004    +7.0197643e-007    +1.1052144e-006
+5.9648000e+004    +6.9562594e-007    +9.7568966e-007
+5.9776000e+004    +7.0380315e-007    +1.1151144e-006
+5.9904000e+004    +7.0790833e-007    +1.0991673e-006
+6.0032000e+004    +7.2468998e-007    +1.0637539e-006
+6.0160000e+004    +7.0851797e-007    +1.1231775e-006
+6.0288000e+004    +7.1011840e-007    +1.1381989e-006
+6.0416000e+004    +7.0434584e-007    +1.0656383e-006
+6.0544000e+004    +7.0530234e-007    +1.1494034e-006
+6.0672000e+004    +7.0779254e-007    +1.0843788e-006
+6.0800000e+004    +7.1156541e-007    +1.0604421e-006
+6.0928000e+004    +6.8544301e-007    +1.0560674e-006
+6.1056000e+004    +6.7913095e-007    +1.0788389e-006
+6.1184000e+004    +6.6684834e-007    +1.1094503e-006
+6.1312000e+004    +6.6360758e-007    +1.1949302e-006
+6.1440000e+004    +6.7347867e-007    +1.1404780e-006
+6.1568000e+004    +6.9098553e-007    +1.0653458e-006
+6.1696000e+004    +6.8740104e-007    +1.2079273e-006
+6.1824000e+004    +6.7916079e-007    +1.1658323e-006
+6.1952000e+004    +6.8063139e-007    +1.1782723e-006
+6.2080000e+004    +6.7787943e-007    +1.1579815e-006
+6.2208000e+004    +6.6622187e-007    +1.1783460e-006
+6.2336000e+004    +6.7509262e-007    +1.1655405e-006
+6.2464000e+004    +6.6199345e-007    +1.1759937e-006
+6.2592000e+004    +6.4360091e-007    +1.1127539e-006
+6.2720000e+004    +6.5230932e-007    +1.1202267e-006
+6.2848000e+004    +6.6867761e-007    +1.1492002e-006
+6.2976000e+004    +6.8213586e-007    +1.1370123e-006
+6.3104000e+004    +6.6442630e-007    +1.1292502e-006
+6.3232000e+004    +6.3538670e-007    +1.0974200e-006
+6.3360000e+004    +6.6665137e-007    +1.1057048e-006
+6.3488000e+004    +6.7649273e-007    +1.1824051e-006
+6.3616000e+004    +6.4527785e-007    +1.2104178e-006
+6.3744000e+004    +6.0687489e-007    +1.2329101e-006
+6.3872000e+004    +6.3328338e-007    +1.1602774e-006
+6.4000000e+004    +6.4600442e-007    +1.1937460e-006
+6.4128000e+004    +6.4503701e-007    +1.1326563e-006
+6.4256000e+004    +6.4536215e-007    +1.1089388e-006
+6.4384000e+004    +6.3015455e-007    +1.2204640e-006
+6.4512000e+004    +6.3504774e-007    +1.2532445e-006
+6.4640000e+004    +6.6305699e-007    +1.2641789e-006
+6.4768000e+004    +6.6570345e-007    +1.1886270e-006
+6.4896000e+004    +6.3888513e-007    +1.1881507e-006
+6.5024000e+004    +6.2150093e-007    +1.2216826e-006
+6.5152000e+004    +6.0215712e-007    +1.2052274e-006
+6.5280000e+004    +6.5842056e-007    +1.1614819e-006
+6.5408000e+004    +6.6797094e-007    +1.1726015e-006
+6.5536000e+004    +6.3362830e-007    +1.2069052e-006
+6.5664000e+004    +6.2122393e-007    +1.3167318e-006
+6.5792000e+004    +6.2183403e-007    +1.2871401e-006
+6.5920000e+004    +6.2612276e-007    +1.3288342e-006
+6.6048000e+004    +6.2772313e-007    +1.2725485e-006
+6.6176000e+004    +6.2506905e-007    +1.2257605e-006
+6.6304000e+004    +6.2197194e-007    +1.2484775e-006
+6.6432000e+004    +6.2944093e-007    +1.2610708e-006
+6.6560000e+004    +6.1793480e-007    +1.3430400e-006
+6.6688000e+004    +6.1498781e-007    +1.3129768e-006
+6.6816000e+004    +6.0712284e-007    +1.2844351e-006
+6.6944000e+004    +6.0907973e-007    +1.2454011e-006
+6.7072000e+004    +6.1009240e-007    +1.2734066e-006
+6.7200000e+004    +6.1944627e-007    +1.3105787e-006
+6.7328000e+004    +6.1736858e-007    +1.5151569e-006
+6.7456000e+004    +5.8924394e-007    +1.4664698e-006
+6.7584000e+004    +6.1622205e-007    +1.3292851e-006
+6.7712000e+004    +6.3189560e-007    +1.2771859e-006
+6.7840000e+004    +6.1998992e-007    +1.3187718e-006
+6.7968000e+004    +6.1545461e-007    +1.4367369e-006
+6.8096000e+004    +6.0991829e-007    +1.3732472e-006
+6.8224000e+004    +6.2159717e-007    +1.3613784e-006
+6.8352000e+004    +6.1416125e-007    +1.4751287e-006
+6.8480000e+004    +6.2533263e-007    +1.3901637e-006
+6.8608000e+004    +6.0894672e-007    +1.3892543e-006
+6.8736000e+004    +5.9826237e-007    +1.3645434e-006
+6.8864000e+004    +5.8977992e-007    +1.3428424e-006
+6.8992000e+004    +5.7494384e-007    +1.4173165e-006
+6.9120000e+004    +5.8581986e-007    +1.3686112e-006
+6.9248000e+004    +5.8679512e-007    +1.3338787e-006
+6.9376000e+004    +6.0569067e-007    +1.2983930e-006
+6.9504000e+004    +6.1164980e-007    +1.4029564e-006
+6.9632000e+004    +6.0979772e-007    +1.4287033e-006
+6.9760000e+004    +5.8838026e-007    +1.4755434e-006
+6.9888000e+004    +5.8113750e-007    +1.4271324e-006
+7.0016000e+004    +5.7870517e-007    +1.4056393e-006
+7.0144000e+004    +9.1282840e-007    +1.6312969e-006
+7.0272000e+004    +1.2354346e-006    +1.6824018e-006
+7.0400000e+004    +7.3694321e-007    +1.4183283e-006
+7.0528000e+004    +5.9422973e-007    +1.4500442e-006
+7.0656000e+004    +6.1531335e-007    +1.4747660e-006
+7.0784000e+004    +7.8729283e-007    +1.4252111e-006
+7.0912000e+004    +6.5945949e-007    +1.3431638e-006
+7.1040000e+004    +5.9206434e-007    +1.2791591e-006
+7.1168000e+004    +5.7846313e-007    +1.4230328e-006
+7.1296000e+004    +5.7561846e-007    +1.4366312e-006
+7.1424000e+004    +5.5896430e-007    +1.4321679e-006
+7.1552000e+004    +5.7048618e-007    +1.4272717e-006
+7.1680000e+004    +5.8970028e-007    +1.5334914e-006
+7.1808000e+004    +5.9022625e-007    +1.4745700e-006
+7.1936000e+004    +5.8314765e-007    +1.3790825e-006
+7.2064000e+004    +5.7471851e-007    +1.5113603e-006
+7.2192000e+004    +5.6491382e-007    +1.5279905e-006
+7.2320000e+004    +5.6211047e-007    +1.3968988e-006
+7.2448000e+004    +5.6270699e-007    +1.3442217e-006
+7.2576000e+004    +5.6628812e-007    +1.3575557e-006
+7.2704000e+004    +5.4405274e-007    +1.2558796e-006
+7.2832000e+004    +5.4491301e-007    +1.3630281e-006
+7.2960000e+004    +5.6338513e-007    +1.3109702e-006
+7.3088000e+004    +5.6477182e-007    +1.2869394e-006
+7.3216000e+004    +5.6094149e-007    +1.4580329e-006
+7.3344000e+004    +5.7328225e-007    +1.4084401e-006
+7.3472000e+004    +5.6358124e-007    +1.4658098e-006
+7.3600000e+004    +5.4506859e-007    +1.5369756e-006
+7.3728000e+004    +5.5353365e-007    +1.4619170e-006
+7.3856000e+004    +5.4884532e-007    +1.4063170e-006
+7.3984000e+004    +5.5226792e-007    +1.4133476e-006
+7.4112000e+004    +5.6136111e-007    +1.4352406e-006
+7.4240000e+004    +5.4748455e-007    +1.4009246e-006
+7.4368000e+004    +5.2033192e-007    +1.5565206e-006
+7.4496000e+004    +5.2262902e-007    +1.6216660e-006
+7.4624000e+004    +5.4181191e-007    +1.6930494e-006
+7.4752000e+004    +5.5183517e-007    +1.4345900e-006
+7.4880000e+004    +5.6811967e-007    +1.4862095e-006
+7.5008000e+004    +5.7193557e-007    +1.5503532e-006
+7.5136000e+004    +5.6760655e-007    +1.5548945e-006
+7.5264000e+004    +5.6042438e-007    +1.5581553e-006
+7.5392000e+004    +5.5611719e-007    +1.6112250e-006
+7.5520000e+004    +5.4508592e-007    +1.5600109e-006
+7.5648000e+004    +5.6122735e-007    +1.6406228e-006
+7.5776000e+004    +5.4643721e-007    +1.6726016e-006
+7.5904000e+004    +5.4184108e-007    +1.6769927e-006
+7.6032000e+004    +5.3100268e-007    +1.6426613e-006
+7.6160000e+004    +5.3430756e-007    +1.5137650e-006
+7.6288000e+004    +5.2886440e-007    +1.5513391e-006
+7.6416000e+004    +5.3899538e-007    +1.4862030e-006
+7.6544000e+004    +5.5801814e-007    +1.5434745e-006
+7.6672000e+004    +5.4308589e-007    +1.6159677e-006
+7.6800000e+004    +5.1676614e-007    +4.7570543e-006
+7.6928000e+004    +5.1925724e-007    +8.9932182e-006
+7.7056000e+004    +5.4293031e-007    +4.5955126e-006
+7.7184000e+004    +5.2926231e-007    +1.5525983e-006
+7.7312000e+004    +5.1827988e-007    +1.5587935e-006
+7.7440000e+004    +5.1071771e-007    +1.7363028e-006
+7.7568000e+004    +5.3874982e-007    +1.7976492e-006
+7.7696000e+004    +5.5603414e-007    +1.7149011e-006
+7.7824000e+004    +5.2010574e-007    +1.6572426e-006
+7.7952000e+004    +5.1422933e-007    +1.5889069e-006
+7.8080000e+004    +5.1958631e-007    +1.5622512e-006
+7.8208000e+004    +5.3336214e-007    +1.6343517e-006
+7.8336000e+004    +5.5888819e-007    +1.5893169e-006
+7.8464000e+004    +5.4522781e-007    +1.5547836e-006
+7.8592000e+004    +5.0362132e-007    +1.6247171e-006
+7.8720000e+004    +5.2465799e-007    +1.6455966e-006
+7.8848000e+004    +5.3242655e-007    +1.7220881e-006
+7.8976000e+004    +5.3530226e-007    +1.7685535e-006
+7.9104000e+004    +5.1472301e-007    +1.7073543e-006
+7.9232000e+004    +5.1535693e-007    +1.7095115e-006
+7.9360000e+004    +4.8988375e-007    +1.6594495e-006
+7.9488000e+004    +5.0098015e-007    +1.4850840e-006
+7.9616000e+004    +5.1870910e-007    +1.5038718e-006
+7.9744000e+004    +5.2675205e-007    +1.7393747e-006
+7.9872000e+004    +5.4645756e-007    +1.5999638e-006
+8.0000000e+004    +5.3381382e-007    +1.5417756e-006
+8.0128000e+004    +5.1097288e-007    +1.5171195e-006
+8.0256000e+004    +5.0614244e-007    +1.5202810e-006
+8.0384000e+004    +5.0826696e-007    +1.6716303e-006
+8.0512000e+004    +5.1062631e-007    +1.7905086e-006
+8.0640000e+004    +5.0393271e-007    +1.8199536e-006
+8.0768000e+004    +4.9532690e-007    +1.9697093e-006
+8.0896000e+004    +4.7677580e-007    +2.0287123e-006
+8.1024000e+004    +4.7714502e-007    +1.8453630e-006
+8.1152000e+004    +4.8091664e-007    +1.5856044e-006
+8.1280000e+004    +4.9854168e-007    +1.6498716e-006
+8.1408000e+004    +5.0997971e-007    +1.7451326e-006
+8.1536000e+004    +5.0694553e-007    +1.6444876e-006
+8.1664000e+004    +5.2039650e-007    +1.6994057e-006
+8.1792000e+004    +5.0959295e-007    +1.5375460e-006
+8.1920000e+004    +5.1485586e-007    +1.6370331e-006
+8.2048000e+004    +4.9211997e-007    +1.7026442e-006
+8.2176000e+004    +5.1143707e-007    +1.6584877e-006
+8.2304000e+004    +4.9691971e-007    +1.6650854e-006
+8.2432000e+004    +4.9604643e-007    +1.6774236e-006
+8.2560000e+004    +4.8409680e-007    +1.7466681e-006
+8.2688000e+004    +4.9051562e-007    +1.6289164e-006
+8.2816000e+004    +4.7599960e-007    +1.7097047e-006
+8.2944000e+004    +4.9027653e-007    +1.7915037e-006
+8.3072000e+004    +4.9566097e-007    +1.6573027e-006
+8.3200000e+004    +4.8855378e-007    +1.5511091e-006
+8.3328000e+004    +4.8490540e-007    +1.6825626e-006
+8.3456000e+004    +4.8619074e-007    +1.6714082e-006
+8.3584000e+004    +4.8944611e-007    +1.6280403e-006
+8.3712000e+004    +4.8927524e-007    +1.7144775e-006
+8.3840000e+004    +4.8895038e-007    +1.8421787e-006
+8.3968000e+004    +4.9029433e-007    +1.7729941e-006
+8.4096000e+004    +4.9265572e-007    +1.7960729e-006
+8.4224000e+004    +4.8216754e-007    +1.8174255e-006
+8.4352000e+004    +4.9564460e-007    +1.8155688e-006
+8.4480000e+004    +4.7031523e-007    +1.7931134e-006
+8.4608000e+004    +4.3436236e-007    +1.8165757e-006
+8.4736000e+004    +4.4484784e-007    +1.7430588e-006
+8.4864000e+004    +4.6400635e-007    +1.7428789e-006
+8.4992000e+004    +4.4539374e-007    +1.8697615e-006
+8.5120000e+004    +4.2558972e-007    +1.8235379e-006
+8.5248000e+004    +4.2438725e-007    +1.7703603e-006
+8.5376000e+004    +4.4106164e-007    +1.7563913e-006
+8.5504000e+004    +4.4043546e-007    +1.8256154e-006
+8.5632000e+004    +4.4393639e-007    +1.9397253e-006
+8.5760000e+004    +4.3151550e-007    +1.7656452e-006
+8.5888000e+004    +4.2850661e-007    +1.7778792e-006
+8.6016000e+004    +4.4305455e-007    +1.8050205e-006
+8.6144000e+004    +4.3433519e-007    +1.8146998e-006
+8.6272000e+004    +4.1814408e-007    +1.8617866e-006
+8.6400000e+004    +3.9956663e-007    +1.6973453e-006
+8.6528000e+004    +4.1313248e-007    +1.6955515e-006
+8.6656000e+004    +4.3618800e-007    +1.7542694e-006
+8.6784000e+004    +4.3637243e-007    +1.8196279e-006
+8.6912000e+004    +4.4039146e-007    +1.8252787e-006
+8.7040000e+004    +4.2146044e-007    +1.8463398e-006
+8.7168000e+004    +4.0349116e-007    +1.9363504e-006
+8.7296000e+004    +3.8217229e-007    +1.9340939e-006
+8.7424000e+004    +3.9614062e-007    +1.8594781e-006
+8.7552000e+004    +4.0467128e-007    +1.7374604e-006
+8.7680000e+004    +4.1213713e-007    +1.6765987e-006
+8.7808000e+004    +4.0058308e-007    +1.8244272e-006
+8.7936000e+004    +3.8722686e-007    +1.7598388e-006
+8.8064000e+004    +3.9270861e-007    +1.7213282e-006
+8.8192000e+004    +3.9148597e-007    +1.7907091e-006
+8.8320000e+004    +3.9858907e-007    +1.9802869e-006
+8.8448000e+004    +3.9364235e-007    +1.8949007e-006
+8.8576000e+004    +3.8292242e-007    +1.8353488e-006
+8.8704000e+004    +3.9182441e-007    +1.7569525e-006
+8.8832000e+004    +3.9239225e-007    +1.8348128e-006
+8.8960000e+004    +3.7760259e-007    +1.9303241e-006
+8.9088000e+004    +3.6909017e-007    +1.9181380e-006
+8.9216000e+004    +3.6711464e-007    +1.7431104e-006
+8.9344000e+004    +3.6031719e-007    +1.7382522e-006
+8.9472000e+004    +3.8168332e-007    +1.9160605e-006
+8.9600000e+004    +3.7427901e-007    +1.8523867e-006
+8.9728000e+004    +3.4308206e-007    +1.8650499e-006
+8.9856000e+004    +3.6065481e-007    +1.8700119e-006
+8.9984000e+004    +3.4794880e-007    +1.9583319e-006
+9.0112000e+004    +3.4122550e-007    +1.9048216e-006
+9.0240000e+004    +3.5423861e-007    +1.9362867e-006
+9.0368000e+004    +3.5061717e-007    +1.8409108e-006
+9.0496000e+004    +3.4409194e-007    +1.9901697e-006
+9.0624000e+004    +3.4280907e-007    +1.9511378e-006
+9.0752000e+004    +3.4216117e-007    +1.8688810e-006
+9.0880000e+004    +3.1839409e-007    +1.8033545e-006
+9.1008000e+004    +3.3430013e-007    +1.7302377e-006
+9.1136000e+004    +3.5452422e-007    +1.8446013e-006
+9.1264000e+004    +3.4439432e-007    +1.8488005e-006
+9.1392000e+004    +3.5552483e-007    +1.7435602e-006
+9.1520000e+004    +3.4975247e-007    +1.8169009e-006
+9.1648000e+004    +3.2430839e-007    +1.6940814e-006
+9.1776000e+004    +3.5343405e-007    +1.7581625e-006
+9.1904000e+004    +3.4450625e-007    +1.8706178e-006
+9.2032000e+004    +3.2287869e-007    +2.0068153e-006
+9.2160000e+004    +3.2294110e-007    +1.8321294e-006
+9.2288000e+004    +3.4253779e-007    +1.8274102e-006
+9.2416000e+004    +3.2012991e-007    +1.8207930e-006
+9.2544000e+004    +3.2837119e-007    +1.8273862e-006
+9.2672000e+004    +3.4000183e-007    +1.8591330e-006
+9.2800000e+004    +3.3662647e-007    +1.9194272e-006
+9.2928000e+004    +3.2906343e-007    +1.8653120e-006
+9.3056000e+004    +3.1423693e-007    +1.9255529e-006
+9.3184000e+004    +3.1692781e-007    +1.9097595e-006
+9.3312000e+004    +3.1116790e-007    +1.7444545e-006
+9.3440000e+004    +3.0542111e-007    +1.9244665e-006
+9.3568000e+004    +2.8605308e-007    +2.0192676e-006
+9.3696000e+004    +2.8343914e-007    +2.0040188e-006
+9.3824000e+004    +2.8565387e-007    +1.8784986e-006
+9.3952000e+004    +2.8649282e-007    +1.8827645e-006
+9.4080000e+004    +2.8278853e-007    +1.8924515e-006
+9.4208000e+004    +2.8053779e-007    +1.8820225e-006
+9.4336000e+004    +2.8894928e-007    +1.8970469e-006
+9.4464000e+004    +3.0355963e-007    +1.9551117e-006
+9.4592000e+004    +2.8537926e-007    +1.9493691e-006
+9.4720000e+004    +2.9992663e-007    +1.8904972e-006
+9.4848000e+004    +3.0260890e-007    +1.8224771e-006
+9.4976000e+004    +3.1652408e-007    +1.8044656e-006
+9.5104000e+004    +3.1114774e-007    +1.9411314e-006
+9.5232000e+004    +2.9310607e-007    +1.9834399e-006
+9.5360000e+004    +3.0608680e-007    +2.1534518e-006
+9.5488000e+004    +2.8765177e-007    +2.0035702e-006
+9.5616000e+004    +2.7843976e-007    +1.8020442e-006
+9.5744000e+004    +2.7457506e-007    +1.8029922e-006
+9.5872000e+004    +2.8569119e-007    +1.9212976e-006
+9.6000000e+004    +2.8250986e-007    +1.9280958e-006
+9.6128000e+004    +2.6693348e-007    +2.1326866e-006
+9.6256000e+004    +2.6881639e-007    +1.9792435e-006
+9.6384000e+004    +2.8272333e-007    +1.8951837e-006
+9.6512000e+004    +2.8494688e-007    +1.8491578e-006
+9.6640000e+004    +2.8970948e-007    +1.9650390e-006
+9.6768000e+004    +2.8418452e-007    +2.0155487e-006
+9.6896000e+004    +2.9909694e-007    +1.9962624e-006
+9.7024000e+004    +3.4741666e-007    +1.9126112e-006
+9.7152000e+004    +3.0931929e-007    +1.7697928e-006
+9.7280000e+004    +2.7274672e-007    +1.8773027e-006
+9.7408000e+004    +2.6834635e-007    +1.8619050e-006
+9.7536000e+004    +2.8280095e-007    +1.7440466e-006
+9.7664000e+004    +2.8396775e-007    +1.6669750e-006
+9.7792000e+004    +2.8674867e-007    +1.8315843e-006
+9.7920000e+004    +3.6526075e-007    +1.8845618e-006
+9.8048000e+004    +3.5516629e-007    +1.8991268e-006
+9.8176000e+004    +3.2228581e-007    +1.8377241e-006
+9.8304000e+004    +3.2679225e-007    +1.8811115e-006
+9.8432000e+004    +3.0639919e-007    +1.7246558e-006
+9.8560000e+004    +2.9222400e-007    +1.6886644e-006
+9.8688000e+004    +2.8611151e-007    +1.8087322e-006
+9.8816000e+004    +3.0828517e-007    +1.7974933e-006
+9.8944000e+004    +3.1346849e-007    +1.7160331e-006
+9.9072000e+004    +2.8965255e-007    +1.7387656e-006
+9.9200000e+004    +3.1054978e-007    +1.7155113e-006
+9.9328000e+004    +2.8158391e-007    +1.8296146e-006
+9.9456000e+004    +2.6255884e-007    +1.8643742e-006
+9.9584000e+004    +2.5841985e-007    +1.7739015e-006
+9.9712000e+004    +2.6479614e-007    +1.8366732e-006
+9.9840000e+004    +2.6868361e-007    +1.7588904e-006
+9.9968000e+004    +2.5888900e-007    +1.6830041e-006
+1.0009600e+005    +2.6281930e-007    +1.7909962e-006
+1.0022400e+005    +2.3598209e-007    +1.7338339e-006
+1.0035200e+005    +2.4319192e-007    +1.7067151e-006
+1.0048000e+005    +2.3870552e-007    +1.8032891e-006
+1.0060800e+005    +2.4266220e-007    +1.6826918e-006
+1.0073600e+005    +2.4855854e-007    +1.6241374e-006
+1.0086400e+005    +2.4852031e-007    +1.7463575e-006
+1.0099200e+005    +2.5545495e-007    +1.7714589e-006
+1.0112000e+005    +2.5383417e-007    +1.8587351e-006
+1.0124800e+005    +2.4019539e-007    +1.8368245e-006
+1.0137600e+005    +2.2052615e-007    +1.8434048e-006
+1.0150400e+005    +2.2876611e-007    +1.9066335e-006
+1.0163200e+005    +2.3338323e-007    +1.9150718e-006
+1.0176000e+005    +2.3145301e-007    +1.7692896e-006
+1.0188800e+005    +2.3235054e-007    +1.7929519e-006
+1.0201600e+005    +2.2363156e-007    +1.7464514e-006
+1.0214400e+005    +2.2265620e-007    +1.5955833e-006
+1.0227200e+005    +2.0998182e-007    +1.6502846e-006
