# North DC Val: 0.66629685 VoltsSouth DC Val: 0.6023762100000001 Volts
# SR785 Measurement - Timestamp: Jul 06 2020 - 08:34:30
# Parameter File: /home/controls/Git/cit_ctnlab/ctn_scripts/TransRINSpecLong.yml
#---------- Measurement Setup ------------
# Start Frequency (Hz): 0.000000
# Frequency Span (Hz): 800.000000
# Frequency Resolution: 800
# Number of Averages: 100
# Averaging Mode: RMS
# Window function: Hanning
#---------- Measurement Parameters ----------
# Measurement Group:  "FFT" "FFT"
# Measurements:  "FFT 1" "FFT 2"
# View:  "Log Magnitude" "Log Magnitude"
# Unit:  "Vrms/rtHz" "Vrms/rtHz"
#---------- Input Parameters ----------
# Input Source: Analog
# Input Mode: Single ended, Single ended
# Input Grounding: Float, Float
# Input Coupling: AC, AC
# Input Range: -36.0dBVpk, -36.0dBVpk
# Auto Range: Off, Off
# Auto Range Mode: Tracking, Tracking
# Anti-Aliasing Filter: On, On
#---------- Source Parameters ----------
# Source Type: Sine
# Source Amplitude: 500.0mVpk
# Source On: 0

#---------- Measurement Data ----------
# [Freq(Hz) Display 0(Vrms/rtHz) Display 1(Vrms/rtHz) ]
+0.0000000e+000    +5.7622325e-004    +2.5442708e-004
+1.0000000e+000    +4.4528983e-004    +1.4835758e-004
+2.0000000e+000    +3.9696437e-004    +3.6632624e-005
+3.0000000e+000    +3.3997759e-004    +1.8616047e-005
+4.0000000e+000    +1.2601932e-004    +8.3583500e-006
+5.0000000e+000    +4.0431954e-005    +4.0251680e-006
+6.0000000e+000    +2.8875867e-005    +3.1230870e-006
+7.0000000e+000    +2.8886079e-005    +2.5783431e-006
+8.0000000e+000    +1.8787172e-005    +1.8416630e-006
+9.0000000e+000    +1.2763279e-005    +1.4272703e-006
+1.0000000e+001    +1.0484734e-005    +1.1672810e-006
+1.1000000e+001    +1.0150866e-005    +1.0480348e-006
+1.2000000e+001    +1.0840765e-005    +8.4340257e-007
+1.3000000e+001    +1.0228914e-005    +7.2908261e-007
+1.4000000e+001    +1.0392244e-005    +6.5214391e-007
+1.5000000e+001    +7.9860029e-006    +5.5443752e-007
+1.6000000e+001    +5.8464398e-006    +4.7184466e-007
+1.7000000e+001    +4.1944540e-006    +4.3640549e-007
+1.8000000e+001    +3.9468923e-006    +4.0642834e-007
+1.9000000e+001    +4.4056219e-006    +3.5697911e-007
+2.0000000e+001    +4.3280661e-006    +3.1698593e-007
+2.1000000e+001    +5.3316830e-006    +3.1228160e-007
+2.2000000e+001    +3.4919799e-006    +2.8956509e-007
+2.3000000e+001    +2.2808770e-006    +2.5262278e-007
+2.4000000e+001    +2.1679848e-006    +2.3940396e-007
+2.5000000e+001    +1.9350837e-006    +2.4315375e-007
+2.6000000e+001    +2.0221607e-006    +2.3455773e-007
+2.7000000e+001    +2.1623482e-006    +2.0767136e-007
+2.8000000e+001    +2.1157146e-006    +2.0651741e-007
+2.9000000e+001    +1.7688661e-006    +2.0732394e-007
+3.0000000e+001    +1.3847161e-006    +1.9472706e-007
+3.1000000e+001    +9.6741189e-007    +1.6017742e-007
+3.2000000e+001    +8.3924579e-007    +1.5350918e-007
+3.3000000e+001    +8.5211013e-007    +1.6151873e-007
+3.4000000e+001    +1.1938994e-006    +1.5661720e-007
+3.5000000e+001    +8.8854989e-007    +1.4147574e-007
+3.6000000e+001    +7.1198428e-007    +1.3824405e-007
+3.7000000e+001    +6.4397057e-007    +1.2323376e-007
+3.8000000e+001    +5.5163827e-007    +1.2631494e-007
+3.9000000e+001    +5.2236800e-007    +1.2382661e-007
+4.0000000e+001    +4.2332292e-007    +1.2420760e-007
+4.1000000e+001    +4.5762937e-007    +1.1623941e-007
+4.2000000e+001    +4.7070472e-007    +1.1571503e-007
+4.3000000e+001    +5.2677058e-007    +1.1862307e-007
+4.4000000e+001    +5.4759516e-007    +1.0821737e-007
+4.5000000e+001    +5.4395537e-007    +1.0478899e-007
+4.6000000e+001    +5.7198457e-007    +9.6340521e-008
+4.7000000e+001    +4.9167278e-007    +9.1140528e-008
+4.8000000e+001    +4.9272762e-007    +8.8139657e-008
+4.9000000e+001    +4.7297488e-007    +8.9893383e-008
+5.0000000e+001    +4.9187901e-007    +8.5603176e-008
+5.1000000e+001    +5.1826845e-007    +8.9407322e-008
+5.2000000e+001    +5.7619451e-007    +1.0106405e-007
+5.3000000e+001    +6.7142093e-007    +8.8726111e-008
+5.4000000e+001    +6.3845459e-007    +7.6750851e-008
+5.5000000e+001    +5.9146595e-007    +8.0747895e-008
+5.6000000e+001    +6.6242319e-007    +7.8412853e-008
+5.7000000e+001    +7.0368645e-007    +7.9091436e-008
+5.8000000e+001    +6.9034553e-007    +7.5523943e-008
+5.9000000e+001    +7.7665436e-007    +7.9615418e-008
+6.0000000e+001    +9.2066330e-007    +1.1385264e-007
+6.1000000e+001    +8.7022102e-007    +8.5334506e-008
+6.2000000e+001    +7.8307284e-007    +7.0642379e-008
+6.3000000e+001    +7.1290572e-007    +7.1770202e-008
+6.4000000e+001    +6.9178185e-007    +6.7473465e-008
+6.5000000e+001    +6.7032857e-007    +6.4043377e-008
+6.6000000e+001    +5.7595855e-007    +6.7544626e-008
+6.7000000e+001    +5.7964377e-007    +6.7977552e-008
+6.8000000e+001    +6.2008388e-007    +6.4258273e-008
+6.9000000e+001    +5.2249362e-007    +6.4462633e-008
+7.0000000e+001    +4.5670026e-007    +7.1502619e-008
+7.1000000e+001    +4.2709985e-007    +6.7237117e-008
+7.2000000e+001    +3.9333821e-007    +6.6144786e-008
+7.3000000e+001    +3.4657543e-007    +6.6535783e-008
+7.4000000e+001    +3.3047081e-007    +6.3473195e-008
+7.5000000e+001    +3.2214678e-007    +6.4276477e-008
+7.6000000e+001    +3.0349264e-007    +6.5923942e-008
+7.7000000e+001    +2.7601928e-007    +6.1294259e-008
+7.8000000e+001    +2.5558231e-007    +5.8063872e-008
+7.9000000e+001    +2.3971063e-007    +5.8983105e-008
+8.0000000e+001    +2.6461157e-007    +5.7397756e-008
+8.1000000e+001    +2.6552979e-007    +5.5200726e-008
+8.2000000e+001    +2.4455241e-007    +5.8260881e-008
+8.3000000e+001    +2.0810938e-007    +6.0678161e-008
+8.4000000e+001    +2.1511524e-007    +5.6522158e-008
+8.5000000e+001    +2.0730572e-007    +5.2607351e-008
+8.6000000e+001    +1.9498894e-007    +5.3624877e-008
+8.7000000e+001    +1.8998026e-007    +5.9610784e-008
+8.8000000e+001    +1.8446013e-007    +5.7873123e-008
+8.9000000e+001    +1.7909333e-007    +5.4995525e-008
+9.0000000e+001    +1.9593472e-007    +5.4394047e-008
+9.1000000e+001    +1.8249000e-007    +5.7657989e-008
+9.2000000e+001    +1.6679398e-007    +5.2671275e-008
+9.3000000e+001    +1.7966863e-007    +5.2410066e-008
+9.4000000e+001    +1.9767548e-007    +5.0322001e-008
+9.5000000e+001    +1.9006475e-007    +5.0179931e-008
+9.6000000e+001    +1.8900697e-007    +4.9444829e-008
+9.7000000e+001    +1.9089838e-007    +4.9436146e-008
+9.8000000e+001    +1.8184755e-007    +4.8716753e-008
+9.9000000e+001    +1.7560173e-007    +5.1100209e-008
+1.0000000e+002    +1.7915430e-007    +5.1509389e-008
+1.0100000e+002    +1.9184496e-007    +5.0699843e-008
+1.0200000e+002    +2.0113373e-007    +5.3019580e-008
+1.0300000e+002    +2.1561203e-007    +5.0536723e-008
+1.0400000e+002    +2.2652239e-007    +4.9350511e-008
+1.0500000e+002    +2.3483912e-007    +4.8206381e-008
+1.0600000e+002    +2.3014064e-007    +4.8375412e-008
+1.0700000e+002    +2.5157289e-007    +4.4422407e-008
+1.0800000e+002    +2.4240603e-007    +4.5611596e-008
+1.0900000e+002    +2.3675572e-007    +4.9712487e-008
+1.1000000e+002    +2.4234217e-007    +5.2704305e-008
+1.1100000e+002    +2.3962616e-007    +5.1691593e-008
+1.1200000e+002    +2.5271376e-007    +4.8523134e-008
+1.1300000e+002    +2.3955278e-007    +4.7104493e-008
+1.1400000e+002    +2.3595798e-007    +4.6135813e-008
+1.1500000e+002    +2.7474937e-007    +4.6004448e-008
+1.1600000e+002    +2.7888552e-007    +4.6442533e-008
+1.1700000e+002    +2.8202544e-007    +4.7571014e-008
+1.1800000e+002    +2.4301360e-007    +4.8020958e-008
+1.1900000e+002    +5.5642562e-007    +5.1087415e-008
+1.2000000e+002    +9.9964211e-007    +5.1788508e-008
+1.2100000e+002    +5.3900010e-007    +5.1111375e-008
+1.2200000e+002    +2.7599594e-007    +5.0151950e-008
+1.2300000e+002    +2.7249979e-007    +4.8425047e-008
+1.2400000e+002    +2.9201712e-007    +4.6437791e-008
+1.2500000e+002    +2.7434754e-007    +4.4650864e-008
+1.2600000e+002    +2.4684269e-007    +4.7330111e-008
+1.2700000e+002    +2.3177370e-007    +4.6885869e-008
+1.2800000e+002    +2.3343038e-007    +4.3892975e-008
+1.2900000e+002    +2.2546187e-007    +4.6534716e-008
+1.3000000e+002    +2.2219707e-007    +4.5273811e-008
+1.3100000e+002    +2.0840230e-007    +4.2523101e-008
+1.3200000e+002    +1.8839411e-007    +4.3168278e-008
+1.3300000e+002    +1.7803308e-007    +4.2243798e-008
+1.3400000e+002    +1.7771278e-007    +3.9582194e-008
+1.3500000e+002    +1.5173610e-007    +4.2174928e-008
+1.3600000e+002    +1.4223987e-007    +4.2782730e-008
+1.3700000e+002    +1.4055342e-007    +4.5548987e-008
+1.3800000e+002    +1.3995040e-007    +4.4597705e-008
+1.3900000e+002    +1.4792158e-007    +4.3175341e-008
+1.4000000e+002    +1.4987684e-007    +4.0631814e-008
+1.4100000e+002    +1.6600983e-007    +4.2971934e-008
+1.4200000e+002    +2.2942061e-007    +4.2702201e-008
+1.4300000e+002    +3.1839687e-007    +4.0559296e-008
+1.4400000e+002    +4.2858471e-007    +4.2815955e-008
+1.4500000e+002    +6.9026970e-007    +4.2100304e-008
+1.4600000e+002    +7.9704103e-007    +4.5135636e-008
+1.4700000e+002    +5.6436704e-007    +4.3663793e-008
+1.4800000e+002    +3.5469941e-007    +4.3936950e-008
+1.4900000e+002    +2.3531921e-007    +4.3011067e-008
+1.5000000e+002    +1.9690519e-007    +4.3355094e-008
+1.5100000e+002    +2.8818317e-007    +4.3797609e-008
+1.5200000e+002    +2.1417067e-007    +4.0882814e-008
+1.5300000e+002    +1.5238774e-007    +4.1818129e-008
+1.5400000e+002    +1.5213196e-007    +4.0398408e-008
+1.5500000e+002    +1.7124664e-007    +3.8994418e-008
+1.5600000e+002    +1.4969116e-007    +4.1746837e-008
+1.5700000e+002    +1.3309747e-007    +4.2501814e-008
+1.5800000e+002    +1.3068657e-007    +4.0708620e-008
+1.5900000e+002    +1.2727385e-007    +3.8210011e-008
+1.6000000e+002    +1.3183606e-007    +3.9834450e-008
+1.6100000e+002    +1.3063148e-007    +4.2649955e-008
+1.6200000e+002    +1.1828778e-007    +4.1053113e-008
+1.6300000e+002    +1.2113924e-007    +4.1196792e-008
+1.6400000e+002    +1.2308055e-007    +4.2477698e-008
+1.6500000e+002    +1.2951155e-007    +4.4712628e-008
+1.6600000e+002    +1.2251078e-007    +4.1675577e-008
+1.6700000e+002    +1.1297177e-007    +4.1274983e-008
+1.6800000e+002    +1.1586327e-007    +4.1847663e-008
+1.6900000e+002    +1.2275787e-007    +3.9599147e-008
+1.7000000e+002    +1.1622512e-007    +3.9107483e-008
+1.7100000e+002    +1.1836430e-007    +4.1224165e-008
+1.7200000e+002    +1.3008088e-007    +4.3242281e-008
+1.7300000e+002    +1.2551338e-007    +4.2956085e-008
+1.7400000e+002    +1.1910229e-007    +3.9386329e-008
+1.7500000e+002    +1.1478875e-007    +4.0891884e-008
+1.7600000e+002    +1.1639675e-007    +3.7493336e-008
+1.7700000e+002    +1.1943517e-007    +3.9702584e-008
+1.7800000e+002    +1.2113459e-007    +4.3836241e-008
+1.7900000e+002    +2.8923529e-007    +6.8947969e-008
+1.8000000e+002    +5.0846512e-007    +1.0281722e-007
+1.8100000e+002    +2.5723881e-007    +6.1268217e-008
+1.8200000e+002    +1.0914526e-007    +3.9526515e-008
+1.8300000e+002    +1.0749890e-007    +4.1209187e-008
+1.8400000e+002    +1.2030301e-007    +4.1336705e-008
+1.8500000e+002    +1.1561927e-007    +4.2033793e-008
+1.8600000e+002    +1.0935062e-007    +4.3614584e-008
+1.8700000e+002    +1.0753006e-007    +4.2664663e-008
+1.8800000e+002    +1.0101402e-007    +3.9438646e-008
+1.8900000e+002    +9.9686261e-008    +4.2701402e-008
+1.9000000e+002    +1.0036408e-007    +4.5205962e-008
+1.9100000e+002    +9.7249718e-008    +4.0554799e-008
+1.9200000e+002    +9.6226032e-008    +3.7233661e-008
+1.9300000e+002    +9.4005777e-008    +4.1005677e-008
+1.9400000e+002    +9.3817185e-008    +4.1197605e-008
+1.9500000e+002    +9.9273386e-008    +4.1506709e-008
+1.9600000e+002    +9.0011604e-008    +3.9702194e-008
+1.9700000e+002    +9.4502617e-008    +4.2458439e-008
+1.9800000e+002    +9.7683980e-008    +4.4074408e-008
+1.9900000e+002    +9.0275371e-008    +4.3359332e-008
+2.0000000e+002    +9.2617469e-008    +4.2455454e-008
+2.0100000e+002    +8.9322256e-008    +4.2467903e-008
+2.0200000e+002    +8.7010157e-008    +4.2355168e-008
+2.0300000e+002    +8.4188436e-008    +4.0341494e-008
+2.0400000e+002    +7.3450124e-008    +3.9944030e-008
+2.0500000e+002    +7.8837665e-008    +3.9183604e-008
+2.0600000e+002    +7.9445662e-008    +4.0595470e-008
+2.0700000e+002    +7.7197171e-008    +4.0063366e-008
+2.0800000e+002    +8.2714848e-008    +4.0339501e-008
+2.0900000e+002    +8.4425587e-008    +3.8777188e-008
+2.1000000e+002    +7.8998397e-008    +3.8281019e-008
+2.1100000e+002    +7.9673654e-008    +4.0557513e-008
+2.1200000e+002    +8.1480586e-008    +4.0012022e-008
+2.1300000e+002    +7.7877033e-008    +3.8029661e-008
+2.1400000e+002    +8.1049002e-008    +3.9561947e-008
+2.1500000e+002    +7.8749338e-008    +4.0343977e-008
+2.1600000e+002    +8.7538332e-008    +4.1780083e-008
+2.1700000e+002    +1.4970826e-007    +4.2379821e-008
+2.1800000e+002    +1.2499369e-007    +4.0928448e-008
+2.1900000e+002    +8.4321648e-008    +4.0194532e-008
+2.2000000e+002    +8.0537340e-008    +4.1919769e-008
+2.2100000e+002    +8.7675403e-008    +4.3114138e-008
+2.2200000e+002    +8.5720551e-008    +4.1770036e-008
+2.2300000e+002    +8.1304179e-008    +4.0951281e-008
+2.2400000e+002    +8.2967887e-008    +4.0918472e-008
+2.2500000e+002    +7.6565513e-008    +4.0243858e-008
+2.2600000e+002    +8.0091226e-008    +4.1727272e-008
+2.2700000e+002    +8.1746450e-008    +3.9890953e-008
+2.2800000e+002    +7.7853606e-008    +3.9199954e-008
+2.2900000e+002    +7.7963357e-008    +4.1031708e-008
+2.3000000e+002    +8.3706198e-008    +4.5055621e-008
+2.3100000e+002    +8.8610555e-008    +4.5506997e-008
+2.3200000e+002    +8.6763364e-008    +4.6933099e-008
+2.3300000e+002    +8.1704904e-008    +4.4795673e-008
+2.3400000e+002    +9.4255782e-008    +4.1522160e-008
+2.3500000e+002    +9.8105637e-008    +4.1462890e-008
+2.3600000e+002    +9.2583313e-008    +4.1898787e-008
+2.3700000e+002    +8.7340275e-008    +4.4596479e-008
+2.3800000e+002    +8.8354369e-008    +4.2116113e-008
+2.3900000e+002    +2.2300581e-007    +4.2951228e-008
+2.4000000e+002    +3.7645506e-007    +4.5479428e-008
+2.4100000e+002    +1.8378391e-007    +4.5154025e-008
+2.4200000e+002    +8.8370669e-008    +4.1453742e-008
+2.4300000e+002    +8.7332985e-008    +4.0011582e-008
+2.4400000e+002    +8.4399915e-008    +4.2822112e-008
+2.4500000e+002    +9.0478494e-008    +4.3873559e-008
+2.4600000e+002    +8.8320036e-008    +4.2373866e-008
+2.4700000e+002    +8.7730101e-008    +4.2477229e-008
+2.4800000e+002    +9.1697807e-008    +3.9640863e-008
+2.4900000e+002    +9.5138930e-008    +4.2444270e-008
+2.5000000e+002    +9.7264881e-008    +4.2334943e-008
+2.5100000e+002    +9.2378606e-008    +4.1645983e-008
+2.5200000e+002    +8.8990994e-008    +3.9078511e-008
+2.5300000e+002    +9.4362960e-008    +3.7054747e-008
+2.5400000e+002    +1.0169474e-007    +3.9520920e-008
+2.5500000e+002    +1.2010597e-007    +3.9540712e-008
+2.5600000e+002    +1.2476841e-007    +4.0168370e-008
+2.5700000e+002    +1.1104703e-007    +4.2223487e-008
+2.5800000e+002    +1.1254576e-007    +4.1455607e-008
+2.5900000e+002    +1.1226498e-007    +3.9563293e-008
+2.6000000e+002    +1.2952592e-007    +3.9299934e-008
+2.6100000e+002    +1.4079176e-007    +4.1484839e-008
+2.6200000e+002    +1.5585591e-007    +4.6326520e-008
+2.6300000e+002    +1.7113237e-007    +4.3916405e-008
+2.6400000e+002    +1.9157721e-007    +4.4347455e-008
+2.6500000e+002    +2.0014835e-007    +4.4219679e-008
+2.6600000e+002    +2.3068885e-007    +4.5410669e-008
+2.6700000e+002    +2.6265573e-007    +4.4378581e-008
+2.6800000e+002    +3.0697836e-007    +4.1476913e-008
+2.6900000e+002    +3.4345669e-007    +4.4814168e-008
+2.7000000e+002    +3.8853901e-007    +4.7665750e-008
+2.7100000e+002    +4.4743075e-007    +4.4580325e-008
+2.7200000e+002    +5.2087836e-007    +4.2339174e-008
+2.7300000e+002    +6.2385891e-007    +4.1568825e-008
+2.7400000e+002    +8.1220662e-007    +4.1460705e-008
+2.7500000e+002    +1.2722593e-006    +4.5194746e-008
+2.7600000e+002    +1.9287986e-006    +4.2951605e-008
+2.7700000e+002    +1.6148609e-006    +3.7194720e-008
+2.7800000e+002    +9.7522911e-007    +4.6128772e-008
+2.7900000e+002    +7.2601517e-007    +4.7061896e-008
+2.8000000e+002    +6.4390554e-007    +4.5926022e-008
+2.8100000e+002    +6.3128817e-007    +4.4996941e-008
+2.8200000e+002    +5.8881261e-007    +4.3658520e-008
+2.8300000e+002    +5.0197235e-007    +4.6786980e-008
+2.8400000e+002    +4.2237627e-007    +4.3263796e-008
+2.8500000e+002    +3.1159013e-007    +4.6349921e-008
+2.8600000e+002    +2.5523011e-007    +4.7710571e-008
+2.8700000e+002    +2.3572390e-007    +4.5880007e-008
+2.8800000e+002    +2.1643864e-007    +4.3970683e-008
+2.8900000e+002    +2.0542511e-007    +4.7669520e-008
+2.9000000e+002    +1.9392355e-007    +4.9746557e-008
+2.9100000e+002    +1.8391815e-007    +5.0087674e-008
+2.9200000e+002    +1.7975920e-007    +4.8548660e-008
+2.9300000e+002    +1.5121903e-007    +4.6713371e-008
+2.9400000e+002    +1.2879572e-007    +4.7388816e-008
+2.9500000e+002    +1.1904019e-007    +4.3878952e-008
+2.9600000e+002    +1.3426302e-007    +4.9118281e-008
+2.9700000e+002    +1.3634592e-007    +4.9366175e-008
+2.9800000e+002    +1.2170945e-007    +4.7458904e-008
+2.9900000e+002    +1.3887495e-007    +4.8158345e-008
+3.0000000e+002    +1.9038492e-007    +5.0740105e-008
+3.0100000e+002    +1.2090300e-007    +4.9733234e-008
+3.0200000e+002    +9.2779707e-008    +4.9927841e-008
+3.0300000e+002    +9.6585708e-008    +4.8196007e-008
+3.0400000e+002    +9.5577519e-008    +4.5873712e-008
+3.0500000e+002    +9.4763209e-008    +4.9420514e-008
+3.0600000e+002    +9.6521781e-008    +5.0371973e-008
+3.0700000e+002    +9.6331320e-008    +4.6306635e-008
+3.0800000e+002    +9.5133082e-008    +4.2462450e-008
+3.0900000e+002    +9.7229538e-008    +4.4815252e-008
+3.1000000e+002    +9.6515322e-008    +4.6701320e-008
+3.1100000e+002    +9.2344941e-008    +4.4916778e-008
+3.1200000e+002    +9.4915130e-008    +5.1336791e-008
+3.1300000e+002    +9.4062045e-008    +5.0537555e-008
+3.1400000e+002    +8.0089734e-008    +4.7829683e-008
+3.1500000e+002    +7.5401069e-008    +4.9250804e-008
+3.1600000e+002    +8.5292541e-008    +4.6941757e-008
+3.1700000e+002    +9.0217696e-008    +4.7276512e-008
+3.1800000e+002    +7.8560213e-008    +5.2100020e-008
+3.1900000e+002    +7.7700065e-008    +4.9126697e-008
+3.2000000e+002    +8.1816403e-008    +4.9847490e-008
+3.2100000e+002    +8.3806896e-008    +5.1202477e-008
+3.2200000e+002    +8.3700961e-008    +4.6870632e-008
+3.2300000e+002    +8.2989480e-008    +4.4524072e-008
+3.2400000e+002    +8.5867313e-008    +4.8501509e-008
+3.2500000e+002    +8.3567997e-008    +4.8570040e-008
+3.2600000e+002    +8.7466567e-008    +4.7653142e-008
+3.2700000e+002    +9.1096808e-008    +5.3080448e-008
+3.2800000e+002    +8.4642124e-008    +5.3669172e-008
+3.2900000e+002    +7.9143383e-008    +5.0752138e-008
+3.3000000e+002    +8.1801133e-008    +5.0592853e-008
+3.3100000e+002    +8.8732058e-008    +5.0280082e-008
+3.3200000e+002    +8.7828980e-008    +5.0095650e-008
+3.3300000e+002    +8.2139984e-008    +5.0802871e-008
+3.3400000e+002    +8.1428801e-008    +5.3991638e-008
+3.3500000e+002    +8.4447933e-008    +5.5180486e-008
+3.3600000e+002    +7.6555679e-008    +5.4320161e-008
+3.3700000e+002    +7.3846032e-008    +5.2956921e-008
+3.3800000e+002    +8.2354269e-008    +5.5029833e-008
+3.3900000e+002    +9.0259512e-008    +5.7593137e-008
+3.4000000e+002    +9.7259750e-008    +5.5391606e-008
+3.4100000e+002    +1.0486357e-007    +5.6738099e-008
+3.4200000e+002    +1.0099728e-007    +5.6764517e-008
+3.4300000e+002    +9.9004531e-008    +5.6006392e-008
+3.4400000e+002    +1.0491148e-007    +5.3575089e-008
+3.4500000e+002    +1.1293791e-007    +5.2993972e-008
+3.4600000e+002    +1.2073254e-007    +5.5849561e-008
+3.4700000e+002    +1.3580700e-007    +5.6907297e-008
+3.4800000e+002    +1.7846070e-007    +5.3480466e-008
+3.4900000e+002    +2.0999957e-007    +5.2670117e-008
+3.5000000e+002    +1.6507431e-007    +5.2067765e-008
+3.5100000e+002    +1.5592369e-007    +5.2976812e-008
+3.5200000e+002    +1.6539362e-007    +6.0070306e-008
+3.5300000e+002    +1.4021880e-007    +5.8453615e-008
+3.5400000e+002    +1.2968115e-007    +5.8333722e-008
+3.5500000e+002    +1.3292092e-007    +5.5833681e-008
+3.5600000e+002    +1.3032133e-007    +5.7908846e-008
+3.5700000e+002    +1.0574610e-007    +5.9214301e-008
+3.5800000e+002    +1.0310459e-007    +5.8358321e-008
+3.5900000e+002    +1.2540910e-007    +5.9860277e-008
+3.6000000e+002    +1.5237435e-007    +6.2152687e-008
+3.6100000e+002    +1.0231935e-007    +5.7441447e-008
+3.6200000e+002    +8.8368047e-008    +5.2238523e-008
+3.6300000e+002    +8.8010943e-008    +5.2142539e-008
+3.6400000e+002    +8.2463302e-008    +5.4811967e-008
+3.6500000e+002    +7.2354190e-008    +5.8859477e-008
+3.6600000e+002    +7.6139898e-008    +5.7103076e-008
+3.6700000e+002    +7.5500566e-008    +5.5329000e-008
+3.6800000e+002    +8.2847912e-008    +5.4879532e-008
+3.6900000e+002    +8.5601762e-008    +5.7068480e-008
+3.7000000e+002    +8.5632507e-008    +5.7858703e-008
+3.7100000e+002    +8.4204430e-008    +6.0815559e-008
+3.7200000e+002    +8.4261863e-008    +5.8874729e-008
+3.7300000e+002    +7.7962326e-008    +5.7844410e-008
+3.7400000e+002    +7.7628009e-008    +6.2084411e-008
+3.7500000e+002    +8.1479598e-008    +5.9850152e-008
+3.7600000e+002    +8.1580396e-008    +5.9664345e-008
+3.7700000e+002    +7.7490398e-008    +5.7452674e-008
+3.7800000e+002    +7.6054093e-008    +5.9933996e-008
+3.7900000e+002    +7.7138793e-008    +6.1192722e-008
+3.8000000e+002    +7.9751025e-008    +5.9575974e-008
+3.8100000e+002    +7.7476955e-008    +6.1044354e-008
+3.8200000e+002    +7.7883620e-008    +6.0996648e-008
+3.8300000e+002    +7.5843289e-008    +6.2340220e-008
+3.8400000e+002    +7.5964209e-008    +5.9845426e-008
+3.8500000e+002    +7.0072353e-008    +6.3245018e-008
+3.8600000e+002    +7.3310581e-008    +5.8393958e-008
+3.8700000e+002    +7.0188399e-008    +5.4328449e-008
+3.8800000e+002    +7.2907547e-008    +5.9984359e-008
+3.8900000e+002    +7.6296978e-008    +6.2669017e-008
+3.9000000e+002    +8.0980868e-008    +6.1807121e-008
+3.9100000e+002    +7.4035185e-008    +6.1059900e-008
+3.9200000e+002    +7.1259976e-008    +5.8616472e-008
+3.9300000e+002    +7.3240670e-008    +6.1902199e-008
+3.9400000e+002    +7.3666577e-008    +6.7698537e-008
+3.9500000e+002    +7.1113426e-008    +6.1245217e-008
+3.9600000e+002    +7.1077984e-008    +6.4745230e-008
+3.9700000e+002    +7.0813840e-008    +6.5865770e-008
+3.9800000e+002    +6.9821070e-008    +6.8418508e-008
+3.9900000e+002    +7.3783056e-008    +6.8426921e-008
+4.0000000e+002    +7.7786794e-008    +6.4456408e-008
+4.0100000e+002    +7.4965051e-008    +6.2280492e-008
+4.0200000e+002    +6.9882041e-008    +6.0217033e-008
+4.0300000e+002    +7.5309316e-008    +6.6684834e-008
+4.0400000e+002    +7.0805910e-008    +6.4450816e-008
+4.0500000e+002    +6.8113302e-008    +6.3664366e-008
+4.0600000e+002    +7.0189245e-008    +6.1897985e-008
+4.0700000e+002    +6.7909291e-008    +6.0795195e-008
+4.0800000e+002    +7.2460082e-008    +6.7718531e-008
+4.0900000e+002    +7.1094298e-008    +7.2862967e-008
+4.1000000e+002    +6.7330490e-008    +6.7204567e-008
+4.1100000e+002    +6.7380782e-008    +6.7900196e-008
+4.1200000e+002    +6.6610852e-008    +7.3625579e-008
+4.1300000e+002    +6.9315568e-008    +6.9754712e-008
+4.1400000e+002    +6.4652667e-008    +6.7819130e-008
+4.1500000e+002    +6.1352907e-008    +6.7984196e-008
+4.1600000e+002    +6.6348449e-008    +6.9897006e-008
+4.1700000e+002    +7.0292586e-008    +7.2222356e-008
+4.1800000e+002    +6.9756936e-008    +7.2064331e-008
+4.1900000e+002    +9.3808332e-008    +7.3680567e-008
+4.2000000e+002    +1.2554342e-007    +7.0869142e-008
+4.2100000e+002    +8.2362227e-008    +7.0171367e-008
+4.2200000e+002    +6.9611872e-008    +6.7960833e-008
+4.2300000e+002    +6.8520897e-008    +6.9907443e-008
+4.2400000e+002    +6.9284681e-008    +7.0445253e-008
+4.2500000e+002    +7.2924834e-008    +7.4426559e-008
+4.2600000e+002    +7.0638187e-008    +7.5921101e-008
+4.2700000e+002    +6.9824750e-008    +7.2758084e-008
+4.2800000e+002    +6.6386121e-008    +7.1455062e-008
+4.2900000e+002    +6.0076836e-008    +7.0425536e-008
+4.3000000e+002    +6.5816756e-008    +7.2764635e-008
+4.3100000e+002    +6.5343407e-008    +7.5748083e-008
+4.3200000e+002    +7.1376256e-008    +7.1377670e-008
+4.3300000e+002    +7.6934441e-008    +7.2014188e-008
+4.3400000e+002    +1.8781088e-007    +7.1218054e-008
+4.3500000e+002    +2.0607119e-007    +7.4401804e-008
+4.3600000e+002    +8.7771141e-008    +7.3459319e-008
+4.3700000e+002    +7.7631675e-008    +7.3957438e-008
+4.3800000e+002    +7.1856697e-008    +7.4727474e-008
+4.3900000e+002    +7.9868798e-008    +7.5807819e-008
+4.4000000e+002    +8.8565521e-008    +7.7118131e-008
+4.4100000e+002    +9.4524928e-008    +8.1543320e-008
+4.4200000e+002    +9.8649167e-008    +8.4242714e-008
+4.4300000e+002    +8.5335166e-008    +8.0196557e-008
+4.4400000e+002    +7.3524113e-008    +7.3589774e-008
+4.4500000e+002    +6.7967399e-008    +7.7612583e-008
+4.4600000e+002    +7.4562251e-008    +7.9236159e-008
+4.4700000e+002    +7.0256860e-008    +7.3104651e-008
+4.4800000e+002    +7.1677825e-008    +7.7667146e-008
+4.4900000e+002    +6.5620135e-008    +7.8622513e-008
+4.5000000e+002    +6.6798123e-008    +7.6714961e-008
+4.5100000e+002    +7.0085669e-008    +8.0549988e-008
+4.5200000e+002    +6.6241661e-008    +7.7486483e-008
+4.5300000e+002    +6.4576405e-008    +7.9211368e-008
+4.5400000e+002    +6.5985205e-008    +8.4339703e-008
+4.5500000e+002    +6.0119390e-008    +8.4026091e-008
+4.5600000e+002    +6.3112942e-008    +7.6636411e-008
+4.5700000e+002    +6.3440865e-008    +7.3194123e-008
+4.5800000e+002    +6.0029159e-008    +8.1120227e-008
+4.5900000e+002    +6.0403835e-008    +8.5555911e-008
+4.6000000e+002    +6.0946846e-008    +8.6071388e-008
+4.6100000e+002    +6.5240819e-008    +8.1606110e-008
+4.6200000e+002    +6.1307517e-008    +7.8210874e-008
+4.6300000e+002    +6.2189542e-008    +8.4106574e-008
+4.6400000e+002    +7.0309568e-008    +8.3776264e-008
+4.6500000e+002    +7.4339987e-008    +8.5598948e-008
+4.6600000e+002    +7.3654682e-008    +8.4690832e-008
+4.6700000e+002    +6.3503940e-008    +7.4155345e-008
+4.6800000e+002    +6.5274996e-008    +7.6277708e-008
+4.6900000e+002    +6.3590385e-008    +7.8848487e-008
+4.7000000e+002    +6.2148594e-008    +7.9158241e-008
+4.7100000e+002    +6.2643011e-008    +8.1920668e-008
+4.7200000e+002    +6.2085711e-008    +8.8262354e-008
+4.7300000e+002    +6.5924233e-008    +8.8977998e-008
+4.7400000e+002    +6.5424238e-008    +9.0160164e-008
+4.7500000e+002    +6.7470211e-008    +9.1501292e-008
+4.7600000e+002    +6.7001217e-008    +9.1731643e-008
+4.7700000e+002    +6.4450603e-008    +8.6932999e-008
+4.7800000e+002    +6.4084453e-008    +7.9427956e-008
+4.7900000e+002    +1.9751992e-007    +7.9293244e-008
+4.8000000e+002    +3.0373400e-007    +8.2227871e-008
+4.8100000e+002    +1.3675491e-007    +7.8371365e-008
+4.8200000e+002    +7.9774757e-008    +8.3610857e-008
+4.8300000e+002    +7.4815730e-008    +8.7315442e-008
+4.8400000e+002    +7.3475050e-008    +8.3001595e-008
+4.8500000e+002    +7.4217084e-008    +8.1427373e-008
+4.8600000e+002    +6.9779766e-008    +8.3020829e-008
+4.8700000e+002    +8.4003027e-008    +8.5038387e-008
+4.8800000e+002    +9.0319389e-008    +8.8142755e-008
+4.8900000e+002    +9.2482118e-008    +8.7231314e-008
+4.9000000e+002    +9.6550721e-008    +8.1251436e-008
+4.9100000e+002    +8.9920825e-008    +8.8747157e-008
+4.9200000e+002    +9.1379910e-008    +8.6922313e-008
+4.9300000e+002    +9.2321720e-008    +8.3376634e-008
+4.9400000e+002    +8.6711175e-008    +8.5912014e-008
+4.9500000e+002    +8.5043617e-008    +8.4272315e-008
+4.9600000e+002    +8.4858002e-008    +8.7925464e-008
+4.9700000e+002    +8.5079478e-008    +8.8574076e-008
+4.9800000e+002    +8.6740123e-008    +9.1543896e-008
+4.9900000e+002    +8.6876035e-008    +9.0732868e-008
+5.0000000e+002    +8.8059757e-008    +8.3153566e-008
+5.0100000e+002    +9.1261292e-008    +8.7260240e-008
+5.0200000e+002    +9.1147832e-008    +8.6771081e-008
+5.0300000e+002    +9.1149836e-008    +8.8844459e-008
+5.0400000e+002    +1.0097565e-007    +9.2558615e-008
+5.0500000e+002    +1.0186560e-007    +9.2572940e-008
+5.0600000e+002    +1.0718058e-007    +9.4881578e-008
+5.0700000e+002    +1.2031634e-007    +9.8620902e-008
+5.0800000e+002    +1.2364727e-007    +9.2691430e-008
+5.0900000e+002    +1.2242715e-007    +9.2516650e-008
+5.1000000e+002    +1.2662001e-007    +9.2469939e-008
+5.1100000e+002    +1.2240713e-007    +9.0223445e-008
+5.1200000e+002    +1.0979804e-007    +9.4432089e-008
+5.1300000e+002    +9.7594572e-008    +9.7786568e-008
+5.1400000e+002    +8.2225881e-008    +9.3665172e-008
+5.1500000e+002    +8.0016257e-008    +8.9499743e-008
+5.1600000e+002    +7.8808327e-008    +9.2622251e-008
+5.1700000e+002    +7.5508275e-008    +8.8257899e-008
+5.1800000e+002    +6.2751432e-008    +9.5246378e-008
+5.1900000e+002    +6.6583141e-008    +1.0130102e-007
+5.2000000e+002    +6.8527143e-008    +9.7099807e-008
+5.2100000e+002    +6.8489761e-008    +9.2299018e-008
+5.2200000e+002    +6.7128312e-008    +9.0458329e-008
+5.2300000e+002    +6.7791738e-008    +9.4712234e-008
+5.2400000e+002    +6.9819848e-008    +9.8206513e-008
+5.2500000e+002    +7.3659372e-008    +1.0359798e-007
+5.2600000e+002    +7.8399594e-008    +1.0089254e-007
+5.2700000e+002    +9.0894794e-008    +8.9468799e-008
+5.2800000e+002    +1.0718011e-007    +9.0239595e-008
+5.2900000e+002    +1.3399175e-007    +1.0290430e-007
+5.3000000e+002    +2.1773670e-007    +1.0091569e-007
+5.3100000e+002    +2.2480535e-007    +9.5554746e-008
+5.3200000e+002    +2.0350302e-007    +1.0304348e-007
+5.3300000e+002    +2.0430608e-007    +9.8080434e-008
+5.3400000e+002    +2.0420180e-007    +9.7733327e-008
+5.3500000e+002    +2.0413185e-007    +1.0115942e-007
+5.3600000e+002    +1.8901527e-007    +9.7414393e-008
+5.3700000e+002    +1.7412550e-007    +9.6027613e-008
+5.3800000e+002    +1.8433218e-007    +1.0309429e-007
+5.3900000e+002    +2.4426097e-007    +1.0700455e-007
+5.4000000e+002    +2.9974063e-007    +1.0546133e-007
+5.4100000e+002    +1.8485630e-007    +1.0264003e-007
+5.4200000e+002    +1.7347878e-007    +9.6628135e-008
+5.4300000e+002    +1.8993687e-007    +9.4957137e-008
+5.4400000e+002    +2.3760232e-007    +9.1475776e-008
+5.4500000e+002    +3.2079177e-007    +9.6612226e-008
+5.4600000e+002    +4.7474330e-007    +1.0332025e-007
+5.4700000e+002    +7.1684593e-007    +9.4835649e-008
+5.4800000e+002    +9.1373084e-007    +8.9204157e-008
+5.4900000e+002    +9.3599272e-007    +1.0498684e-007
+5.5000000e+002    +9.8754072e-007    +1.1557587e-007
+5.5100000e+002    +1.1347014e-006    +1.1257418e-007
+5.5200000e+002    +9.6043323e-007    +1.0011107e-007
+5.5300000e+002    +1.3093476e-006    +1.0184134e-007
+5.5400000e+002    +1.0290622e-006    +1.0983192e-007
+5.5500000e+002    +4.5024862e-007    +1.0607774e-007
+5.5600000e+002    +3.7519570e-007    +1.0394024e-007
+5.5700000e+002    +2.9484710e-007    +1.0669050e-007
+5.5800000e+002    +2.5324456e-007    +1.0201726e-007
+5.5900000e+002    +2.2566248e-007    +1.0271015e-007
+5.6000000e+002    +1.8289278e-007    +1.0742468e-007
+5.6100000e+002    +1.6587371e-007    +1.0916467e-007
+5.6200000e+002    +1.5300874e-007    +1.0906919e-007
+5.6300000e+002    +1.5020186e-007    +1.0278811e-007
+5.6400000e+002    +1.3709241e-007    +1.0403752e-007
+5.6500000e+002    +1.2180263e-007    +1.0724296e-007
+5.6600000e+002    +1.1970194e-007    +1.0850732e-007
+5.6700000e+002    +1.1353244e-007    +9.9873269e-008
+5.6800000e+002    +1.1667620e-007    +1.0480647e-007
+5.6900000e+002    +1.3488862e-007    +1.0360048e-007
+5.7000000e+002    +1.2305718e-007    +1.0859218e-007
+5.7100000e+002    +1.3751634e-007    +1.0785914e-007
+5.7200000e+002    +1.6112250e-007    +1.0617283e-007
+5.7300000e+002    +1.9800457e-007    +1.0066216e-007
+5.7400000e+002    +2.1057286e-007    +1.0164830e-007
+5.7500000e+002    +2.1862400e-007    +1.0574006e-007
+5.7600000e+002    +2.5446872e-007    +1.1114657e-007
+5.7700000e+002    +3.0403027e-007    +1.0950693e-007
+5.7800000e+002    +2.8458325e-007    +1.1214019e-007
+5.7900000e+002    +2.7568916e-007    +1.1296110e-007
+5.8000000e+002    +2.7871380e-007    +1.0877093e-007
+5.8100000e+002    +2.2104709e-007    +1.0989525e-007
+5.8200000e+002    +1.7276066e-007    +1.1088803e-007
+5.8300000e+002    +1.4865229e-007    +1.1188242e-007
+5.8400000e+002    +1.3159902e-007    +1.1112643e-007
+5.8500000e+002    +1.2065514e-007    +1.1189298e-007
+5.8600000e+002    +1.0603897e-007    +1.1034442e-007
+5.8700000e+002    +9.5833805e-008    +1.0939913e-007
+5.8800000e+002    +8.1102414e-008    +1.0874454e-007
+5.8900000e+002    +7.4678510e-008    +1.0051042e-007
+5.9000000e+002    +7.1617883e-008    +1.1256887e-007
+5.9100000e+002    +7.6741664e-008    +1.2339949e-007
+5.9200000e+002    +7.8183916e-008    +1.1377041e-007
+5.9300000e+002    +7.4038603e-008    +1.1784108e-007
+5.9400000e+002    +8.1011194e-008    +1.1089424e-007
+5.9500000e+002    +8.4374896e-008    +1.1373407e-007
+5.9600000e+002    +7.5931524e-008    +1.1085468e-007
+5.9700000e+002    +8.8156497e-008    +1.0787240e-007
+5.9800000e+002    +9.5582550e-008    +1.0475920e-007
+5.9900000e+002    +1.8796952e-007    +1.1523780e-007
+6.0000000e+002    +2.7218789e-007    +1.1804866e-007
+6.0100000e+002    +1.8209789e-007    +1.0827430e-007
+6.0200000e+002    +1.8187151e-007    +1.0751200e-007
+6.0300000e+002    +1.9805849e-007    +1.1426113e-007
+6.0400000e+002    +1.7801587e-007    +1.1022974e-007
+6.0500000e+002    +1.3280231e-007    +1.0623113e-007
+6.0600000e+002    +9.8081514e-008    +1.1097743e-007
+6.0700000e+002    +7.3937301e-008    +1.1593529e-007
+6.0800000e+002    +7.0096597e-008    +1.1882329e-007
+6.0900000e+002    +6.9202343e-008    +1.1605947e-007
+6.1000000e+002    +6.6022672e-008    +1.2074936e-007
+6.1100000e+002    +6.6995334e-008    +1.2396767e-007
+6.1200000e+002    +6.9023940e-008    +1.1962257e-007
+6.1300000e+002    +6.4803473e-008    +1.2382226e-007
+6.1400000e+002    +6.7028076e-008    +1.1177057e-007
+6.1500000e+002    +7.6233505e-008    +1.1085663e-007
+6.1600000e+002    +7.2239331e-008    +1.0673292e-007
+6.1700000e+002    +6.3946835e-008    +1.0689253e-007
+6.1800000e+002    +6.8294597e-008    +1.0911040e-007
+6.1900000e+002    +7.0161505e-008    +1.1280643e-007
+6.2000000e+002    +6.7245679e-008    +1.1280481e-007
+6.2100000e+002    +6.6602439e-008    +1.2252370e-007
+6.2200000e+002    +6.7942182e-008    +1.2605032e-007
+6.2300000e+002    +7.0566252e-008    +1.2620141e-007
+6.2400000e+002    +7.2878571e-008    +1.2421373e-007
+6.2500000e+002    +6.9686124e-008    +1.1990805e-007
+6.2600000e+002    +6.8180043e-008    +1.1485683e-007
+6.2700000e+002    +6.4692003e-008    +1.1346964e-007
+6.2800000e+002    +6.4744093e-008    +1.2023078e-007
+6.2900000e+002    +6.7836261e-008    +1.3742819e-007
+6.3000000e+002    +6.3306160e-008    +1.3221818e-007
+6.3100000e+002    +6.9830499e-008    +1.2526310e-007
+6.3200000e+002    +7.3220164e-008    +1.2422792e-007
+6.3300000e+002    +6.8541368e-008    +1.2495499e-007
+6.3400000e+002    +7.4858043e-008    +1.2537895e-007
+6.3500000e+002    +7.0004837e-008    +1.1731810e-007
+6.3600000e+002    +6.6585109e-008    +1.1034684e-007
+6.3700000e+002    +6.7160087e-008    +1.1647997e-007
+6.3800000e+002    +6.3433482e-008    +1.2544325e-007
+6.3900000e+002    +6.9104622e-008    +1.2173417e-007
+6.4000000e+002    +7.0330337e-008    +1.1945288e-007
+6.4100000e+002    +6.2915966e-008    +1.1974386e-007
+6.4200000e+002    +7.3292235e-008    +1.2701351e-007
+6.4300000e+002    +9.7333782e-008    +1.3147915e-007
+6.4400000e+002    +1.0395667e-007    +1.3227495e-007
+6.4500000e+002    +1.0108469e-007    +1.3013302e-007
+6.4600000e+002    +8.7588425e-008    +1.4040104e-007
+6.4700000e+002    +8.2795530e-008    +1.3346346e-007
+6.4800000e+002    +8.9547221e-008    +1.3145620e-007
+6.4900000e+002    +9.2905907e-008    +1.3028371e-007
+6.5000000e+002    +8.6858677e-008    +1.2780767e-007
+6.5100000e+002    +1.1189888e-007    +1.2464298e-007
+6.5200000e+002    +1.5936818e-007    +1.2767008e-007
+6.5300000e+002    +1.0341081e-007    +1.2771943e-007
+6.5400000e+002    +7.8168725e-008    +1.2651176e-007
+6.5500000e+002    +7.9579934e-008    +1.2268120e-007
+6.5600000e+002    +7.4396986e-008    +1.2312678e-007
+6.5700000e+002    +6.6536003e-008    +1.2774369e-007
+6.5800000e+002    +7.0903702e-008    +1.3374041e-007
+6.5900000e+002    +1.6892059e-007    +1.3535788e-007
+6.6000000e+002    +2.3962539e-007    +1.2008763e-007
+6.6100000e+002    +1.0663089e-007    +1.1895762e-007
+6.6200000e+002    +6.5925391e-008    +1.2452315e-007
+6.6300000e+002    +6.4495339e-008    +1.3677052e-007
+6.6400000e+002    +6.1711241e-008    +1.3257170e-007
+6.6500000e+002    +5.8907382e-008    +1.3816197e-007
+6.6600000e+002    +6.6588548e-008    +1.2499052e-007
+6.6700000e+002    +7.1629835e-008    +1.2381369e-007
+6.6800000e+002    +7.2462946e-008    +1.3734598e-007
+6.6900000e+002    +7.1204447e-008    +1.3643771e-007
+6.7000000e+002    +6.8824306e-008    +1.1870164e-007
+6.7100000e+002    +6.5763736e-008    +1.2346536e-007
+6.7200000e+002    +6.6072346e-008    +1.2619877e-007
+6.7300000e+002    +7.0604926e-008    +1.2754160e-007
+6.7400000e+002    +7.0474186e-008    +1.3343929e-007
+6.7500000e+002    +7.0074357e-008    +1.3565500e-007
+6.7600000e+002    +7.0635942e-008    +1.4462854e-007
+6.7700000e+002    +7.2999661e-008    +1.2676844e-007
+6.7800000e+002    +7.2618100e-008    +1.2325081e-007
+6.7900000e+002    +7.3989433e-008    +1.2561664e-007
+6.8000000e+002    +7.6260797e-008    +1.3892100e-007
+6.8100000e+002    +7.8765162e-008    +1.2913556e-007
+6.8200000e+002    +7.7326114e-008    +1.2058786e-007
+6.8300000e+002    +7.8441438e-008    +1.3273774e-007
+6.8400000e+002    +7.9699198e-008    +1.4172900e-007
+6.8500000e+002    +8.6463707e-008    +1.4746396e-007
+6.8600000e+002    +1.0203686e-007    +1.3541704e-007
+6.8700000e+002    +1.1609248e-007    +1.3404149e-007
+6.8800000e+002    +1.0246922e-007    +1.3665000e-007
+6.8900000e+002    +9.9042801e-008    +1.3474785e-007
+6.9000000e+002    +1.0850947e-007    +1.4318252e-007
+6.9100000e+002    +1.1523944e-007    +1.4830603e-007
+6.9200000e+002    +1.1838405e-007    +1.4747692e-007
+6.9300000e+002    +1.4574871e-007    +1.5454687e-007
+6.9400000e+002    +1.7084007e-007    +1.4902831e-007
+6.9500000e+002    +1.0999882e-007    +1.3144582e-007
+6.9600000e+002    +1.0075416e-007    +1.3195307e-007
+6.9700000e+002    +1.0734215e-007    +1.4117518e-007
+6.9800000e+002    +1.0774787e-007    +1.4121409e-007
+6.9900000e+002    +1.0301101e-007    +1.4459266e-007
+7.0000000e+002    +1.0359980e-007    +1.4560572e-007
+7.0100000e+002    +1.1354130e-007    +1.3399278e-007
+7.0200000e+002    +9.8619381e-008    +1.2594809e-007
+7.0300000e+002    +9.5287689e-008    +1.2424128e-007
+7.0400000e+002    +1.2030235e-007    +1.4777159e-007
+7.0500000e+002    +1.1691459e-007    +1.3657380e-007
+7.0600000e+002    +1.0494846e-007    +1.3777296e-007
+7.0700000e+002    +1.0902728e-007    +1.3979867e-007
+7.0800000e+002    +9.6933320e-008    +1.3867626e-007
+7.0900000e+002    +9.1874064e-008    +1.3588532e-007
+7.1000000e+002    +9.0738745e-008    +1.4224705e-007
+7.1100000e+002    +9.3755709e-008    +1.5210122e-007
+7.1200000e+002    +1.0171752e-007    +1.4822137e-007
+7.1300000e+002    +1.1229235e-007    +1.4769779e-007
+7.1400000e+002    +1.1366902e-007    +1.5530587e-007
+7.1500000e+002    +1.0714916e-007    +1.4883339e-007
+7.1600000e+002    +1.0519626e-007    +1.5291032e-007
+7.1700000e+002    +1.0233283e-007    +1.5499225e-007
+7.1800000e+002    +1.0242422e-007    +1.5152034e-007
+7.1900000e+002    +1.6753015e-007    +1.3649900e-007
+7.2000000e+002    +2.1606444e-007    +1.4511591e-007
+7.2100000e+002    +1.0326104e-007    +1.4341585e-007
+7.2200000e+002    +8.5883435e-008    +1.4134780e-007
+7.2300000e+002    +8.3965865e-008    +1.5278849e-007
+7.2400000e+002    +7.8028357e-008    +1.3836265e-007
+7.2500000e+002    +8.2932182e-008    +1.3696499e-007
+7.2600000e+002    +7.8622080e-008    +1.4389487e-007
+7.2700000e+002    +7.6443463e-008    +1.4268534e-007
+7.2800000e+002    +6.9580622e-008    +1.4833518e-007
+7.2900000e+002    +6.5189482e-008    +1.5824061e-007
+7.3000000e+002    +6.6580654e-008    +1.6086689e-007
+7.3100000e+002    +7.0074201e-008    +1.5479412e-007
+7.3200000e+002    +6.7749099e-008    +1.5590999e-007
+7.3300000e+002    +7.0169442e-008    +1.5066384e-007
+7.3400000e+002    +6.8655623e-008    +1.4678584e-007
+7.3500000e+002    +7.1095471e-008    +1.5238339e-007
+7.3600000e+002    +6.7201611e-008    +1.6477445e-007
+7.3700000e+002    +6.7917718e-008    +1.6684581e-007
+7.3800000e+002    +7.1671295e-008    +1.5524569e-007
+7.3900000e+002    +6.5880812e-008    +1.4872542e-007
+7.4000000e+002    +6.6651822e-008    +1.4939381e-007
+7.4100000e+002    +7.0321846e-008    +1.3621379e-007
+7.4200000e+002    +7.7917228e-008    +1.4009245e-007
+7.4300000e+002    +7.7955484e-008    +1.5280661e-007
+7.4400000e+002    +7.4489591e-008    +1.4932954e-007
+7.4500000e+002    +7.3087314e-008    +1.4178705e-007
+7.4600000e+002    +7.2780693e-008    +1.5248699e-007
+7.4700000e+002    +7.9775546e-008    +1.5812772e-007
+7.4800000e+002    +7.9951270e-008    +1.5638042e-007
+7.4900000e+002    +8.3410143e-008    +1.5577841e-007
+7.5000000e+002    +9.9752391e-008    +1.4984870e-007
+7.5100000e+002    +1.0543076e-007    +1.3898065e-007
+7.5200000e+002    +9.0026333e-008    +1.3892833e-007
+7.5300000e+002    +9.1381111e-008    +1.5265098e-007
+7.5400000e+002    +8.7648360e-008    +1.6040551e-007
+7.5500000e+002    +8.8505637e-008    +1.5677739e-007
+7.5600000e+002    +8.3208910e-008    +1.6563550e-007
+7.5700000e+002    +8.5752468e-008    +1.5732262e-007
+7.5800000e+002    +7.5829135e-008    +1.4561051e-007
+7.5900000e+002    +7.1336380e-008    +1.4079392e-007
+7.6000000e+002    +7.7683261e-008    +1.4329795e-007
+7.6100000e+002    +7.5076173e-008    +1.5787235e-007
+7.6200000e+002    +7.5923772e-008    +1.5137883e-007
+7.6300000e+002    +7.4583049e-008    +1.3781985e-007
+7.6400000e+002    +6.8225049e-008    +1.4078557e-007
+7.6500000e+002    +6.4746011e-008    +1.4364687e-007
+7.6600000e+002    +7.0634854e-008    +1.4348814e-007
+7.6700000e+002    +7.2546378e-008    +1.5101661e-007
+7.6800000e+002    +6.7826655e-008    +1.6281351e-007
+7.6900000e+002    +6.2234221e-008    +1.5472480e-007
+7.7000000e+002    +6.6501308e-008    +1.6138719e-007
+7.7100000e+002    +6.8570273e-008    +1.6191628e-007
+7.7200000e+002    +6.6532060e-008    +1.4743775e-007
+7.7300000e+002    +6.5329701e-008    +1.4404155e-007
+7.7400000e+002    +7.1513298e-008    +1.5982290e-007
+7.7500000e+002    +6.6722109e-008    +1.5686641e-007
+7.7600000e+002    +6.6311010e-008    +1.5386100e-007
+7.7700000e+002    +7.0625241e-008    +1.5992489e-007
+7.7800000e+002    +7.8168810e-008    +1.7626041e-007
+7.7900000e+002    +2.0682715e-007    +1.7057260e-007
+7.8000000e+002    +2.7270721e-007    +1.6425766e-007
+7.8100000e+002    +1.1721317e-007    +1.6108835e-007
+7.8200000e+002    +7.3198223e-008    +1.6209806e-007
+7.8300000e+002    +7.0849460e-008    +1.5695788e-007
+7.8400000e+002    +6.4010969e-008    +1.5766950e-007
+7.8500000e+002    +6.0956481e-008    +1.5687742e-007
+7.8600000e+002    +6.8746822e-008    +1.5989453e-007
+7.8700000e+002    +6.9703802e-008    +1.5650805e-007
+7.8800000e+002    +6.5538480e-008    +1.4914600e-007
+7.8900000e+002    +6.8510069e-008    +1.5823679e-007
+7.9000000e+002    +7.2871451e-008    +1.6736266e-007
+7.9100000e+002    +7.8592130e-008    +1.5126552e-007
+7.9200000e+002    +7.6194340e-008    +1.4686240e-007
+7.9300000e+002    +7.4039491e-008    +1.6412677e-007
+7.9400000e+002    +7.1764603e-008    +1.6979995e-007
+7.9500000e+002    +7.8134399e-008    +1.6564368e-007
+7.9600000e+002    +7.6108726e-008    +1.6919643e-007
+7.9700000e+002    +7.8658687e-008    +1.6586444e-007
+7.9800000e+002    +8.0599612e-008    +1.4736474e-007
+7.9900000e+002    +7.7187252e-008    +1.5397541e-007
#
#
# North DC Val: 0.6667962300000001 VoltsSouth DC Val: 0.6023762100000001 Volts
# SR785 Measurement - Timestamp: Jul 06 2020 - 08:33:40
# Parameter File: /home/controls/Git/cit_ctnlab/ctn_scripts/TransRINSpecShort.yml
#---------- Measurement Setup ------------
# Start Frequency (Hz): 0.000000
# Frequency Span (Hz): 102400.000000
# Frequency Resolution: 800
# Number of Averages: 100
# Averaging Mode: RMS
# Window function: Hanning
#---------- Measurement Parameters ----------
# Measurement Group:  "FFT" "FFT"
# Measurements:  "FFT 1" "FFT 2"
# View:  "Log Magnitude" "Log Magnitude"
# Unit:  "Vrms/rtHz" "Vrms/rtHz"
#---------- Input Parameters ----------
# Input Source: Analog
# Input Mode: Single ended, Single ended
# Input Grounding: Float, Float
# Input Coupling: AC, AC
# Input Range: -36.0dBVpk, -36.0dBVpk
# Auto Range: Off, Off
# Auto Range Mode: Tracking, Tracking
# Anti-Aliasing Filter: On, On
#---------- Source Parameters ----------
# Source Type: Sine
# Source Amplitude: 500.0mVpk
# Source On: 0

#---------- Measurement Data ----------
# [Freq(Hz) Display 0(Vrms/rtHz) Display 1(Vrms/rtHz) ]
+8.9600000e+002    +1.1454136e-007    +1.9333169e-007
+1.0240000e+003    +1.2671194e-007    +2.2939592e-007
+1.1520000e+003    +1.2094959e-007    +2.5622967e-007
+1.2800000e+003    +1.5446544e-007    +3.0473745e-007
+1.4080000e+003    +1.7569371e-007    +3.6486114e-007
+1.5360000e+003    +2.0266174e-007    +3.6406800e-007
+1.6640000e+003    +2.6260324e-007    +3.7944912e-007
+1.7920000e+003    +3.4381210e-007    +4.4097209e-007
+1.9200000e+003    +3.2217932e-007    +4.6199125e-007
+2.0480000e+003    +3.1284787e-007    +5.0780619e-007
+2.1760000e+003    +3.6039432e-007    +5.6139686e-007
+2.3040000e+003    +4.0970934e-007    +6.2076572e-007
+2.4320000e+003    +4.1310028e-007    +6.4169859e-007
+2.5600000e+003    +4.3416736e-007    +6.4437302e-007
+2.6880000e+003    +4.8731147e-007    +7.4016003e-007
+2.8160000e+003    +5.1150954e-007    +8.0475024e-007
+2.9440000e+003    +5.5245050e-007    +8.2175342e-007
+3.0720000e+003    +6.1438851e-007    +9.1585821e-007
+3.2000000e+003    +6.7928977e-007    +9.7402199e-007
+3.3280000e+003    +7.0321687e-007    +1.1163750e-006
+3.4560000e+003    +7.1972374e-007    +1.1872913e-006
+3.5840000e+003    +8.0287037e-007    +1.2341399e-006
+3.7120000e+003    +8.7605446e-007    +1.2959931e-006
+3.8400000e+003    +9.1652413e-007    +1.4121998e-006
+3.9680000e+003    +8.8363680e-007    +1.4254301e-006
+4.0960000e+003    +9.6561007e-007    +1.5255514e-006
+4.2240000e+003    +1.0430676e-006    +1.7692779e-006
+4.3520000e+003    +1.0536284e-006    +1.9439531e-006
+4.4800000e+003    +1.1820885e-006    +1.9320373e-006
+4.6080000e+003    +1.1576052e-006    +1.9658462e-006
+4.7360000e+003    +1.1881885e-006    +1.9310787e-006
+4.8640000e+003    +1.2209921e-006    +1.9770500e-006
+4.9920000e+003    +1.2425643e-006    +1.9923430e-006
+5.1200000e+003    +1.3134886e-006    +2.0734442e-006
+5.2480000e+003    +1.3538880e-006    +2.1743831e-006
+5.3760000e+003    +1.3544426e-006    +2.4765466e-006
+5.5040000e+003    +1.4041769e-006    +2.5447989e-006
+5.6320000e+003    +1.3911546e-006    +2.4704823e-006
+5.7600000e+003    +1.4135323e-006    +2.4937037e-006
+5.8880000e+003    +1.5270664e-006    +2.4113504e-006
+6.0160000e+003    +1.5328046e-006    +2.5608201e-006
+6.1440000e+003    +1.6536856e-006    +2.6413061e-006
+6.2720000e+003    +1.7646915e-006    +2.6226267e-006
+6.4000000e+003    +1.7259497e-006    +2.7367184e-006
+6.5280000e+003    +1.7103206e-006    +2.6829803e-006
+6.6560000e+003    +1.8675560e-006    +2.6902012e-006
+6.7840000e+003    +1.8566953e-006    +2.5868753e-006
+6.9120000e+003    +1.9319737e-006    +2.3046784e-006
+7.0400000e+003    +2.0666166e-006    +2.0848308e-006
+7.1680000e+003    +1.9833290e-006    +1.9805980e-006
+7.2960000e+003    +1.9532556e-006    +1.8350103e-006
+7.4240000e+003    +2.0850712e-006    +1.8170444e-006
+7.5520000e+003    +2.0312843e-006    +1.8034931e-006
+7.6800000e+003    +2.2237352e-006    +1.5815689e-006
+7.8080000e+003    +2.0938462e-006    +1.4704732e-006
+7.9360000e+003    +2.1680444e-006    +1.3600442e-006
+8.0640000e+003    +2.5221150e-006    +1.2270289e-006
+8.1920000e+003    +2.6680689e-006    +1.1613123e-006
+8.3200000e+003    +2.5749709e-006    +1.1767829e-006
+8.4480000e+003    +2.4283838e-006    +1.0254181e-006
+8.5760000e+003    +2.3494977e-006    +1.0340559e-006
+8.7040000e+003    +2.5990946e-006    +1.0719588e-006
+8.8320000e+003    +2.7859264e-006    +1.0351566e-006
+8.9600000e+003    +2.6688015e-006    +9.6836197e-007
+9.0880000e+003    +2.8723614e-006    +8.9121141e-007
+9.2160000e+003    +2.9953862e-006    +8.1632811e-007
+9.3440000e+003    +2.7706681e-006    +8.8279216e-007
+9.4720000e+003    +3.0589463e-006    +8.2468733e-007
+9.6000000e+003    +2.9094660e-006    +7.5076417e-007
+9.7280000e+003    +2.8193133e-006    +8.0792142e-007
+9.8560000e+003    +3.0486931e-006    +8.2557335e-007
+9.9840000e+003    +3.1551576e-006    +7.3472791e-007
+1.0112000e+004    +3.1937300e-006    +6.7497251e-007
+1.0240000e+004    +2.9095395e-006    +6.3471731e-007
+1.0368000e+004    +2.9991115e-006    +6.7274698e-007
+1.0496000e+004    +3.0896119e-006    +6.6408643e-007
+1.0624000e+004    +3.1350703e-006    +6.4242965e-007
+1.0752000e+004    +3.1912448e-006    +6.2631733e-007
+1.0880000e+004    +3.1321526e-006    +6.0707083e-007
+1.1008000e+004    +3.1782267e-006    +6.0810487e-007
+1.1136000e+004    +3.4131317e-006    +5.8890890e-007
+1.1264000e+004    +3.7143341e-006    +5.4602458e-007
+1.1392000e+004    +3.4302896e-006    +5.5222790e-007
+1.1520000e+004    +3.1752584e-006    +5.5849989e-007
+1.1648000e+004    +3.1787467e-006    +5.4823585e-007
+1.1776000e+004    +2.9435350e-006    +5.7626215e-007
+1.1904000e+004    +3.2563321e-006    +5.5858453e-007
+1.2032000e+004    +3.4202556e-006    +5.8135959e-007
+1.2160000e+004    +3.3344563e-006    +5.7812156e-007
+1.2288000e+004    +3.3745539e-006    +5.2023364e-007
+1.2416000e+004    +3.2855223e-006    +5.1709077e-007
+1.2544000e+004    +3.2469284e-006    +4.9487517e-007
+1.2672000e+004    +3.2367270e-006    +5.0693660e-007
+1.2800000e+004    +3.3433537e-006    +5.1589763e-007
+1.2928000e+004    +3.4274208e-006    +4.9124537e-007
+1.3056000e+004    +3.4752729e-006    +4.7430044e-007
+1.3184000e+004    +3.5331998e-006    +4.6851545e-007
+1.3312000e+004    +3.3212114e-006    +4.6580877e-007
+1.3440000e+004    +3.3686679e-006    +4.2996712e-007
+1.3568000e+004    +3.4014149e-006    +4.7218410e-007
+1.3696000e+004    +3.2400233e-006    +5.0769137e-007
+1.3824000e+004    +3.1571988e-006    +4.9957839e-007
+1.3952000e+004    +3.3479271e-006    +4.3648072e-007
+1.4080000e+004    +3.5576536e-006    +4.7606335e-007
+1.4208000e+004    +3.3130239e-006    +4.6522504e-007
+1.4336000e+004    +3.3022598e-006    +4.1940717e-007
+1.4464000e+004    +2.9024309e-006    +4.2900515e-007
+1.4592000e+004    +2.9364303e-006    +4.4240124e-007
+1.4720000e+004    +3.1143313e-006    +4.5613649e-007
+1.4848000e+004    +3.0206847e-006    +4.8901643e-007
+1.4976000e+004    +3.0045992e-006    +4.5310810e-007
+1.5104000e+004    +3.2683029e-006    +4.2204761e-007
+1.5232000e+004    +3.1531108e-006    +4.2957925e-007
+1.5360000e+004    +3.0533024e-006    +4.3713825e-007
+1.5488000e+004    +3.2480550e-006    +4.4193760e-007
+1.5616000e+004    +3.2811963e-006    +3.9293548e-007
+1.5744000e+004    +2.9844086e-006    +3.8973832e-007
+1.5872000e+004    +3.1140098e-006    +4.0525998e-007
+1.6000000e+004    +3.0188844e-006    +4.0473705e-007
+1.6128000e+004    +2.9248145e-006    +3.9031644e-007
+1.6256000e+004    +3.0819142e-006    +3.6935813e-007
+1.6384000e+004    +3.1392174e-006    +3.6045051e-007
+1.6512000e+004    +2.7988740e-006    +3.8175457e-007
+1.6640000e+004    +2.9328828e-006    +3.7572914e-007
+1.6768000e+004    +2.8163402e-006    +3.6877339e-007
+1.6896000e+004    +2.6154721e-006    +3.7408509e-007
+1.7024000e+004    +2.5714535e-006    +3.8471811e-007
+1.7152000e+004    +2.4974029e-006    +3.9175990e-007
+1.7280000e+004    +2.6028272e-006    +3.8449176e-007
+1.7408000e+004    +2.6185035e-006    +3.8664442e-007
+1.7536000e+004    +2.6964319e-006    +3.9548613e-007
+1.7664000e+004    +2.6214088e-006    +3.7463093e-007
+1.7792000e+004    +2.2844458e-006    +3.7038069e-007
+1.7920000e+004    +2.6165146e-006    +3.4803631e-007
+1.8048000e+004    +2.5836252e-006    +3.9090443e-007
+1.8176000e+004    +2.6241532e-006    +3.6255020e-007
+1.8304000e+004    +2.6611908e-006    +3.7764073e-007
+1.8432000e+004    +2.5684737e-006    +3.4009778e-007
+1.8560000e+004    +2.4774224e-006    +3.6311667e-007
+1.8688000e+004    +2.4870567e-006    +3.9302350e-007
+1.8816000e+004    +2.5145223e-006    +3.7616917e-007
+1.8944000e+004    +2.3245975e-006    +3.6805540e-007
+1.9072000e+004    +2.5167153e-006    +3.6091902e-007
+1.9200000e+004    +2.3648943e-006    +3.3259698e-007
+1.9328000e+004    +2.4846438e-006    +3.1373429e-007
+1.9456000e+004    +2.4971259e-006    +3.4465947e-007
+1.9584000e+004    +2.5249299e-006    +3.4088399e-007
+1.9712000e+004    +2.5597153e-006    +3.6565478e-007
+1.9840000e+004    +2.4312358e-006    +3.5651459e-007
+1.9968000e+004    +2.3253406e-006    +3.5797018e-007
+2.0096000e+004    +2.3512343e-006    +3.8793968e-007
+2.0224000e+004    +2.1276278e-006    +3.5695913e-007
+2.0352000e+004    +2.3410003e-006    +3.3360823e-007
+2.0480000e+004    +2.4200820e-006    +3.4360795e-007
+2.0608000e+004    +2.2540123e-006    +3.5543584e-007
+2.0736000e+004    +2.2742602e-006    +3.6084492e-007
+2.0864000e+004    +2.3550840e-006    +3.5474031e-007
+2.0992000e+004    +2.1851074e-006    +3.7466015e-007
+2.1120000e+004    +2.1629064e-006    +3.5428764e-007
+2.1248000e+004    +2.2621816e-006    +3.4876808e-007
+2.1376000e+004    +2.0199175e-006    +4.4133924e-007
+2.1504000e+004    +2.0278349e-006    +4.4810480e-007
+2.1632000e+004    +2.1739654e-006    +3.6255895e-007
+2.1760000e+004    +2.0532657e-006    +3.5122827e-007
+2.1888000e+004    +2.1097414e-006    +3.7432133e-007
+2.2016000e+004    +2.2285944e-006    +3.8628161e-007
+2.2144000e+004    +2.1883943e-006    +3.2826955e-007
+2.2272000e+004    +1.9386118e-006    +3.7068216e-007
+2.2400000e+004    +1.7834825e-006    +3.6132940e-007
+2.2528000e+004    +1.8469015e-006    +3.4366681e-007
+2.2656000e+004    +2.1310598e-006    +3.4507372e-007
+2.2784000e+004    +2.0509021e-006    +3.5132004e-007
+2.2912000e+004    +1.9380179e-006    +3.4609138e-007
+2.3040000e+004    +2.0647819e-006    +3.6065322e-007
+2.3168000e+004    +2.1793785e-006    +3.5511599e-007
+2.3296000e+004    +2.1656319e-006    +3.7322602e-007
+2.3424000e+004    +1.8679578e-006    +3.5124367e-007
+2.3552000e+004    +1.9108145e-006    +3.5284469e-007
+2.3680000e+004    +2.0332925e-006    +3.8313524e-007
+2.3808000e+004    +2.1075234e-006    +4.1491126e-007
+2.3936000e+004    +2.0437810e-006    +4.0103504e-007
+2.4064000e+004    +1.9497375e-006    +3.9641907e-007
+2.4192000e+004    +1.9767353e-006    +3.7663534e-007
+2.4320000e+004    +1.9538691e-006    +3.6423953e-007
+2.4448000e+004    +1.9290867e-006    +3.6144249e-007
+2.4576000e+004    +1.8853151e-006    +3.8386327e-007
+2.4704000e+004    +1.8232577e-006    +4.0419482e-007
+2.4832000e+004    +1.7957772e-006    +3.8173363e-007
+2.4960000e+004    +1.9031157e-006    +3.6131431e-007
+2.5088000e+004    +1.8922250e-006    +3.6055781e-007
+2.5216000e+004    +1.7488250e-006    +3.8479837e-007
+2.5344000e+004    +1.7878606e-006    +3.6560300e-007
+2.5472000e+004    +1.8066165e-006    +3.5571773e-007
+2.5600000e+004    +1.8387010e-006    +3.6726621e-007
+2.5728000e+004    +1.8257056e-006    +3.6406681e-007
+2.5856000e+004    +1.6929863e-006    +3.8718861e-007
+2.5984000e+004    +1.7812653e-006    +3.8463236e-007
+2.6112000e+004    +1.7960847e-006    +3.6848968e-007
+2.6240000e+004    +1.8036258e-006    +3.6638860e-007
+2.6368000e+004    +1.6995588e-006    +3.8855350e-007
+2.6496000e+004    +1.6427462e-006    +4.3989709e-007
+2.6624000e+004    +1.8050997e-006    +4.4272923e-007
+2.6752000e+004    +1.6717771e-006    +4.3934199e-007
+2.6880000e+004    +1.5611400e-006    +3.7794021e-007
+2.7008000e+004    +1.7223642e-006    +4.2341682e-007
+2.7136000e+004    +1.8214068e-006    +3.9520225e-007
+2.7264000e+004    +1.6800649e-006    +3.9535371e-007
+2.7392000e+004    +1.7528658e-006    +4.1056811e-007
+2.7520000e+004    +1.7997880e-006    +4.0665421e-007
+2.7648000e+004    +1.6816964e-006    +4.0437149e-007
+2.7776000e+004    +1.7290603e-006    +4.1560472e-007
+2.7904000e+004    +1.7626177e-006    +3.9099584e-007
+2.8032000e+004    +1.6740769e-006    +4.0373399e-007
+2.8160000e+004    +1.4979787e-006    +4.1762746e-007
+2.8288000e+004    +1.5860153e-006    +4.3593806e-007
+2.8416000e+004    +1.5808935e-006    +4.1990893e-007
+2.8544000e+004    +1.4899772e-006    +4.0461086e-007
+2.8672000e+004    +1.4925232e-006    +4.1025086e-007
+2.8800000e+004    +1.5720814e-006    +4.1854875e-007
+2.8928000e+004    +1.6358525e-006    +3.9674347e-007
+2.9056000e+004    +1.6346927e-006    +4.1545462e-007
+2.9184000e+004    +1.5663011e-006    +4.2549487e-007
+2.9312000e+004    +1.6114408e-006    +4.2171411e-007
+2.9440000e+004    +1.4842657e-006    +4.4641746e-007
+2.9568000e+004    +1.5804960e-006    +4.7609001e-007
+2.9696000e+004    +1.5973098e-006    +4.6633943e-007
+2.9824000e+004    +1.4459218e-006    +4.1298964e-007
+2.9952000e+004    +1.5027115e-006    +4.2702902e-007
+3.0080000e+004    +1.6082309e-006    +4.3913704e-007
+3.0208000e+004    +1.5983923e-006    +4.3145630e-007
+3.0336000e+004    +1.5872870e-006    +4.3305806e-007
+3.0464000e+004    +1.5686485e-006    +4.2919123e-007
+3.0592000e+004    +1.6066655e-006    +3.9855536e-007
+3.0720000e+004    +1.6131137e-006    +4.0917485e-007
+3.0848000e+004    +1.4344434e-006    +4.4424064e-007
+3.0976000e+004    +1.5071513e-006    +4.4686666e-007
+3.1104000e+004    +1.5533998e-006    +4.3968171e-007
+3.1232000e+004    +1.5702045e-006    +4.7358336e-007
+3.1360000e+004    +1.4714567e-006    +4.4681761e-007
+3.1488000e+004    +1.6280690e-006    +4.1968033e-007
+3.1616000e+004    +1.7320947e-006    +4.1812893e-007
+3.1744000e+004    +1.6157104e-006    +4.5401197e-007
+3.1872000e+004    +1.6619073e-006    +4.2724477e-007
+3.2000000e+004    +1.5763090e-006    +4.6128721e-007
+3.2128000e+004    +1.4638219e-006    +4.5777659e-007
+3.2256000e+004    +1.5259602e-006    +4.8144756e-007
+3.2384000e+004    +1.5005895e-006    +5.0462484e-007
+3.2512000e+004    +1.3966857e-006    +5.1184099e-007
+3.2640000e+004    +1.5376507e-006    +4.4292759e-007
+3.2768000e+004    +1.5186293e-006    +4.8041630e-007
+3.2896000e+004    +1.4184934e-006    +4.6169868e-007
+3.3024000e+004    +1.4101345e-006    +4.6950828e-007
+3.3152000e+004    +1.3331877e-006    +4.9236695e-007
+3.3280000e+004    +1.5796512e-006    +4.6852881e-007
+3.3408000e+004    +1.5875328e-006    +4.8620194e-007
+3.3536000e+004    +1.5862173e-006    +5.1469141e-007
+3.3664000e+004    +1.4292713e-006    +4.8483037e-007
+3.3792000e+004    +1.4748664e-006    +4.8358947e-007
+3.3920000e+004    +1.5179243e-006    +5.2206241e-007
+3.4048000e+004    +1.4687998e-006    +5.1910450e-007
+3.4176000e+004    +1.3806022e-006    +5.0488194e-007
+3.4304000e+004    +1.3576512e-006    +5.0145673e-007
+3.4432000e+004    +1.3506883e-006    +5.3274698e-007
+3.4560000e+004    +1.5284620e-006    +5.2071084e-007
+3.4688000e+004    +1.5405557e-006    +4.5845968e-007
+3.4816000e+004    +1.4190059e-006    +4.3832583e-007
+3.4944000e+004    +1.2977374e-006    +4.2907345e-007
+3.5072000e+004    +1.2612245e-006    +4.6840640e-007
+3.5200000e+004    +1.3856211e-006    +4.9705335e-007
+3.5328000e+004    +1.3741054e-006    +5.1754517e-007
+3.5456000e+004    +1.4721144e-006    +5.2675495e-007
+3.5584000e+004    +1.5191180e-006    +5.6210121e-007
+3.5712000e+004    +1.4700163e-006    +5.6238144e-007
+3.5840000e+004    +1.4142573e-006    +5.2863510e-007
+3.5968000e+004    +1.3825437e-006    +5.4569495e-007
+3.6096000e+004    +1.4865228e-006    +5.3361867e-007
+3.6224000e+004    +1.5317027e-006    +5.3211681e-007
+3.6352000e+004    +1.3684353e-006    +4.9431094e-007
+3.6480000e+004    +1.3940858e-006    +4.7511821e-007
+3.6608000e+004    +1.3351798e-006    +4.5790077e-007
+3.6736000e+004    +1.4128977e-006    +4.8683870e-007
+3.6864000e+004    +1.4233939e-006    +5.1500962e-007
+3.6992000e+004    +1.4419520e-006    +5.0046225e-007
+3.7120000e+004    +1.3734583e-006    +5.3678008e-007
+3.7248000e+004    +1.4412777e-006    +5.2754268e-007
+3.7376000e+004    +1.4841499e-006    +5.1661181e-007
+3.7504000e+004    +1.4827688e-006    +5.2503600e-007
+3.7632000e+004    +1.4276244e-006    +5.6932294e-007
+3.7760000e+004    +1.2820682e-006    +5.7551546e-007
+3.7888000e+004    +1.3615697e-006    +6.0740888e-007
+3.8016000e+004    +1.4882605e-006    +5.7146229e-007
+3.8144000e+004    +1.3273483e-006    +5.6353298e-007
+3.8272000e+004    +1.4357734e-006    +6.3040574e-007
+3.8400000e+004    +1.5158474e-006    +6.3291634e-007
+3.8528000e+004    +1.4002910e-006    +6.0406023e-007
+3.8656000e+004    +1.4549082e-006    +5.6960806e-007
+3.8784000e+004    +1.4009399e-006    +5.8136277e-007
+3.8912000e+004    +1.3613096e-006    +6.1450993e-007
+3.9040000e+004    +1.3975985e-006    +6.4921124e-007
+3.9168000e+004    +1.3792006e-006    +5.7736287e-007
+3.9296000e+004    +1.4381588e-006    +6.1205691e-007
+3.9424000e+004    +1.3828352e-006    +6.2375551e-007
+3.9552000e+004    +1.3494550e-006    +6.0864392e-007
+3.9680000e+004    +1.3661504e-006    +5.9745304e-007
+3.9808000e+004    +1.3843711e-006    +6.2750604e-007
+3.9936000e+004    +1.3656526e-006    +6.2998987e-007
+4.0064000e+004    +1.4076533e-006    +6.1636479e-007
+4.0192000e+004    +1.3909805e-006    +6.4270688e-007
+4.0320000e+004    +1.3454458e-006    +5.8450854e-007
+4.0448000e+004    +1.3170570e-006    +6.3467689e-007
+4.0576000e+004    +1.3609061e-006    +6.1877398e-007
+4.0704000e+004    +1.4114665e-006    +5.6778231e-007
+4.0832000e+004    +1.3812435e-006    +5.5768800e-007
+4.0960000e+004    +1.3331218e-006    +6.0683294e-007
+4.1088000e+004    +1.2992487e-006    +5.9743530e-007
+4.1216000e+004    +1.3206554e-006    +5.5894589e-007
+4.1344000e+004    +1.2635295e-006    +6.0500474e-007
+4.1472000e+004    +1.2458388e-006    +6.1123222e-007
+4.1600000e+004    +1.3335654e-006    +6.5541434e-007
+4.1728000e+004    +1.3308126e-006    +6.2127850e-007
+4.1856000e+004    +1.2997509e-006    +6.4959630e-007
+4.1984000e+004    +1.3793475e-006    +6.5854709e-007
+4.2112000e+004    +1.3493499e-006    +6.8206697e-007
+4.2240000e+004    +1.3095862e-006    +6.8833225e-007
+4.2368000e+004    +1.3023850e-006    +6.6599733e-007
+4.2496000e+004    +1.3290808e-006    +6.5310337e-007
+4.2624000e+004    +1.2747790e-006    +6.7756986e-007
+4.2752000e+004    +1.2339732e-006    +6.0817763e-007
+4.2880000e+004    +1.2751051e-006    +6.1031955e-007
+4.3008000e+004    +1.2970993e-006    +6.5914963e-007
+4.3136000e+004    +1.2729845e-006    +6.5279153e-007
+4.3264000e+004    +1.2476512e-006    +6.4958061e-007
+4.3392000e+004    +1.1457155e-006    +6.8135068e-007
+4.3520000e+004    +1.1979449e-006    +6.0548854e-007
+4.3648000e+004    +1.2147755e-006    +6.1055749e-007
+4.3776000e+004    +1.2219093e-006    +6.6061830e-007
+4.3904000e+004    +1.3158010e-006    +6.5885229e-007
+4.4032000e+004    +1.2356802e-006    +6.3557786e-007
+4.4160000e+004    +1.2101335e-006    +6.5055912e-007
+4.4288000e+004    +1.2536547e-006    +6.6562234e-007
+4.4416000e+004    +1.3585711e-006    +6.4156052e-007
+4.4544000e+004    +1.2812702e-006    +7.0067205e-007
+4.4672000e+004    +1.2819175e-006    +6.7561905e-007
+4.4800000e+004    +1.2677289e-006    +6.4331124e-007
+4.4928000e+004    +1.3158979e-006    +6.8873067e-007
+4.5056000e+004    +1.3224634e-006    +7.4456472e-007
+4.5184000e+004    +1.3210209e-006    +7.2479179e-007
+4.5312000e+004    +1.2499780e-006    +7.2831295e-007
+4.5440000e+004    +1.3199307e-006    +7.2765994e-007
+4.5568000e+004    +1.3566170e-006    +7.4728541e-007
+4.5696000e+004    +1.2806415e-006    +7.2516434e-007
+4.5824000e+004    +1.2550704e-006    +6.8499088e-007
+4.5952000e+004    +1.1914964e-006    +6.7878955e-007
+4.6080000e+004    +1.2178724e-006    +7.3811412e-007
+4.6208000e+004    +1.2340870e-006    +7.8816117e-007
+4.6336000e+004    +1.2549519e-006    +8.1013684e-007
+4.6464000e+004    +1.2918349e-006    +7.8824166e-007
+4.6592000e+004    +1.3187949e-006    +7.2923473e-007
+4.6720000e+004    +1.2667618e-006    +7.6912397e-007
+4.6848000e+004    +1.2667660e-006    +7.8758592e-007
+4.6976000e+004    +1.2471198e-006    +7.5678417e-007
+4.7104000e+004    +1.2692331e-006    +7.3841409e-007
+4.7232000e+004    +1.2853352e-006    +7.5179446e-007
+4.7360000e+004    +1.2758221e-006    +7.7003989e-007
+4.7488000e+004    +1.3639817e-006    +7.0512812e-007
+4.7616000e+004    +1.2646871e-006    +7.3780546e-007
+4.7744000e+004    +1.2955478e-006    +7.5022854e-007
+4.7872000e+004    +1.2568355e-006    +7.4326442e-007
+4.8000000e+004    +1.2202147e-006    +7.8005485e-007
+4.8128000e+004    +1.1972677e-006    +8.2077236e-007
+4.8256000e+004    +1.2105455e-006    +7.7211752e-007
+4.8384000e+004    +1.2389881e-006    +7.9162157e-007
+4.8512000e+004    +1.1722243e-006    +7.7166152e-007
+4.8640000e+004    +1.1483792e-006    +7.7891656e-007
+4.8768000e+004    +1.1497682e-006    +7.7776286e-007
+4.8896000e+004    +1.1254217e-006    +7.3378789e-007
+4.9024000e+004    +1.1129640e-006    +7.1061442e-007
+4.9152000e+004    +1.0839765e-006    +7.3630991e-007
+4.9280000e+004    +1.1400411e-006    +7.3095180e-007
+4.9408000e+004    +1.1278375e-006    +8.0390686e-007
+4.9536000e+004    +1.0600928e-006    +7.9775805e-007
+4.9664000e+004    +1.0810978e-006    +8.3956832e-007
+4.9792000e+004    +1.0373867e-006    +8.1078286e-007
+4.9920000e+004    +1.1016731e-006    +7.7672854e-007
+5.0048000e+004    +1.0900825e-006    +8.1750579e-007
+5.0176000e+004    +1.0171885e-006    +8.6002524e-007
+5.0304000e+004    +9.6252768e-007    +8.5738816e-007
+5.0432000e+004    +1.0123841e-006    +7.8712770e-007
+5.0560000e+004    +1.0432268e-006    +7.9319807e-007
+5.0688000e+004    +1.0075959e-006    +8.1555680e-007
+5.0816000e+004    +1.0192098e-006    +8.6348251e-007
+5.0944000e+004    +1.0100126e-006    +8.2535587e-007
+5.1072000e+004    +9.4761748e-007    +7.7783716e-007
+5.1200000e+004    +9.8563316e-007    +7.8922716e-007
+5.1328000e+004    +1.0383097e-006    +7.9462410e-007
+5.1456000e+004    +1.0092666e-006    +8.3919235e-007
+5.1584000e+004    +9.2564306e-007    +8.4810779e-007
+5.1712000e+004    +9.2874700e-007    +8.3929643e-007
+5.1840000e+004    +9.2396056e-007    +8.2018499e-007
+5.1968000e+004    +9.1406400e-007    +8.7128797e-007
+5.2096000e+004    +9.1824450e-007    +8.8732247e-007
+5.2224000e+004    +9.2924984e-007    +9.3690164e-007
+5.2352000e+004    +9.8254395e-007    +9.4710884e-007
+5.2480000e+004    +9.5552014e-007    +9.2196416e-007
+5.2608000e+004    +9.0090703e-007    +8.6305408e-007
+5.2736000e+004    +9.1423664e-007    +8.1346235e-007
+5.2864000e+004    +9.0408781e-007    +8.0951531e-007
+5.2992000e+004    +8.7339987e-007    +8.9176740e-007
+5.3120000e+004    +8.8432881e-007    +8.8564354e-007
+5.3248000e+004    +8.8089251e-007    +8.3567261e-007
+5.3376000e+004    +8.7241943e-007    +8.8889146e-007
+5.3504000e+004    +8.2925720e-007    +8.8649381e-007
+5.3632000e+004    +8.2887760e-007    +9.0593704e-007
+5.3760000e+004    +8.6519071e-007    +8.7167837e-007
+5.3888000e+004    +8.8846605e-007    +9.0859373e-007
+5.4016000e+004    +8.5358590e-007    +9.1370680e-007
+5.4144000e+004    +8.7469834e-007    +8.9191622e-007
+5.4272000e+004    +9.0329803e-007    +9.3051381e-007
+5.4400000e+004    +8.7316880e-007    +9.8655119e-007
+5.4528000e+004    +8.4952069e-007    +9.7191855e-007
+5.4656000e+004    +8.2972713e-007    +9.7437498e-007
+5.4784000e+004    +8.5878725e-007    +9.9136912e-007
+5.4912000e+004    +8.5845352e-007    +9.5982080e-007
+5.5040000e+004    +8.5779209e-007    +8.9377096e-007
+5.5168000e+004    +1.0140039e-006    +9.3594855e-007
+5.5296000e+004    +8.7203733e-007    +9.2949170e-007
+5.5424000e+004    +8.5130966e-007    +9.2110417e-007
+5.5552000e+004    +1.3707977e-006    +9.6702752e-007
+5.5680000e+004    +1.1969195e-006    +1.0453939e-006
+5.5808000e+004    +8.3673029e-007    +9.6299595e-007
+5.5936000e+004    +8.0264476e-007    +9.5346195e-007
+5.6064000e+004    +8.1032272e-007    +1.0353328e-006
+5.6192000e+004    +8.1336856e-007    +1.0111811e-006
+5.6320000e+004    +7.8426024e-007    +9.7506427e-007
+5.6448000e+004    +7.6321942e-007    +9.6111569e-007
+5.6576000e+004    +7.4891835e-007    +8.9349817e-007
+5.6704000e+004    +7.8405964e-007    +8.7930198e-007
+5.6832000e+004    +7.6152861e-007    +9.7359111e-007
+5.6960000e+004    +8.3249756e-007    +9.6126666e-007
+5.7088000e+004    +8.3704640e-007    +9.2540222e-007
+5.7216000e+004    +8.2313409e-007    +9.8850944e-007
+5.7344000e+004    +8.1535978e-007    +9.8854844e-007
+5.7472000e+004    +8.1087097e-007    +9.4851271e-007
+5.7600000e+004    +7.8651522e-007    +9.6420206e-007
+5.7728000e+004    +8.0372064e-007    +1.0079864e-006
+5.7856000e+004    +7.6503164e-007    +1.0051494e-006
+5.7984000e+004    +7.5185716e-007    +9.7354518e-007
+5.8112000e+004    +7.4358604e-007    +9.5837072e-007
+5.8240000e+004    +7.5090185e-007    +1.0741101e-006
+5.8368000e+004    +7.6287512e-007    +1.1227719e-006
+5.8496000e+004    +7.4812033e-007    +1.0642131e-006
+5.8624000e+004    +7.5955620e-007    +1.0753113e-006
+5.8752000e+004    +7.8026642e-007    +1.0800406e-006
+5.8880000e+004    +7.6723381e-007    +9.9923500e-007
+5.9008000e+004    +7.4722556e-007    +1.0382367e-006
+5.9136000e+004    +7.1829010e-007    +1.0248340e-006
+5.9264000e+004    +7.0322460e-007    +1.0616303e-006
+5.9392000e+004    +7.1305840e-007    +1.1166262e-006
+5.9520000e+004    +7.5341404e-007    +1.0681076e-006
+5.9648000e+004    +7.5072211e-007    +1.0378959e-006
+5.9776000e+004    +7.2340526e-007    +1.0308592e-006
+5.9904000e+004    +7.0179226e-007    +1.0237779e-006
+6.0032000e+004    +7.2275429e-007    +9.9629574e-007
+6.0160000e+004    +7.2163624e-007    +1.0479739e-006
+6.0288000e+004    +7.1494458e-007    +1.0884178e-006
+6.0416000e+004    +6.9965881e-007    +1.1308383e-006
+6.0544000e+004    +7.1999006e-007    +1.1028397e-006
+6.0672000e+004    +7.0249456e-007    +1.0855177e-006
+6.0800000e+004    +6.7550116e-007    +1.0647120e-006
+6.0928000e+004    +7.0030745e-007    +1.0178544e-006
+6.1056000e+004    +7.0036975e-007    +9.6765098e-007
+6.1184000e+004    +7.2049937e-007    +1.0080196e-006
+6.1312000e+004    +6.9144392e-007    +1.0532108e-006
+6.1440000e+004    +6.7072028e-007    +1.1412084e-006
+6.1568000e+004    +6.8570949e-007    +1.2102730e-006
+6.1696000e+004    +7.0869925e-007    +1.1369399e-006
+6.1824000e+004    +6.9040613e-007    +1.1638180e-006
+6.1952000e+004    +6.8112405e-007    +1.2277984e-006
+6.2080000e+004    +6.6331108e-007    +1.1329884e-006
+6.2208000e+004    +6.7542180e-007    +1.1564441e-006
+6.2336000e+004    +6.8122353e-007    +1.2010952e-006
+6.2464000e+004    +6.7161636e-007    +1.1475851e-006
+6.2592000e+004    +6.8592482e-007    +1.1351513e-006
+6.2720000e+004    +6.7814739e-007    +1.2099994e-006
+6.2848000e+004    +6.7653730e-007    +1.2052088e-006
+6.2976000e+004    +6.5452474e-007    +1.1473305e-006
+6.3104000e+004    +6.2824023e-007    +1.0517363e-006
+6.3232000e+004    +6.5840032e-007    +1.0336983e-006
+6.3360000e+004    +6.6778836e-007    +1.0434593e-006
+6.3488000e+004    +6.5401326e-007    +1.0485678e-006
+6.3616000e+004    +6.5496039e-007    +1.1436681e-006
+6.3744000e+004    +6.6127501e-007    +1.1474200e-006
+6.3872000e+004    +6.6508755e-007    +1.1462339e-006
+6.4000000e+004    +6.4914781e-007    +1.1328527e-006
+6.4128000e+004    +6.5365504e-007    +1.1664315e-006
+6.4256000e+004    +6.5532220e-007    +1.2696986e-006
+6.4384000e+004    +6.4204676e-007    +1.2594546e-006
+6.4512000e+004    +6.4214123e-007    +1.2258722e-006
+6.4640000e+004    +6.3556115e-007    +1.1422237e-006
+6.4768000e+004    +6.3772387e-007    +1.2551958e-006
+6.4896000e+004    +6.4652312e-007    +1.2759706e-006
+6.5024000e+004    +6.4888133e-007    +1.2305043e-006
+6.5152000e+004    +6.4660833e-007    +1.2255424e-006
+6.5280000e+004    +6.6120822e-007    +1.1189421e-006
+6.5408000e+004    +6.4958988e-007    +1.1421247e-006
+6.5536000e+004    +6.2386232e-007    +1.1561496e-006
+6.5664000e+004    +6.2236882e-007    +1.1998734e-006
+6.5792000e+004    +6.3773507e-007    +1.2596428e-006
+6.5920000e+004    +6.3639067e-007    +1.2734528e-006
+6.6048000e+004    +6.2174388e-007    +1.2497927e-006
+6.6176000e+004    +6.1163905e-007    +1.2780176e-006
+6.6304000e+004    +5.9161920e-007    +1.2476265e-006
+6.6432000e+004    +5.9479174e-007    +1.1811219e-006
+6.6560000e+004    +6.2151798e-007    +1.2431633e-006
+6.6688000e+004    +6.1664167e-007    +1.3041924e-006
+6.6816000e+004    +6.1268423e-007    +1.2347024e-006
+6.6944000e+004    +6.1806986e-007    +1.1664584e-006
+6.7072000e+004    +6.0444899e-007    +1.1351636e-006
+6.7200000e+004    +6.2002192e-007    +1.2270397e-006
+6.7328000e+004    +6.2699092e-007    +1.3242113e-006
+6.7456000e+004    +6.0057243e-007    +1.5046414e-006
+6.7584000e+004    +5.9423826e-007    +1.3019762e-006
+6.7712000e+004    +5.9696652e-007    +1.3112164e-006
+6.7840000e+004    +6.0299931e-007    +1.3017346e-006
+6.7968000e+004    +5.9362657e-007    +1.3156147e-006
+6.8096000e+004    +5.8678609e-007    +1.2983389e-006
+6.8224000e+004    +5.8232933e-007    +1.3538597e-006
+6.8352000e+004    +5.8927827e-007    +1.3502139e-006
+6.8480000e+004    +5.7929003e-007    +1.1453042e-006
+6.8608000e+004    +5.9827420e-007    +1.2848922e-006
+6.8736000e+004    +5.9698220e-007    +1.4456107e-006
+6.8864000e+004    +5.7834058e-007    +1.4296290e-006
+6.8992000e+004    +5.7389502e-007    +1.3852439e-006
+6.9120000e+004    +5.7753533e-007    +1.2734822e-006
+6.9248000e+004    +5.8833956e-007    +1.2282123e-006
+6.9376000e+004    +5.7482140e-007    +1.2745229e-006
+6.9504000e+004    +5.7146292e-007    +1.2185305e-006
+6.9632000e+004    +5.8710964e-007    +1.2655594e-006
+6.9760000e+004    +5.8572982e-007    +1.2401559e-006
+6.9888000e+004    +5.7255068e-007    +1.3008902e-006
+7.0016000e+004    +5.7269966e-007    +1.4264650e-006
+7.0144000e+004    +1.2076064e-006    +1.5382722e-006
+7.0272000e+004    +1.7895455e-006    +1.7598504e-006
+7.0400000e+004    +8.5600635e-007    +1.4299163e-006
+7.0528000e+004    +5.5804082e-007    +1.4465696e-006
+7.0656000e+004    +6.4041404e-007    +1.5577995e-006
+7.0784000e+004    +8.7810469e-007    +1.5696030e-006
+7.0912000e+004    +6.8637235e-007    +1.2511081e-006
+7.1040000e+004    +5.6473215e-007    +1.3332403e-006
+7.1168000e+004    +5.4270919e-007    +1.4214556e-006
+7.1296000e+004    +5.6755545e-007    +1.4877671e-006
+7.1424000e+004    +5.5038049e-007    +1.4477534e-006
+7.1552000e+004    +5.4946457e-007    +1.3233611e-006
+7.1680000e+004    +5.7136691e-007    +1.1831921e-006
+7.1808000e+004    +5.6969691e-007    +1.2791857e-006
+7.1936000e+004    +5.5155897e-007    +1.4496335e-006
+7.2064000e+004    +5.7053506e-007    +1.3655101e-006
+7.2192000e+004    +5.7296887e-007    +1.3651699e-006
+7.2320000e+004    +5.7455009e-007    +1.3678209e-006
+7.2448000e+004    +5.5659609e-007    +1.4166802e-006
+7.2576000e+004    +5.4358759e-007    +1.4968131e-006
+7.2704000e+004    +5.4395417e-007    +1.3013816e-006
+7.2832000e+004    +5.5606097e-007    +1.3543385e-006
+7.2960000e+004    +5.2947735e-007    +1.5158673e-006
+7.3088000e+004    +5.2634277e-007    +1.4625624e-006
+7.3216000e+004    +5.3407763e-007    +1.4122882e-006
+7.3344000e+004    +5.3319292e-007    +1.4733563e-006
+7.3472000e+004    +5.2508904e-007    +1.6071683e-006
+7.3600000e+004    +5.3391170e-007    +1.6075549e-006
+7.3728000e+004    +5.4667782e-007    +1.4870338e-006
+7.3856000e+004    +5.4884777e-007    +1.4397009e-006
+7.3984000e+004    +5.4139684e-007    +1.4651340e-006
+7.4112000e+004    +5.3546273e-007    +1.4953987e-006
+7.4240000e+004    +5.3281309e-007    +1.4062567e-006
+7.4368000e+004    +5.1826220e-007    +1.4955941e-006
+7.4496000e+004    +5.3022086e-007    +1.6016933e-006
+7.4624000e+004    +5.4412203e-007    +1.5134493e-006
+7.4752000e+004    +5.3110762e-007    +1.5172194e-006
+7.4880000e+004    +5.3360287e-007    +1.4965781e-006
+7.5008000e+004    +5.3774517e-007    +1.5118085e-006
+7.5136000e+004    +5.2612609e-007    +1.4840701e-006
+7.5264000e+004    +5.2884815e-007    +1.5489699e-006
+7.5392000e+004    +5.3094027e-007    +1.6580289e-006
+7.5520000e+004    +5.2188358e-007    +1.7104295e-006
+7.5648000e+004    +5.2243513e-007    +1.6485715e-006
+7.5776000e+004    +5.1309797e-007    +1.6195842e-006
+7.5904000e+004    +5.2360775e-007    +1.5901652e-006
+7.6032000e+004    +5.1813760e-007    +1.4030257e-006
+7.6160000e+004    +5.0559532e-007    +1.4446872e-006
+7.6288000e+004    +5.0028973e-007    +1.5028880e-006
+7.6416000e+004    +5.1368420e-007    +1.4062645e-006
+7.6544000e+004    +5.1722532e-007    +1.4692935e-006
+7.6672000e+004    +5.2730758e-007    +1.4841793e-006
+7.6800000e+004    +5.1313515e-007    +4.7501494e-006
+7.6928000e+004    +5.0622356e-007    +8.8337101e-006
+7.7056000e+004    +5.1432193e-007    +4.3523983e-006
+7.7184000e+004    +5.0094934e-007    +1.4759614e-006
+7.7312000e+004    +5.0451899e-007    +1.5074492e-006
+7.7440000e+004    +5.1951559e-007    +1.5880383e-006
+7.7568000e+004    +6.5792051e-007    +1.6080685e-006
+7.7696000e+004    +1.0369357e-006    +1.7751602e-006
+7.7824000e+004    +6.8256065e-007    +1.7127918e-006
+7.7952000e+004    +5.0218733e-007    +1.6726584e-006
+7.8080000e+004    +5.1131525e-007    +1.6627597e-006
+7.8208000e+004    +5.1148481e-007    +1.7138452e-006
+7.8336000e+004    +4.9902087e-007    +1.8108246e-006
+7.8464000e+004    +4.6318786e-007    +1.6332342e-006
+7.8592000e+004    +4.9758739e-007    +1.5586686e-006
+7.8720000e+004    +4.9925376e-007    +1.6743489e-006
+7.8848000e+004    +5.0316919e-007    +1.5409887e-006
+7.8976000e+004    +5.0557423e-007    +1.6006104e-006
+7.9104000e+004    +5.0637425e-007    +1.7787578e-006
+7.9232000e+004    +4.9328139e-007    +1.5963000e-006
+7.9360000e+004    +5.1484511e-007    +1.5211759e-006
+7.9488000e+004    +5.7596992e-007    +1.4887769e-006
+7.9616000e+004    +5.2166587e-007    +1.5514260e-006
+7.9744000e+004    +4.8597138e-007    +1.5812320e-006
+7.9872000e+004    +4.9380702e-007    +1.6923469e-006
+8.0000000e+004    +5.1330591e-007    +1.6798713e-006
+8.0128000e+004    +4.9859477e-007    +1.5592027e-006
+8.0256000e+004    +4.9408413e-007    +1.5735613e-006
+8.0384000e+004    +4.8975147e-007    +1.7131058e-006
+8.0512000e+004    +4.8416325e-007    +1.7857378e-006
+8.0640000e+004    +4.8556763e-007    +1.6597775e-006
+8.0768000e+004    +4.6530423e-007    +1.6183949e-006
+8.0896000e+004    +4.6465280e-007    +1.5690051e-006
+8.1024000e+004    +4.8773700e-007    +1.6378439e-006
+8.1152000e+004    +4.9457265e-007    +1.7339175e-006
+8.1280000e+004    +4.9743556e-007    +1.7317011e-006
+8.1408000e+004    +4.8963102e-007    +1.6801221e-006
+8.1536000e+004    +4.8298989e-007    +1.6787870e-006
+8.1664000e+004    +4.8468291e-007    +1.6490675e-006
+8.1792000e+004    +4.8169079e-007    +1.6924306e-006
+8.1920000e+004    +5.0544878e-007    +1.5680974e-006
+8.2048000e+004    +4.8999351e-007    +1.6809487e-006
+8.2176000e+004    +4.6506011e-007    +1.7328689e-006
+8.2304000e+004    +4.6714553e-007    +1.7715601e-006
+8.2432000e+004    +4.5552289e-007    +1.7312144e-006
+8.2560000e+004    +4.7120736e-007    +1.7620837e-006
+8.2688000e+004    +4.4606372e-007    +1.7376149e-006
+8.2816000e+004    +4.4746761e-007    +1.7946733e-006
+8.2944000e+004    +4.5334099e-007    +1.7965423e-006
+8.3072000e+004    +4.6807892e-007    +1.7985179e-006
+8.3200000e+004    +4.5934695e-007    +1.8108246e-006
+8.3328000e+004    +4.4708554e-007    +1.7867440e-006
+8.3456000e+004    +4.3662354e-007    +1.5947163e-006
+8.3584000e+004    +4.0996810e-007    +1.5906105e-006
+8.3712000e+004    +4.3732211e-007    +1.6205322e-006
+8.3840000e+004    +4.5011072e-007    +1.6720195e-006
+8.3968000e+004    +4.2909417e-007    +1.6696584e-006
+8.4096000e+004    +4.1439725e-007    +1.6345509e-006
+8.4224000e+004    +4.1047616e-007    +1.6455587e-006
+8.4352000e+004    +4.1303315e-007    +1.6929100e-006
+8.4480000e+004    +4.2253353e-007    +1.7036148e-006
+8.4608000e+004    +4.3790251e-007    +1.7231946e-006
+8.4736000e+004    +4.2180486e-007    +1.7848557e-006
+8.4864000e+004    +3.9740834e-007    +1.7662248e-006
+8.4992000e+004    +4.1094739e-007    +1.6593492e-006
+8.5120000e+004    +4.1146117e-007    +1.6279760e-006
+8.5248000e+004    +4.1691780e-007    +1.8551752e-006
+8.5376000e+004    +4.0475172e-007    +1.9347735e-006
+8.5504000e+004    +3.9471786e-007    +2.0187513e-006
+8.5632000e+004    +4.0479171e-007    +1.8918428e-006
+8.5760000e+004    +4.0816883e-007    +1.8820452e-006
+8.5888000e+004    +4.2300329e-007    +1.8050184e-006
+8.6016000e+004    +4.0789689e-007    +1.8973635e-006
+8.6144000e+004    +3.9536110e-007    +1.8002465e-006
+8.6272000e+004    +3.9794364e-007    +1.7182730e-006
+8.6400000e+004    +3.7047343e-007    +1.6928487e-006
+8.6528000e+004    +3.8312766e-007    +1.5547408e-006
+8.6656000e+004    +3.8831595e-007    +1.5647506e-006
+8.6784000e+004    +3.8518385e-007    +1.7903042e-006
+8.6912000e+004    +3.9170956e-007    +1.7906895e-006
+8.7040000e+004    +3.9872080e-007    +1.6622669e-006
+8.7168000e+004    +3.9369164e-007    +1.7818580e-006
+8.7296000e+004    +3.8671701e-007    +1.7527157e-006
+8.7424000e+004    +3.8034048e-007    +1.8305751e-006
+8.7552000e+004    +3.7521795e-007    +1.7305645e-006
+8.7680000e+004    +3.8716948e-007    +1.7500121e-006
+8.7808000e+004    +3.8516441e-007    +2.0104519e-006
+8.7936000e+004    +3.9266592e-007    +2.0985829e-006
+8.8064000e+004    +4.2742681e-007    +2.0167950e-006
+8.8192000e+004    +4.4033246e-007    +1.7815196e-006
+8.8320000e+004    +4.7246104e-007    +1.6459038e-006
+8.8448000e+004    +5.0088335e-007    +1.7434837e-006
+8.8576000e+004    +5.1031134e-007    +1.8382206e-006
+8.8704000e+004    +5.5007541e-007    +1.8503256e-006
+8.8832000e+004    +5.6290901e-007    +1.9526037e-006
+8.8960000e+004    +5.2232730e-007    +2.0235600e-006
+8.9088000e+004    +4.8046167e-007    +1.8186931e-006
+8.9216000e+004    +4.3533254e-007    +1.7399173e-006
+8.9344000e+004    +4.1361767e-007    +1.8395107e-006
+8.9472000e+004    +4.7349394e-007    +1.8616762e-006
+8.9600000e+004    +5.0262253e-007    +1.8471408e-006
+8.9728000e+004    +4.9160417e-007    +1.7103901e-006
+8.9856000e+004    +4.5246878e-007    +1.7039590e-006
+8.9984000e+004    +4.2050641e-007    +1.6555585e-006
+9.0112000e+004    +4.9643324e-007    +1.7814237e-006
+9.0240000e+004    +5.2319109e-007    +1.8993228e-006
+9.0368000e+004    +4.6620119e-007    +1.7970375e-006
+9.0496000e+004    +4.4905289e-007    +1.9125860e-006
+9.0624000e+004    +5.1219291e-007    +1.9206332e-006
+9.0752000e+004    +4.6393708e-007    +1.8629644e-006
+9.0880000e+004    +4.3397719e-007    +1.9186793e-006
+9.1008000e+004    +4.6232310e-007    +1.8552262e-006
+9.1136000e+004    +4.1792930e-007    +1.8812499e-006
+9.1264000e+004    +4.2159002e-007    +1.8272377e-006
+9.1392000e+004    +4.4344338e-007    +1.8765732e-006
+9.1520000e+004    +4.3773235e-007    +1.9261788e-006
+9.1648000e+004    +4.5534838e-007    +1.9401471e-006
+9.1776000e+004    +4.3112908e-007    +1.9312822e-006
+9.1904000e+004    +4.3282563e-007    +1.9308795e-006
+9.2032000e+004    +4.3529957e-007    +1.9548067e-006
+9.2160000e+004    +4.7027029e-007    +2.0061477e-006
+9.2288000e+004    +4.7719323e-007    +1.8706958e-006
+9.2416000e+004    +4.5702581e-007    +1.9182116e-006
+9.2544000e+004    +4.4056605e-007    +1.9719489e-006
+9.2672000e+004    +4.2192158e-007    +1.8269167e-006
+9.2800000e+004    +4.1785313e-007    +1.8537580e-006
+9.2928000e+004    +4.3753727e-007    +1.7940291e-006
+9.3056000e+004    +4.5951191e-007    +1.8738800e-006
+9.3184000e+004    +4.3569165e-007    +1.8667421e-006
+9.3312000e+004    +4.0917124e-007    +1.7699930e-006
+9.3440000e+004    +4.3053780e-007    +1.8770203e-006
+9.3568000e+004    +4.1444957e-007    +1.7170321e-006
+9.3696000e+004    +4.0966933e-007    +1.8282672e-006
+9.3824000e+004    +4.3557924e-007    +1.8850667e-006
+9.3952000e+004    +3.9226992e-007    +2.0160378e-006
+9.4080000e+004    +3.8374401e-007    +1.8124896e-006
+9.4208000e+004    +4.3167711e-007    +1.8891340e-006
+9.4336000e+004    +4.3428034e-007    +1.9346121e-006
+9.4464000e+004    +5.3125575e-007    +1.9041420e-006
+9.4592000e+004    +5.0433511e-007    +1.9351496e-006
+9.4720000e+004    +4.0792602e-007    +1.9890404e-006
+9.4848000e+004    +4.3208775e-007    +1.9512429e-006
+9.4976000e+004    +3.7800868e-007    +1.8513620e-006
+9.5104000e+004    +3.2102113e-007    +1.7563411e-006
+9.5232000e+004    +3.4447410e-007    +1.8130528e-006
+9.5360000e+004    +4.1620018e-007    +1.6961138e-006
+9.5488000e+004    +4.6597859e-007    +1.6516116e-006
+9.5616000e+004    +4.9726242e-007    +1.7009215e-006
+9.5744000e+004    +4.7247141e-007    +1.8292410e-006
+9.5872000e+004    +4.4401145e-007    +1.8003909e-006
+9.6000000e+004    +4.0422989e-007    +1.7322925e-006
+9.6128000e+004    +3.5134667e-007    +2.0925409e-006
+9.6256000e+004    +3.2842132e-007    +2.0405478e-006
+9.6384000e+004    +3.1583809e-007    +1.8380854e-006
+9.6512000e+004    +2.8538020e-007    +1.7571358e-006
+9.6640000e+004    +2.7692602e-007    +1.7182466e-006
+9.6768000e+004    +2.8026133e-007    +1.7358338e-006
+9.6896000e+004    +2.6880105e-007    +1.9036486e-006
+9.7024000e+004    +2.9414932e-007    +1.9100341e-006
+9.7152000e+004    +2.8208956e-007    +1.7846442e-006
+9.7280000e+004    +2.5170110e-007    +1.7407675e-006
+9.7408000e+004    +2.6600952e-007    +1.7438723e-006
+9.7536000e+004    +2.7684484e-007    +1.7719374e-006
+9.7664000e+004    +2.7902030e-007    +1.7249570e-006
+9.7792000e+004    +2.9025074e-007    +1.8444535e-006
+9.7920000e+004    +3.3203798e-007    +1.8758913e-006
+9.8048000e+004    +3.1367333e-007    +1.8414285e-006
+9.8176000e+004    +3.0253017e-007    +1.8586453e-006
+9.8304000e+004    +3.0770690e-007    +1.8698539e-006
+9.8432000e+004    +3.2005050e-007    +1.7200227e-006
+9.8560000e+004    +3.0689040e-007    +1.6407237e-006
+9.8688000e+004    +2.8450108e-007    +1.7446710e-006
+9.8816000e+004    +2.7608263e-007    +1.8954667e-006
+9.8944000e+004    +2.6714926e-007    +1.8019156e-006
+9.9072000e+004    +2.7209975e-007    +1.8205451e-006
+9.9200000e+004    +2.7784455e-007    +1.8454198e-006
+9.9328000e+004    +2.5299946e-007    +1.6621464e-006
+9.9456000e+004    +2.4698502e-007    +1.6782986e-006
+9.9584000e+004    +2.3814086e-007    +1.8438602e-006
+9.9712000e+004    +2.4447482e-007    +1.7713461e-006
+9.9840000e+004    +2.4268724e-007    +1.7352927e-006
+9.9968000e+004    +2.5392839e-007    +1.6526600e-006
+1.0009600e+005    +2.4743559e-007    +1.7042453e-006
+1.0022400e+005    +2.3747218e-007    +1.8286567e-006
+1.0035200e+005    +2.5533379e-007    +1.9007039e-006
+1.0048000e+005    +2.3111147e-007    +1.8052484e-006
+1.0060800e+005    +2.2861921e-007    +1.7246615e-006
+1.0073600e+005    +2.3371223e-007    +1.6766871e-006
+1.0086400e+005    +2.2616477e-007    +1.6572936e-006
+1.0099200e+005    +2.0636374e-007    +1.7287737e-006
+1.0112000e+005    +2.1272680e-007    +1.8293052e-006
+1.0124800e+005    +2.1751855e-007    +1.7861830e-006
+1.0137600e+005    +2.1639372e-007    +1.8096520e-006
+1.0150400e+005    +2.2087630e-007    +1.8170864e-006
+1.0163200e+005    +2.1969625e-007    +1.5946463e-006
+1.0176000e+005    +2.4185945e-007    +1.5514242e-006
+1.0188800e+005    +2.3538328e-007    +1.7024573e-006
+1.0201600e+005    +2.1302785e-007    +1.5731865e-006
+1.0214400e+005    +2.1896896e-007    +1.4568265e-006
+1.0227200e+005    +2.1415234e-007    +1.5796252e-006
