# North DC Val: 0.65381235 VoltsSouth DC Val: 0.55893015 Volts
# SR785 Measurement - Timestamp: Jun 09 2020 - 06:26:09
# Parameter File: /home/controls/Git/cit_ctnlab/ctn_scripts/TransRINSpecLong.yml
#---------- Measurement Setup ------------
# Start Frequency (Hz): 0.000000
# Frequency Span (Hz): 800.000000
# Frequency Resolution: 800
# Number of Averages: 100
# Averaging Mode: RMS
# Window function: Hanning
#---------- Measurement Parameters ----------
# Measurement Group:  "FFT" "FFT"
# Measurements:  "FFT 1" "FFT 2"
# View:  "Log Magnitude" "Log Magnitude"
# Unit:  "Vrms/rtHz" "Vrms/rtHz"
#---------- Input Parameters ----------
# Input Source: Analog
# Input Mode: Single ended, Single ended
# Input Grounding: Float, Float
# Input Coupling: AC, AC
# Input Range: -36.0dBVpk, -36.0dBVpk
# Auto Range: Off, Off
# Auto Range Mode: Tracking, Tracking
# Anti-Aliasing Filter: On, On
#---------- Source Parameters ----------
# Source Type: Sine
# Source Amplitude: 500.0mVpk
# Source On: 0

#---------- Measurement Data ----------
# [Freq(Hz) Display 0(Vrms/rtHz) Display 1(Vrms/rtHz) ]
+0.0000000e+000    +6.4796361e-004    +2.2777561e-004
+1.0000000e+000    +4.7667584e-004    +1.3527312e-004
+2.0000000e+000    +3.5715947e-004    +3.3339147e-005
+3.0000000e+000    +2.9299298e-004    +1.5425021e-005
+4.0000000e+000    +1.1513119e-004    +7.9761357e-006
+5.0000000e+000    +3.8149268e-005    +4.5335642e-006
+6.0000000e+000    +2.0977006e-005    +3.4164461e-006
+7.0000000e+000    +1.9143486e-005    +2.8185025e-006
+8.0000000e+000    +1.3974925e-005    +2.1161538e-006
+9.0000000e+000    +1.1389977e-005    +2.0850368e-006
+1.0000000e+001    +9.4715979e-006    +2.0613365e-006
+1.1000000e+001    +7.3514752e-006    +1.4865539e-006
+1.2000000e+001    +6.8010772e-006    +1.1760351e-006
+1.3000000e+001    +7.0494234e-006    +1.0444451e-006
+1.4000000e+001    +6.8794543e-006    +9.1992365e-007
+1.5000000e+001    +5.6412978e-006    +7.5526015e-007
+1.6000000e+001    +4.3743162e-006    +6.8562366e-007
+1.7000000e+001    +3.2580917e-006    +6.9139384e-007
+1.8000000e+001    +2.7782778e-006    +5.9369370e-007
+1.9000000e+001    +2.7545102e-006    +4.9584384e-007
+2.0000000e+001    +2.9360981e-006    +5.3239910e-007
+2.1000000e+001    +2.6785328e-006    +5.1688357e-007
+2.2000000e+001    +1.9097113e-006    +4.6286098e-007
+2.3000000e+001    +1.4230063e-006    +4.3908881e-007
+2.4000000e+001    +1.1416821e-006    +4.5880964e-007
+2.5000000e+001    +1.0523138e-006    +4.1208372e-007
+2.6000000e+001    +1.2033643e-006    +3.7679871e-007
+2.7000000e+001    +1.2537689e-006    +3.6342499e-007
+2.8000000e+001    +1.1819690e-006    +3.1398656e-007
+2.9000000e+001    +1.1717650e-006    +3.1153095e-007
+3.0000000e+001    +1.0340286e-006    +3.2624661e-007
+3.1000000e+001    +7.5513333e-007    +3.2530158e-007
+3.2000000e+001    +7.9439644e-007    +3.1052829e-007
+3.3000000e+001    +9.6875124e-007    +2.8067612e-007
+3.4000000e+001    +1.2548403e-006    +2.5663707e-007
+3.5000000e+001    +8.4610627e-007    +2.5246666e-007
+3.6000000e+001    +4.9330089e-007    +2.6061471e-007
+3.7000000e+001    +4.5236348e-007    +2.5931175e-007
+3.8000000e+001    +4.6434272e-007    +2.5691705e-007
+3.9000000e+001    +5.1565013e-007    +2.2847745e-007
+4.0000000e+001    +5.1399564e-007    +2.1365068e-007
+4.1000000e+001    +4.4773643e-007    +2.1308281e-007
+4.2000000e+001    +3.7399269e-007    +1.9549935e-007
+4.3000000e+001    +3.2863016e-007    +1.9805175e-007
+4.4000000e+001    +3.3636488e-007    +1.9160120e-007
+4.5000000e+001    +3.3099951e-007    +1.8850791e-007
+4.6000000e+001    +3.3186012e-007    +1.8118747e-007
+4.7000000e+001    +4.1101055e-007    +1.8249079e-007
+4.8000000e+001    +4.0494686e-007    +1.8149569e-007
+4.9000000e+001    +3.6744328e-007    +1.6892319e-007
+5.0000000e+001    +3.5205912e-007    +1.6289057e-007
+5.1000000e+001    +3.4571386e-007    +1.5490737e-007
+5.2000000e+001    +3.4289414e-007    +1.5217105e-007
+5.3000000e+001    +3.7040306e-007    +1.4203651e-007
+5.4000000e+001    +3.8986073e-007    +1.3069935e-007
+5.5000000e+001    +3.7265806e-007    +1.3269636e-007
+5.6000000e+001    +3.6184511e-007    +1.4567784e-007
+5.7000000e+001    +3.8155343e-007    +1.3877541e-007
+5.8000000e+001    +4.4299520e-007    +1.3483236e-007
+5.9000000e+001    +4.5735109e-007    +1.3745746e-007
+6.0000000e+001    +6.3521441e-007    +1.5387401e-007
+6.1000000e+001    +5.3584677e-007    +1.2425261e-007
+6.2000000e+001    +4.9194654e-007    +1.2029032e-007
+6.3000000e+001    +4.9937876e-007    +1.2184957e-007
+6.4000000e+001    +4.6780764e-007    +1.2337239e-007
+6.5000000e+001    +4.6199531e-007    +1.2533243e-007
+6.6000000e+001    +4.5871695e-007    +1.1571452e-007
+6.7000000e+001    +4.3464337e-007    +1.0383975e-007
+6.8000000e+001    +5.1729518e-007    +1.0301701e-007
+6.9000000e+001    +4.2553225e-007    +1.0808900e-007
+7.0000000e+001    +3.6373916e-007    +1.0479140e-007
+7.1000000e+001    +3.4349591e-007    +1.0430561e-007
+7.2000000e+001    +2.8384679e-007    +1.0312678e-007
+7.3000000e+001    +2.9705507e-007    +9.4266859e-008
+7.4000000e+001    +2.8125856e-007    +9.2542052e-008
+7.5000000e+001    +2.7077860e-007    +9.3805653e-008
+7.6000000e+001    +2.5558117e-007    +9.5672114e-008
+7.7000000e+001    +2.2550198e-007    +9.0030682e-008
+7.8000000e+001    +2.2734761e-007    +8.9983445e-008
+7.9000000e+001    +2.2821695e-007    +8.5057998e-008
+8.0000000e+001    +2.4553012e-007    +8.3506450e-008
+8.1000000e+001    +2.3536235e-007    +8.6953904e-008
+8.2000000e+001    +1.9041734e-007    +8.9274117e-008
+8.3000000e+001    +1.8036594e-007    +8.2200877e-008
+8.4000000e+001    +1.7351650e-007    +8.7453024e-008
+8.5000000e+001    +1.7498276e-007    +8.4591122e-008
+8.6000000e+001    +1.7636165e-007    +8.5215035e-008
+8.7000000e+001    +1.5780252e-007    +8.2159644e-008
+8.8000000e+001    +1.5516628e-007    +7.5366472e-008
+8.9000000e+001    +1.5514124e-007    +7.3124319e-008
+9.0000000e+001    +1.4719997e-007    +7.8485463e-008
+9.1000000e+001    +1.4566585e-007    +8.6054570e-008
+9.2000000e+001    +1.4677987e-007    +7.6935201e-008
+9.3000000e+001    +1.4627503e-007    +7.5436425e-008
+9.4000000e+001    +1.3222224e-007    +8.0366682e-008
+9.5000000e+001    +1.1843190e-007    +7.2474649e-008
+9.6000000e+001    +1.2304596e-007    +7.5841037e-008
+9.7000000e+001    +1.3199727e-007    +7.8762135e-008
+9.8000000e+001    +1.2513979e-007    +7.1328472e-008
+9.9000000e+001    +1.3236924e-007    +6.7631525e-008
+1.0000000e+002    +1.4159431e-007    +6.7150133e-008
+1.0100000e+002    +1.3275421e-007    +7.2905863e-008
+1.0200000e+002    +1.2577300e-007    +7.2957512e-008
+1.0300000e+002    +1.1183464e-007    +7.4244390e-008
+1.0400000e+002    +1.1557562e-007    +6.6866363e-008
+1.0500000e+002    +1.1095953e-007    +6.5269049e-008
+1.0600000e+002    +1.1119246e-007    +7.1595792e-008
+1.0700000e+002    +1.0291967e-007    +7.3536789e-008
+1.0800000e+002    +1.0853783e-007    +7.1632748e-008
+1.0900000e+002    +1.1099145e-007    +6.5537975e-008
+1.1000000e+002    +1.0872616e-007    +6.2500867e-008
+1.1100000e+002    +1.1578417e-007    +6.6172532e-008
+1.1200000e+002    +1.1747381e-007    +6.4479131e-008
+1.1300000e+002    +1.2784963e-007    +6.4097755e-008
+1.1400000e+002    +1.2171947e-007    +6.2543499e-008
+1.1500000e+002    +1.1355264e-007    +5.9279742e-008
+1.1600000e+002    +1.2028583e-007    +6.3582632e-008
+1.1700000e+002    +1.2061024e-007    +6.6590594e-008
+1.1800000e+002    +1.2210363e-007    +6.5451971e-008
+1.1900000e+002    +5.4125957e-007    +6.2667709e-008
+1.2000000e+002    +1.0632552e-006    +5.9438179e-008
+1.2100000e+002    +5.4026270e-007    +6.2473561e-008
+1.2200000e+002    +1.3050418e-007    +6.1567626e-008
+1.2300000e+002    +1.4273627e-007    +5.9716903e-008
+1.2400000e+002    +1.6053183e-007    +6.5188836e-008
+1.2500000e+002    +1.5554836e-007    +6.4297723e-008
+1.2600000e+002    +1.5899906e-007    +6.1080286e-008
+1.2700000e+002    +1.7629816e-007    +6.1294799e-008
+1.2800000e+002    +1.7293678e-007    +6.1977822e-008
+1.2900000e+002    +1.5291083e-007    +6.1189901e-008
+1.3000000e+002    +1.5008054e-007    +6.0190196e-008
+1.3100000e+002    +1.5204596e-007    +5.8202186e-008
+1.3200000e+002    +1.4020571e-007    +6.1321522e-008
+1.3300000e+002    +1.2275234e-007    +5.9187457e-008
+1.3400000e+002    +1.1944252e-007    +5.7733246e-008
+1.3500000e+002    +1.2207789e-007    +5.8822781e-008
+1.3600000e+002    +1.3217434e-007    +6.1012386e-008
+1.3700000e+002    +1.3430694e-007    +6.0665641e-008
+1.3800000e+002    +1.4004817e-007    +5.8992949e-008
+1.3900000e+002    +1.6591216e-007    +5.6140980e-008
+1.4000000e+002    +1.7015903e-007    +5.9623353e-008
+1.4100000e+002    +2.0136640e-007    +6.4166265e-008
+1.4200000e+002    +2.8253839e-007    +6.1712591e-008
+1.4300000e+002    +4.7585695e-007    +5.3080040e-008
+1.4400000e+002    +6.3463580e-007    +6.0550917e-008
+1.4500000e+002    +6.3087725e-007    +6.0992363e-008
+1.4600000e+002    +4.8107978e-007    +5.9368066e-008
+1.4700000e+002    +3.4910792e-007    +5.2092698e-008
+1.4800000e+002    +2.4150626e-007    +5.9374063e-008
+1.4900000e+002    +1.6719406e-007    +5.7708277e-008
+1.5000000e+002    +1.3887342e-007    +5.7779285e-008
+1.5100000e+002    +1.7830811e-007    +6.1420707e-008
+1.5200000e+002    +1.4009061e-007    +5.4237560e-008
+1.5300000e+002    +1.0112710e-007    +5.6120456e-008
+1.5400000e+002    +1.0608834e-007    +5.9143996e-008
+1.5500000e+002    +1.5286012e-007    +5.8783009e-008
+1.5600000e+002    +1.2552951e-007    +5.8330198e-008
+1.5700000e+002    +9.2044907e-008    +5.9076111e-008
+1.5800000e+002    +9.9277642e-008    +6.0909379e-008
+1.5900000e+002    +9.7423275e-008    +6.5455637e-008
+1.6000000e+002    +8.5324764e-008    +6.2667226e-008
+1.6100000e+002    +8.0214434e-008    +6.0079998e-008
+1.6200000e+002    +7.6291109e-008    +5.6484996e-008
+1.6300000e+002    +8.3973795e-008    +5.8904213e-008
+1.6400000e+002    +7.7769712e-008    +5.8455541e-008
+1.6500000e+002    +7.9218758e-008    +5.9319980e-008
+1.6600000e+002    +8.9440803e-008    +5.6039056e-008
+1.6700000e+002    +9.3638334e-008    +5.5985613e-008
+1.6800000e+002    +8.2416321e-008    +5.7789119e-008
+1.6900000e+002    +8.4765162e-008    +5.9310796e-008
+1.7000000e+002    +8.0642550e-008    +6.1452411e-008
+1.7100000e+002    +8.1620172e-008    +5.8903566e-008
+1.7200000e+002    +7.8598347e-008    +5.9866260e-008
+1.7300000e+002    +8.0108379e-008    +5.6856084e-008
+1.7400000e+002    +7.8693240e-008    +5.9689896e-008
+1.7500000e+002    +7.5392542e-008    +6.1152491e-008
+1.7600000e+002    +7.9667004e-008    +6.0352193e-008
+1.7700000e+002    +7.8510972e-008    +5.7727160e-008
+1.7800000e+002    +7.6378782e-008    +6.2843270e-008
+1.7900000e+002    +2.7250695e-007    +8.1476024e-008
+1.8000000e+002    +5.3057022e-007    +1.1386301e-007
+1.8100000e+002    +2.7355588e-007    +8.1934161e-008
+1.8200000e+002    +7.5197853e-008    +6.1686173e-008
+1.8300000e+002    +7.6323367e-008    +6.0200904e-008
+1.8400000e+002    +8.2136104e-008    +6.3309493e-008
+1.8500000e+002    +8.5240494e-008    +6.3610777e-008
+1.8600000e+002    +8.5618211e-008    +5.8661282e-008
+1.8700000e+002    +8.7578613e-008    +6.1001138e-008
+1.8800000e+002    +8.6829210e-008    +6.3639000e-008
+1.8900000e+002    +8.3368576e-008    +6.3033170e-008
+1.9000000e+002    +7.8025444e-008    +6.0694219e-008
+1.9100000e+002    +8.1558632e-008    +5.7330553e-008
+1.9200000e+002    +8.8655511e-008    +6.4387798e-008
+1.9300000e+002    +8.3622879e-008    +6.4271539e-008
+1.9400000e+002    +7.9091436e-008    +6.3568677e-008
+1.9500000e+002    +8.5838657e-008    +6.8532785e-008
+1.9600000e+002    +8.9218162e-008    +6.1024515e-008
+1.9700000e+002    +8.7296939e-008    +6.0466604e-008
+1.9800000e+002    +8.0824350e-008    +6.0319536e-008
+1.9900000e+002    +8.9253923e-008    +6.5036133e-008
+2.0000000e+002    +9.0219579e-008    +6.9577183e-008
+2.0100000e+002    +7.9804281e-008    +7.0978395e-008
+2.0200000e+002    +8.1233509e-008    +7.2081505e-008
+2.0300000e+002    +7.6177280e-008    +7.5538374e-008
+2.0400000e+002    +7.6364522e-008    +7.0989699e-008
+2.0500000e+002    +7.6930050e-008    +6.6067336e-008
+2.0600000e+002    +7.1755153e-008    +6.9810262e-008
+2.0700000e+002    +6.6881050e-008    +6.6798705e-008
+2.0800000e+002    +6.9573744e-008    +6.0242691e-008
+2.0900000e+002    +6.6725775e-008    +6.5377350e-008
+2.1000000e+002    +6.8693097e-008    +6.5364503e-008
+2.1100000e+002    +7.2098203e-008    +6.8341329e-008
+2.1200000e+002    +6.7756616e-008    +6.8438268e-008
+2.1300000e+002    +7.3764348e-008    +6.8582771e-008
+2.1400000e+002    +7.3297301e-008    +6.9078908e-008
+2.1500000e+002    +7.4201360e-008    +6.5636847e-008
+2.1600000e+002    +8.6634472e-008    +6.8036094e-008
+2.1700000e+002    +1.1072233e-007    +6.9823372e-008
+2.1800000e+002    +8.8013557e-008    +7.1878162e-008
+2.1900000e+002    +6.9638936e-008    +7.4776068e-008
+2.2000000e+002    +6.6616920e-008    +7.1779894e-008
+2.2100000e+002    +6.9079896e-008    +7.0728831e-008
+2.2200000e+002    +7.2622328e-008    +6.8330600e-008
+2.2300000e+002    +7.2415311e-008    +7.2232908e-008
+2.2400000e+002    +6.7523345e-008    +7.2982346e-008
+2.2500000e+002    +6.6495033e-008    +6.8937830e-008
+2.2600000e+002    +7.1205775e-008    +7.2032293e-008
+2.2700000e+002    +7.0996947e-008    +7.4157299e-008
+2.2800000e+002    +7.0367641e-008    +7.1902470e-008
+2.2900000e+002    +6.9040006e-008    +7.1795654e-008
+2.3000000e+002    +6.7628186e-008    +7.1068932e-008
+2.3100000e+002    +6.4345038e-008    +7.5382857e-008
+2.3200000e+002    +6.5594129e-008    +7.3979770e-008
+2.3300000e+002    +6.5010433e-008    +7.7109242e-008
+2.3400000e+002    +6.3039536e-008    +7.3737297e-008
+2.3500000e+002    +6.1517490e-008    +6.9072009e-008
+2.3600000e+002    +6.2678374e-008    +7.7678997e-008
+2.3700000e+002    +6.4887203e-008    +7.7233793e-008
+2.3800000e+002    +6.6521906e-008    +6.9474815e-008
+2.3900000e+002    +1.8542262e-007    +7.5466005e-008
+2.4000000e+002    +3.3636525e-007    +7.9943106e-008
+2.4100000e+002    +1.7862595e-007    +7.2966962e-008
+2.4200000e+002    +7.1062068e-008    +7.5030435e-008
+2.4300000e+002    +7.1347422e-008    +7.8520884e-008
+2.4400000e+002    +6.9941841e-008    +8.0834646e-008
+2.4500000e+002    +6.9496636e-008    +7.9246334e-008
+2.4600000e+002    +7.5249140e-008    +7.5130345e-008
+2.4700000e+002    +7.6999846e-008    +7.3468996e-008
+2.4800000e+002    +7.4245534e-008    +7.5451503e-008
+2.4900000e+002    +8.5419252e-008    +7.9136171e-008
+2.5000000e+002    +8.6208622e-008    +7.8507092e-008
+2.5100000e+002    +8.1865103e-008    +8.6225469e-008
+2.5200000e+002    +7.9933535e-008    +8.5771106e-008
+2.5300000e+002    +8.7155492e-008    +8.3230105e-008
+2.5400000e+002    +8.9244324e-008    +7.8851777e-008
+2.5500000e+002    +8.9835268e-008    +8.0175163e-008
+2.5600000e+002    +9.6298322e-008    +8.8794721e-008
+2.5700000e+002    +1.0004184e-007    +9.0278441e-008
+2.5800000e+002    +1.2760071e-007    +8.6052964e-008
+2.5900000e+002    +1.4261893e-007    +8.8809344e-008
+2.6000000e+002    +1.3894770e-007    +8.2341792e-008
+2.6100000e+002    +1.6668487e-007    +8.4518611e-008
+2.6200000e+002    +1.9806393e-007    +8.6735547e-008
+2.6300000e+002    +2.0272026e-007    +8.4356742e-008
+2.6400000e+002    +2.1803071e-007    +8.1654861e-008
+2.6500000e+002    +2.6255654e-007    +9.1506010e-008
+2.6600000e+002    +3.0499919e-007    +8.6653976e-008
+2.6700000e+002    +3.1934459e-007    +8.7430465e-008
+2.6800000e+002    +3.4307189e-007    +8.5604022e-008
+2.6900000e+002    +4.5251400e-007    +9.0734758e-008
+2.7000000e+002    +5.4778758e-007    +8.9910458e-008
+2.7100000e+002    +6.3899739e-007    +9.3563209e-008
+2.7200000e+002    +9.3446886e-007    +9.6343904e-008
+2.7300000e+002    +1.3597770e-006    +1.0023832e-007
+2.7400000e+002    +1.5036868e-006    +9.7696315e-008
+2.7500000e+002    +1.3613843e-006    +9.1780805e-008
+2.7600000e+002    +1.4032337e-006    +9.3597627e-008
+2.7700000e+002    +1.1569419e-006    +9.5891700e-008
+2.7800000e+002    +7.2886496e-007    +9.0473229e-008
+2.7900000e+002    +6.6820348e-007    +8.1890455e-008
+2.8000000e+002    +6.9697990e-007    +9.1228934e-008
+2.8100000e+002    +5.9590559e-007    +9.9449686e-008
+2.8200000e+002    +5.4737814e-007    +1.0004305e-007
+2.8300000e+002    +4.3341959e-007    +9.5604278e-008
+2.8400000e+002    +3.5944907e-007    +9.1983480e-008
+2.8500000e+002    +3.1843044e-007    +1.0099872e-007
+2.8600000e+002    +2.4464237e-007    +9.7970549e-008
+2.8700000e+002    +2.1930028e-007    +9.8837702e-008
+2.8800000e+002    +1.9623700e-007    +9.4625968e-008
+2.8900000e+002    +1.7391915e-007    +9.7382525e-008
+2.9000000e+002    +1.7106230e-007    +1.0686706e-007
+2.9100000e+002    +1.6563494e-007    +1.0642866e-007
+2.9200000e+002    +1.4446047e-007    +1.0601207e-007
+2.9300000e+002    +1.1766240e-007    +9.8085927e-008
+2.9400000e+002    +1.1176553e-007    +9.9179800e-008
+2.9500000e+002    +9.2791630e-008    +1.0076733e-007
+2.9600000e+002    +9.6065889e-008    +1.0365749e-007
+2.9700000e+002    +9.8500024e-008    +9.9612294e-008
+2.9800000e+002    +9.8600651e-008    +1.0076058e-007
+2.9900000e+002    +1.1895448e-007    +1.0233452e-007
+3.0000000e+002    +1.9359572e-007    +1.0957331e-007
+3.0100000e+002    +1.2603967e-007    +1.0645087e-007
+3.0200000e+002    +7.9922479e-008    +9.5282985e-008
+3.0300000e+002    +7.0503290e-008    +1.0385251e-007
+3.0400000e+002    +7.0476901e-008    +1.1111423e-007
+3.0500000e+002    +6.4211932e-008    +1.1000474e-007
+3.0600000e+002    +5.7752519e-008    +1.0666731e-007
+3.0700000e+002    +6.1967278e-008    +1.0784031e-007
+3.0800000e+002    +6.2029699e-008    +1.0791232e-007
+3.0900000e+002    +6.6256575e-008    +1.0435647e-007
+3.1000000e+002    +6.3164798e-008    +1.0081425e-007
+3.1100000e+002    +6.3339392e-008    +1.0331219e-007
+3.1200000e+002    +7.4569705e-008    +1.1710704e-007
+3.1300000e+002    +6.3382103e-008    +1.1748941e-007
+3.1400000e+002    +5.9918733e-008    +1.2040158e-007
+3.1500000e+002    +6.5254000e-008    +1.2236990e-007
+3.1600000e+002    +6.1683807e-008    +1.1012172e-007
+3.1700000e+002    +6.0359817e-008    +1.0444107e-007
+3.1800000e+002    +6.4302668e-008    +1.1286019e-007
+3.1900000e+002    +6.3481004e-008    +1.1036768e-007
+3.2000000e+002    +6.4989521e-008    +1.1613149e-007
+3.2100000e+002    +6.5230289e-008    +1.1268783e-007
+3.2200000e+002    +7.1832481e-008    +1.1345892e-007
+3.2300000e+002    +7.4224502e-008    +1.1713559e-007
+3.2400000e+002    +6.7443104e-008    +1.1094941e-007
+3.2500000e+002    +6.4278026e-008    +1.2147035e-007
+3.2600000e+002    +6.0959422e-008    +1.2415184e-007
+3.2700000e+002    +6.1580401e-008    +1.2254294e-007
+3.2800000e+002    +6.3465464e-008    +1.2317317e-007
+3.2900000e+002    +6.6803551e-008    +1.2326123e-007
+3.3000000e+002    +6.9667763e-008    +1.2493551e-007
+3.3100000e+002    +6.7038748e-008    +1.2742375e-007
+3.3200000e+002    +6.2516719e-008    +1.2927330e-007
+3.3300000e+002    +5.6628565e-008    +1.2759469e-007
+3.3400000e+002    +6.1718289e-008    +1.2778156e-007
+3.3500000e+002    +6.5464121e-008    +1.3069504e-007
+3.3600000e+002    +6.7690436e-008    +1.2234558e-007
+3.3700000e+002    +6.7943375e-008    +1.2959462e-007
+3.3800000e+002    +6.5476335e-008    +1.3145606e-007
+3.3900000e+002    +7.3387334e-008    +1.3449038e-007
+3.4000000e+002    +8.0683556e-008    +1.3214068e-007
+3.4100000e+002    +8.2371365e-008    +1.2147996e-007
+3.4200000e+002    +8.2848459e-008    +1.2139874e-007
+3.4300000e+002    +8.8267200e-008    +1.3018219e-007
+3.4400000e+002    +8.9061864e-008    +1.3856013e-007
+3.4500000e+002    +1.0343466e-007    +1.2735200e-007
+3.4600000e+002    +1.3460073e-007    +1.2441970e-007
+3.4700000e+002    +1.3466251e-007    +1.3694363e-007
+3.4800000e+002    +1.4246368e-007    +1.3738580e-007
+3.4900000e+002    +1.7255991e-007    +1.4858554e-007
+3.5000000e+002    +1.7449774e-007    +1.3657095e-007
+3.5100000e+002    +1.5168014e-007    +1.3895624e-007
+3.5200000e+002    +1.4601348e-007    +1.4636997e-007
+3.5300000e+002    +1.4098497e-007    +1.5186944e-007
+3.5400000e+002    +1.2003912e-007    +1.4142387e-007
+3.5500000e+002    +1.1694232e-007    +1.2885300e-007
+3.5600000e+002    +1.1008932e-007    +1.2974581e-007
+3.5700000e+002    +9.7240957e-008    +1.3381091e-007
+3.5800000e+002    +8.9159116e-008    +1.4527501e-007
+3.5900000e+002    +1.0017671e-007    +1.4575592e-007
+3.6000000e+002    +1.3495203e-007    +1.4556144e-007
+3.6100000e+002    +9.8216539e-008    +1.4053491e-007
+3.6200000e+002    +7.8376011e-008    +1.4304942e-007
+3.6300000e+002    +6.7701066e-008    +1.5034310e-007
+3.6400000e+002    +6.9719569e-008    +1.4353211e-007
+3.6500000e+002    +7.1073615e-008    +1.5525761e-007
+3.6600000e+002    +6.5897957e-008    +1.5275427e-007
+3.6700000e+002    +6.6697503e-008    +1.4681694e-007
+3.6800000e+002    +7.0039512e-008    +1.4184685e-007
+3.6900000e+002    +7.3433355e-008    +1.4009245e-007
+3.7000000e+002    +6.7646972e-008    +1.6291882e-007
+3.7100000e+002    +6.2269898e-008    +1.5082637e-007
+3.7200000e+002    +5.9418408e-008    +1.5058313e-007
+3.7300000e+002    +5.7416035e-008    +1.3813860e-007
+3.7400000e+002    +6.3597156e-008    +1.4192257e-007
+3.7500000e+002    +7.0396851e-008    +1.4883895e-007
+3.7600000e+002    +6.5466566e-008    +1.4996770e-007
+3.7700000e+002    +6.0356768e-008    +1.5149422e-007
+3.7800000e+002    +5.4834359e-008    +1.6632545e-007
+3.7900000e+002    +6.5102213e-008    +1.6757338e-007
+3.8000000e+002    +6.1313983e-008    +1.6241981e-007
+3.8100000e+002    +6.2080254e-008    +1.6280153e-007
+3.8200000e+002    +6.0352328e-008    +1.5012355e-007
+3.8300000e+002    +5.9994505e-008    +1.5713618e-007
+3.8400000e+002    +5.4167753e-008    +1.5851153e-007
+3.8500000e+002    +5.2553776e-008    +1.5944643e-007
+3.8600000e+002    +5.6385606e-008    +1.5180493e-007
+3.8700000e+002    +5.5409796e-008    +1.6189601e-007
+3.8800000e+002    +5.2925476e-008    +1.7727177e-007
+3.8900000e+002    +5.9037855e-008    +1.6969446e-007
+3.9000000e+002    +6.3512445e-008    +1.7367088e-007
+3.9100000e+002    +6.3841739e-008    +1.6521339e-007
+3.9200000e+002    +7.0459954e-008    +1.6268538e-007
+3.9300000e+002    +6.8753614e-008    +1.6281207e-007
+3.9400000e+002    +6.0149105e-008    +1.7551113e-007
+3.9500000e+002    +5.9153347e-008    +1.7455638e-007
+3.9600000e+002    +5.6601213e-008    +1.6179933e-007
+3.9700000e+002    +5.6328865e-008    +1.6437872e-007
+3.9800000e+002    +6.0593543e-008    +1.6429517e-007
+3.9900000e+002    +6.0454987e-008    +1.7977420e-007
+4.0000000e+002    +6.1747095e-008    +1.9240059e-007
+4.0100000e+002    +5.9720776e-008    +1.7957869e-007
+4.0200000e+002    +5.8168968e-008    +1.7183937e-007
+4.0300000e+002    +5.7731217e-008    +1.8283656e-007
+4.0400000e+002    +5.7994171e-008    +1.7176129e-007
+4.0500000e+002    +5.9127636e-008    +1.7819656e-007
+4.0600000e+002    +5.7503982e-008    +1.7367603e-007
+4.0700000e+002    +5.6422330e-008    +1.6502104e-007
+4.0800000e+002    +5.6277308e-008    +1.7584038e-007
+4.0900000e+002    +6.3561345e-008    +1.7635527e-007
+4.1000000e+002    +6.0684222e-008    +1.8018800e-007
+4.1100000e+002    +4.9796999e-008    +1.7819285e-007
+4.1200000e+002    +5.0591076e-008    +1.9067738e-007
+4.1300000e+002    +5.2322672e-008    +1.9339348e-007
+4.1400000e+002    +5.4343065e-008    +1.8176132e-007
+4.1500000e+002    +5.4520445e-008    +1.7014277e-007
+4.1600000e+002    +5.5504113e-008    +1.7848558e-007
+4.1700000e+002    +5.5498383e-008    +1.8301711e-007
+4.1800000e+002    +5.3566794e-008    +1.9011651e-007
+4.1900000e+002    +6.9328664e-008    +1.8864498e-007
+4.2000000e+002    +1.0129045e-007    +1.9214831e-007
+4.2100000e+002    +6.3461002e-008    +1.8140982e-007
+4.2200000e+002    +5.2594878e-008    +1.7630802e-007
+4.2300000e+002    +5.8446620e-008    +1.8318056e-007
+4.2400000e+002    +6.5319377e-008    +1.8462649e-007
+4.2500000e+002    +6.6365786e-008    +2.0363490e-007
+4.2600000e+002    +6.3859268e-008    +1.9369310e-007
+4.2700000e+002    +6.3416913e-008    +1.8530459e-007
+4.2800000e+002    +6.2662274e-008    +1.9630531e-007
+4.2900000e+002    +6.0812290e-008    +1.8909601e-007
+4.3000000e+002    +5.7799397e-008    +1.8931435e-007
+4.3100000e+002    +5.9959604e-008    +1.8870941e-007
+4.3200000e+002    +6.0999064e-008    +1.9475422e-007
+4.3300000e+002    +6.1860888e-008    +2.0514157e-007
+4.3400000e+002    +1.0165098e-007    +2.1161723e-007
+4.3500000e+002    +9.6466479e-008    +1.8940811e-007
+4.3600000e+002    +6.7520602e-008    +1.9743081e-007
+4.3700000e+002    +8.0218840e-008    +2.0125744e-007
+4.3800000e+002    +8.0760394e-008    +1.9638701e-007
+4.3900000e+002    +7.0887900e-008    +1.9074314e-007
+4.4000000e+002    +7.4434240e-008    +1.9294045e-007
+4.4100000e+002    +7.5544264e-008    +1.9230934e-007
+4.4200000e+002    +7.8554258e-008    +1.8943140e-007
+4.4300000e+002    +9.1150135e-008    +1.9753966e-007
+4.4400000e+002    +8.1791967e-008    +2.0325716e-007
+4.4500000e+002    +6.6172461e-008    +2.0300135e-007
+4.4600000e+002    +6.2510473e-008    +2.0601193e-007
+4.4700000e+002    +6.7969637e-008    +2.0801755e-007
+4.4800000e+002    +6.2973264e-008    +2.0301674e-007
+4.4900000e+002    +6.3386487e-008    +2.0872265e-007
+4.5000000e+002    +5.7495900e-008    +2.1744094e-007
+4.5100000e+002    +5.8118790e-008    +2.2088430e-007
+4.5200000e+002    +5.8793791e-008    +2.2896488e-007
+4.5300000e+002    +5.5673972e-008    +2.2955767e-007
+4.5400000e+002    +5.2732553e-008    +2.2361731e-007
+4.5500000e+002    +5.7682936e-008    +2.1151898e-007
+4.5600000e+002    +5.5353002e-008    +2.1857215e-007
+4.5700000e+002    +5.6938298e-008    +2.3152596e-007
+4.5800000e+002    +5.4406112e-008    +2.2657636e-007
+4.5900000e+002    +5.7083454e-008    +2.2707694e-007
+4.6000000e+002    +5.5623868e-008    +2.1643673e-007
+4.6100000e+002    +5.4386341e-008    +2.1432217e-007
+4.6200000e+002    +5.2813498e-008    +2.2904081e-007
+4.6300000e+002    +5.6324907e-008    +2.3169100e-007
+4.6400000e+002    +6.4309653e-008    +2.1804986e-007
+4.6500000e+002    +5.8834601e-008    +2.3120030e-007
+4.6600000e+002    +5.9052439e-008    +2.2199541e-007
+4.6700000e+002    +6.2629390e-008    +2.2269850e-007
+4.6800000e+002    +5.7165806e-008    +2.3781946e-007
+4.6900000e+002    +5.5413931e-008    +2.3651877e-007
+4.7000000e+002    +5.5112007e-008    +2.2397286e-007
+4.7100000e+002    +5.4923536e-008    +2.2116119e-007
+4.7200000e+002    +6.1388349e-008    +2.3436388e-007
+4.7300000e+002    +5.4770577e-008    +2.3582253e-007
+4.7400000e+002    +5.8505300e-008    +2.1767096e-007
+4.7500000e+002    +5.9936824e-008    +2.1839489e-007
+4.7600000e+002    +5.7747698e-008    +2.3294930e-007
+4.7700000e+002    +6.3359842e-008    +2.2316453e-007
+4.7800000e+002    +6.3872591e-008    +2.1681301e-007
+4.7900000e+002    +1.6360897e-007    +2.2535421e-007
+4.8000000e+002    +3.0029832e-007    +2.1967308e-007
+4.8100000e+002    +1.5865814e-007    +2.1928535e-007
+4.8200000e+002    +6.6731857e-008    +2.4053242e-007
+4.8300000e+002    +6.6235337e-008    +2.2849149e-007
+4.8400000e+002    +7.1338413e-008    +2.3006510e-007
+4.8500000e+002    +7.5729453e-008    +2.4992846e-007
+4.8600000e+002    +7.4561676e-008    +2.4051684e-007
+4.8700000e+002    +7.0652924e-008    +2.3505685e-007
+4.8800000e+002    +7.7705614e-008    +2.3256162e-007
+4.8900000e+002    +8.7572460e-008    +2.2236694e-007
+4.9000000e+002    +8.4903022e-008    +2.5967785e-007
+4.9100000e+002    +9.5820447e-008    +2.6772892e-007
+4.9200000e+002    +1.0395565e-007    +2.5527325e-007
+4.9300000e+002    +1.0389552e-007    +2.4563960e-007
+4.9400000e+002    +1.0378230e-007    +2.5551049e-007
+4.9500000e+002    +9.6263228e-008    +2.5763171e-007
+4.9600000e+002    +9.5443809e-008    +2.4171928e-007
+4.9700000e+002    +9.1493952e-008    +2.5149916e-007
+4.9800000e+002    +8.9473318e-008    +2.5316893e-007
+4.9900000e+002    +9.8122335e-008    +2.7723357e-007
+5.0000000e+002    +1.0032872e-007    +2.6758050e-007
+5.0100000e+002    +9.4139743e-008    +2.5391947e-007
+5.0200000e+002    +9.3185825e-008    +2.4954403e-007
+5.0300000e+002    +1.1072562e-007    +2.7003753e-007
+5.0400000e+002    +1.2998409e-007    +2.6852496e-007
+5.0500000e+002    +1.3431639e-007    +2.4671428e-007
+5.0600000e+002    +1.3591023e-007    +2.4849822e-007
+5.0700000e+002    +1.3698228e-007    +2.6228281e-007
+5.0800000e+002    +1.4276260e-007    +2.6381295e-007
+5.0900000e+002    +1.4087355e-007    +2.5804388e-007
+5.1000000e+002    +1.3238319e-007    +2.6635556e-007
+5.1100000e+002    +1.2108605e-007    +2.6064134e-007
+5.1200000e+002    +1.1130093e-007    +2.6793651e-007
+5.1300000e+002    +9.1525607e-008    +2.6445969e-007
+5.1400000e+002    +8.4216538e-008    +2.4605421e-007
+5.1500000e+002    +8.2537490e-008    +2.6397984e-007
+5.1600000e+002    +6.9772028e-008    +2.9864214e-007
+5.1700000e+002    +6.6231628e-008    +2.8507299e-007
+5.1800000e+002    +6.4064402e-008    +2.7233258e-007
+5.1900000e+002    +6.4051740e-008    +2.4432239e-007
+5.2000000e+002    +6.6525118e-008    +2.7059343e-007
+5.2100000e+002    +6.4307677e-008    +2.7253898e-007
+5.2200000e+002    +6.5050415e-008    +2.8520134e-007
+5.2300000e+002    +6.7335591e-008    +2.9193251e-007
+5.2400000e+002    +7.3927559e-008    +2.6076583e-007
+5.2500000e+002    +8.4725713e-008    +2.4714888e-007
+5.2600000e+002    +1.0952713e-007    +2.7199789e-007
+5.2700000e+002    +1.3799944e-007    +2.6473481e-007
+5.2800000e+002    +1.7230091e-007    +2.8782807e-007
+5.2900000e+002    +2.3831166e-007    +3.0880213e-007
+5.3000000e+002    +2.9125823e-007    +2.9350926e-007
+5.3100000e+002    +3.0464946e-007    +2.8301218e-007
+5.3200000e+002    +2.9151803e-007    +2.7037012e-007
+5.3300000e+002    +2.9943374e-007    +2.6257240e-007
+5.3400000e+002    +3.2352526e-007    +2.8009399e-007
+5.3500000e+002    +3.3466296e-007    +2.9620307e-007
+5.3600000e+002    +3.4870337e-007    +2.7522793e-007
+5.3700000e+002    +3.5088058e-007    +2.7337873e-007
+5.3800000e+002    +3.9541274e-007    +2.8187995e-007
+5.3900000e+002    +4.2765541e-007    +2.9673430e-007
+5.4000000e+002    +4.6672719e-007    +3.1497268e-007
+5.4100000e+002    +4.8917212e-007    +3.0088083e-007
+5.4200000e+002    +4.7082000e-007    +2.9401500e-007
+5.4300000e+002    +4.0043446e-007    +2.9380007e-007
+5.4400000e+002    +3.1061117e-007    +2.9960702e-007
+5.4500000e+002    +2.7634528e-007    +3.4155872e-007
+5.4600000e+002    +3.4128470e-007    +3.2477519e-007
+5.4700000e+002    +4.6847171e-007    +2.9826822e-007
+5.4800000e+002    +5.1540053e-007    +3.0919568e-007
+5.4900000e+002    +5.4242679e-007    +2.9637744e-007
+5.5000000e+002    +5.5371174e-007    +2.9979427e-007
+5.5100000e+002    +6.9333839e-007    +2.9120676e-007
+5.5200000e+002    +9.5959842e-007    +2.8574075e-007
+5.5300000e+002    +5.9701961e-007    +2.9449961e-007
+5.5400000e+002    +3.0452438e-007    +3.0862995e-007
+5.5500000e+002    +2.4983902e-007    +3.2938044e-007
+5.5600000e+002    +1.9565353e-007    +2.8604524e-007
+5.5700000e+002    +1.8608362e-007    +2.6984162e-007
+5.5800000e+002    +1.7170245e-007    +2.9453196e-007
+5.5900000e+002    +1.4936676e-007    +3.0762854e-007
+5.6000000e+002    +1.4116773e-007    +3.3876100e-007
+5.6100000e+002    +1.1379939e-007    +3.1617569e-007
+5.6200000e+002    +1.1610611e-007    +3.2325329e-007
+5.6300000e+002    +1.1003651e-007    +3.3220354e-007
+5.6400000e+002    +1.0257750e-007    +3.1719239e-007
+5.6500000e+002    +1.0408665e-007    +2.9169669e-007
+5.6600000e+002    +1.0821856e-007    +3.0076325e-007
+5.6700000e+002    +1.0464733e-007    +3.2953164e-007
+5.6800000e+002    +1.0585715e-007    +3.3690637e-007
+5.6900000e+002    +1.1665263e-007    +3.1752305e-007
+5.7000000e+002    +1.3625103e-007    +3.1026283e-007
+5.7100000e+002    +1.5938342e-007    +3.2104438e-007
+5.7200000e+002    +1.5886138e-007    +3.2054635e-007
+5.7300000e+002    +1.8946199e-007    +3.1210439e-007
+5.7400000e+002    +2.1062350e-007    +3.1521728e-007
+5.7500000e+002    +2.4219639e-007    +3.2885214e-007
+5.7600000e+002    +2.4323973e-007    +3.1318811e-007
+5.7700000e+002    +2.3502923e-007    +3.3128967e-007
+5.7800000e+002    +2.3064302e-007    +3.5676283e-007
+5.7900000e+002    +1.8778634e-007    +3.4156736e-007
+5.8000000e+002    +1.8409190e-007    +3.4187164e-007
+5.8100000e+002    +1.7842621e-007    +3.4365698e-007
+5.8200000e+002    +1.2740639e-007    +3.4363171e-007
+5.8300000e+002    +1.1504122e-007    +3.2885322e-007
+5.8400000e+002    +1.0679962e-007    +3.4082936e-007
+5.8500000e+002    +9.6009373e-008    +3.3196437e-007
+5.8600000e+002    +8.9182713e-008    +3.2841805e-007
+5.8700000e+002    +8.1119687e-008    +3.1254848e-007
+5.8800000e+002    +7.2960155e-008    +3.1633056e-007
+5.8900000e+002    +6.6585478e-008    +3.3244984e-007
+5.9000000e+002    +6.4321874e-008    +3.4602982e-007
+5.9100000e+002    +6.3349752e-008    +3.4424536e-007
+5.9200000e+002    +6.3230438e-008    +3.5500915e-007
+5.9300000e+002    +6.4672548e-008    +3.6541678e-007
+5.9400000e+002    +6.5322745e-008    +3.5930782e-007
+5.9500000e+002    +6.5005651e-008    +3.4980584e-007
+5.9600000e+002    +5.8926144e-008    +3.3040732e-007
+5.9700000e+002    +6.1507492e-008    +3.1643128e-007
+5.9800000e+002    +7.0054128e-008    +3.3851225e-007
+5.9900000e+002    +1.3231868e-007    +3.5400572e-007
+6.0000000e+002    +2.3479608e-007    +3.4682057e-007
+6.0100000e+002    +1.5706304e-007    +3.4438449e-007
+6.0200000e+002    +1.8100334e-007    +3.5667588e-007
+6.0300000e+002    +1.9078439e-007    +3.8496063e-007
+6.0400000e+002    +2.5011568e-007    +3.7864049e-007
+6.0500000e+002    +2.3727567e-007    +3.4091730e-007
+6.0600000e+002    +1.3431566e-007    +3.2825403e-007
+6.0700000e+002    +7.5371275e-008    +3.2583708e-007
+6.0800000e+002    +5.9556157e-008    +3.2494748e-007
+6.0900000e+002    +5.6802424e-008    +3.5211363e-007
+6.1000000e+002    +5.7533285e-008    +3.7268015e-007
+6.1100000e+002    +5.1876206e-008    +3.7470662e-007
+6.1200000e+002    +5.6597980e-008    +3.2849343e-007
+6.1300000e+002    +6.2447569e-008    +3.2542911e-007
+6.1400000e+002    +6.4366873e-008    +3.6032984e-007
+6.1500000e+002    +6.4088326e-008    +3.7303019e-007
+6.1600000e+002    +5.8371139e-008    +3.7565985e-007
+6.1700000e+002    +5.7685977e-008    +3.6957761e-007
+6.1800000e+002    +5.9084091e-008    +3.5395752e-007
+6.1900000e+002    +5.9996147e-008    +3.6185344e-007
+6.2000000e+002    +5.9905382e-008    +3.4642594e-007
+6.2100000e+002    +6.0170770e-008    +3.6234724e-007
+6.2200000e+002    +5.8900465e-008    +3.8834963e-007
+6.2300000e+002    +5.8356015e-008    +3.9512153e-007
+6.2400000e+002    +6.2929715e-008    +3.8894962e-007
+6.2500000e+002    +7.1194286e-008    +3.7233946e-007
+6.2600000e+002    +6.5781720e-008    +3.6268636e-007
+6.2700000e+002    +6.0354978e-008    +3.5848109e-007
+6.2800000e+002    +6.5086780e-008    +4.0188002e-007
+6.2900000e+002    +6.3681703e-008    +4.2028856e-007
+6.3000000e+002    +5.8771395e-008    +3.9238924e-007
+6.3100000e+002    +6.2789198e-008    +4.0059365e-007
+6.3200000e+002    +6.7999643e-008    +4.1879423e-007
+6.3300000e+002    +7.2245911e-008    +3.9085808e-007
+6.3400000e+002    +6.7805878e-008    +3.5927468e-007
+6.3500000e+002    +5.7740852e-008    +3.6950416e-007
+6.3600000e+002    +5.8947045e-008    +4.0808550e-007
+6.3700000e+002    +6.2239820e-008    +3.9506341e-007
+6.3800000e+002    +5.9213392e-008    +3.7949786e-007
+6.3900000e+002    +6.0655445e-008    +3.6292178e-007
+6.4000000e+002    +6.6682048e-008    +3.7433489e-007
+6.4100000e+002    +6.7668736e-008    +3.6510679e-007
+6.4200000e+002    +7.8507959e-008    +3.7559178e-007
+6.4300000e+002    +1.0876055e-007    +3.7243760e-007
+6.4400000e+002    +1.4393484e-007    +3.8292791e-007
+6.4500000e+002    +1.7954025e-007    +4.0661982e-007
+6.4600000e+002    +1.5002254e-007    +3.7318665e-007
+6.4700000e+002    +1.1456513e-007    +3.4308093e-007
+6.4800000e+002    +9.3926339e-008    +3.9911544e-007
+6.4900000e+002    +8.7678963e-008    +3.8711931e-007
+6.5000000e+002    +8.6213163e-008    +4.0287847e-007
+6.5100000e+002    +9.1247664e-008    +4.1241958e-007
+6.5200000e+002    +8.9706148e-008    +3.9909003e-007
+6.5300000e+002    +7.6946606e-008    +4.1755914e-007
+6.5400000e+002    +8.3468500e-008    +4.0575998e-007
+6.5500000e+002    +7.2799395e-008    +4.2354887e-007
+6.5600000e+002    +6.1799653e-008    +4.3375331e-007
+6.5700000e+002    +6.2342750e-008    +4.4402364e-007
+6.5800000e+002    +6.1376284e-008    +4.1457929e-007
+6.5900000e+002    +1.2189253e-007    +4.1814914e-007
+6.6000000e+002    +2.1842102e-007    +4.0266798e-007
+6.6100000e+002    +1.1968682e-007    +4.1278926e-007
+6.6200000e+002    +6.2845068e-008    +4.2046810e-007
+6.6300000e+002    +6.1105709e-008    +3.9851730e-007
+6.6400000e+002    +5.9234459e-008    +4.0722611e-007
+6.6500000e+002    +5.8334809e-008    +3.9893362e-007
+6.6600000e+002    +6.6068935e-008    +4.0979438e-007
+6.6700000e+002    +6.8431127e-008    +4.1157233e-007
+6.6800000e+002    +6.7101119e-008    +3.9043258e-007
+6.6900000e+002    +6.8016448e-008    +4.0055670e-007
+6.7000000e+002    +6.7897062e-008    +4.1154658e-007
+6.7100000e+002    +6.6697723e-008    +4.4655278e-007
+6.7200000e+002    +7.0198489e-008    +4.5353866e-007
+6.7300000e+002    +7.2769751e-008    +4.2641761e-007
+6.7400000e+002    +6.7340324e-008    +4.2144978e-007
+6.7500000e+002    +6.3894056e-008    +4.0917033e-007
+6.7600000e+002    +6.4220394e-008    +4.5088086e-007
+6.7700000e+002    +6.5679458e-008    +4.4441236e-007
+6.7800000e+002    +6.8111433e-008    +4.3114659e-007
+6.7900000e+002    +6.8754069e-008    +4.5417849e-007
+6.8000000e+002    +7.1719548e-008    +4.5305987e-007
+6.8100000e+002    +7.6744108e-008    +4.0371981e-007
+6.8200000e+002    +8.2139259e-008    +4.0578314e-007
+6.8300000e+002    +8.3058481e-008    +4.1428896e-007
+6.8400000e+002    +7.7886696e-008    +4.2727854e-007
+6.8500000e+002    +8.7503260e-008    +4.3028967e-007
+6.8600000e+002    +1.0703851e-007    +4.2754274e-007
+6.8700000e+002    +1.1030045e-007    +4.3986182e-007
+6.8800000e+002    +1.0763839e-007    +4.4559673e-007
+6.8900000e+002    +1.1041834e-007    +4.5027878e-007
+6.9000000e+002    +1.1304510e-007    +4.3271635e-007
+6.9100000e+002    +1.1526096e-007    +4.2747797e-007
+6.9200000e+002    +1.3395409e-007    +4.1379346e-007
+6.9300000e+002    +1.5276433e-007    +4.2004820e-007
+6.9400000e+002    +1.1276085e-007    +3.9409429e-007
+6.9500000e+002    +9.7552572e-008    +3.9240862e-007
+6.9600000e+002    +1.0281508e-007    +4.0742245e-007
+6.9700000e+002    +1.0306430e-007    +4.2497754e-007
+6.9800000e+002    +9.8983662e-008    +4.5521392e-007
+6.9900000e+002    +1.0864358e-007    +4.3257620e-007
+7.0000000e+002    +1.0812319e-007    +4.0140904e-007
+7.0100000e+002    +1.0447594e-007    +3.9163260e-007
+7.0200000e+002    +9.9424248e-008    +4.3244751e-007
+7.0300000e+002    +1.0127432e-007    +4.7924198e-007
+7.0400000e+002    +1.0333091e-007    +4.6531599e-007
+7.0500000e+002    +1.0585320e-007    +4.7752866e-007
+7.0600000e+002    +9.0735355e-008    +4.5620760e-007
+7.0700000e+002    +9.1656034e-008    +4.7097305e-007
+7.0800000e+002    +9.9415516e-008    +4.8099690e-007
+7.0900000e+002    +1.0224389e-007    +4.6639778e-007
+7.1000000e+002    +9.9285160e-008    +4.4544313e-007
+7.1100000e+002    +1.0204504e-007    +4.5226167e-007
+7.1200000e+002    +1.1117220e-007    +4.5787965e-007
+7.1300000e+002    +1.0855880e-007    +4.5532187e-007
+7.1400000e+002    +1.0535624e-007    +4.7091098e-007
+7.1500000e+002    +1.0857143e-007    +4.7455202e-007
+7.1600000e+002    +1.0372215e-007    +4.9024749e-007
+7.1700000e+002    +9.4543715e-008    +4.8165379e-007
+7.1800000e+002    +9.3276725e-008    +4.3737012e-007
+7.1900000e+002    +1.2268887e-007    +4.3678992e-007
+7.2000000e+002    +2.0111518e-007    +4.2124253e-007
+7.2100000e+002    +1.2773036e-007    +4.4846016e-007
+7.2200000e+002    +7.5897098e-008    +4.8481331e-007
+7.2300000e+002    +7.2870172e-008    +4.9743062e-007
+7.2400000e+002    +7.1719001e-008    +4.6031226e-007
+7.2500000e+002    +7.0173527e-008    +4.6742977e-007
+7.2600000e+002    +7.1963363e-008    +5.1248315e-007
+7.2700000e+002    +6.4032690e-008    +5.0050403e-007
+7.2800000e+002    +6.7757206e-008    +5.1463093e-007
+7.2900000e+002    +7.3720948e-008    +4.9078551e-007
+7.3000000e+002    +6.4938874e-008    +4.6680302e-007
+7.3100000e+002    +6.5785187e-008    +4.6564767e-007
+7.3200000e+002    +6.4036271e-008    +4.7436032e-007
+7.3300000e+002    +6.5128241e-008    +4.9110787e-007
+7.3400000e+002    +6.6158513e-008    +5.4008598e-007
+7.3500000e+002    +6.4968042e-008    +5.5922948e-007
+7.3600000e+002    +7.1443765e-008    +4.8320044e-007
+7.3700000e+002    +7.1104054e-008    +4.5909334e-007
+7.3800000e+002    +7.2074464e-008    +4.4803591e-007
+7.3900000e+002    +7.3839459e-008    +4.6603026e-007
+7.4000000e+002    +7.6048913e-008    +4.5696257e-007
+7.4100000e+002    +7.2503141e-008    +4.6288079e-007
+7.4200000e+002    +7.3981070e-008    +4.7279056e-007
+7.4300000e+002    +7.5964799e-008    +4.4742291e-007
+7.4400000e+002    +7.7423721e-008    +4.6726350e-007
+7.4500000e+002    +7.7577397e-008    +4.8610963e-007
+7.4600000e+002    +7.7423891e-008    +5.1390367e-007
+7.4700000e+002    +7.8212935e-008    +5.3136603e-007
+7.4800000e+002    +7.7544613e-008    +5.4934389e-007
+7.4900000e+002    +8.9688619e-008    +5.1922189e-007
+7.5000000e+002    +9.8897623e-008    +4.9993611e-007
+7.5100000e+002    +9.7935271e-008    +5.0507600e-007
+7.5200000e+002    +9.2008229e-008    +5.0930771e-007
+7.5300000e+002    +8.7333852e-008    +5.2184919e-007
+7.5400000e+002    +7.5038592e-008    +5.1768552e-007
+7.5500000e+002    +7.6462939e-008    +5.0475671e-007
+7.5600000e+002    +7.9185277e-008    +5.1918431e-007
+7.5700000e+002    +7.3049691e-008    +5.5246988e-007
+7.5800000e+002    +7.2979141e-008    +4.9601755e-007
+7.5900000e+002    +7.5566909e-008    +4.7577439e-007
+7.6000000e+002    +8.4062819e-008    +5.0922159e-007
+7.6100000e+002    +7.1206713e-008    +5.0079097e-007
+7.6200000e+002    +7.0567260e-008    +5.5232312e-007
+7.6300000e+002    +7.5099663e-008    +5.4396673e-007
+7.6400000e+002    +7.3322816e-008    +5.1881449e-007
+7.6500000e+002    +7.1268737e-008    +5.7860922e-007
+7.6600000e+002    +6.5921121e-008    +5.3660801e-007
+7.6700000e+002    +5.8187428e-008    +5.2679138e-007
+7.6800000e+002    +6.5690493e-008    +5.3379739e-007
+7.6900000e+002    +6.3970290e-008    +5.1999325e-007
+7.7000000e+002    +6.1929185e-008    +5.2358934e-007
+7.7100000e+002    +6.7190619e-008    +5.6709825e-007
+7.7200000e+002    +6.8115618e-008    +5.3355836e-007
+7.7300000e+002    +6.9665930e-008    +5.5853241e-007
+7.7400000e+002    +6.7466800e-008    +5.8468504e-007
+7.7500000e+002    +6.4068693e-008    +5.2981932e-007
+7.7600000e+002    +6.1139936e-008    +5.1213050e-007
+7.7700000e+002    +6.4514040e-008    +5.6263161e-007
+7.7800000e+002    +7.0130390e-008    +5.6347113e-007
+7.7900000e+002    +1.4562075e-007    +5.5977375e-007
+7.8000000e+002    +2.6025043e-007    +5.1436825e-007
+7.8100000e+002    +1.4840865e-007    +5.1788624e-007
+7.8200000e+002    +7.4895453e-008    +4.9809955e-007
+7.8300000e+002    +7.1110769e-008    +5.2154388e-007
+7.8400000e+002    +6.8669571e-008    +5.2021596e-007
+7.8500000e+002    +6.8510069e-008    +5.5947208e-007
+7.8600000e+002    +6.2655047e-008    +5.5585775e-007
+7.8700000e+002    +6.2314079e-008    +5.0557202e-007
+7.8800000e+002    +7.2740669e-008    +5.1399900e-007
+7.8900000e+002    +7.2945816e-008    +5.4254650e-007
+7.9000000e+002    +7.2180974e-008    +5.5241532e-007
+7.9100000e+002    +6.8927385e-008    +5.9717428e-007
+7.9200000e+002    +6.5919018e-008    +5.7711821e-007
+7.9300000e+002    +7.1472087e-008    +5.7806187e-007
+7.9400000e+002    +7.7351501e-008    +5.3381086e-007
+7.9500000e+002    +6.9382345e-008    +5.4482928e-007
+7.9600000e+002    +6.6947315e-008    +5.5534349e-007
+7.9700000e+002    +6.8748029e-008    +5.7467435e-007
+7.9800000e+002    +7.3483442e-008    +5.7203982e-007
+7.9900000e+002    +7.6409393e-008    +5.5587907e-007
#
#
# North DC Val: 0.6518148300000001 VoltsSouth DC Val: 0.55893015 Volts
# SR785 Measurement - Timestamp: Jun 09 2020 - 06:25:17
# Parameter File: /home/controls/Git/cit_ctnlab/ctn_scripts/TransRINSpecShort.yml
#---------- Measurement Setup ------------
# Start Frequency (Hz): 0.000000
# Frequency Span (Hz): 102400.000000
# Frequency Resolution: 800
# Number of Averages: 100
# Averaging Mode: RMS
# Window function: Hanning
#---------- Measurement Parameters ----------
# Measurement Group:  "FFT" "FFT"
# Measurements:  "FFT 1" "FFT 2"
# View:  "Log Magnitude" "Log Magnitude"
# Unit:  "Vrms/rtHz" "Vrms/rtHz"
#---------- Input Parameters ----------
# Input Source: Analog
# Input Mode: Single ended, Single ended
# Input Grounding: Float, Float
# Input Coupling: AC, AC
# Input Range: -36.0dBVpk, -36.0dBVpk
# Auto Range: Off, Off
# Auto Range Mode: Tracking, Tracking
# Anti-Aliasing Filter: On, On
#---------- Source Parameters ----------
# Source Type: Sine
# Source Amplitude: 500.0mVpk
# Source On: 0

#---------- Measurement Data ----------
# [Freq(Hz) Display 0(Vrms/rtHz) Display 1(Vrms/rtHz) ]
+8.9600000e+002    +1.3673134e-007    +6.8063662e-007
+1.0240000e+003    +1.3419744e-007    +7.3481505e-007
+1.1520000e+003    +1.2060919e-007    +8.9760533e-007
+1.2800000e+003    +1.2573075e-007    +1.0743991e-006
+1.4080000e+003    +1.4928904e-007    +1.1936477e-006
+1.5360000e+003    +2.0094809e-007    +1.2214640e-006
+1.6640000e+003    +2.6247929e-007    +1.3917214e-006
+1.7920000e+003    +3.5096727e-007    +1.5188795e-006
+1.9200000e+003    +3.3505489e-007    +1.5692445e-006
+2.0480000e+003    +3.5130114e-007    +1.6124585e-006
+2.1760000e+003    +3.7133270e-007    +1.6341489e-006
+2.3040000e+003    +4.0817108e-007    +1.6901650e-006
+2.4320000e+003    +4.5453368e-007    +1.5889208e-006
+2.5600000e+003    +4.9306374e-007    +1.5849359e-006
+2.6880000e+003    +5.4811727e-007    +1.6779652e-006
+2.8160000e+003    +5.6566051e-007    +1.7593366e-006
+2.9440000e+003    +5.8909131e-007    +1.5917007e-006
+3.0720000e+003    +6.2889239e-007    +1.5296002e-006
+3.2000000e+003    +6.9626014e-007    +1.6037662e-006
+3.3280000e+003    +7.4648506e-007    +1.6009900e-006
+3.4560000e+003    +8.1536695e-007    +1.5204546e-006
+3.5840000e+003    +8.4650952e-007    +1.5281734e-006
+3.7120000e+003    +8.9750779e-007    +1.5423124e-006
+3.8400000e+003    +9.5925179e-007    +1.4927446e-006
+3.9680000e+003    +9.1808823e-007    +1.3922639e-006
+4.0960000e+003    +9.3014916e-007    +1.2736094e-006
+4.2240000e+003    +1.0838896e-006    +1.2876687e-006
+4.3520000e+003    +1.1874999e-006    +1.2541558e-006
+4.4800000e+003    +1.2074963e-006    +1.2894329e-006
+4.6080000e+003    +1.2565444e-006    +1.3226536e-006
+4.7360000e+003    +1.2962849e-006    +1.2827750e-006
+4.8640000e+003    +1.3535685e-006    +1.2483994e-006
+4.9920000e+003    +1.4327404e-006    +1.2595652e-006
+5.1200000e+003    +1.4093172e-006    +1.2607718e-006
+5.2480000e+003    +1.5469117e-006    +1.2860439e-006
+5.3760000e+003    +1.5090720e-006    +1.1712273e-006
+5.5040000e+003    +1.5599971e-006    +1.1825609e-006
+5.6320000e+003    +1.8331214e-006    +1.0584564e-006
+5.7600000e+003    +1.7650423e-006    +1.0611083e-006
+5.8880000e+003    +1.7461101e-006    +1.0057710e-006
+6.0160000e+003    +1.8154193e-006    +9.7841871e-007
+6.1440000e+003    +1.9072470e-006    +1.1005717e-006
+6.2720000e+003    +1.8869407e-006    +1.1280816e-006
+6.4000000e+003    +1.8303158e-006    +1.0166616e-006
+6.5280000e+003    +1.8964014e-006    +9.6417239e-007
+6.6560000e+003    +2.0331586e-006    +8.9767730e-007
+6.7840000e+003    +2.0763830e-006    +9.6809515e-007
+6.9120000e+003    +2.1562696e-006    +9.3317698e-007
+7.0400000e+003    +2.2017316e-006    +8.9677786e-007
+7.1680000e+003    +2.2317729e-006    +8.4097991e-007
+7.2960000e+003    +2.3124803e-006    +7.9404589e-007
+7.4240000e+003    +2.4754972e-006    +8.9894468e-007
+7.5520000e+003    +2.4582685e-006    +9.5870223e-007
+7.6800000e+003    +2.4232406e-006    +9.2387836e-007
+7.8080000e+003    +2.5072716e-006    +9.3549750e-007
+7.9360000e+003    +2.5263275e-006    +9.1158847e-007
+8.0640000e+003    +2.5258062e-006    +8.5953809e-007
+8.1920000e+003    +2.9177356e-006    +8.5292919e-007
+8.3200000e+003    +2.8758864e-006    +8.7348718e-007
+8.4480000e+003    +3.0505012e-006    +8.2848908e-007
+8.5760000e+003    +3.2682992e-006    +8.7184299e-007
+8.7040000e+003    +3.0337137e-006    +8.9231975e-007
+8.8320000e+003    +3.0649710e-006    +9.0519330e-007
+8.9600000e+003    +3.2240189e-006    +8.6371006e-007
+9.0880000e+003    +3.1143722e-006    +8.2035882e-007
+9.2160000e+003    +3.0300719e-006    +8.4875893e-007
+9.3440000e+003    +2.9100700e-006    +8.3561758e-007
+9.4720000e+003    +3.0065264e-006    +8.5137884e-007
+9.6000000e+003    +3.1463742e-006    +8.9542505e-007
+9.7280000e+003    +3.3803908e-006    +8.7474729e-007
+9.8560000e+003    +3.4287984e-006    +8.7200954e-007
+9.9840000e+003    +3.5030896e-006    +8.3244367e-007
+1.0112000e+004    +3.4920758e-006    +8.6425649e-007
+1.0240000e+004    +3.3882757e-006    +8.5610037e-007
+1.0368000e+004    +3.4545471e-006    +9.2449227e-007
+1.0496000e+004    +3.6080610e-006    +8.3211648e-007
+1.0624000e+004    +3.8554181e-006    +8.2362317e-007
+1.0752000e+004    +3.8657099e-006    +7.6485355e-007
+1.0880000e+004    +3.8370104e-006    +8.1204524e-007
+1.1008000e+004    +3.7920422e-006    +8.5704460e-007
+1.1136000e+004    +3.5448957e-006    +8.1175466e-007
+1.1264000e+004    +3.5549283e-006    +8.5788912e-007
+1.1392000e+004    +4.0498999e-006    +8.7765937e-007
+1.1520000e+004    +3.7938453e-006    +8.4393059e-007
+1.1648000e+004    +3.8521348e-006    +8.2723926e-007
+1.1776000e+004    +3.9046258e-006    +8.2036871e-007
+1.1904000e+004    +4.0326086e-006    +8.3809840e-007
+1.2032000e+004    +3.7122547e-006    +7.9248770e-007
+1.2160000e+004    +3.8949106e-006    +7.9929237e-007
+1.2288000e+004    +3.8451917e-006    +8.0963974e-007
+1.2416000e+004    +4.1503472e-006    +8.4523253e-007
+1.2544000e+004    +4.1148510e-006    +7.5364903e-007
+1.2672000e+004    +3.9949336e-006    +7.3202318e-007
+1.2800000e+004    +4.0321038e-006    +7.6442961e-007
+1.2928000e+004    +3.8651879e-006    +7.8878099e-007
+1.3056000e+004    +3.7651296e-006    +8.0560420e-007
+1.3184000e+004    +3.8823496e-006    +7.4176194e-007
+1.3312000e+004    +4.1679054e-006    +7.1986125e-007
+1.3440000e+004    +4.1498733e-006    +7.3877817e-007
+1.3568000e+004    +3.7495849e-006    +7.5631237e-007
+1.3696000e+004    +3.8131263e-006    +7.3128894e-007
+1.3824000e+004    +3.7171369e-006    +6.6052036e-007
+1.3952000e+004    +3.8559219e-006    +7.3071749e-007
+1.4080000e+004    +3.9341680e-006    +7.2298604e-007
+1.4208000e+004    +3.6922879e-006    +6.6645015e-007
+1.4336000e+004    +3.5556427e-006    +6.2044410e-007
+1.4464000e+004    +3.7081281e-006    +7.3957273e-007
+1.4592000e+004    +3.7366638e-006    +7.0923636e-007
+1.4720000e+004    +3.6978256e-006    +6.8726371e-007
+1.4848000e+004    +3.5291869e-006    +6.7256900e-007
+1.4976000e+004    +3.4437994e-006    +6.9629226e-007
+1.5104000e+004    +3.2868177e-006    +6.6699772e-007
+1.5232000e+004    +3.2049427e-006    +6.6456494e-007
+1.5360000e+004    +3.3527901e-006    +6.3031712e-007
+1.5488000e+004    +3.4497978e-006    +5.9183361e-007
+1.5616000e+004    +3.6894876e-006    +5.9223856e-007
+1.5744000e+004    +3.6176725e-006    +5.8003150e-007
+1.5872000e+004    +3.2449645e-006    +6.2459708e-007
+1.6000000e+004    +3.3333215e-006    +6.1664235e-007
+1.6128000e+004    +3.4216605e-006    +5.8732945e-007
+1.6256000e+004    +3.2617068e-006    +6.3550880e-007
+1.6384000e+004    +3.2037817e-006    +6.2510475e-007
+1.6512000e+004    +3.1726902e-006    +5.7209320e-007
+1.6640000e+004    +3.2948064e-006    +5.6001846e-007
+1.6768000e+004    +3.3972683e-006    +5.6336103e-007
+1.6896000e+004    +3.2779665e-006    +5.5630954e-007
+1.7024000e+004    +3.1173213e-006    +5.0288918e-007
+1.7152000e+004    +3.1062209e-006    +5.0648651e-007
+1.7280000e+004    +3.0047147e-006    +5.2448405e-007
+1.7408000e+004    +3.1906422e-006    +5.6149486e-007
+1.7536000e+004    +2.9358339e-006    +5.2049933e-007
+1.7664000e+004    +2.7225365e-006    +4.4920182e-007
+1.7792000e+004    +2.8655354e-006    +4.5661352e-007
+1.7920000e+004    +2.9223941e-006    +4.5074572e-007
+1.8048000e+004    +2.7441865e-006    +4.5497856e-007
+1.8176000e+004    +3.0831461e-006    +4.4780722e-007
+1.8304000e+004    +3.0840094e-006    +4.8370526e-007
+1.8432000e+004    +3.2437429e-006    +4.5450074e-007
+1.8560000e+004    +2.9603532e-006    +4.1624909e-007
+1.8688000e+004    +2.8428626e-006    +4.3450785e-007
+1.8816000e+004    +2.7447770e-006    +4.5198070e-007
+1.8944000e+004    +2.5640416e-006    +4.3545347e-007
+1.9072000e+004    +2.6384539e-006    +4.2160715e-007
+1.9200000e+004    +2.8881702e-006    +4.0702272e-007
+1.9328000e+004    +2.6515602e-006    +3.9810445e-007
+1.9456000e+004    +2.7410065e-006    +3.9805769e-007
+1.9584000e+004    +2.5685160e-006    +4.2549112e-007
+1.9712000e+004    +2.4557216e-006    +4.1326996e-007
+1.9840000e+004    +2.8163277e-006    +3.9018403e-007
+1.9968000e+004    +2.7439514e-006    +3.9832133e-007
+2.0096000e+004    +2.6061330e-006    +4.0657295e-007
+2.0224000e+004    +2.6917021e-006    +3.7543430e-007
+2.0352000e+004    +2.5905249e-006    +3.3614853e-007
+2.0480000e+004    +2.5749314e-006    +3.3799898e-007
+2.0608000e+004    +2.5952536e-006    +3.7459802e-007
+2.0736000e+004    +2.6796829e-006    +3.7097936e-007
+2.0864000e+004    +2.5356342e-006    +3.5463944e-007
+2.0992000e+004    +2.4523267e-006    +3.3531472e-007
+2.1120000e+004    +2.3877576e-006    +3.5909798e-007
+2.1248000e+004    +2.4517292e-006    +4.0993928e-007
+2.1376000e+004    +2.4743777e-006    +4.4740472e-007
+2.1504000e+004    +2.4705989e-006    +5.1961371e-007
+2.1632000e+004    +2.4518879e-006    +3.7875026e-007
+2.1760000e+004    +2.4838228e-006    +2.9488402e-007
+2.1888000e+004    +2.5370043e-006    +2.7540446e-007
+2.2016000e+004    +2.4471760e-006    +2.7848805e-007
+2.2144000e+004    +2.2242432e-006    +3.0567338e-007
+2.2272000e+004    +2.2838740e-006    +2.8919146e-007
+2.2400000e+004    +2.3671050e-006    +2.6332938e-007
+2.2528000e+004    +2.3905986e-006    +2.5326486e-007
+2.2656000e+004    +2.1061101e-006    +2.6004162e-007
+2.2784000e+004    +2.0674224e-006    +2.8018317e-007
+2.2912000e+004    +2.2160843e-006    +2.5614162e-007
+2.3040000e+004    +2.1536928e-006    +2.6175519e-007
+2.3168000e+004    +1.9985980e-006    +2.7778538e-007
+2.3296000e+004    +2.1804219e-006    +2.8858943e-007
+2.3424000e+004    +2.4488882e-006    +2.8822367e-007
+2.3552000e+004    +2.3365758e-006    +3.0276078e-007
+2.3680000e+004    +2.1646215e-006    +2.8199975e-007
+2.3808000e+004    +2.1531137e-006    +2.8633087e-007
+2.3936000e+004    +2.3805408e-006    +2.7066861e-007
+2.4064000e+004    +2.2450097e-006    +2.5308086e-007
+2.4192000e+004    +2.0620248e-006    +2.8106254e-007
+2.4320000e+004    +2.2076381e-006    +2.7694000e-007
+2.4448000e+004    +2.1212436e-006    +2.6271456e-007
+2.4576000e+004    +2.0819052e-006    +2.7107845e-007
+2.4704000e+004    +1.9308243e-006    +2.5323484e-007
+2.4832000e+004    +1.7637967e-006    +2.6039820e-007
+2.4960000e+004    +1.8437084e-006    +2.7014607e-007
+2.5088000e+004    +2.0775028e-006    +2.6642343e-007
+2.5216000e+004    +1.9207512e-006    +2.7122164e-007
+2.5344000e+004    +2.0016175e-006    +2.6773037e-007
+2.5472000e+004    +1.9116958e-006    +2.7915635e-007
+2.5600000e+004    +1.9491251e-006    +2.8754349e-007
+2.5728000e+004    +1.9380584e-006    +2.6189434e-007
+2.5856000e+004    +1.9414319e-006    +2.5699828e-007
+2.5984000e+004    +2.0900657e-006    +2.7944031e-007
+2.6112000e+004    +2.0336342e-006    +2.8838323e-007
+2.6240000e+004    +1.9623808e-006    +2.6339472e-007
+2.6368000e+004    +1.8924472e-006    +2.6915663e-007
+2.6496000e+004    +1.8720211e-006    +2.9180111e-007
+2.6624000e+004    +1.9291185e-006    +3.6777587e-007
+2.6752000e+004    +2.1148135e-006    +3.4223029e-007
+2.6880000e+004    +1.9679453e-006    +3.0315161e-007
+2.7008000e+004    +1.7278039e-006    +3.0116672e-007
+2.7136000e+004    +1.7099076e-006    +2.9010386e-007
+2.7264000e+004    +1.9065855e-006    +2.9118567e-007
+2.7392000e+004    +1.9492516e-006    +2.9160191e-007
+2.7520000e+004    +1.7629583e-006    +3.1807576e-007
+2.7648000e+004    +1.7287072e-006    +3.1926817e-007
+2.7776000e+004    +1.7607318e-006    +3.1531178e-007
+2.7904000e+004    +1.6502430e-006    +3.3115984e-007
+2.8032000e+004    +1.5951997e-006    +3.3193922e-007
+2.8160000e+004    +1.6870392e-006    +3.2322026e-007
+2.8288000e+004    +1.5979501e-006    +3.3196656e-007
+2.8416000e+004    +1.7018275e-006    +3.2842780e-007
+2.8544000e+004    +1.8037288e-006    +3.6358463e-007
+2.8672000e+004    +1.8570256e-006    +3.6354751e-007
+2.8800000e+004    +1.7190334e-006    +3.8579674e-007
+2.8928000e+004    +1.7057223e-006    +3.7625674e-007
+2.9056000e+004    +1.8167034e-006    +3.6753406e-007
+2.9184000e+004    +1.7226724e-006    +3.6636285e-007
+2.9312000e+004    +1.7539573e-006    +3.6634557e-007
+2.9440000e+004    +1.9201818e-006    +3.8507687e-007
+2.9568000e+004    +1.7220427e-006    +3.9231773e-007
+2.9696000e+004    +1.7165042e-006    +4.0949664e-007
+2.9824000e+004    +1.7443779e-006    +3.9337579e-007
+2.9952000e+004    +1.6609077e-006    +4.0108964e-007
+3.0080000e+004    +1.7372219e-006    +4.0362585e-007
+3.0208000e+004    +1.6569934e-006    +3.9645388e-007
+3.0336000e+004    +1.6432891e-006    +4.4441043e-007
+3.0464000e+004    +1.7044512e-006    +4.3332298e-007
+3.0592000e+004    +1.5503055e-006    +4.1793663e-007
+3.0720000e+004    +1.4623328e-006    +3.9845736e-007
+3.0848000e+004    +1.6854062e-006    +4.0616516e-007
+3.0976000e+004    +1.6716524e-006    +4.4450803e-007
+3.1104000e+004    +1.6465400e-006    +4.2122403e-007
+3.1232000e+004    +1.6300883e-006    +4.0597254e-007
+3.1360000e+004    +1.5719692e-006    +4.5315139e-007
+3.1488000e+004    +1.4666452e-006    +4.2725696e-007
+3.1616000e+004    +1.3763885e-006    +4.2874899e-007
+3.1744000e+004    +1.4510396e-006    +4.7863779e-007
+3.1872000e+004    +1.5517087e-006    +4.5834392e-007
+3.2000000e+004    +1.6780813e-006    +4.6321381e-007
+3.2128000e+004    +1.6690811e-006    +4.8646041e-007
+3.2256000e+004    +1.5792662e-006    +4.7110700e-007
+3.2384000e+004    +1.4973325e-006    +4.5604835e-007
+3.2512000e+004    +1.5261378e-006    +4.6666773e-007
+3.2640000e+004    +1.4623377e-006    +4.7400005e-007
+3.2768000e+004    +1.4841646e-006    +4.9833426e-007
+3.2896000e+004    +1.4231672e-006    +4.7683392e-007
+3.3024000e+004    +1.3759110e-006    +5.0117819e-007
+3.3152000e+004    +1.4411258e-006    +5.1049796e-007
+3.3280000e+004    +1.5478155e-006    +4.5634437e-007
+3.3408000e+004    +1.6426487e-006    +4.9194978e-007
+3.3536000e+004    +1.5594509e-006    +5.1370341e-007
+3.3664000e+004    +1.4551622e-006    +5.2706099e-007
+3.3792000e+004    +1.4356867e-006    +5.4416626e-007
+3.3920000e+004    +1.3684969e-006    +5.5737030e-007
+3.4048000e+004    +1.3812389e-006    +5.4102134e-007
+3.4176000e+004    +1.5464515e-006    +5.2651387e-007
+3.4304000e+004    +1.5899958e-006    +4.7730168e-007
+3.4432000e+004    +1.4107973e-006    +4.9572736e-007
+3.4560000e+004    +1.3692108e-006    +5.1249725e-007
+3.4688000e+004    +1.3026882e-006    +5.4876762e-007
+3.4816000e+004    +1.3517075e-006    +5.1583868e-007
+3.4944000e+004    +1.4727805e-006    +4.8871794e-007
+3.5072000e+004    +1.4460837e-006    +5.2243911e-007
+3.5200000e+004    +1.4528234e-006    +5.3582090e-007
+3.5328000e+004    +1.3895761e-006    +5.6678141e-007
+3.5456000e+004    +1.3340164e-006    +5.7309279e-007
+3.5584000e+004    +1.4166320e-006    +5.5760535e-007
+3.5712000e+004    +1.4349570e-006    +5.7771035e-007
+3.5840000e+004    +1.4204868e-006    +5.4423140e-007
+3.5968000e+004    +1.4352973e-006    +6.1450322e-007
+3.6096000e+004    +1.5115512e-006    +6.2678373e-007
+3.6224000e+004    +1.3573546e-006    +5.9737368e-007
+3.6352000e+004    +1.4011815e-006    +6.2918457e-007
+3.6480000e+004    +1.3497291e-006    +5.9044595e-007
+3.6608000e+004    +1.3863576e-006    +5.6450773e-007
+3.6736000e+004    +1.4340561e-006    +5.6090704e-007
+3.6864000e+004    +1.4004447e-006    +5.4987254e-007
+3.6992000e+004    +1.3368991e-006    +5.6875189e-007
+3.7120000e+004    +1.3278496e-006    +6.3571679e-007
+3.7248000e+004    +1.3374540e-006    +6.3803901e-007
+3.7376000e+004    +1.4126200e-006    +6.7731770e-007
+3.7504000e+004    +1.4155343e-006    +6.5302379e-007
+3.7632000e+004    +1.3096279e-006    +6.2243032e-007
+3.7760000e+004    +1.3036198e-006    +6.0660045e-007
+3.7888000e+004    +1.2108871e-006    +5.8478457e-007
+3.8016000e+004    +1.1886726e-006    +5.8932159e-007
+3.8144000e+004    +1.2958865e-006    +6.1700803e-007
+3.8272000e+004    +1.3075245e-006    +6.3210865e-007
+3.8400000e+004    +1.2709511e-006    +6.2582581e-007
+3.8528000e+004    +1.2316505e-006    +6.8748483e-007
+3.8656000e+004    +1.2265574e-006    +6.2293969e-007
+3.8784000e+004    +1.2656275e-006    +5.8851077e-007
+3.8912000e+004    +1.3992275e-006    +6.3908089e-007
+3.9040000e+004    +1.3864185e-006    +6.2343508e-007
+3.9168000e+004    +1.3208570e-006    +6.6301692e-007
+3.9296000e+004    +1.3627856e-006    +7.2204915e-007
+3.9424000e+004    +1.3747814e-006    +6.9069199e-007
+3.9552000e+004    +1.2958253e-006    +6.6865334e-007
+3.9680000e+004    +1.2916378e-006    +6.7932484e-007
+3.9808000e+004    +1.3318796e-006    +6.6840158e-007
+3.9936000e+004    +1.3396630e-006    +6.9292588e-007
+4.0064000e+004    +1.3179568e-006    +6.8961901e-007
+4.0192000e+004    +1.2946805e-006    +6.9814479e-007
+4.0320000e+004    +1.3044573e-006    +7.4108624e-007
+4.0448000e+004    +1.2632937e-006    +7.1305919e-007
+4.0576000e+004    +1.2537110e-006    +6.6163381e-007
+4.0704000e+004    +1.2878695e-006    +7.2640347e-007
+4.0832000e+004    +1.2131161e-006    +7.1993946e-007
+4.0960000e+004    +1.1033738e-006    +6.3105949e-007
+4.1088000e+004    +1.2388086e-006    +6.3166743e-007
+4.1216000e+004    +1.3148161e-006    +7.1867822e-007
+4.1344000e+004    +1.3223240e-006    +6.8936464e-007
+4.1472000e+004    +1.2359610e-006    +6.7784742e-007
+4.1600000e+004    +1.2154826e-006    +7.1484016e-007
+4.1728000e+004    +1.2502264e-006    +7.1871449e-007
+4.1856000e+004    +1.2473608e-006    +7.5348765e-007
+4.1984000e+004    +1.2466529e-006    +7.9746820e-007
+4.2112000e+004    +1.1253019e-006    +7.6780435e-007
+4.2240000e+004    +1.1744492e-006    +7.4555783e-007
+4.2368000e+004    +1.1684760e-006    +7.3562148e-007
+4.2496000e+004    +1.1252389e-006    +7.1664840e-007
+4.2624000e+004    +1.1685979e-006    +7.5389977e-007
+4.2752000e+004    +1.1674309e-006    +7.9097691e-007
+4.2880000e+004    +1.1654035e-006    +8.0478998e-007
+4.3008000e+004    +1.1749922e-006    +7.5346532e-007
+4.3136000e+004    +1.2523312e-006    +7.4427214e-007
+4.3264000e+004    +1.2583765e-006    +8.1022046e-007
+4.3392000e+004    +1.1446342e-006    +8.2982007e-007
+4.3520000e+004    +1.0812521e-006    +8.4448118e-007
+4.3648000e+004    +1.1734863e-006    +7.6548537e-007
+4.3776000e+004    +1.1170971e-006    +7.3413685e-007
+4.3904000e+004    +1.0089907e-006    +7.5041805e-007
+4.4032000e+004    +1.0141910e-006    +7.3748879e-007
+4.4160000e+004    +9.9344697e-007    +7.7255760e-007
+4.4288000e+004    +1.1731333e-006    +8.1723300e-007
+4.4416000e+004    +1.1127539e-006    +8.0394835e-007
+4.4544000e+004    +1.0556698e-006    +8.3195391e-007
+4.4672000e+004    +1.0952616e-006    +8.1798618e-007
+4.4800000e+004    +1.1327222e-006    +8.0037955e-007
+4.4928000e+004    +1.1522047e-006    +8.0739824e-007
+4.5056000e+004    +1.2258870e-006    +8.9163620e-007
+4.5184000e+004    +1.1835351e-006    +8.7131758e-007
+4.5312000e+004    +1.2163464e-006    +9.3120264e-007
+4.5440000e+004    +1.1459318e-006    +9.4771843e-007
+4.5568000e+004    +1.1960997e-006    +8.7703995e-007
+4.5696000e+004    +1.2118074e-006    +8.5860904e-007
+4.5824000e+004    +1.1132133e-006    +8.7251141e-007
+4.5952000e+004    +1.1355613e-006    +8.9939385e-007
+4.6080000e+004    +1.1620994e-006    +8.2823260e-007
+4.6208000e+004    +1.1191596e-006    +9.0046296e-007
+4.6336000e+004    +1.1454224e-006    +9.2365525e-007
+4.6464000e+004    +1.1470862e-006    +9.4097993e-007
+4.6592000e+004    +1.1090216e-006    +8.9835368e-007
+4.6720000e+004    +1.1078240e-006    +8.8294439e-007
+4.6848000e+004    +1.0287437e-006    +8.7194348e-007
+4.6976000e+004    +1.1173657e-006    +8.8046028e-007
+4.7104000e+004    +1.0710846e-006    +8.7528048e-007
+4.7232000e+004    +1.0705426e-006    +8.6295273e-007
+4.7360000e+004    +1.1354641e-006    +8.8260708e-007
+4.7488000e+004    +1.1992398e-006    +8.7488178e-007
+4.7616000e+004    +1.2276097e-006    +8.5762349e-007
+4.7744000e+004    +1.2375783e-006    +8.9140417e-007
+4.7872000e+004    +1.1965410e-006    +8.8886998e-007
+4.8000000e+004    +1.0688349e-006    +8.9081908e-007
+4.8128000e+004    +9.8582473e-007    +9.1040619e-007
+4.8256000e+004    +1.0315918e-006    +9.2694995e-007
+4.8384000e+004    +1.1505171e-006    +9.1901308e-007
+4.8512000e+004    +1.1199783e-006    +9.0996645e-007
+4.8640000e+004    +1.0157388e-006    +8.7606122e-007
+4.8768000e+004    +9.9201145e-007    +9.2700793e-007
+4.8896000e+004    +1.0687411e-006    +9.6601616e-007
+4.9024000e+004    +1.0161917e-006    +9.7780764e-007
+4.9152000e+004    +9.4476059e-007    +9.8355645e-007
+4.9280000e+004    +9.9400563e-007    +1.0220225e-006
+4.9408000e+004    +1.0277028e-006    +9.6755218e-007
+4.9536000e+004    +1.0355420e-006    +9.1136826e-007
+4.9664000e+004    +1.0041887e-006    +9.3006236e-007
+4.9792000e+004    +1.0008810e-006    +9.2748951e-007
+4.9920000e+004    +1.0156987e-006    +9.6933536e-007
+5.0048000e+004    +9.6859480e-007    +1.0092190e-006
+5.0176000e+004    +9.2476233e-007    +1.0174186e-006
+5.0304000e+004    +9.2576397e-007    +1.1061468e-006
+5.0432000e+004    +9.4806813e-007    +9.6933104e-007
+5.0560000e+004    +8.8495921e-007    +9.3409034e-007
+5.0688000e+004    +8.8590417e-007    +1.0186516e-006
+5.0816000e+004    +8.7215318e-007    +1.0184860e-006
+5.0944000e+004    +8.3801194e-007    +1.0056849e-006
+5.1072000e+004    +8.3320259e-007    +9.7193777e-007
+5.1200000e+004    +8.8108015e-007    +9.4298741e-007
+5.1328000e+004    +8.6685282e-007    +9.9777367e-007
+5.1456000e+004    +8.4614805e-007    +1.0228700e-006
+5.1584000e+004    +8.2585802e-007    +1.0536029e-006
+5.1712000e+004    +8.2698045e-007    +9.9849365e-007
+5.1840000e+004    +8.6283711e-007    +9.9313070e-007
+5.1968000e+004    +8.4280180e-007    +1.0316630e-006
+5.2096000e+004    +8.2106260e-007    +1.0183127e-006
+5.2224000e+004    +8.4896959e-007    +9.6194344e-007
+5.2352000e+004    +8.0851686e-007    +9.1676162e-007
+5.2480000e+004    +7.9453861e-007    +1.0250488e-006
+5.2608000e+004    +7.9214846e-007    +1.0891732e-006
+5.2736000e+004    +7.7525630e-007    +1.0993519e-006
+5.2864000e+004    +7.5291376e-007    +1.0497139e-006
+5.2992000e+004    +7.5285999e-007    +1.0048251e-006
+5.3120000e+004    +8.0214789e-007    +1.0861686e-006
+5.3248000e+004    +7.7182420e-007    +1.0791161e-006
+5.3376000e+004    +7.6658716e-007    +1.0144315e-006
+5.3504000e+004    +7.4851062e-007    +1.0632798e-006
+5.3632000e+004    +7.8441957e-007    +1.0869668e-006
+5.3760000e+004    +7.3437951e-007    +1.0816510e-006
+5.3888000e+004    +7.2153165e-007    +9.9023009e-007
+5.4016000e+004    +7.5727877e-007    +1.0469802e-006
+5.4144000e+004    +7.4062501e-007    +1.0182780e-006
+5.4272000e+004    +7.3486103e-007    +1.0381706e-006
+5.4400000e+004    +7.3748311e-007    +1.0979865e-006
+5.4528000e+004    +7.6585525e-007    +1.1153519e-006
+5.4656000e+004    +7.4398946e-007    +1.1435250e-006
+5.4784000e+004    +7.0079744e-007    +1.0009425e-006
+5.4912000e+004    +6.9749740e-007    +1.0332036e-006
+5.5040000e+004    +1.1134139e-006    +1.0221190e-006
+5.5168000e+004    +1.8341642e-006    +1.0530212e-006
+5.5296000e+004    +1.1723324e-006    +1.0312531e-006
+5.5424000e+004    +3.4828554e-006    +1.0838195e-006
+5.5552000e+004    +1.2194366e-005    +1.1821326e-006
+5.5680000e+004    +9.9073250e-006    +1.2436302e-006
+5.5808000e+004    +1.4854135e-006    +1.1955351e-006
+5.5936000e+004    +7.1184593e-007    +1.1285535e-006
+5.6064000e+004    +6.9272738e-007    +1.1473583e-006
+5.6192000e+004    +6.9086036e-007    +1.0964276e-006
+5.6320000e+004    +7.2159025e-007    +1.0805827e-006
+5.6448000e+004    +7.2180342e-007    +1.0518899e-006
+5.6576000e+004    +7.0677521e-007    +1.0972657e-006
+5.6704000e+004    +6.7899748e-007    +1.1040549e-006
+5.6832000e+004    +6.4584134e-007    +1.1432325e-006
+5.6960000e+004    +6.8531585e-007    +1.2554219e-006
+5.7088000e+004    +7.0068512e-007    +1.2420801e-006
+5.7216000e+004    +6.6788880e-007    +1.1648957e-006
+5.7344000e+004    +6.3748234e-007    +1.2121402e-006
+5.7472000e+004    +6.6712954e-007    +1.0975187e-006
+5.7600000e+004    +6.2184222e-007    +1.2317830e-006
+5.7728000e+004    +6.4661970e-007    +1.1859534e-006
+5.7856000e+004    +6.4163800e-007    +1.1680245e-006
+5.7984000e+004    +6.3085923e-007    +1.1781042e-006
+5.8112000e+004    +6.5622652e-007    +1.2197098e-006
+5.8240000e+004    +6.9895395e-007    +1.1778545e-006
+5.8368000e+004    +6.9220505e-007    +1.1468746e-006
+5.8496000e+004    +6.5604502e-007    +1.0999556e-006
+5.8624000e+004    +6.6745559e-007    +1.1894142e-006
+5.8752000e+004    +6.3697087e-007    +1.2263016e-006
+5.8880000e+004    +6.4853015e-007    +1.2772798e-006
+5.9008000e+004    +6.3383078e-007    +1.2505010e-006
+5.9136000e+004    +6.2657318e-007    +1.2503912e-006
+5.9264000e+004    +6.4606257e-007    +1.1973716e-006
+5.9392000e+004    +6.3227941e-007    +1.2610099e-006
+5.9520000e+004    +6.2430706e-007    +1.2012152e-006
+5.9648000e+004    +6.1389289e-007    +1.2344923e-006
+5.9776000e+004    +6.0760431e-007    +1.2573324e-006
+5.9904000e+004    +5.9436940e-007    +1.2525801e-006
+6.0032000e+004    +5.8416015e-007    +1.2536037e-006
+6.0160000e+004    +6.3402848e-007    +1.2798727e-006
+6.0288000e+004    +6.3611685e-007    +1.2334923e-006
+6.0416000e+004    +6.3201844e-007    +1.3190730e-006
+6.0544000e+004    +6.0550781e-007    +1.3352224e-006
+6.0672000e+004    +5.8596845e-007    +1.3328394e-006
+6.0800000e+004    +6.2506632e-007    +1.2738122e-006
+6.0928000e+004    +6.2516722e-007    +1.2524659e-006
+6.1056000e+004    +6.2038691e-007    +1.2134758e-006
+6.1184000e+004    +6.1200183e-007    +1.2267056e-006
+6.1312000e+004    +5.9884530e-007    +1.2353763e-006
+6.1440000e+004    +5.9246946e-007    +1.2848936e-006
+6.1568000e+004    +5.8708190e-007    +1.3740314e-006
+6.1696000e+004    +5.8214653e-007    +1.3608329e-006
+6.1824000e+004    +5.7315640e-007    +1.3841249e-006
+6.1952000e+004    +5.7101886e-007    +1.3296179e-006
+6.2080000e+004    +5.8522261e-007    +1.3339637e-006
+6.2208000e+004    +6.1611649e-007    +1.3736317e-006
+6.2336000e+004    +6.0689155e-007    +1.2711521e-006
+6.2464000e+004    +6.0470455e-007    +1.2624895e-006
+6.2592000e+004    +6.0497018e-007    +1.2591173e-006
+6.2720000e+004    +5.8349030e-007    +1.3185806e-006
+6.2848000e+004    +5.6106040e-007    +1.3706818e-006
+6.2976000e+004    +5.4733488e-007    +1.3994472e-006
+6.3104000e+004    +5.6413717e-007    +1.4125006e-006
+6.3232000e+004    +5.6959868e-007    +1.3890819e-006
+6.3360000e+004    +5.6708018e-007    +1.2977332e-006
+6.3488000e+004    +5.7272922e-007    +1.2907403e-006
+6.3616000e+004    +5.6247160e-007    +1.3478691e-006
+6.3744000e+004    +5.4512606e-007    +1.3066247e-006
+6.3872000e+004    +5.5423243e-007    +1.3197277e-006
+6.4000000e+004    +5.7987614e-007    +1.3950979e-006
+6.4128000e+004    +5.4003971e-007    +1.4519671e-006
+6.4256000e+004    +5.3018766e-007    +1.3636103e-006
+6.4384000e+004    +5.3859662e-007    +1.3717810e-006
+6.4512000e+004    +5.2720162e-007    +1.4786134e-006
+6.4640000e+004    +5.2289823e-007    +1.4700292e-006
+6.4768000e+004    +5.4183278e-007    +1.3302501e-006
+6.4896000e+004    +5.2857121e-007    +1.2844069e-006
+6.5024000e+004    +5.2422035e-007    +1.4253441e-006
+6.5152000e+004    +5.3932570e-007    +1.5092278e-006
+6.5280000e+004    +5.2902118e-007    +1.4027854e-006
+6.5408000e+004    +5.1458744e-007    +1.3925207e-006
+6.5536000e+004    +5.1568583e-007    +1.5415505e-006
+6.5664000e+004    +5.2780109e-007    +1.4149950e-006
+6.5792000e+004    +5.0823405e-007    +1.3167636e-006
+6.5920000e+004    +5.0055678e-007    +1.3605759e-006
+6.6048000e+004    +5.0378833e-007    +1.4319336e-006
+6.6176000e+004    +5.1119287e-007    +1.4007969e-006
+6.6304000e+004    +5.3363215e-007    +1.5016130e-006
+6.6432000e+004    +5.2513747e-007    +1.4276087e-006
+6.6560000e+004    +5.2594703e-007    +1.3990385e-006
+6.6688000e+004    +5.0178278e-007    +1.5024854e-006
+6.6816000e+004    +4.6976558e-007    +1.5256452e-006
+6.6944000e+004    +4.7943780e-007    +1.3586442e-006
+6.7072000e+004    +5.0819386e-007    +1.3208555e-006
+6.7200000e+004    +5.0957112e-007    +1.4730765e-006
+6.7328000e+004    +5.1127591e-007    +1.4529048e-006
+6.7456000e+004    +5.0292948e-007    +1.3869758e-006
+6.7584000e+004    +5.3552679e-007    +1.2456746e-006
+6.7712000e+004    +5.3058886e-007    +1.4216773e-006
+6.7840000e+004    +4.9702663e-007    +1.5024409e-006
+6.7968000e+004    +5.1329010e-007    +1.4947569e-006
+6.8096000e+004    +5.2207446e-007    +1.5347530e-006
+6.8224000e+004    +4.8430257e-007    +1.5433474e-006
+6.8352000e+004    +4.7266548e-007    +1.4067540e-006
+6.8480000e+004    +4.9885375e-007    +1.4357008e-006
+6.8608000e+004    +5.1787259e-007    +1.5493117e-006
+6.8736000e+004    +4.8691459e-007    +1.5092030e-006
+6.8864000e+004    +4.7798761e-007    +1.4514731e-006
+6.8992000e+004    +5.0425206e-007    +1.5923788e-006
+6.9120000e+004    +4.9170728e-007    +1.5299379e-006
+6.9248000e+004    +4.6688095e-007    +1.5941229e-006
+6.9376000e+004    +4.7298008e-007    +1.6570971e-006
+6.9504000e+004    +4.8639203e-007    +1.5518484e-006
+6.9632000e+004    +4.8531712e-007    +1.4540315e-006
+6.9760000e+004    +4.8084377e-007    +1.4437866e-006
+6.9888000e+004    +4.5862782e-007    +1.4179127e-006
+7.0016000e+004    +4.5440743e-007    +1.4815499e-006
+7.0144000e+004    +1.1492469e-006    +1.6978074e-006
+7.0272000e+004    +1.8340615e-006    +1.9288941e-006
+7.0400000e+004    +8.8042259e-007    +1.7339919e-006
+7.0528000e+004    +4.6284879e-007    +1.6483796e-006
+7.0656000e+004    +5.6540216e-007    +1.6409398e-006
+7.0784000e+004    +8.9150012e-007    +1.6290845e-006
+7.0912000e+004    +6.4295961e-007    +1.4701228e-006
+7.1040000e+004    +4.5578506e-007    +1.5777947e-006
+7.1168000e+004    +4.4852564e-007    +1.5815931e-006
+7.1296000e+004    +4.5442391e-007    +1.5454211e-006
+7.1424000e+004    +4.4831344e-007    +1.5468370e-006
+7.1552000e+004    +4.6181680e-007    +1.5113752e-006
+7.1680000e+004    +4.8615340e-007    +1.5950561e-006
+7.1808000e+004    +4.6546521e-007    +1.6197869e-006
+7.1936000e+004    +4.4483562e-007    +1.5811938e-006
+7.2064000e+004    +4.5624867e-007    +1.6369737e-006
+7.2192000e+004    +4.4774382e-007    +1.5555365e-006
+7.2320000e+004    +4.5360540e-007    +1.5205480e-006
+7.2448000e+004    +4.4248284e-007    +1.6047403e-006
+7.2576000e+004    +4.3705137e-007    +1.5272341e-006
+7.2704000e+004    +4.2652530e-007    +1.5636858e-006
+7.2832000e+004    +4.3774918e-007    +1.5233588e-006
+7.2960000e+004    +4.4173871e-007    +1.4313756e-006
+7.3088000e+004    +4.4099434e-007    +1.5655893e-006
+7.3216000e+004    +4.3619758e-007    +1.6769577e-006
+7.3344000e+004    +4.3389477e-007    +1.6373260e-006
+7.3472000e+004    +4.4240852e-007    +1.5185327e-006
+7.3600000e+004    +4.4647382e-007    +1.5974659e-006
+7.3728000e+004    +4.4065555e-007    +1.7250384e-006
+7.3856000e+004    +4.4054912e-007    +1.7718985e-006
+7.3984000e+004    +4.5240023e-007    +1.6181000e-006
+7.4112000e+004    +4.4000095e-007    +1.6592126e-006
+7.4240000e+004    +4.3080257e-007    +1.7531083e-006
+7.4368000e+004    +4.3615782e-007    +1.7393614e-006
+7.4496000e+004    +4.4151807e-007    +1.6075054e-006
+7.4624000e+004    +4.3810257e-007    +1.5474910e-006
+7.4752000e+004    +4.3718143e-007    +1.7045372e-006
+7.4880000e+004    +4.3335677e-007    +1.7673926e-006
+7.5008000e+004    +4.2350470e-007    +1.6131119e-006
+7.5136000e+004    +4.2757748e-007    +1.6650890e-006
+7.5264000e+004    +4.3160318e-007    +1.6366664e-006
+7.5392000e+004    +4.3698421e-007    +1.7228294e-006
+7.5520000e+004    +4.1875379e-007    +1.6701755e-006
+7.5648000e+004    +4.1089956e-007    +1.5757640e-006
+7.5776000e+004    +4.2827708e-007    +1.6462996e-006
+7.5904000e+004    +4.2900280e-007    +1.8073129e-006
+7.6032000e+004    +4.2526929e-007    +1.7999620e-006
+7.6160000e+004    +4.0329095e-007    +1.6196624e-006
+7.6288000e+004    +3.9805201e-007    +1.6539725e-006
+7.6416000e+004    +4.0681675e-007    +1.6157690e-006
+7.6544000e+004    +4.2119675e-007    +1.6568861e-006
+7.6672000e+004    +4.4020629e-007    +1.5282959e-006
+7.6800000e+004    +4.2530618e-007    +5.5428050e-006
+7.6928000e+004    +4.0602782e-007    +9.9662948e-006
+7.7056000e+004    +4.0865805e-007    +4.9551622e-006
+7.7184000e+004    +4.1632907e-007    +1.6759141e-006
+7.7312000e+004    +3.9790564e-007    +1.7439431e-006
+7.7440000e+004    +4.0061960e-007    +1.7373383e-006
+7.7568000e+004    +5.3213608e-007    +1.7655231e-006
+7.7696000e+004    +8.6277743e-007    +1.7238626e-006
+7.7824000e+004    +5.6960306e-007    +1.6691104e-006
+7.7952000e+004    +4.0935277e-007    +1.7196791e-006
+7.8080000e+004    +4.3144539e-007    +1.6162924e-006
+7.8208000e+004    +4.2142619e-007    +1.7622867e-006
+7.8336000e+004    +4.1353638e-007    +1.8325579e-006
+7.8464000e+004    +3.7532672e-007    +1.7259231e-006
+7.8592000e+004    +3.9172548e-007    +1.7842209e-006
+7.8720000e+004    +3.9473431e-007    +1.8502342e-006
+7.8848000e+004    +4.1097761e-007    +1.8624224e-006
+7.8976000e+004    +4.0935728e-007    +1.7829500e-006
+7.9104000e+004    +3.9639036e-007    +1.8652485e-006
+7.9232000e+004    +4.0116583e-007    +1.8440181e-006
+7.9360000e+004    +4.1286810e-007    +1.6650780e-006
+7.9488000e+004    +4.7480637e-007    +1.7521443e-006
+7.9616000e+004    +4.3104671e-007    +1.8728126e-006
+7.9744000e+004    +3.9323760e-007    +1.9378244e-006
+7.9872000e+004    +3.9398569e-007    +1.7554004e-006
+8.0000000e+004    +3.9132226e-007    +1.7260387e-006
+8.0128000e+004    +4.1423030e-007    +1.7995351e-006
+8.0256000e+004    +4.1836773e-007    +1.7207519e-006
+8.0384000e+004    +3.8565315e-007    +1.8059105e-006
+8.0512000e+004    +3.7616709e-007    +1.8342892e-006
+8.0640000e+004    +3.9097998e-007    +1.7749867e-006
+8.0768000e+004    +3.9663982e-007    +1.8417358e-006
+8.0896000e+004    +3.8613575e-007    +1.8479258e-006
+8.1024000e+004    +3.8255138e-007    +1.6746577e-006
+8.1152000e+004    +3.9090270e-007    +1.6212992e-006
+8.1280000e+004    +3.9378978e-007    +1.6837490e-006
+8.1408000e+004    +4.0118212e-007    +1.7601094e-006
+8.1536000e+004    +3.9897043e-007    +1.8223750e-006
+8.1664000e+004    +4.3215988e-007    +1.9101685e-006
+8.1792000e+004    +4.2670752e-007    +1.9103593e-006
+8.1920000e+004    +4.0708485e-007    +1.9419010e-006
+8.2048000e+004    +4.1174587e-007    +1.8540796e-006
+8.2176000e+004    +4.0076785e-007    +1.7762968e-006
+8.2304000e+004    +3.8606072e-007    +1.8051790e-006
+8.2432000e+004    +3.7493996e-007    +1.8472442e-006
+8.2560000e+004    +3.8205815e-007    +1.7571339e-006
+8.2688000e+004    +3.6758533e-007    +1.8484352e-006
+8.2816000e+004    +3.7729882e-007    +1.9769848e-006
+8.2944000e+004    +3.6616339e-007    +1.8360421e-006
+8.3072000e+004    +3.8111799e-007    +1.7137135e-006
+8.3200000e+004    +3.7327763e-007    +1.6626994e-006
+8.3328000e+004    +3.7527727e-007    +1.7356986e-006
+8.3456000e+004    +3.7675031e-007    +1.9466615e-006
+8.3584000e+004    +3.6580136e-007    +2.0206362e-006
+8.3712000e+004    +3.7067321e-007    +1.8287028e-006
+8.3840000e+004    +3.6699936e-007    +1.9019710e-006
+8.3968000e+004    +3.6233132e-007    +1.9300974e-006
+8.4096000e+004    +3.8361719e-007    +1.9150930e-006
+8.4224000e+004    +3.5828828e-007    +1.8701721e-006
+8.4352000e+004    +3.4494303e-007    +1.8044577e-006
+8.4480000e+004    +3.4460803e-007    +1.6986913e-006
+8.4608000e+004    +3.6209946e-007    +1.8757925e-006
+8.4736000e+004    +3.6636848e-007    +1.8401995e-006
+8.4864000e+004    +3.7128498e-007    +1.8327813e-006
+8.4992000e+004    +3.6654393e-007    +1.7293280e-006
+8.5120000e+004    +3.4360983e-007    +1.8142138e-006
+8.5248000e+004    +3.4440225e-007    +1.9231231e-006
+8.5376000e+004    +3.3701957e-007    +1.9351198e-006
+8.5504000e+004    +3.3311301e-007    +1.8822416e-006
+8.5632000e+004    +3.4263746e-007    +1.7541711e-006
+8.5760000e+004    +3.3983687e-007    +1.8068962e-006
+8.5888000e+004    +3.3231555e-007    +1.8630012e-006
+8.6016000e+004    +3.2536695e-007    +1.9241390e-006
+8.6144000e+004    +3.0389145e-007    +1.9557472e-006
+8.6272000e+004    +3.0580060e-007    +1.8674349e-006
+8.6400000e+004    +3.1127553e-007    +1.8464920e-006
+8.6528000e+004    +3.2855655e-007    +1.9636652e-006
+8.6656000e+004    +3.1349188e-007    +1.9719857e-006
+8.6784000e+004    +3.1148988e-007    +1.8486442e-006
+8.6912000e+004    +3.0391146e-007    +1.7691342e-006
+8.7040000e+004    +2.9804104e-007    +1.8148094e-006
+8.7168000e+004    +3.0653612e-007    +1.9506388e-006
+8.7296000e+004    +3.0282462e-007    +1.8472036e-006
+8.7424000e+004    +3.0916274e-007    +1.9938659e-006
+8.7552000e+004    +3.0135692e-007    +1.8584677e-006
+8.7680000e+004    +2.8330254e-007    +1.8038932e-006
+8.7808000e+004    +3.0934848e-007    +1.9418712e-006
+8.7936000e+004    +3.6542681e-007    +1.9727436e-006
+8.8064000e+004    +3.1557917e-007    +1.8970782e-006
+8.8192000e+004    +3.0501897e-007    +1.8735776e-006
+8.8320000e+004    +3.2203218e-007    +1.8743143e-006
+8.8448000e+004    +3.2490323e-007    +1.9476556e-006
+8.8576000e+004    +3.3184190e-007    +1.8622956e-006
+8.8704000e+004    +3.2387962e-007    +1.8521529e-006
+8.8832000e+004    +3.1764196e-007    +1.9523079e-006
+8.8960000e+004    +3.4387554e-007    +2.0596647e-006
+8.9088000e+004    +3.5727399e-007    +2.0267219e-006
+8.9216000e+004    +4.0866209e-007    +1.9130230e-006
+8.9344000e+004    +4.7355894e-007    +1.8444717e-006
+8.9472000e+004    +5.1636005e-007    +1.9071800e-006
+8.9600000e+004    +5.5789747e-007    +1.9600873e-006
+8.9728000e+004    +5.8123322e-007    +1.9906176e-006
+8.9856000e+004    +5.5893423e-007    +1.9524173e-006
+8.9984000e+004    +5.2502219e-007    +1.9990282e-006
+9.0112000e+004    +4.5388538e-007    +1.9394420e-006
+9.0240000e+004    +4.3750651e-007    +1.9059449e-006
+9.0368000e+004    +4.6642288e-007    +1.7425479e-006
+9.0496000e+004    +5.2085778e-007    +1.8604011e-006
+9.0624000e+004    +5.1987564e-007    +1.8221569e-006
+9.0752000e+004    +4.5859107e-007    +1.8936008e-006
+9.0880000e+004    +4.3222724e-007    +1.9882236e-006
+9.1008000e+004    +5.1889424e-007    +2.1246117e-006
+9.1136000e+004    +5.3121204e-007    +1.8514514e-006
+9.1264000e+004    +4.7371077e-007    +1.8679250e-006
+9.1392000e+004    +4.9901809e-007    +1.9052587e-006
+9.1520000e+004    +5.0011181e-007    +1.8297994e-006
+9.1648000e+004    +4.4824847e-007    +1.8666949e-006
+9.1776000e+004    +4.5872906e-007    +1.7502234e-006
+9.1904000e+004    +4.8576652e-007    +1.8239824e-006
+9.2032000e+004    +4.6772956e-007    +1.9647523e-006
+9.2160000e+004    +5.1095492e-007    +1.7894631e-006
+9.2288000e+004    +4.6800338e-007    +1.7568753e-006
+9.2416000e+004    +5.0764231e-007    +1.8689016e-006
+9.2544000e+004    +4.8861335e-007    +1.8053831e-006
+9.2672000e+004    +5.0526626e-007    +1.8447573e-006
+9.2800000e+004    +4.5918912e-007    +1.8603154e-006
+9.2928000e+004    +5.0253317e-007    +1.9981067e-006
+9.3056000e+004    +4.6947579e-007    +1.9823885e-006
+9.3184000e+004    +4.9303503e-007    +1.7820986e-006
+9.3312000e+004    +4.2776719e-007    +1.6770332e-006
+9.3440000e+004    +4.5350578e-007    +1.7893590e-006
+9.3568000e+004    +4.6407158e-007    +1.9224728e-006
+9.3696000e+004    +4.6960159e-007    +1.9835859e-006
+9.3824000e+004    +5.1458062e-007    +1.8922104e-006
+9.3952000e+004    +4.0085322e-007    +1.8355322e-006
+9.4080000e+004    +4.6635887e-007    +1.8931851e-006
+9.4208000e+004    +4.9775406e-007    +1.9354195e-006
+9.4336000e+004    +4.2062970e-007    +1.9147501e-006
+9.4464000e+004    +5.3173545e-007    +1.9626866e-006
+9.4592000e+004    +5.4297021e-007    +1.7920132e-006
+9.4720000e+004    +4.1973470e-007    +1.7201002e-006
+9.4848000e+004    +4.1201994e-007    +1.8987015e-006
+9.4976000e+004    +4.9006343e-007    +1.9304280e-006
+9.5104000e+004    +5.0591296e-007    +1.8512197e-006
+9.5232000e+004    +4.1187204e-007    +1.8290401e-006
+9.5360000e+004    +3.3415151e-007    +1.7275516e-006
+9.5488000e+004    +3.7241634e-007    +1.7762071e-006
+9.5616000e+004    +4.5364521e-007    +1.9700726e-006
+9.5744000e+004    +5.4899539e-007    +1.8166156e-006
+9.5872000e+004    +5.7192926e-007    +1.9495383e-006
+9.6000000e+004    +5.3837846e-007    +1.9478352e-006
+9.6128000e+004    +4.8690657e-007    +1.8592923e-006
+9.6256000e+004    +4.1917423e-007    +1.9909346e-006
+9.6384000e+004    +3.6054433e-007    +1.9956642e-006
+9.6512000e+004    +3.2678938e-007    +1.9969311e-006
+9.6640000e+004    +2.9515027e-007    +1.7878920e-006
+9.6768000e+004    +2.7617540e-007    +1.6820417e-006
+9.6896000e+004    +2.5844369e-007    +1.9055997e-006
+9.7024000e+004    +2.9981072e-007    +2.0935199e-006
+9.7152000e+004    +2.6967044e-007    +1.9856298e-006
+9.7280000e+004    +2.3363346e-007    +1.7639206e-006
+9.7408000e+004    +2.0818069e-007    +1.7439968e-006
+9.7536000e+004    +2.3021747e-007    +1.7696451e-006
+9.7664000e+004    +2.4889442e-007    +1.7445694e-006
+9.7792000e+004    +2.6735819e-007    +1.8972803e-006
+9.7920000e+004    +3.4038320e-007    +1.8601744e-006
+9.8048000e+004    +2.9572539e-007    +1.8080731e-006
+9.8176000e+004    +2.6910934e-007    +1.8999860e-006
+9.8304000e+004    +2.6128026e-007    +1.8959767e-006
+9.8432000e+004    +2.4321781e-007    +1.7282537e-006
+9.8560000e+004    +2.6294023e-007    +1.8602520e-006
+9.8688000e+004    +2.5948805e-007    +1.6529394e-006
+9.8816000e+004    +2.2562384e-007    +1.6547898e-006
+9.8944000e+004    +2.4460476e-007    +1.7945019e-006
+9.9072000e+004    +2.5361268e-007    +1.9159068e-006
+9.9200000e+004    +2.3976750e-007    +1.8986723e-006
+9.9328000e+004    +2.4583574e-007    +1.8761611e-006
+9.9456000e+004    +2.3598493e-007    +1.9646702e-006
+9.9584000e+004    +2.2059467e-007    +1.8703262e-006
+9.9712000e+004    +2.4896522e-007    +1.7623952e-006
+9.9840000e+004    +2.3963827e-007    +1.8191125e-006
+9.9968000e+004    +2.4184510e-007    +1.7490055e-006
+1.0009600e+005    +2.2703132e-007    +1.6858208e-006
+1.0022400e+005    +2.1323260e-007    +1.8024439e-006
+1.0035200e+005    +2.1850857e-007    +1.7829324e-006
+1.0048000e+005    +2.0433905e-007    +1.6115009e-006
+1.0060800e+005    +1.9932838e-007    +1.7182767e-006
+1.0073600e+005    +1.9820315e-007    +1.8473619e-006
+1.0086400e+005    +1.9589191e-007    +1.7538052e-006
+1.0099200e+005    +1.8240306e-007    +1.7697714e-006
+1.0112000e+005    +1.7554447e-007    +1.7465723e-006
+1.0124800e+005    +1.8171922e-007    +1.7981466e-006
+1.0137600e+005    +1.8084324e-007    +1.8001497e-006
+1.0150400e+005    +1.8798005e-007    +1.7345288e-006
+1.0163200e+005    +1.9683753e-007    +1.7862594e-006
+1.0176000e+005    +1.9070963e-007    +1.9027793e-006
+1.0188800e+005    +1.9593192e-007    +1.9528118e-006
+1.0201600e+005    +1.9187277e-007    +1.7415647e-006
+1.0214400e+005    +1.9130964e-007    +1.6801848e-006
+1.0227200e+005    +1.8202013e-007    +1.7364305e-006
