# North DC Val: 0.6483191700000001 VoltsSouth DC Val: 0.59388675 Volts
# SR785 Measurement - Timestamp: Jun 13 2020 - 10:49:57
# Parameter File: /home/controls/Git/cit_ctnlab/ctn_scripts/TransRINSpecLong.yml
#---------- Measurement Setup ------------
# Start Frequency (Hz): 0.000000
# Frequency Span (Hz): 800.000000
# Frequency Resolution: 800
# Number of Averages: 100
# Averaging Mode: RMS
# Window function: Hanning
#---------- Measurement Parameters ----------
# Measurement Group:  "FFT" "FFT"
# Measurements:  "FFT 1" "FFT 2"
# View:  "Log Magnitude" "Log Magnitude"
# Unit:  "Vrms/rtHzVrms/rtHz" "Vrms/rtHz"
#---------- Input Parameters ----------
# Input Source: Analog
# Input Mode: Single ended, Single ended
# Input Grounding: Float, Float
# Input Coupling: AC, AC
# Input Range: -36.0dBVpk, -36.0dBVpk
# Auto Range: Off, Off
# Auto Range Mode: Tracking, Tracking
# Anti-Aliasing Filter: On, On
#---------- Source Parameters ----------
# Source Type: Sine
# Source Amplitude: 500.0mVpk
# Source On: 0

#---------- Measurement Data ----------
# [Freq(Hz) Display 0(Vrms/rtHzVrms/rtHz) Display 1(Vrms/rtHz) ]
+0.0000000e+000    +6.7444507e-004    +1.9175441e-004
+1.0000000e+000    +4.9029215e-004    +1.1342940e-004
+2.0000000e+000    +3.3710469e-004    +2.7194115e-005
+3.0000000e+000    +3.0346031e-004    +1.4089536e-005
+4.0000000e+000    +1.1713385e-004    +6.2925847e-006
+5.0000000e+000    +3.7826361e-005    +3.3231372e-006
+6.0000000e+000    +1.6971253e-005    +2.5660524e-006
+7.0000000e+000    +1.2914265e-005    +2.0113948e-006
+8.0000000e+000    +1.0216017e-005    +1.4704635e-006
+9.0000000e+000    +9.2671999e-006    +1.1699408e-006
+1.0000000e+001    +1.2402513e-005    +1.1750438e-006
+1.1000000e+001    +1.1132867e-005    +9.9825138e-007
+1.2000000e+001    +5.8634432e-006    +8.2083812e-007
+1.3000000e+001    +4.8838378e-006    +6.7209362e-007
+1.4000000e+001    +5.2116038e-006    +6.0258702e-007
+1.5000000e+001    +3.9761958e-006    +5.6967809e-007
+1.6000000e+001    +3.8484145e-006    +4.9586401e-007
+1.7000000e+001    +5.3011840e-006    +4.6252723e-007
+1.8000000e+001    +4.5999145e-006    +4.1815281e-007
+1.9000000e+001    +2.2271097e-006    +3.4258932e-007
+2.0000000e+001    +1.6003029e-006    +3.1157987e-007
+2.1000000e+001    +1.6464315e-006    +3.2895036e-007
+2.2000000e+001    +1.3559722e-006    +2.9628796e-007
+2.3000000e+001    +1.4210749e-006    +2.7191817e-007
+2.4000000e+001    +1.7069325e-006    +2.4847557e-007
+2.5000000e+001    +1.6815192e-006    +2.6593011e-007
+2.6000000e+001    +1.0819124e-006    +2.2569965e-007
+2.7000000e+001    +8.0225624e-007    +2.0410405e-007
+2.8000000e+001    +8.3314131e-007    +1.9731378e-007
+2.9000000e+001    +1.0029622e-006    +1.7840368e-007
+3.0000000e+001    +1.1822156e-006    +1.7040207e-007
+3.1000000e+001    +1.1679591e-006    +1.7954873e-007
+3.2000000e+001    +1.0489075e-006    +1.7886302e-007
+3.3000000e+001    +7.0796506e-007    +1.7628480e-007
+3.4000000e+001    +1.0381638e-006    +1.6184234e-007
+3.5000000e+001    +6.9592613e-007    +1.4158265e-007
+3.6000000e+001    +5.0755762e-007    +1.5085585e-007
+3.7000000e+001    +5.4558649e-007    +1.4335996e-007
+3.8000000e+001    +5.0968976e-007    +1.4310284e-007
+3.9000000e+001    +4.5307976e-007    +1.2586004e-007
+4.0000000e+001    +3.4577042e-007    +1.2123996e-007
+4.1000000e+001    +3.2619431e-007    +1.1864677e-007
+4.2000000e+001    +3.5291791e-007    +1.2683081e-007
+4.3000000e+001    +3.8796949e-007    +1.2007749e-007
+4.4000000e+001    +3.5673386e-007    +1.1028531e-007
+4.5000000e+001    +3.5137637e-007    +1.0638859e-007
+4.6000000e+001    +3.5214572e-007    +1.0875767e-007
+4.7000000e+001    +3.5099001e-007    +1.0893539e-007
+4.8000000e+001    +3.8120672e-007    +1.0261603e-007
+4.9000000e+001    +3.3891465e-007    +1.0715563e-007
+5.0000000e+001    +3.5095070e-007    +1.0200427e-007
+5.1000000e+001    +3.7003113e-007    +8.8997446e-008
+5.2000000e+001    +3.7497168e-007    +9.2097977e-008
+5.3000000e+001    +3.9677482e-007    +9.6950032e-008
+5.4000000e+001    +4.1733776e-007    +9.0450186e-008
+5.5000000e+001    +4.1109450e-007    +8.7032134e-008
+5.6000000e+001    +4.1161027e-007    +9.1653014e-008
+5.7000000e+001    +4.1837876e-007    +8.0959708e-008
+5.8000000e+001    +4.7275682e-007    +8.0383003e-008
+5.9000000e+001    +5.4682067e-007    +9.1512440e-008
+6.0000000e+001    +6.5008430e-007    +1.1251080e-007
+6.1000000e+001    +5.3293246e-007    +8.9972872e-008
+6.2000000e+001    +5.3397736e-007    +7.6171254e-008
+6.3000000e+001    +5.5496253e-007    +7.0937027e-008
+6.4000000e+001    +5.4736790e-007    +7.7222687e-008
+6.5000000e+001    +5.4442739e-007    +7.5914436e-008
+6.6000000e+001    +5.2123647e-007    +7.2558962e-008
+6.7000000e+001    +5.2968437e-007    +7.2839455e-008
+6.8000000e+001    +5.5606159e-007    +6.8182736e-008
+6.9000000e+001    +5.3618163e-007    +6.4660618e-008
+7.0000000e+001    +4.1473089e-007    +6.5819791e-008
+7.1000000e+001    +3.4552338e-007    +6.5599316e-008
+7.2000000e+001    +3.1754502e-007    +6.2147222e-008
+7.3000000e+001    +2.9662192e-007    +6.4720780e-008
+7.4000000e+001    +2.9607139e-007    +6.3846933e-008
+7.5000000e+001    +2.8006016e-007    +6.2302242e-008
+7.6000000e+001    +2.7556658e-007    +6.3729615e-008
+7.7000000e+001    +2.5395656e-007    +6.0763895e-008
+7.8000000e+001    +2.4303762e-007    +6.2670665e-008
+7.9000000e+001    +2.1295254e-007    +5.5036903e-008
+8.0000000e+001    +2.0429464e-007    +5.3125692e-008
+8.1000000e+001    +2.1308585e-007    +5.4504703e-008
+8.2000000e+001    +2.1688395e-007    +5.4724655e-008
+8.3000000e+001    +1.8801884e-007    +5.2603770e-008
+8.4000000e+001    +1.6866281e-007    +5.5181335e-008
+8.5000000e+001    +1.7695110e-007    +5.4303044e-008
+8.6000000e+001    +1.7351631e-007    +5.1548767e-008
+8.7000000e+001    +1.5476252e-007    +5.2119816e-008
+8.8000000e+001    +1.5614332e-007    +5.4609412e-008
+8.9000000e+001    +1.3980220e-007    +5.6857832e-008
+9.0000000e+001    +1.3583042e-007    +5.3895750e-008
+9.1000000e+001    +1.3531316e-007    +5.0778002e-008
+9.2000000e+001    +1.3561926e-007    +5.0251604e-008
+9.3000000e+001    +1.3778914e-007    +4.7439574e-008
+9.4000000e+001    +1.2957072e-007    +5.0421164e-008
+9.5000000e+001    +1.2737506e-007    +4.9732030e-008
+9.6000000e+001    +1.2623009e-007    +5.2304063e-008
+9.7000000e+001    +1.3496269e-007    +5.3192462e-008
+9.8000000e+001    +1.3064769e-007    +5.2549161e-008
+9.9000000e+001    +1.3307221e-007    +5.0986269e-008
+1.0000000e+002    +1.3363356e-007    +4.8488783e-008
+1.0100000e+002    +1.2143434e-007    +5.0030842e-008
+1.0200000e+002    +1.1810454e-007    +4.6830458e-008
+1.0300000e+002    +1.1921664e-007    +4.5274607e-008
+1.0400000e+002    +1.1930122e-007    +4.7605027e-008
+1.0500000e+002    +1.1326240e-007    +4.7929252e-008
+1.0600000e+002    +1.1198602e-007    +4.9341462e-008
+1.0700000e+002    +1.0889963e-007    +4.7289440e-008
+1.0800000e+002    +1.0445150e-007    +4.9533128e-008
+1.0900000e+002    +1.0944526e-007    +4.7415984e-008
+1.1000000e+002    +1.1803971e-007    +4.3681151e-008
+1.1100000e+002    +1.2497460e-007    +4.2639421e-008
+1.1200000e+002    +1.2522020e-007    +4.4551651e-008
+1.1300000e+002    +1.1826285e-007    +4.4318348e-008
+1.1400000e+002    +1.2911627e-007    +4.5886303e-008
+1.1500000e+002    +1.1624987e-007    +4.2594408e-008
+1.1600000e+002    +1.1633811e-007    +4.4131259e-008
+1.1700000e+002    +1.1541964e-007    +4.7986806e-008
+1.1800000e+002    +1.1968078e-007    +4.4997236e-008
+1.1900000e+002    +5.3599331e-007    +4.6631946e-008
+1.2000000e+002    +1.0551669e-006    +4.9491049e-008
+1.2100000e+002    +5.4016840e-007    +4.7550543e-008
+1.2200000e+002    +1.2252545e-007    +4.1825750e-008
+1.2300000e+002    +1.3523592e-007    +4.6259071e-008
+1.2400000e+002    +1.5351912e-007    +4.5887312e-008
+1.2500000e+002    +1.6730607e-007    +4.5370250e-008
+1.2600000e+002    +1.7095978e-007    +4.4240462e-008
+1.2700000e+002    +1.7262150e-007    +4.2107239e-008
+1.2800000e+002    +1.6407398e-007    +4.2813980e-008
+1.2900000e+002    +1.5683575e-007    +4.1538073e-008
+1.3000000e+002    +1.5143286e-007    +4.2693433e-008
+1.3100000e+002    +1.2975607e-007    +4.4756735e-008
+1.3200000e+002    +1.2932058e-007    +4.2603105e-008
+1.3300000e+002    +1.3188138e-007    +4.2937977e-008
+1.3400000e+002    +1.3115935e-007    +4.8205322e-008
+1.3500000e+002    +1.2046242e-007    +4.7157794e-008
+1.3600000e+002    +1.2922520e-007    +4.4003475e-008
+1.3700000e+002    +1.2696637e-007    +4.2412314e-008
+1.3800000e+002    +1.4078726e-007    +4.4760174e-008
+1.3900000e+002    +1.5155895e-007    +4.4236433e-008
+1.4000000e+002    +1.4835260e-007    +4.4890896e-008
+1.4100000e+002    +1.7016501e-007    +4.4173774e-008
+1.4200000e+002    +2.1940215e-007    +4.3172449e-008
+1.4300000e+002    +3.4084994e-007    +4.0825039e-008
+1.4400000e+002    +5.6040471e-007    +4.2741412e-008
+1.4500000e+002    +7.2775583e-007    +4.3911630e-008
+1.4600000e+002    +6.4428673e-007    +4.3253820e-008
+1.4700000e+002    +4.2669581e-007    +4.2256694e-008
+1.4800000e+002    +2.8495282e-007    +4.1203485e-008
+1.4900000e+002    +1.8465182e-007    +4.3690889e-008
+1.5000000e+002    +1.5831064e-007    +4.3076618e-008
+1.5100000e+002    +2.3808020e-007    +4.0024105e-008
+1.5200000e+002    +1.7407751e-007    +4.1373486e-008
+1.5300000e+002    +1.1728101e-007    +4.2189427e-008
+1.5400000e+002    +1.2978300e-007    +4.1586855e-008
+1.5500000e+002    +1.4336830e-007    +4.1293340e-008
+1.5600000e+002    +1.1885108e-007    +4.1230457e-008
+1.5700000e+002    +9.9524399e-008    +4.0516344e-008
+1.5800000e+002    +9.6185047e-008    +4.4229679e-008
+1.5900000e+002    +8.9522253e-008    +4.9741313e-008
+1.6000000e+002    +8.8726310e-008    +4.8913989e-008
+1.6100000e+002    +9.5048307e-008    +4.4948500e-008
+1.6200000e+002    +9.4075268e-008    +4.2387359e-008
+1.6300000e+002    +9.6248854e-008    +4.1901867e-008
+1.6400000e+002    +9.2293043e-008    +4.4372491e-008
+1.6500000e+002    +8.6264670e-008    +4.6790422e-008
+1.6600000e+002    +8.6094069e-008    +4.7222560e-008
+1.6700000e+002    +7.8742765e-008    +4.6316956e-008
+1.6800000e+002    +7.9819877e-008    +4.5113786e-008
+1.6900000e+002    +8.3337461e-008    +4.4341856e-008
+1.7000000e+002    +8.0021614e-008    +4.6115606e-008
+1.7100000e+002    +7.7282657e-008    +4.2409379e-008
+1.7200000e+002    +7.8524593e-008    +4.0870113e-008
+1.7300000e+002    +8.5375930e-008    +4.2915779e-008
+1.7400000e+002    +7.9544115e-008    +4.5008552e-008
+1.7500000e+002    +7.9210146e-008    +4.3180464e-008
+1.7600000e+002    +7.6295883e-008    +4.2046349e-008
+1.7700000e+002    +7.7018278e-008    +4.2132857e-008
+1.7800000e+002    +7.7343095e-008    +4.2857721e-008
+1.7900000e+002    +2.6393667e-007    +6.2640396e-008
+1.8000000e+002    +5.2862345e-007    +9.8642019e-008
+1.8100000e+002    +2.7567856e-007    +5.9939588e-008
+1.8200000e+002    +8.3866084e-008    +4.0962075e-008
+1.8300000e+002    +8.1430500e-008    +4.6275680e-008
+1.8400000e+002    +8.1754351e-008    +4.4113577e-008
+1.8500000e+002    +7.9816111e-008    +3.8714909e-008
+1.8600000e+002    +8.4954301e-008    +4.4657288e-008
+1.8700000e+002    +8.3889475e-008    +4.3375856e-008
+1.8800000e+002    +8.2153690e-008    +4.1688576e-008
+1.8900000e+002    +8.3874646e-008    +4.2113527e-008
+1.9000000e+002    +7.6459159e-008    +4.3136584e-008
+1.9100000e+002    +7.4818523e-008    +4.5286939e-008
+1.9200000e+002    +7.7323989e-008    +4.6443656e-008
+1.9300000e+002    +7.6202710e-008    +4.7588777e-008
+1.9400000e+002    +8.0217163e-008    +5.0166708e-008
+1.9500000e+002    +7.9518010e-008    +4.6037496e-008
+1.9600000e+002    +8.1474319e-008    +4.5612545e-008
+1.9700000e+002    +7.6010686e-008    +4.3123087e-008
+1.9800000e+002    +7.7546233e-008    +4.3514760e-008
+1.9900000e+002    +8.0533006e-008    +4.3633026e-008
+2.0000000e+002    +8.3618197e-008    +4.7292502e-008
+2.0100000e+002    +7.3586705e-008    +4.9463235e-008
+2.0200000e+002    +6.9999537e-008    +4.6691632e-008
+2.0300000e+002    +7.4550222e-008    +4.5270582e-008
+2.0400000e+002    +7.4446419e-008    +4.9228152e-008
+2.0500000e+002    +7.3944200e-008    +4.5759116e-008
+2.0600000e+002    +7.2640347e-008    +4.4156316e-008
+2.0700000e+002    +6.9877750e-008    +4.2981231e-008
+2.0800000e+002    +7.2923392e-008    +4.5370300e-008
+2.0900000e+002    +7.1047090e-008    +4.4260236e-008
+2.1000000e+002    +6.6475835e-008    +4.6329927e-008
+2.1100000e+002    +6.8546562e-008    +4.6438199e-008
+2.1200000e+002    +6.9091875e-008    +4.8397567e-008
+2.1300000e+002    +6.5211530e-008    +4.7098855e-008
+2.1400000e+002    +7.6506105e-008    +4.6829328e-008
+2.1500000e+002    +7.1157551e-008    +4.7470838e-008
+2.1600000e+002    +8.3604064e-008    +4.5693398e-008
+2.1700000e+002    +1.1916272e-007    +4.5750074e-008
+2.1800000e+002    +8.9911744e-008    +4.8859455e-008
+2.1900000e+002    +6.7177417e-008    +4.7670881e-008
+2.2000000e+002    +6.8489761e-008    +4.5287187e-008
+2.2100000e+002    +7.0934767e-008    +4.7525543e-008
+2.2200000e+002    +7.3868407e-008    +5.0534059e-008
+2.2300000e+002    +7.2145085e-008    +4.4937003e-008
+2.2400000e+002    +7.0795728e-008    +4.6348294e-008
+2.2500000e+002    +6.1550324e-008    +4.6669079e-008
+2.2600000e+002    +7.2673295e-008    +4.5343061e-008
+2.2700000e+002    +7.2496533e-008    +4.4918750e-008
+2.2800000e+002    +6.8694305e-008    +5.0750078e-008
+2.2900000e+002    +6.1866729e-008    +4.9695895e-008
+2.3000000e+002    +6.4807672e-008    +4.9046502e-008
+2.3100000e+002    +6.0057445e-008    +4.8409309e-008
+2.3200000e+002    +6.4600584e-008    +4.8805841e-008
+2.3300000e+002    +7.0270822e-008    +5.1121869e-008
+2.3400000e+002    +7.0520244e-008    +5.0662226e-008
+2.3500000e+002    +6.6464885e-008    +4.9580681e-008
+2.3600000e+002    +6.3061684e-008    +4.5590216e-008
+2.3700000e+002    +6.3179229e-008    +4.9557009e-008
+2.3800000e+002    +6.2358637e-008    +4.7767809e-008
+2.3900000e+002    +1.7513652e-007    +5.0467968e-008
+2.4000000e+002    +3.2365779e-007    +5.3625051e-008
+2.4100000e+002    +1.7044343e-007    +5.1007323e-008
+2.4200000e+002    +6.7459546e-008    +4.7558792e-008
+2.4300000e+002    +6.5008500e-008    +5.1658684e-008
+2.4400000e+002    +6.9218601e-008    +5.3543275e-008
+2.4500000e+002    +6.5384384e-008    +5.0626305e-008
+2.4600000e+002    +6.8439093e-008    +4.8544823e-008
+2.4700000e+002    +7.0200109e-008    +4.8599912e-008
+2.4800000e+002    +6.9381741e-008    +4.8847120e-008
+2.4900000e+002    +7.2318052e-008    +4.9477737e-008
+2.5000000e+002    +7.5727208e-008    +5.3601624e-008
+2.5100000e+002    +7.8483822e-008    +5.3860255e-008
+2.5200000e+002    +7.1509689e-008    +5.2510405e-008
+2.5300000e+002    +6.9159803e-008    +5.0863875e-008
+2.5400000e+002    +7.2976576e-008    +4.7820706e-008
+2.5500000e+002    +8.4837232e-008    +5.4313002e-008
+2.5600000e+002    +9.7931185e-008    +5.3913269e-008
+2.5700000e+002    +1.0557834e-007    +5.4601138e-008
+2.5800000e+002    +9.6096379e-008    +5.2541949e-008
+2.5900000e+002    +1.1811699e-007    +5.5020770e-008
+2.6000000e+002    +1.4523418e-007    +5.4543737e-008
+2.6100000e+002    +1.5402681e-007    +5.5514779e-008
+2.6200000e+002    +1.5001842e-007    +5.8046471e-008
+2.6300000e+002    +1.5720676e-007    +5.6228391e-008
+2.6400000e+002    +1.7845325e-007    +5.2438960e-008
+2.6500000e+002    +2.0348112e-007    +5.3801624e-008
+2.6600000e+002    +2.0731665e-007    +5.1291323e-008
+2.6700000e+002    +2.3259609e-007    +5.0775771e-008
+2.6800000e+002    +2.8976291e-007    +5.6244321e-008
+2.6900000e+002    +3.3219845e-007    +5.7913741e-008
+2.7000000e+002    +3.9221223e-007    +6.1350953e-008
+2.7100000e+002    +5.8386905e-007    +5.9120364e-008
+2.7200000e+002    +7.1897654e-007    +5.7893459e-008
+2.7300000e+002    +8.0778926e-007    +5.5654660e-008
+2.7400000e+002    +1.0859791e-006    +5.2329337e-008
+2.7500000e+002    +1.3380534e-006    +6.1478460e-008
+2.7600000e+002    +1.1601475e-006    +5.9811590e-008
+2.7700000e+002    +1.1477917e-006    +5.7851270e-008
+2.7800000e+002    +8.7289084e-007    +5.4539004e-008
+2.7900000e+002    +6.1244680e-007    +6.2474108e-008
+2.8000000e+002    +5.6812405e-007    +6.3274470e-008
+2.8100000e+002    +5.7840282e-007    +6.3112253e-008
+2.8200000e+002    +5.1400468e-007    +6.1776525e-008
+2.8300000e+002    +3.4729956e-007    +5.9894525e-008
+2.8400000e+002    +2.9539731e-007    +5.6963934e-008
+2.8500000e+002    +2.6139648e-007    +6.3771829e-008
+2.8600000e+002    +2.1776897e-007    +6.3860462e-008
+2.8700000e+002    +1.8710368e-007    +6.2345080e-008
+2.8800000e+002    +1.6577121e-007    +5.9862906e-008
+2.8900000e+002    +1.6085471e-007    +6.1000932e-008
+2.9000000e+002    +1.8393531e-007    +6.3831301e-008
+2.9100000e+002    +1.5557706e-007    +6.4947073e-008
+2.9200000e+002    +1.3174866e-007    +6.1704192e-008
+2.9300000e+002    +1.2356625e-007    +6.3476399e-008
+2.9400000e+002    +1.0595296e-007    +6.3745013e-008
+2.9500000e+002    +8.6047478e-008    +5.9278829e-008
+2.9600000e+002    +9.4796611e-008    +6.7865464e-008
+2.9700000e+002    +1.0062117e-007    +6.3902476e-008
+2.9800000e+002    +9.0152938e-008    +6.2096959e-008
+2.9900000e+002    +1.1615087e-007    +6.5200645e-008
+3.0000000e+002    +1.7395486e-007    +6.4485498e-008
+3.0100000e+002    +1.0848862e-007    +6.0459172e-008
+3.0200000e+002    +6.9306743e-008    +6.5597874e-008
+3.0300000e+002    +6.7125733e-008    +6.3147183e-008
+3.0400000e+002    +7.0173137e-008    +6.1467659e-008
+3.0500000e+002    +6.3478979e-008    +6.4253335e-008
+3.0600000e+002    +6.5238744e-008    +6.4081078e-008
+3.0700000e+002    +6.4319188e-008    +6.4464757e-008
+3.0800000e+002    +6.2648652e-008    +6.4538057e-008
+3.0900000e+002    +6.1199707e-008    +6.6173115e-008
+3.1000000e+002    +6.2637163e-008    +7.0687221e-008
+3.1100000e+002    +6.3676744e-008    +7.1483704e-008
+3.1200000e+002    +6.9098327e-008    +7.0852650e-008
+3.1300000e+002    +6.2134809e-008    +6.8547614e-008
+3.1400000e+002    +5.4743282e-008    +7.3280809e-008
+3.1500000e+002    +6.0711614e-008    +6.7472946e-008
+3.1600000e+002    +6.2222604e-008    +6.6706875e-008
+3.1700000e+002    +6.4285651e-008    +7.6415517e-008
+3.1800000e+002    +6.2303684e-008    +7.6090842e-008
+3.1900000e+002    +6.5731037e-008    +6.7335520e-008
+3.2000000e+002    +6.4655723e-008    +6.6867024e-008
+3.2100000e+002    +6.4682418e-008    +6.8721391e-008
+3.2200000e+002    +6.3127224e-008    +7.1606323e-008
+3.2300000e+002    +6.7342839e-008    +6.9718880e-008
+3.2400000e+002    +6.3914470e-008    +7.4631956e-008
+3.2500000e+002    +5.9921035e-008    +7.3403363e-008
+3.2600000e+002    +5.9811789e-008    +6.8752179e-008
+3.2700000e+002    +5.8025826e-008    +6.9905376e-008
+3.2800000e+002    +5.6403501e-008    +7.2624481e-008
+3.2900000e+002    +5.6859580e-008    +7.5519964e-008
+3.3000000e+002    +6.4099019e-008    +7.8203321e-008
+3.3100000e+002    +6.2755362e-008    +7.2040997e-008
+3.3200000e+002    +6.3924787e-008    +7.4902111e-008
+3.3300000e+002    +6.1984494e-008    +7.4993125e-008
+3.3400000e+002    +6.2087004e-008    +7.1859617e-008
+3.3500000e+002    +6.0875550e-008    +7.4059493e-008
+3.3600000e+002    +6.0171693e-008    +7.7303618e-008
+3.3700000e+002    +6.5247697e-008    +7.9725282e-008
+3.3800000e+002    +7.7563776e-008    +7.8998490e-008
+3.3900000e+002    +7.4099596e-008    +7.3148492e-008
+3.4000000e+002    +7.6196265e-008    +7.0359377e-008
+3.4100000e+002    +7.5978228e-008    +7.7000777e-008
+3.4200000e+002    +7.5188609e-008    +7.2742587e-008
+3.4300000e+002    +7.3183678e-008    +7.0514901e-008
+3.4400000e+002    +7.6859720e-008    +7.6334764e-008
+3.4500000e+002    +8.9037030e-008    +7.3168728e-008
+3.4600000e+002    +1.0489466e-007    +7.2714002e-008
+3.4700000e+002    +1.2231899e-007    +7.4731254e-008
+3.4800000e+002    +1.5280509e-007    +8.2981003e-008
+3.4900000e+002    +2.2089522e-007    +8.3626098e-008
+3.5000000e+002    +1.7817094e-007    +7.7390659e-008
+3.5100000e+002    +1.7188164e-007    +7.6523577e-008
+3.5200000e+002    +1.8354959e-007    +7.6696601e-008
+3.5300000e+002    +1.4627278e-007    +8.4459245e-008
+3.5400000e+002    +1.1888867e-007    +8.0563431e-008
+3.5500000e+002    +1.1586594e-007    +8.4520281e-008
+3.5600000e+002    +1.2071371e-007    +9.1075009e-008
+3.5700000e+002    +1.0697483e-007    +9.0069435e-008
+3.5800000e+002    +8.7364540e-008    +9.2110312e-008
+3.5900000e+002    +9.1526914e-008    +8.5754444e-008
+3.6000000e+002    +1.2211609e-007    +8.6403162e-008
+3.6100000e+002    +9.1693778e-008    +8.7235620e-008
+3.6200000e+002    +7.5265667e-008    +8.6282860e-008
+3.6300000e+002    +7.0232801e-008    +8.4978936e-008
+3.6400000e+002    +6.3909560e-008    +8.5034188e-008
+3.6500000e+002    +6.2216934e-008    +8.6048523e-008
+3.6600000e+002    +6.6901904e-008    +9.0640462e-008
+3.6700000e+002    +6.4723835e-008    +9.5510586e-008
+3.6800000e+002    +6.1480826e-008    +8.9183004e-008
+3.6900000e+002    +6.5655229e-008    +8.5756795e-008
+3.7000000e+002    +6.6144565e-008    +8.9491785e-008
+3.7100000e+002    +6.6031731e-008    +8.6567248e-008
+3.7200000e+002    +6.6040727e-008    +8.4226805e-008
+3.7300000e+002    +6.7556790e-008    +8.1374282e-008
+3.7400000e+002    +6.4225546e-008    +8.1645268e-008
+3.7500000e+002    +6.2900085e-008    +9.0116025e-008
+3.7600000e+002    +6.0344107e-008    +9.4787659e-008
+3.7700000e+002    +6.3398808e-008    +9.0428536e-008
+3.7800000e+002    +6.8258615e-008    +9.1542994e-008
+3.7900000e+002    +6.5343478e-008    +9.2636185e-008
+3.8000000e+002    +6.0880566e-008    +9.3152686e-008
+3.8100000e+002    +5.8556715e-008    +8.6088590e-008
+3.8200000e+002    +6.0282986e-008    +8.1493468e-008
+3.8300000e+002    +5.6225861e-008    +8.4723204e-008
+3.8400000e+002    +5.8977278e-008    +8.9714518e-008
+3.8500000e+002    +6.0486862e-008    +9.5653100e-008
+3.8600000e+002    +6.0308409e-008    +9.1207603e-008
+3.8700000e+002    +6.2342551e-008    +8.6353090e-008
+3.8800000e+002    +6.1890987e-008    +9.3515553e-008
+3.8900000e+002    +5.9807391e-008    +9.7004545e-008
+3.9000000e+002    +6.0108832e-008    +9.0506610e-008
+3.9100000e+002    +6.3159185e-008    +9.9195489e-008
+3.9200000e+002    +6.7458281e-008    +1.0615918e-007
+3.9300000e+002    +6.4945439e-008    +9.4078985e-008
+3.9400000e+002    +6.4176625e-008    +9.8310082e-008
+3.9500000e+002    +5.8868526e-008    +1.0381820e-007
+3.9600000e+002    +5.5140273e-008    +1.0091359e-007
+3.9700000e+002    +5.7902870e-008    +9.3418677e-008
+3.9800000e+002    +5.7127657e-008    +9.3737285e-008
+3.9900000e+002    +5.2879415e-008    +9.5568488e-008
+4.0000000e+002    +6.0747688e-008    +1.0100515e-007
+4.0100000e+002    +5.9746021e-008    +1.0263654e-007
+4.0200000e+002    +6.1545862e-008    +9.6561109e-008
+4.0300000e+002    +6.2808503e-008    +9.5868430e-008
+4.0400000e+002    +5.7157209e-008    +9.6116217e-008
+4.0500000e+002    +5.7481447e-008    +9.9901449e-008
+4.0600000e+002    +5.5670792e-008    +1.0667153e-007
+4.0700000e+002    +5.3131060e-008    +1.0255206e-007
+4.0800000e+002    +5.5697939e-008    +1.0767491e-007
+4.0900000e+002    +5.9564005e-008    +1.0354113e-007
+4.1000000e+002    +5.4563863e-008    +1.0172198e-007
+4.1100000e+002    +5.5156075e-008    +1.1080309e-007
+4.1200000e+002    +5.7834121e-008    +1.0543307e-007
+4.1300000e+002    +5.9363373e-008    +1.0901256e-007
+4.1400000e+002    +5.6044161e-008    +1.1511830e-007
+4.1500000e+002    +5.5679351e-008    +1.1406421e-007
+4.1600000e+002    +5.4629741e-008    +1.1217073e-007
+4.1700000e+002    +5.6202342e-008    +1.1961259e-007
+4.1800000e+002    +5.7697950e-008    +1.1466555e-007
+4.1900000e+002    +7.0722386e-008    +1.1134492e-007
+4.2000000e+002    +9.2707005e-008    +1.0970935e-007
+4.2100000e+002    +6.9351806e-008    +1.0817175e-007
+4.2200000e+002    +5.5610496e-008    +1.1424670e-007
+4.2300000e+002    +6.0482407e-008    +1.0727429e-007
+4.2400000e+002    +5.8619367e-008    +1.1045193e-007
+4.2500000e+002    +5.6265137e-008    +1.1391628e-007
+4.2600000e+002    +5.9724840e-008    +1.1190674e-007
+4.2700000e+002    +6.6443143e-008    +1.1192505e-007
+4.2800000e+002    +6.2679888e-008    +1.1256788e-007
+4.2900000e+002    +5.6865826e-008    +1.1106227e-007
+4.3000000e+002    +5.8816518e-008    +1.1620227e-007
+4.3100000e+002    +6.2353088e-008    +1.1224366e-007
+4.3200000e+002    +6.4757458e-008    +1.1670797e-007
+4.3300000e+002    +6.6398222e-008    +1.1617409e-007
+4.3400000e+002    +7.8584542e-008    +1.1905418e-007
+4.3500000e+002    +7.9826364e-008    +1.2110414e-007
+4.3600000e+002    +6.9171726e-008    +1.1956847e-007
+4.3700000e+002    +8.2981643e-008    +1.1502404e-007
+4.3800000e+002    +7.7308030e-008    +1.1453369e-007
+4.3900000e+002    +7.2323772e-008    +1.1175731e-007
+4.4000000e+002    +7.4663014e-008    +1.1635586e-007
+4.4100000e+002    +7.0774590e-008    +1.2107768e-007
+4.4200000e+002    +7.8130370e-008    +1.2465722e-007
+4.4300000e+002    +9.0147495e-008    +1.3180957e-007
+4.4400000e+002    +7.9525691e-008    +1.2638139e-007
+4.4500000e+002    +7.2832499e-008    +1.1181009e-007
+4.4600000e+002    +7.2148573e-008    +1.1118208e-007
+4.4700000e+002    +6.7583649e-008    +1.2287788e-007
+4.4800000e+002    +6.1946054e-008    +1.1751651e-007
+4.4900000e+002    +5.9733431e-008    +1.3180365e-007
+4.5000000e+002    +6.0437074e-008    +1.2114842e-007
+4.5100000e+002    +6.4044642e-008    +1.1996981e-007
+4.5200000e+002    +5.7832089e-008    +1.1890616e-007
+4.5300000e+002    +5.7523430e-008    +1.2208527e-007
+4.5400000e+002    +6.0842609e-008    +1.2576348e-007
+4.5500000e+002    +6.2044279e-008    +1.1823298e-007
+4.5600000e+002    +5.5066522e-008    +1.1443489e-007
+4.5700000e+002    +5.4698223e-008    +1.1129054e-007
+4.5800000e+002    +5.6850780e-008    +1.2355038e-007
+4.5900000e+002    +5.5847231e-008    +1.1931826e-007
+4.6000000e+002    +5.1618656e-008    +1.2419014e-007
+4.6100000e+002    +5.4350107e-008    +1.2746474e-007
+4.6200000e+002    +5.6241049e-008    +1.2300599e-007
+4.6300000e+002    +5.7654571e-008    +1.3532386e-007
+4.6400000e+002    +6.2303336e-008    +1.2494073e-007
+4.6500000e+002    +6.1991983e-008    +1.2646370e-007
+4.6600000e+002    +5.9265293e-008    +1.3746501e-007
+4.6700000e+002    +5.8615573e-008    +1.2977004e-007
+4.6800000e+002    +5.9612091e-008    +1.2656247e-007
+4.6900000e+002    +5.4750014e-008    +1.3024695e-007
+4.7000000e+002    +5.7380241e-008    +1.3199147e-007
+4.7100000e+002    +5.7190356e-008    +1.3612812e-007
+4.7200000e+002    +5.7080822e-008    +1.4442922e-007
+4.7300000e+002    +5.2567916e-008    +1.3201814e-007
+4.7400000e+002    +5.7006105e-008    +1.3301026e-007
+4.7500000e+002    +6.3373683e-008    +1.1987396e-007
+4.7600000e+002    +5.9465528e-008    +1.2115161e-007
+4.7700000e+002    +5.8305421e-008    +1.3412318e-007
+4.7800000e+002    +6.0114445e-008    +1.3070493e-007
+4.7900000e+002    +1.4396946e-007    +1.3754367e-007
+4.8000000e+002    +2.6777477e-007    +1.3630086e-007
+4.8100000e+002    +1.4569784e-007    +1.4640356e-007
+4.8200000e+002    +6.5521213e-008    +1.3181811e-007
+4.8300000e+002    +6.2525373e-008    +1.1864743e-007
+4.8400000e+002    +7.2944133e-008    +1.3059993e-007
+4.8500000e+002    +7.0630819e-008    +1.4078850e-007
+4.8600000e+002    +7.5288398e-008    +1.4024667e-007
+4.8700000e+002    +8.5497312e-008    +1.3411612e-007
+4.8800000e+002    +8.7744354e-008    +1.3905850e-007
+4.8900000e+002    +8.5679716e-008    +1.4538719e-007
+4.9000000e+002    +7.9069032e-008    +1.4076053e-007
+4.9100000e+002    +7.8595669e-008    +1.4836530e-007
+4.9200000e+002    +8.5565397e-008    +1.4774109e-007
+4.9300000e+002    +8.5426656e-008    +1.4727109e-007
+4.9400000e+002    +8.1365350e-008    +1.5079938e-007
+4.9500000e+002    +7.1373748e-008    +1.4939479e-007
+4.9600000e+002    +7.5328337e-008    +1.4812311e-007
+4.9700000e+002    +8.5197357e-008    +1.4052411e-007
+4.9800000e+002    +7.6984719e-008    +1.3492107e-007
+4.9900000e+002    +7.4388652e-008    +1.3821339e-007
+5.0000000e+002    +8.4052758e-008    +1.3967379e-007
+5.0100000e+002    +7.7833263e-008    +1.5148225e-007
+5.0200000e+002    +7.8226421e-008    +1.4112186e-007
+5.0300000e+002    +8.5878348e-008    +1.3800278e-007
+5.0400000e+002    +9.8028764e-008    +1.4759793e-007
+5.0500000e+002    +1.0393225e-007    +1.4924265e-007
+5.0600000e+002    +1.0792749e-007    +1.4138334e-007
+5.0700000e+002    +1.2006970e-007    +1.4596684e-007
+5.0800000e+002    +1.2131348e-007    +1.4986483e-007
+5.0900000e+002    +1.1555353e-007    +1.6052496e-007
+5.1000000e+002    +1.2627196e-007    +1.5223321e-007
+5.1100000e+002    +1.1726633e-007    +1.5152084e-007
+5.1200000e+002    +1.0465021e-007    +1.4834397e-007
+5.1300000e+002    +8.3176758e-008    +1.5320609e-007
+5.1400000e+002    +7.7288256e-008    +1.6152563e-007
+5.1500000e+002    +8.0828613e-008    +1.6121150e-007
+5.1600000e+002    +7.9172850e-008    +1.6278204e-007
+5.1700000e+002    +6.6945333e-008    +1.5819786e-007
+5.1800000e+002    +5.9383190e-008    +1.5253387e-007
+5.1900000e+002    +6.0907240e-008    +1.5886172e-007
+5.2000000e+002    +6.2814713e-008    +1.6062492e-007
+5.2100000e+002    +5.6392725e-008    +1.6485588e-007
+5.2200000e+002    +6.3663457e-008    +1.6427822e-007
+5.2300000e+002    +7.0222541e-008    +1.5578490e-007
+5.2400000e+002    +6.8993934e-008    +1.6424305e-007
+5.2500000e+002    +7.9119580e-008    +1.6938024e-007
+5.2600000e+002    +9.3741093e-008    +1.5137485e-007
+5.2700000e+002    +1.2476882e-007    +1.5039709e-007
+5.2800000e+002    +1.6755756e-007    +1.5427833e-007
+5.2900000e+002    +2.0405746e-007    +1.5526017e-007
+5.3000000e+002    +2.8163339e-007    +1.6205910e-007
+5.3100000e+002    +2.9582085e-007    +1.8216809e-007
+5.3200000e+002    +2.7707046e-007    +1.7067902e-007
+5.3300000e+002    +2.7214963e-007    +1.6553950e-007
+5.3400000e+002    +2.6144843e-007    +1.6562858e-007
+5.3500000e+002    +2.6208994e-007    +1.6832018e-007
+5.3600000e+002    +2.5492287e-007    +1.5615515e-007
+5.3700000e+002    +2.5104697e-007    +1.7197678e-007
+5.3800000e+002    +2.4300002e-007    +1.7473241e-007
+5.3900000e+002    +2.6402478e-007    +1.7223472e-007
+5.4000000e+002    +2.8809049e-007    +1.6323683e-007
+5.4100000e+002    +2.2114735e-007    +1.6002976e-007
+5.4200000e+002    +2.1180273e-007    +1.5019164e-007
+5.4300000e+002    +2.4123250e-007    +1.5734282e-007
+5.4400000e+002    +2.9972384e-007    +1.6021031e-007
+5.4500000e+002    +4.8254674e-007    +1.6404319e-007
+5.4600000e+002    +6.7418523e-007    +1.6830799e-007
+5.4700000e+002    +8.9416159e-007    +1.6714964e-007
+5.4800000e+002    +9.7648490e-007    +1.7478077e-007
+5.4900000e+002    +9.1740503e-007    +1.6999992e-007
+5.5000000e+002    +8.8399975e-007    +1.5723369e-007
+5.5100000e+002    +8.2427454e-007    +1.6774973e-007
+5.5200000e+002    +1.1149760e-006    +1.6428741e-007
+5.5300000e+002    +1.2405972e-006    +1.6424612e-007
+5.5400000e+002    +6.1253490e-007    +1.6883604e-007
+5.5500000e+002    +3.3849292e-007    +1.7256446e-007
+5.5600000e+002    +2.7333192e-007    +1.7837449e-007
+5.5700000e+002    +2.4512070e-007    +1.6816520e-007
+5.5800000e+002    +2.0193674e-007    +1.7495913e-007
+5.5900000e+002    +1.6800169e-007    +1.6871169e-007
+5.6000000e+002    +1.3739152e-007    +1.7564376e-007
+5.6100000e+002    +1.3735804e-007    +1.6774217e-007
+5.6200000e+002    +1.3753309e-007    +1.6402967e-007
+5.6300000e+002    +1.2813068e-007    +1.6441427e-007
+5.6400000e+002    +1.2665005e-007    +1.6938360e-007
+5.6500000e+002    +1.1117623e-007    +1.7210316e-007
+5.6600000e+002    +1.0469365e-007    +1.6503408e-007
+5.6700000e+002    +1.0894699e-007    +1.7567963e-007
+5.6800000e+002    +1.1710473e-007    +1.7737204e-007
+5.6900000e+002    +1.2604632e-007    +1.9024159e-007
+5.7000000e+002    +1.2196348e-007    +1.7708172e-007
+5.7100000e+002    +1.4089443e-007    +1.5996142e-007
+5.7200000e+002    +1.4731459e-007    +1.6986297e-007
+5.7300000e+002    +1.8119941e-007    +1.8952794e-007
+5.7400000e+002    +2.1336047e-007    +1.8855201e-007
+5.7500000e+002    +2.2902019e-007    +1.7259535e-007
+5.7600000e+002    +2.5901039e-007    +1.8154053e-007
+5.7700000e+002    +2.9688781e-007    +1.8426034e-007
+5.7800000e+002    +2.6852788e-007    +1.7827249e-007
+5.7900000e+002    +2.2524563e-007    +1.8567586e-007
+5.8000000e+002    +1.9636717e-007    +1.8235700e-007
+5.8100000e+002    +1.7650869e-007    +1.9155472e-007
+5.8200000e+002    +1.4568856e-007    +1.8586147e-007
+5.8300000e+002    +1.4590402e-007    +1.8778448e-007
+5.8400000e+002    +1.2751877e-007    +1.9640642e-007
+5.8500000e+002    +1.1568099e-007    +1.9539763e-007
+5.8600000e+002    +9.6261964e-008    +1.9111313e-007
+5.8700000e+002    +8.1089055e-008    +1.8968886e-007
+5.8800000e+002    +7.3419812e-008    +1.9118092e-007
+5.8900000e+002    +6.6370738e-008    +1.8236621e-007
+5.9000000e+002    +6.1339435e-008    +1.7589348e-007
+5.9100000e+002    +6.8675604e-008    +1.8373710e-007
+5.9200000e+002    +6.9024544e-008    +1.9367566e-007
+5.9300000e+002    +6.5145763e-008    +1.9695406e-007
+5.9400000e+002    +6.4716801e-008    +1.9771802e-007
+5.9500000e+002    +6.6495836e-008    +2.0494166e-007
+5.9600000e+002    +6.7387660e-008    +2.0098649e-007
+5.9700000e+002    +6.8161782e-008    +2.1733067e-007
+5.9800000e+002    +6.7357256e-008    +1.9726679e-007
+5.9900000e+002    +1.2126233e-007    +1.9370904e-007
+6.0000000e+002    +2.2355619e-007    +1.8895821e-007
+6.0100000e+002    +1.3623144e-007    +1.9196169e-007
+6.0200000e+002    +1.1232392e-007    +1.7938380e-007
+6.0300000e+002    +1.9529811e-007    +1.7732103e-007
+6.0400000e+002    +2.9935845e-007    +1.8624857e-007
+6.0500000e+002    +2.8997169e-007    +1.8187990e-007
+6.0600000e+002    +1.4930657e-007    +1.7874602e-007
+6.0700000e+002    +7.7384712e-008    +1.9378415e-007
+6.0800000e+002    +5.6937733e-008    +1.9986332e-007
+6.0900000e+002    +5.7782138e-008    +1.9725530e-007
+6.1000000e+002    +5.4816720e-008    +1.7830695e-007
+6.1100000e+002    +5.5401642e-008    +1.7488519e-007
+6.1200000e+002    +5.8287370e-008    +1.8273239e-007
+6.1300000e+002    +5.8706643e-008    +2.1306083e-007
+6.1400000e+002    +6.3744388e-008    +2.2812851e-007
+6.1500000e+002    +6.8481413e-008    +2.0976682e-007
+6.1600000e+002    +5.7537896e-008    +1.9563205e-007
+6.1700000e+002    +5.8596008e-008    +2.0616693e-007
+6.1800000e+002    +5.8503119e-008    +2.0358034e-007
+6.1900000e+002    +6.2832925e-008    +1.9141784e-007
+6.2000000e+002    +6.6945773e-008    +1.9914353e-007
+6.2100000e+002    +6.2191802e-008    +2.0792210e-007
+6.2200000e+002    +6.5961082e-008    +2.1239772e-007
+6.2300000e+002    +6.3487555e-008    +2.0226760e-007
+6.2400000e+002    +6.1020231e-008    +1.9331534e-007
+6.2500000e+002    +6.4161824e-008    +1.9503069e-007
+6.2600000e+002    +6.6731118e-008    +1.9783702e-007
+6.2700000e+002    +6.2835547e-008    +2.0646254e-007
+6.2800000e+002    +6.2425840e-008    +2.1220869e-007
+6.2900000e+002    +6.2355006e-008    +2.1058281e-007
+6.3000000e+002    +6.1486425e-008    +2.1400496e-007
+6.3100000e+002    +6.5990278e-008    +1.9553477e-007
+6.3200000e+002    +6.4635209e-008    +2.0052669e-007
+6.3300000e+002    +5.9083764e-008    +2.0520825e-007
+6.3400000e+002    +5.4397329e-008    +1.9416217e-007
+6.3500000e+002    +6.6492987e-008    +1.9550558e-007
+6.3600000e+002    +7.0050355e-008    +2.0417086e-007
+6.3700000e+002    +6.1091086e-008    +1.9113831e-007
+6.3800000e+002    +5.9375040e-008    +1.9564945e-007
+6.3900000e+002    +5.7634509e-008    +2.1369995e-007
+6.4000000e+002    +5.9233027e-008    +2.2633692e-007
+6.4100000e+002    +5.9275315e-008    +2.0633676e-007
+6.4200000e+002    +6.6830623e-008    +2.2447311e-007
+6.4300000e+002    +8.1121293e-008    +2.2940171e-007
+6.4400000e+002    +1.2787967e-007    +2.1272797e-007
+6.4500000e+002    +1.8777953e-007    +2.0447887e-007
+6.4600000e+002    +1.4747724e-007    +2.2379220e-007
+6.4700000e+002    +1.1309240e-007    +2.3206678e-007
+6.4800000e+002    +8.5377991e-008    +2.1154754e-007
+6.4900000e+002    +7.6363520e-008    +2.1926104e-007
+6.5000000e+002    +7.8751064e-008    +2.3367041e-007
+6.5100000e+002    +9.7689984e-008    +2.2605404e-007
+6.5200000e+002    +1.0428614e-007    +2.1981833e-007
+6.5300000e+002    +8.1082469e-008    +2.1970300e-007
+6.5400000e+002    +6.9687353e-008    +2.0594024e-007
+6.5500000e+002    +6.7837377e-008    +2.3565610e-007
+6.5600000e+002    +6.3096593e-008    +2.3197583e-007
+6.5700000e+002    +6.2466015e-008    +2.2972635e-007
+6.5800000e+002    +6.3305258e-008    +2.2048039e-007
+6.5900000e+002    +1.1875925e-007    +2.1442949e-007
+6.6000000e+002    +2.2442778e-007    +2.0207027e-007
+6.6100000e+002    +1.2994599e-007    +2.2874251e-007
+6.6200000e+002    +5.6114725e-008    +2.3597639e-007
+6.6300000e+002    +5.6390807e-008    +2.1023720e-007
+6.6400000e+002    +5.8458557e-008    +2.2709115e-007
+6.6500000e+002    +5.9465204e-008    +2.3132624e-007
+6.6600000e+002    +6.2026977e-008    +2.2088746e-007
+6.6700000e+002    +6.1863062e-008    +2.3228245e-007
+6.6800000e+002    +5.9567469e-008    +2.4354543e-007
+6.6900000e+002    +6.1228945e-008    +2.3220161e-007
+6.7000000e+002    +6.3251896e-008    +2.1375698e-007
+6.7100000e+002    +6.4621794e-008    +2.1036512e-007
+6.7200000e+002    +6.5513369e-008    +2.2882816e-007
+6.7300000e+002    +6.5967384e-008    +2.2055326e-007
+6.7400000e+002    +6.6446063e-008    +2.2722260e-007
+6.7500000e+002    +6.5466566e-008    +2.3191141e-007
+6.7600000e+002    +6.7708648e-008    +2.3083226e-007
+6.7700000e+002    +6.9962120e-008    +2.2711909e-007
+6.7800000e+002    +6.7561835e-008    +2.3301325e-007
+6.7900000e+002    +6.6794968e-008    +2.3036185e-007
+6.8000000e+002    +7.4990737e-008    +2.3234647e-007
+6.8100000e+002    +7.8248412e-008    +2.2350784e-007
+6.8200000e+002    +6.9436837e-008    +2.0235223e-007
+6.8300000e+002    +7.5218828e-008    +2.2925617e-007
+6.8400000e+002    +8.1567677e-008    +2.3307696e-007
+6.8500000e+002    +7.6291364e-008    +2.1224713e-007
+6.8600000e+002    +9.1713211e-008    +2.2150920e-007
+6.8700000e+002    +1.0428833e-007    +2.1873252e-007
+6.8800000e+002    +1.0639723e-007    +2.2159263e-007
+6.8900000e+002    +1.0056484e-007    +2.4044766e-007
+6.9000000e+002    +1.0661088e-007    +2.5063028e-007
+6.9100000e+002    +1.1130874e-007    +2.6351216e-007
+6.9200000e+002    +1.2183673e-007    +2.6128544e-007
+6.9300000e+002    +1.3154356e-007    +2.4120945e-007
+6.9400000e+002    +1.4156944e-007    +2.2925467e-007
+6.9500000e+002    +1.0415947e-007    +2.2034656e-007
+6.9600000e+002    +9.7735793e-008    +2.3670243e-007
+6.9700000e+002    +9.9882698e-008    +2.5206754e-007
+6.9800000e+002    +9.4928261e-008    +2.5543642e-007
+6.9900000e+002    +9.9919220e-008    +2.3655487e-007
+7.0000000e+002    +9.3176411e-008    +2.2220171e-007
+7.0100000e+002    +9.3535476e-008    +2.4438975e-007
+7.0200000e+002    +1.0241073e-007    +2.5568082e-007
+7.0300000e+002    +9.8187535e-008    +2.6006305e-007
+7.0400000e+002    +9.4480107e-008    +2.6893565e-007
+7.0500000e+002    +1.0076378e-007    +2.4812306e-007
+7.0600000e+002    +9.3986273e-008    +2.4278427e-007
+7.0700000e+002    +9.0097821e-008    +2.4608852e-007
+7.0800000e+002    +8.6978538e-008    +2.3745550e-007
+7.0900000e+002    +8.4291194e-008    +2.5003303e-007
+7.1000000e+002    +8.5271566e-008    +2.6399724e-007
+7.1100000e+002    +8.5322704e-008    +2.4814133e-007
+7.1200000e+002    +8.9902564e-008    +2.4724631e-007
+7.1300000e+002    +1.0068947e-007    +2.6430263e-007
+7.1400000e+002    +1.0832056e-007    +2.5442179e-007
+7.1500000e+002    +1.0591993e-007    +2.4748260e-007
+7.1600000e+002    +9.6530371e-008    +2.4484015e-007
+7.1700000e+002    +9.3557965e-008    +2.3932037e-007
+7.1800000e+002    +9.2493494e-008    +2.2929193e-007
+7.1900000e+002    +1.3479801e-007    +2.3217433e-007
+7.2000000e+002    +2.1813774e-007    +2.4986920e-007
+7.2100000e+002    +1.2277000e-007    +2.7371061e-007
+7.2200000e+002    +8.0877079e-008    +2.6395435e-007
+7.2300000e+002    +7.7880884e-008    +2.4725529e-007
+7.2400000e+002    +7.2402585e-008    +2.7128181e-007
+7.2500000e+002    +7.2387088e-008    +2.7386903e-007
+7.2600000e+002    +6.4869752e-008    +2.7941761e-007
+7.2700000e+002    +6.6758091e-008    +2.5301915e-007
+7.2800000e+002    +7.0260491e-008    +2.4879171e-007
+7.2900000e+002    +6.4938376e-008    +2.5390301e-007
+7.3000000e+002    +6.1389429e-008    +2.5336720e-007
+7.3100000e+002    +6.3505055e-008    +2.5189573e-007
+7.3200000e+002    +6.5014213e-008    +2.3344833e-007
+7.3300000e+002    +6.3487903e-008    +2.2947653e-007
+7.3400000e+002    +6.4271958e-008    +2.4714453e-007
+7.3500000e+002    +6.3143858e-008    +2.6406798e-007
+7.3600000e+002    +6.2778653e-008    +2.5079325e-007
+7.3700000e+002    +6.7749028e-008    +2.5618888e-007
+7.3800000e+002    +6.9684290e-008    +2.4596397e-007
+7.3900000e+002    +6.8389447e-008    +2.3655149e-007
+7.4000000e+002    +6.3758172e-008    +2.3328485e-007
+7.4100000e+002    +6.2495374e-008    +2.4920806e-007
+7.4200000e+002    +6.4942512e-008    +2.7046244e-007
+7.4300000e+002    +6.9470921e-008    +2.6437317e-007
+7.4400000e+002    +6.9291829e-008    +2.4895428e-007
+7.4500000e+002    +6.9927097e-008    +2.2827609e-007
+7.4600000e+002    +6.8974849e-008    +2.6473393e-007
+7.4700000e+002    +7.1315078e-008    +2.8013827e-007
+7.4800000e+002    +7.3982044e-008    +2.6914716e-007
+7.4900000e+002    +7.8798379e-008    +2.7308383e-007
+7.5000000e+002    +9.1362054e-008    +2.6270476e-007
+7.5100000e+002    +9.1836547e-008    +2.5708860e-007
+7.5200000e+002    +8.4050264e-008    +2.7067426e-007
+7.5300000e+002    +8.3857060e-008    +2.7185041e-007
+7.5400000e+002    +7.9597932e-008    +2.7878420e-007
+7.5500000e+002    +7.9574690e-008    +2.8809461e-007
+7.5600000e+002    +7.9156329e-008    +3.0002181e-007
+7.5700000e+002    +7.2935485e-008    +2.7615417e-007
+7.5800000e+002    +6.9203786e-008    +2.5438322e-007
+7.5900000e+002    +6.9259961e-008    +2.7136997e-007
+7.6000000e+002    +7.5702438e-008    +2.5941966e-007
+7.6100000e+002    +7.8158941e-008    +2.6029159e-007
+7.6200000e+002    +7.4793142e-008    +2.7211499e-007
+7.6300000e+002    +6.8422644e-008    +2.8674205e-007
+7.6400000e+002    +7.1800542e-008    +2.8049715e-007
+7.6500000e+002    +7.4418061e-008    +2.8090210e-007
+7.6600000e+002    +6.9956279e-008    +2.7343998e-007
+7.6700000e+002    +5.9049977e-008    +2.5581056e-007
+7.6800000e+002    +5.9159195e-008    +2.6672166e-007
+7.6900000e+002    +6.2488240e-008    +2.7258776e-007
+7.7000000e+002    +6.3753554e-008    +2.7356458e-007
+7.7100000e+002    +5.8497786e-008    +2.7831504e-007
+7.7200000e+002    +5.9265489e-008    +2.7819038e-007
+7.7300000e+002    +5.9555305e-008    +2.7763383e-007
+7.7400000e+002    +6.0123753e-008    +2.7779177e-007
+7.7500000e+002    +6.1944966e-008    +2.6178279e-007
+7.7600000e+002    +5.9365131e-008    +2.5152897e-007
+7.7700000e+002    +6.3018845e-008    +2.6633072e-007
+7.7800000e+002    +6.7564876e-008    +2.9169348e-007
+7.7900000e+002    +1.4904222e-007    +2.9255949e-007
+7.8000000e+002    +2.6945349e-007    +2.9640447e-007
+7.8100000e+002    +1.4715295e-007    +2.8913368e-007
+7.8200000e+002    +6.3956243e-008    +2.7459436e-007
+7.8300000e+002    +6.0161980e-008    +2.6580807e-007
+7.8400000e+002    +5.9797081e-008    +2.5506873e-007
+7.8500000e+002    +6.5020778e-008    +2.5998455e-007
+7.8600000e+002    +6.9919729e-008    +2.7264193e-007
+7.8700000e+002    +6.8302398e-008    +2.9727792e-007
+7.8800000e+002    +6.2834232e-008    +2.8401826e-007
+7.8900000e+002    +6.1545322e-008    +2.8816547e-007
+7.9000000e+002    +6.1267549e-008    +2.7037694e-007
+7.9100000e+002    +6.8873746e-008    +2.6941620e-007
+7.9200000e+002    +6.4387230e-008    +2.8058585e-007
+7.9300000e+002    +6.5553522e-008    +2.8308833e-007
+7.9400000e+002    +6.5634687e-008    +2.7150142e-007
+7.9500000e+002    +6.8561988e-008    +2.6628157e-007
+7.9600000e+002    +6.8601601e-008    +2.5777939e-007
+7.9700000e+002    +6.5656458e-008    +2.8786789e-007
+7.9800000e+002    +6.4314669e-008    +3.0297858e-007
+7.9900000e+002    +6.7857044e-008    +3.0849003e-007
#
#
# North DC Val: 0.6488185500000001 VoltsSouth DC Val: 0.5943861300000001 Volts
# SR785 Measurement - Timestamp: Jun 13 2020 - 10:49:08
# Parameter File: /home/controls/Git/cit_ctnlab/ctn_scripts/TransRINSpecShort.yml
#---------- Measurement Setup ------------
# Start Frequency (Hz): 0.000000
# Frequency Span (Hz): 102400.000000
# Frequency Resolution: 800
# Number of Averages: 100
# Averaging Mode: RMS
# Window function: Hanning
#---------- Measurement Parameters ----------
# Measurement Group:  "FFT" "FFT"
# Measurements:  "FFT 1" "FFT 2"
# View:  "Log Magnitude" "Log Magnitude"
# Unit:  "Vrms/rtHz" "Vrms/rtHz"
#---------- Input Parameters ----------
# Input Source: Analog
# Input Mode: Single ended, Single ended
# Input Grounding: Float, Float
# Input Coupling: AC, AC
# Input Range: -36.0dBVpk, -36.0dBVpk
# Auto Range: Off, Off
# Auto Range Mode: Tracking, Tracking
# Anti-Aliasing Filter: On, On
#---------- Source Parameters ----------
# Source Type: Sine
# Source Amplitude: 500.0mVpk
# Source On: 0

#---------- Measurement Data ----------
# [Freq(Hz) Display 0(Vrms/rtHz) Display 1(Vrms/rtHz) ]
+8.9600000e+002    +1.2372482e-007    +2.9303365e-007
+1.0240000e+003    +1.1878846e-007    +3.7561364e-007
+1.1520000e+003    +1.0088522e-007    +4.4092221e-007
+1.2800000e+003    +1.0868152e-007    +4.6861422e-007
+1.4080000e+003    +1.0527484e-007    +5.0936529e-007
+1.5360000e+003    +1.2152691e-007    +5.9659561e-007
+1.6640000e+003    +1.6355293e-007    +6.5793347e-007
+1.7920000e+003    +2.3226485e-007    +7.1019946e-007
+1.9200000e+003    +2.0045405e-007    +7.8263878e-007
+2.0480000e+003    +1.5303561e-007    +8.7369818e-007
+2.1760000e+003    +1.4159788e-007    +9.4366482e-007
+2.3040000e+003    +1.6011077e-007    +1.0281068e-006
+2.4320000e+003    +1.8039228e-007    +1.1789568e-006
+2.5600000e+003    +1.9282058e-007    +1.2327152e-006
+2.6880000e+003    +1.9704014e-007    +1.3566423e-006
+2.8160000e+003    +1.8868683e-007    +1.5118616e-006
+2.9440000e+003    +2.0829410e-007    +1.5213714e-006
+3.0720000e+003    +2.4196248e-007    +1.4562331e-006
+3.2000000e+003    +2.6171898e-007    +1.5831932e-006
+3.3280000e+003    +2.6758991e-007    +1.8199496e-006
+3.4560000e+003    +2.6855443e-007    +1.7902059e-006
+3.5840000e+003    +2.7160516e-007    +1.8389029e-006
+3.7120000e+003    +2.8869084e-007    +1.8684603e-006
+3.8400000e+003    +2.9885007e-007    +1.9807262e-006
+3.9680000e+003    +3.0016054e-007    +2.0433904e-006
+4.0960000e+003    +3.0319455e-007    +2.0964778e-006
+4.2240000e+003    +3.1772115e-007    +2.1626286e-006
+4.3520000e+003    +3.4675091e-007    +2.0050488e-006
+4.4800000e+003    +3.5325792e-007    +2.1999724e-006
+4.6080000e+003    +3.4139376e-007    +2.2339916e-006
+4.7360000e+003    +3.6644130e-007    +2.2099491e-006
+4.8640000e+003    +4.0476417e-007    +2.0320115e-006
+4.9920000e+003    +3.8413435e-007    +2.1877745e-006
+5.1200000e+003    +3.8957873e-007    +2.3974881e-006
+5.2480000e+003    +4.1899293e-007    +2.4343742e-006
+5.3760000e+003    +4.2749392e-007    +2.3494358e-006
+5.5040000e+003    +4.2237488e-007    +2.3058958e-006
+5.6320000e+003    +4.8036674e-007    +2.4225942e-006
+5.7600000e+003    +4.3945101e-007    +2.4745923e-006
+5.8880000e+003    +4.1784580e-007    +2.4696089e-006
+6.0160000e+003    +4.6087362e-007    +2.5879806e-006
+6.1440000e+003    +5.1036960e-007    +2.6052974e-006
+6.2720000e+003    +4.9648719e-007    +2.9425914e-006
+6.4000000e+003    +4.9136349e-007    +3.0891370e-006
+6.5280000e+003    +4.7699098e-007    +2.9692790e-006
+6.6560000e+003    +4.8936607e-007    +3.0583822e-006
+6.7840000e+003    +5.0528678e-007    +3.5252754e-006
+6.9120000e+003    +4.6339744e-007    +3.6970503e-006
+7.0400000e+003    +5.1080070e-007    +3.5757773e-006
+7.1680000e+003    +5.3435269e-007    +4.0584555e-006
+7.2960000e+003    +5.2067998e-007    +4.4500221e-006
+7.4240000e+003    +5.5240741e-007    +4.1846879e-006
+7.5520000e+003    +5.9925577e-007    +3.9804022e-006
+7.6800000e+003    +5.9849890e-007    +4.5196980e-006
+7.8080000e+003    +6.0682095e-007    +4.8103279e-006
+7.9360000e+003    +6.3649691e-007    +4.4010771e-006
+8.0640000e+003    +5.8865294e-007    +4.4098465e-006
+8.1920000e+003    +6.2380207e-007    +4.4991903e-006
+8.3200000e+003    +6.6570055e-007    +3.9699753e-006
+8.4480000e+003    +6.6072346e-007    +3.9320348e-006
+8.5760000e+003    +7.1495242e-007    +3.9762963e-006
+8.7040000e+003    +7.4033966e-007    +3.6133852e-006
+8.8320000e+003    +7.4605083e-007    +3.5344181e-006
+8.9600000e+003    +7.0675037e-007    +3.2848732e-006
+9.0880000e+003    +7.2082770e-007    +3.1192044e-006
+9.2160000e+003    +7.1381271e-007    +3.1628090e-006
+9.3440000e+003    +7.2112459e-007    +2.9661933e-006
+9.4720000e+003    +7.1603887e-007    +2.5735237e-006
+9.6000000e+003    +8.0065820e-007    +2.6080393e-006
+9.7280000e+003    +8.1334980e-007    +2.9093862e-006
+9.8560000e+003    +8.6928611e-007    +2.7127376e-006
+9.9840000e+003    +9.1512038e-007    +2.5337140e-006
+1.0112000e+004    +8.8337879e-007    +2.5903828e-006
+1.0240000e+004    +8.5345283e-007    +2.3720247e-006
+1.0368000e+004    +8.3029488e-007    +2.3440789e-006
+1.0496000e+004    +8.7536313e-007    +2.2922445e-006
+1.0624000e+004    +9.1480695e-007    +2.2950451e-006
+1.0752000e+004    +9.5927601e-007    +2.4307874e-006
+1.0880000e+004    +9.6456733e-007    +2.3743178e-006
+1.1008000e+004    +9.6460872e-007    +2.3532436e-006
+1.1136000e+004    +9.4142638e-007    +2.0634470e-006
+1.1264000e+004    +1.0262391e-006    +2.1207825e-006
+1.1392000e+004    +1.0733237e-006    +2.2576310e-006
+1.1520000e+004    +1.0287199e-006    +2.0197888e-006
+1.1648000e+004    +1.0439016e-006    +1.9369968e-006
+1.1776000e+004    +1.0443121e-006    +2.0186781e-006
+1.1904000e+004    +9.4782041e-007    +2.0862437e-006
+1.2032000e+004    +9.5765017e-007    +2.1038197e-006
+1.2160000e+004    +9.9025078e-007    +2.0026223e-006
+1.2288000e+004    +1.0003262e-006    +1.9976546e-006
+1.2416000e+004    +1.0296917e-006    +2.0428745e-006
+1.2544000e+004    +1.0364963e-006    +2.0307268e-006
+1.2672000e+004    +9.8357805e-007    +2.0996108e-006
+1.2800000e+004    +1.0234081e-006    +2.1051553e-006
+1.2928000e+004    +1.0053051e-006    +2.0500174e-006
+1.3056000e+004    +1.0820027e-006    +1.8627148e-006
+1.3184000e+004    +1.0973079e-006    +1.8458352e-006
+1.3312000e+004    +9.9941940e-007    +1.8101806e-006
+1.3440000e+004    +9.9709678e-007    +1.8692134e-006
+1.3568000e+004    +1.1020155e-006    +1.9677423e-006
+1.3696000e+004    +1.1766485e-006    +1.9492045e-006
+1.3824000e+004    +1.1680617e-006    +1.8331435e-006
+1.3952000e+004    +1.1302847e-006    +1.7417732e-006
+1.4080000e+004    +1.2077270e-006    +1.6862373e-006
+1.4208000e+004    +1.1250734e-006    +1.7261335e-006
+1.4336000e+004    +1.0750999e-006    +1.8709094e-006
+1.4464000e+004    +1.0664940e-006    +1.9461143e-006
+1.4592000e+004    +1.0218452e-006    +1.7424503e-006
+1.4720000e+004    +9.8859186e-007    +1.6100048e-006
+1.4848000e+004    +9.6670476e-007    +1.7096165e-006
+1.4976000e+004    +9.3889525e-007    +1.7151780e-006
+1.5104000e+004    +9.9392923e-007    +1.9242298e-006
+1.5232000e+004    +9.9887632e-007    +1.8526227e-006
+1.5360000e+004    +9.8647979e-007    +1.7102793e-006
+1.5488000e+004    +9.8744090e-007    +1.7351479e-006
+1.5616000e+004    +9.4294603e-007    +1.7745931e-006
+1.5744000e+004    +9.2982850e-007    +1.8937380e-006
+1.5872000e+004    +9.6420627e-007    +1.8336649e-006
+1.6000000e+004    +8.7117411e-007    +1.7955227e-006
+1.6128000e+004    +8.6586641e-007    +1.7790450e-006
+1.6256000e+004    +9.6285112e-007    +1.8164461e-006
+1.6384000e+004    +9.6220435e-007    +1.8253247e-006
+1.6512000e+004    +9.0890802e-007    +1.6588410e-006
+1.6640000e+004    +9.1450465e-007    +1.6157281e-006
+1.6768000e+004    +9.2556070e-007    +1.5512335e-006
+1.6896000e+004    +9.7729890e-007    +1.5416064e-006
+1.7024000e+004    +9.2321517e-007    +1.5181109e-006
+1.7152000e+004    +8.0913856e-007    +1.4402780e-006
+1.7280000e+004    +8.0605986e-007    +1.4684645e-006
+1.7408000e+004    +8.2961782e-007    +1.5650221e-006
+1.7536000e+004    +8.1136437e-007    +1.4362164e-006
+1.7664000e+004    +8.0804477e-007    +1.2311367e-006
+1.7792000e+004    +7.9708917e-007    +1.2462998e-006
+1.7920000e+004    +7.7050589e-007    +1.3052654e-006
+1.8048000e+004    +7.6546684e-007    +1.3130359e-006
+1.8176000e+004    +7.9755750e-007    +1.2494127e-006
+1.8304000e+004    +7.9158764e-007    +1.2276299e-006
+1.8432000e+004    +7.8304618e-007    +1.1826908e-006
+1.8560000e+004    +7.5634642e-007    +1.2101694e-006
+1.8688000e+004    +7.3835895e-007    +1.2450183e-006
+1.8816000e+004    +7.5456558e-007    +1.1496534e-006
+1.8944000e+004    +7.4080805e-007    +1.0591062e-006
+1.9072000e+004    +7.5374498e-007    +1.1375641e-006
+1.9200000e+004    +7.6720602e-007    +1.1316196e-006
+1.9328000e+004    +7.0963671e-007    +1.1884365e-006
+1.9456000e+004    +7.4579856e-007    +1.0861866e-006
+1.9584000e+004    +7.9104723e-007    +9.8559633e-007
+1.9712000e+004    +7.6722881e-007    +9.2649509e-007
+1.9840000e+004    +7.1285876e-007    +1.0673619e-006
+1.9968000e+004    +7.3459802e-007    +1.0931292e-006
+2.0096000e+004    +7.5569562e-007    +1.0791824e-006
+2.0224000e+004    +7.2880010e-007    +1.1391340e-006
+2.0352000e+004    +7.4134670e-007    +9.9803879e-007
+2.0480000e+004    +7.3425696e-007    +9.9642159e-007
+2.0608000e+004    +7.3542282e-007    +9.9163901e-007
+2.0736000e+004    +7.5910100e-007    +8.8167724e-007
+2.0864000e+004    +7.6231242e-007    +9.5994619e-007
+2.0992000e+004    +7.5993825e-007    +9.6397866e-007
+2.1120000e+004    +7.7794050e-007    +8.6418248e-007
+2.1248000e+004    +7.9677505e-007    +9.2794482e-007
+2.1376000e+004    +7.5325357e-007    +1.0677007e-006
+2.1504000e+004    +7.6016943e-007    +1.0126932e-006
+2.1632000e+004    +7.4799959e-007    +8.4722365e-007
+2.1760000e+004    +7.6044660e-007    +7.4186045e-007
+2.1888000e+004    +7.7529546e-007    +7.6650554e-007
+2.2016000e+004    +7.8201691e-007    +8.5907203e-007
+2.2144000e+004    +7.6388341e-007    +8.7787527e-007
+2.2272000e+004    +7.5968131e-007    +8.4290178e-007
+2.2400000e+004    +7.5389562e-007    +7.4700654e-007
+2.2528000e+004    +7.0923323e-007    +8.4532905e-007
+2.2656000e+004    +6.9891252e-007    +8.9724864e-007
+2.2784000e+004    +7.3919603e-007    +8.4545809e-007
+2.2912000e+004    +7.6177275e-007    +8.0119196e-007
+2.3040000e+004    +7.4525178e-007    +8.5487272e-007
+2.3168000e+004    +7.3882683e-007    +7.7662366e-007
+2.3296000e+004    +7.5557449e-007    +8.2190678e-007
+2.3424000e+004    +7.9171804e-007    +7.2362451e-007
+2.3552000e+004    +7.6166157e-007    +7.0709967e-007
+2.3680000e+004    +7.2847530e-007    +7.6862591e-007
+2.3808000e+004    +7.3366948e-007    +8.4429388e-007
+2.3936000e+004    +7.7919543e-007    +7.9642780e-007
+2.4064000e+004    +7.4783782e-007    +7.5001606e-007
+2.4192000e+004    +7.8121877e-007    +7.5713825e-007
+2.4320000e+004    +7.7516438e-007    +7.2887133e-007
+2.4448000e+004    +7.7352945e-007    +7.0580586e-007
+2.4576000e+004    +7.4528856e-007    +7.1160446e-007
+2.4704000e+004    +7.8373341e-007    +7.0011680e-007
+2.4832000e+004    +7.4878926e-007    +6.2293350e-007
+2.4960000e+004    +7.3955243e-007    +6.6985700e-007
+2.5088000e+004    +7.5180765e-007    +6.9488777e-007
+2.5216000e+004    +7.6589055e-007    +7.4136216e-007
+2.5344000e+004    +7.4583869e-007    +7.2453241e-007
+2.5472000e+004    +7.2948620e-007    +6.7698983e-007
+2.5600000e+004    +7.3848622e-007    +6.4289321e-007
+2.5728000e+004    +7.1487472e-007    +6.4284171e-007
+2.5856000e+004    +7.3028758e-007    +6.4280005e-007
+2.5984000e+004    +7.6458491e-007    +6.8302847e-007
+2.6112000e+004    +7.3159009e-007    +7.3807848e-007
+2.6240000e+004    +7.4340073e-007    +6.6830916e-007
+2.6368000e+004    +7.2572749e-007    +6.4672264e-007
+2.6496000e+004    +7.2797877e-007    +6.5697844e-007
+2.6624000e+004    +7.2998938e-007    +6.5149840e-007
+2.6752000e+004    +7.5412993e-007    +6.4502990e-007
+2.6880000e+004    +7.6663935e-007    +6.1062383e-007
+2.7008000e+004    +7.6560468e-007    +6.4129006e-007
+2.7136000e+004    +7.5932525e-007    +6.3646263e-007
+2.7264000e+004    +7.7945555e-007    +6.2087207e-007
+2.7392000e+004    +7.3465048e-007    +6.5181462e-007
+2.7520000e+004    +7.2369289e-007    +6.6365345e-007
+2.7648000e+004    +7.5963959e-007    +6.3909982e-007
+2.7776000e+004    +7.7539079e-007    +6.3221137e-007
+2.7904000e+004    +7.7226076e-007    +6.1151616e-007
+2.8032000e+004    +7.8016529e-007    +6.1583518e-007
+2.8160000e+004    +7.7311086e-007    +5.9353857e-007
+2.8288000e+004    +7.7394316e-007    +5.8739460e-007
+2.8416000e+004    +8.1626808e-007    +6.1962720e-007
+2.8544000e+004    +8.4046297e-007    +6.2306418e-007
+2.8672000e+004    +8.5975427e-007    +5.3793116e-007
+2.8800000e+004    +8.1850635e-007    +5.4742020e-007
+2.8928000e+004    +8.5298910e-007    +5.2258372e-007
+2.9056000e+004    +8.2807713e-007    +5.2428368e-007
+2.9184000e+004    +8.0826572e-007    +5.0461483e-007
+2.9312000e+004    +7.8422755e-007    +5.3309867e-007
+2.9440000e+004    +8.5080416e-007    +5.8854175e-007
+2.9568000e+004    +8.8112080e-007    +6.0116884e-007
+2.9696000e+004    +8.6663016e-007    +5.7585868e-007
+2.9824000e+004    +8.8952407e-007    +5.8086255e-007
+2.9952000e+004    +8.6301145e-007    +5.6593132e-007
+3.0080000e+004    +8.5150691e-007    +5.8657673e-007
+3.0208000e+004    +8.7127358e-007    +5.6124890e-007
+3.0336000e+004    +9.0122063e-007    +6.2805401e-007
+3.0464000e+004    +8.6761838e-007    +6.4176766e-007
+3.0592000e+004    +8.2333025e-007    +6.0178763e-007
+3.0720000e+004    +8.2020483e-007    +6.0309401e-007
+3.0848000e+004    +8.4061895e-007    +6.6027530e-007
+3.0976000e+004    +8.3614896e-007    +5.9766626e-007
+3.1104000e+004    +8.6405532e-007    +5.8161049e-007
+3.1232000e+004    +8.9975140e-007    +6.2018802e-007
+3.1360000e+004    +9.4557834e-007    +5.7180876e-007
+3.1488000e+004    +9.3395602e-007    +5.8100733e-007
+3.1616000e+004    +8.5818209e-007    +5.9463503e-007
+3.1744000e+004    +8.7395915e-007    +5.6508503e-007
+3.1872000e+004    +9.3721746e-007    +5.6636770e-007
+3.2000000e+004    +8.9112234e-007    +6.0232441e-007
+3.2128000e+004    +9.2014290e-007    +5.7474568e-007
+3.2256000e+004    +9.0016448e-007    +5.9545562e-007
+3.2384000e+004    +8.7282183e-007    +6.6540969e-007
+3.2512000e+004    +8.9653861e-007    +6.2584917e-007
+3.2640000e+004    +8.9501219e-007    +5.5832027e-007
+3.2768000e+004    +9.2389558e-007    +5.9363242e-007
+3.2896000e+004    +9.0917354e-007    +5.9792484e-007
+3.3024000e+004    +9.0386447e-007    +5.8000728e-007
+3.3152000e+004    +8.8525076e-007    +6.0912993e-007
+3.3280000e+004    +8.8110147e-007    +5.7372301e-007
+3.3408000e+004    +8.7370012e-007    +5.5608297e-007
+3.3536000e+004    +9.3057815e-007    +5.3789989e-007
+3.3664000e+004    +9.2515432e-007    +5.9466964e-007
+3.3792000e+004    +8.8099989e-007    +5.9165558e-007
+3.3920000e+004    +9.3331636e-007    +5.8322837e-007
+3.4048000e+004    +9.9356703e-007    +5.8309962e-007
+3.4176000e+004    +9.1154641e-007    +5.6895738e-007
+3.4304000e+004    +8.1997342e-007    +5.8822650e-007
+3.4432000e+004    +8.7468101e-007    +5.7885262e-007
+3.4560000e+004    +8.6512898e-007    +5.7714487e-007
+3.4688000e+004    +8.1776972e-007    +6.0930518e-007
+3.4816000e+004    +8.6971761e-007    +5.9389384e-007
+3.4944000e+004    +9.4997807e-007    +6.1285374e-007
+3.5072000e+004    +8.8604037e-007    +6.1409378e-007
+3.5200000e+004    +8.3989102e-007    +5.9197203e-007
+3.5328000e+004    +8.9942057e-007    +6.3755721e-007
+3.5456000e+004    +8.2757725e-007    +5.8665279e-007
+3.5584000e+004    +9.0360652e-007    +5.8855602e-007
+3.5712000e+004    +9.5613518e-007    +6.3416496e-007
+3.5840000e+004    +9.3459198e-007    +6.6846104e-007
+3.5968000e+004    +9.1309505e-007    +6.0247652e-007
+3.6096000e+004    +9.2364610e-007    +6.0484865e-007
+3.6224000e+004    +9.6561848e-007    +6.5130314e-007
+3.6352000e+004    +9.3388422e-007    +5.8965298e-007
+3.6480000e+004    +9.1964694e-007    +5.0326258e-007
+3.6608000e+004    +9.0274176e-007    +5.6033332e-007
+3.6736000e+004    +9.0984258e-007    +6.1823476e-007
+3.6864000e+004    +9.0971173e-007    +5.6797933e-007
+3.6992000e+004    +9.3898700e-007    +6.1048911e-007
+3.7120000e+004    +9.1127021e-007    +5.3310805e-007
+3.7248000e+004    +9.3768068e-007    +6.1665185e-007
+3.7376000e+004    +9.7329826e-007    +6.5074204e-007
+3.7504000e+004    +9.8350131e-007    +6.8902489e-007
+3.7632000e+004    +9.5717610e-007    +6.7362066e-007
+3.7760000e+004    +9.2348790e-007    +6.4506247e-007
+3.7888000e+004    +9.4474916e-007    +6.4779221e-007
+3.8016000e+004    +9.5573739e-007    +5.9517390e-007
+3.8144000e+004    +9.4781939e-007    +6.2600793e-007
+3.8272000e+004    +8.9299311e-007    +7.0456394e-007
+3.8400000e+004    +8.9082596e-007    +6.8314921e-007
+3.8528000e+004    +9.0748705e-007    +6.9066243e-007
+3.8656000e+004    +8.9383275e-007    +6.5276788e-007
+3.8784000e+004    +8.7803528e-007    +6.6673999e-007
+3.8912000e+004    +9.4888873e-007    +6.7336703e-007
+3.9040000e+004    +9.8665203e-007    +6.8415653e-007
+3.9168000e+004    +9.7768850e-007    +7.1460005e-007
+3.9296000e+004    +9.9958947e-007    +6.8342001e-007
+3.9424000e+004    +9.3447301e-007    +6.2767418e-007
+3.9552000e+004    +9.5058846e-007    +6.3783659e-007
+3.9680000e+004    +9.7306213e-007    +6.2925017e-007
+3.9808000e+004    +9.3266385e-007    +6.3078721e-007
+3.9936000e+004    +9.1291656e-007    +6.2971878e-007
+4.0064000e+004    +9.3290964e-007    +6.7840210e-007
+4.0192000e+004    +9.4500751e-007    +6.6205814e-007
+4.0320000e+004    +1.0121530e-006    +6.4673043e-007
+4.0448000e+004    +1.0327204e-006    +6.9090737e-007
+4.0576000e+004    +1.0564107e-006    +7.2054684e-007
+4.0704000e+004    +9.6914914e-007    +6.7498883e-007
+4.0832000e+004    +9.3627847e-007    +7.1914315e-007
+4.0960000e+004    +9.7031182e-007    +7.2395591e-007
+4.1088000e+004    +9.4873349e-007    +6.7304842e-007
+4.1216000e+004    +9.5464668e-007    +6.6580873e-007
+4.1344000e+004    +1.0011942e-006    +7.6252257e-007
+4.1472000e+004    +9.7187694e-007    +7.6284829e-007
+4.1600000e+004    +9.0382082e-007    +7.2424291e-007
+4.1728000e+004    +9.1271613e-007    +7.1933584e-007
+4.1856000e+004    +9.4077745e-007    +6.4385745e-007
+4.1984000e+004    +9.3498716e-007    +7.0454848e-007
+4.2112000e+004    +9.3448222e-007    +6.8145090e-007
+4.2240000e+004    +9.3163322e-007    +6.7407717e-007
+4.2368000e+004    +9.5649318e-007    +6.9751496e-007
+4.2496000e+004    +9.4177375e-007    +7.7806351e-007
+4.2624000e+004    +1.0195680e-006    +6.6740574e-007
+4.2752000e+004    +9.6127303e-007    +6.7807963e-007
+4.2880000e+004    +9.7537259e-007    +8.2632698e-007
+4.3008000e+004    +9.1051311e-007    +8.4252702e-007
+4.3136000e+004    +9.1071507e-007    +7.0816952e-007
+4.3264000e+004    +9.5433336e-007    +6.7816154e-007
+4.3392000e+004    +9.6512667e-007    +7.5992489e-007
+4.3520000e+004    +9.8002613e-007    +7.7572713e-007
+4.3648000e+004    +9.8711575e-007    +7.0317520e-007
+4.3776000e+004    +9.4802647e-007    +7.0472487e-007
+4.3904000e+004    +8.9883315e-007    +6.9125565e-007
+4.4032000e+004    +9.4745519e-007    +6.7230468e-007
+4.4160000e+004    +9.1901506e-007    +7.6522650e-007
+4.4288000e+004    +9.2798757e-007    +7.8417156e-007
+4.4416000e+004    +9.9759723e-007    +7.4638098e-007
+4.4544000e+004    +9.9131137e-007    +7.6288183e-007
+4.4672000e+004    +1.0265412e-006    +7.3087233e-007
+4.4800000e+004    +9.8296800e-007    +7.2483476e-007
+4.4928000e+004    +9.5774897e-007    +7.1690420e-007
+4.5056000e+004    +9.6184203e-007    +6.9409168e-007
+4.5184000e+004    +9.0508894e-007    +7.6661661e-007
+4.5312000e+004    +9.7903023e-007    +7.5981814e-007
+4.5440000e+004    +9.9272734e-007    +8.1208270e-007
+4.5568000e+004    +9.6410781e-007    +7.5887101e-007
+4.5696000e+004    +9.7385839e-007    +7.3513377e-007
+4.5824000e+004    +9.6090889e-007    +7.3415941e-007
+4.5952000e+004    +9.3222258e-007    +7.2188982e-007
+4.6080000e+004    +9.7894849e-007    +7.5741843e-007
+4.6208000e+004    +1.0407191e-006    +8.8152626e-007
+4.6336000e+004    +9.5974485e-007    +7.9790613e-007
+4.6464000e+004    +9.3681211e-007    +7.5157988e-007
+4.6592000e+004    +9.2900399e-007    +7.7811734e-007
+4.6720000e+004    +9.6030249e-007    +7.4596642e-007
+4.6848000e+004    +9.9713407e-007    +8.1799965e-007
+4.6976000e+004    +1.0411534e-006    +8.2848453e-007
+4.7104000e+004    +1.0156485e-006    +8.0417078e-007
+4.7232000e+004    +9.8493103e-007    +8.4651418e-007
+4.7360000e+004    +1.0191314e-006    +9.0373152e-007
+4.7488000e+004    +1.0119563e-006    +8.4128652e-007
+4.7616000e+004    +9.7028942e-007    +7.9308222e-007
+4.7744000e+004    +9.1590948e-007    +8.0256018e-007
+4.7872000e+004    +8.5730153e-007    +8.4153965e-007
+4.8000000e+004    +8.9208567e-007    +8.5314645e-007
+4.8128000e+004    +9.3769199e-007    +8.9573575e-007
+4.8256000e+004    +9.1501090e-007    +8.8284355e-007
+4.8384000e+004    +8.9860623e-007    +8.4413722e-007
+4.8512000e+004    +8.4111105e-007    +8.4060878e-007
+4.8640000e+004    +8.4823540e-007    +8.5216533e-007
+4.8768000e+004    +8.8956511e-007    +8.4798768e-007
+4.8896000e+004    +8.7496824e-007    +8.1366778e-007
+4.9024000e+004    +8.5456679e-007    +7.9856432e-007
+4.9152000e+004    +8.6978065e-007    +7.7962500e-007
+4.9280000e+004    +8.3653094e-007    +7.8082945e-007
+4.9408000e+004    +8.5208580e-007    +8.0182645e-007
+4.9536000e+004    +8.1703382e-007    +8.6196980e-007
+4.9664000e+004    +8.3106283e-007    +9.0907372e-007
+4.9792000e+004    +8.0170059e-007    +9.1119421e-007
+4.9920000e+004    +8.3663843e-007    +8.9263625e-007
+5.0048000e+004    +8.0576081e-007    +9.1087912e-007
+5.0176000e+004    +7.9672782e-007    +9.8494081e-007
+5.0304000e+004    +8.1212193e-007    +9.5864220e-007
+5.0432000e+004    +7.8749167e-007    +8.9495228e-007
+5.0560000e+004    +7.5840040e-007    +9.4582856e-007
+5.0688000e+004    +7.4206088e-007    +9.7921190e-007
+5.0816000e+004    +7.4277659e-007    +9.3933966e-007
+5.0944000e+004    +7.4442579e-007    +8.5138163e-007
+5.1072000e+004    +7.1898364e-007    +8.7614296e-007
+5.1200000e+004    +6.6920717e-007    +8.6913911e-007
+5.1328000e+004    +6.7143719e-007    +8.6549574e-007
+5.1456000e+004    +7.4150461e-007    +8.9298135e-007
+5.1584000e+004    +7.1437881e-007    +9.1001243e-007
+5.1712000e+004    +6.6992317e-007    +9.2146223e-007
+5.1840000e+004    +6.8032057e-007    +9.1429285e-007
+5.1968000e+004    +7.2673214e-007    +9.1990853e-007
+5.2096000e+004    +6.5725624e-007    +9.7086911e-007
+5.2224000e+004    +6.7413487e-007    +9.9945112e-007
+5.2352000e+004    +6.9093318e-007    +9.5921496e-007
+5.2480000e+004    +6.9131642e-007    +9.8086355e-007
+5.2608000e+004    +6.8625855e-007    +1.0242130e-006
+5.2736000e+004    +7.0283170e-007    +9.7003590e-007
+5.2864000e+004    +6.9949522e-007    +1.0388604e-006
+5.2992000e+004    +6.7927789e-007    +1.0766580e-006
+5.3120000e+004    +6.7102519e-007    +9.9170870e-007
+5.3248000e+004    +6.7388402e-007    +9.8318822e-007
+5.3376000e+004    +6.7096113e-007    +1.0152204e-006
+5.3504000e+004    +6.6806922e-007    +9.1691362e-007
+5.3632000e+004    +6.3975767e-007    +9.2219301e-007
+5.3760000e+004    +6.6187357e-007    +9.7102793e-007
+5.3888000e+004    +6.7434070e-007    +1.0245088e-006
+5.4016000e+004    +6.8279900e-007    +9.8308897e-007
+5.4144000e+004    +6.3353508e-007    +9.3143888e-007
+5.4272000e+004    +6.1586695e-007    +9.6910333e-007
+5.4400000e+004    +6.3406048e-007    +1.0504933e-006
+5.4528000e+004    +6.1236881e-007    +9.4993743e-007
+5.4656000e+004    +6.0869002e-007    +9.8236387e-007
+5.4784000e+004    +6.3123480e-007    +9.7664679e-007
+5.4912000e+004    +6.2929718e-007    +1.0146275e-006
+5.5040000e+004    +6.2358907e-007    +9.2717795e-007
+5.5168000e+004    +6.5377208e-007    +9.9797955e-007
+5.5296000e+004    +6.4084099e-007    +9.9933050e-007
+5.5424000e+004    +6.3026664e-007    +1.0593598e-006
+5.5552000e+004    +6.3630335e-007    +1.0965877e-006
+5.5680000e+004    +6.2277689e-007    +1.1004569e-006
+5.5808000e+004    +6.0851562e-007    +1.0206745e-006
+5.5936000e+004    +6.2547548e-007    +1.0508936e-006
+5.6064000e+004    +6.3048464e-007    +1.1130435e-006
+5.6192000e+004    +6.4364826e-007    +1.0683680e-006
+5.6320000e+004    +6.2188178e-007    +1.0084392e-006
+5.6448000e+004    +6.1298766e-007    +1.0129924e-006
+5.6576000e+004    +6.0918541e-007    +1.0144404e-006
+5.6704000e+004    +6.2353911e-007    +1.0515873e-006
+5.6832000e+004    +6.0450475e-007    +1.1198098e-006
+5.6960000e+004    +5.8066104e-007    +1.1138295e-006
+5.7088000e+004    +6.1097660e-007    +1.0201178e-006
+5.7216000e+004    +6.1903421e-007    +9.3358182e-007
+5.7344000e+004    +6.0001554e-007    +9.0659972e-007
+5.7472000e+004    +5.9384627e-007    +1.0231003e-006
+5.7600000e+004    +6.0165814e-007    +1.1021510e-006
+5.7728000e+004    +5.9973956e-007    +1.1399022e-006
+5.7856000e+004    +5.7799463e-007    +1.1035411e-006
+5.7984000e+004    +5.7225844e-007    +1.0691095e-006
+5.8112000e+004    +5.7261292e-007    +1.1373356e-006
+5.8240000e+004    +5.9378493e-007    +1.2021692e-006
+5.8368000e+004    +5.8324434e-007    +1.1888188e-006
+5.8496000e+004    +5.4759994e-007    +1.0666497e-006
+5.8624000e+004    +5.6287996e-007    +1.1379577e-006
+5.8752000e+004    +6.0693088e-007    +1.2008170e-006
+5.8880000e+004    +6.0007943e-007    +1.2075374e-006
+5.9008000e+004    +5.6860830e-007    +1.1605348e-006
+5.9136000e+004    +5.6983328e-007    +1.1314854e-006
+5.9264000e+004    +5.7898228e-007    +1.1315500e-006
+5.9392000e+004    +5.4591965e-007    +1.1429288e-006
+5.9520000e+004    +5.6085776e-007    +1.1155381e-006
+5.9648000e+004    +5.8449825e-007    +1.0792951e-006
+5.9776000e+004    +5.8116240e-007    +1.1361200e-006
+5.9904000e+004    +5.8233570e-007    +1.1096245e-006
+6.0032000e+004    +5.8445784e-007    +1.2193736e-006
+6.0160000e+004    +5.7662550e-007    +1.1435451e-006
+6.0288000e+004    +5.6480405e-007    +1.1046467e-006
+6.0416000e+004    +5.5809227e-007    +1.1328826e-006
+6.0544000e+004    +5.4485139e-007    +1.2077071e-006
+6.0672000e+004    +5.4823886e-007    +1.1787835e-006
+6.0800000e+004    +5.5231220e-007    +1.1247930e-006
+6.0928000e+004    +5.4761381e-007    +1.1221274e-006
+6.1056000e+004    +5.2724681e-007    +1.2568894e-006
+6.1184000e+004    +5.5613611e-007    +1.2470404e-006
+6.1312000e+004    +5.4895082e-007    +1.1945103e-006
+6.1440000e+004    +5.5204544e-007    +1.2621347e-006
+6.1568000e+004    +5.6559469e-007    +1.3010601e-006
+6.1696000e+004    +5.2612319e-007    +1.1772844e-006
+6.1824000e+004    +5.0407436e-007    +1.1413074e-006
+6.1952000e+004    +4.9733177e-007    +1.2046070e-006
+6.2080000e+004    +5.2174266e-007    +1.2860834e-006
+6.2208000e+004    +5.2278801e-007    +1.2198544e-006
+6.2336000e+004    +5.4976147e-007    +1.1243399e-006
+6.2464000e+004    +5.2476167e-007    +1.1913249e-006
+6.2592000e+004    +5.5661013e-007    +1.2831483e-006
+6.2720000e+004    +5.5337568e-007    +1.2411258e-006
+6.2848000e+004    +5.1873758e-007    +1.2039775e-006
+6.2976000e+004    +5.2094299e-007    +1.2348122e-006
+6.3104000e+004    +5.0977150e-007    +1.2816347e-006
+6.3232000e+004    +5.0151618e-007    +1.1929428e-006
+6.3360000e+004    +5.0505440e-007    +1.2834033e-006
+6.3488000e+004    +4.8620780e-007    +1.4061023e-006
+6.3616000e+004    +4.9644524e-007    +1.2860270e-006
+6.3744000e+004    +5.0776720e-007    +1.2585533e-006
+6.3872000e+004    +5.0308410e-007    +1.2634990e-006
+6.4000000e+004    +5.0659111e-007    +1.1337562e-006
+6.4128000e+004    +4.9340923e-007    +1.2310043e-006
+6.4256000e+004    +4.8675156e-007    +1.2459674e-006
+6.4384000e+004    +4.9565989e-007    +1.2927713e-006
+6.4512000e+004    +5.0932556e-007    +1.2690324e-006
+6.4640000e+004    +5.0386132e-007    +1.3327983e-006
+6.4768000e+004    +5.0189630e-007    +1.3561628e-006
+6.4896000e+004    +5.0781625e-007    +1.2807527e-006
+6.5024000e+004    +5.0855107e-007    +1.2789792e-006
+6.5152000e+004    +4.8846800e-007    +1.3084551e-006
+6.5280000e+004    +5.0021669e-007    +1.2575920e-006
+6.5408000e+004    +5.0390616e-007    +1.4042571e-006
+6.5536000e+004    +4.9348239e-007    +1.3514419e-006
+6.5664000e+004    +5.0605519e-007    +1.2436288e-006
+6.5792000e+004    +4.9878309e-007    +1.3203640e-006
+6.5920000e+004    +4.9899290e-007    +1.3703703e-006
+6.6048000e+004    +5.1016735e-007    +1.3321282e-006
+6.6176000e+004    +4.8879843e-007    +1.3405473e-006
+6.6304000e+004    +4.8128373e-007    +1.3880970e-006
+6.6432000e+004    +4.7998452e-007    +1.3292748e-006
+6.6560000e+004    +4.7632059e-007    +1.3200466e-006
+6.6688000e+004    +4.5987682e-007    +1.4739599e-006
+6.6816000e+004    +4.6485488e-007    +1.4995667e-006
+6.6944000e+004    +4.5274061e-007    +1.4287989e-006
+6.7072000e+004    +4.4895478e-007    +1.3468248e-006
+6.7200000e+004    +4.5366215e-007    +1.1908215e-006
+6.7328000e+004    +4.8922692e-007    +1.2522129e-006
+6.7456000e+004    +4.9354520e-007    +1.4195202e-006
+6.7584000e+004    +4.6394931e-007    +1.4207239e-006
+6.7712000e+004    +4.5015224e-007    +1.4085932e-006
+6.7840000e+004    +4.6453547e-007    +1.4839317e-006
+6.7968000e+004    +4.8504120e-007    +1.4591235e-006
+6.8096000e+004    +4.7726024e-007    +1.4157504e-006
+6.8224000e+004    +4.5481224e-007    +1.4244038e-006
+6.8352000e+004    +4.5280774e-007    +1.4488299e-006
+6.8480000e+004    +4.7358753e-007    +1.4590514e-006
+6.8608000e+004    +4.6912800e-007    +1.5146545e-006
+6.8736000e+004    +4.4898337e-007    +1.5362248e-006
+6.8864000e+004    +4.7263848e-007    +1.4516515e-006
+6.8992000e+004    +4.7462186e-007    +1.5017531e-006
+6.9120000e+004    +4.4749709e-007    +1.4936265e-006
+6.9248000e+004    +4.5693849e-007    +1.4950983e-006
+6.9376000e+004    +4.6611214e-007    +1.4433633e-006
+6.9504000e+004    +4.7907258e-007    +1.4525635e-006
+6.9632000e+004    +4.5968397e-007    +1.5932445e-006
+6.9760000e+004    +4.5641403e-007    +1.5119380e-006
+6.9888000e+004    +4.5299669e-007    +1.3682355e-006
+7.0016000e+004    +4.3914474e-007    +1.3881778e-006
+7.0144000e+004    +7.8955821e-007    +1.4899723e-006
+7.0272000e+004    +1.1554110e-006    +1.7050912e-006
+7.0400000e+004    +6.6274180e-007    +1.6455207e-006
+7.0528000e+004    +4.5701927e-007    +1.6841853e-006
+7.0656000e+004    +5.1085959e-007    +1.5639348e-006
+7.0784000e+004    +7.0478598e-007    +1.5566761e-006
+7.0912000e+004    +5.5665413e-007    +1.5300639e-006
+7.1040000e+004    +4.3433997e-007    +1.4488395e-006
+7.1168000e+004    +4.5538687e-007    +1.4719188e-006
+7.1296000e+004    +4.7035809e-007    +1.6152280e-006
+7.1424000e+004    +4.6142551e-007    +1.5704701e-006
+7.1552000e+004    +4.4895182e-007    +1.5296825e-006
+7.1680000e+004    +4.4109314e-007    +1.4870877e-006
+7.1808000e+004    +4.3646443e-007    +1.4327514e-006
+7.1936000e+004    +4.4437479e-007    +1.4890581e-006
+7.2064000e+004    +4.5981673e-007    +1.4797259e-006
+7.2192000e+004    +4.5072792e-007    +1.5027427e-006
+7.2320000e+004    +4.3772226e-007    +1.5938324e-006
+7.2448000e+004    +4.6956137e-007    +1.5821906e-006
+7.2576000e+004    +4.5708501e-007    +1.5028418e-006
+7.2704000e+004    +4.5044146e-007    +1.5884533e-006
+7.2832000e+004    +4.2511991e-007    +1.6021365e-006
+7.2960000e+004    +4.3563711e-007    +1.6822430e-006
+7.3088000e+004    +4.3280662e-007    +1.6981859e-006
+7.3216000e+004    +4.3094593e-007    +1.7262566e-006
+7.3344000e+004    +4.4774282e-007    +1.7173771e-006
+7.3472000e+004    +4.4528227e-007    +1.5810219e-006
+7.3600000e+004    +4.2945709e-007    +1.5374228e-006
+7.3728000e+004    +4.3674439e-007    +1.5070520e-006
+7.3856000e+004    +4.3197011e-007    +1.6482819e-006
+7.3984000e+004    +4.3109122e-007    +1.6837101e-006
+7.4112000e+004    +4.2681106e-007    +1.6054134e-006
+7.4240000e+004    +4.2815532e-007    +1.5201024e-006
+7.4368000e+004    +4.3046595e-007    +1.5822028e-006
+7.4496000e+004    +4.4187064e-007    +1.6729908e-006
+7.4624000e+004    +4.4265244e-007    +1.6699353e-006
+7.4752000e+004    +4.1723743e-007    +1.5133446e-006
+7.4880000e+004    +4.0200402e-007    +1.5915066e-006
+7.5008000e+004    +4.2896323e-007    +1.5290276e-006
+7.5136000e+004    +4.3384094e-007    +1.5723800e-006
+7.5264000e+004    +4.2325880e-007    +1.7162480e-006
+7.5392000e+004    +4.2894533e-007    +1.6173486e-006
+7.5520000e+004    +4.2021287e-007    +1.5850735e-006
+7.5648000e+004    +4.0894173e-007    +1.5861128e-006
+7.5776000e+004    +4.0814689e-007    +1.7092356e-006
+7.5904000e+004    +4.2569067e-007    +1.6023705e-006
+7.6032000e+004    +4.2603855e-007    +1.5283327e-006
+7.6160000e+004    +4.2505036e-007    +1.5718139e-006
+7.6288000e+004    +4.3103725e-007    +1.6278044e-006
+7.6416000e+004    +4.1764443e-007    +1.7362017e-006
+7.6544000e+004    +4.1603801e-007    +1.6745603e-006
+7.6672000e+004    +4.3040734e-007    +1.7234179e-006
+7.6800000e+004    +4.1685462e-007    +5.9131398e-006
+7.6928000e+004    +4.1921288e-007    +1.0622483e-005
+7.7056000e+004    +4.1555910e-007    +5.2911123e-006
+7.7184000e+004    +4.1251468e-007    +1.7440256e-006
+7.7312000e+004    +4.0419528e-007    +1.6852600e-006
+7.7440000e+004    +4.2106220e-007    +1.7616310e-006
+7.7568000e+004    +4.1597679e-007    +1.6756510e-006
+7.7696000e+004    +4.2791140e-007    +1.5976185e-006
+7.7824000e+004    +4.1438815e-007    +1.7705702e-006
+7.7952000e+004    +3.8895644e-007    +1.7926330e-006
+7.8080000e+004    +3.8138296e-007    +1.7276313e-006
+7.8208000e+004    +4.0506470e-007    +1.6658900e-006
+7.8336000e+004    +4.5596974e-007    +1.6754651e-006
+7.8464000e+004    +4.1798344e-007    +1.7206895e-006
+7.8592000e+004    +3.9755017e-007    +1.6928134e-006
+7.8720000e+004    +4.1567682e-007    +1.7163139e-006
+7.8848000e+004    +4.1879423e-007    +1.8235299e-006
+7.8976000e+004    +4.0196696e-007    +1.7216930e-006
+7.9104000e+004    +4.0555378e-007    +1.6688832e-006
+7.9232000e+004    +3.7066587e-007    +1.7563740e-006
+7.9360000e+004    +3.7498401e-007    +1.7264861e-006
+7.9488000e+004    +4.0736251e-007    +1.6517965e-006
+7.9616000e+004    +4.1906378e-007    +1.6644566e-006
+7.9744000e+004    +4.2472894e-007    +1.7737224e-006
+7.9872000e+004    +4.1651424e-007    +1.8249319e-006
+8.0000000e+004    +4.0263393e-007    +1.6974961e-006
+8.0128000e+004    +4.1416982e-007    +1.7229240e-006
+8.0256000e+004    +4.1806192e-007    +1.9503411e-006
+8.0384000e+004    +4.0493975e-007    +1.8161051e-006
+8.0512000e+004    +4.0844768e-007    +1.7668242e-006
+8.0640000e+004    +4.2274559e-007    +1.7348850e-006
+8.0768000e+004    +4.2320488e-007    +1.7199472e-006
+8.0896000e+004    +4.1192811e-007    +1.8215248e-006
+8.1024000e+004    +4.1113242e-007    +1.9362315e-006
+8.1152000e+004    +4.1344106e-007    +1.9863689e-006
+8.1280000e+004    +4.1658009e-007    +1.8442408e-006
+8.1408000e+004    +4.0978134e-007    +1.7393079e-006
+8.1536000e+004    +4.0964906e-007    +1.8549939e-006
+8.1664000e+004    +4.1093205e-007    +1.7408860e-006
+8.1792000e+004    +4.2128602e-007    +1.7855359e-006
+8.1920000e+004    +4.3036007e-007    +1.8490462e-006
+8.2048000e+004    +4.3781984e-007    +1.9532642e-006
+8.2176000e+004    +4.0865851e-007    +1.8435140e-006
+8.2304000e+004    +4.4580031e-007    +1.8116599e-006
+8.2432000e+004    +4.2755681e-007    +1.8743040e-006
+8.2560000e+004    +4.1261524e-007    +1.8935406e-006
+8.2688000e+004    +4.2425540e-007    +1.7917830e-006
+8.2816000e+004    +4.1271403e-007    +1.8119543e-006
+8.2944000e+004    +3.9598754e-007    +1.6706671e-006
+8.3072000e+004    +3.6784937e-007    +1.8436862e-006
+8.3200000e+004    +4.0138568e-007    +2.0734874e-006
+8.3328000e+004    +3.8790304e-007    +1.8541265e-006
+8.3456000e+004    +3.7876521e-007    +1.8746044e-006
+8.3584000e+004    +3.8359823e-007    +1.8939356e-006
+8.3712000e+004    +3.9517144e-007    +1.8464169e-006
+8.3840000e+004    +3.8643179e-007    +1.9886406e-006
+8.3968000e+004    +3.9086964e-007    +1.8722451e-006
+8.4096000e+004    +4.1580464e-007    +1.8440971e-006
+8.4224000e+004    +4.0740142e-007    +1.9166412e-006
+8.4352000e+004    +3.7633771e-007    +1.8404097e-006
+8.4480000e+004    +3.9304078e-007    +1.9278882e-006
+8.4608000e+004    +3.7031563e-007    +1.8470981e-006
+8.4736000e+004    +3.8541273e-007    +1.7740476e-006
+8.4864000e+004    +3.9450381e-007    +1.7181806e-006
+8.4992000e+004    +3.8728811e-007    +1.7540691e-006
+8.5120000e+004    +3.5522635e-007    +1.7804637e-006
+8.5248000e+004    +3.5682785e-007    +1.7238323e-006
+8.5376000e+004    +3.8125904e-007    +1.7172357e-006
+8.5504000e+004    +3.7516523e-007    +1.7678682e-006
+8.5632000e+004    +3.6544367e-007    +1.7867558e-006
+8.5760000e+004    +3.4954363e-007    +1.6873615e-006
+8.5888000e+004    +3.3938309e-007    +1.8717087e-006
+8.6016000e+004    +3.3393769e-007    +2.0947753e-006
+8.6144000e+004    +3.5872284e-007    +2.0639477e-006
+8.6272000e+004    +3.5446934e-007    +1.8873137e-006
+8.6400000e+004    +3.4267848e-007    +1.7368615e-006
+8.6528000e+004    +3.4566224e-007    +1.9284960e-006
+8.6656000e+004    +3.5023089e-007    +1.9232898e-006
+8.6784000e+004    +3.5211673e-007    +1.8296729e-006
+8.6912000e+004    +3.4210106e-007    +1.8435526e-006
+8.7040000e+004    +3.3322567e-007    +1.7687885e-006
+8.7168000e+004    +3.4868080e-007    +1.8712299e-006
+8.7296000e+004    +3.6224898e-007    +1.9755398e-006
+8.7424000e+004    +3.5542647e-007    +2.0392868e-006
+8.7552000e+004    +3.4892705e-007    +1.9657555e-006
+8.7680000e+004    +3.5399910e-007    +1.8427025e-006
+8.7808000e+004    +3.4341372e-007    +1.8377040e-006
+8.7936000e+004    +3.4497373e-007    +2.0977398e-006
+8.8064000e+004    +3.3313569e-007    +2.1566839e-006
+8.8192000e+004    +3.4341861e-007    +1.9126785e-006
+8.8320000e+004    +3.0937090e-007    +1.8286486e-006
+8.8448000e+004    +3.1636284e-007    +1.8090917e-006
+8.8576000e+004    +2.9998492e-007    +1.6910616e-006
+8.8704000e+004    +3.1331263e-007    +1.8009998e-006
+8.8832000e+004    +3.1446405e-007    +1.8976302e-006
+8.8960000e+004    +3.1606947e-007    +2.0083780e-006
+8.9088000e+004    +3.0917192e-007    +1.9147628e-006
+8.9216000e+004    +3.0185166e-007    +1.7689322e-006
+8.9344000e+004    +3.0183509e-007    +1.8222930e-006
+8.9472000e+004    +3.1504186e-007    +1.8557497e-006
+8.9600000e+004    +3.2031028e-007    +1.8590331e-006
+8.9728000e+004    +3.1821793e-007    +1.9489455e-006
+8.9856000e+004    +3.0865027e-007    +2.0442858e-006
+8.9984000e+004    +2.9196903e-007    +1.9780791e-006
+9.0112000e+004    +2.9683304e-007    +2.0320206e-006
+9.0240000e+004    +2.9612764e-007    +1.9048592e-006
+9.0368000e+004    +2.8924924e-007    +1.9296142e-006
+9.0496000e+004    +3.0197265e-007    +2.0408770e-006
+9.0624000e+004    +3.0054306e-007    +1.9449951e-006
+9.0752000e+004    +2.9886846e-007    +2.0086957e-006
+9.0880000e+004    +2.9209602e-007    +2.0706686e-006
+9.1008000e+004    +2.7386361e-007    +1.9625745e-006
+9.1136000e+004    +3.0097365e-007    +1.7597384e-006
+9.1264000e+004    +3.0362631e-007    +2.0244179e-006
+9.1392000e+004    +2.9567508e-007    +2.0428947e-006
+9.1520000e+004    +2.9110734e-007    +2.0188932e-006
+9.1648000e+004    +3.0193718e-007    +1.8992394e-006
+9.1776000e+004    +3.0738374e-007    +1.9665133e-006
+9.1904000e+004    +2.8970757e-007    +2.0223940e-006
+9.2032000e+004    +2.8249900e-007    +1.9343020e-006
+9.2160000e+004    +2.8347429e-007    +1.7711652e-006
+9.2288000e+004    +2.9172935e-007    +1.8916413e-006
+9.2416000e+004    +3.0465281e-007    +1.8395168e-006
+9.2544000e+004    +2.9520018e-007    +1.7950792e-006
+9.2672000e+004    +2.8606439e-007    +1.9507438e-006
+9.2800000e+004    +2.9251933e-007    +2.1172134e-006
+9.2928000e+004    +2.8996882e-007    +1.8204792e-006
+9.3056000e+004    +2.6749737e-007    +1.7426876e-006
+9.3184000e+004    +2.6502707e-007    +2.1074911e-006
+9.3312000e+004    +2.6307796e-007    +1.9564086e-006
+9.3440000e+004    +2.5432377e-007    +1.8050205e-006
+9.3568000e+004    +2.5836198e-007    +2.0130606e-006
+9.3696000e+004    +2.6325537e-007    +2.1107423e-006
+9.3824000e+004    +2.6492148e-007    +2.1194742e-006
+9.3952000e+004    +2.5885802e-007    +1.9850086e-006
+9.4080000e+004    +2.6232428e-007    +1.7274664e-006
+9.4208000e+004    +2.5026537e-007    +1.7476963e-006
+9.4336000e+004    +2.5234112e-007    +1.7739775e-006
+9.4464000e+004    +2.6988104e-007    +1.7636456e-006
+9.4592000e+004    +2.4198880e-007    +1.9374245e-006
+9.4720000e+004    +2.4949938e-007    +1.9726310e-006
+9.4848000e+004    +2.5328183e-007    +1.9097804e-006
+9.4976000e+004    +2.2970971e-007    +1.8766330e-006
+9.5104000e+004    +2.5189129e-007    +1.9670531e-006
+9.5232000e+004    +2.5685216e-007    +2.0374939e-006
+9.5360000e+004    +2.5434750e-007    +2.0474351e-006
+9.5488000e+004    +2.6691472e-007    +1.9201650e-006
+9.5616000e+004    +2.7734623e-007    +1.8281728e-006
+9.5744000e+004    +2.6796948e-007    +1.7097179e-006
+9.5872000e+004    +2.5824031e-007    +1.8018918e-006
+9.6000000e+004    +2.5325653e-007    +1.8873779e-006
+9.6128000e+004    +2.6371913e-007    +2.1866722e-006
+9.6256000e+004    +2.5800819e-007    +2.1025151e-006
+9.6384000e+004    +2.5501720e-007    +1.8219729e-006
+9.6512000e+004    +2.7433128e-007    +1.7477271e-006
+9.6640000e+004    +2.9987558e-007    +1.9102774e-006
+9.6768000e+004    +2.7544709e-007    +2.1440501e-006
+9.6896000e+004    +2.7329710e-007    +2.0673112e-006
+9.7024000e+004    +2.9318750e-007    +1.8171422e-006
+9.7152000e+004    +2.8621773e-007    +1.7368347e-006
+9.7280000e+004    +2.6038620e-007    +1.8917514e-006
+9.7408000e+004    +2.6042164e-007    +1.9994122e-006
+9.7536000e+004    +2.5843488e-007    +1.9339432e-006
+9.7664000e+004    +2.6367280e-007    +1.8170145e-006
+9.7792000e+004    +2.8487366e-007    +1.9373074e-006
+9.7920000e+004    +3.3892468e-007    +1.8932225e-006
+9.8048000e+004    +3.2323732e-007    +1.8314778e-006
+9.8176000e+004    +3.1474625e-007    +1.9089273e-006
+9.8304000e+004    +3.0614092e-007    +1.8265878e-006
+9.8432000e+004    +2.9881465e-007    +1.7206366e-006
+9.8560000e+004    +3.1982358e-007    +1.6917394e-006
+9.8688000e+004    +3.2321353e-007    +1.7474891e-006
+9.8816000e+004    +2.8883858e-007    +1.7646722e-006
+9.8944000e+004    +2.7779970e-007    +1.9594504e-006
+9.9072000e+004    +2.7218582e-007    +2.0033347e-006
+9.9200000e+004    +2.5697852e-007    +1.7496278e-006
+9.9328000e+004    +2.4877284e-007    +1.8166156e-006
+9.9456000e+004    +2.5711853e-007    +1.9226543e-006
+9.9584000e+004    +2.6118906e-007    +1.7860438e-006
+9.9712000e+004    +2.6447739e-007    +1.7668165e-006
+9.9840000e+004    +2.3987809e-007    +1.8568646e-006
+9.9968000e+004    +2.3950912e-007    +1.8217008e-006
+1.0009600e+005    +2.5380490e-007    +1.7953887e-006
+1.0022400e+005    +2.4829259e-007    +1.8482342e-006
+1.0035200e+005    +2.2791896e-007    +1.9943454e-006
+1.0048000e+005    +2.2369049e-007    +2.0021275e-006
+1.0060800e+005    +2.3774976e-007    +2.0087839e-006
+1.0073600e+005    +2.2662090e-007    +1.9343977e-006
+1.0086400e+005    +2.3985228e-007    +2.0688597e-006
+1.0099200e+005    +2.3738589e-007    +1.9059868e-006
+1.0112000e+005    +2.3381104e-007    +1.7779885e-006
+1.0124800e+005    +2.3576713e-007    +1.7893412e-006
+1.0137600e+005    +2.2123429e-007    +1.7852066e-006
+1.0150400e+005    +2.1370816e-007    +1.7419989e-006
+1.0163200e+005    +2.2942287e-007    +1.7493780e-006
+1.0176000e+005    +2.3190606e-007    +1.9690822e-006
+1.0188800e+005    +2.1436075e-007    +2.0434309e-006
+1.0201600e+005    +2.1000349e-007    +1.7496566e-006
+1.0214400e+005    +2.3261397e-007    +1.7437402e-006
+1.0227200e+005    +2.4050257e-007    +1.7465971e-006
