# Source Power -70.0dBm
# AG4395A Measurement - Timestamp: Nov 12 2019 - 18:08:35
# Parameter File: FSS_TwoToneThirdOrderIM.yml
#---------- Measurement Parameters ------------
# Start Frequency (Hz): 35600000.0
# Stop Frequency (Hz): 36400000.0
# Frequency Points: 801
# Measurement Format: NOISE
# Measuremed Input: A
#---------- Analyzer Settings ----------
# Number of Averages: 10
# Auto Bandwidth: On
# IF Bandwidth: 1000.0
# Input Attenuators (R,A,B): 20dB 0dB 20dB 
# Units: V/rtHz
#---------- Measurement Data ----------
# [Freq(Hz) Chan 1 ]
35600000.0    1.3494e-08
35601000.0    1.652002e-08
35602000.0    1.708286e-08
35603000.0    1.250237e-08
35604000.0    1.556579e-08
35605000.0    1.688596e-08
35606000.0    1.752195e-08
35607000.0    1.688063e-08
35608000.0    1.668483e-08
35609000.0    1.242966e-08
35610000.0    1.460121e-08
35611000.0    1.309627e-08
35612000.0    1.52641e-08
35613000.0    1.700636e-08
35614000.0    1.584707e-08
35615000.0    1.462121e-08
35616000.0    1.652609e-08
35617000.0    1.59597e-08
35618000.0    1.823354e-08
35619000.0    1.570083e-08
35620000.0    1.672724e-08
35621000.0    1.932436e-08
35622000.0    1.386171e-08
35623000.0    1.17636e-08
35624000.0    1.344136e-08
35625000.0    1.877354e-08
35626000.0    1.692462e-08
35627000.0    1.548761e-08
35628000.0    1.57197e-08
35629000.0    1.608847e-08
35630000.0    1.62583e-08
35631000.0    1.479248e-08
35632000.0    1.918046e-08
35633000.0    1.352613e-08
35634000.0    1.127432e-08
35635000.0    1.790974e-08
35636000.0    1.488359e-08
35637000.0    1.522012e-08
35638000.0    1.857993e-08
35639000.0    1.581483e-08
35640000.0    1.49016e-08
35641000.0    1.453192e-08
35642000.0    1.606661e-08
35643000.0    1.725635e-08
35644000.0    1.781422e-08
35645000.0    1.419805e-08
35646000.0    1.502663e-08
35647000.0    1.385402e-08
35648000.0    1.305396e-08
35649000.0    1.687953e-08
35650000.0    1.636381e-08
35651000.0    1.311157e-08
35652000.0    1.503203e-08
35653000.0    1.074561e-08
35654000.0    1.133817e-08
35655000.0    1.481628e-08
35656000.0    1.695326e-08
35657000.0    1.870951e-08
35658000.0    1.77715e-08
35659000.0    1.686258e-08
35660000.0    1.62851e-08
35661000.0    1.755263e-08
35662000.0    1.867539e-08
35663000.0    1.571932e-08
35664000.0    1.617539e-08
35665000.0    1.492786e-08
35666000.0    1.608937e-08
35667000.0    1.178537e-08
35668000.0    1.442726e-08
35669000.0    1.734538e-08
35670000.0    1.488913e-08
35671000.0    1.636933e-08
35672000.0    1.305234e-08
35673000.0    1.388952e-08
35674000.0    1.63206e-08
35675000.0    1.360418e-08
35676000.0    1.655113e-08
35677000.0    1.372186e-08
35678000.0    1.200439e-08
35679000.0    2.034335e-08
35680000.0    1.595443e-08
35681000.0    1.579975e-08
35682000.0    1.535942e-08
35683000.0    1.861557e-08
35684000.0    1.930169e-08
35685000.0    1.162918e-08
35686000.0    1.261734e-08
35687000.0    1.372541e-08
35688000.0    1.515754e-08
35689000.0    1.842109e-08
35690000.0    2.000861e-08
35691000.0    1.23989e-08
35692000.0    1.303153e-08
35693000.0    1.241123e-08
35694000.0    1.590631e-08
35695000.0    1.741686e-08
35696000.0    1.329614e-08
35697000.0    1.349123e-08
35698000.0    1.823697e-08
35699000.0    1.770933e-08
35700000.0    1.509244e-08
35701000.0    1.974124e-08
35702000.0    1.853321e-08
35703000.0    1.522382e-08
35704000.0    1.640738e-08
35705000.0    1.817607e-08
35706000.0    1.577498e-08
35707000.0    1.632363e-08
35708000.0    1.352339e-08
35709000.0    1.280483e-08
35710000.0    1.772413e-08
35711000.0    1.564777e-08
35712000.0    1.303678e-08
35713000.0    1.585567e-08
35714000.0    1.953106e-08
35715000.0    1.426733e-08
35716000.0    1.592694e-08
35717000.0    1.476337e-08
35718000.0    1.660483e-08
35719000.0    1.461941e-08
35720000.0    1.434334e-08
35721000.0    1.471916e-08
35722000.0    1.66909e-08
35723000.0    1.643665e-08
35724000.0    1.694773e-08
35725000.0    1.46599e-08
35726000.0    1.472699e-08
35727000.0    1.502649e-08
35728000.0    1.236143e-08
35729000.0    1.737587e-08
35730000.0    1.710339e-08
35731000.0    1.394308e-08
35732000.0    1.421163e-08
35733000.0    1.758858e-08
35734000.0    1.659467e-08
35735000.0    2.081085e-08
35736000.0    1.188465e-08
35737000.0    1.200706e-08
35738000.0    1.389333e-08
35739000.0    1.829493e-08
35740000.0    1.251558e-08
35741000.0    1.181085e-08
35742000.0    1.509859e-08
35743000.0    1.288776e-08
35744000.0    1.816182e-08
35745000.0    1.543549e-08
35746000.0    1.306875e-08
35747000.0    1.22281e-08
35748000.0    1.254161e-08
35749000.0    1.846489e-08
35750000.0    1.507354e-08
35751000.0    1.437626e-08
35752000.0    1.41514e-08
35753000.0    1.532149e-08
35754000.0    1.539824e-08
35755000.0    1.554978e-08
35756000.0    1.773087e-08
35757000.0    1.694251e-08
35758000.0    2.021622e-08
35759000.0    1.35321e-08
35760000.0    1.854588e-08
35761000.0    1.727652e-08
35762000.0    1.515909e-08
35763000.0    1.435589e-08
35764000.0    1.683116e-08
35765000.0    1.573598e-08
35766000.0    1.614336e-08
35767000.0    1.511145e-08
35768000.0    1.425987e-08
35769000.0    2.010521e-08
35770000.0    1.616211e-08
35771000.0    1.579773e-08
35772000.0    1.145215e-08
35773000.0    1.528385e-08
35774000.0    1.302565e-08
35775000.0    1.778728e-08
35776000.0    1.165566e-08
35777000.0    1.540078e-08
35778000.0    1.458329e-08
35779000.0    1.80539e-08
35780000.0    1.219075e-08
35781000.0    1.103167e-08
35782000.0    1.91071e-08
35783000.0    1.325264e-08
35784000.0    1.371529e-08
35785000.0    1.667602e-08
35786000.0    1.860613e-08
35787000.0    1.326058e-08
35788000.0    2.117763e-08
35789000.0    2.034888e-08
35790000.0    1.564169e-08
35791000.0    1.684201e-08
35792000.0    1.62443e-08
35793000.0    1.570914e-08
35794000.0    1.468145e-08
35795000.0    1.506393e-08
35796000.0    1.148441e-08
35797000.0    1.617947e-08
35798000.0    1.649001e-08
35799000.0    2.150995e-08
35800000.0    1.531381e-08
35801000.0    1.766094e-08
35802000.0    1.494446e-08
35803000.0    1.590404e-08
35804000.0    1.707526e-08
35805000.0    1.784073e-08
35806000.0    1.583176e-08
35807000.0    1.608422e-08
35808000.0    1.665149e-08
35809000.0    1.653103e-08
35810000.0    2.075145e-08
35811000.0    1.855821e-08
35812000.0    2.174755e-08
35813000.0    1.445338e-08
35814000.0    1.870842e-08
35815000.0    1.82721e-08
35816000.0    1.367101e-08
35817000.0    1.320084e-08
35818000.0    1.563547e-08
35819000.0    1.274856e-08
35820000.0    1.276043e-08
35821000.0    1.46214e-08
35822000.0    1.696073e-08
35823000.0    1.45065e-08
35824000.0    1.604631e-08
35825000.0    1.638865e-08
35826000.0    1.74381e-08
35827000.0    1.687656e-08
35828000.0    1.615643e-08
35829000.0    1.517944e-08
35830000.0    1.693788e-08
35831000.0    1.410636e-08
35832000.0    1.397406e-08
35833000.0    2.002857e-08
35834000.0    2.150707e-08
35835000.0    1.630471e-08
35836000.0    1.394533e-08
35837000.0    1.910641e-08
35838000.0    1.335546e-08
35839000.0    1.679238e-08
35840000.0    1.530968e-08
35841000.0    1.30321e-08
35842000.0    1.745027e-08
35843000.0    1.923932e-08
35844000.0    1.729382e-08
35845000.0    1.792106e-08
35846000.0    1.765069e-08
35847000.0    1.502223e-08
35848000.0    1.813627e-08
35849000.0    1.620852e-08
35850000.0    1.211037e-08
35851000.0    1.175732e-08
35852000.0    1.608341e-08
35853000.0    9.721972e-09
35854000.0    1.251877e-08
35855000.0    1.797871e-08
35856000.0    1.236784e-08
35857000.0    1.387835e-08
35858000.0    1.906623e-08
35859000.0    1.529632e-08
35860000.0    2.266176e-08
35861000.0    2.073551e-08
35862000.0    1.896364e-08
35863000.0    1.880387e-08
35864000.0    1.505572e-08
35865000.0    1.481997e-08
35866000.0    1.321947e-08
35867000.0    1.593314e-08
35868000.0    1.310851e-08
35869000.0    1.502751e-08
35870000.0    1.414886e-08
35871000.0    1.670353e-08
35872000.0    1.435667e-08
35873000.0    1.393915e-08
35874000.0    1.540521e-08
35875000.0    1.27395e-08
35876000.0    1.508849e-08
35877000.0    1.110461e-08
35878000.0    1.32149e-08
35879000.0    1.357115e-08
35880000.0    1.918474e-08
35881000.0    1.53983e-08
35882000.0    1.466991e-08
35883000.0    1.824782e-08
35884000.0    1.741485e-08
35885000.0    1.648265e-08
35886000.0    1.86281e-08
35887000.0    1.590584e-08
35888000.0    1.732949e-08
35889000.0    2.064582e-08
35890000.0    1.45124e-08
35891000.0    1.419942e-08
35892000.0    1.528431e-08
35893000.0    1.381999e-08
35894000.0    1.925099e-08
35895000.0    1.765245e-08
35896000.0    1.837245e-08
35897000.0    1.470345e-08
35898000.0    1.644024e-08
35899000.0    2.146407e-08
35900000.0    1.822922e-08
35901000.0    1.984214e-08
35902000.0    1.620998e-08
35903000.0    1.918458e-08
35904000.0    1.438444e-08
35905000.0    1.643677e-08
35906000.0    1.600286e-08
35907000.0    1.722128e-08
35908000.0    2.152399e-08
35909000.0    1.659515e-08
35910000.0    1.689853e-08
35911000.0    1.716102e-08
35912000.0    1.6753e-08
35913000.0    1.266383e-08
35914000.0    1.282238e-08
35915000.0    1.72496e-08
35916000.0    1.401317e-08
35917000.0    1.679908e-08
35918000.0    1.376219e-08
35919000.0    1.590678e-08
35920000.0    1.32446e-08
35921000.0    1.973954e-08
35922000.0    1.292114e-08
35923000.0    1.356592e-08
35924000.0    1.546343e-08
35925000.0    1.183561e-08
35926000.0    1.11714e-08
35927000.0    1.773298e-08
35928000.0    1.724827e-08
35929000.0    1.972894e-08
35930000.0    1.781545e-08
35931000.0    1.79278e-08
35932000.0    1.717785e-08
35933000.0    1.514123e-08
35934000.0    1.66155e-08
35935000.0    1.533621e-08
35936000.0    1.850427e-08
35937000.0    1.377734e-08
35938000.0    1.695374e-08
35939000.0    1.477465e-08
35940000.0    1.531605e-08
35941000.0    1.628906e-08
35942000.0    1.24499e-08
35943000.0    1.829647e-08
35944000.0    1.613694e-08
35945000.0    2.063127e-08
35946000.0    1.844703e-08
35947000.0    1.89388e-08
35948000.0    1.304193e-08
35949000.0    1.308331e-08
35950000.0    1.232624e-08
35951000.0    2.032961e-08
35952000.0    1.415622e-08
35953000.0    2.028894e-08
35954000.0    1.739361e-08
35955000.0    1.849935e-08
35956000.0    1.594565e-08
35957000.0    1.285046e-08
35958000.0    1.4387e-08
35959000.0    2.390665e-08
35960000.0    1.453465e-08
35961000.0    1.540735e-08
35962000.0    2.256724e-08
35963000.0    1.34301e-08
35964000.0    1.675452e-08
35965000.0    1.76456e-08
35966000.0    1.543343e-08
35967000.0    1.786894e-08
35968000.0    1.160301e-08
35969000.0    1.828631e-08
35970000.0    1.879214e-08
35971000.0    1.719924e-08
35972000.0    1.792941e-08
35973000.0    1.707161e-08
35974000.0    1.317879e-08
35975000.0    1.877528e-08
35976000.0    1.562093e-08
35977000.0    1.432617e-08
35978000.0    1.307556e-08
35979000.0    1.510488e-08
35980000.0    1.56125e-08
35981000.0    1.642884e-08
35982000.0    1.877795e-08
35983000.0    1.235496e-08
35984000.0    1.375273e-08
35985000.0    1.764553e-08
35986000.0    1.650483e-08
35987000.0    1.446076e-08
35988000.0    1.587107e-08
35989000.0    1.463374e-08
35990000.0    1.060231e-08
35991000.0    1.51227e-08
35992000.0    1.419063e-08
35993000.0    1.906329e-08
35994000.0    1.832409e-08
35995000.0    1.818025e-08
35996000.0    2.972496e-08
35997000.0    1.375983e-08
35998000.0    2.142778e-08
35999000.0    1.384007e-08
36000000.0    4.451783e-08
36001000.0    1.083313e-07
36002000.0    1.576573e-08
36003000.0    1.535236e-08
36004000.0    1.445181e-08
36005000.0    1.342092e-08
36006000.0    1.917799e-08
36007000.0    1.768464e-08
36008000.0    1.524825e-08
36009000.0    1.944999e-08
36010000.0    1.484941e-08
36011000.0    1.606341e-08
36012000.0    1.255891e-08
36013000.0    1.432862e-08
36014000.0    1.598845e-08
36015000.0    1.96353e-08
36016000.0    1.265125e-08
36017000.0    1.175887e-08
36018000.0    1.771028e-08
36019000.0    1.510291e-08
36020000.0    1.161044e-08
36021000.0    1.141193e-08
36022000.0    1.766792e-08
36023000.0    1.673701e-08
36024000.0    1.781525e-08
36025000.0    1.673288e-08
36026000.0    1.873487e-08
36027000.0    1.147222e-08
36028000.0    1.210933e-08
36029000.0    1.519148e-08
36030000.0    1.472455e-08
36031000.0    1.7015e-08
36032000.0    1.427119e-08
36033000.0    1.717635e-08
36034000.0    1.520394e-08
36035000.0    1.507379e-08
36036000.0    1.526138e-08
36037000.0    1.870835e-08
36038000.0    1.924706e-08
36039000.0    1.667482e-08
36040000.0    1.272849e-08
36041000.0    1.534978e-08
36042000.0    1.819382e-08
36043000.0    1.296952e-08
36044000.0    1.6371e-08
36045000.0    1.418758e-08
36046000.0    1.938778e-08
36047000.0    1.790898e-08
36048000.0    1.176853e-08
36049000.0    1.52061e-08
36050000.0    1.382008e-08
36051000.0    1.531231e-08
36052000.0    1.183546e-08
36053000.0    1.296229e-08
36054000.0    1.381172e-08
36055000.0    1.494191e-08
36056000.0    1.51079e-08
36057000.0    1.627151e-08
36058000.0    1.446797e-08
36059000.0    1.552413e-08
36060000.0    1.592354e-08
36061000.0    1.204192e-08
36062000.0    1.361194e-08
36063000.0    1.733229e-08
36064000.0    1.662263e-08
36065000.0    1.661512e-08
36066000.0    1.696175e-08
36067000.0    1.778325e-08
36068000.0    1.649343e-08
36069000.0    1.452018e-08
36070000.0    1.626494e-08
36071000.0    1.333948e-08
36072000.0    1.348927e-08
36073000.0    1.219311e-08
36074000.0    1.615524e-08
36075000.0    1.849923e-08
36076000.0    1.310572e-08
36077000.0    1.785478e-08
36078000.0    1.706306e-08
36079000.0    1.435013e-08
36080000.0    1.352728e-08
36081000.0    1.446098e-08
36082000.0    1.623574e-08
36083000.0    1.453911e-08
36084000.0    1.442396e-08
36085000.0    1.648085e-08
36086000.0    1.232119e-08
36087000.0    1.423884e-08
36088000.0    1.837534e-08
36089000.0    1.437385e-08
36090000.0    1.488121e-08
36091000.0    1.501018e-08
36092000.0    2.137341e-08
36093000.0    1.622409e-08
36094000.0    1.808758e-08
36095000.0    1.672452e-08
36096000.0    1.664293e-08
36097000.0    1.412803e-08
36098000.0    1.719721e-08
36099000.0    2.209014e-08
36100000.0    1.75889e-08
36101000.0    1.62179e-08
36102000.0    1.962949e-08
36103000.0    1.621973e-08
36104000.0    1.674087e-08
36105000.0    1.626156e-08
36106000.0    1.584345e-08
36107000.0    1.266561e-08
36108000.0    1.231518e-08
36109000.0    1.503218e-08
36110000.0    1.479696e-08
36111000.0    1.553489e-08
36112000.0    1.619089e-08
36113000.0    1.722013e-08
36114000.0    1.272133e-08
36115000.0    1.356098e-08
36116000.0    1.605482e-08
36117000.0    1.61574e-08
36118000.0    1.526268e-08
36119000.0    1.890217e-08
36120000.0    1.401307e-08
36121000.0    1.603063e-08
36122000.0    1.184636e-08
36123000.0    1.757411e-08
36124000.0    1.72881e-08
36125000.0    1.620564e-08
36126000.0    1.657973e-08
36127000.0    1.672713e-08
36128000.0    1.391713e-08
36129000.0    1.117963e-08
36130000.0    1.655661e-08
36131000.0    1.608577e-08
36132000.0    1.562299e-08
36133000.0    1.65558e-08
36134000.0    1.375397e-08
36135000.0    1.550815e-08
36136000.0    1.842299e-08
36137000.0    1.86935e-08
36138000.0    1.370071e-08
36139000.0    1.17177e-08
36140000.0    1.589477e-08
36141000.0    2.372165e-08
36142000.0    1.372391e-08
36143000.0    1.730107e-08
36144000.0    1.580383e-08
36145000.0    1.736232e-08
36146000.0    1.63264e-08
36147000.0    2.031318e-08
36148000.0    1.415106e-08
36149000.0    1.610516e-08
36150000.0    2.000879e-08
36151000.0    2.040328e-08
36152000.0    1.623242e-08
36153000.0    1.337956e-08
36154000.0    1.513179e-08
36155000.0    1.156343e-08
36156000.0    1.929706e-08
36157000.0    2.263777e-08
36158000.0    1.55898e-08
36159000.0    1.759528e-08
36160000.0    1.372729e-08
36161000.0    1.339738e-08
36162000.0    1.337561e-08
36163000.0    1.373856e-08
36164000.0    1.704076e-08
36165000.0    1.584383e-08
36166000.0    1.603256e-08
36167000.0    1.508622e-08
36168000.0    1.41485e-08
36169000.0    1.18176e-08
36170000.0    1.323484e-08
36171000.0    1.614414e-08
36172000.0    1.242892e-08
36173000.0    1.288399e-08
36174000.0    1.214192e-08
36175000.0    1.88649e-08
36176000.0    1.863678e-08
36177000.0    2.187205e-08
36178000.0    1.491845e-08
36179000.0    1.564029e-08
36180000.0    1.635538e-08
36181000.0    1.246003e-08
36182000.0    1.82892e-08
36183000.0    1.278403e-08
36184000.0    9.956851e-09
36185000.0    1.43271e-08
36186000.0    1.760317e-08
36187000.0    1.779664e-08
36188000.0    2.059476e-08
36189000.0    1.917635e-08
36190000.0    1.525819e-08
36191000.0    1.242276e-08
36192000.0    1.330219e-08
36193000.0    1.123371e-08
36194000.0    1.367507e-08
36195000.0    1.660065e-08
36196000.0    1.128066e-08
36197000.0    1.34122e-08
36198000.0    1.431283e-08
36199000.0    1.847213e-08
36200000.0    1.752651e-08
36201000.0    1.485498e-08
36202000.0    1.729337e-08
36203000.0    1.862226e-08
36204000.0    1.288998e-08
36205000.0    1.524647e-08
36206000.0    1.230749e-08
36207000.0    1.720256e-08
36208000.0    1.443997e-08
36209000.0    1.379762e-08
36210000.0    1.271519e-08
36211000.0    1.583494e-08
36212000.0    1.503688e-08
36213000.0    2.084706e-08
36214000.0    1.831117e-08
36215000.0    1.481156e-08
36216000.0    1.679684e-08
36217000.0    2.212094e-08
36218000.0    1.957114e-08
36219000.0    1.879071e-08
36220000.0    1.540429e-08
36221000.0    1.843129e-08
36222000.0    1.419234e-08
36223000.0    1.329829e-08
36224000.0    1.421553e-08
36225000.0    1.360588e-08
36226000.0    1.579762e-08
36227000.0    1.401256e-08
36228000.0    1.656734e-08
36229000.0    1.543617e-08
36230000.0    1.130105e-08
36231000.0    1.544194e-08
36232000.0    1.626822e-08
36233000.0    1.631081e-08
36234000.0    1.472951e-08
36235000.0    2.085691e-08
36236000.0    1.488062e-08
36237000.0    1.490183e-08
36238000.0    1.639734e-08
36239000.0    1.536296e-08
36240000.0    1.540601e-08
36241000.0    1.687073e-08
36242000.0    1.641658e-08
36243000.0    1.744193e-08
36244000.0    1.915165e-08
36245000.0    1.610385e-08
36246000.0    1.494544e-08
36247000.0    1.572764e-08
36248000.0    1.718968e-08
36249000.0    1.717977e-08
36250000.0    1.964409e-08
36251000.0    1.401453e-08
36252000.0    1.690159e-08
36253000.0    1.872308e-08
36254000.0    1.22706e-08
36255000.0    1.321768e-08
36256000.0    1.320039e-08
36257000.0    1.562058e-08
36258000.0    1.949222e-08
36259000.0    1.645965e-08
36260000.0    1.522241e-08
36261000.0    1.382856e-08
36262000.0    1.269474e-08
36263000.0    1.631298e-08
36264000.0    1.472009e-08
36265000.0    1.914719e-08
36266000.0    1.910708e-08
36267000.0    1.885444e-08
36268000.0    1.728817e-08
36269000.0    1.19477e-08
36270000.0    1.238918e-08
36271000.0    1.442041e-08
36272000.0    1.56597e-08
36273000.0    1.546375e-08
36274000.0    1.599268e-08
36275000.0    1.75798e-08
36276000.0    1.755836e-08
36277000.0    1.344961e-08
36278000.0    1.207765e-08
36279000.0    1.476168e-08
36280000.0    1.729536e-08
36281000.0    2.311159e-08
36282000.0    1.528811e-08
36283000.0    1.36721e-08
36284000.0    1.52168e-08
36285000.0    1.421804e-08
36286000.0    2.072665e-08
36287000.0    1.230565e-08
36288000.0    1.77839e-08
36289000.0    1.469391e-08
36290000.0    1.488058e-08
36291000.0    1.552417e-08
36292000.0    1.644011e-08
36293000.0    1.512132e-08
36294000.0    1.719266e-08
36295000.0    1.710825e-08
36296000.0    1.818883e-08
36297000.0    1.388368e-08
36298000.0    1.625738e-08
36299000.0    1.792979e-08
36300000.0    1.536861e-08
36301000.0    2.119837e-08
36302000.0    1.390282e-08
36303000.0    1.892887e-08
36304000.0    1.624998e-08
36305000.0    1.415681e-08
36306000.0    1.456938e-08
36307000.0    1.487809e-08
36308000.0    1.500886e-08
36309000.0    1.136998e-08
36310000.0    1.794104e-08
36311000.0    2.052399e-08
36312000.0    1.372145e-08
36313000.0    1.765828e-08
36314000.0    1.747818e-08
36315000.0    1.537604e-08
36316000.0    1.784906e-08
36317000.0    1.53134e-08
36318000.0    1.513214e-08
36319000.0    1.36205e-08
36320000.0    1.930453e-08
36321000.0    1.456905e-08
36322000.0    1.479332e-08
36323000.0    1.944155e-08
36324000.0    1.783775e-08
36325000.0    1.37427e-08
36326000.0    1.585659e-08
36327000.0    1.702623e-08
36328000.0    1.904058e-08
36329000.0    1.53485e-08
36330000.0    1.587622e-08
36331000.0    1.680381e-08
36332000.0    1.565318e-08
36333000.0    1.611964e-08
36334000.0    1.754812e-08
36335000.0    1.649154e-08
36336000.0    1.56069e-08
36337000.0    1.696729e-08
36338000.0    2.22442e-08
36339000.0    1.664027e-08
36340000.0    1.961177e-08
36341000.0    1.612974e-08
36342000.0    1.479056e-08
36343000.0    1.756612e-08
36344000.0    1.775134e-08
36345000.0    1.939123e-08
36346000.0    1.808937e-08
36347000.0    2.070854e-08
36348000.0    1.593442e-08
36349000.0    1.953586e-08
36350000.0    1.638826e-08
36351000.0    1.701112e-08
36352000.0    1.383841e-08
36353000.0    1.119163e-08
36354000.0    1.352351e-08
36355000.0    1.621942e-08
36356000.0    1.546922e-08
36357000.0    1.67961e-08
36358000.0    1.665707e-08
36359000.0    1.604778e-08
36360000.0    1.823111e-08
36361000.0    1.372724e-08
36362000.0    1.720877e-08
36363000.0    1.411592e-08
36364000.0    1.244146e-08
36365000.0    1.44721e-08
36366000.0    1.663685e-08
36367000.0    1.800201e-08
36368000.0    1.932766e-08
36369000.0    1.496646e-08
36370000.0    1.09471e-08
36371000.0    1.2767e-08
36372000.0    1.437773e-08
36373000.0    1.595323e-08
36374000.0    1.622975e-08
36375000.0    1.178228e-08
36376000.0    1.543111e-08
36377000.0    1.510254e-08
36378000.0    2.146717e-08
36379000.0    1.515189e-08
36380000.0    1.342859e-08
36381000.0    1.755668e-08
36382000.0    1.894214e-08
36383000.0    1.777123e-08
36384000.0    1.628777e-08
36385000.0    1.602035e-08
36386000.0    1.294502e-08
36387000.0    1.723493e-08
36388000.0    1.975946e-08
36389000.0    1.787302e-08
36390000.0    1.742688e-08
36391000.0    1.925592e-08
36392000.0    1.493536e-08
36393000.0    1.595388e-08
36394000.0    1.080874e-08
36395000.0    1.484203e-08
36396000.0    1.778244e-08
36397000.0    1.922401e-08
36398000.0    1.467841e-08
36399000.0    1.923304e-08
36400000.0    1.480212e-08
