# AG4395A Measurement - Timestamp: Nov 01 2017 - 08:29:49
# Parameter File: SP_AG_R_Beatnote_95_to_125MHz.yml
#---------- Measurement Parameters ------------
# Start Frequency (Hz): 100000000.0
# Stop Frequency (Hz): 125000000.0
# Frequency Points: 801
# Measurement Format: NOISE
# Measuremed Input: R
#---------- Analyzer Settings ----------
# Number of Averages: 1
# Auto Bandwidth: On
# IF Bandwidth: 3000.0
# Input Attenuators (R,A,B): 0dB 20dB 20dB 
# Units: V/rtHz
#---------- Measurement Data ----------
# [Freq(Hz) Chan 1 ]
100000000.0    2.610112e-08
100031250.0    5.533029e-08
100062500.0    2.782503e-08
100093750.0    2.762663e-08
100125000.0    1.081005e-08
100156250.0    2.771433e-08
100187500.0    4.708939e-08
100218750.0    5.239318e-09
100250000.0    6.087101e-08
100281250.0    1.314693e-08
100312500.0    2.240663e-08
100343750.0    2.057596e-08
100375000.0    1.355107e-08
100406250.0    6.626627e-08
100437500.0    1.857345e-08
100468750.0    4.188049e-08
100500000.0    3.411585e-08
100531250.0    1.728725e-08
100562500.0    3.118346e-08
100593750.0    2.121923e-08
100625000.0    2.350263e-08
100656250.0    2.713015e-08
100687500.0    4.862483e-08
100718750.0    1.636162e-08
100750000.0    5.201603e-09
100781250.0    4.355655e-08
100812500.0    3.173002e-08
100843750.0    2.446792e-08
100875000.0    2.38554e-08
100906250.0    5.233668e-08
100937500.0    1.868452e-08
100968750.0    7.400824e-08
101000000.0    4.451049e-08
101031250.0    1.161464e-08
101062500.0    4.557883e-09
101093750.0    3.016859e-08
101125000.0    1.875268e-08
101156250.0    6.004836e-08
101187500.0    6.713313e-08
101218750.0    5.581343e-08
101250000.0    8.594197e-08
101281250.0    3.834748e-08
101312500.0    3.104733e-08
101343750.0    5.250507e-08
101375000.0    3.975471e-08
101406250.0    3.31404e-08
101437500.0    5.810219e-08
101468750.0    6.05643e-08
101500000.0    5.846036e-08
101531250.0    1.414673e-08
101562500.0    6.411119e-08
101593750.0    5.485845e-08
101625000.0    3.976555e-08
101656250.0    2.765533e-08
101687500.0    4.629635e-08
101718750.0    3.10628e-08
101750000.0    3.7302e-08
101781250.0    4.645863e-08
101812500.0    5.768812e-08
101843750.0    2.600345e-08
101875000.0    4.819855e-08
101906250.0    6.989866e-08
101937500.0    1.645226e-08
101968750.0    3.685242e-08
102000000.0    3.54239e-08
102031250.0    3.332818e-08
102062500.0    8.244269e-09
102093750.0    2.439318e-08
102125000.0    7.248218e-08
102156250.0    4.162756e-08
102187500.0    3.546657e-08
102218750.0    5.374188e-08
102250000.0    5.041801e-08
102281250.0    4.806514e-08
102312500.0    4.526314e-08
102343750.0    4.302193e-08
102375000.0    2.419136e-08
102406250.0    5.019704e-08
102437500.0    5.120276e-08
102468750.0    2.269712e-08
102500000.0    2.867099e-08
102531250.0    3.910793e-08
102562500.0    7.070578e-08
102593750.0    2.442008e-08
102625000.0    6.187773e-08
102656250.0    4.420814e-08
102687500.0    7.146654e-08
102718750.0    2.611595e-08
102750000.0    3.346739e-08
102781250.0    5.41473e-08
102812500.0    6.086982e-08
102843750.0    8.289248e-09
102875000.0    5.15165e-08
102906250.0    5.236075e-08
102937500.0    2.244379e-08
102968750.0    6.775193e-08
103000000.0    5.615025e-08
103031250.0    6.143298e-08
103062500.0    1.044732e-08
103093750.0    2.403082e-08
103125000.0    2.875233e-08
103156250.0    4.639788e-08
103187500.0    5.43236e-08
103218750.0    1.403312e-08
103250000.0    4.995331e-08
103281250.0    1.604322e-08
103312500.0    2.522286e-08
103343750.0    3.7805e-08
103375000.0    2.308067e-08
103406250.0    4.914634e-08
103437500.0    5.43013e-09
103468750.0    4.66729e-08
103500000.0    5.960618e-08
103531250.0    6.336488e-08
103562500.0    2.95863e-08
103593750.0    2.687969e-08
103625000.0    2.23779e-08
103656250.0    1.892217e-08
103687500.0    2.88761e-08
103718750.0    3.616771e-08
103750000.0    2.267699e-08
103781250.0    3.23426e-08
103812500.0    2.699802e-08
103843750.0    3.755662e-08
103875000.0    4.226269e-08
103906250.0    5.143688e-08
103937500.0    2.911776e-08
103968750.0    4.848237e-08
104000000.0    3.048754e-08
104031250.0    1.335819e-08
104062500.0    4.850313e-08
104093750.0    2.755488e-08
104125000.0    2.149599e-08
104156250.0    2.106901e-08
104187500.0    3.38871e-08
104218750.0    2.141078e-08
104250000.0    6.166989e-08
104281250.0    1.314894e-08
104312500.0    4.436772e-08
104343750.0    2.486552e-08
104375000.0    6.519153e-08
104406250.0    6.776074e-08
104437500.0    2.985337e-08
104468750.0    2.087037e-08
104500000.0    7.923409e-08
104531250.0    3.027145e-08
104562500.0    3.183232e-08
104593750.0    3.015202e-08
104625000.0    3.673129e-08
104656250.0    5.772844e-08
104687500.0    1.845866e-08
104718750.0    3.822547e-08
104750000.0    3.969998e-08
104781250.0    3.332224e-08
104812500.0    5.378168e-08
104843750.0    3.984586e-08
104875000.0    1.000737e-08
104906250.0    4.72105e-08
104937500.0    1.281967e-07
104968750.0    4.189929e-08
105000000.0    1.616553e-08
105031250.0    5.183452e-08
105062500.0    1.130879e-07
105093750.0    6.692192e-08
105125000.0    3.898136e-08
105156250.0    7.52204e-09
105187500.0    6.576087e-08
105218750.0    1.812545e-08
105250000.0    2.342545e-08
105281250.0    6.004063e-08
105312500.0    3.109671e-08
105343750.0    3.777681e-08
105375000.0    2.773612e-08
105406250.0    2.421247e-08
105437500.0    4.057586e-08
105468750.0    8.415429e-08
105500000.0    1.09847e-08
105531250.0    4.69056e-08
105562500.0    5.692171e-08
105593750.0    5.655961e-08
105625000.0    2.245794e-08
105656250.0    2.816167e-08
105687500.0    6.20342e-08
105718750.0    2.15394e-08
105750000.0    4.477043e-08
105781250.0    5.03511e-08
105812500.0    2.088653e-08
105843750.0    2.137662e-08
105875000.0    3.251662e-08
105906250.0    4.193405e-08
105937500.0    3.820538e-08
105968750.0    4.365754e-08
106000000.0    2.632713e-08
106031250.0    5.27213e-08
106062500.0    5.400072e-08
106093750.0    2.923297e-08
106125000.0    1.548756e-08
106156250.0    1.800569e-08
106187500.0    1.502185e-08
106218750.0    4.731032e-08
106250000.0    9.935742e-09
106281250.0    7.432218e-08
106312500.0    2.761277e-08
106343750.0    6.05144e-08
106375000.0    8.964082e-08
106406250.0    5.517281e-08
106437500.0    2.373809e-08
106468750.0    8.716722e-09
106500000.0    6.271458e-08
106531250.0    2.869536e-08
106562500.0    1.039794e-08
106593750.0    2.160878e-08
106625000.0    4.511794e-08
106656250.0    4.952931e-08
106687500.0    4.942788e-08
106718750.0    8.074238e-08
106750000.0    5.926657e-08
106781250.0    6.408963e-09
106812500.0    3.398548e-08
106843750.0    2.532419e-08
106875000.0    1.324987e-08
106906250.0    3.099805e-08
106937500.0    4.120799e-08
106968750.0    3.6074e-08
107000000.0    4.320044e-08
107031250.0    3.749017e-08
107062500.0    1.625812e-08
107093750.0    5.793287e-08
107125000.0    2.619593e-08
107156250.0    3.669209e-08
107187500.0    4.274811e-08
107218750.0    3.093384e-08
107250000.0    6.116773e-08
107281250.0    1.907247e-08
107312500.0    5.469249e-08
107343750.0    5.209776e-08
107375000.0    2.657035e-08
107406250.0    1.869258e-08
107437500.0    2.007061e-08
107468750.0    2.214302e-08
107500000.0    5.373573e-08
107531250.0    4.048914e-08
107562500.0    7.045949e-09
107593750.0    5.617833e-08
107625000.0    2.361196e-08
107656250.0    5.307275e-08
107687500.0    3.839521e-08
107718750.0    3.987636e-08
107750000.0    6.916455e-08
107781250.0    2.508833e-08
107812500.0    3.912995e-08
107843750.0    3.572558e-08
107875000.0    1.941871e-08
107906250.0    7.52473e-08
107937500.0    5.025733e-08
107968750.0    7.798521e-08
108000000.0    5.515687e-08
108031250.0    5.13375e-08
108062500.0    5.880793e-08
108093750.0    4.192039e-08
108125000.0    2.977029e-08
108156250.0    4.179321e-08
108187500.0    3.306884e-08
108218750.0    4.832893e-08
108250000.0    6.148396e-08
108281250.0    5.240528e-08
108312500.0    4.964764e-08
108343750.0    8.162875e-08
108375000.0    5.258312e-08
108406250.0    1.422526e-08
108437500.0    2.016812e-09
108468750.0    5.774018e-08
108500000.0    5.39468e-08
108531250.0    4.922737e-08
108562500.0    6.513071e-08
108593750.0    3.081506e-08
108625000.0    7.911402e-08
108656250.0    1.082705e-07
108687500.0    1.109025e-08
108718750.0    5.01395e-08
108750000.0    2.761713e-09
108781250.0    1.354229e-08
108812500.0    3.948534e-08
108843750.0    1.026577e-07
108875000.0    3.892243e-08
108906250.0    4.576385e-08
108937500.0    6.889808e-08
108968750.0    2.979872e-08
109000000.0    4.04783e-08
109031250.0    3.524632e-08
109062500.0    4.616484e-08
109093750.0    6.531738e-08
109125000.0    2.688417e-08
109156250.0    6.772932e-08
109187500.0    5.519346e-08
109218750.0    3.97721e-08
109250000.0    4.844778e-08
109281250.0    2.684389e-08
109312500.0    5.512555e-08
109343750.0    2.663925e-08
109375000.0    5.913893e-08
109406250.0    3.014635e-08
109437500.0    4.054549e-08
109468750.0    1.80667e-08
109500000.0    1.252734e-08
109531250.0    4.641322e-08
109562500.0    6.451002e-08
109593750.0    1.733912e-08
109625000.0    1.753635e-08
109656250.0    6.552438e-08
109687500.0    3.893951e-08
109718750.0    5.335734e-08
109750000.0    2.574597e-08
109781250.0    8.656711e-08
109812500.0    2.049385e-08
109843750.0    2.330786e-08
109875000.0    3.896358e-08
109906250.0    4.336297e-08
109937500.0    3.248409e-08
109968750.0    2.913203e-08
110000000.0    5.404228e-08
110031250.0    7.237745e-08
110062500.0    3.917474e-08
110093750.0    5.744522e-08
110125000.0    4.314682e-08
110156250.0    5.90088e-08
110187500.0    5.436928e-08
110218750.0    3.351659e-08
110250000.0    3.69278e-08
110281250.0    2.814793e-08
110312500.0    4.348619e-08
110343750.0    4.998156e-08
110375000.0    7.000347e-08
110406250.0    4.475488e-08
110437500.0    6.557601e-08
110468750.0    6.648935e-08
110500000.0    5.865378e-08
110531250.0    3.360354e-08
110562500.0    2.076665e-08
110593750.0    3.775122e-08
110625000.0    6.044842e-08
110656250.0    4.827529e-08
110687500.0    5.407026e-08
110718750.0    7.076254e-08
110750000.0    7.979406e-09
110781250.0    4.412815e-09
110812500.0    6.833982e-08
110843750.0    3.108461e-08
110875000.0    6.135281e-08
110906250.0    4.527432e-08
110937500.0    4.206837e-08
110968750.0    4.492343e-08
111000000.0    1.00134e-07
111031250.0    1.461222e-08
111062500.0    8.948693e-08
111093750.0    4.482303e-08
111125000.0    4.482035e-08
111156250.0    3.157781e-08
111187500.0    1.393629e-08
111218750.0    3.545587e-08
111250000.0    6.299202e-08
111281250.0    8.824154e-09
111312500.0    6.963689e-08
111343750.0    2.631475e-08
111375000.0    2.394244e-08
111406250.0    8.484235e-08
111437500.0    6.612851e-08
111468750.0    8.170015e-08
111500000.0    6.833304e-08
111531250.0    1.999237e-08
111562500.0    5.444059e-08
111593750.0    1.572076e-08
111625000.0    3.806785e-08
111656250.0    5.718669e-08
111687500.0    3.452777e-08
111718750.0    2.923204e-08
111750000.0    4.277524e-08
111781250.0    5.556035e-08
111812500.0    3.269198e-08
111843750.0    5.819511e-08
111875000.0    4.336999e-08
111906250.0    2.271095e-08
111937500.0    4.823831e-08
111968750.0    1.894894e-08
112000000.0    9.828564e-08
112031250.0    6.185754e-08
112062500.0    2.70048e-08
112093750.0    5.03883e-08
112125000.0    6.732198e-08
112156250.0    1.304713e-08
112187500.0    6.269695e-08
112218750.0    3.250276e-08
112250000.0    1.283394e-08
112281250.0    2.810512e-08
112312500.0    1.020024e-08
112343750.0    6.762846e-08
112375000.0    8.673281e-08
112406250.0    5.251396e-08
112437500.0    2.309926e-08
112468750.0    8.299551e-08
112500000.0    4.626864e-08
112531250.0    7.53945e-08
112562500.0    1.528228e-08
112593750.0    7.126116e-08
112625000.0    2.999967e-08
112656250.0    5.565559e-08
112687500.0    6.076404e-08
112718750.0    4.765709e-08
112750000.0    3.458472e-08
112781250.0    4.455489e-08
112812500.0    2.800634e-08
112843750.0    2.021159e-08
112875000.0    7.582694e-09
112906250.0    5.182202e-08
112937500.0    1.900012e-08
112968750.0    3.017512e-08
113000000.0    1.879278e-08
113031250.0    3.741207e-08
113062500.0    5.605781e-08
113093750.0    8.061749e-09
113125000.0    1.819022e-08
113156250.0    1.252656e-08
113187500.0    2.238632e-08
113218750.0    3.597756e-08
113250000.0    4.081111e-08
113281250.0    6.489581e-08
113312500.0    2.384841e-08
113343750.0    5.640089e-08
113375000.0    4.245189e-08
113406250.0    2.376559e-08
113437500.0    2.720155e-08
113468750.0    2.806654e-08
113500000.0    2.124987e-08
113531250.0    3.313049e-08
113562500.0    2.772726e-08
113593750.0    4.683761e-08
113625000.0    6.78026e-08
113656250.0    4.444368e-08
113687500.0    3.928312e-08
113718750.0    3.194354e-08
113750000.0    1.096027e-07
113781250.0    4.208895e-08
113812500.0    4.597275e-08
113843750.0    1.646936e-08
113875000.0    2.980122e-08
113906250.0    2.028406e-08
113937500.0    8.496732e-09
113968750.0    6.615529e-08
114000000.0    3.6438e-08
114031250.0    4.463743e-08
114062500.0    8.288453e-08
114093750.0    2.652981e-08
114125000.0    4.338169e-08
114156250.0    5.624265e-08
114187500.0    6.28958e-08
114218750.0    2.136859e-08
114250000.0    3.609855e-08
114281250.0    2.137019e-08
114312500.0    3.147984e-08
114343750.0    5.666003e-08
114375000.0    2.077154e-08
114406250.0    2.337659e-08
114437500.0    6.966323e-08
114468750.0    4.658992e-08
114500000.0    1.837981e-08
114531250.0    5.862619e-08
114562500.0    2.196149e-08
114593750.0    2.113166e-08
114625000.0    5.197509e-08
114656250.0    2.752088e-08
114687500.0    4.027162e-08
114718750.0    8.721869e-09
114750000.0    3.025491e-08
114781250.0    8.647955e-08
114812500.0    2.398448e-08
114843750.0    3.601564e-08
114875000.0    2.070469e-08
114906250.0    2.544132e-08
114937500.0    1.886648e-08
114968750.0    2.026469e-08
115000000.0    1.236206e-08
115031250.0    1.819777e-08
115062500.0    2.597938e-08
115093750.0    3.183171e-08
115125000.0    5.15871e-08
115156250.0    8.807463e-08
115187500.0    3.482782e-08
115218750.0    7.289395e-08
115250000.0    1.829789e-08
115281250.0    2.482398e-08
115312500.0    4.011135e-08
115343750.0    8.933554e-08
115375000.0    2.995232e-08
115406250.0    3.075416e-08
115437500.0    4.768318e-08
115468750.0    1.149346e-08
115500000.0    3.685106e-08
115531250.0    1.198245e-07
115562500.0    7.624578e-08
115593750.0    4.229313e-08
115625000.0    1.01936e-08
115656250.0    3.733411e-08
115687500.0    8.71723e-09
115718750.0    5.45533e-08
115750000.0    5.91035e-08
115781250.0    4.569318e-08
115812500.0    3.055564e-08
115843750.0    9.645293e-09
115875000.0    4.184318e-08
115906250.0    6.097237e-08
115937500.0    2.554709e-08
115968750.0    2.238529e-08
116000000.0    8.990914e-08
116031250.0    3.645626e-08
116062500.0    1.177257e-08
116093750.0    2.655555e-08
116125000.0    3.213945e-08
116156250.0    3.426486e-08
116187500.0    7.601345e-08
116218750.0    2.608487e-08
116250000.0    5.080924e-08
116281250.0    3.133758e-08
116312500.0    1.802575e-08
116343750.0    9.21667e-09
116375000.0    5.36162e-08
116406250.0    8.101933e-08
116437500.0    4.495807e-08
116468750.0    3.178893e-08
116500000.0    5.74744e-08
116531250.0    5.002991e-08
116562500.0    8.180665e-08
116593750.0    5.927106e-08
116625000.0    4.47578e-08
116656250.0    2.66408e-08
116687500.0    4.643874e-08
116718750.0    1.828418e-08
116750000.0    3.759021e-08
116781250.0    4.268432e-08
116812500.0    1.905844e-08
116843750.0    3.480806e-08
116875000.0    2.360857e-08
116906250.0    5.396242e-08
116937500.0    1.943748e-08
116968750.0    1.029006e-08
117000000.0    3.496215e-08
117031250.0    4.918432e-08
117062500.0    4.362052e-08
117093750.0    6.053173e-08
117125000.0    3.391007e-08
117156250.0    5.469228e-08
117187500.0    3.537611e-08
117218750.0    4.752253e-08
117250000.0    1.272656e-08
117281250.0    5.340111e-08
117312500.0    3.276514e-08
117343750.0    2.059086e-08
117375000.0    5.341165e-08
117406250.0    4.342742e-08
117437500.0    2.951067e-08
117468750.0    1.837925e-08
117500000.0    2.099799e-08
117531250.0    3.485732e-08
117562500.0    6.808625e-08
117593750.0    2.995586e-08
117625000.0    3.548732e-08
117656250.0    9.200783e-08
117687500.0    3.940647e-09
117718750.0    3.08573e-08
117750000.0    3.20498e-08
117781250.0    4.105052e-08
117812500.0    4.918165e-08
117843750.0    1.843542e-08
117875000.0    3.770047e-08
117906250.0    4.347894e-08
117937500.0    1.07894e-08
117968750.0    3.624851e-08
118000000.0    3.766003e-08
118031250.0    3.071107e-08
118062500.0    1.153345e-08
118093750.0    2.614183e-08
118125000.0    2.440255e-08
118156250.0    2.616718e-08
118187500.0    4.376644e-08
118218750.0    8.417801e-08
118250000.0    5.164198e-08
118281250.0    3.091838e-08
118312500.0    8.571205e-09
118343750.0    2.196999e-08
118375000.0    6.880092e-08
118406250.0    3.715433e-08
118437500.0    3.787765e-08
118468750.0    8.192281e-08
118500000.0    2.705423e-08
118531250.0    5.845842e-09
118562500.0    6.116498e-09
118593750.0    5.883187e-08
118625000.0    8.867596e-08
118656250.0    5.903057e-08
118687500.0    5.24008e-08
118718750.0    6.754811e-08
118750000.0    9.175931e-08
118781250.0    4.45923e-08
118812500.0    3.622877e-08
118843750.0    4.357976e-08
118875000.0    5.308556e-08
118906250.0    2.97875e-08
118937500.0    1.899368e-08
118968750.0    2.245947e-08
119000000.0    5.448511e-08
119031250.0    3.193132e-08
119062500.0    5.93242e-08
119093750.0    2.275515e-08
119125000.0    4.893925e-08
119156250.0    2.279489e-08
119187500.0    2.134784e-08
119218750.0    6.020093e-08
119250000.0    3.205398e-08
119281250.0    5.219954e-08
119312500.0    4.95732e-08
119343750.0    6.949132e-08
119375000.0    2.164138e-08
119406250.0    5.562498e-08
119437500.0    3.267553e-08
119468750.0    2.617329e-08
119500000.0    6.721989e-08
119531250.0    1.174065e-08
119562500.0    5.497245e-08
119593750.0    6.634785e-08
119625000.0    5.538449e-08
119656250.0    2.596885e-08
119687500.0    6.826866e-08
119718750.0    7.022365e-08
119750000.0    6.131121e-08
119781250.0    2.928525e-08
119812500.0    1.090711e-08
119843750.0    7.925352e-08
119875000.0    5.133697e-08
119906250.0    4.18705e-08
119937500.0    5.850444e-08
119968750.0    3.474546e-08
120000000.0    5.676656e-08
120031250.0    2.565586e-08
120062500.0    3.06871e-08
120093750.0    9.680033e-08
120125000.0    7.786983e-08
120156250.0    3.629792e-08
120187500.0    3.393873e-09
120218750.0    4.325412e-08
120250000.0    4.132786e-08
120281250.0    1.00885e-07
120312500.0    3.471132e-08
120343750.0    6.04856e-08
120375000.0    6.902921e-08
120406250.0    7.472778e-08
120437500.0    1.857301e-07
120468750.0    2.949093e-08
120500000.0    2.052559e-08
120531250.0    3.865011e-08
120562500.0    2.980454e-08
120593750.0    3.006105e-08
120625000.0    4.832524e-08
120656250.0    1.049168e-07
120687500.0    1.366999e-08
120718750.0    1.003605e-07
120750000.0    3.65301e-08
120781250.0    1.119219e-08
120812500.0    8.362476e-08
120843750.0    1.834711e-08
120875000.0    3.334667e-08
120906250.0    2.410434e-08
120937500.0    3.343243e-08
120968750.0    3.823765e-08
121000000.0    4.920467e-08
121031250.0    3.866296e-08
121062500.0    5.441332e-08
121093750.0    3.469662e-08
121125000.0    4.935055e-08
121156250.0    2.613529e-08
121187500.0    2.299277e-08
121218750.0    7.504957e-08
121250000.0    2.181396e-08
121281250.0    4.647458e-08
121312500.0    3.755489e-08
121343750.0    4.63573e-08
121375000.0    1.474467e-08
121406250.0    3.680749e-08
121437500.0    1.54379e-08
121468750.0    4.125111e-08
121500000.0    1.109892e-07
121531250.0    2.626417e-08
121562500.0    4.893149e-08
121593750.0    7.429284e-09
121625000.0    4.801629e-08
121656250.0    5.5899e-08
121687500.0    2.359125e-08
121718750.0    4.404798e-08
121750000.0    4.169546e-08
121781250.0    6.398943e-08
121812500.0    3.321786e-08
121843750.0    1.097868e-07
121875000.0    0.0
121906250.0    4.066184e-08
121937500.0    1.911074e-08
121968750.0    2.142551e-08
122000000.0    2.675813e-08
122031250.0    1.954917e-08
122062500.0    3.882629e-08
122093750.0    5.720939e-09
122125000.0    4.048097e-08
122156250.0    6.030821e-08
122187500.0    2.552169e-08
122218750.0    2.84531e-08
122250000.0    5.834488e-08
122281250.0    7.456866e-08
122312500.0    6.722282e-08
122343750.0    3.543023e-08
122375000.0    4.028123e-08
122406250.0    4.885164e-08
122437500.0    4.167001e-08
122468750.0    5.245438e-08
122500000.0    4.234668e-08
122531250.0    3.915375e-08
122562500.0    8.037406e-08
122593750.0    2.294109e-08
122625000.0    4.116428e-08
122656250.0    3.835766e-08
122687500.0    2.458319e-08
122718750.0    5.63838e-08
122750000.0    3.534846e-08
122781250.0    8.78841e-08
122812500.0    2.853952e-08
122843750.0    1.139412e-08
122875000.0    1.182486e-08
122906250.0    3.101474e-08
122937500.0    2.58095e-08
122968750.0    3.684309e-08
123000000.0    5.180317e-08
123031250.0    9.657153e-08
123062500.0    2.110397e-08
123093750.0    1.23064e-08
123125000.0    4.774551e-08
123156250.0    5.061138e-08
123187500.0    5.62889e-08
123218750.0    6.715772e-08
123250000.0    1.216403e-08
123281250.0    4.585533e-08
123312500.0    6.594313e-08
123343750.0    5.167318e-08
123375000.0    0.0
123406250.0    2.734632e-08
123437500.0    5.611758e-08
123468750.0    2.303216e-08
123500000.0    3.282913e-08
123531250.0    4.544147e-08
123562500.0    3.866768e-08
123593750.0    4.633622e-08
123625000.0    2.674964e-08
123656250.0    2.685672e-08
123687500.0    2.595812e-08
123718750.0    4.530963e-08
123750000.0    3.648371e-08
123781250.0    5.498901e-08
123812500.0    4.642971e-08
123843750.0    6.558728e-09
123875000.0    2.04501e-08
123906250.0    5.202805e-08
123937500.0    4.411469e-08
123968750.0    1.348294e-08
124000000.0    2.155478e-08
124031250.0    3.258955e-08
124062500.0    5.761019e-08
124093750.0    2.396457e-08
124125000.0    8.725665e-08
124156250.0    1.539108e-08
124187500.0    4.39567e-08
124218750.0    4.972955e-08
124250000.0    3.773679e-08
124281250.0    2.345379e-08
124312500.0    1.67575e-08
124343750.0    6.550626e-08
124375000.0    4.949104e-08
124406250.0    1.542951e-08
124437500.0    2.784748e-08
124468750.0    7.379573e-08
124500000.0    5.610652e-08
124531250.0    3.658549e-08
124562500.0    4.417315e-08
124593750.0    3.774843e-08
124625000.0    3.447635e-08
124656250.0    2.990302e-08
124687500.0    2.475552e-08
124718750.0    2.186847e-08
124750000.0    2.626038e-08
124781250.0    1.512989e-08
124812500.0    2.147991e-08
124843750.0    3.080424e-08
124875000.0    5.431827e-08
124906250.0    1.964182e-08
124937500.0    2.242095e-08
124968750.0    5.814113e-08
125000000.0    1.719203e-08
