# AG4395A Measurement - Timestamp: Nov 01 2017 - 04:34:39
# Parameter File: SP_AG_R_Beatnote_95_to_125MHz.yml
#---------- Measurement Parameters ------------
# Start Frequency (Hz): 100000000.0
# Stop Frequency (Hz): 125000000.0
# Frequency Points: 801
# Measurement Format: NOISE
# Measuremed Input: R
#---------- Analyzer Settings ----------
# Number of Averages: 1
# Auto Bandwidth: On
# IF Bandwidth: 3000.0
# Input Attenuators (R,A,B): 0dB 20dB 20dB 
# Units: V/rtHz
#---------- Measurement Data ----------
# [Freq(Hz) Chan 1 ]
100000000.0    9.084487e-08
100031250.0    2.648275e-09
100062500.0    8.767611e-08
100093750.0    3.943225e-08
100125000.0    3.947864e-08
100156250.0    4.539072e-08
100187500.0    2.096961e-08
100218750.0    2.1799e-08
100250000.0    3.940901e-08
100281250.0    2.194507e-08
100312500.0    3.184192e-08
100343750.0    2.352361e-08
100375000.0    4.552587e-08
100406250.0    3.635089e-08
100437500.0    1.92267e-08
100468750.0    4.104198e-08
100500000.0    4.025767e-08
100531250.0    7.507583e-08
100562500.0    1.054462e-07
100593750.0    3.67933e-08
100625000.0    6.461439e-09
100656250.0    2.826505e-08
100687500.0    2.492307e-08
100718750.0    5.69069e-08
100750000.0    4.446056e-08
100781250.0    7.398113e-09
100812500.0    8.127198e-08
100843750.0    1.101812e-08
100875000.0    4.191319e-08
100906250.0    3.629533e-08
100937500.0    1.846064e-08
100968750.0    4.885829e-08
101000000.0    4.83654e-08
101031250.0    4.785813e-08
101062500.0    3.547779e-08
101093750.0    1.170031e-08
101125000.0    3.558825e-08
101156250.0    3.517958e-08
101187500.0    7.075148e-08
101218750.0    2.395016e-08
101250000.0    1.668283e-08
101281250.0    3.99575e-08
101312500.0    6.163442e-08
101343750.0    6.664852e-08
101375000.0    5.071688e-08
101406250.0    5.221168e-08
101437500.0    8.678594e-08
101468750.0    6.03365e-09
101500000.0    3.744912e-08
101531250.0    2.33524e-08
101562500.0    1.325648e-08
101593750.0    1.406373e-08
101625000.0    2.46132e-08
101656250.0    6.190135e-08
101687500.0    3.905334e-08
101718750.0    4.226228e-08
101750000.0    4.997095e-08
101781250.0    7.955386e-08
101812500.0    3.94822e-08
101843750.0    2.963866e-08
101875000.0    2.040395e-08
101906250.0    3.501298e-08
101937500.0    3.701193e-08
101968750.0    3.320714e-08
102000000.0    3.777003e-08
102031250.0    6.497446e-08
102062500.0    7.459303e-09
102093750.0    4.850444e-08
102125000.0    2.500269e-08
102156250.0    4.242517e-08
102187500.0    4.071419e-08
102218750.0    3.142296e-08
102250000.0    1.139093e-08
102281250.0    6.338491e-08
102312500.0    4.355883e-08
102343750.0    3.323678e-08
102375000.0    2.263738e-08
102406250.0    2.644198e-08
102437500.0    3.086116e-08
102468750.0    4.657408e-08
102500000.0    5.58739e-08
102531250.0    2.681903e-08
102562500.0    4.493956e-08
102593750.0    4.847599e-08
102625000.0    4.020155e-08
102656250.0    4.89266e-08
102687500.0    3.898849e-08
102718750.0    1.95546e-08
102750000.0    1.695931e-08
102781250.0    4.31434e-08
102812500.0    3.12835e-08
102843750.0    7.896712e-08
102875000.0    6.052925e-08
102906250.0    3.110246e-08
102937500.0    5.717466e-08
102968750.0    2.943409e-08
103000000.0    2.057405e-08
103031250.0    5.859594e-08
103062500.0    3.450347e-08
103093750.0    3.029767e-08
103125000.0    5.210346e-08
103156250.0    6.369292e-08
103187500.0    1.117172e-08
103218750.0    2.65104e-08
103250000.0    6.539015e-08
103281250.0    6.096062e-08
103312500.0    2.979479e-08
103343750.0    9.012592e-08
103375000.0    4.505988e-08
103406250.0    3.451629e-08
103437500.0    1.474768e-08
103468750.0    3.471534e-08
103500000.0    2.763039e-08
103531250.0    2.932265e-08
103562500.0    2.795264e-08
103593750.0    7.168252e-09
103625000.0    5.14714e-08
103656250.0    9.111756e-09
103687500.0    2.911182e-08
103718750.0    8.110471e-08
103750000.0    5.692327e-08
103781250.0    5.443074e-08
103812500.0    2.57962e-08
103843750.0    5.39534e-08
103875000.0    5.085165e-08
103906250.0    2.653176e-08
103937500.0    6.079791e-08
103968750.0    3.456842e-08
104000000.0    2.403763e-08
104031250.0    5.100633e-08
104062500.0    7.24506e-08
104093750.0    3.786252e-08
104125000.0    6.860463e-08
104156250.0    4.586175e-08
104187500.0    1.241287e-08
104218750.0    1.774261e-08
104250000.0    2.716777e-08
104281250.0    5.764681e-08
104312500.0    2.582014e-08
104343750.0    5.437873e-08
104375000.0    6.340112e-08
104406250.0    3.765489e-08
104437500.0    5.096179e-08
104468750.0    5.437495e-08
104500000.0    6.106823e-08
104531250.0    4.416258e-08
104562500.0    3.473065e-08
104593750.0    5.75688e-08
104625000.0    7.398979e-09
104656250.0    5.031695e-08
104687500.0    1.962007e-08
104718750.0    4.300241e-08
104750000.0    3.839371e-08
104781250.0    7.879825e-08
104812500.0    5.031918e-08
104843750.0    2.15293e-08
104875000.0    1.981388e-08
104906250.0    1.833551e-08
104937500.0    2.998042e-08
104968750.0    7.722332e-09
105000000.0    7.662162e-08
105031250.0    2.096991e-08
105062500.0    4.969526e-08
105093750.0    5.369414e-08
105125000.0    4.498942e-08
105156250.0    7.765434e-08
105187500.0    3.715062e-08
105218750.0    6.336532e-08
105250000.0    4.276368e-08
105281250.0    2.954795e-08
105312500.0    1.672512e-08
105343750.0    1.747824e-08
105375000.0    2.63508e-08
105406250.0    5.829198e-08
105437500.0    1.964621e-08
105468750.0    2.93487e-08
105500000.0    1.664892e-08
105531250.0    4.057661e-08
105562500.0    8.270624e-08
105593750.0    3.190025e-08
105625000.0    2.948249e-08
105656250.0    4.822489e-08
105687500.0    4.662035e-08
105718750.0    9.359893e-08
105750000.0    7.129855e-08
105781250.0    4.995573e-08
105812500.0    4.543829e-08
105843750.0    4.156211e-08
105875000.0    1.621732e-08
105906250.0    1.066657e-08
105937500.0    5.918234e-08
105968750.0    4.779797e-08
106000000.0    4.26157e-08
106031250.0    2.968349e-08
106062500.0    6.761431e-08
106093750.0    2.957987e-08
106125000.0    2.670822e-08
106156250.0    2.081194e-08
106187500.0    4.802849e-08
106218750.0    3.286039e-08
106250000.0    4.982188e-08
106281250.0    3.56976e-08
106312500.0    3.126821e-08
106343750.0    1.383729e-08
106375000.0    6.722773e-08
106406250.0    3.385253e-08
106437500.0    3.768042e-08
106468750.0    2.879103e-08
106500000.0    3.631099e-08
106531250.0    7.615433e-08
106562500.0    4.803794e-08
106593750.0    9.683821e-09
106625000.0    1.643178e-08
106656250.0    4.872359e-08
106687500.0    1.801853e-08
106718750.0    6.657788e-08
106750000.0    6.8019e-08
106781250.0    2.781876e-08
106812500.0    4.296791e-08
106843750.0    6.758456e-08
106875000.0    2.427291e-08
106906250.0    5.198755e-08
106937500.0    1.191036e-08
106968750.0    2.263343e-08
107000000.0    1.72014e-08
107031250.0    4.628125e-08
107062500.0    1.679343e-08
107093750.0    4.712334e-08
107125000.0    1.89171e-08
107156250.0    6.413721e-08
107187500.0    9.372438e-08
107218750.0    3.880566e-08
107250000.0    4.814827e-08
107281250.0    3.919991e-08
107312500.0    3.256231e-08
107343750.0    3.419255e-08
107375000.0    3.588791e-08
107406250.0    6.711645e-08
107437500.0    4.203125e-08
107468750.0    0.0
107500000.0    3.504659e-08
107531250.0    3.336737e-08
107562500.0    1.823323e-08
107593750.0    7.835813e-09
107625000.0    2.82002e-08
107656250.0    5.567281e-08
107687500.0    4.274555e-08
107718750.0    6.071475e-08
107750000.0    4.687923e-08
107781250.0    6.56297e-08
107812500.0    4.182648e-08
107843750.0    5.527615e-08
107875000.0    1.47502e-08
107906250.0    5.626043e-08
107937500.0    8.17277e-09
107968750.0    3.657875e-08
108000000.0    9.895896e-09
108031250.0    2.381676e-08
108062500.0    7.698666e-09
108093750.0    2.597289e-08
108125000.0    4.914482e-08
108156250.0    6.234544e-08
108187500.0    5.176293e-08
108218750.0    9.683158e-08
108250000.0    4.169859e-09
108281250.0    4.991253e-08
108312500.0    4.155644e-08
108343750.0    3.745768e-08
108375000.0    2.185529e-08
108406250.0    5.911898e-08
108437500.0    6.296894e-08
108468750.0    4.03349e-08
108500000.0    1.656968e-08
108531250.0    3.949929e-08
108562500.0    3.166892e-08
108593750.0    1.185659e-08
108625000.0    4.20513e-08
108656250.0    2.38388e-08
108687500.0    6.333757e-08
108718750.0    3.019005e-08
108750000.0    5.368678e-08
108781250.0    5.703728e-08
108812500.0    5.917128e-09
108843750.0    1.13282e-08
108875000.0    3.613418e-08
108906250.0    5.898617e-08
108937500.0    2.117278e-08
108968750.0    4.242982e-08
109000000.0    2.800548e-08
109031250.0    5.439817e-08
109062500.0    2.012077e-08
109093750.0    6.201533e-08
109125000.0    1.095693e-08
109156250.0    2.897456e-08
109187500.0    8.942801e-08
109218750.0    7.737131e-08
109250000.0    2.684282e-08
109281250.0    1.737623e-08
109312500.0    3.88931e-08
109343750.0    1.758915e-08
109375000.0    6.229308e-08
109406250.0    3.73176e-08
109437500.0    5.551261e-08
109468750.0    4.778006e-08
109500000.0    1.495973e-08
109531250.0    4.655094e-08
109562500.0    7.403882e-08
109593750.0    6.541196e-08
109625000.0    1.169695e-08
109656250.0    4.909996e-09
109687500.0    5.135707e-08
109718750.0    2.474319e-08
109750000.0    5.782206e-08
109781250.0    1.644779e-08
109812500.0    1.135679e-07
109843750.0    1.296013e-08
109875000.0    3.005066e-08
109906250.0    9.523172e-09
109937500.0    3.874155e-08
109968750.0    4.136204e-08
110000000.0    3.582134e-08
110031250.0    1.226519e-08
110062500.0    1.062098e-08
110093750.0    1.666643e-08
110125000.0    8.644024e-09
110156250.0    8.693112e-08
110187500.0    6.077056e-08
110218750.0    4.392057e-08
110250000.0    4.127984e-08
110281250.0    3.104398e-08
110312500.0    2.28316e-08
110343750.0    5.326611e-08
110375000.0    5.406324e-08
110406250.0    3.476503e-08
110437500.0    9.570486e-09
110468750.0    4.923081e-08
110500000.0    2.677642e-08
110531250.0    3.45662e-08
110562500.0    3.71112e-08
110593750.0    4.223941e-08
110625000.0    1.28415e-08
110656250.0    2.341636e-08
110687500.0    4.560488e-08
110718750.0    3.604835e-08
110750000.0    5.935667e-08
110781250.0    1.16749e-07
110812500.0    1.945416e-08
110843750.0    5.060467e-08
110875000.0    3.387099e-08
110906250.0    1.807177e-08
110937500.0    3.623686e-08
110968750.0    8.038909e-08
111000000.0    2.300807e-08
111031250.0    3.155842e-08
111062500.0    3.779828e-08
111093750.0    4.096793e-08
111125000.0    2.12861e-08
111156250.0    1.282117e-08
111187500.0    1.488649e-08
111218750.0    2.679014e-08
111250000.0    5.865906e-09
111281250.0    8.295772e-08
111312500.0    9.817049e-09
111343750.0    3.4896e-08
111375000.0    2.632183e-08
111406250.0    6.861885e-08
111437500.0    2.923005e-08
111468750.0    2.735349e-08
111500000.0    9.255515e-08
111531250.0    8.861603e-09
111562500.0    4.05377e-08
111593750.0    1.550113e-08
111625000.0    1.85909e-08
111656250.0    3.038291e-08
111687500.0    8.483102e-08
111718750.0    4.786819e-09
111750000.0    3.527398e-08
111781250.0    8.155551e-08
111812500.0    2.322455e-08
111843750.0    4.1203e-08
111875000.0    2.525147e-08
111906250.0    9.658271e-09
111937500.0    9.49676e-08
111968750.0    1.033886e-08
112000000.0    4.537445e-08
112031250.0    2.016802e-08
112062500.0    4.943195e-08
112093750.0    5.800766e-08
112125000.0    2.959722e-08
112156250.0    5.777911e-08
112187500.0    6.729565e-08
112218750.0    6.773263e-08
112250000.0    1.691978e-08
112281250.0    4.940861e-08
112312500.0    3.122065e-08
112343750.0    1.126448e-08
112375000.0    2.567831e-08
112406250.0    3.377652e-08
112437500.0    8.737401e-09
112468750.0    2.620977e-08
112500000.0    2.647538e-08
112531250.0    2.513386e-08
112562500.0    3.907464e-08
112593750.0    2.575894e-08
112625000.0    1.620873e-08
112656250.0    3.668189e-08
112687500.0    5.269924e-08
112718750.0    2.81071e-08
112750000.0    2.640129e-08
112781250.0    6.516225e-09
112812500.0    2.924595e-08
112843750.0    6.008415e-08
112875000.0    4.579636e-08
112906250.0    7.723236e-08
112937500.0    4.282996e-08
112968750.0    2.602636e-08
113000000.0    1.744433e-08
113031250.0    4.202155e-08
113062500.0    1.309225e-08
113093750.0    3.701572e-08
113125000.0    1.608329e-08
113156250.0    7.303224e-08
113187500.0    2.364312e-08
113218750.0    4.275682e-08
113250000.0    3.115244e-08
113281250.0    1.21594e-08
113312500.0    4.3011e-08
113343750.0    2.325195e-08
113375000.0    6.339467e-08
113406250.0    2.451037e-08
113437500.0    3.287198e-08
113468750.0    2.061838e-08
113500000.0    3.915182e-08
113531250.0    1.581465e-08
113562500.0    5.957906e-08
113593750.0    2.130198e-08
113625000.0    5.505178e-08
113656250.0    2.146292e-08
113687500.0    1.534101e-08
113718750.0    6.341921e-08
113750000.0    5.645558e-08
113781250.0    2.956409e-08
113812500.0    2.827077e-08
113843750.0    3.001351e-08
113875000.0    2.332651e-08
113906250.0    4.771878e-08
113937500.0    2.304269e-08
113968750.0    5.352053e-08
114000000.0    5.114575e-08
114031250.0    2.241265e-08
114062500.0    3.084703e-09
114093750.0    2.929673e-08
114125000.0    7.686855e-08
114156250.0    5.437627e-08
114187500.0    5.557637e-08
114218750.0    4.512921e-08
114250000.0    9.468046e-09
114281250.0    1.694003e-08
114312500.0    7.58017e-08
114343750.0    2.564673e-08
114375000.0    1.632357e-08
114406250.0    2.298733e-08
114437500.0    2.372771e-08
114468750.0    2.1713e-08
114500000.0    3.609335e-09
114531250.0    6.277727e-08
114562500.0    3.824045e-08
114593750.0    4.661099e-08
114625000.0    4.049228e-08
114656250.0    4.239635e-08
114687500.0    5.085985e-08
114718750.0    2.589057e-08
114750000.0    9.138898e-09
114781250.0    3.878826e-08
114812500.0    4.1965e-08
114843750.0    4.387314e-08
114875000.0    4.509595e-08
114906250.0    2.946623e-08
114937500.0    3.807856e-08
114968750.0    6.458369e-08
115000000.0    6.284862e-08
115031250.0    5.489672e-08
115062500.0    2.581727e-08
115093750.0    3.732148e-08
115125000.0    3.393292e-08
115156250.0    2.321388e-08
115187500.0    2.698354e-08
115218750.0    5.590718e-08
115250000.0    3.202909e-08
115281250.0    4.870935e-08
115312500.0    4.725314e-08
115343750.0    3.822243e-08
115375000.0    5.853815e-08
115406250.0    1.459816e-08
115437500.0    1.049774e-08
115468750.0    5.814433e-08
115500000.0    8.348691e-08
115531250.0    4.279251e-08
115562500.0    3.518507e-08
115593750.0    1.407341e-07
115625000.0    1.215434e-07
115656250.0    1.6379e-06
115687500.0    5.996406e-07
115718750.0    3.510855e-07
115750000.0    8.010197e-07
115781250.0    4.588565e-07
115812500.0    5.086864e-08
115843750.0    8.634671e-08
115875000.0    4.274082e-08
115906250.0    7.901269e-08
115937500.0    2.587828e-08
115968750.0    7.859876e-08
116000000.0    6.00202e-08
116031250.0    4.620095e-08
116062500.0    1.266076e-08
116093750.0    6.644431e-08
116125000.0    5.174984e-08
116156250.0    7.372678e-09
116187500.0    7.029652e-08
116218750.0    5.015788e-08
116250000.0    9.325218e-08
116281250.0    2.030674e-08
116312500.0    1.977283e-08
116343750.0    7.648765e-09
116375000.0    6.034391e-08
116406250.0    2.206223e-08
116437500.0    2.360563e-08
116468750.0    2.966602e-08
116500000.0    2.270701e-08
116531250.0    2.729546e-08
116562500.0    9.25017e-08
116593750.0    2.750608e-08
116625000.0    7.098237e-08
116656250.0    1.537671e-08
116687500.0    2.27982e-08
116718750.0    4.097003e-08
116750000.0    2.424538e-08
116781250.0    4.288702e-08
116812500.0    5.638931e-09
116843750.0    3.428159e-08
116875000.0    5.229674e-08
116906250.0    4.967217e-08
116937500.0    2.079644e-08
116968750.0    2.150323e-08
117000000.0    2.390321e-08
117031250.0    6.371619e-08
117062500.0    5.466838e-08
117093750.0    4.182916e-08
117125000.0    4.13025e-08
117156250.0    5.04324e-08
117187500.0    3.742357e-08
117218750.0    6.416821e-08
117250000.0    4.333483e-08
117281250.0    3.202019e-08
117312500.0    1.697418e-08
117343750.0    5.160463e-08
117375000.0    4.676101e-08
117406250.0    4.847641e-08
117437500.0    4.288919e-08
117468750.0    4.726871e-08
117500000.0    3.992056e-09
117531250.0    3.08737e-08
117562500.0    2.483952e-08
117593750.0    3.429175e-08
117625000.0    7.080907e-08
117656250.0    2.13141e-08
117687500.0    4.526338e-08
117718750.0    2.054312e-08
117750000.0    4.476345e-08
117781250.0    3.356e-08
117812500.0    3.513829e-08
117843750.0    4.861151e-08
117875000.0    7.759773e-08
117906250.0    7.656446e-09
117937500.0    1.866984e-08
117968750.0    3.329886e-08
118000000.0    6.936646e-09
118031250.0    3.031541e-08
118062500.0    1.610986e-08
118093750.0    3.081399e-08
118125000.0    4.94177e-08
118156250.0    1.424948e-08
118187500.0    5.644025e-08
118218750.0    3.975672e-08
118250000.0    2.772232e-09
118281250.0    4.600103e-08
118312500.0    3.536975e-08
118343750.0    4.580152e-08
118375000.0    3.58553e-08
118406250.0    5.701405e-08
118437500.0    3.696827e-08
118468750.0    1.666677e-08
118500000.0    3.280346e-08
118531250.0    5.353244e-08
118562500.0    5.400286e-08
118593750.0    1.164803e-08
118625000.0    2.011069e-08
118656250.0    3.518242e-08
118687500.0    4.17114e-08
118718750.0    2.315095e-08
118750000.0    1.919219e-08
118781250.0    2.830093e-08
118812500.0    1.763243e-08
118843750.0    7.756811e-08
118875000.0    9.639049e-08
118906250.0    5.158094e-08
118937500.0    4.405976e-08
118968750.0    3.714008e-08
119000000.0    1.782788e-08
119031250.0    1.414182e-08
119062500.0    2.195607e-08
119093750.0    4.618025e-08
119125000.0    5.839843e-08
119156250.0    3.524912e-08
119187500.0    5.360068e-08
119218750.0    1.609868e-08
119250000.0    3.65551e-08
119281250.0    6.411324e-08
119312500.0    2.423228e-08
119343750.0    8.182747e-08
119375000.0    4.926578e-08
119406250.0    1.548792e-08
119437500.0    6.666408e-08
119468750.0    1.217293e-07
119500000.0    1.667045e-08
119531250.0    1.591482e-07
119562500.0    3.563305e-07
119593750.0    4.502424e-07
119625000.0    2.714517e-06
119656250.0    2.851017e-06
119687500.0    1.427074e-06
119718750.0    5.497395e-06
119750000.0    2.647994e-07
119781250.0    1.744594e-06
119812500.0    5.959994e-07
119843750.0    5.141914e-07
119875000.0    1.6825e-07
119906250.0    2.314524e-07
119937500.0    7.306944e-08
119968750.0    4.857865e-08
120000000.0    6.069402e-08
120031250.0    5.322979e-08
120062500.0    2.030015e-08
120093750.0    8.398667e-08
120125000.0    1.266538e-08
120156250.0    3.070725e-08
120187500.0    6.370834e-08
120218750.0    5.956406e-08
120250000.0    1.725459e-08
120281250.0    1.30843e-08
120312500.0    2.187111e-08
120343750.0    6.192219e-08
120375000.0    3.680704e-08
120406250.0    4.285363e-08
120437500.0    4.896395e-08
120468750.0    3.996739e-08
120500000.0    2.512597e-08
120531250.0    1.104274e-08
120562500.0    5.304992e-08
120593750.0    4.041947e-08
120625000.0    7.611126e-08
120656250.0    3.039649e-08
120687500.0    4.446895e-08
120718750.0    4.307231e-08
120750000.0    1.339034e-08
120781250.0    5.05934e-08
120812500.0    2.913805e-08
120843750.0    1.320965e-08
120875000.0    1.198764e-08
120906250.0    6.816145e-08
120937500.0    5.726906e-08
120968750.0    1.51272e-08
121000000.0    3.63699e-08
121031250.0    2.922647e-08
121062500.0    5.500157e-08
121093750.0    4.116496e-08
121125000.0    5.313811e-08
121156250.0    1.292106e-07
121187500.0    1.665519e-08
121218750.0    4.774254e-08
121250000.0    3.045659e-08
121281250.0    5.583733e-08
121312500.0    3.630021e-08
121343750.0    6.832871e-08
121375000.0    7.007467e-08
121406250.0    1.619016e-08
121437500.0    1.418461e-08
121468750.0    6.687505e-08
121500000.0    4.388927e-08
121531250.0    3.576345e-08
121562500.0    9.838685e-09
121593750.0    1.545482e-08
121625000.0    2.197144e-08
121656250.0    2.197647e-08
121687500.0    5.249294e-08
121718750.0    6.340456e-08
121750000.0    2.070041e-08
121781250.0    2.448058e-08
121812500.0    1.907302e-08
121843750.0    4.107272e-08
121875000.0    5.780539e-08
121906250.0    3.007959e-08
121937500.0    3.985757e-08
121968750.0    1.726409e-08
122000000.0    4.023834e-08
122031250.0    3.374508e-08
122062500.0    2.488713e-08
122093750.0    2.30331e-08
122125000.0    2.575884e-08
122156250.0    4.433956e-08
122187500.0    3.511949e-08
122218750.0    1.101692e-08
122250000.0    3.717938e-08
122281250.0    1.677847e-08
122312500.0    7.605998e-09
122343750.0    6.224396e-08
122375000.0    5.387805e-08
122406250.0    3.724394e-08
122437500.0    4.088091e-08
122468750.0    2.737776e-08
122500000.0    4.126216e-08
122531250.0    2.161634e-08
122562500.0    3.759395e-08
122593750.0    3.223673e-08
122625000.0    9.359178e-08
122656250.0    3.776843e-08
122687500.0    3.688667e-08
122718750.0    2.536269e-08
122750000.0    7.331176e-08
122781250.0    1.148936e-08
122812500.0    3.985674e-08
122843750.0    4.955497e-08
122875000.0    4.998309e-08
122906250.0    1.834203e-08
122937500.0    1.891135e-08
122968750.0    4.30006e-08
123000000.0    3.524693e-08
123031250.0    1.062059e-07
123062500.0    3.259355e-08
123093750.0    3.840142e-08
123125000.0    7.387052e-08
123156250.0    8.137518e-08
123187500.0    9.328714e-08
123218750.0    7.001204e-08
123250000.0    3.383691e-08
123281250.0    6.324866e-08
123312500.0    5.57631e-08
123343750.0    4.211641e-08
123375000.0    8.11883e-08
123406250.0    1.507529e-08
123437500.0    9.743802e-09
123468750.0    5.525703e-08
123500000.0    1.934238e-08
123531250.0    1.936293e-08
123562500.0    3.878274e-08
123593750.0    0.0
123625000.0    3.798254e-08
123656250.0    8.537188e-08
123687500.0    2.805197e-08
123718750.0    2.027439e-08
123750000.0    7.003336e-08
123781250.0    4.295655e-08
123812500.0    3.070177e-08
123843750.0    1.39228e-08
123875000.0    1.788783e-08
123906250.0    1.397745e-08
123937500.0    4.232637e-08
123968750.0    7.29687e-08
124000000.0    2.986669e-08
124031250.0    5.188578e-08
124062500.0    3.279632e-08
124093750.0    2.798733e-08
124125000.0    4.359342e-08
124156250.0    4.503716e-08
124187500.0    5.905137e-08
124218750.0    4.265864e-08
124250000.0    4.3409e-08
124281250.0    2.93344e-08
124312500.0    7.048479e-08
124343750.0    2.895136e-08
124375000.0    5.10948e-08
124406250.0    7.445434e-08
124437500.0    6.993579e-08
124468750.0    4.51855e-08
124500000.0    4.611313e-08
124531250.0    6.42465e-08
124562500.0    4.079191e-08
124593750.0    1.481122e-08
124625000.0    4.904703e-08
124656250.0    4.648489e-08
124687500.0    8.087751e-08
124718750.0    2.247913e-08
124750000.0    7.312817e-08
124781250.0    5.120756e-08
124812500.0    6.799118e-09
124843750.0    2.280988e-08
124875000.0    5.224448e-08
124906250.0    3.473296e-08
124937500.0    1.881109e-08
124968750.0    4.142246e-08
125000000.0    2.776479e-08
