# AG4395A Measurement - Timestamp: Oct 31 2017 - 22:33:28
# Parameter File: SP_AG_R_Beatnote_95_to_125MHz.yml
#---------- Measurement Parameters ------------
# Start Frequency (Hz): 100000000.0
# Stop Frequency (Hz): 125000000.0
# Frequency Points: 801
# Measurement Format: NOISE
# Measuremed Input: R
#---------- Analyzer Settings ----------
# Number of Averages: 1
# Auto Bandwidth: On
# IF Bandwidth: 3000.0
# Input Attenuators (R,A,B): 0dB 20dB 20dB 
# Units: V/rtHz
#---------- Measurement Data ----------
# [Freq(Hz) Chan 1 ]
100000000.0    1.525614e-08
100031250.0    8.791122e-09
100062500.0    2.379289e-08
100093750.0    3.411202e-08
100125000.0    3.811629e-08
100156250.0    5.463589e-08
100187500.0    6.309927e-08
100218750.0    1.515501e-08
100250000.0    4.737302e-08
100281250.0    2.146024e-08
100312500.0    7.341632e-08
100343750.0    4.60411e-08
100375000.0    6.082125e-09
100406250.0    1.988247e-08
100437500.0    4.99514e-08
100468750.0    4.740286e-08
100500000.0    2.939714e-08
100531250.0    5.232215e-08
100562500.0    7.246506e-09
100593750.0    5.750562e-08
100625000.0    7.563894e-08
100656250.0    5.926526e-08
100687500.0    7.13353e-08
100718750.0    1.011937e-08
100750000.0    4.666943e-09
100781250.0    7.303601e-08
100812500.0    2.743418e-08
100843750.0    2.122193e-08
100875000.0    1.200424e-08
100906250.0    6.221087e-08
100937500.0    3.087457e-08
100968750.0    2.842407e-08
101000000.0    2.016213e-08
101031250.0    1.61745e-08
101062500.0    5.960743e-08
101093750.0    4.400035e-08
101125000.0    4.408898e-08
101156250.0    1.002708e-07
101187500.0    7.741194e-08
101218750.0    1.727633e-08
101250000.0    2.256053e-08
101281250.0    8.794245e-08
101312500.0    1.335158e-08
101343750.0    2.787612e-08
101375000.0    2.56467e-08
101406250.0    2.451968e-08
101437500.0    6.617549e-08
101468750.0    1.250193e-08
101500000.0    3.37902e-08
101531250.0    4.403199e-08
101562500.0    2.842981e-08
101593750.0    2.859722e-08
101625000.0    5.241675e-08
101656250.0    3.510304e-08
101687500.0    3.437244e-08
101718750.0    5.841755e-08
101750000.0    6.171125e-08
101781250.0    3.69371e-08
101812500.0    3.606587e-08
101843750.0    4.983059e-08
101875000.0    2.258288e-08
101906250.0    4.699461e-08
101937500.0    4.29329e-08
101968750.0    3.622802e-08
102000000.0    4.528231e-08
102031250.0    9.391269e-08
102062500.0    3.925259e-08
102093750.0    2.196385e-08
102125000.0    3.114545e-08
102156250.0    3.920184e-08
102187500.0    2.307997e-08
102218750.0    2.587186e-08
102250000.0    1.969746e-08
102281250.0    5.566121e-08
102312500.0    5.447556e-08
102343750.0    3.387445e-08
102375000.0    1.101133e-08
102406250.0    5.623349e-08
102437500.0    4.028247e-08
102468750.0    4.43129e-08
102500000.0    6.856277e-08
102531250.0    4.294305e-08
102562500.0    1.838881e-08
102593750.0    5.362902e-08
102625000.0    8.004213e-08
102656250.0    8.069883e-08
102687500.0    5.401445e-08
102718750.0    3.776298e-08
102750000.0    1.673267e-08
102781250.0    1.174015e-08
102812500.0    4.91202e-08
102843750.0    2.225243e-08
102875000.0    1.63883e-08
102906250.0    4.089167e-08
102937500.0    3.843941e-08
102968750.0    2.055919e-08
103000000.0    8.740034e-08
103031250.0    9.622538e-09
103062500.0    2.088245e-08
103093750.0    5.374628e-08
103125000.0    2.33733e-08
103156250.0    3.061959e-08
103187500.0    6.35937e-08
103218750.0    1.082646e-08
103250000.0    4.161063e-08
103281250.0    6.805812e-08
103312500.0    2.488878e-08
103343750.0    5.410692e-08
103375000.0    2.129372e-08
103406250.0    2.243605e-08
103437500.0    1.66373e-08
103468750.0    4.470826e-08
103500000.0    2.049015e-08
103531250.0    1.739284e-08
103562500.0    7.290571e-08
103593750.0    3.656759e-08
103625000.0    1.940435e-08
103656250.0    3.367006e-08
103687500.0    2.679012e-08
103718750.0    8.593648e-08
103750000.0    8.095135e-08
103781250.0    2.575443e-08
103812500.0    2.407356e-08
103843750.0    3.74459e-08
103875000.0    8.600506e-09
103906250.0    7.082942e-08
103937500.0    4.214729e-08
103968750.0    4.008164e-08
104000000.0    4.483692e-08
104031250.0    1.650739e-08
104062500.0    6.06119e-08
104093750.0    4.205418e-08
104125000.0    4.602336e-08
104156250.0    6.928496e-09
104187500.0    4.320188e-08
104218750.0    2.222693e-08
104250000.0    2.81729e-08
104281250.0    2.124864e-08
104312500.0    3.882952e-08
104343750.0    2.837201e-08
104375000.0    5.732162e-08
104406250.0    1.675892e-08
104437500.0    3.642649e-08
104468750.0    1.051948e-07
104500000.0    1.251959e-08
104531250.0    1.771017e-08
104562500.0    1.357425e-08
104593750.0    8.54864e-08
104625000.0    5.642775e-08
104656250.0    1.197501e-08
104687500.0    2.763309e-08
104718750.0    2.447425e-08
104750000.0    6.157246e-08
104781250.0    2.396973e-08
104812500.0    4.150611e-08
104843750.0    3.842581e-08
104875000.0    6.536143e-08
104906250.0    3.220769e-08
104937500.0    4.328482e-08
104968750.0    6.475666e-08
105000000.0    5.161957e-08
105031250.0    6.18703e-08
105062500.0    1.555747e-08
105093750.0    2.749004e-09
105125000.0    3.056146e-08
105156250.0    4.272078e-08
105187500.0    3.524174e-08
105218750.0    3.845473e-08
105250000.0    7.743238e-08
105281250.0    9.240251e-08
105312500.0    6.637052e-08
105343750.0    2.204325e-08
105375000.0    4.039657e-08
105406250.0    1.89089e-08
105437500.0    4.762134e-08
105468750.0    2.629166e-08
105500000.0    4.139907e-08
105531250.0    4.077387e-08
105562500.0    6.724395e-08
105593750.0    2.14503e-08
105625000.0    1.589394e-08
105656250.0    7.167098e-08
105687500.0    2.544691e-08
105718750.0    6.761005e-08
105750000.0    5.885698e-08
105781250.0    5.359641e-08
105812500.0    2.647822e-08
105843750.0    8.556816e-08
105875000.0    1.4607e-08
105906250.0    9.722127e-09
105937500.0    3.44529e-08
105968750.0    3.054511e-08
106000000.0    3.207518e-08
106031250.0    2.407381e-08
106062500.0    6.254491e-08
106093750.0    4.109707e-08
106125000.0    2.926935e-08
106156250.0    2.85127e-08
106187500.0    2.098875e-08
106218750.0    4.706666e-08
106250000.0    1.101067e-08
106281250.0    2.314483e-08
106312500.0    6.581913e-08
106343750.0    4.952295e-08
106375000.0    4.029339e-08
106406250.0    2.228902e-08
106437500.0    6.223321e-08
106468750.0    2.622527e-08
106500000.0    4.356865e-08
106531250.0    1.410718e-08
106562500.0    9.819488e-09
106593750.0    4.26373e-08
106625000.0    6.526736e-08
106656250.0    2.941606e-08
106687500.0    1.055747e-08
106718750.0    8.770154e-09
106750000.0    6.308152e-08
106781250.0    2.070897e-08
106812500.0    2.646381e-08
106843750.0    4.230822e-08
106875000.0    2.870408e-08
106906250.0    6.267305e-08
106937500.0    3.783947e-08
106968750.0    3.520427e-08
107000000.0    3.650485e-08
107031250.0    8.663318e-09
107062500.0    4.023103e-09
107093750.0    7.404212e-08
107125000.0    2.117204e-08
107156250.0    1.445373e-08
107187500.0    3.465219e-08
107218750.0    2.787424e-08
107250000.0    2.080275e-08
107281250.0    1.660197e-08
107312500.0    5.25581e-08
107343750.0    5.247315e-08
107375000.0    2.026741e-08
107406250.0    4.355805e-08
107437500.0    5.15014e-08
107468750.0    6.256738e-08
107500000.0    2.513452e-08
107531250.0    5.247999e-08
107562500.0    5.135646e-08
107593750.0    8.953715e-08
107625000.0    6.512764e-08
107656250.0    3.427551e-08
107687500.0    4.523511e-08
107718750.0    5.510621e-08
107750000.0    5.689819e-08
107781250.0    3.258432e-08
107812500.0    3.301522e-08
107843750.0    2.69504e-08
107875000.0    7.584719e-08
107906250.0    1.646739e-08
107937500.0    4.185392e-08
107968750.0    8.005713e-08
108000000.0    3.606329e-08
108031250.0    5.757216e-08
108062500.0    3.064345e-08
108093750.0    3.618311e-08
108125000.0    2.733487e-08
108156250.0    4.88886e-09
108187500.0    2.542335e-08
108218750.0    5.937506e-08
108250000.0    4.237305e-08
108281250.0    3.291576e-08
108312500.0    8.475949e-08
108343750.0    8.875857e-08
108375000.0    1.896871e-08
108406250.0    3.427853e-08
108437500.0    2.793947e-08
108468750.0    5.415083e-08
108500000.0    4.955458e-08
108531250.0    4.701553e-08
108562500.0    2.035504e-08
108593750.0    5.172274e-08
108625000.0    3.431512e-08
108656250.0    2.040186e-08
108687500.0    5.157686e-08
108718750.0    2.553272e-08
108750000.0    2.913208e-08
108781250.0    2.012638e-08
108812500.0    1.799674e-08
108843750.0    4.294051e-08
108875000.0    5.56151e-08
108906250.0    5.189364e-08
108937500.0    6.789147e-09
108968750.0    1.643164e-08
109000000.0    2.884258e-08
109031250.0    2.102652e-08
109062500.0    9.59306e-08
109093750.0    1.031541e-07
109125000.0    5.396207e-08
109156250.0    1.50721e-08
109187500.0    5.888532e-08
109218750.0    4.155873e-08
109250000.0    3.256227e-08
109281250.0    4.297078e-08
109312500.0    2.474248e-08
109343750.0    2.686576e-08
109375000.0    4.250106e-08
109406250.0    5.439761e-08
109437500.0    4.699953e-08
109468750.0    2.600682e-08
109500000.0    4.972583e-08
109531250.0    4.018617e-08
109562500.0    3.739919e-08
109593750.0    7.607863e-08
109625000.0    4.131333e-08
109656250.0    3.900917e-08
109687500.0    2.87063e-08
109718750.0    5.494822e-08
109750000.0    2.866235e-08
109781250.0    1.707368e-08
109812500.0    1.039818e-07
109843750.0    7.021928e-08
109875000.0    2.301705e-08
109906250.0    4.935425e-08
109937500.0    6.387287e-08
109968750.0    3.970637e-08
110000000.0    1.108434e-08
110031250.0    6.78781e-08
110062500.0    3.385449e-08
110093750.0    4.218898e-08
110125000.0    2.087964e-08
110156250.0    2.800625e-08
110187500.0    3.048747e-08
110218750.0    5.12246e-08
110250000.0    8.137931e-08
110281250.0    2.911428e-08
110312500.0    5.992516e-08
110343750.0    2.383101e-08
110375000.0    4.103027e-08
110406250.0    2.055549e-08
110437500.0    2.01433e-08
110468750.0    6.068243e-08
110500000.0    6.570414e-08
110531250.0    7.336679e-08
110562500.0    3.175365e-08
110593750.0    3.540499e-08
110625000.0    1.603866e-08
110656250.0    7.898643e-08
110687500.0    4.887456e-08
110718750.0    5.051304e-08
110750000.0    4.058046e-08
110781250.0    3.860749e-08
110812500.0    2.548867e-08
110843750.0    2.113983e-08
110875000.0    4.982597e-08
110906250.0    2.108948e-08
110937500.0    4.177368e-08
110968750.0    2.508057e-08
111000000.0    6.026006e-08
111031250.0    2.054333e-08
111062500.0    1.027076e-07
111093750.0    3.478121e-08
111125000.0    1.500194e-08
111156250.0    4.130548e-08
111187500.0    4.512196e-08
111218750.0    7.205974e-08
111250000.0    2.808279e-08
111281250.0    6.222886e-08
111312500.0    7.961621e-08
111343750.0    1.277231e-08
111375000.0    2.456046e-08
111406250.0    7.417844e-08
111437500.0    3.845757e-08
111468750.0    8.172182e-08
111500000.0    8.309119e-08
111531250.0    4.249791e-08
111562500.0    3.564369e-08
111593750.0    4.389474e-08
111625000.0    3.855581e-08
111656250.0    6.043362e-08
111687500.0    2.070547e-08
111718750.0    1.500832e-08
111750000.0    1.897626e-08
111781250.0    1.91115e-08
111812500.0    5.877298e-08
111843750.0    5.0064e-08
111875000.0    3.651617e-08
111906250.0    2.233797e-08
111937500.0    3.646839e-08
111968750.0    5.4384e-08
112000000.0    2.863318e-08
112031250.0    4.814813e-08
112062500.0    2.050424e-08
112093750.0    5.481445e-08
112125000.0    4.479174e-08
112156250.0    6.338935e-08
112187500.0    2.264152e-08
112218750.0    5.539988e-08
112250000.0    2.961903e-08
112281250.0    1.757195e-08
112312500.0    4.188516e-08
112343750.0    1.574231e-08
112375000.0    5.465381e-08
112406250.0    2.51529e-08
112437500.0    6.034642e-08
112468750.0    3.930299e-08
112500000.0    4.570015e-08
112531250.0    2.848258e-08
112562500.0    2.418453e-08
112593750.0    5.219424e-08
112625000.0    4.542788e-08
112656250.0    1.687798e-08
112687500.0    4.097495e-08
112718750.0    6.825395e-08
112750000.0    1.09417e-08
112781250.0    2.995716e-08
112812500.0    4.752339e-08
112843750.0    2.433916e-08
112875000.0    2.713784e-08
112906250.0    3.562135e-08
112937500.0    7.527448e-08
112968750.0    2.48039e-08
113000000.0    9.119042e-09
113031250.0    9.098203e-09
113062500.0    4.640322e-08
113093750.0    4.249453e-08
113125000.0    5.691204e-08
113156250.0    1.810003e-08
113187500.0    3.391402e-08
113218750.0    3.098216e-08
113250000.0    2.106415e-08
113281250.0    3.655747e-08
113312500.0    5.656635e-08
113343750.0    3.827173e-08
113375000.0    7.835975e-08
113406250.0    3.09706e-08
113437500.0    4.24047e-08
113468750.0    5.569687e-08
113500000.0    4.648454e-08
113531250.0    1.675844e-08
113562500.0    4.007638e-08
113593750.0    2.29113e-08
113625000.0    4.172752e-08
113656250.0    6.343845e-08
113687500.0    4.185772e-08
113718750.0    5.754053e-08
113750000.0    3.289421e-08
113781250.0    3.112892e-08
113812500.0    3.77388e-08
113843750.0    2.398447e-08
113875000.0    3.248909e-08
113906250.0    3.25306e-08
113937500.0    4.229453e-08
113968750.0    1.947861e-08
114000000.0    3.241652e-08
114031250.0    4.937272e-08
114062500.0    6.011517e-08
114093750.0    9.747525e-08
114125000.0    4.156117e-08
114156250.0    4.20915e-08
114187500.0    7.612387e-08
114218750.0    1.857734e-08
114250000.0    3.988738e-08
114281250.0    4.439273e-08
114312500.0    2.350707e-08
114343750.0    6.210644e-08
114375000.0    7.389793e-09
114406250.0    1.694594e-08
114437500.0    5.217049e-08
114468750.0    1.284873e-08
114500000.0    1.336587e-08
114531250.0    6.138032e-08
114562500.0    4.752418e-08
114593750.0    5.367732e-08
114625000.0    6.7413e-08
114656250.0    2.552632e-08
114687500.0    5.64286e-08
114718750.0    5.262827e-08
114750000.0    2.370448e-08
114781250.0    3.739236e-08
114812500.0    5.550156e-08
114843750.0    9.736858e-08
114875000.0    3.685887e-08
114906250.0    3.740884e-08
114937500.0    4.225258e-08
114968750.0    7.261514e-08
115000000.0    4.531662e-08
115031250.0    4.043616e-08
115062500.0    2.685853e-08
115093750.0    3.683619e-08
115125000.0    4.403102e-08
115156250.0    1.756874e-08
115187500.0    3.587611e-08
115218750.0    7.012198e-08
115250000.0    1.183909e-07
115281250.0    7.762766e-08
115312500.0    5.630975e-08
115343750.0    5.150859e-08
115375000.0    2.498512e-08
115406250.0    4.495289e-08
115437500.0    1.718478e-08
115468750.0    5.157406e-08
115500000.0    2.802831e-08
115531250.0    6.931724e-08
115562500.0    1.641631e-08
115593750.0    3.723597e-08
115625000.0    1.738964e-08
115656250.0    1.847693e-08
115687500.0    4.343634e-08
115718750.0    6.016185e-08
115750000.0    4.375618e-08
115781250.0    2.479451e-08
115812500.0    1.84094e-08
115843750.0    4.361335e-08
115875000.0    3.647391e-08
115906250.0    3.344429e-08
115937500.0    1.871176e-08
115968750.0    2.432721e-08
116000000.0    1.908339e-08
116031250.0    2.087858e-08
116062500.0    6.731067e-08
116093750.0    4.115277e-08
116125000.0    2.335537e-08
116156250.0    9.993399e-09
116187500.0    4.06769e-08
116218750.0    5.796986e-08
116250000.0    7.395801e-08
116281250.0    6.694123e-08
116312500.0    1.786451e-08
116343750.0    7.564389e-09
116375000.0    5.64408e-09
116406250.0    1.803189e-08
116437500.0    9.918396e-08
116468750.0    5.117272e-08
116500000.0    1.313264e-08
116531250.0    3.637156e-08
116562500.0    7.333638e-08
116593750.0    9.193969e-09
116625000.0    4.943814e-08
116656250.0    7.745165e-08
116687500.0    4.549439e-08
116718750.0    5.276024e-08
116750000.0    4.085499e-08
116781250.0    5.038718e-08
116812500.0    5.461632e-08
116843750.0    6.074993e-08
116875000.0    1.128749e-08
116906250.0    1.055515e-08
116937500.0    4.799626e-08
116968750.0    3.185982e-08
117000000.0    4.067083e-08
117031250.0    7.591959e-08
117062500.0    2.421487e-08
117093750.0    2.330198e-08
117125000.0    7.404241e-09
117156250.0    8.664375e-08
117187500.0    5.783935e-08
117218750.0    2.636953e-08
117250000.0    8.041823e-09
117281250.0    5.220727e-08
117312500.0    2.303288e-08
117343750.0    9.767184e-09
117375000.0    3.788658e-08
117406250.0    3.553935e-08
117437500.0    7.634593e-09
117468750.0    6.284401e-08
117500000.0    8.993721e-09
117531250.0    6.067059e-08
117562500.0    5.788837e-08
117593750.0    5.89556e-08
117625000.0    2.093976e-08
117656250.0    2.616353e-08
117687500.0    4.921467e-08
117718750.0    3.58433e-08
117750000.0    2.840069e-08
117781250.0    5.911488e-08
117812500.0    4.058798e-08
117843750.0    4.278317e-08
117875000.0    4.122866e-08
117906250.0    4.872352e-08
117937500.0    8.639659e-08
117968750.0    5.626316e-08
118000000.0    3.791438e-08
118031250.0    2.496096e-08
118062500.0    2.227929e-08
118093750.0    7.263903e-08
118125000.0    9.002046e-09
118156250.0    1.34952e-08
118187500.0    4.156967e-08
118218750.0    1.239336e-08
118250000.0    1.418838e-08
118281250.0    5.225174e-08
118312500.0    4.666728e-08
118343750.0    2.567644e-08
118375000.0    6.248736e-08
118406250.0    4.148211e-08
118437500.0    9.392984e-08
118468750.0    2.766315e-08
118500000.0    4.392514e-08
118531250.0    6.423445e-08
118562500.0    4.450564e-08
118593750.0    6.530429e-08
118625000.0    5.032549e-08
118656250.0    2.578969e-08
118687500.0    2.064525e-08
118718750.0    4.939474e-08
118750000.0    2.237495e-08
118781250.0    2.74823e-08
118812500.0    5.220871e-08
118843750.0    2.125244e-08
118875000.0    4.56779e-08
118906250.0    2.403156e-08
118937500.0    3.0178e-08
118968750.0    3.740202e-08
119000000.0    2.261611e-08
119031250.0    1.718068e-08
119062500.0    3.453817e-08
119093750.0    1.540577e-08
119125000.0    5.291959e-08
119156250.0    2.992318e-08
119187500.0    3.304877e-08
119218750.0    2.729488e-08
119250000.0    3.985757e-08
119281250.0    4.057762e-08
119312500.0    5.28653e-08
119343750.0    2.975323e-08
119375000.0    5.06367e-08
119406250.0    2.276459e-08
119437500.0    2.299728e-08
119468750.0    3.710239e-08
119500000.0    1.646115e-08
119531250.0    3.854306e-08
119562500.0    4.211376e-08
119593750.0    5.084415e-08
119625000.0    4.64528e-08
119656250.0    4.07357e-08
119687500.0    6.751677e-08
119718750.0    2.710685e-08
119750000.0    5.555839e-08
119781250.0    5.835023e-08
119812500.0    5.976424e-08
119843750.0    4.124036e-08
119875000.0    2.347057e-08
119906250.0    5.808909e-08
119937500.0    2.486282e-08
119968750.0    3.557458e-08
120000000.0    4.298458e-08
120031250.0    5.39407e-08
120062500.0    3.615835e-08
120093750.0    1.383216e-08
120125000.0    6.972099e-08
120156250.0    3.204588e-08
120187500.0    4.983522e-08
120218750.0    1.1411e-08
120250000.0    8.986053e-08
120281250.0    3.957151e-08
120312500.0    6.020859e-08
120343750.0    6.246137e-08
120375000.0    2.660921e-08
120406250.0    2.849209e-08
120437500.0    1.408357e-08
120468750.0    4.076999e-08
120500000.0    3.858967e-08
120531250.0    6.595833e-08
120562500.0    2.018588e-08
120593750.0    2.623522e-09
120625000.0    6.574413e-08
120656250.0    2.08833e-08
120687500.0    4.030848e-08
120718750.0    2.773601e-08
120750000.0    6.2921e-08
120781250.0    8.996693e-08
120812500.0    4.890168e-08
120843750.0    2.541256e-08
120875000.0    1.379921e-08
120906250.0    1.690038e-08
120937500.0    2.468418e-08
120968750.0    1.038398e-08
121000000.0    7.042218e-08
121031250.0    8.043952e-08
121062500.0    9.585868e-08
121093750.0    3.964534e-08
121125000.0    5.774845e-08
121156250.0    5.512106e-08
121187500.0    2.545493e-08
121218750.0    4.213933e-08
121250000.0    3.764449e-08
121281250.0    2.951893e-08
121312500.0    5.079259e-08
121343750.0    9.239701e-09
121375000.0    6.60397e-08
121406250.0    2.305596e-08
121437500.0    3.355225e-08
121468750.0    5.485076e-08
121500000.0    1.407444e-08
121531250.0    2.973287e-08
121562500.0    4.685687e-08
121593750.0    4.426771e-08
121625000.0    5.177475e-08
121656250.0    2.758274e-08
121687500.0    4.962225e-08
121718750.0    3.161015e-08
121750000.0    4.586333e-08
121781250.0    2.452382e-08
121812500.0    3.776877e-08
121843750.0    6.006972e-08
121875000.0    5.09322e-08
121906250.0    1.714864e-08
121937500.0    3.61151e-08
121968750.0    3.794592e-08
122000000.0    1.262565e-08
122031250.0    3.973581e-08
122062500.0    2.430539e-08
122093750.0    1.386598e-08
122125000.0    6.618656e-08
122156250.0    5.378131e-08
122187500.0    2.899883e-08
122218750.0    5.795702e-08
122250000.0    8.830835e-09
122281250.0    3.684069e-08
122312500.0    1.830163e-08
122343750.0    5.876231e-08
122375000.0    9.966265e-08
122406250.0    2.376268e-08
122437500.0    2.152437e-08
122468750.0    1.845286e-08
122500000.0    3.146977e-08
122531250.0    3.471585e-08
122562500.0    1.290755e-08
122593750.0    1.319025e-08
122625000.0    5.264727e-08
122656250.0    1.088875e-08
122687500.0    6.446598e-08
122718750.0    1.024241e-07
122750000.0    3.050895e-08
122781250.0    4.250844e-08
122812500.0    2.0234e-08
122843750.0    3.26149e-08
122875000.0    5.305588e-08
122906250.0    4.050719e-08
122937500.0    2.473828e-08
122968750.0    4.357704e-08
123000000.0    4.740337e-08
123031250.0    4.3489e-08
123062500.0    5.273216e-08
123093750.0    3.133443e-08
123125000.0    1.747731e-08
123156250.0    4.320028e-08
123187500.0    5.805136e-08
123218750.0    4.589074e-08
123250000.0    2.731826e-08
123281250.0    2.071799e-08
123312500.0    3.385469e-08
123343750.0    5.652027e-08
123375000.0    7.297619e-08
123406250.0    4.249037e-08
123437500.0    2.421411e-08
123468750.0    3.3661e-08
123500000.0    7.631402e-08
123531250.0    4.557232e-08
123562500.0    3.397714e-08
123593750.0    7.131593e-08
123625000.0    3.658933e-08
123656250.0    3.53765e-08
123687500.0    2.529161e-08
123718750.0    1.370362e-08
123750000.0    2.444138e-08
123781250.0    7.130345e-08
123812500.0    5.150618e-08
123843750.0    7.748326e-08
123875000.0    5.638119e-08
123906250.0    7.904769e-08
123937500.0    6.869251e-09
123968750.0    5.901391e-08
124000000.0    9.844446e-09
124031250.0    5.387912e-08
124062500.0    1.984225e-08
124093750.0    6.020743e-08
124125000.0    2.399428e-08
124156250.0    2.845675e-08
124187500.0    2.380495e-08
124218750.0    6.102949e-08
124250000.0    8.956479e-08
124281250.0    4.009937e-08
124312500.0    4.189971e-08
124343750.0    4.523383e-08
124375000.0    9.765736e-09
124406250.0    1.023824e-08
124437500.0    1.903846e-08
124468750.0    5.241491e-08
124500000.0    3.228194e-08
124531250.0    4.514337e-08
124562500.0    1.115756e-08
124593750.0    2.905717e-08
124625000.0    1.772742e-08
124656250.0    2.170915e-08
124687500.0    1.280974e-08
124718750.0    1.796224e-08
124750000.0    3.117309e-08
124781250.0    1.424094e-08
124812500.0    2.207234e-08
124843750.0    4.381332e-08
124875000.0    4.574114e-08
124906250.0    4.407159e-08
124937500.0    3.013332e-08
124968750.0    5.503243e-08
125000000.0    5.72269e-08
