# AG4395A Measurement - Timestamp: Nov 01 2017 - 15:03:07
# Parameter File: SP_AG_R_Beatnote_95_to_125MHz.yml
#---------- Measurement Parameters ------------
# Start Frequency (Hz): 100000000.0
# Stop Frequency (Hz): 125000000.0
# Frequency Points: 801
# Measurement Format: NOISE
# Measuremed Input: R
#---------- Analyzer Settings ----------
# Number of Averages: 1
# Auto Bandwidth: On
# IF Bandwidth: 3000.0
# Input Attenuators (R,A,B): 0dB 20dB 20dB 
# Units: V/rtHz
#---------- Measurement Data ----------
# [Freq(Hz) Chan 1 ]
100000000.0    3.302264e-08
100031250.0    5.288134e-08
100062500.0    3.974046e-08
100093750.0    3.337193e-08
100125000.0    9.534905e-08
100156250.0    2.396061e-08
100187500.0    3.928317e-08
100218750.0    2.935959e-08
100250000.0    8.828638e-08
100281250.0    3.295539e-08
100312500.0    6.20357e-08
100343750.0    5.674039e-08
100375000.0    2.675889e-08
100406250.0    7.688573e-09
100437500.0    2.334296e-08
100468750.0    3.704198e-08
100500000.0    1.907174e-08
100531250.0    7.186372e-08
100562500.0    5.618272e-08
100593750.0    3.350616e-08
100625000.0    1.476278e-08
100656250.0    2.835079e-08
100687500.0    4.095663e-08
100718750.0    3.059585e-08
100750000.0    5.784877e-08
100781250.0    6.074467e-08
100812500.0    7.866995e-08
100843750.0    3.410395e-08
100875000.0    6.289333e-08
100906250.0    4.40654e-08
100937500.0    5.125962e-08
100968750.0    2.025279e-08
101000000.0    5.523783e-08
101031250.0    7.656274e-08
101062500.0    5.190378e-08
101093750.0    2.26994e-08
101125000.0    2.695377e-08
101156250.0    2.079767e-08
101187500.0    4.094727e-08
101218750.0    1.762659e-08
101250000.0    3.643791e-08
101281250.0    2.254297e-08
101312500.0    4.675608e-08
101343750.0    2.422137e-08
101375000.0    7.09717e-08
101406250.0    3.423349e-08
101437500.0    2.66822e-08
101468750.0    5.966634e-08
101500000.0    4.906959e-08
101531250.0    3.614441e-08
101562500.0    2.237319e-08
101593750.0    3.830295e-08
101625000.0    1.400295e-08
101656250.0    1.685675e-08
101687500.0    5.471095e-08
101718750.0    4.879281e-08
101750000.0    1.722945e-08
101781250.0    4.63371e-08
101812500.0    3.404424e-08
101843750.0    1.156381e-08
101875000.0    2.747928e-08
101906250.0    4.323437e-08
101937500.0    2.856291e-08
101968750.0    1.941165e-08
102000000.0    1.353751e-08
102031250.0    3.145448e-08
102062500.0    2.689665e-08
102093750.0    3.246979e-08
102125000.0    2.259203e-08
102156250.0    2.236715e-08
102187500.0    2.408341e-08
102218750.0    4.402301e-08
102250000.0    1.118951e-08
102281250.0    3.963675e-08
102312500.0    2.369125e-08
102343750.0    4.139864e-08
102375000.0    3.279931e-08
102406250.0    6.003805e-08
102437500.0    4.807497e-08
102468750.0    6.823978e-08
102500000.0    5.757101e-08
102531250.0    2.27367e-08
102562500.0    7.159636e-08
102593750.0    3.561196e-08
102625000.0    5.127033e-08
102656250.0    7.03777e-08
102687500.0    3.260372e-08
102718750.0    3.362262e-08
102750000.0    5.802415e-08
102781250.0    4.614422e-08
102812500.0    3.184955e-08
102843750.0    1.097274e-08
102875000.0    5.263414e-08
102906250.0    5.166096e-08
102937500.0    1.129987e-07
102968750.0    5.050492e-08
103000000.0    5.098214e-09
103031250.0    3.474785e-08
103062500.0    2.307859e-08
103093750.0    1.606894e-08
103125000.0    8.85073e-09
103156250.0    7.900385e-08
103187500.0    3.507131e-08
103218750.0    2.56658e-08
103250000.0    2.15459e-08
103281250.0    3.482607e-08
103312500.0    7.900436e-08
103343750.0    6.640063e-08
103375000.0    4.493417e-08
103406250.0    5.38237e-08
103437500.0    6.975812e-08
103468750.0    6.809709e-09
103500000.0    3.920581e-08
103531250.0    2.632444e-08
103562500.0    3.391166e-08
103593750.0    2.163522e-08
103625000.0    1.62542e-08
103656250.0    4.79876e-08
103687500.0    5.280405e-08
103718750.0    2.220763e-08
103750000.0    6.225824e-08
103781250.0    4.485495e-08
103812500.0    3.553263e-08
103843750.0    1.100797e-08
103875000.0    3.51655e-08
103906250.0    2.48481e-08
103937500.0    3.906856e-08
103968750.0    3.97727e-08
104000000.0    3.818366e-08
104031250.0    2.842548e-08
104062500.0    8.858274e-08
104093750.0    3.829618e-08
104125000.0    2.132004e-08
104156250.0    6.864906e-08
104187500.0    3.963271e-08
104218750.0    5.273805e-08
104250000.0    2.943516e-08
104281250.0    4.668748e-08
104312500.0    6.770646e-08
104343750.0    2.288605e-08
104375000.0    2.395521e-08
104406250.0    3.03397e-08
104437500.0    5.519193e-08
104468750.0    5.880387e-08
104500000.0    7.285015e-08
104531250.0    2.741097e-08
104562500.0    3.598617e-08
104593750.0    4.954417e-08
104625000.0    2.447157e-09
104656250.0    2.547443e-08
104687500.0    2.623241e-08
104718750.0    3.741109e-08
104750000.0    6.084782e-08
104781250.0    1.339107e-08
104812500.0    5.972984e-08
104843750.0    3.634743e-08
104875000.0    1.469866e-08
104906250.0    4.790699e-08
104937500.0    4.366886e-09
104968750.0    5.889857e-08
105000000.0    8.989029e-08
105031250.0    3.284288e-08
105062500.0    5.769303e-08
105093750.0    1.054823e-08
105125000.0    1.714534e-08
105156250.0    5.904352e-08
105187500.0    3.886667e-08
105218750.0    2.315774e-08
105250000.0    2.443953e-08
105281250.0    2.769099e-08
105312500.0    4.137483e-08
105343750.0    3.12531e-08
105375000.0    1.13883e-08
105406250.0    2.690882e-08
105437500.0    1.427566e-08
105468750.0    4.67575e-08
105500000.0    1.029983e-08
105531250.0    3.55467e-08
105562500.0    5.721463e-08
105593750.0    3.452948e-08
105625000.0    6.804122e-08
105656250.0    6.687289e-08
105687500.0    3.740851e-08
105718750.0    4.557209e-08
105750000.0    7.397827e-08
105781250.0    4.430409e-08
105812500.0    2.003519e-08
105843750.0    2.831154e-08
105875000.0    4.981747e-08
105906250.0    3.334478e-08
105937500.0    6.272712e-08
105968750.0    3.051667e-08
106000000.0    6.566041e-08
106031250.0    8.19655e-08
106062500.0    2.779825e-08
106093750.0    3.481579e-08
106125000.0    2.991271e-08
106156250.0    4.124313e-08
106187500.0    2.394456e-08
106218750.0    5.87374e-08
106250000.0    6.907153e-08
106281250.0    3.767785e-08
106312500.0    5.521767e-08
106343750.0    2.954729e-08
106375000.0    4.154098e-08
106406250.0    2.342417e-08
106437500.0    5.0464e-08
106468750.0    3.838248e-08
106500000.0    5.560115e-08
106531250.0    3.463526e-08
106562500.0    3.959585e-08
106593750.0    5.638644e-08
106625000.0    6.319979e-08
106656250.0    1.408093e-08
106687500.0    1.867327e-08
106718750.0    3.583044e-08
106750000.0    6.735581e-08
106781250.0    2.541369e-08
106812500.0    4.307703e-08
106843750.0    3.021135e-08
106875000.0    3.014274e-08
106906250.0    2.226888e-08
106937500.0    2.282908e-08
106968750.0    2.649526e-08
107000000.0    8.185725e-08
107031250.0    8.461724e-09
107062500.0    1.744932e-08
107093750.0    6.195044e-08
107125000.0    4.590256e-08
107156250.0    7.265912e-08
107187500.0    4.500502e-08
107218750.0    4.843906e-08
107250000.0    6.349e-08
107281250.0    3.39727e-08
107312500.0    2.361136e-08
107343750.0    2.68927e-08
107375000.0    8.131811e-08
107406250.0    4.05301e-08
107437500.0    1.378534e-08
107468750.0    4.332279e-08
107500000.0    6.378323e-08
107531250.0    6.982833e-08
107562500.0    2.527738e-08
107593750.0    4.016019e-08
107625000.0    4.494449e-08
107656250.0    2.024398e-08
107687500.0    4.637624e-08
107718750.0    2.625594e-08
107750000.0    4.337009e-08
107781250.0    3.428476e-08
107812500.0    3.350351e-08
107843750.0    6.457481e-08
107875000.0    4.49873e-08
107906250.0    3.840996e-08
107937500.0    2.341995e-08
107968750.0    3.964309e-08
108000000.0    4.554851e-08
108031250.0    2.299543e-08
108062500.0    5.990479e-08
108093750.0    4.48626e-08
108125000.0    3.030991e-08
108156250.0    5.006152e-08
108187500.0    1.633828e-08
108218750.0    9.318456e-09
108250000.0    2.135611e-08
108281250.0    3.554034e-08
108312500.0    5.368456e-08
108343750.0    3.11482e-08
108375000.0    2.881824e-08
108406250.0    5.698866e-08
108437500.0    4.54022e-08
108468750.0    5.325053e-08
108500000.0    5.373169e-08
108531250.0    5.455439e-08
108562500.0    2.247811e-08
108593750.0    6.144637e-08
108625000.0    2.078034e-08
108656250.0    2.48038e-08
108687500.0    2.063596e-08
108718750.0    8.07623e-09
108750000.0    5.629092e-08
108781250.0    6.729763e-08
108812500.0    5.947219e-08
108843750.0    3.135643e-08
108875000.0    5.794642e-08
108906250.0    4.460642e-08
108937500.0    6.937144e-08
108968750.0    6.300027e-08
109000000.0    1.230529e-07
109031250.0    5.730595e-08
109062500.0    1.991684e-08
109093750.0    4.256962e-08
109125000.0    4.920039e-08
109156250.0    4.988351e-08
109187500.0    6.53361e-09
109218750.0    5.501011e-09
109250000.0    1.263463e-08
109281250.0    7.085323e-08
109312500.0    8.579525e-09
109343750.0    2.701666e-08
109375000.0    4.192462e-08
109406250.0    3.862827e-08
109437500.0    2.483363e-08
109468750.0    3.713328e-08
109500000.0    9.780423e-08
109531250.0    1.439831e-08
109562500.0    5.648506e-08
109593750.0    5.094491e-08
109625000.0    5.095418e-08
109656250.0    7.047787e-08
109687500.0    5.29119e-08
109718750.0    3.814913e-08
109750000.0    1.433025e-08
109781250.0    3.222878e-08
109812500.0    2.018071e-08
109843750.0    4.095256e-08
109875000.0    7.068056e-08
109906250.0    3.958686e-08
109937500.0    3.565928e-08
109968750.0    2.978395e-08
110000000.0    5.324344e-08
110031250.0    1.950754e-08
110062500.0    6.392709e-08
110093750.0    4.808203e-08
110125000.0    3.745229e-08
110156250.0    2.128549e-08
110187500.0    4.77865e-08
110218750.0    3.06188e-08
110250000.0    9.118382e-09
110281250.0    3.24452e-08
110312500.0    4.358388e-08
110343750.0    4.671799e-08
110375000.0    4.581475e-08
110406250.0    2.428386e-08
110437500.0    3.774903e-08
110468750.0    7.627889e-08
110500000.0    1.367797e-08
110531250.0    1.082222e-08
110562500.0    4.787982e-08
110593750.0    5.365736e-08
110625000.0    4.169644e-08
110656250.0    4.387492e-08
110687500.0    5.11011e-08
110718750.0    1.552429e-08
110750000.0    5.161154e-08
110781250.0    4.171715e-08
110812500.0    1.668472e-08
110843750.0    4.199535e-08
110875000.0    5.531128e-08
110906250.0    4.934454e-08
110937500.0    5.072399e-08
110968750.0    9.618359e-09
111000000.0    3.358042e-08
111031250.0    5.968851e-08
111062500.0    2.32393e-08
111093750.0    4.716604e-08
111125000.0    4.102832e-08
111156250.0    2.524321e-08
111187500.0    2.77149e-08
111218750.0    4.057017e-08
111250000.0    5.065372e-08
111281250.0    1.160951e-08
111312500.0    4.466353e-08
111343750.0    1.108822e-08
111375000.0    4.250215e-08
111406250.0    2.888008e-08
111437500.0    4.173181e-08
111468750.0    2.76555e-08
111500000.0    6.86885e-08
111531250.0    3.668321e-08
111562500.0    5.568889e-08
111593750.0    7.383533e-08
111625000.0    5.577093e-08
111656250.0    5.28014e-08
111687500.0    6.690324e-08
111718750.0    5.926529e-08
111750000.0    4.616334e-08
111781250.0    6.744243e-08
111812500.0    7.357229e-08
111843750.0    2.108203e-08
111875000.0    2.961652e-08
111906250.0    3.561026e-08
111937500.0    2.190862e-08
111968750.0    6.897947e-08
112000000.0    7.95521e-08
112031250.0    7.370794e-09
112062500.0    1.481849e-08
112093750.0    3.434186e-08
112125000.0    4.89475e-08
112156250.0    3.988395e-08
112187500.0    6.017478e-08
112218750.0    2.488169e-08
112250000.0    2.439747e-08
112281250.0    5.85821e-08
112312500.0    4.609015e-08
112343750.0    5.363815e-08
112375000.0    6.731722e-08
112406250.0    2.138063e-08
112437500.0    6.918904e-08
112468750.0    5.375789e-08
112500000.0    4.485583e-08
112531250.0    3.815255e-08
112562500.0    5.310579e-08
112593750.0    2.906207e-08
112625000.0    1.010854e-07
112656250.0    7.686213e-08
112687500.0    6.547522e-08
112718750.0    6.511002e-08
112750000.0    3.814698e-08
112781250.0    2.944623e-08
112812500.0    3.270651e-08
112843750.0    9.102982e-09
112875000.0    4.046086e-08
112906250.0    3.975202e-08
112937500.0    8.977501e-09
112968750.0    4.342058e-08
113000000.0    3.041743e-08
113031250.0    1.224154e-08
113062500.0    2.312056e-08
113093750.0    1.808882e-08
113125000.0    5.187462e-08
113156250.0    7.423566e-08
113187500.0    3.846782e-08
113218750.0    6.489668e-08
113250000.0    1.890396e-08
113281250.0    4.168188e-08
113312500.0    2.45778e-08
113343750.0    2.391648e-08
113375000.0    2.50089e-08
113406250.0    5.338197e-08
113437500.0    2.791747e-08
113468750.0    3.4545e-08
113500000.0    5.41376e-08
113531250.0    8.444218e-08
113562500.0    3.286119e-08
113593750.0    5.597201e-08
113625000.0    3.647433e-08
113656250.0    3.015233e-08
113687500.0    4.787557e-08
113718750.0    1.350342e-08
113750000.0    2.398095e-08
113781250.0    2.702811e-08
113812500.0    6.822378e-08
113843750.0    1.507989e-08
113875000.0    3.533125e-08
113906250.0    3.22175e-08
113937500.0    3.276802e-08
113968750.0    3.512698e-08
114000000.0    2.016196e-08
114031250.0    3.654678e-08
114062500.0    7.401839e-08
114093750.0    5.267415e-08
114125000.0    1.538223e-08
114156250.0    5.851893e-08
114187500.0    4.506819e-08
114218750.0    2.106499e-08
114250000.0    5.108913e-08
114281250.0    1.532427e-08
114312500.0    6.371958e-08
114343750.0    2.535074e-08
114375000.0    2.93942e-08
114406250.0    5.997584e-08
114437500.0    1.361171e-08
114468750.0    2.391885e-08
114500000.0    5.616378e-08
114531250.0    2.303053e-08
114562500.0    4.243501e-08
114593750.0    3.512679e-08
114625000.0    3.553962e-08
114656250.0    4.645486e-08
114687500.0    3.226871e-08
114718750.0    8.594981e-08
114750000.0    2.388671e-08
114781250.0    5.866778e-08
114812500.0    2.641596e-08
114843750.0    7.158643e-08
114875000.0    6.883516e-08
114906250.0    4.896054e-08
114937500.0    1.785384e-08
114968750.0    5.74861e-08
115000000.0    3.083533e-08
115031250.0    2.497244e-08
115062500.0    6.555798e-08
115093750.0    2.362312e-08
115125000.0    2.698872e-08
115156250.0    4.093867e-08
115187500.0    1.405858e-08
115218750.0    6.449653e-08
115250000.0    2.435694e-08
115281250.0    1.951019e-08
115312500.0    3.468899e-08
115343750.0    5.472153e-08
115375000.0    6.580306e-08
115406250.0    4.654857e-08
115437500.0    3.463499e-08
115468750.0    2.116578e-08
115500000.0    1.977081e-08
115531250.0    2.441225e-08
115562500.0    3.683026e-08
115593750.0    3.31034e-08
115625000.0    3.170054e-08
115656250.0    4.934354e-08
115687500.0    4.215582e-08
115718750.0    2.971122e-08
115750000.0    5.073445e-08
115781250.0    5.570663e-08
115812500.0    2.361776e-08
115843750.0    8.968302e-09
115875000.0    2.112994e-08
115906250.0    2.947407e-08
115937500.0    4.831562e-08
115968750.0    3.254594e-08
116000000.0    7.043886e-08
116031250.0    1.947589e-08
116062500.0    1.561866e-08
116093750.0    6.293196e-09
116125000.0    1.12865e-08
116156250.0    4.505861e-08
116187500.0    1.190146e-08
116218750.0    2.272055e-08
116250000.0    3.931395e-08
116281250.0    2.111137e-08
116312500.0    3.569777e-08
116343750.0    5.150888e-08
116375000.0    4.724433e-08
116406250.0    5.667392e-08
116437500.0    5.602865e-09
116468750.0    3.282999e-08
116500000.0    6.083683e-08
116531250.0    8.018196e-08
116562500.0    4.949918e-08
116593750.0    1.697237e-08
116625000.0    5.705094e-08
116656250.0    2.863654e-08
116687500.0    6.934291e-08
116718750.0    4.622308e-08
116750000.0    3.680718e-08
116781250.0    3.319629e-08
116812500.0    5.751979e-08
116843750.0    3.629864e-08
116875000.0    9.899873e-09
116906250.0    2.596673e-08
116937500.0    3.605588e-08
116968750.0    4.038665e-08
117000000.0    5.023831e-08
117031250.0    1.963234e-08
117062500.0    3.811756e-08
117093750.0    6.209198e-08
117125000.0    3.270569e-08
117156250.0    4.029688e-08
117187500.0    5.865159e-08
117218750.0    1.995049e-08
117250000.0    5.021709e-08
117281250.0    2.015343e-08
117312500.0    1.761946e-08
117343750.0    7.598319e-08
117375000.0    2.705012e-08
117406250.0    5.918326e-08
117437500.0    2.83069e-08
117468750.0    7.554782e-08
117500000.0    2.934135e-08
117531250.0    3.001849e-08
117562500.0    3.03133e-08
117593750.0    1.41812e-08
117625000.0    9.021479e-09
117656250.0    3.554857e-08
117687500.0    4.758393e-08
117718750.0    5.959395e-08
117750000.0    4.124498e-08
117781250.0    7.237337e-09
117812500.0    2.852001e-08
117843750.0    1.291661e-08
117875000.0    2.295856e-08
117906250.0    2.782065e-08
117937500.0    5.121887e-08
117968750.0    4.819686e-08
118000000.0    3.272067e-08
118031250.0    3.767814e-08
118062500.0    5.289559e-08
118093750.0    3.39032e-08
118125000.0    4.418471e-08
118156250.0    6.515982e-08
118187500.0    4.621175e-08
118218750.0    5.026781e-08
118250000.0    7.544892e-08
118281250.0    4.45141e-08
118312500.0    7.23835e-08
118343750.0    1.652412e-08
118375000.0    2.139022e-08
118406250.0    2.260552e-08
118437500.0    3.733132e-08
118468750.0    1.733803e-08
118500000.0    3.66532e-08
118531250.0    5.05063e-08
118562500.0    8.038662e-08
118593750.0    6.087134e-08
118625000.0    3.071041e-08
118656250.0    3.809302e-08
118687500.0    3.244232e-08
118718750.0    9.393837e-09
118750000.0    4.851155e-08
118781250.0    2.14031e-08
118812500.0    3.248467e-08
118843750.0    2.867952e-08
118875000.0    2.808018e-08
118906250.0    2.536747e-08
118937500.0    2.79252e-08
118968750.0    1.238916e-08
119000000.0    8.729761e-09
119031250.0    3.700837e-08
119062500.0    5.424801e-08
119093750.0    8.46406e-08
119125000.0    4.012958e-08
119156250.0    1.670208e-08
119187500.0    3.880043e-08
119218750.0    4.505058e-08
119250000.0    2.250394e-08
119281250.0    4.822662e-08
119312500.0    7.780083e-08
119343750.0    5.96708e-09
119375000.0    4.304664e-09
119406250.0    5.332163e-08
119437500.0    7.987953e-08
119468750.0    4.411796e-08
119500000.0    3.871901e-08
119531250.0    3.673354e-08
119562500.0    4.906076e-08
119593750.0    3.588112e-08
119625000.0    2.216239e-08
119656250.0    5.363442e-08
119687500.0    3.149388e-08
119718750.0    3.756569e-08
119750000.0    1.021729e-08
119781250.0    3.794112e-08
119812500.0    2.022683e-08
119843750.0    2.04202e-08
119875000.0    1.031646e-07
119906250.0    1.991487e-08
119937500.0    4.100118e-09
119968750.0    1.277313e-08
120000000.0    3.499271e-08
120031250.0    4.336408e-08
120062500.0    4.162724e-08
120093750.0    1.052577e-08
120125000.0    7.201551e-08
120156250.0    5.457471e-08
120187500.0    2.133549e-07
120218750.0    3.861687e-08
120250000.0    2.140146e-08
120281250.0    2.164406e-08
120312500.0    7.487441e-08
120343750.0    2.728199e-05
120375000.0    3.158515e-08
120406250.0    2.289708e-08
120437500.0    5.133468e-08
120468750.0    4.452483e-08
120500000.0    2.665451e-08
120531250.0    2.48084e-08
120562500.0    1.40392e-08
120593750.0    8.667143e-08
120625000.0    2.079176e-08
120656250.0    4.393633e-08
120687500.0    3.700437e-08
120718750.0    4.297126e-08
120750000.0    2.598431e-08
120781250.0    7.621018e-08
120812500.0    5.339837e-09
120843750.0    1.978653e-08
120875000.0    5.283553e-08
120906250.0    2.785602e-08
120937500.0    3.061352e-08
120968750.0    2.496751e-08
121000000.0    3.831168e-08
121031250.0    3.354621e-08
121062500.0    2.833193e-08
121093750.0    5.092548e-08
121125000.0    9.44314e-08
121156250.0    1.452183e-08
121187500.0    1.816418e-08
121218750.0    3.350846e-08
121250000.0    1.096743e-08
121281250.0    3.289396e-08
121312500.0    1.451486e-08
121343750.0    3.617083e-08
121375000.0    4.603011e-08
121406250.0    2.659152e-08
121437500.0    4.952811e-08
121468750.0    2.062045e-08
121500000.0    6.034678e-08
121531250.0    1.053777e-08
121562500.0    3.581092e-08
121593750.0    2.244071e-08
121625000.0    2.857478e-08
121656250.0    5.524435e-08
121687500.0    8.28631e-08
121718750.0    1.161539e-08
121750000.0    3.898848e-08
121781250.0    7.092187e-08
121812500.0    6.880654e-08
121843750.0    1.024433e-07
121875000.0    3.224706e-08
121906250.0    2.903018e-08
121937500.0    1.475976e-08
121968750.0    6.302547e-08
122000000.0    1.567236e-08
122031250.0    3.055339e-08
122062500.0    3.769753e-08
122093750.0    4.121844e-08
122125000.0    7.091825e-08
122156250.0    3.043498e-08
122187500.0    4.000323e-08
122218750.0    3.680618e-08
122250000.0    4.167961e-08
122281250.0    2.459576e-08
122312500.0    2.728714e-08
122343750.0    5.856539e-08
122375000.0    4.010564e-08
122406250.0    5.33186e-08
122437500.0    5.434598e-08
122468750.0    5.076055e-08
122500000.0    1.148791e-08
122531250.0    4.881073e-08
122562500.0    1.622384e-08
122593750.0    3.972315e-08
122625000.0    8.679696e-08
122656250.0    4.874008e-08
122687500.0    1.559546e-08
122718750.0    3.935197e-08
122750000.0    5.503381e-08
122781250.0    4.515852e-08
122812500.0    5.146442e-08
122843750.0    6.298632e-08
122875000.0    7.488315e-08
122906250.0    6.350568e-08
122937500.0    3.721663e-08
122968750.0    2.273367e-08
123000000.0    4.282905e-08
123031250.0    3.824251e-08
123062500.0    9.936419e-08
123093750.0    6.120926e-08
123125000.0    2.200392e-08
123156250.0    4.919573e-08
123187500.0    2.03131e-08
123218750.0    2.741288e-08
123250000.0    5.933845e-08
123281250.0    4.18633e-08
123312500.0    3.495165e-08
123343750.0    1.851798e-08
123375000.0    3.210646e-08
123406250.0    4.531987e-08
123437500.0    7.783468e-08
123468750.0    2.603922e-08
123500000.0    1.445318e-08
123531250.0    3.704541e-08
123562500.0    3.338314e-08
123593750.0    5.094502e-08
123625000.0    1.776969e-08
123656250.0    5.941607e-08
123687500.0    5.876604e-08
123718750.0    6.183389e-08
123750000.0    6.087239e-08
123781250.0    2.653292e-08
123812500.0    3.770021e-08
123843750.0    2.728653e-08
123875000.0    3.229554e-08
123906250.0    8.575101e-09
123937500.0    6.805807e-08
123968750.0    6.400783e-08
124000000.0    3.976943e-08
124031250.0    2.179877e-08
124062500.0    2.376128e-08
124093750.0    4.332102e-08
124125000.0    2.471154e-08
124156250.0    8.185312e-08
124187500.0    6.170284e-09
124218750.0    2.970719e-08
124250000.0    9.873878e-09
124281250.0    1.586325e-08
124312500.0    2.240435e-08
124343750.0    6.771251e-08
124375000.0    5.963426e-08
124406250.0    4.542734e-08
124437500.0    1.118095e-08
124468750.0    4.840104e-08
124500000.0    6.032602e-08
124531250.0    6.703955e-08
124562500.0    4.942816e-08
124593750.0    4.905167e-08
124625000.0    9.047785e-08
124656250.0    2.152266e-08
124687500.0    1.52014e-08
124718750.0    5.470373e-08
124750000.0    4.537585e-08
124781250.0    3.04752e-08
124812500.0    3.813893e-08
124843750.0    3.760116e-08
124875000.0    8.987565e-08
124906250.0    7.278831e-08
124937500.0    5.438508e-08
124968750.0    2.565661e-08
125000000.0    4.670464e-08
