# AG4395A Measurement - Timestamp: Nov 01 2017 - 02:32:18
# Parameter File: SP_AG_R_Beatnote_95_to_125MHz.yml
#---------- Measurement Parameters ------------
# Start Frequency (Hz): 100000000.0
# Stop Frequency (Hz): 125000000.0
# Frequency Points: 801
# Measurement Format: NOISE
# Measuremed Input: R
#---------- Analyzer Settings ----------
# Number of Averages: 1
# Auto Bandwidth: On
# IF Bandwidth: 3000.0
# Input Attenuators (R,A,B): 0dB 20dB 20dB 
# Units: V/rtHz
#---------- Measurement Data ----------
# [Freq(Hz) Chan 1 ]
100000000.0    5.237392e-08
100031250.0    2.857451e-08
100062500.0    4.200896e-08
100093750.0    6.365858e-08
100125000.0    3.891392e-08
100156250.0    5.198455e-08
100187500.0    1.252005e-08
100218750.0    2.955448e-08
100250000.0    7.096079e-08
100281250.0    5.345071e-08
100312500.0    2.98414e-08
100343750.0    4.16619e-08
100375000.0    3.292396e-08
100406250.0    5.219574e-08
100437500.0    1.917747e-08
100468750.0    3.737087e-08
100500000.0    3.098747e-08
100531250.0    2.46193e-08
100562500.0    1.569024e-08
100593750.0    6.474825e-08
100625000.0    2.212823e-08
100656250.0    6.749845e-08
100687500.0    5.327833e-08
100718750.0    3.587403e-08
100750000.0    3.291845e-08
100781250.0    4.03885e-08
100812500.0    2.264949e-08
100843750.0    3.472683e-08
100875000.0    7.263534e-08
100906250.0    6.808431e-08
100937500.0    1.627749e-08
100968750.0    2.321555e-08
101000000.0    1.782285e-08
101031250.0    4.348336e-08
101062500.0    3.03309e-08
101093750.0    2.763645e-08
101125000.0    1.437842e-08
101156250.0    3.545726e-08
101187500.0    2.4329e-08
101218750.0    2.143642e-08
101250000.0    1.541139e-08
101281250.0    1.418389e-08
101312500.0    7.203419e-08
101343750.0    3.285119e-08
101375000.0    6.877805e-08
101406250.0    2.380894e-08
101437500.0    3.282064e-08
101468750.0    3.566478e-08
101500000.0    1.237532e-08
101531250.0    7.346973e-09
101562500.0    6.931236e-08
101593750.0    4.020353e-08
101625000.0    5.449296e-08
101656250.0    5.499621e-08
101687500.0    3.451698e-08
101718750.0    2.232184e-08
101750000.0    8.11801e-08
101781250.0    3.145159e-08
101812500.0    2.826765e-08
101843750.0    3.414765e-08
101875000.0    5.597915e-08
101906250.0    7.731221e-08
101937500.0    2.136651e-08
101968750.0    1.056413e-07
102000000.0    6.379098e-08
102031250.0    2.135235e-08
102062500.0    5.303136e-08
102093750.0    2.127468e-08
102125000.0    2.271026e-08
102156250.0    4.060205e-08
102187500.0    2.449345e-08
102218750.0    4.397147e-08
102250000.0    3.371154e-08
102281250.0    3.193034e-08
102312500.0    2.146408e-08
102343750.0    4.362971e-08
102375000.0    3.551514e-08
102406250.0    6.837325e-08
102437500.0    2.099306e-08
102468750.0    4.230754e-08
102500000.0    1.284734e-08
102531250.0    1.262723e-08
102562500.0    6.422189e-08
102593750.0    5.113154e-08
102625000.0    2.31262e-08
102656250.0    5.522317e-08
102687500.0    2.592324e-08
102718750.0    5.606854e-08
102750000.0    1.568552e-08
102781250.0    5.28674e-09
102812500.0    5.904722e-08
102843750.0    0.0
102875000.0    5.931391e-08
102906250.0    2.079245e-08
102937500.0    5.484021e-08
102968750.0    6.476526e-08
103000000.0    8.993908e-08
103031250.0    2.336045e-08
103062500.0    3.119624e-08
103093750.0    2.973005e-09
103125000.0    1.775348e-08
103156250.0    8.036345e-09
103187500.0    9.846385e-09
103218750.0    2.434992e-08
103250000.0    2.648253e-08
103281250.0    9.801648e-09
103312500.0    3.959746e-08
103343750.0    4.377691e-08
103375000.0    3.932386e-08
103406250.0    1.360476e-08
103437500.0    5.294684e-08
103468750.0    2.694596e-08
103500000.0    2.399351e-08
103531250.0    3.043082e-08
103562500.0    4.75695e-08
103593750.0    2.488938e-09
103625000.0    2.926506e-08
103656250.0    2.653448e-08
103687500.0    3.076579e-08
103718750.0    5.775023e-08
103750000.0    6.230279e-08
103781250.0    7.866644e-08
103812500.0    2.096256e-08
103843750.0    2.98247e-08
103875000.0    2.191758e-08
103906250.0    5.740274e-09
103937500.0    3.543607e-08
103968750.0    6.720706e-08
104000000.0    3.124503e-08
104031250.0    5.369713e-08
104062500.0    1.731502e-08
104093750.0    7.811266e-08
104125000.0    1.773973e-08
104156250.0    4.763676e-08
104187500.0    1.74068e-08
104218750.0    1.08e-08
104250000.0    6.097129e-08
104281250.0    4.907772e-08
104312500.0    3.886535e-08
104343750.0    4.70379e-08
104375000.0    2.842696e-08
104406250.0    1.893812e-08
104437500.0    2.395233e-08
104468750.0    5.960014e-09
104500000.0    4.830024e-08
104531250.0    3.197185e-08
104562500.0    3.981798e-08
104593750.0    2.711669e-08
104625000.0    1.819903e-08
104656250.0    3.37132e-08
104687500.0    3.458072e-08
104718750.0    1.605028e-08
104750000.0    4.567764e-08
104781250.0    2.140584e-08
104812500.0    2.159457e-08
104843750.0    2.661781e-08
104875000.0    4.037884e-08
104906250.0    4.585454e-08
104937500.0    4.965712e-09
104968750.0    7.577848e-08
105000000.0    3.022948e-08
105031250.0    8.586264e-08
105062500.0    8.094436e-08
105093750.0    1.888205e-08
105125000.0    7.661036e-08
105156250.0    6.833184e-08
105187500.0    2.055192e-08
105218750.0    1.156461e-08
105250000.0    7.40594e-08
105281250.0    1.27205e-08
105312500.0    1.901706e-08
105343750.0    2.193483e-08
105375000.0    6.131221e-08
105406250.0    7.687905e-09
105437500.0    5.162135e-08
105468750.0    2.858761e-08
105500000.0    3.667923e-08
105531250.0    2.043442e-08
105562500.0    4.628524e-08
105593750.0    4.668937e-08
105625000.0    7.242281e-09
105656250.0    3.476223e-08
105687500.0    1.080012e-08
105718750.0    5.949256e-08
105750000.0    4.811326e-08
105781250.0    4.146803e-08
105812500.0    4.52142e-08
105843750.0    2.810515e-08
105875000.0    5.294462e-08
105906250.0    7.751507e-08
105937500.0    1.088225e-07
105968750.0    4.058352e-08
106000000.0    9.022585e-08
106031250.0    1.474961e-08
106062500.0    3.380528e-08
106093750.0    1.181657e-07
106125000.0    2.412601e-08
106156250.0    7.883616e-09
106187500.0    1.591292e-08
106218750.0    1.612385e-08
106250000.0    5.424835e-08
106281250.0    5.059787e-08
106312500.0    3.118049e-08
106343750.0    4.215931e-08
106375000.0    3.68172e-08
106406250.0    6.080774e-08
106437500.0    4.90507e-08
106468750.0    1.501248e-08
106500000.0    1.242837e-08
106531250.0    4.271361e-08
106562500.0    3.615123e-08
106593750.0    6.662216e-08
106625000.0    4.008278e-08
106656250.0    1.006315e-07
106687500.0    2.516403e-08
106718750.0    4.125101e-08
106750000.0    6.701917e-08
106781250.0    2.991444e-08
106812500.0    2.146161e-08
106843750.0    3.004446e-08
106875000.0    3.148248e-08
106906250.0    4.88487e-08
106937500.0    3.111072e-08
106968750.0    3.222826e-08
107000000.0    2.642069e-08
107031250.0    2.760891e-08
107062500.0    3.445076e-09
107093750.0    3.462319e-08
107125000.0    5.985916e-09
107156250.0    1.712887e-08
107187500.0    9.652385e-09
107218750.0    5.032965e-08
107250000.0    7.169502e-08
107281250.0    4.181447e-08
107312500.0    2.614325e-08
107343750.0    4.499915e-08
107375000.0    3.607832e-08
107406250.0    3.673802e-08
107437500.0    2.63862e-08
107468750.0    2.484691e-08
107500000.0    1.833037e-08
107531250.0    1.745032e-08
107562500.0    3.003131e-08
107593750.0    4.948882e-08
107625000.0    4.43725e-08
107656250.0    2.703077e-08
107687500.0    2.092616e-08
107718750.0    7.869692e-08
107750000.0    2.004259e-08
107781250.0    8.288816e-08
107812500.0    5.683686e-08
107843750.0    3.630005e-08
107875000.0    1.808975e-08
107906250.0    2.795586e-08
107937500.0    6.810441e-08
107968750.0    2.768947e-08
108000000.0    2.474811e-08
108031250.0    5.114626e-08
108062500.0    1.253148e-08
108093750.0    3.842567e-08
108125000.0    2.677364e-08
108156250.0    1.911198e-08
108187500.0    5.702362e-08
108218750.0    7.201999e-09
108250000.0    2.718159e-08
108281250.0    4.87635e-08
108312500.0    2.061056e-08
108343750.0    5.410065e-08
108375000.0    3.332066e-08
108406250.0    3.341487e-08
108437500.0    3.578919e-08
108468750.0    2.503467e-08
108500000.0    2.847679e-08
108531250.0    5.099715e-08
108562500.0    1.380825e-08
108593750.0    2.868693e-08
108625000.0    2.817606e-08
108656250.0    1.139519e-08
108687500.0    5.317279e-08
108718750.0    5.076669e-08
108750000.0    3.663217e-08
108781250.0    2.495524e-08
108812500.0    2.047482e-08
108843750.0    2.035454e-08
108875000.0    1.130186e-08
108906250.0    4.619634e-08
108937500.0    3.879555e-08
108968750.0    3.834752e-08
109000000.0    5.892353e-08
109031250.0    4.852743e-08
109062500.0    2.329058e-08
109093750.0    3.272237e-08
109125000.0    5.305833e-08
109156250.0    3.192838e-08
109187500.0    1.788752e-08
109218750.0    6.77628e-08
109250000.0    4.647581e-08
109281250.0    6.245596e-08
109312500.0    4.488308e-08
109343750.0    7.008071e-08
109375000.0    5.09846e-08
109406250.0    8.665658e-08
109437500.0    4.368994e-08
109468750.0    2.337594e-08
109500000.0    5.208842e-08
109531250.0    6.950776e-08
109562500.0    1.085489e-07
109593750.0    4.00876e-08
109625000.0    7.244084e-08
109656250.0    1.160233e-08
109687500.0    2.680828e-08
109718750.0    3.863815e-08
109750000.0    6.608058e-08
109781250.0    3.0332e-09
109812500.0    6.171374e-08
109843750.0    3.154549e-08
109875000.0    1.219932e-08
109906250.0    2.492741e-08
109937500.0    4.111393e-08
109968750.0    3.382637e-08
110000000.0    2.595346e-08
110031250.0    3.21897e-08
110062500.0    5.560019e-08
110093750.0    7.532963e-08
110125000.0    3.143963e-08
110156250.0    9.5169e-08
110187500.0    4.143751e-08
110218750.0    5.650636e-09
110250000.0    2.029376e-08
110281250.0    8.778508e-08
110312500.0    2.07508e-08
110343750.0    1.031294e-08
110375000.0    6.806818e-08
110406250.0    7.130207e-08
110437500.0    2.227797e-08
110468750.0    4.802027e-08
110500000.0    4.864253e-08
110531250.0    2.413254e-08
110562500.0    5.777914e-08
110593750.0    7.103501e-08
110625000.0    4.134473e-08
110656250.0    3.95683e-08
110687500.0    6.706889e-08
110718750.0    3.170108e-08
110750000.0    6.765515e-09
110781250.0    3.981571e-08
110812500.0    2.090708e-08
110843750.0    5.460895e-08
110875000.0    4.544668e-08
110906250.0    2.172722e-08
110937500.0    2.462319e-08
110968750.0    3.473463e-08
111000000.0    8.194964e-08
111031250.0    8.485033e-09
111062500.0    1.545807e-08
111093750.0    4.068457e-08
111125000.0    2.703509e-08
111156250.0    2.602393e-08
111187500.0    5.846709e-08
111218750.0    2.120258e-08
111250000.0    3.133507e-08
111281250.0    6.260947e-08
111312500.0    1.885287e-08
111343750.0    3.022481e-08
111375000.0    3.153877e-08
111406250.0    1.931133e-08
111437500.0    4.221968e-08
111468750.0    5.879719e-08
111500000.0    4.569944e-08
111531250.0    1.075767e-07
111562500.0    4.084531e-08
111593750.0    5.648062e-08
111625000.0    4.613431e-08
111656250.0    6.883284e-08
111687500.0    3.665119e-08
111718750.0    5.860382e-08
111750000.0    5.562366e-08
111781250.0    3.927665e-08
111812500.0    8.032275e-08
111843750.0    6.338733e-08
111875000.0    4.485865e-08
111906250.0    4.16356e-08
111937500.0    3.653465e-08
111968750.0    2.325406e-08
112000000.0    5.711967e-08
112031250.0    4.776491e-08
112062500.0    6.443564e-08
112093750.0    6.629205e-08
112125000.0    3.435531e-08
112156250.0    2.699948e-08
112187500.0    2.696675e-08
112218750.0    4.383093e-08
112250000.0    4.058618e-08
112281250.0    2.198188e-08
112312500.0    4.204859e-08
112343750.0    4.029672e-08
112375000.0    2.85208e-08
112406250.0    5.632394e-08
112437500.0    4.816665e-08
112468750.0    3.307736e-08
112500000.0    2.2684e-08
112531250.0    3.664479e-08
112562500.0    1.75756e-08
112593750.0    3.849582e-08
112625000.0    5.169927e-08
112656250.0    3.35762e-08
112687500.0    3.579168e-08
112718750.0    3.038559e-08
112750000.0    1.087021e-08
112781250.0    1.313262e-08
112812500.0    6.649724e-08
112843750.0    5.542026e-08
112875000.0    2.72415e-08
112906250.0    4.600394e-08
112937500.0    6.208637e-08
112968750.0    3.250095e-08
113000000.0    4.443298e-08
113031250.0    5.710452e-08
113062500.0    2.095191e-08
113093750.0    5.426735e-08
113125000.0    4.499337e-08
113156250.0    4.947878e-08
113187500.0    4.90365e-08
113218750.0    9.215905e-09
113250000.0    3.151922e-08
113281250.0    7.964938e-08
113312500.0    2.948991e-08
113343750.0    5.449749e-08
113375000.0    6.165385e-08
113406250.0    8.387318e-08
113437500.0    2.539316e-08
113468750.0    4.179073e-08
113500000.0    5.164375e-08
113531250.0    8.460501e-08
113562500.0    3.735312e-08
113593750.0    5.606618e-08
113625000.0    2.471251e-08
113656250.0    6.420981e-08
113687500.0    4.033715e-08
113718750.0    1.051888e-07
113750000.0    3.067468e-08
113781250.0    4.043669e-08
113812500.0    4.829827e-08
113843750.0    1.965769e-08
113875000.0    6.76832e-08
113906250.0    5.474709e-08
113937500.0    3.982545e-08
113968750.0    3.002613e-08
114000000.0    3.031415e-08
114031250.0    2.381767e-08
114062500.0    6.160665e-08
114093750.0    6.377375e-08
114125000.0    3.483681e-08
114156250.0    7.624019e-08
114187500.0    3.70814e-08
114218750.0    3.324497e-08
114250000.0    1.838531e-08
114281250.0    5.093386e-08
114312500.0    8.096801e-08
114343750.0    1.830009e-08
114375000.0    8.426729e-08
114406250.0    6.407375e-08
114437500.0    1.44866e-08
114468750.0    1.566784e-08
114500000.0    2.106488e-08
114531250.0    7.665246e-08
114562500.0    2.36391e-08
114593750.0    6.157732e-08
114625000.0    3.878864e-08
114656250.0    1.272815e-08
114687500.0    7.638049e-08
114718750.0    2.069648e-08
114750000.0    4.704041e-08
114781250.0    3.898483e-08
114812500.0    9.691134e-08
114843750.0    1.198989e-08
114875000.0    3.734344e-08
114906250.0    4.363708e-09
114937500.0    4.991614e-08
114968750.0    5.432409e-08
115000000.0    2.336331e-08
115031250.0    2.068819e-08
115062500.0    9.924142e-09
115093750.0    6.343516e-08
115125000.0    9.325758e-08
115156250.0    5.797063e-08
115187500.0    7.763059e-08
115218750.0    5.87756e-08
115250000.0    4.463355e-08
115281250.0    5.07709e-08
115312500.0    2.645601e-08
115343750.0    1.067905e-07
115375000.0    2.817468e-08
115406250.0    2.007113e-08
115437500.0    2.74957e-09
115468750.0    2.904326e-08
115500000.0    1.665895e-08
115531250.0    1.007094e-08
115562500.0    9.191991e-09
115593750.0    5.659866e-08
115625000.0    7.989561e-08
115656250.0    2.295711e-08
115687500.0    4.014231e-08
115718750.0    3.323949e-08
115750000.0    3.910458e-08
115781250.0    5.391485e-08
115812500.0    5.713201e-08
115843750.0    1.957007e-08
115875000.0    4.433637e-08
115906250.0    4.269054e-08
115937500.0    2.584141e-08
115968750.0    3.104692e-08
116000000.0    6.148009e-08
116031250.0    6.024751e-07
116062500.0    1.241192e-07
116093750.0    4.958317e-07
116125000.0    3.252016e-07
116156250.0    1.231444e-07
116187500.0    9.338543e-08
116218750.0    4.461257e-08
116250000.0    8.707094e-08
116281250.0    3.633014e-08
116312500.0    1.599557e-08
116343750.0    3.128833e-08
116375000.0    4.606088e-08
116406250.0    2.996804e-08
116437500.0    2.94577e-08
116468750.0    3.173638e-08
116500000.0    2.373772e-08
116531250.0    3.298829e-08
116562500.0    5.026068e-09
116593750.0    2.911444e-08
116625000.0    1.346238e-07
116656250.0    7.74664e-09
116687500.0    1.637073e-08
116718750.0    2.050648e-08
116750000.0    4.683476e-08
116781250.0    3.069587e-08
116812500.0    3.430493e-08
116843750.0    4.435228e-08
116875000.0    4.37815e-08
116906250.0    8.165251e-08
116937500.0    1.666854e-08
116968750.0    1.872911e-08
117000000.0    3.177325e-08
117031250.0    7.184773e-08
117062500.0    5.859701e-08
117093750.0    1.416597e-08
117125000.0    4.859188e-08
117156250.0    4.717096e-09
117187500.0    5.033842e-08
117218750.0    3.875454e-08
117250000.0    1.2997e-08
117281250.0    4.074052e-08
117312500.0    2.840603e-08
117343750.0    2.847109e-08
117375000.0    7.928298e-08
117406250.0    7.786635e-09
117437500.0    1.077807e-07
117468750.0    3.318125e-08
117500000.0    4.607199e-08
117531250.0    1.807677e-08
117562500.0    7.248482e-08
117593750.0    1.418185e-08
117625000.0    4.137325e-08
117656250.0    4.179777e-08
117687500.0    5.700216e-08
117718750.0    2.583318e-08
117750000.0    8.105684e-08
117781250.0    4.516797e-08
117812500.0    1.541114e-08
117843750.0    4.239292e-08
117875000.0    3.63915e-08
117906250.0    3.205795e-08
117937500.0    2.984929e-08
117968750.0    2.725858e-08
118000000.0    1.721565e-08
118031250.0    2.141078e-08
118062500.0    4.60554e-08
118093750.0    1.675324e-08
118125000.0    3.918454e-08
118156250.0    1.870116e-08
118187500.0    1.684002e-08
118218750.0    2.699601e-08
118250000.0    6.419393e-08
118281250.0    1.693502e-08
118312500.0    7.680715e-08
118343750.0    2.55257e-08
118375000.0    2.148978e-08
118406250.0    4.891145e-08
118437500.0    3.22693e-08
118468750.0    2.427761e-08
118500000.0    7.812142e-09
118531250.0    8.051236e-08
118562500.0    3.690886e-08
118593750.0    2.278315e-08
118625000.0    2.325683e-08
118656250.0    5.766058e-08
118687500.0    5.136727e-08
118718750.0    6.113095e-08
118750000.0    4.962224e-09
118781250.0    8.494546e-08
118812500.0    6.066165e-08
118843750.0    2.416877e-08
118875000.0    6.302167e-08
118906250.0    2.22911e-08
118937500.0    7.289523e-08
118968750.0    9.101451e-08
119000000.0    9.386299e-08
119031250.0    1.068837e-07
119062500.0    6.240749e-08
119093750.0    1.040066e-07
119125000.0    2.517986e-07
119156250.0    4.50303e-07
119187500.0    1.073822e-06
119218750.0    4.078759e-06
119250000.0    8.408582e-06
119281250.0    5.584871e-06
119312500.0    5.316102e-06
119343750.0    1.323049e-05
119375000.0    3.882285e-06
119406250.0    5.120608e-07
119437500.0    2.962769e-07
119468750.0    2.781459e-07
119500000.0    2.16212e-07
119531250.0    1.005242e-07
119562500.0    1.37324e-07
119593750.0    3.286808e-08
119625000.0    7.007444e-08
119656250.0    7.47226e-08
119687500.0    1.188068e-07
119718750.0    8.347351e-08
119750000.0    5.650685e-08
119781250.0    4.730754e-08
119812500.0    3.310058e-08
119843750.0    2.229489e-08
119875000.0    6.487445e-08
119906250.0    4.086357e-08
119937500.0    1.737853e-08
119968750.0    2.91425e-08
120000000.0    8.247206e-09
120031250.0    1.655749e-08
120062500.0    6.491379e-08
120093750.0    4.754144e-08
120125000.0    3.143747e-08
120156250.0    5.866204e-08
120187500.0    3.711901e-08
120218750.0    6.665902e-08
120250000.0    3.166573e-08
120281250.0    1.704183e-08
120312500.0    4.482807e-08
120343750.0    4.699699e-08
120375000.0    4.543101e-08
120406250.0    1.606455e-08
120437500.0    5.177034e-08
120468750.0    3.646666e-09
120500000.0    2.236788e-08
120531250.0    5.539484e-08
120562500.0    6.399011e-08
120593750.0    3.698117e-08
120625000.0    6.968042e-08
120656250.0    7.938797e-08
120687500.0    7.473324e-08
120718750.0    3.067048e-08
120750000.0    6.163566e-08
120781250.0    1.693455e-08
120812500.0    2.688574e-08
120843750.0    2.018151e-08
120875000.0    7.946087e-09
120906250.0    3.212586e-08
120937500.0    1.532571e-08
120968750.0    1.929461e-08
121000000.0    4.565576e-08
121031250.0    2.205843e-08
121062500.0    4.194922e-08
121093750.0    1.75286e-08
121125000.0    1.323564e-08
121156250.0    2.661844e-08
121187500.0    3.165471e-08
121218750.0    2.358385e-08
121250000.0    1.745952e-08
121281250.0    4.870185e-08
121312500.0    2.074017e-08
121343750.0    3.094411e-08
121375000.0    3.453165e-08
121406250.0    5.839919e-08
121437500.0    3.383303e-08
121468750.0    3.584695e-08
121500000.0    2.82885e-08
121531250.0    4.490245e-08
121562500.0    2.546173e-08
121593750.0    4.336415e-08
121625000.0    3.570769e-08
121656250.0    5.14855e-08
121687500.0    3.319493e-08
121718750.0    6.566572e-08
121750000.0    5.563091e-08
121781250.0    6.20804e-08
121812500.0    1.843402e-08
121843750.0    4.247826e-08
121875000.0    1.017703e-08
121906250.0    2.838169e-08
121937500.0    3.114128e-08
121968750.0    1.975331e-08
122000000.0    3.384458e-08
122031250.0    2.471726e-08
122062500.0    4.788866e-08
122093750.0    5.37356e-08
122125000.0    2.577411e-08
122156250.0    3.001302e-08
122187500.0    1.996227e-08
122218750.0    6.018084e-08
122250000.0    8.111017e-08
122281250.0    4.045913e-08
122312500.0    1.554609e-08
122343750.0    8.928502e-08
122375000.0    1.823861e-08
122406250.0    8.328613e-08
122437500.0    3.866957e-08
122468750.0    3.246913e-08
122500000.0    1.731436e-08
122531250.0    4.055569e-08
122562500.0    5.6431e-08
122593750.0    2.363945e-08
122625000.0    1.96216e-08
122656250.0    1.022289e-07
122687500.0    5.995503e-08
122718750.0    3.148586e-08
122750000.0    4.263357e-08
122781250.0    1.589903e-08
122812500.0    5.70544e-08
122843750.0    7.784866e-08
122875000.0    5.636161e-08
122906250.0    3.678268e-08
122937500.0    5.86648e-08
122968750.0    5.794761e-08
123000000.0    3.21637e-08
123031250.0    1.975288e-08
123062500.0    4.178562e-08
123093750.0    1.997937e-08
123125000.0    1.728381e-08
123156250.0    4.154489e-08
123187500.0    1.71506e-08
123218750.0    3.143643e-08
123250000.0    5.011576e-08
123281250.0    5.497859e-08
123312500.0    7.488573e-08
123343750.0    8.490428e-08
123375000.0    1.01867e-08
123406250.0    2.972623e-08
123437500.0    2.790286e-08
123468750.0    8.071871e-09
123500000.0    5.019956e-08
123531250.0    1.396854e-08
123562500.0    6.481444e-08
123593750.0    1.720683e-08
123625000.0    4.82928e-08
123656250.0    1.09213e-07
123687500.0    0.0
123718750.0    3.405261e-08
123750000.0    3.085304e-08
123781250.0    4.651112e-08
123812500.0    2.53774e-08
123843750.0    8.077715e-08
123875000.0    2.504325e-08
123906250.0    3.813123e-08
123937500.0    3.545504e-08
123968750.0    1.95863e-08
124000000.0    1.109932e-08
124031250.0    4.921884e-08
124062500.0    7.208774e-08
124093750.0    3.947987e-08
124125000.0    4.089641e-08
124156250.0    1.814284e-08
124187500.0    5.782933e-08
124218750.0    5.391334e-08
124250000.0    6.412872e-08
124281250.0    6.814776e-08
124312500.0    3.278679e-08
124343750.0    4.332848e-08
124375000.0    1.503691e-08
124406250.0    3.699252e-08
124437500.0    4.03043e-08
124468750.0    5.995307e-08
124500000.0    2.645954e-08
124531250.0    5.904834e-08
124562500.0    8.610227e-08
124593750.0    3.064441e-08
124625000.0    8.436513e-08
124656250.0    5.753149e-08
124687500.0    1.61286e-08
124718750.0    3.545116e-08
124750000.0    2.342438e-08
124781250.0    4.991202e-08
124812500.0    2.944393e-08
124843750.0    2.522887e-08
124875000.0    1.842181e-08
124906250.0    4.397362e-08
124937500.0    7.554205e-08
124968750.0    4.101149e-08
125000000.0    3.842022e-08
