# AG4395A Measurement - Timestamp: Nov 01 2017 - 06:36:51
# Parameter File: SP_AG_R_Beatnote_95_to_125MHz.yml
#---------- Measurement Parameters ------------
# Start Frequency (Hz): 100000000.0
# Stop Frequency (Hz): 125000000.0
# Frequency Points: 801
# Measurement Format: NOISE
# Measuremed Input: R
#---------- Analyzer Settings ----------
# Number of Averages: 1
# Auto Bandwidth: On
# IF Bandwidth: 3000.0
# Input Attenuators (R,A,B): 0dB 20dB 20dB 
# Units: V/rtHz
#---------- Measurement Data ----------
# [Freq(Hz) Chan 1 ]
100000000.0    4.458841e-08
100031250.0    1.285761e-08
100062500.0    3.826468e-08
100093750.0    2.260409e-08
100125000.0    4.618649e-08
100156250.0    3.247087e-08
100187500.0    1.651594e-08
100218750.0    5.256434e-08
100250000.0    3.227797e-08
100281250.0    4.118869e-08
100312500.0    1.776742e-08
100343750.0    9.594258e-08
100375000.0    4.384062e-08
100406250.0    3.660674e-08
100437500.0    3.515426e-08
100468750.0    1.798902e-08
100500000.0    2.830266e-08
100531250.0    6.134042e-08
100562500.0    6.064626e-08
100593750.0    5.76317e-08
100625000.0    3.29255e-08
100656250.0    5.514013e-08
100687500.0    2.657914e-08
100718750.0    4.941995e-08
100750000.0    1.750386e-08
100781250.0    3.635283e-08
100812500.0    2.366273e-08
100843750.0    1.154105e-08
100875000.0    1.580573e-08
100906250.0    4.372768e-08
100937500.0    9.000541e-08
100968750.0    3.395037e-08
101000000.0    6.218642e-08
101031250.0    3.728333e-08
101062500.0    2.122044e-08
101093750.0    7.407834e-08
101125000.0    5.500708e-09
101156250.0    2.331145e-08
101187500.0    2.349061e-08
101218750.0    4.344774e-08
101250000.0    7.985401e-08
101281250.0    6.526439e-08
101312500.0    7.914839e-08
101343750.0    4.923885e-08
101375000.0    1.955288e-08
101406250.0    1.843904e-08
101437500.0    6.057422e-09
101468750.0    3.809843e-08
101500000.0    5.625273e-08
101531250.0    2.452358e-08
101562500.0    2.757422e-08
101593750.0    2.934604e-08
101625000.0    3.976648e-08
101656250.0    7.421547e-08
101687500.0    5.484153e-08
101718750.0    2.202603e-08
101750000.0    2.769816e-08
101781250.0    1.838093e-08
101812500.0    5.061575e-08
101843750.0    7.524425e-08
101875000.0    4.467568e-08
101906250.0    3.879558e-08
101937500.0    4.606093e-08
101968750.0    3.508103e-08
102000000.0    3.8109e-08
102031250.0    1.723134e-08
102062500.0    2.903207e-08
102093750.0    1.744516e-08
102125000.0    3.961662e-08
102156250.0    3.752407e-08
102187500.0    1.011674e-08
102218750.0    8.795163e-08
102250000.0    1.185983e-08
102281250.0    4.020186e-08
102312500.0    3.305589e-08
102343750.0    7.049193e-08
102375000.0    2.055407e-08
102406250.0    5.619568e-08
102437500.0    3.596108e-08
102468750.0    5.215986e-08
102500000.0    2.527799e-08
102531250.0    2.489072e-08
102562500.0    5.307524e-08
102593750.0    5.014673e-08
102625000.0    5.953396e-08
102656250.0    5.717351e-08
102687500.0    1.717964e-08
102718750.0    3.773151e-08
102750000.0    3.156779e-08
102781250.0    3.569738e-08
102812500.0    7.520559e-09
102843750.0    1.745456e-08
102875000.0    1.171621e-08
102906250.0    6.613833e-08
102937500.0    8.458655e-08
102968750.0    3.411691e-08
103000000.0    5.159182e-08
103031250.0    3.306522e-08
103062500.0    1.362418e-08
103093750.0    1.926443e-08
103125000.0    1.485588e-08
103156250.0    4.896978e-08
103187500.0    5.816218e-08
103218750.0    4.173e-08
103250000.0    4.016768e-08
103281250.0    5.723354e-09
103312500.0    3.922739e-08
103343750.0    6.29752e-09
103375000.0    3.632389e-08
103406250.0    3.166065e-08
103437500.0    4.495502e-08
103468750.0    1.879663e-08
103500000.0    3.202736e-08
103531250.0    2.098094e-08
103562500.0    6.1968e-08
103593750.0    3.120094e-08
103625000.0    5.384162e-08
103656250.0    1.806625e-08
103687500.0    1.692958e-08
103718750.0    3.728313e-08
103750000.0    2.688429e-08
103781250.0    3.267832e-08
103812500.0    4.123883e-08
103843750.0    4.013727e-08
103875000.0    2.376625e-08
103906250.0    6.929336e-08
103937500.0    2.720545e-08
103968750.0    4.190067e-09
104000000.0    3.883681e-08
104031250.0    2.14675e-08
104062500.0    4.886362e-08
104093750.0    4.057784e-08
104125000.0    4.367825e-08
104156250.0    6.935945e-08
104187500.0    7.282188e-08
104218750.0    1.464181e-08
104250000.0    3.247825e-08
104281250.0    3.522442e-08
104312500.0    4.527425e-08
104343750.0    3.995248e-08
104375000.0    2.109402e-08
104406250.0    5.782873e-08
104437500.0    6.948398e-08
104468750.0    3.739675e-08
104500000.0    2.058356e-08
104531250.0    2.568353e-08
104562500.0    2.073726e-08
104593750.0    1.216187e-08
104625000.0    3.941175e-08
104656250.0    2.806659e-08
104687500.0    3.414092e-08
104718750.0    6.456311e-08
104750000.0    2.656104e-08
104781250.0    7.702394e-08
104812500.0    2.302269e-08
104843750.0    2.114474e-08
104875000.0    6.798329e-09
104906250.0    4.07403e-08
104937500.0    3.567555e-08
104968750.0    5.355886e-08
105000000.0    4.275962e-08
105031250.0    4.498422e-08
105062500.0    2.468597e-08
105093750.0    5.634994e-08
105125000.0    8.444709e-08
105156250.0    4.553233e-08
105187500.0    2.011503e-08
105218750.0    1.650466e-08
105250000.0    5.193631e-08
105281250.0    5.494354e-08
105312500.0    4.438855e-08
105343750.0    6.317833e-08
105375000.0    3.634482e-08
105406250.0    4.399434e-08
105437500.0    3.586024e-08
105468750.0    3.394743e-08
105500000.0    2.062719e-08
105531250.0    6.640118e-08
105562500.0    9.957473e-09
105593750.0    5.039678e-08
105625000.0    1.267502e-08
105656250.0    3.963442e-08
105687500.0    7.385038e-09
105718750.0    3.065457e-08
105750000.0    2.033972e-08
105781250.0    5.910495e-08
105812500.0    1.954414e-08
105843750.0    7.659755e-09
105875000.0    3.794363e-08
105906250.0    2.006909e-08
105937500.0    2.549921e-08
105968750.0    1.25419e-08
106000000.0    7.596545e-08
106031250.0    7.356419e-08
106062500.0    8.326968e-09
106093750.0    8.03014e-08
106125000.0    1.480318e-08
106156250.0    4.384848e-08
106187500.0    2.413761e-08
106218750.0    4.661818e-08
106250000.0    2.214818e-08
106281250.0    5.442131e-08
106312500.0    1.832389e-08
106343750.0    2.072127e-08
106375000.0    4.130146e-08
106406250.0    7.928225e-08
106437500.0    2.009131e-08
106468750.0    2.756601e-08
106500000.0    9.438408e-08
106531250.0    6.026527e-08
106562500.0    3.559776e-08
106593750.0    1.260721e-08
106625000.0    6.207856e-09
106656250.0    1.067818e-07
106687500.0    7.410421e-08
106718750.0    5.26109e-08
106750000.0    3.782511e-08
106781250.0    7.54249e-08
106812500.0    3.882102e-08
106843750.0    8.548871e-08
106875000.0    3.336765e-08
106906250.0    4.154971e-08
106937500.0    5.661263e-08
106968750.0    5.693449e-08
107000000.0    3.096667e-08
107031250.0    4.880625e-08
107062500.0    1.285853e-08
107093750.0    3.207954e-08
107125000.0    4.210645e-08
107156250.0    3.794261e-08
107187500.0    1.268854e-08
107218750.0    4.813439e-08
107250000.0    4.672406e-08
107281250.0    3.370584e-08
107312500.0    3.848659e-08
107343750.0    7.203599e-08
107375000.0    8.172902e-09
107406250.0    6.156001e-09
107437500.0    2.208444e-08
107468750.0    2.13024e-08
107500000.0    6.799985e-09
107531250.0    3.501082e-08
107562500.0    4.426672e-08
107593750.0    5.490847e-08
107625000.0    6.983962e-08
107656250.0    5.306548e-08
107687500.0    1.593431e-08
107718750.0    2.391212e-08
107750000.0    6.370177e-08
107781250.0    2.47578e-08
107812500.0    4.653617e-08
107843750.0    2.056826e-08
107875000.0    2.191777e-08
107906250.0    4.748144e-08
107937500.0    6.381436e-08
107968750.0    3.765881e-08
108000000.0    4.382741e-08
108031250.0    5.353382e-08
108062500.0    8.576293e-08
108093750.0    6.175345e-08
108125000.0    3.340564e-08
108156250.0    3.915034e-08
108187500.0    2.871303e-08
108218750.0    2.426615e-08
108250000.0    3.796089e-08
108281250.0    5.188926e-08
108312500.0    1.389571e-08
108343750.0    8.351922e-08
108375000.0    2.472938e-08
108406250.0    5.500312e-08
108437500.0    4.359949e-08
108468750.0    0.0
108500000.0    5.136172e-08
108531250.0    4.11633e-08
108562500.0    2.755267e-08
108593750.0    2.691851e-08
108625000.0    6.326018e-08
108656250.0    3.111467e-08
108687500.0    1.538158e-08
108718750.0    2.267558e-08
108750000.0    5.730837e-08
108781250.0    1.91374e-08
108812500.0    1.042297e-08
108843750.0    7.900366e-08
108875000.0    5.202235e-08
108906250.0    6.132284e-08
108937500.0    4.135418e-08
108968750.0    8.51712e-08
109000000.0    7.526345e-08
109031250.0    3.529539e-08
109062500.0    5.424542e-09
109093750.0    3.491206e-08
109125000.0    5.264986e-08
109156250.0    5.938787e-08
109187500.0    3.762664e-09
109218750.0    2.06968e-08
109250000.0    9.331544e-08
109281250.0    9.84411e-09
109312500.0    4.368494e-08
109343750.0    4.324432e-08
109375000.0    1.718027e-08
109406250.0    2.167648e-08
109437500.0    3.052622e-08
109468750.0    3.583887e-08
109500000.0    5.772038e-08
109531250.0    1.06265e-07
109562500.0    1.541371e-08
109593750.0    3.783378e-08
109625000.0    3.111362e-08
109656250.0    6.485895e-08
109687500.0    2.581642e-08
109718750.0    6.690864e-08
109750000.0    7.083086e-08
109781250.0    3.851731e-08
109812500.0    2.350208e-08
109843750.0    4.548734e-08
109875000.0    5.262375e-08
109906250.0    2.558782e-08
109937500.0    1.645311e-08
109968750.0    4.288467e-08
110000000.0    2.867455e-08
110031250.0    3.383481e-08
110062500.0    3.390157e-08
110093750.0    4.072376e-08
110125000.0    1.971969e-08
110156250.0    1.262425e-08
110187500.0    2.563061e-08
110218750.0    4.644696e-08
110250000.0    6.818618e-08
110281250.0    3.767909e-08
110312500.0    8.853932e-09
110343750.0    3.408316e-08
110375000.0    4.283011e-08
110406250.0    2.330511e-08
110437500.0    2.271288e-08
110468750.0    2.713917e-08
110500000.0    1.840334e-08
110531250.0    8.825302e-08
110562500.0    9.796497e-09
110593750.0    3.037334e-08
110625000.0    4.589991e-08
110656250.0    4.278352e-08
110687500.0    1.958026e-08
110718750.0    2.112026e-08
110750000.0    2.638646e-08
110781250.0    2.637234e-08
110812500.0    2.969132e-08
110843750.0    5.676893e-08
110875000.0    7.530731e-08
110906250.0    1.105195e-08
110937500.0    1.399088e-08
110968750.0    3.392668e-08
111000000.0    3.03034e-08
111031250.0    1.541262e-08
111062500.0    7.410992e-08
111093750.0    5.75827e-08
111125000.0    1.979236e-08
111156250.0    3.559105e-08
111187500.0    2.526173e-08
111218750.0    6.57005e-08
111250000.0    5.643165e-08
111281250.0    7.137012e-08
111312500.0    1.473072e-08
111343750.0    9.653827e-09
111375000.0    8.592671e-08
111406250.0    2.708181e-08
111437500.0    6.713795e-08
111468750.0    3.183407e-08
111500000.0    5.420569e-08
111531250.0    5.270229e-08
111562500.0    1.850441e-08
111593750.0    3.552128e-08
111625000.0    4.713743e-08
111656250.0    9.217965e-08
111687500.0    3.852566e-08
111718750.0    1.646812e-08
111750000.0    3.611565e-08
111781250.0    1.55562e-08
111812500.0    3.573502e-08
111843750.0    2.215155e-08
111875000.0    1.147678e-08
111906250.0    2.621108e-08
111937500.0    2.261245e-08
111968750.0    4.409775e-08
112000000.0    4.402495e-08
112031250.0    4.221101e-09
112062500.0    1.113129e-07
112093750.0    4.364604e-08
112125000.0    2.93907e-08
112156250.0    6.150606e-08
112187500.0    4.820238e-08
112218750.0    6.043843e-08
112250000.0    1.808817e-08
112281250.0    9.775089e-09
112312500.0    1.873771e-08
112343750.0    7.942332e-08
112375000.0    1.229176e-08
112406250.0    3.037456e-08
112437500.0    6.59963e-08
112468750.0    4.003299e-08
112500000.0    4.56486e-08
112531250.0    3.713377e-08
112562500.0    4.387294e-08
112593750.0    6.097687e-08
112625000.0    6.428047e-08
112656250.0    9.221728e-09
112687500.0    3.516412e-08
112718750.0    6.197751e-08
112750000.0    4.834268e-08
112781250.0    2.644099e-08
112812500.0    3.38582e-08
112843750.0    1.680487e-08
112875000.0    3.505859e-08
112906250.0    6.391361e-08
112937500.0    4.788313e-08
112968750.0    4.802754e-08
113000000.0    6.528061e-08
113031250.0    7.953923e-09
113062500.0    4.693871e-08
113093750.0    9.976839e-09
113125000.0    3.302218e-08
113156250.0    1.843235e-08
113187500.0    2.143723e-08
113218750.0    2.876378e-08
113250000.0    3.285673e-08
113281250.0    4.219529e-08
113312500.0    3.905525e-08
113343750.0    1.66558e-08
113375000.0    9.078893e-08
113406250.0    4.007129e-09
113437500.0    8.906353e-08
113468750.0    2.959614e-08
113500000.0    3.558921e-08
113531250.0    2.110652e-08
113562500.0    2.775569e-08
113593750.0    3.498408e-08
113625000.0    1.236645e-08
113656250.0    2.593353e-08
113687500.0    5.20016e-08
113718750.0    4.62641e-08
113750000.0    3.039583e-08
113781250.0    5.825901e-08
113812500.0    7.034204e-08
113843750.0    2.910405e-08
113875000.0    4.898562e-08
113906250.0    2.526617e-08
113937500.0    2.78156e-08
113968750.0    3.783808e-08
114000000.0    2.989111e-08
114031250.0    1.270775e-08
114062500.0    1.30147e-08
114093750.0    4.43413e-08
114125000.0    1.676834e-08
114156250.0    5.334061e-08
114187500.0    2.144293e-08
114218750.0    3.294571e-08
114250000.0    4.216949e-08
114281250.0    6.541654e-08
114312500.0    5.348269e-08
114343750.0    3.738363e-08
114375000.0    3.6427e-08
114406250.0    5.954029e-08
114437500.0    3.489765e-08
114468750.0    4.844774e-08
114500000.0    1.604113e-08
114531250.0    5.511271e-08
114562500.0    3.596447e-08
114593750.0    5.970744e-08
114625000.0    2.660942e-08
114656250.0    4.618029e-08
114687500.0    2.671489e-08
114718750.0    5.882533e-08
114750000.0    4.887234e-08
114781250.0    5.158812e-08
114812500.0    4.38043e-08
114843750.0    1.724461e-08
114875000.0    5.227147e-08
114906250.0    2.777949e-08
114937500.0    2.049637e-08
114968750.0    3.353983e-08
115000000.0    2.923954e-08
115031250.0    2.708294e-08
115062500.0    4.089488e-08
115093750.0    6.713846e-08
115125000.0    4.965305e-08
115156250.0    4.182433e-08
115187500.0    1.033801e-08
115218750.0    2.487241e-08
115250000.0    0.0
115281250.0    5.041576e-08
115312500.0    7.938495e-09
115343750.0    6.438416e-08
115375000.0    7.546647e-09
115406250.0    1.525678e-08
115437500.0    2.928381e-08
115468750.0    2.859621e-08
115500000.0    1.007913e-07
115531250.0    4.173498e-08
115562500.0    1.310368e-08
115593750.0    5.046276e-08
115625000.0    1.006912e-08
115656250.0    3.181033e-08
115687500.0    4.543685e-08
115718750.0    6.040219e-08
115750000.0    1.736939e-08
115781250.0    4.307135e-08
115812500.0    6.670492e-08
115843750.0    2.271348e-08
115875000.0    2.880584e-08
115906250.0    3.859911e-08
115937500.0    3.651825e-08
115968750.0    5.53263e-08
116000000.0    1.622421e-08
116031250.0    4.424877e-08
116062500.0    8.047019e-08
116093750.0    5.349013e-08
116125000.0    4.956742e-08
116156250.0    3.675466e-08
116187500.0    4.414213e-08
116218750.0    2.409642e-08
116250000.0    3.018414e-08
116281250.0    2.594309e-08
116312500.0    5.667018e-08
116343750.0    5.340332e-08
116375000.0    2.971165e-08
116406250.0    5.732119e-08
116437500.0    3.535628e-08
116468750.0    5.129337e-08
116500000.0    6.095335e-08
116531250.0    8.752325e-08
116562500.0    4.462243e-08
116593750.0    5.543782e-08
116625000.0    6.313142e-08
116656250.0    9.29533e-08
116687500.0    2.525575e-08
116718750.0    1.667978e-08
116750000.0    6.451675e-08
116781250.0    2.682128e-08
116812500.0    7.122091e-08
116843750.0    5.881262e-08
116875000.0    1.485096e-08
116906250.0    2.524698e-08
116937500.0    6.916096e-08
116968750.0    2.640333e-08
117000000.0    2.424663e-08
117031250.0    9.89733e-08
117062500.0    4.579581e-08
117093750.0    3.728149e-08
117125000.0    4.854449e-08
117156250.0    3.284345e-08
117187500.0    4.577308e-08
117218750.0    5.488634e-08
117250000.0    2.692114e-08
117281250.0    4.474424e-08
117312500.0    1.033787e-08
117343750.0    1.309505e-08
117375000.0    1.372411e-08
117406250.0    4.654261e-08
117437500.0    2.299906e-08
117468750.0    4.17371e-08
117500000.0    6.138163e-08
117531250.0    5.736607e-08
117562500.0    4.991587e-09
117593750.0    5.139793e-08
117625000.0    3.125971e-08
117656250.0    1.569738e-08
117687500.0    5.249009e-08
117718750.0    3.931174e-08
117750000.0    3.86262e-08
117781250.0    2.604292e-08
117812500.0    4.501026e-08
117843750.0    5.408307e-08
117875000.0    3.969183e-08
117906250.0    4.472102e-08
117937500.0    3.64983e-08
117968750.0    1.490522e-08
118000000.0    2.73805e-08
118031250.0    4.019898e-08
118062500.0    5.986303e-08
118093750.0    8.114574e-08
118125000.0    2.259073e-08
118156250.0    3.586994e-08
118187500.0    4.76263e-08
118218750.0    5.880918e-08
118250000.0    3.190526e-08
118281250.0    2.450574e-08
118312500.0    2.872687e-08
118343750.0    4.150261e-08
118375000.0    5.464629e-08
118406250.0    2.432979e-08
118437500.0    3.076455e-08
118468750.0    4.166927e-08
118500000.0    2.382283e-08
118531250.0    7.65096e-08
118562500.0    2.227784e-08
118593750.0    2.36824e-08
118625000.0    5.260792e-08
118656250.0    3.768483e-08
118687500.0    3.545394e-08
118718750.0    5.79404e-08
118750000.0    2.32132e-09
118781250.0    4.342609e-08
118812500.0    2.856005e-08
118843750.0    3.344051e-08
118875000.0    4.201695e-08
118906250.0    1.862156e-08
118937500.0    5.653412e-08
118968750.0    1.80646e-08
119000000.0    1.072363e-07
119031250.0    5.231008e-08
119062500.0    5.910891e-08
119093750.0    3.301813e-08
119125000.0    1.636111e-08
119156250.0    6.045141e-08
119187500.0    4.51307e-08
119218750.0    2.837263e-08
119250000.0    3.724319e-09
119281250.0    2.893888e-08
119312500.0    2.655015e-08
119343750.0    4.540847e-08
119375000.0    5.108789e-08
119406250.0    5.082618e-08
119437500.0    2.332226e-08
119468750.0    8.618661e-09
119500000.0    3.086881e-08
119531250.0    6.356645e-08
119562500.0    3.289776e-08
119593750.0    1.17281e-08
119625000.0    3.309338e-08
119656250.0    1.442373e-08
119687500.0    9.790327e-09
119718750.0    2.993047e-08
119750000.0    4.773628e-08
119781250.0    2.662837e-08
119812500.0    5.474018e-08
119843750.0    5.383413e-08
119875000.0    1.176496e-07
119906250.0    1.14513e-07
119937500.0    3.284901e-08
119968750.0    6.347899e-08
120000000.0    4.834369e-08
120031250.0    5.129948e-08
120062500.0    6.563988e-08
120093750.0    1.819673e-08
120125000.0    4.632249e-07
120156250.0    4.197278e-08
120187500.0    3.97729e-08
120218750.0    4.352166e-08
120250000.0    4.010982e-08
120281250.0    6.379806e-08
120312500.0    1.136139e-08
120343750.0    1.862142e-08
120375000.0    4.07542e-08
120406250.0    8.934007e-09
120437500.0    1.916492e-08
120468750.0    1.603903e-08
120500000.0    7.311102e-08
120531250.0    1.233891e-08
120562500.0    6.716799e-08
120593750.0    5.647019e-08
120625000.0    2.432184e-08
120656250.0    5.019054e-08
120687500.0    1.425552e-08
120718750.0    5.456335e-08
120750000.0    3.327184e-08
120781250.0    5.950188e-08
120812500.0    8.340536e-08
120843750.0    2.467856e-08
120875000.0    4.292892e-08
120906250.0    3.483956e-08
120937500.0    4.39792e-08
120968750.0    4.557577e-08
121000000.0    5.724883e-08
121031250.0    4.534468e-08
121062500.0    6.316937e-08
121093750.0    5.84686e-08
121125000.0    4.226121e-08
121156250.0    4.07245e-08
121187500.0    6.705426e-08
121218750.0    5.97032e-08
121250000.0    3.015935e-08
121281250.0    3.201469e-08
121312500.0    3.068357e-08
121343750.0    8.801799e-08
121375000.0    4.102284e-08
121406250.0    3.088801e-08
121437500.0    7.168855e-08
121468750.0    2.585443e-08
121500000.0    3.863414e-08
121531250.0    7.285379e-08
121562500.0    5.672667e-08
121593750.0    4.419602e-08
121625000.0    2.28155e-08
121656250.0    1.796307e-08
121687500.0    4.281812e-08
121718750.0    4.098435e-08
121750000.0    2.678164e-08
121781250.0    4.594627e-08
121812500.0    3.475725e-08
121843750.0    1.737859e-08
121875000.0    3.268947e-08
121906250.0    7.374615e-08
121937500.0    3.103876e-08
121968750.0    1.220386e-08
122000000.0    2.175899e-08
122031250.0    9.529353e-09
122062500.0    4.471974e-08
122093750.0    3.607707e-08
122125000.0    4.353589e-08
122156250.0    3.077964e-08
122187500.0    5.777411e-08
122218750.0    4.407825e-08
122250000.0    6.315842e-08
122281250.0    1.211906e-08
122312500.0    3.534126e-08
122343750.0    1.071423e-07
122375000.0    5.752889e-08
122406250.0    5.095795e-08
122437500.0    4.768012e-08
122468750.0    4.924095e-08
122500000.0    4.938451e-08
122531250.0    4.280715e-08
122562500.0    7.380305e-08
122593750.0    6.524413e-08
122625000.0    2.264752e-08
122656250.0    2.329953e-08
122687500.0    3.943829e-08
122718750.0    7.079018e-08
122750000.0    2.390339e-08
122781250.0    2.938947e-08
122812500.0    5.259316e-09
122843750.0    7.895839e-08
122875000.0    1.743286e-08
122906250.0    2.472266e-08
122937500.0    3.813393e-08
122968750.0    2.797424e-08
123000000.0    6.139914e-08
123031250.0    7.209278e-08
123062500.0    1.793264e-08
123093750.0    7.420126e-09
123125000.0    7.502842e-08
123156250.0    4.923866e-08
123187500.0    4.116421e-08
123218750.0    1.630858e-08
123250000.0    1.40797e-08
123281250.0    2.837051e-08
123312500.0    3.131187e-08
123343750.0    8.975619e-08
123375000.0    3.342529e-08
123406250.0    3.033169e-08
123437500.0    3.218574e-08
123468750.0    4.278381e-09
123500000.0    4.584096e-08
123531250.0    5.724275e-08
123562500.0    4.636606e-08
123593750.0    1.891559e-08
123625000.0    6.470061e-08
123656250.0    1.047629e-08
123687500.0    9.288376e-09
123718750.0    1.582027e-08
123750000.0    5.300645e-09
123781250.0    4.817328e-08
123812500.0    3.072116e-08
123843750.0    5.717934e-08
123875000.0    3.016449e-08
123906250.0    1.666781e-08
123937500.0    3.616896e-08
123968750.0    5.169573e-08
124000000.0    4.719542e-08
124031250.0    4.404973e-08
124062500.0    5.006655e-08
124093750.0    3.299346e-08
124125000.0    5.763385e-08
124156250.0    5.998963e-08
124187500.0    3.582691e-08
124218750.0    6.892373e-08
124250000.0    4.428957e-08
124281250.0    5.326709e-08
124312500.0    5.49844e-08
124343750.0    4.804071e-08
124375000.0    3.539961e-08
124406250.0    1.974656e-08
124437500.0    1.548155e-08
124468750.0    5.767184e-08
124500000.0    2.709705e-08
124531250.0    2.485674e-08
124562500.0    4.735837e-08
124593750.0    3.556886e-08
124625000.0    5.479431e-08
124656250.0    5.297654e-08
124687500.0    1.964027e-08
124718750.0    5.629639e-08
124750000.0    5.961321e-08
124781250.0    4.001674e-08
124812500.0    4.330038e-08
124843750.0    4.376651e-09
124875000.0    2.345472e-08
124906250.0    3.733953e-08
124937500.0    7.21469e-08
124968750.0    2.614996e-08
125000000.0    1.771152e-08
