# AG4395A Measurement - Timestamp: Nov 01 2017 - 04:29:21
# Parameter File: SP_AG_R_Beatnote_95_to_125MHz.yml
#---------- Measurement Parameters ------------
# Start Frequency (Hz): 100000000.0
# Stop Frequency (Hz): 125000000.0
# Frequency Points: 801
# Measurement Format: NOISE
# Measuremed Input: R
#---------- Analyzer Settings ----------
# Number of Averages: 1
# Auto Bandwidth: On
# IF Bandwidth: 3000.0
# Input Attenuators (R,A,B): 0dB 20dB 20dB 
# Units: V/rtHz
#---------- Measurement Data ----------
# [Freq(Hz) Chan 1 ]
100000000.0    8.125487e-08
100031250.0    7.077824e-08
100062500.0    2.65678e-08
100093750.0    7.331374e-08
100125000.0    3.383586e-08
100156250.0    3.561365e-08
100187500.0    5.163277e-08
100218750.0    1.08969e-08
100250000.0    6.347317e-08
100281250.0    1.001524e-08
100312500.0    4.716261e-08
100343750.0    3.852115e-08
100375000.0    1.612026e-08
100406250.0    3.37729e-08
100437500.0    3.673966e-08
100468750.0    1.910506e-08
100500000.0    3.478734e-08
100531250.0    1.571319e-08
100562500.0    5.177436e-08
100593750.0    3.212442e-08
100625000.0    2.477331e-08
100656250.0    4.260182e-08
100687500.0    2.536935e-08
100718750.0    3.853085e-08
100750000.0    5.740836e-08
100781250.0    3.67624e-08
100812500.0    5.379583e-08
100843750.0    3.239792e-08
100875000.0    5.135346e-08
100906250.0    1.843111e-08
100937500.0    4.222953e-08
100968750.0    4.190143e-08
101000000.0    2.407514e-08
101031250.0    3.975467e-08
101062500.0    1.605888e-08
101093750.0    2.943524e-08
101125000.0    2.023118e-09
101156250.0    1.302167e-08
101187500.0    3.848816e-08
101218750.0    2.22759e-08
101250000.0    3.640026e-08
101281250.0    7.392111e-08
101312500.0    3.4531e-08
101343750.0    4.732289e-08
101375000.0    2.892014e-08
101406250.0    5.093697e-08
101437500.0    3.172837e-08
101468750.0    2.616333e-08
101500000.0    2.616985e-08
101531250.0    2.410167e-08
101562500.0    4.597402e-08
101593750.0    2.989884e-08
101625000.0    1.183915e-08
101656250.0    6.618019e-09
101687500.0    4.393235e-08
101718750.0    4.834956e-08
101750000.0    1.735093e-08
101781250.0    4.109593e-08
101812500.0    6.111807e-08
101843750.0    3.842542e-08
101875000.0    5.595544e-08
101906250.0    2.708186e-08
101937500.0    1.718111e-08
101968750.0    2.531836e-08
102000000.0    4.868583e-08
102031250.0    5.117145e-08
102062500.0    4.323616e-08
102093750.0    6.746675e-09
102125000.0    1.441169e-08
102156250.0    3.312942e-08
102187500.0    4.092816e-08
102218750.0    6.250033e-08
102250000.0    4.219703e-08
102281250.0    2.454067e-08
102312500.0    3.838571e-08
102343750.0    4.852943e-08
102375000.0    8.090998e-09
102406250.0    9.274664e-08
102437500.0    3.960562e-08
102468750.0    1.508555e-08
102500000.0    6.211064e-08
102531250.0    2.508133e-08
102562500.0    6.513299e-08
102593750.0    5.995289e-08
102625000.0    6.671154e-08
102656250.0    3.596911e-08
102687500.0    4.034185e-08
102718750.0    4.37679e-08
102750000.0    6.382717e-08
102781250.0    7.213076e-08
102812500.0    7.260833e-08
102843750.0    3.780285e-08
102875000.0    5.398847e-08
102906250.0    4.175327e-08
102937500.0    7.690566e-08
102968750.0    3.549028e-08
103000000.0    2.597443e-08
103031250.0    4.566461e-08
103062500.0    3.609544e-08
103093750.0    2.829024e-08
103125000.0    1.871321e-08
103156250.0    4.999644e-08
103187500.0    3.344856e-08
103218750.0    6.217461e-08
103250000.0    3.51768e-08
103281250.0    1.221988e-08
103312500.0    5.481637e-08
103343750.0    3.661522e-08
103375000.0    4.416978e-08
103406250.0    1.656991e-08
103437500.0    4.610658e-08
103468750.0    4.356828e-08
103500000.0    3.262247e-08
103531250.0    3.8169e-08
103562500.0    1.53093e-08
103593750.0    3.916064e-08
103625000.0    5.85972e-08
103656250.0    2.773961e-08
103687500.0    5.881691e-08
103718750.0    3.161972e-08
103750000.0    1.611893e-08
103781250.0    4.55207e-08
103812500.0    4.618604e-08
103843750.0    8.19634e-09
103875000.0    1.795391e-08
103906250.0    2.708455e-08
103937500.0    1.690359e-08
103968750.0    4.975131e-08
104000000.0    3.240789e-08
104031250.0    2.754171e-08
104062500.0    5.294168e-08
104093750.0    2.558459e-08
104125000.0    4.569218e-08
104156250.0    2.40688e-08
104187500.0    2.351192e-08
104218750.0    5.284657e-08
104250000.0    2.308891e-08
104281250.0    9.676356e-08
104312500.0    5.724104e-08
104343750.0    2.928619e-08
104375000.0    5.523365e-08
104406250.0    2.09318e-08
104437500.0    5.632197e-08
104468750.0    1.202503e-08
104500000.0    6.248656e-08
104531250.0    3.975026e-08
104562500.0    2.207856e-08
104593750.0    2.268913e-08
104625000.0    4.444509e-08
104656250.0    1.794591e-08
104687500.0    8.988125e-08
104718750.0    1.137809e-08
104750000.0    2.071794e-08
104781250.0    1.923154e-08
104812500.0    9.968003e-09
104843750.0    6.838981e-08
104875000.0    2.067079e-08
104906250.0    3.008397e-08
104937500.0    3.956156e-08
104968750.0    4.271481e-08
105000000.0    1.868584e-08
105031250.0    7.77512e-09
105062500.0    6.825898e-09
105093750.0    6.017012e-08
105125000.0    1.147406e-08
105156250.0    2.643679e-08
105187500.0    4.345015e-08
105218750.0    2.198725e-08
105250000.0    1.110532e-07
105281250.0    5.689333e-08
105312500.0    5.876531e-08
105343750.0    8.007247e-08
105375000.0    6.283469e-08
105406250.0    1.502535e-08
105437500.0    1.644763e-08
105468750.0    3.955569e-08
105500000.0    2.522889e-08
105531250.0    2.935353e-08
105562500.0    3.861353e-08
105593750.0    4.348223e-08
105625000.0    4.295476e-08
105656250.0    1.355585e-08
105687500.0    4.160705e-08
105718750.0    3.411267e-08
105750000.0    4.528763e-08
105781250.0    4.590798e-08
105812500.0    2.527811e-08
105843750.0    3.881479e-08
105875000.0    3.788188e-08
105906250.0    2.420998e-08
105937500.0    5.670069e-08
105968750.0    7.092368e-08
106000000.0    3.117064e-08
106031250.0    4.986418e-08
106062500.0    5.54132e-08
106093750.0    3.173309e-08
106125000.0    3.474474e-08
106156250.0    6.841431e-08
106187500.0    3.921476e-08
106218750.0    3.386203e-08
106250000.0    1.518372e-08
106281250.0    1.453604e-08
106312500.0    3.636149e-08
106343750.0    7.564606e-09
106375000.0    3.882566e-08
106406250.0    1.432445e-08
106437500.0    3.598841e-08
106468750.0    2.883859e-08
106500000.0    6.176415e-08
106531250.0    2.077157e-08
106562500.0    3.328245e-08
106593750.0    2.423879e-08
106625000.0    6.197915e-08
106656250.0    6.647648e-08
106687500.0    7.776357e-09
106718750.0    4.016106e-08
106750000.0    2.879496e-08
106781250.0    2.315507e-08
106812500.0    4.243729e-08
106843750.0    4.797979e-08
106875000.0    2.125461e-08
106906250.0    3.665529e-08
106937500.0    5.832915e-08
106968750.0    1.693985e-08
107000000.0    2.515039e-08
107031250.0    3.370478e-08
107062500.0    2.406163e-08
107093750.0    4.392725e-08
107125000.0    1.082417e-08
107156250.0    1.467273e-08
107187500.0    5.612782e-08
107218750.0    2.121917e-08
107250000.0    1.412829e-08
107281250.0    5.836677e-08
107312500.0    5.667284e-08
107343750.0    7.023215e-08
107375000.0    3.317047e-08
107406250.0    3.679633e-08
107437500.0    6.191024e-08
107468750.0    1.28426e-08
107500000.0    5.762383e-08
107531250.0    7.734892e-09
107562500.0    2.466866e-08
107593750.0    9.347888e-08
107625000.0    1.96158e-08
107656250.0    3.390475e-08
107687500.0    5.77651e-08
107718750.0    6.541058e-09
107750000.0    5.017367e-08
107781250.0    2.811783e-08
107812500.0    2.985261e-08
107843750.0    3.433913e-08
107875000.0    3.847814e-08
107906250.0    3.150562e-08
107937500.0    6.229446e-08
107968750.0    4.665229e-08
108000000.0    8.716255e-08
108031250.0    4.011172e-08
108062500.0    6.205283e-08
108093750.0    1.672623e-08
108125000.0    1.941429e-08
108156250.0    4.222833e-08
108187500.0    2.612567e-08
108218750.0    2.416588e-08
108250000.0    3.134864e-08
108281250.0    3.094131e-08
108312500.0    2.552528e-08
108343750.0    6.953849e-08
108375000.0    2.88866e-08
108406250.0    4.04571e-08
108437500.0    7.21333e-08
108468750.0    4.671349e-08
108500000.0    3.696771e-08
108531250.0    4.291941e-08
108562500.0    1.798236e-08
108593750.0    3.097752e-08
108625000.0    2.805508e-08
108656250.0    2.035672e-08
108687500.0    5.168416e-08
108718750.0    8.509118e-09
108750000.0    8.457671e-09
108781250.0    2.18031e-08
108812500.0    4.280458e-08
108843750.0    6.355612e-08
108875000.0    2.450916e-08
108906250.0    3.322172e-08
108937500.0    7.15138e-08
108968750.0    6.266867e-08
109000000.0    4.117772e-08
109031250.0    5.025737e-08
109062500.0    2.185148e-08
109093750.0    1.669417e-08
109125000.0    4.669094e-08
109156250.0    4.433376e-08
109187500.0    4.429819e-08
109218750.0    1.22108e-08
109250000.0    5.037905e-08
109281250.0    1.998209e-08
109312500.0    3.366143e-08
109343750.0    7.020709e-08
109375000.0    6.410468e-08
109406250.0    5.591376e-08
109437500.0    2.282533e-08
109468750.0    3.678173e-08
109500000.0    2.273864e-08
109531250.0    6.8982e-08
109562500.0    5.051032e-08
109593750.0    4.536151e-08
109625000.0    4.238985e-08
109656250.0    5.861488e-08
109687500.0    5.934683e-08
109718750.0    6.411133e-08
109750000.0    2.123621e-08
109781250.0    3.357306e-08
109812500.0    4.191419e-08
109843750.0    4.241056e-08
109875000.0    3.394111e-08
109906250.0    7.374614e-09
109937500.0    3.94571e-08
109968750.0    4.278552e-08
110000000.0    5.861161e-08
110031250.0    5.103133e-08
110062500.0    3.79702e-08
110093750.0    2.283663e-08
110125000.0    4.27995e-08
110156250.0    5.899589e-08
110187500.0    1.479161e-08
110218750.0    9.589364e-09
110250000.0    6.548444e-08
110281250.0    6.573569e-08
110312500.0    3.291495e-08
110343750.0    4.979095e-08
110375000.0    2.980575e-08
110406250.0    5.477775e-08
110437500.0    7.765075e-08
110468750.0    7.942609e-08
110500000.0    3.035408e-08
110531250.0    7.276844e-08
110562500.0    1.70173e-08
110593750.0    6.20018e-08
110625000.0    3.11965e-08
110656250.0    1.728789e-08
110687500.0    1.455579e-08
110718750.0    6.446655e-08
110750000.0    1.646482e-08
110781250.0    3.931116e-08
110812500.0    4.901317e-09
110843750.0    5.774445e-08
110875000.0    5.837486e-08
110906250.0    2.839451e-08
110937500.0    4.618252e-08
110968750.0    4.892187e-08
111000000.0    5.397419e-08
111031250.0    2.756644e-08
111062500.0    7.888936e-09
111093750.0    5.346294e-08
111125000.0    3.94992e-08
111156250.0    2.341245e-08
111187500.0    1.853782e-08
111218750.0    2.276116e-08
111250000.0    4.614548e-08
111281250.0    6.074477e-08
111312500.0    3.576608e-08
111343750.0    4.416776e-08
111375000.0    3.081162e-08
111406250.0    3.465123e-08
111437500.0    5.51052e-08
111468750.0    4.423008e-08
111500000.0    2.730856e-08
111531250.0    5.047217e-08
111562500.0    2.069593e-08
111593750.0    4.802403e-08
111625000.0    6.566474e-08
111656250.0    3.571752e-08
111687500.0    6.218652e-08
111718750.0    1.572223e-08
111750000.0    2.628493e-08
111781250.0    1.438886e-08
111812500.0    3.095376e-08
111843750.0    1.298133e-08
111875000.0    2.572634e-08
111906250.0    7.700666e-09
111937500.0    7.710747e-08
111968750.0    2.698814e-08
112000000.0    1.948275e-08
112031250.0    4.834625e-08
112062500.0    1.143504e-07
112093750.0    6.086847e-08
112125000.0    6.148569e-08
112156250.0    6.40339e-08
112187500.0    4.755658e-08
112218750.0    3.04391e-08
112250000.0    6.988277e-09
112281250.0    6.46407e-08
112312500.0    4.212968e-08
112343750.0    7.079244e-08
112375000.0    4.327262e-08
112406250.0    2.006881e-08
112437500.0    4.057941e-08
112468750.0    6.464992e-08
112500000.0    5.271928e-08
112531250.0    2.462376e-08
112562500.0    4.028345e-08
112593750.0    5.413034e-08
112625000.0    4.025932e-08
112656250.0    5.607536e-08
112687500.0    9.029343e-09
112718750.0    7.229674e-08
112750000.0    2.787973e-08
112781250.0    1.582842e-08
112812500.0    3.691815e-08
112843750.0    6.338418e-08
112875000.0    4.23533e-08
112906250.0    3.482711e-08
112937500.0    6.656555e-08
112968750.0    3.684551e-08
113000000.0    5.060419e-08
113031250.0    4.395024e-08
113062500.0    1.596376e-08
113093750.0    6.920092e-08
113125000.0    4.978441e-08
113156250.0    1.682003e-08
113187500.0    2.997498e-08
113218750.0    6.495194e-08
113250000.0    3.99755e-08
113281250.0    4.473148e-08
113312500.0    1.933027e-08
113343750.0    3.246369e-08
113375000.0    5.889116e-08
113406250.0    3.881476e-08
113437500.0    3.425035e-08
113468750.0    2.539505e-08
113500000.0    6.572784e-08
113531250.0    2.129349e-08
113562500.0    6.312912e-08
113593750.0    6.764141e-08
113625000.0    3.280853e-08
113656250.0    4.953434e-08
113687500.0    4.688169e-08
113718750.0    3.332468e-08
113750000.0    3.037829e-08
113781250.0    5.914073e-08
113812500.0    7.86077e-08
113843750.0    1.601739e-08
113875000.0    4.215526e-08
113906250.0    2.049549e-08
113937500.0    4.084605e-08
113968750.0    5.89438e-08
114000000.0    1.954739e-08
114031250.0    8.176167e-08
114062500.0    1.171825e-08
114093750.0    5.582287e-08
114125000.0    5.320426e-08
114156250.0    2.100686e-08
114187500.0    1.380585e-08
114218750.0    4.264523e-08
114250000.0    1.203382e-08
114281250.0    4.042004e-08
114312500.0    3.580428e-08
114343750.0    6.280757e-08
114375000.0    7.825768e-09
114406250.0    4.1128e-08
114437500.0    2.671089e-08
114468750.0    4.787687e-08
114500000.0    5.333717e-08
114531250.0    3.531391e-08
114562500.0    3.497518e-08
114593750.0    3.996801e-08
114625000.0    2.752956e-08
114656250.0    2.646458e-08
114687500.0    2.132823e-08
114718750.0    2.885567e-08
114750000.0    5.65175e-08
114781250.0    8.077682e-08
114812500.0    5.842374e-08
114843750.0    5.525371e-08
114875000.0    3.904805e-08
114906250.0    1.694103e-08
114937500.0    4.355885e-08
114968750.0    2.279959e-08
115000000.0    5.469735e-08
115031250.0    6.357676e-08
115062500.0    2.783041e-08
115093750.0    1.35093e-08
115125000.0    6.438858e-08
115156250.0    2.706191e-08
115187500.0    4.031397e-08
115218750.0    4.978611e-08
115250000.0    8.862106e-08
115281250.0    3.011955e-08
115312500.0    6.902804e-08
115343750.0    5.516112e-08
115375000.0    1.697298e-08
115406250.0    2.573482e-08
115437500.0    8.642092e-08
115468750.0    7.794769e-08
115500000.0    2.911261e-08
115531250.0    7.269186e-08
115562500.0    8.698523e-08
115593750.0    2.025245e-08
115625000.0    9.092996e-08
115656250.0    7.07859e-07
115687500.0    9.145476e-07
115718750.0    8.391775e-07
115750000.0    5.087321e-07
115781250.0    9.557511e-07
115812500.0    3.101422e-07
115843750.0    1.964182e-08
115875000.0    2.704137e-08
115906250.0    4.351024e-08
115937500.0    1.9743e-08
115968750.0    2.865531e-08
116000000.0    5.459228e-08
116031250.0    5.347492e-08
116062500.0    1.344412e-08
116093750.0    5.143916e-08
116125000.0    1.121542e-08
116156250.0    4.424157e-08
116187500.0    9.232321e-08
116218750.0    5.168446e-08
116250000.0    3.023183e-08
116281250.0    2.937896e-08
116312500.0    4.272403e-08
116343750.0    9.053869e-09
116375000.0    3.094191e-08
116406250.0    5.479631e-08
116437500.0    1.390705e-08
116468750.0    7.068348e-08
116500000.0    2.71948e-08
116531250.0    2.8553e-08
116562500.0    1.950065e-08
116593750.0    7.574193e-08
116625000.0    3.666498e-08
116656250.0    2.710933e-08
116687500.0    3.096027e-08
116718750.0    2.34819e-08
116750000.0    2.550034e-08
116781250.0    5.547298e-08
116812500.0    4.068959e-08
116843750.0    4.574886e-08
116875000.0    4.870794e-08
116906250.0    7.667764e-08
116937500.0    1.778803e-08
116968750.0    3.198009e-08
117000000.0    3.144519e-08
117031250.0    7.24505e-08
117062500.0    6.980272e-08
117093750.0    1.49423e-08
117125000.0    5.847591e-08
117156250.0    6.151082e-08
117187500.0    2.411578e-08
117218750.0    2.945108e-08
117250000.0    1.013376e-07
117281250.0    5.110804e-08
117312500.0    4.191222e-08
117343750.0    2.730175e-08
117375000.0    4.543053e-08
117406250.0    1.131716e-08
117437500.0    4.152979e-08
117468750.0    6.628379e-09
117500000.0    4.655872e-08
117531250.0    4.939873e-08
117562500.0    7.275059e-08
117593750.0    5.899441e-08
117625000.0    5.737344e-08
117656250.0    8.724887e-09
117687500.0    2.138843e-08
117718750.0    3.021736e-08
117750000.0    2.874441e-08
117781250.0    2.045862e-08
117812500.0    2.569817e-08
117843750.0    2.098662e-08
117875000.0    8.421369e-09
117906250.0    9.100524e-08
117937500.0    2.182589e-08
117968750.0    1.709217e-08
118000000.0    5.034438e-08
118031250.0    3.812644e-08
118062500.0    2.609314e-08
118093750.0    3.393222e-08
118125000.0    2.531234e-08
118156250.0    7.271047e-08
118187500.0    4.841088e-08
118218750.0    3.341794e-08
118250000.0    1.744823e-08
118281250.0    2.453031e-08
118312500.0    3.023982e-08
118343750.0    3.319083e-08
118375000.0    4.367623e-08
118406250.0    2.547591e-08
118437500.0    3.561577e-08
118468750.0    2.497541e-08
118500000.0    4.34673e-08
118531250.0    8.570058e-08
118562500.0    4.230851e-08
118593750.0    8.308303e-09
118625000.0    2.865244e-08
118656250.0    7.936592e-08
118687500.0    1.659644e-08
118718750.0    8.105823e-08
118750000.0    1.671975e-08
118781250.0    2.074176e-08
118812500.0    2.165577e-08
118843750.0    3.184267e-08
118875000.0    6.834027e-09
118906250.0    5.086834e-08
118937500.0    2.368219e-09
118968750.0    2.390254e-08
119000000.0    2.743969e-08
119031250.0    3.756651e-08
119062500.0    1.96634e-08
119093750.0    2.308524e-08
119125000.0    6.768908e-08
119156250.0    4.931906e-08
119187500.0    3.626023e-08
119218750.0    2.728082e-08
119250000.0    6.698345e-08
119281250.0    3.671956e-08
119312500.0    4.656891e-08
119343750.0    2.682205e-08
119375000.0    8.629635e-08
119406250.0    1.013358e-07
119437500.0    7.10962e-08
119468750.0    1.878048e-07
119500000.0    3.415626e-07
119531250.0    3.644783e-07
119562500.0    9.442878e-07
119593750.0    1.88352e-06
119625000.0    7.590565e-06
119656250.0    1.857667e-06
119687500.0    7.730685e-06
119718750.0    1.167779e-05
119750000.0    6.300843e-06
119781250.0    8.941174e-07
119812500.0    1.229674e-07
119843750.0    2.464504e-07
119875000.0    3.406045e-07
119906250.0    4.239662e-07
119937500.0    4.889955e-08
119968750.0    4.027233e-08
120000000.0    1.177272e-08
120031250.0    3.983999e-08
120062500.0    9.92589e-09
120093750.0    1.445899e-08
120125000.0    1.226155e-08
120156250.0    3.636607e-08
120187500.0    3.760927e-08
120218750.0    2.708989e-08
120250000.0    1.945468e-08
120281250.0    7.879109e-08
120312500.0    6.984679e-08
120343750.0    2.649249e-08
120375000.0    6.457125e-08
120406250.0    3.432601e-08
120437500.0    3.633509e-08
120468750.0    6.075574e-08
120500000.0    7.368286e-08
120531250.0    5.506164e-08
120562500.0    5.574909e-08
120593750.0    1.715577e-08
120625000.0    4.610932e-08
120656250.0    4.161426e-08
120687500.0    1.517009e-08
120718750.0    3.671727e-08
120750000.0    3.97191e-08
120781250.0    5.955783e-08
120812500.0    3.929394e-08
120843750.0    5.681242e-08
120875000.0    6.771112e-08
120906250.0    7.373195e-08
120937500.0    4.986623e-08
120968750.0    3.105746e-08
121000000.0    3.674196e-08
121031250.0    9.948357e-09
121062500.0    3.642992e-08
121093750.0    2.443344e-08
121125000.0    6.387087e-08
121156250.0    1.492398e-08
121187500.0    4.828447e-08
121218750.0    3.382889e-08
121250000.0    1.347271e-08
121281250.0    7.396017e-09
121312500.0    1.159731e-08
121343750.0    7.759695e-09
121375000.0    3.972548e-08
121406250.0    4.620419e-08
121437500.0    1.888894e-08
121468750.0    6.159107e-08
121500000.0    1.869183e-08
121531250.0    6.911121e-08
121562500.0    4.788332e-08
121593750.0    4.885405e-08
121625000.0    4.806913e-08
121656250.0    3.384507e-08
121687500.0    2.654438e-08
121718750.0    4.130208e-08
121750000.0    7.939484e-09
121781250.0    3.753848e-08
121812500.0    5.565585e-08
121843750.0    4.668088e-08
121875000.0    1.805825e-08
121906250.0    4.726958e-08
121937500.0    5.889174e-09
121968750.0    3.235602e-08
122000000.0    6.967755e-08
122031250.0    2.217133e-08
122062500.0    4.958051e-08
122093750.0    6.656991e-08
122125000.0    2.66386e-08
122156250.0    2.698788e-08
122187500.0    3.524254e-08
122218750.0    2.680276e-08
122250000.0    3.716369e-08
122281250.0    3.411651e-08
122312500.0    3.788232e-08
122343750.0    6.680231e-08
122375000.0    5.024726e-08
122406250.0    3.093396e-08
122437500.0    3.436629e-08
122468750.0    5.132254e-08
122500000.0    6.214341e-08
122531250.0    2.224331e-08
122562500.0    4.958734e-08
122593750.0    7.805845e-08
122625000.0    1.938807e-08
122656250.0    2.672954e-08
122687500.0    4.85733e-08
122718750.0    3.727062e-08
122750000.0    3.581927e-08
122781250.0    3.400413e-08
122812500.0    8.07796e-09
122843750.0    2.475627e-08
122875000.0    1.03324e-08
122906250.0    2.790161e-08
122937500.0    5.230251e-08
122968750.0    3.991785e-08
123000000.0    5.248808e-08
123031250.0    7.979258e-08
123062500.0    5.105741e-08
123093750.0    5.986931e-08
123125000.0    4.127757e-08
123156250.0    2.068115e-08
123187500.0    1.748721e-08
123218750.0    7.660302e-09
123250000.0    2.148147e-08
123281250.0    3.592922e-08
123312500.0    5.867217e-08
123343750.0    3.801946e-08
123375000.0    5.338526e-08
123406250.0    5.654441e-08
123437500.0    5.149007e-08
123468750.0    2.485263e-08
123500000.0    4.774469e-08
123531250.0    6.070985e-08
123562500.0    7.575631e-08
123593750.0    2.004674e-08
123625000.0    1.762049e-08
123656250.0    2.35948e-08
123687500.0    1.439725e-08
123718750.0    8.049716e-08
123750000.0    3.57785e-08
123781250.0    7.997807e-08
123812500.0    1.8207e-08
123843750.0    5.658765e-08
123875000.0    5.866076e-08
123906250.0    2.792927e-08
123937500.0    3.816654e-08
123968750.0    2.452989e-08
124000000.0    6.083813e-08
124031250.0    5.370698e-08
124062500.0    4.686537e-08
124093750.0    3.682925e-08
124125000.0    7.59562e-09
124156250.0    2.960039e-08
124187500.0    1.742146e-08
124218750.0    3.232417e-08
124250000.0    1.386018e-08
124281250.0    6.137508e-08
124312500.0    5.353272e-08
124343750.0    1.848638e-08
124375000.0    6.196927e-08
124406250.0    3.729032e-08
124437500.0    1.688254e-08
124468750.0    5.528889e-08
124500000.0    2.804453e-08
124531250.0    4.951724e-08
124562500.0    4.047975e-08
124593750.0    3.436756e-08
124625000.0    3.364913e-08
124656250.0    6.801856e-08
124687500.0    1.232692e-08
124718750.0    4.216124e-08
124750000.0    3.637649e-08
124781250.0    1.17915e-08
124812500.0    3.903579e-08
124843750.0    5.54768e-08
124875000.0    3.915229e-08
124906250.0    3.478121e-08
124937500.0    3.809783e-08
124968750.0    4.469923e-08
125000000.0    3.957559e-08
