# AG4395A Measurement - Timestamp: Nov 02 2017 - 02:34:22
# Parameter File: SP_AG_R_Beatnote_95_to_125MHz.yml
#---------- Measurement Parameters ------------
# Start Frequency (Hz): 100000000.0
# Stop Frequency (Hz): 125000000.0
# Frequency Points: 801
# Measurement Format: NOISE
# Measuremed Input: R
#---------- Analyzer Settings ----------
# Number of Averages: 1
# Auto Bandwidth: On
# IF Bandwidth: 3000.0
# Input Attenuators (R,A,B): 0dB 20dB 20dB 
# Units: V/rtHz
#---------- Measurement Data ----------
# [Freq(Hz) Chan 1 ]
100000000.0    1.603107e-08
100031250.0    2.19314e-08
100062500.0    2.694149e-08
100093750.0    7.08505e-08
100125000.0    4.05843e-08
100156250.0    5.552146e-08
100187500.0    2.401749e-08
100218750.0    3.135406e-08
100250000.0    3.891763e-08
100281250.0    5.523158e-08
100312500.0    2.367475e-08
100343750.0    2.616527e-08
100375000.0    5.146947e-08
100406250.0    3.755613e-08
100437500.0    1.327329e-08
100468750.0    8.31667e-08
100500000.0    3.849993e-08
100531250.0    5.608922e-08
100562500.0    4.182781e-08
100593750.0    2.306598e-08
100625000.0    9.099531e-08
100656250.0    3.17609e-08
100687500.0    3.205173e-08
100718750.0    2.390236e-08
100750000.0    7.342414e-08
100781250.0    8.691869e-08
100812500.0    2.986656e-08
100843750.0    5.85575e-08
100875000.0    1.688734e-08
100906250.0    4.139225e-08
100937500.0    7.331145e-08
100968750.0    2.561753e-08
101000000.0    5.083186e-08
101031250.0    4.388453e-08
101062500.0    3.866188e-08
101093750.0    4.497412e-08
101125000.0    5.186531e-08
101156250.0    3.697109e-08
101187500.0    6.870872e-09
101218750.0    6.186493e-08
101250000.0    2.809236e-08
101281250.0    7.265892e-08
101312500.0    1.900398e-08
101343750.0    3.149239e-08
101375000.0    4.066394e-08
101406250.0    5.035857e-08
101437500.0    1.760442e-08
101468750.0    5.316204e-08
101500000.0    4.653029e-08
101531250.0    5.716484e-08
101562500.0    3.409876e-08
101593750.0    3.499171e-08
101625000.0    8.497378e-08
101656250.0    6.335679e-08
101687500.0    5.122669e-08
101718750.0    2.94069e-08
101750000.0    7.143069e-08
101781250.0    2.579236e-08
101812500.0    2.679519e-08
101843750.0    5.209034e-08
101875000.0    3.19922e-08
101906250.0    9.368034e-09
101937500.0    9.46239e-09
101968750.0    2.98671e-08
102000000.0    1.753182e-08
102031250.0    5.703022e-08
102062500.0    3.635195e-08
102093750.0    3.277178e-08
102125000.0    4.687407e-08
102156250.0    4.465143e-08
102187500.0    6.954576e-08
102218750.0    5.695606e-08
102250000.0    5.732282e-09
102281250.0    5.212812e-08
102312500.0    3.314181e-08
102343750.0    1.742264e-08
102375000.0    3.392515e-08
102406250.0    3.58785e-08
102437500.0    3.190227e-08
102468750.0    4.723864e-08
102500000.0    2.555538e-08
102531250.0    5.581503e-08
102562500.0    5.116377e-08
102593750.0    4.532931e-08
102625000.0    3.695382e-08
102656250.0    6.332358e-08
102687500.0    2.285457e-08
102718750.0    3.579814e-08
102750000.0    5.449143e-08
102781250.0    3.429382e-08
102812500.0    3.768947e-08
102843750.0    4.808387e-08
102875000.0    6.931368e-08
102906250.0    5.349185e-08
102937500.0    4.778206e-08
102968750.0    1.793842e-08
103000000.0    4.376581e-08
103031250.0    8.893949e-09
103062500.0    2.857963e-08
103093750.0    9.818589e-08
103125000.0    5.271253e-08
103156250.0    5.232142e-08
103187500.0    3.885921e-08
103218750.0    2.543202e-08
103250000.0    2.579813e-08
103281250.0    5.91738e-09
103312500.0    5.83375e-08
103343750.0    8.352681e-08
103375000.0    3.601705e-08
103406250.0    4.151261e-08
103437500.0    2.710472e-08
103468750.0    2.503262e-08
103500000.0    2.289987e-08
103531250.0    1.643779e-08
103562500.0    1.547284e-08
103593750.0    1.825472e-08
103625000.0    3.48231e-08
103656250.0    3.237967e-08
103687500.0    4.259278e-08
103718750.0    3.121142e-08
103750000.0    2.723083e-08
103781250.0    2.397698e-08
103812500.0    6.416295e-08
103843750.0    5.031971e-08
103875000.0    3.202766e-08
103906250.0    9.50851e-09
103937500.0    1.892154e-08
103968750.0    3.910131e-08
104000000.0    3.138467e-08
104031250.0    3.404917e-08
104062500.0    3.753973e-08
104093750.0    2.64642e-08
104125000.0    5.730163e-08
104156250.0    2.532944e-08
104187500.0    3.904601e-08
104218750.0    5.276676e-09
104250000.0    3.616027e-08
104281250.0    3.822736e-08
104312500.0    7.907354e-08
104343750.0    6.648806e-08
104375000.0    1.603742e-08
104406250.0    4.894203e-08
104437500.0    6.648617e-08
104468750.0    3.047392e-08
104500000.0    5.936383e-08
104531250.0    2.15897e-08
104562500.0    6.928026e-08
104593750.0    7.824276e-08
104625000.0    1.121643e-07
104656250.0    5.027495e-08
104687500.0    5.049664e-08
104718750.0    1.953017e-08
104750000.0    3.478101e-08
104781250.0    3.656622e-08
104812500.0    2.831095e-08
104843750.0    3.575766e-08
104875000.0    2.694032e-08
104906250.0    3.965294e-08
104937500.0    4.861266e-08
104968750.0    2.979883e-08
105000000.0    3.654784e-08
105031250.0    9.429481e-08
105062500.0    1.327841e-08
105093750.0    3.157615e-08
105125000.0    1.959575e-08
105156250.0    1.078475e-07
105187500.0    2.700777e-08
105218750.0    3.820295e-08
105250000.0    5.217169e-08
105281250.0    1.587575e-08
105312500.0    9.0913e-09
105343750.0    2.256408e-08
105375000.0    6.407465e-08
105406250.0    4.004717e-08
105437500.0    4.638418e-08
105468750.0    5.038687e-08
105500000.0    1.136045e-08
105531250.0    2.022285e-08
105562500.0    5.834795e-08
105593750.0    5.415518e-08
105625000.0    3.936427e-08
105656250.0    6.429313e-08
105687500.0    3.820097e-08
105718750.0    3.325252e-08
105750000.0    5.965223e-08
105781250.0    2.157153e-08
105812500.0    1.747491e-08
105843750.0    2.815071e-08
105875000.0    3.331037e-08
105906250.0    1.046943e-08
105937500.0    5.442545e-08
105968750.0    1.255778e-08
106000000.0    2.979946e-08
106031250.0    3.832164e-08
106062500.0    6.813152e-08
106093750.0    3.412022e-08
106125000.0    4.553e-08
106156250.0    2.987305e-08
106187500.0    2.752991e-08
106218750.0    1.934007e-08
106250000.0    4.350876e-08
106281250.0    1.41303e-08
106312500.0    1.034442e-08
106343750.0    8.198249e-08
106375000.0    8.460642e-08
106406250.0    3.883742e-08
106437500.0    6.368216e-08
106468750.0    5.596609e-08
106500000.0    5.359514e-08
106531250.0    1.909618e-08
106562500.0    1.914614e-08
106593750.0    5.573736e-08
106625000.0    3.803297e-08
106656250.0    3.639623e-08
106687500.0    6.749372e-08
106718750.0    5.942615e-08
106750000.0    4.157604e-08
106781250.0    3.134629e-08
106812500.0    6.129454e-08
106843750.0    8.9261e-08
106875000.0    4.429248e-08
106906250.0    1.4462e-08
106937500.0    4.673483e-08
106968750.0    6.956525e-08
107000000.0    4.653102e-08
107031250.0    3.690914e-08
107062500.0    2.975793e-08
107093750.0    3.193392e-08
107125000.0    3.211281e-08
107156250.0    4.881289e-08
107187500.0    2.450865e-08
107218750.0    1.520904e-08
107250000.0    2.782942e-08
107281250.0    2.08961e-08
107312500.0    6.208202e-08
107343750.0    1.182599e-08
107375000.0    3.238734e-08
107406250.0    2.093234e-08
107437500.0    1.816528e-08
107468750.0    2.270655e-08
107500000.0    3.764229e-08
107531250.0    6.714895e-08
107562500.0    4.083503e-08
107593750.0    3.62428e-08
107625000.0    3.326643e-08
107656250.0    7.309666e-08
107687500.0    5.88136e-08
107718750.0    1.522611e-08
107750000.0    3.168633e-08
107781250.0    4.406316e-08
107812500.0    9.883252e-08
107843750.0    2.825046e-08
107875000.0    2.12429e-08
107906250.0    4.542374e-08
107937500.0    8.417178e-08
107968750.0    5.592984e-08
108000000.0    7.114743e-08
108031250.0    4.933448e-08
108062500.0    4.206892e-08
108093750.0    3.116499e-08
108125000.0    4.269214e-08
108156250.0    3.750202e-08
108187500.0    4.995346e-08
108218750.0    1.863509e-08
108250000.0    2.510803e-08
108281250.0    9.452888e-09
108312500.0    1.600339e-08
108343750.0    5.511152e-08
108375000.0    8.915459e-09
108406250.0    1.63018e-08
108437500.0    5.134074e-08
108468750.0    2.575396e-08
108500000.0    2.022258e-08
108531250.0    4.573467e-08
108562500.0    3.259402e-08
108593750.0    6.11584e-08
108625000.0    6.133757e-08
108656250.0    2.071418e-08
108687500.0    2.924947e-08
108718750.0    3.353022e-08
108750000.0    1.490544e-08
108781250.0    1.847958e-08
108812500.0    2.351564e-08
108843750.0    2.097861e-08
108875000.0    9.017668e-08
108906250.0    4.480366e-08
108937500.0    1.466161e-08
108968750.0    1.335516e-08
109000000.0    2.603484e-08
109031250.0    1.996292e-08
109062500.0    2.81007e-08
109093750.0    3.796736e-08
109125000.0    6.920859e-08
109156250.0    1.924295e-08
109187500.0    2.456792e-08
109218750.0    6.674966e-08
109250000.0    4.094676e-08
109281250.0    5.210747e-08
109312500.0    2.136282e-08
109343750.0    8.193943e-08
109375000.0    1.998217e-08
109406250.0    1.966322e-08
109437500.0    5.097291e-08
109468750.0    4.083552e-08
109500000.0    4.525983e-08
109531250.0    1.426917e-08
109562500.0    7.952402e-08
109593750.0    7.550652e-08
109625000.0    2.979494e-08
109656250.0    1.654828e-08
109687500.0    4.34945e-08
109718750.0    3.577997e-08
109750000.0    4.175763e-08
109781250.0    7.28264e-08
109812500.0    3.415828e-08
109843750.0    1.558734e-08
109875000.0    5.204167e-08
109906250.0    3.110007e-08
109937500.0    2.285533e-08
109968750.0    2.590736e-08
110000000.0    1.323139e-08
110031250.0    4.787924e-08
110062500.0    3.621789e-08
110093750.0    5.867346e-08
110125000.0    1.557788e-08
110156250.0    1.18636e-07
110187500.0    2.081474e-08
110218750.0    3.062334e-08
110250000.0    5.64768e-08
110281250.0    3.583225e-08
110312500.0    3.070416e-08
110343750.0    2.639445e-09
110375000.0    3.410412e-08
110406250.0    6.941744e-08
110437500.0    4.498265e-08
110468750.0    5.681471e-08
110500000.0    4.607194e-08
110531250.0    3.436534e-08
110562500.0    4.796921e-08
110593750.0    2.542526e-08
110625000.0    3.791188e-09
110656250.0    3.951856e-08
110687500.0    8.004761e-08
110718750.0    4.739677e-08
110750000.0    3.236197e-08
110781250.0    3.90299e-08
110812500.0    4.891488e-08
110843750.0    5.940397e-08
110875000.0    5.721575e-08
110906250.0    3.77365e-08
110937500.0    3.275228e-09
110968750.0    5.474312e-08
111000000.0    3.586135e-08
111031250.0    2.504084e-08
111062500.0    4.562518e-08
111093750.0    1.416111e-08
111125000.0    4.118153e-08
111156250.0    3.569442e-08
111187500.0    1.549874e-08
111218750.0    3.983036e-08
111250000.0    1.276976e-08
111281250.0    2.075157e-09
111312500.0    3.52095e-08
111343750.0    6.102492e-09
111375000.0    2.049537e-08
111406250.0    4.280027e-08
111437500.0    3.966443e-08
111468750.0    2.344182e-08
111500000.0    5.733922e-08
111531250.0    1.981346e-08
111562500.0    2.89985e-08
111593750.0    2.727887e-08
111625000.0    5.944403e-08
111656250.0    2.404039e-08
111687500.0    4.56137e-08
111718750.0    5.819554e-08
111750000.0    7.65939e-08
111781250.0    5.787785e-08
111812500.0    1.704333e-08
111843750.0    1.098675e-08
111875000.0    2.079426e-08
111906250.0    3.602745e-09
111937500.0    3.882612e-08
111968750.0    4.790448e-08
112000000.0    9.33202e-09
112031250.0    3.131785e-08
112062500.0    3.114798e-08
112093750.0    2.23374e-08
112125000.0    1.620644e-08
112156250.0    4.239954e-08
112187500.0    3.442461e-08
112218750.0    4.631162e-08
112250000.0    1.484458e-08
112281250.0    3.85386e-08
112312500.0    3.70604e-08
112343750.0    2.281977e-08
112375000.0    3.71938e-08
112406250.0    8.401615e-09
112437500.0    2.388626e-08
112468750.0    5.065241e-08
112500000.0    3.818064e-08
112531250.0    3.138266e-08
112562500.0    2.393515e-08
112593750.0    4.463102e-08
112625000.0    4.44654e-08
112656250.0    4.135208e-08
112687500.0    5.989126e-08
112718750.0    1.963626e-08
112750000.0    7.678515e-08
112781250.0    2.365878e-08
112812500.0    2.804479e-08
112843750.0    9.020501e-08
112875000.0    3.162528e-08
112906250.0    2.537612e-08
112937500.0    3.139339e-08
112968750.0    4.542791e-08
113000000.0    2.086514e-08
113031250.0    2.088575e-08
113062500.0    2.014346e-08
113093750.0    9.946404e-09
113125000.0    6.020458e-08
113156250.0    7.78289e-08
113187500.0    5.424895e-08
113218750.0    1.178699e-07
113250000.0    8.052426e-08
113281250.0    5.87473e-08
113312500.0    4.457527e-08
113343750.0    1.664842e-08
113375000.0    2.878041e-08
113406250.0    4.574116e-08
113437500.0    4.53534e-08
113468750.0    6.779455e-08
113500000.0    5.52149e-08
113531250.0    1.799479e-08
113562500.0    3.85337e-08
113593750.0    3.142183e-08
113625000.0    8.735367e-08
113656250.0    2.397804e-08
113687500.0    7.725704e-09
113718750.0    1.729578e-08
113750000.0    2.817064e-08
113781250.0    1.048014e-07
113812500.0    4.511905e-08
113843750.0    3.277852e-08
113875000.0    3.873672e-08
113906250.0    4.52249e-08
113937500.0    5.635142e-08
113968750.0    6.657463e-08
114000000.0    3.249756e-08
114031250.0    3.854953e-08
114062500.0    2.498579e-07
114093750.0    9.807037e-07
114125000.0    3.301506e-07
114156250.0    5.441533e-08
114187500.0    2.858141e-07
114218750.0    7.574764e-08
114250000.0    3.525548e-08
114281250.0    2.345022e-08
114312500.0    4.066132e-08
114343750.0    5.021884e-08
114375000.0    4.77322e-08
114406250.0    2.364964e-08
114437500.0    1.796632e-08
114468750.0    2.413954e-08
114500000.0    7.894769e-08
114531250.0    5.437812e-08
114562500.0    1.995956e-08
114593750.0    6.989938e-08
114625000.0    2.855891e-08
114656250.0    5.886877e-08
114687500.0    3.968396e-08
114718750.0    2.567989e-08
114750000.0    2.451566e-08
114781250.0    3.605223e-08
114812500.0    5.045157e-08
114843750.0    4.742349e-08
114875000.0    3.561359e-08
114906250.0    2.935791e-08
114937500.0    4.022116e-08
114968750.0    6.294693e-08
115000000.0    5.461792e-08
115031250.0    1.925467e-08
115062500.0    3.046526e-08
115093750.0    2.810615e-08
115125000.0    3.685497e-08
115156250.0    1.892974e-08
115187500.0    2.045005e-08
115218750.0    1.361065e-08
115250000.0    4.25324e-08
115281250.0    8.135711e-08
115312500.0    3.73534e-08
115343750.0    4.802919e-08
115375000.0    1.650586e-08
115406250.0    4.704575e-08
115437500.0    3.640658e-08
115468750.0    4.536051e-08
115500000.0    1.028789e-07
115531250.0    6.850372e-08
115562500.0    6.80752e-08
115593750.0    5.506281e-08
115625000.0    4.76646e-08
115656250.0    5.234693e-08
115687500.0    6.083395e-08
115718750.0    5.702884e-08
115750000.0    2.785399e-08
115781250.0    3.478581e-08
115812500.0    7.861696e-08
115843750.0    4.575142e-08
115875000.0    5.756045e-08
115906250.0    2.827552e-08
115937500.0    1.370355e-08
115968750.0    1.845505e-08
116000000.0    5.361924e-08
116031250.0    5.915187e-08
116062500.0    2.536768e-08
116093750.0    1.769025e-08
116125000.0    4.063534e-08
116156250.0    3.463781e-08
116187500.0    3.532088e-08
116218750.0    7.881082e-08
116250000.0    7.126023e-08
116281250.0    4.979181e-08
116312500.0    3.589495e-08
116343750.0    4.482246e-08
116375000.0    2.19981e-08
116406250.0    3.75432e-08
116437500.0    5.206372e-08
116468750.0    2.614452e-08
116500000.0    1.176444e-08
116531250.0    7.075196e-08
116562500.0    1.382118e-08
116593750.0    5.098998e-09
116625000.0    4.769339e-08
116656250.0    1.222967e-08
116687500.0    2.317805e-08
116718750.0    3.558149e-08
116750000.0    1.744135e-08
116781250.0    7.43014e-08
116812500.0    2.15109e-08
116843750.0    3.211666e-08
116875000.0    3.227092e-08
116906250.0    3.969087e-08
116937500.0    2.531707e-08
116968750.0    2.885832e-08
117000000.0    4.529067e-08
117031250.0    1.248524e-08
117062500.0    5.348715e-08
117093750.0    1.405884e-08
117125000.0    5.230867e-08
117156250.0    5.753403e-08
117187500.0    3.90423e-08
117218750.0    3.704001e-08
117250000.0    7.261313e-08
117281250.0    2.960161e-08
117312500.0    4.235574e-08
117343750.0    3.436097e-08
117375000.0    5.353065e-08
117406250.0    4.067181e-08
117437500.0    4.543173e-08
117468750.0    4.241064e-08
117500000.0    6.245735e-08
117531250.0    5.954546e-08
117562500.0    8.109175e-08
117593750.0    2.861658e-08
117625000.0    2.787978e-08
117656250.0    4.935913e-08
117687500.0    1.817731e-08
117718750.0    2.577643e-08
117750000.0    7.573483e-08
117781250.0    2.867007e-08
117812500.0    4.100331e-08
117843750.0    5.42197e-08
117875000.0    2.955037e-08
117906250.0    3.412503e-08
117937500.0    5.08915e-08
117968750.0    4.121344e-08
118000000.0    2.65529e-08
118031250.0    6.459578e-08
118062500.0    4.811247e-08
118093750.0    4.002847e-08
118125000.0    4.498619e-08
118156250.0    3.795932e-08
118187500.0    4.547084e-08
118218750.0    4.224868e-08
118250000.0    4.208223e-08
118281250.0    1.731742e-08
118312500.0    6.528251e-08
118343750.0    5.414493e-08
118375000.0    4.17089e-08
118406250.0    2.586969e-08
118437500.0    3.819054e-08
118468750.0    5.448245e-08
118500000.0    2.567928e-08
118531250.0    3.82598e-08
118562500.0    4.463358e-08
118593750.0    4.235992e-08
118625000.0    5.359713e-08
118656250.0    4.192321e-08
118687500.0    3.276058e-08
118718750.0    4.691071e-08
118750000.0    3.874696e-08
118781250.0    1.130324e-07
118812500.0    7.062137e-08
118843750.0    5.904006e-08
118875000.0    2.826102e-08
118906250.0    1.086297e-08
118937500.0    4.338605e-08
118968750.0    4.133674e-08
119000000.0    7.272685e-09
119031250.0    3.804563e-08
119062500.0    3.382194e-08
119093750.0    5.917683e-08
119125000.0    4.468407e-08
119156250.0    2.044882e-08
119187500.0    7.219193e-08
119218750.0    2.318177e-08
119250000.0    2.207828e-08
119281250.0    3.59662e-08
119312500.0    1.842413e-08
119343750.0    2.73623e-08
119375000.0    7.532525e-08
119406250.0    2.204492e-08
119437500.0    1.47787e-08
119468750.0    2.6903e-08
119500000.0    5.64077e-08
119531250.0    2.122499e-08
119562500.0    7.096484e-08
119593750.0    3.985716e-08
119625000.0    4.513681e-08
119656250.0    2.651643e-08
119687500.0    1.2186e-07
119718750.0    4.557599e-08
119750000.0    2.098538e-08
119781250.0    7.12322e-08
119812500.0    4.172945e-08
119843750.0    3.494056e-08
119875000.0    4.903821e-08
119906250.0    3.917902e-08
119937500.0    3.725474e-08
119968750.0    2.371373e-08
120000000.0    2.244737e-08
120031250.0    3.769621e-08
120062500.0    3.598234e-08
120093750.0    6.038407e-08
120125000.0    5.155966e-08
120156250.0    6.225016e-08
120187500.0    4.682664e-08
120218750.0    1.410995e-08
120250000.0    3.178739e-08
120281250.0    6.372393e-08
120312500.0    7.527897e-09
120343750.0    3.872246e-08
120375000.0    3.589497e-08
120406250.0    7.760366e-08
120437500.0    2.86584e-08
120468750.0    1.283445e-08
120500000.0    1.178898e-08
120531250.0    8.08419e-08
120562500.0    3.875066e-08
120593750.0    9.40677e-09
120625000.0    7.351267e-08
120656250.0    6.699312e-08
120687500.0    3.719326e-08
120718750.0    6.044058e-08
120750000.0    1.681842e-08
120781250.0    4.918094e-09
120812500.0    4.274118e-08
120843750.0    5.059011e-08
120875000.0    3.673446e-08
120906250.0    5.247226e-08
120937500.0    2.489613e-08
120968750.0    4.663607e-08
121000000.0    3.485736e-08
121031250.0    7.919836e-08
121062500.0    4.632208e-07
121093750.0    2.004736e-07
121125000.0    6.01464e-08
121156250.0    5.493567e-07
121187500.0    2.144453e-06
121218750.0    5.313283e-07
121250000.0    1.357766e-06
121281250.0    7.629054e-06
121312500.0    8.301551e-06
121343750.0    3.474291e-07
121375000.0    4.726542e-06
121406250.0    3.863849e-07
121437500.0    2.563582e-07
121468750.0    2.498827e-07
121500000.0    9.69825e-08
121531250.0    4.530812e-08
121562500.0    1.729471e-08
121593750.0    1.822792e-07
121625000.0    4.070426e-08
121656250.0    4.49036e-08
121687500.0    6.894292e-08
121718750.0    2.372257e-08
121750000.0    7.604503e-08
121781250.0    5.306963e-08
121812500.0    7.646613e-08
121843750.0    1.418088e-08
121875000.0    4.003391e-08
121906250.0    2.426393e-08
121937500.0    5.908356e-08
121968750.0    3.649057e-08
122000000.0    8.137433e-08
122031250.0    7.349265e-08
122062500.0    6.048329e-08
122093750.0    2.523376e-08
122125000.0    9.051634e-08
122156250.0    4.821315e-08
122187500.0    3.899564e-08
122218750.0    1.077175e-08
122250000.0    3.266121e-08
122281250.0    1.457529e-08
122312500.0    8.239312e-08
122343750.0    4.739004e-08
122375000.0    6.570658e-08
122406250.0    6.279175e-08
122437500.0    1.806328e-08
122468750.0    1.932046e-08
122500000.0    1.540558e-08
122531250.0    4.811e-08
122562500.0    3.627637e-08
122593750.0    8.347576e-08
122625000.0    2.283691e-08
122656250.0    3.95361e-08
122687500.0    1.820337e-08
122718750.0    3.087534e-08
122750000.0    2.644237e-08
122781250.0    5.223198e-08
122812500.0    3.290342e-08
122843750.0    9.204555e-08
122875000.0    3.629256e-09
122906250.0    3.662868e-08
122937500.0    2.8456e-08
122968750.0    1.328417e-08
123000000.0    3.238336e-08
123031250.0    3.52632e-08
123062500.0    4.120831e-08
123093750.0    6.874429e-08
123125000.0    3.572793e-08
123156250.0    2.353676e-09
123187500.0    1.73009e-08
123218750.0    3.893908e-08
123250000.0    8.423573e-08
123281250.0    7.920708e-08
123312500.0    2.826515e-08
123343750.0    4.661717e-08
123375000.0    4.022833e-08
123406250.0    5.011031e-08
123437500.0    6.363743e-08
123468750.0    5.630119e-08
123500000.0    1.123316e-07
123531250.0    3.075596e-08
123562500.0    4.934139e-08
123593750.0    4.049642e-08
123625000.0    1.502127e-08
123656250.0    3.330705e-08
123687500.0    4.357079e-08
123718750.0    1.610127e-08
123750000.0    4.230369e-08
123781250.0    3.737577e-08
123812500.0    2.385552e-08
123843750.0    2.685431e-09
123875000.0    4.852459e-08
123906250.0    1.860211e-08
123937500.0    1.730681e-08
123968750.0    2.070525e-08
124000000.0    8.345967e-08
124031250.0    3.800994e-08
124062500.0    1.857902e-08
124093750.0    9.022703e-09
124125000.0    5.383388e-08
124156250.0    2.29354e-08
124187500.0    6.040141e-08
124218750.0    2.393796e-08
124250000.0    1.982721e-08
124281250.0    3.592402e-08
124312500.0    4.104308e-08
124343750.0    2.334946e-08
124375000.0    4.857979e-08
124406250.0    4.065996e-08
124437500.0    2.78688e-08
124468750.0    7.35936e-08
124500000.0    4.395439e-08
124531250.0    4.15891e-08
124562500.0    1.728471e-08
124593750.0    2.210524e-08
124625000.0    2.6184e-08
124656250.0    2.721358e-08
124687500.0    3.680092e-08
124718750.0    4.206545e-08
124750000.0    4.857468e-08
124781250.0    2.988214e-08
124812500.0    4.37953e-08
124843750.0    2.28798e-08
124875000.0    4.00907e-08
124906250.0    2.899878e-08
124937500.0    9.30847e-08
124968750.0    7.560494e-08
125000000.0    1.447686e-08
