# AG4395A Measurement - Timestamp: Nov 01 2017 - 10:34:00
# Parameter File: SP_AG_R_Beatnote_95_to_125MHz.yml
#---------- Measurement Parameters ------------
# Start Frequency (Hz): 100000000.0
# Stop Frequency (Hz): 125000000.0
# Frequency Points: 801
# Measurement Format: NOISE
# Measuremed Input: R
#---------- Analyzer Settings ----------
# Number of Averages: 1
# Auto Bandwidth: On
# IF Bandwidth: 3000.0
# Input Attenuators (R,A,B): 0dB 20dB 20dB 
# Units: V/rtHz
#---------- Measurement Data ----------
# [Freq(Hz) Chan 1 ]
100000000.0    4.022719e-08
100031250.0    4.848219e-09
100062500.0    2.305823e-08
100093750.0    1.168905e-08
100125000.0    3.089504e-08
100156250.0    3.643067e-08
100187500.0    3.039873e-08
100218750.0    2.523764e-08
100250000.0    2.283141e-08
100281250.0    2.438168e-08
100312500.0    5.966734e-08
100343750.0    4.91609e-08
100375000.0    4.888769e-08
100406250.0    1.561287e-08
100437500.0    2.35525e-08
100468750.0    3.490925e-08
100500000.0    7.207769e-08
100531250.0    4.651652e-08
100562500.0    1.63078e-08
100593750.0    4.682895e-08
100625000.0    3.918393e-08
100656250.0    6.637358e-08
100687500.0    4.366621e-08
100718750.0    7.699754e-09
100750000.0    3.993564e-08
100781250.0    3.156504e-08
100812500.0    2.255369e-08
100843750.0    2.770158e-08
100875000.0    1.461512e-08
100906250.0    9.576055e-08
100937500.0    3.815027e-08
100968750.0    3.088791e-08
101000000.0    3.897039e-08
101031250.0    3.44726e-08
101062500.0    1.714982e-08
101093750.0    4.639855e-08
101125000.0    1.650473e-08
101156250.0    6.246309e-08
101187500.0    4.895697e-08
101218750.0    6.901934e-08
101250000.0    1.58661e-08
101281250.0    3.409063e-08
101312500.0    4.417329e-08
101343750.0    1.876014e-08
101375000.0    1.388171e-08
101406250.0    3.504184e-08
101437500.0    2.959279e-08
101468750.0    5.940378e-08
101500000.0    2.669452e-08
101531250.0    6.004101e-08
101562500.0    6.194085e-08
101593750.0    3.30104e-08
101625000.0    5.372418e-08
101656250.0    1.917398e-08
101687500.0    3.737788e-08
101718750.0    2.143151e-08
101750000.0    2.052372e-08
101781250.0    3.126447e-08
101812500.0    5.823841e-08
101843750.0    7.956055e-08
101875000.0    6.387501e-08
101906250.0    1.746729e-08
101937500.0    2.702545e-08
101968750.0    5.140939e-08
102000000.0    1.922469e-08
102031250.0    3.637409e-08
102062500.0    7.803705e-08
102093750.0    2.526535e-08
102125000.0    3.472507e-08
102156250.0    4.558117e-08
102187500.0    2.116133e-08
102218750.0    3.457682e-08
102250000.0    1.153093e-08
102281250.0    5.15635e-08
102312500.0    2.220383e-08
102343750.0    5.897274e-08
102375000.0    4.593693e-08
102406250.0    2.365587e-08
102437500.0    3.710248e-08
102468750.0    2.431263e-08
102500000.0    4.314511e-08
102531250.0    1.311068e-08
102562500.0    4.934277e-08
102593750.0    2.078893e-08
102625000.0    4.499073e-08
102656250.0    1.966877e-08
102687500.0    3.878034e-09
102718750.0    6.056565e-08
102750000.0    9.090459e-08
102781250.0    3.429559e-08
102812500.0    5.039288e-08
102843750.0    1.70762e-08
102875000.0    2.959107e-08
102906250.0    2.789545e-08
102937500.0    3.380833e-08
102968750.0    9.972041e-08
103000000.0    1.499815e-08
103031250.0    5.307573e-08
103062500.0    1.226459e-08
103093750.0    4.535677e-08
103125000.0    5.124441e-08
103156250.0    0.0
103187500.0    4.12212e-08
103218750.0    4.519161e-08
103250000.0    3.692587e-08
103281250.0    2.420394e-08
103312500.0    2.009029e-08
103343750.0    5.045678e-08
103375000.0    2.836206e-08
103406250.0    7.369684e-08
103437500.0    7.554561e-08
103468750.0    2.509177e-08
103500000.0    2.64392e-08
103531250.0    3.987367e-08
103562500.0    6.08612e-09
103593750.0    2.986939e-08
103625000.0    3.47375e-08
103656250.0    4.390411e-08
103687500.0    2.01781e-08
103718750.0    5.060576e-08
103750000.0    5.36166e-08
103781250.0    8.467624e-09
103812500.0    9.74768e-09
103843750.0    3.172971e-08
103875000.0    1.987874e-08
103906250.0    5.588976e-08
103937500.0    7.715738e-08
103968750.0    3.328112e-08
104000000.0    2.212641e-08
104031250.0    1.726325e-08
104062500.0    1.731248e-08
104093750.0    2.370566e-08
104125000.0    1.807483e-08
104156250.0    2.327162e-08
104187500.0    1.099658e-08
104218750.0    7.787063e-08
104250000.0    1.257583e-08
104281250.0    5.52299e-08
104312500.0    1.546835e-08
104343750.0    2.66758e-08
104375000.0    4.754483e-08
104406250.0    6.887297e-08
104437500.0    2.615079e-08
104468750.0    6.342729e-08
104500000.0    3.444191e-08
104531250.0    5.980745e-08
104562500.0    5.24815e-08
104593750.0    4.223482e-08
104625000.0    6.704128e-09
104656250.0    4.033008e-08
104687500.0    1.719792e-08
104718750.0    2.726415e-08
104750000.0    5.123519e-08
104781250.0    3.278871e-08
104812500.0    6.772397e-08
104843750.0    5.08645e-08
104875000.0    2.165751e-08
104906250.0    5.874541e-08
104937500.0    3.863286e-08
104968750.0    2.728916e-08
105000000.0    7.221524e-08
105031250.0    5.961916e-08
105062500.0    3.983723e-08
105093750.0    9.506645e-08
105125000.0    3.488888e-08
105156250.0    4.089026e-08
105187500.0    4.863297e-08
105218750.0    2.280203e-08
105250000.0    5.265662e-08
105281250.0    2.520997e-08
105312500.0    3.493583e-08
105343750.0    6.753477e-08
105375000.0    1.134096e-08
105406250.0    3.623948e-08
105437500.0    4.413451e-09
105468750.0    3.02929e-08
105500000.0    4.190247e-08
105531250.0    4.666127e-08
105562500.0    5.047066e-08
105593750.0    3.469113e-08
105625000.0    4.263573e-08
105656250.0    2.366157e-08
105687500.0    2.508725e-08
105718750.0    5.916724e-08
105750000.0    3.063476e-08
105781250.0    4.472209e-08
105812500.0    5.185947e-08
105843750.0    2.801775e-08
105875000.0    2.897809e-08
105906250.0    1.437659e-08
105937500.0    9.265185e-08
105968750.0    2.339463e-08
106000000.0    1.456448e-08
106031250.0    3.049395e-08
106062500.0    3.145666e-08
106093750.0    3.609419e-08
106125000.0    4.499677e-08
106156250.0    2.876091e-08
106187500.0    2.948325e-08
106218750.0    6.285725e-08
106250000.0    1.094039e-08
106281250.0    4.047104e-08
106312500.0    2.964784e-08
106343750.0    2.980288e-08
106375000.0    3.196186e-08
106406250.0    6.372507e-08
106437500.0    9.192145e-08
106468750.0    4.183334e-08
106500000.0    3.120838e-08
106531250.0    6.268931e-08
106562500.0    6.020636e-08
106593750.0    3.534741e-08
106625000.0    6.78579e-08
106656250.0    4.968017e-08
106687500.0    4.551966e-08
106718750.0    6.722142e-08
106750000.0    4.303944e-08
106781250.0    5.407483e-08
106812500.0    3.944503e-08
106843750.0    3.792784e-08
106875000.0    4.579241e-08
106906250.0    5.749735e-08
106937500.0    4.422666e-08
106968750.0    4.789079e-08
107000000.0    1.869659e-08
107031250.0    8.655474e-08
107062500.0    8.982069e-08
107093750.0    1.738235e-08
107125000.0    3.976267e-08
107156250.0    5.257947e-08
107187500.0    2.665883e-08
107218750.0    2.051343e-08
107250000.0    1.866798e-08
107281250.0    1.935495e-08
107312500.0    2.682735e-08
107343750.0    5.989511e-08
107375000.0    8.661547e-08
107406250.0    3.467283e-08
107437500.0    1.000692e-08
107468750.0    4.667073e-08
107500000.0    2.237949e-08
107531250.0    4.610493e-08
107562500.0    5.923659e-08
107593750.0    4.350076e-08
107625000.0    4.430778e-08
107656250.0    2.611763e-08
107687500.0    3.985901e-08
107718750.0    1.96829e-08
107750000.0    1.326896e-08
107781250.0    4.302241e-08
107812500.0    5.694439e-08
107843750.0    5.467204e-08
107875000.0    3.279416e-08
107906250.0    5.01806e-08
107937500.0    5.935456e-08
107968750.0    1.155307e-08
108000000.0    6.845447e-08
108031250.0    4.658221e-08
108062500.0    2.281372e-08
108093750.0    8.883364e-09
108125000.0    4.064238e-08
108156250.0    3.182202e-08
108187500.0    4.671371e-08
108218750.0    3.866643e-08
108250000.0    4.87975e-08
108281250.0    7.330542e-08
108312500.0    6.153341e-08
108343750.0    5.89393e-08
108375000.0    3.675766e-08
108406250.0    6.895159e-08
108437500.0    1.941063e-08
108468750.0    6.650006e-08
108500000.0    5.098744e-08
108531250.0    1.444796e-08
108562500.0    4.499252e-08
108593750.0    2.417069e-08
108625000.0    5.455252e-08
108656250.0    9.852623e-08
108687500.0    1.52101e-08
108718750.0    2.806406e-08
108750000.0    7.310121e-08
108781250.0    2.956901e-08
108812500.0    5.328151e-08
108843750.0    4.80394e-08
108875000.0    5.334181e-08
108906250.0    3.175774e-08
108937500.0    4.995732e-08
108968750.0    4.329141e-08
109000000.0    2.25892e-08
109031250.0    4.795924e-08
109062500.0    3.108891e-08
109093750.0    1.402569e-08
109125000.0    4.651491e-08
109156250.0    3.510588e-08
109187500.0    8.043887e-08
109218750.0    4.993166e-08
109250000.0    1.953907e-08
109281250.0    8.295319e-09
109312500.0    7.640777e-08
109343750.0    3.410978e-08
109375000.0    6.362976e-08
109406250.0    3.82827e-08
109437500.0    2.517966e-08
109468750.0    2.266811e-08
109500000.0    2.349531e-08
109531250.0    5.25686e-08
109562500.0    7.149291e-08
109593750.0    1.05255e-08
109625000.0    1.682794e-08
109656250.0    2.514917e-08
109687500.0    1.413746e-08
109718750.0    0.0
109750000.0    2.925903e-08
109781250.0    6.549339e-08
109812500.0    4.457149e-08
109843750.0    5.877523e-08
109875000.0    9.24589e-08
109906250.0    8.396055e-09
109937500.0    1.703733e-08
109968750.0    6.391713e-08
110000000.0    4.596451e-08
110031250.0    2.471637e-08
110062500.0    8.11982e-08
110093750.0    2.640967e-08
110125000.0    5.196848e-08
110156250.0    1.199917e-08
110187500.0    9.357873e-09
110218750.0    1.205431e-08
110250000.0    2.382526e-08
110281250.0    3.987993e-08
110312500.0    5.263344e-08
110343750.0    2.056308e-08
110375000.0    5.628092e-08
110406250.0    1.934242e-08
110437500.0    2.339735e-08
110468750.0    3.247776e-08
110500000.0    4.702266e-08
110531250.0    3.251066e-08
110562500.0    6.259451e-08
110593750.0    8.100168e-09
110625000.0    8.875423e-08
110656250.0    4.969176e-08
110687500.0    5.603944e-08
110718750.0    1.945016e-08
110750000.0    6.468211e-08
110781250.0    4.864247e-08
110812500.0    7.016311e-08
110843750.0    3.41923e-08
110875000.0    2.907555e-08
110906250.0    1.563097e-08
110937500.0    2.077869e-08
110968750.0    5.305224e-08
111000000.0    3.587138e-09
111031250.0    7.970679e-08
111062500.0    3.523173e-08
111093750.0    4.95953e-08
111125000.0    4.201895e-08
111156250.0    5.339406e-08
111187500.0    4.572028e-08
111218750.0    3.926715e-08
111250000.0    4.438482e-08
111281250.0    4.222603e-08
111312500.0    7.287063e-08
111343750.0    4.570925e-08
111375000.0    8.629191e-09
111406250.0    3.291075e-08
111437500.0    4.234483e-08
111468750.0    5.410787e-08
111500000.0    1.099562e-08
111531250.0    5.409005e-08
111562500.0    7.413493e-09
111593750.0    7.072997e-08
111625000.0    1.588589e-08
111656250.0    1.599328e-08
111687500.0    4.125394e-08
111718750.0    2.937072e-08
111750000.0    6.498988e-08
111781250.0    1.527508e-08
111812500.0    3.892572e-08
111843750.0    1.459595e-08
111875000.0    1.243089e-08
111906250.0    1.359361e-08
111937500.0    3.998805e-08
111968750.0    4.31545e-08
112000000.0    5.199496e-08
112031250.0    1.983981e-08
112062500.0    1.915273e-08
112093750.0    4.961377e-08
112125000.0    2.842152e-08
112156250.0    1.110474e-07
112187500.0    2.489073e-08
112218750.0    5.846185e-08
112250000.0    6.448666e-08
112281250.0    3.374611e-08
112312500.0    1.828185e-08
112343750.0    4.866799e-08
112375000.0    1.714944e-08
112406250.0    6.040527e-08
112437500.0    7.422169e-08
112468750.0    2.433824e-08
112500000.0    5.235481e-08
112531250.0    1.727017e-08
112562500.0    3.709989e-08
112593750.0    5.533844e-08
112625000.0    4.525975e-08
112656250.0    5.313098e-08
112687500.0    1.853173e-08
112718750.0    3.296879e-08
112750000.0    5.129623e-08
112781250.0    3.2243e-08
112812500.0    2.491699e-08
112843750.0    5.061457e-08
112875000.0    1.47424e-08
112906250.0    4.748397e-08
112937500.0    1.504308e-08
112968750.0    3.263003e-08
113000000.0    1.867604e-08
113031250.0    7.292402e-08
113062500.0    5.485552e-08
113093750.0    4.106252e-08
113125000.0    9.567428e-09
113156250.0    5.786228e-08
113187500.0    6.186361e-08
113218750.0    2.764607e-08
113250000.0    5.447978e-08
113281250.0    6.138747e-08
113312500.0    3.063044e-08
113343750.0    4.915405e-08
113375000.0    3.356476e-08
113406250.0    4.44325e-08
113437500.0    3.079964e-08
113468750.0    3.109921e-08
113500000.0    7.055357e-09
113531250.0    3.632164e-08
113562500.0    1.036932e-07
113593750.0    1.158623e-08
113625000.0    4.343104e-08
113656250.0    3.83715e-08
113687500.0    3.617214e-08
113718750.0    8.696118e-09
113750000.0    7.941099e-08
113781250.0    5.138372e-08
113812500.0    1.752513e-08
113843750.0    2.194125e-09
113875000.0    1.930531e-08
113906250.0    4.722273e-08
113937500.0    1.561555e-08
113968750.0    1.729756e-08
114000000.0    2.253798e-08
114031250.0    3.09065e-08
114062500.0    2.907553e-08
114093750.0    2.479841e-08
114125000.0    2.090387e-08
114156250.0    3.030399e-08
114187500.0    9.172945e-09
114218750.0    2.540474e-08
114250000.0    1.610846e-08
114281250.0    5.971825e-08
114312500.0    4.580874e-08
114343750.0    9.138849e-08
114375000.0    3.466216e-08
114406250.0    3.954706e-08
114437500.0    6.135067e-09
114468750.0    1.389995e-08
114500000.0    5.598379e-08
114531250.0    4.150394e-08
114562500.0    2.68363e-08
114593750.0    5.233576e-08
114625000.0    2.845227e-08
114656250.0    1.718761e-08
114687500.0    6.091327e-08
114718750.0    2.812077e-08
114750000.0    2.507745e-08
114781250.0    2.550663e-08
114812500.0    3.828806e-08
114843750.0    3.435039e-08
114875000.0    4.253405e-08
114906250.0    2.821325e-09
114937500.0    2.74322e-09
114968750.0    3.782274e-08
115000000.0    3.697555e-08
115031250.0    1.123122e-08
115062500.0    4.307784e-08
115093750.0    5.192043e-08
115125000.0    2.526215e-06
115156250.0    3.416391e-08
115187500.0    9.317804e-08
115218750.0    6.246533e-08
115250000.0    5.009411e-08
115281250.0    6.687586e-08
115312500.0    9.4192e-08
115343750.0    2.44156e-08
115375000.0    4.84906e-08
115406250.0    3.534936e-08
115437500.0    5.180324e-08
115468750.0    4.490392e-08
115500000.0    9.350856e-09
115531250.0    1.618962e-08
115562500.0    4.280228e-08
115593750.0    3.492196e-08
115625000.0    2.916579e-08
115656250.0    4.685405e-08
115687500.0    2.04954e-08
115718750.0    1.846067e-08
115750000.0    1.766269e-08
115781250.0    3.201486e-08
115812500.0    2.630085e-08
115843750.0    7.944769e-08
115875000.0    3.17447e-08
115906250.0    3.306458e-08
115937500.0    2.009955e-08
115968750.0    4.115298e-08
116000000.0    8.005279e-08
116031250.0    3.534933e-08
116062500.0    7.177425e-08
116093750.0    2.414493e-08
116125000.0    2.471907e-08
116156250.0    1.606024e-08
116187500.0    2.199091e-08
116218750.0    8.16225e-08
116250000.0    2.503556e-08
116281250.0    4.133921e-08
116312500.0    7.806321e-08
116343750.0    3.889362e-09
116375000.0    7.04046e-08
116406250.0    6.895738e-08
116437500.0    6.519145e-08
116468750.0    3.165314e-08
116500000.0    9.387457e-08
116531250.0    5.196953e-08
116562500.0    3.465232e-08
116593750.0    5.720068e-08
116625000.0    2.024428e-08
116656250.0    4.0017e-08
116687500.0    9.441456e-08
116718750.0    5.817672e-08
116750000.0    2.387682e-08
116781250.0    3.69921e-08
116812500.0    3.517432e-08
116843750.0    2.442971e-08
116875000.0    5.898932e-08
116906250.0    8.603221e-08
116937500.0    2.692111e-08
116968750.0    2.605854e-08
117000000.0    2.708489e-08
117031250.0    2.535216e-08
117062500.0    5.723228e-08
117093750.0    2.792284e-08
117125000.0    3.39651e-08
117156250.0    7.188621e-08
117187500.0    1.44941e-08
117218750.0    4.926235e-08
117250000.0    3.896051e-08
117281250.0    1.913737e-08
117312500.0    5.357613e-08
117343750.0    8.506436e-08
117375000.0    6.681788e-08
117406250.0    1.620682e-08
117437500.0    4.709027e-08
117468750.0    6.202511e-08
117500000.0    2.566206e-08
117531250.0    4.456682e-08
117562500.0    7.973129e-09
117593750.0    3.586283e-08
117625000.0    2.118665e-08
117656250.0    4.162252e-08
117687500.0    4.126294e-08
117718750.0    2.638019e-08
117750000.0    2.974923e-08
117781250.0    3.9689e-08
117812500.0    3.074241e-08
117843750.0    2.261165e-08
117875000.0    1.475088e-08
117906250.0    3.839969e-08
117937500.0    3.013428e-09
117968750.0    1.384571e-08
118000000.0    1.848717e-08
118031250.0    6.983257e-08
118062500.0    3.877527e-08
118093750.0    2.931088e-08
118125000.0    2.729424e-08
118156250.0    1.988214e-08
118187500.0    2.109344e-08
118218750.0    3.692936e-08
118250000.0    5.156194e-08
118281250.0    4.152806e-08
118312500.0    8.788068e-09
118343750.0    5.930922e-08
118375000.0    4.087114e-08
118406250.0    1.35643e-08
118437500.0    1.08935e-08
118468750.0    2.969302e-08
118500000.0    5.112364e-08
118531250.0    4.745542e-08
118562500.0    7.313028e-08
118593750.0    6.721805e-08
118625000.0    3.340786e-08
118656250.0    3.963147e-08
118687500.0    5.699093e-08
118718750.0    2.485175e-08
118750000.0    5.89132e-08
118781250.0    1.623176e-08
118812500.0    2.671263e-08
118843750.0    4.509405e-08
118875000.0    5.394546e-08
118906250.0    8.730337e-08
118937500.0    5.150748e-08
118968750.0    2.432621e-08
119000000.0    1.257015e-08
119031250.0    2.684808e-08
119062500.0    8.642106e-08
119093750.0    3.804328e-08
119125000.0    2.387142e-08
119156250.0    6.36193e-08
119187500.0    4.28152e-08
119218750.0    2.4466e-08
119250000.0    4.216416e-08
119281250.0    3.075158e-08
119312500.0    5.115184e-08
119343750.0    6.333866e-09
119375000.0    5.254194e-08
119406250.0    5.21509e-08
119437500.0    1.54156e-08
119468750.0    8.916025e-09
119500000.0    4.800383e-08
119531250.0    1.227284e-08
119562500.0    6.362048e-08
119593750.0    6.555559e-08
119625000.0    4.567723e-09
119656250.0    4.557259e-08
119687500.0    2.340392e-08
119718750.0    3.488552e-08
119750000.0    3.21803e-08
119781250.0    1.234836e-08
119812500.0    4.906981e-08
119843750.0    7.495313e-08
119875000.0    1.740713e-08
119906250.0    4.035466e-08
119937500.0    4.192287e-08
119968750.0    1.075338e-07
120000000.0    7.64398e-09
120031250.0    4.472143e-08
120062500.0    1.435524e-08
120093750.0    8.778808e-08
120125000.0    2.312901e-08
120156250.0    5.146987e-08
120187500.0    6.067702e-08
120218750.0    3.882021e-08
120250000.0    6.708861e-08
120281250.0    7.444654e-08
120312500.0    3.650061e-08
120343750.0    5.957369e-09
120375000.0    3.963854e-08
120406250.0    2.99185e-08
120437500.0    2.302332e-08
120468750.0    2.964462e-08
120500000.0    9.232133e-08
120531250.0    3.36454e-08
120562500.0    9.927843e-09
120593750.0    3.381204e-08
120625000.0    1.02558e-08
120656250.0    7.997524e-08
120687500.0    3.412269e-08
120718750.0    2.307924e-08
120750000.0    1.019053e-08
120781250.0    1.17913e-08
120812500.0    3.051922e-08
120843750.0    2.873698e-08
120875000.0    6.974422e-08
120906250.0    4.054748e-08
120937500.0    3.663946e-08
120968750.0    1.570826e-08
121000000.0    2.231137e-08
121031250.0    3.475097e-08
121062500.0    2.910524e-08
121093750.0    3.127053e-08
121125000.0    3.434505e-08
121156250.0    3.6336e-08
121187500.0    4.122169e-08
121218750.0    5.443942e-08
121250000.0    3.578255e-08
121281250.0    9.686354e-09
121312500.0    4.017548e-08
121343750.0    6.906927e-08
121375000.0    7.411829e-09
121406250.0    4.702832e-08
121437500.0    1.753591e-08
121468750.0    1.963893e-08
121500000.0    9.169158e-09
121531250.0    4.145268e-08
121562500.0    2.754321e-08
121593750.0    3.12644e-08
121625000.0    1.668762e-08
121656250.0    3.799022e-08
121687500.0    3.691499e-08
121718750.0    3.190716e-08
121750000.0    1.980236e-08
121781250.0    7.881573e-08
121812500.0    7.554922e-08
121843750.0    5.67614e-08
121875000.0    1.303462e-08
121906250.0    2.477732e-08
121937500.0    3.372186e-08
121968750.0    2.226513e-08
122000000.0    6.660353e-08
122031250.0    2.360947e-08
122062500.0    7.96583e-08
122093750.0    4.75317e-08
122125000.0    4.373229e-08
122156250.0    2.751967e-08
122187500.0    4.126193e-08
122218750.0    4.018815e-08
122250000.0    1.105249e-08
122281250.0    7.586623e-08
122312500.0    2.117102e-08
122343750.0    3.410367e-08
122375000.0    7.446756e-08
122406250.0    6.100873e-08
122437500.0    4.298894e-08
122468750.0    6.45916e-08
122500000.0    5.960753e-09
122531250.0    2.404074e-08
122562500.0    1.50959e-08
122593750.0    3.745111e-08
122625000.0    3.635644e-08
122656250.0    3.624774e-08
122687500.0    3.339285e-08
122718750.0    4.683728e-08
122750000.0    7.796879e-08
122781250.0    4.064717e-08
122812500.0    2.723563e-08
122843750.0    1.735989e-08
122875000.0    7.159652e-08
122906250.0    9.507881e-09
122937500.0    1.039505e-08
122968750.0    2.136019e-08
123000000.0    1.381687e-08
123031250.0    5.887142e-09
123062500.0    7.445215e-08
123093750.0    2.472888e-08
123125000.0    4.008991e-08
123156250.0    4.506287e-08
123187500.0    6.47713e-09
123218750.0    4.211166e-08
123250000.0    5.388882e-08
123281250.0    4.760625e-08
123312500.0    5.18627e-08
123343750.0    8.315403e-09
123375000.0    7.049439e-08
123406250.0    2.602532e-08
123437500.0    2.926136e-08
123468750.0    5.222663e-08
123500000.0    7.520895e-08
123531250.0    3.535154e-08
123562500.0    6.600316e-08
123593750.0    9.567214e-08
123625000.0    4.865564e-08
123656250.0    2.636218e-08
123687500.0    4.948813e-08
123718750.0    6.040177e-08
123750000.0    2.645866e-08
123781250.0    5.292567e-08
123812500.0    2.44352e-08
123843750.0    4.132991e-08
123875000.0    3.307042e-08
123906250.0    4.705901e-08
123937500.0    4.131612e-08
123968750.0    2.551434e-08
124000000.0    6.412599e-08
124031250.0    2.789478e-08
124062500.0    4.545692e-08
124093750.0    9.750875e-08
124125000.0    1.226053e-08
124156250.0    2.513872e-08
124187500.0    2.566362e-08
124218750.0    3.363692e-08
124250000.0    2.134881e-08
124281250.0    4.711273e-08
124312500.0    1.751505e-08
124343750.0    3.879079e-08
124375000.0    2.316577e-08
124406250.0    6.604684e-08
124437500.0    3.02582e-08
124468750.0    3.815874e-08
124500000.0    8.149003e-08
124531250.0    8.803901e-09
124562500.0    4.386992e-08
124593750.0    3.898982e-08
124625000.0    2.849529e-08
124656250.0    2.653023e-08
124687500.0    6.485678e-08
124718750.0    4.29579e-08
124750000.0    7.419249e-08
124781250.0    2.52571e-08
124812500.0    3.682166e-08
124843750.0    1.080041e-07
124875000.0    2.919397e-08
124906250.0    1.587009e-08
124937500.0    1.676258e-08
124968750.0    4.951815e-08
125000000.0    1.514049e-08
