# North DC Val: 1.13970909 VoltsSouth DC Val: 0.73221501 Volts
# SR785 Measurement - Timestamp: Apr 20 2020 - 17:22:20
# Parameter File: /home/controls/Git/cit_ctnlab/ctn_scripts/TransRINSpecShort.yml
#---------- Measurement Setup ------------
# Start Frequency (Hz): 0.000000
# Frequency Span (Hz): 102400.000000
# Frequency Resolution: 800
# Number of Averages: 100
# Averaging Mode: RMS
# Window function: Hanning
#---------- Measurement Parameters ----------
# Measurement Group:  "FFT" "FFT"
# Measurements:  "FFT 1" "FFT 2"
# View:  "Log Magnitude" "Log Magnitude"
# Unit:  "Vrms/rtHz" "Vrms/rtHz"
#---------- Input Parameters ----------
# Input Source: Analog
# Input Mode: Single ended, Single ended
# Input Grounding: Float, Float
# Input Coupling: AC, AC
# Input Range: -36.0dBVpk, -36.0dBVpk
# Auto Range: Off, Off
# Auto Range Mode: Tracking, Tracking
# Anti-Aliasing Filter: On, On
#---------- Source Parameters ----------
# Source Type: Sine
# Source Amplitude: 500.0mVpk
# Source On: 0

#---------- Measurement Data ----------
# [Freq(Hz) Display 0(Vrms/rtHz) Display 1(Vrms/rtHz) ]
+0.0000000e+000    +3.0934493e-004    +4.5455363e-005
+1.2800000e+002    +1.5480093e-004    +2.2733564e-005
+2.5600000e+002    +1.5017729e-006    +8.3898968e-008
+3.8400000e+002    +6.6735515e-007    +4.0836966e-008
+5.1200000e+002    +8.4002937e-007    +3.3005922e-008
+6.4000000e+002    +6.1192657e-007    +3.6784733e-008
+7.6800000e+002    +2.6612523e-007    +4.0856698e-008
+8.9600000e+002    +2.8229621e-007    +5.0349858e-008
+1.0240000e+003    +1.8719163e-007    +6.1016877e-008
+1.1520000e+003    +1.1755574e-007    +7.0884163e-008
+1.2800000e+003    +7.4255723e-008    +8.0734949e-008
+1.4080000e+003    +6.4077909e-008    +8.3202877e-008
+1.5360000e+003    +6.8331723e-008    +7.8731013e-008
+1.6640000e+003    +6.4821549e-008    +8.2924537e-008
+1.7920000e+003    +7.1801963e-008    +8.2189956e-008
+1.9200000e+003    +8.2202504e-008    +6.9594982e-008
+2.0480000e+003    +7.4576747e-008    +7.2754091e-008
+2.1760000e+003    +7.4254416e-008    +7.9085709e-008
+2.3040000e+003    +7.2803871e-008    +8.1153900e-008
+2.4320000e+003    +7.9414789e-008    +8.7453316e-008
+2.5600000e+003    +8.3223256e-008    +7.6700815e-008
+2.6880000e+003    +8.4245393e-008    +8.0977131e-008
+2.8160000e+003    +8.8996956e-008    +8.1510649e-008
+2.9440000e+003    +9.3409341e-008    +7.6233754e-008
+3.0720000e+003    +9.3994323e-008    +8.0038397e-008
+3.2000000e+003    +9.8011753e-008    +7.9635001e-008
+3.3280000e+003    +9.8932702e-008    +7.7349888e-008
+3.4560000e+003    +1.0896709e-007    +7.4329868e-008
+3.5840000e+003    +1.0628736e-007    +7.6741415e-008
+3.7120000e+003    +1.0680736e-007    +7.8909629e-008
+3.8400000e+003    +1.1423993e-007    +7.8939529e-008
+3.9680000e+003    +1.1476027e-007    +7.6302172e-008
+4.0960000e+003    +1.1158664e-007    +7.8770007e-008
+4.2240000e+003    +1.1661574e-007    +8.1168693e-008
+4.3520000e+003    +1.2638111e-007    +7.5427813e-008
+4.4800000e+003    +1.2787896e-007    +7.5825554e-008
+4.6080000e+003    +1.2621804e-007    +7.5152457e-008
+4.7360000e+003    +1.2725066e-007    +7.9323812e-008
+4.8640000e+003    +1.3293274e-007    +8.6977870e-008
+4.9920000e+003    +1.3554839e-007    +8.2182289e-008
+5.1200000e+003    +1.3425712e-007    +8.6233896e-008
+5.2480000e+003    +1.4295301e-007    +9.0049660e-008
+5.3760000e+003    +1.4544786e-007    +8.3392564e-008
+5.5040000e+003    +1.4369530e-007    +7.8599037e-008
+5.6320000e+003    +1.4717331e-007    +8.1720700e-008
+5.7600000e+003    +1.5427865e-007    +8.1576452e-008
+5.8880000e+003    +1.6080385e-007    +8.9142183e-008
+6.0160000e+003    +1.5395783e-007    +8.7395719e-008
+6.1440000e+003    +1.5391591e-007    +8.0229235e-008
+6.2720000e+003    +1.5778016e-007    +8.2562231e-008
+6.4000000e+003    +1.4545840e-007    +8.6517936e-008
+6.5280000e+003    +1.5880453e-007    +8.3087492e-008
+6.6560000e+003    +1.7645560e-007    +8.2276728e-008
+6.7840000e+003    +1.7379048e-007    +8.7660197e-008
+6.9120000e+003    +1.6900481e-007    +9.1943292e-008
+7.0400000e+003    +1.7459203e-007    +8.9679070e-008
+7.1680000e+003    +1.7304392e-007    +9.1058212e-008
+7.2960000e+003    +1.7386073e-007    +8.6358398e-008
+7.4240000e+003    +1.8561165e-007    +8.5688747e-008
+7.5520000e+003    +1.8675210e-007    +9.7389695e-008
+7.6800000e+003    +1.7679633e-007    +1.0282174e-007
+7.8080000e+003    +1.7809934e-007    +9.9994509e-008
+7.9360000e+003    +1.8356390e-007    +1.0792737e-007
+8.0640000e+003    +1.8522525e-007    +1.0849743e-007
+8.1920000e+003    +1.8827087e-007    +1.1231640e-007
+8.3200000e+003    +1.9460545e-007    +1.0815834e-007
+8.4480000e+003    +1.9353961e-007    +1.1102643e-007
+8.5760000e+003    +1.8733370e-007    +1.1326588e-007
+8.7040000e+003    +1.9178474e-007    +1.1861344e-007
+8.8320000e+003    +1.9548219e-007    +1.0234396e-007
+8.9600000e+003    +2.0570634e-007    +1.1220695e-007
+9.0880000e+003    +2.0154403e-007    +1.2394167e-007
+9.2160000e+003    +2.0834258e-007    +1.1177179e-007
+9.3440000e+003    +2.1020396e-007    +1.1657094e-007
+9.4720000e+003    +2.0915945e-007    +1.2621985e-007
+9.6000000e+003    +2.1177064e-007    +1.2083146e-007
+9.7280000e+003    +2.0383106e-007    +1.2759048e-007
+9.8560000e+003    +2.0533491e-007    +1.3292150e-007
+9.9840000e+003    +2.1670829e-007    +1.1776114e-007
+1.0112000e+004    +2.1605423e-007    +1.2697529e-007
+1.0240000e+004    +2.0379885e-007    +1.3519153e-007
+1.0368000e+004    +1.9962799e-007    +1.3644251e-007
+1.0496000e+004    +2.1258694e-007    +1.4755597e-007
+1.0624000e+004    +2.3525436e-007    +1.4315830e-007
+1.0752000e+004    +2.2836107e-007    +1.5177426e-007
+1.0880000e+004    +2.1739844e-007    +1.5418806e-007
+1.1008000e+004    +2.1198559e-007    +1.5051040e-007
+1.1136000e+004    +2.3741195e-007    +1.4996803e-007
+1.1264000e+004    +2.2613473e-007    +1.5158956e-007
+1.1392000e+004    +2.1924876e-007    +1.5650221e-007
+1.1520000e+004    +2.1368892e-007    +1.5452244e-007
+1.1648000e+004    +2.1999145e-007    +1.6076042e-007
+1.1776000e+004    +2.2977227e-007    +1.6015262e-007
+1.1904000e+004    +2.3524248e-007    +1.6559167e-007
+1.2032000e+004    +2.4089476e-007    +1.7769717e-007
+1.2160000e+004    +2.3933720e-007    +1.7752420e-007
+1.2288000e+004    +2.5146824e-007    +1.8802835e-007
+1.2416000e+004    +2.5025741e-007    +1.7949394e-007
+1.2544000e+004    +2.4494204e-007    +1.7450886e-007
+1.2672000e+004    +2.3860542e-007    +1.7920506e-007
+1.2800000e+004    +2.4696632e-007    +1.7199491e-007
+1.2928000e+004    +2.7271290e-007    +1.7347421e-007
+1.3056000e+004    +2.4899856e-007    +1.8679988e-007
+1.3184000e+004    +2.2498980e-007    +1.9229120e-007
+1.3312000e+004    +2.5238600e-007    +1.8793361e-007
+1.3440000e+004    +2.6907949e-007    +2.0328618e-007
+1.3568000e+004    +2.6075813e-007    +1.9783008e-007
+1.3696000e+004    +2.6080164e-007    +1.9151076e-007
+1.3824000e+004    +2.5070239e-007    +1.9591235e-007
+1.3952000e+004    +2.3963696e-007    +2.0393963e-007
+1.4080000e+004    +2.5359572e-007    +1.9798391e-007
+1.4208000e+004    +2.5374638e-007    +2.0144846e-007
+1.4336000e+004    +2.4603395e-007    +2.0154403e-007
+1.4464000e+004    +2.3944523e-007    +1.9832071e-007
+1.4592000e+004    +2.3487780e-007    +2.1035426e-007
+1.4720000e+004    +2.3938082e-007    +2.1869363e-007
+1.4848000e+004    +2.5686120e-007    +2.3463321e-007
+1.4976000e+004    +2.6638364e-007    +2.1700281e-007
+1.5104000e+004    +2.5631269e-007    +2.2030277e-007
+1.5232000e+004    +2.6633538e-007    +2.2328561e-007
+1.5360000e+004    +2.5434497e-007    +2.2509185e-007
+1.5488000e+004    +2.5002643e-007    +2.3106556e-007
+1.5616000e+004    +2.4948019e-007    +2.1648854e-007
+1.5744000e+004    +2.4842839e-007    +2.1661621e-007
+1.5872000e+004    +2.4403795e-007    +2.2497474e-007
+1.6000000e+004    +2.3874799e-007    +2.3814347e-007
+1.6128000e+004    +2.2399794e-007    +2.3522801e-007
+1.6256000e+004    +2.2666593e-007    +2.3224241e-007
+1.6384000e+004    +2.2426619e-007    +2.5955384e-007
+1.6512000e+004    +2.2454485e-007    +2.4975674e-007
+1.6640000e+004    +2.3034161e-007    +2.5736423e-007
+1.6768000e+004    +2.2766160e-007    +2.3640271e-007
+1.6896000e+004    +2.2331086e-007    +2.4534634e-007
+1.7024000e+004    +2.1980748e-007    +2.5183959e-007
+1.7152000e+004    +2.2513140e-007    +2.5993029e-007
+1.7280000e+004    +2.0932509e-007    +2.6957807e-007
+1.7408000e+004    +2.0213484e-007    +2.8021054e-007
+1.7536000e+004    +2.0643988e-007    +2.5894073e-007
+1.7664000e+004    +2.0490454e-007    +2.5921523e-007
+1.7792000e+004    +2.0692733e-007    +2.7145759e-007
+1.7920000e+004    +1.8631259e-007    +2.8353966e-007
+1.8048000e+004    +1.9444654e-007    +2.7954772e-007
+1.8176000e+004    +2.0027608e-007    +2.8665676e-007
+1.8304000e+004    +1.9293938e-007    +2.8913874e-007
+1.8432000e+004    +1.9245573e-007    +2.9606619e-007
+1.8560000e+004    +1.9913413e-007    +2.7917289e-007
+1.8688000e+004    +2.0924789e-007    +2.8162009e-007
+1.8816000e+004    +1.9364271e-007    +2.8086015e-007
+1.8944000e+004    +1.6822338e-007    +2.6572405e-007
+1.9072000e+004    +1.7625229e-007    +2.9688781e-007
+1.9200000e+004    +1.7954932e-007    +2.8412711e-007
+1.9328000e+004    +1.7142987e-007    +2.9991972e-007
+1.9456000e+004    +1.7673597e-007    +3.1151794e-007
+1.9584000e+004    +1.7433726e-007    +3.0072857e-007
+1.9712000e+004    +1.5701632e-007    +2.8000633e-007
+1.9840000e+004    +1.5263120e-007    +2.7782258e-007
+1.9968000e+004    +1.5698494e-007    +2.8407564e-007
+2.0096000e+004    +1.5687105e-007    +3.0114259e-007
+2.0224000e+004    +1.5709668e-007    +3.1616491e-007
+2.0352000e+004    +1.5632533e-007    +3.4362378e-007
+2.0480000e+004    +1.4939792e-007    +3.0131488e-007
+2.0608000e+004    +1.5112143e-007    +3.0895202e-007
+2.0736000e+004    +1.6116726e-007    +2.9692984e-007
+2.0864000e+004    +1.6502068e-007    +3.0631810e-007
+2.0992000e+004    +1.6303228e-007    +3.2405106e-007
+2.1120000e+004    +1.5739916e-007    +3.2855186e-007
+2.1248000e+004    +1.4933494e-007    +3.1613681e-007
+2.1376000e+004    +1.5873376e-007    +3.5021782e-007
+2.1504000e+004    +1.5985169e-007    +3.6044500e-007
+2.1632000e+004    +1.6163138e-007    +3.3808138e-007
+2.1760000e+004    +1.5743736e-007    +3.5624927e-007
+2.1888000e+004    +1.5630215e-007    +3.2957615e-007
+2.2016000e+004    +1.5568078e-007    +3.4385135e-007
+2.2144000e+004    +1.5030200e-007    +3.3231080e-007
+2.2272000e+004    +1.6177056e-007    +3.4593864e-007
+2.2400000e+004    +1.6319490e-007    +3.6433912e-007
+2.2528000e+004    +1.5660035e-007    +3.4686133e-007
+2.2656000e+004    +1.6495093e-007    +3.7255211e-007
+2.2784000e+004    +1.6542994e-007    +3.7575347e-007
+2.2912000e+004    +1.6386173e-007    +3.4291824e-007
+2.3040000e+004    +1.6722343e-007    +3.4813911e-007
+2.3168000e+004    +1.7132902e-007    +3.6853945e-007
+2.3296000e+004    +1.7878997e-007    +3.4470111e-007
+2.3424000e+004    +1.8126070e-007    +3.5975427e-007
+2.3552000e+004    +1.7077367e-007    +3.6849616e-007
+2.3680000e+004    +1.7342431e-007    +3.8814503e-007
+2.3808000e+004    +1.8145603e-007    +3.8066676e-007
+2.3936000e+004    +1.8250302e-007    +3.5934056e-007
+2.4064000e+004    +1.8013380e-007    +3.3837625e-007
+2.4192000e+004    +1.7367756e-007    +3.8862731e-007
+2.4320000e+004    +1.7866243e-007    +3.9092674e-007
+2.4448000e+004    +1.8477778e-007    +3.9701627e-007
+2.4576000e+004    +1.7593501e-007    +3.8346306e-007
+2.4704000e+004    +1.8522464e-007    +3.8360119e-007
+2.4832000e+004    +1.7986483e-007    +3.8723749e-007
+2.4960000e+004    +1.8301229e-007    +3.7062151e-007
+2.5088000e+004    +1.8710676e-007    +3.5913428e-007
+2.5216000e+004    +1.9008749e-007    +3.6928270e-007
+2.5344000e+004    +1.8469724e-007    +3.7437312e-007
+2.5472000e+004    +1.8964680e-007    +3.7839069e-007
+2.5600000e+004    +1.8919840e-007    +3.6924459e-007
+2.5728000e+004    +1.8646219e-007    +4.0604075e-007
+2.5856000e+004    +1.9199541e-007    +3.9770165e-007
+2.5984000e+004    +1.9986837e-007    +3.6549383e-007
+2.6112000e+004    +2.0744142e-007    +4.0427827e-007
+2.6240000e+004    +2.1602885e-007    +4.1209097e-007
+2.6368000e+004    +2.1146302e-007    +3.8729746e-007
+2.6496000e+004    +2.1728295e-007    +3.9868931e-007
+2.6624000e+004    +2.1528820e-007    +4.0357975e-007
+2.6752000e+004    +2.1314038e-007    +4.2626360e-007
+2.6880000e+004    +2.1515042e-007    +4.5515344e-007
+2.7008000e+004    +2.1618332e-007    +4.5592418e-007
+2.7136000e+004    +2.1610286e-007    +4.3678753e-007
+2.7264000e+004    +2.1952938e-007    +4.4438457e-007
+2.7392000e+004    +2.2423541e-007    +4.4342588e-007
+2.7520000e+004    +2.2393303e-007    +3.9214936e-007
+2.7648000e+004    +2.2923479e-007    +4.0947594e-007
+2.7776000e+004    +2.2842201e-007    +4.3494410e-007
+2.7904000e+004    +2.2733389e-007    +4.5381063e-007
+2.8032000e+004    +2.4339948e-007    +4.3468728e-007
+2.8160000e+004    +2.7043038e-007    +4.4798279e-007
+2.8288000e+004    +2.5639767e-007    +4.2697511e-007
+2.8416000e+004    +2.3767407e-007    +4.1180692e-007
+2.8544000e+004    +4.9575459e-007    +4.2931094e-007
+2.8672000e+004    +1.5011630e-006    +4.2319141e-007
+2.8800000e+004    +1.2017456e-006    +4.5122604e-007
+2.8928000e+004    +2.9002902e-007    +4.6379498e-007
+2.9056000e+004    +2.4821625e-007    +4.7400837e-007
+2.9184000e+004    +2.8127985e-007    +4.3031093e-007
+2.9312000e+004    +2.6959435e-007    +4.4317957e-007
+2.9440000e+004    +2.6009332e-007    +4.5152487e-007
+2.9568000e+004    +2.5679182e-007    +4.5660298e-007
+2.9696000e+004    +2.6671464e-007    +4.8054289e-007
+2.9824000e+004    +2.6850904e-007    +4.8921726e-007
+2.9952000e+004    +2.6023756e-007    +4.4432113e-007
+3.0080000e+004    +2.6596922e-007    +4.6524497e-007
+3.0208000e+004    +2.7173581e-007    +4.7906576e-007
+3.0336000e+004    +2.7097846e-007    +4.4562609e-007
+3.0464000e+004    +2.8218560e-007    +4.4213076e-007
+3.0592000e+004    +2.7409706e-007    +5.0568303e-007
+3.0720000e+004    +2.8301653e-007    +4.9411238e-007
+3.0848000e+004    +3.0160251e-007    +4.8245613e-007
+3.0976000e+004    +2.9569065e-007    +5.1284115e-007
+3.1104000e+004    +2.9054343e-007    +5.3927062e-007
+3.1232000e+004    +2.8211031e-007    +5.0842550e-007
+3.1360000e+004    +3.0184037e-007    +4.9158530e-007
+3.1488000e+004    +3.0321419e-007    +5.1074852e-007
+3.1616000e+004    +2.9181905e-007    +4.8949505e-007
+3.1744000e+004    +2.9518657e-007    +5.1461399e-007
+3.1872000e+004    +3.0037944e-007    +5.3570028e-007
+3.2000000e+004    +3.0280432e-007    +5.0624413e-007
+3.2128000e+004    +3.0808147e-007    +4.9055654e-007
+3.2256000e+004    +3.1689788e-007    +5.3391403e-007
+3.2384000e+004    +3.2197846e-007    +5.7054694e-007
+3.2512000e+004    +3.3133003e-007    +5.5207335e-007
+3.2640000e+004    +3.2013310e-007    +5.4293508e-007
+3.2768000e+004    +3.1351118e-007    +5.4186785e-007
+3.2896000e+004    +3.4128956e-007    +5.5383759e-007
+3.3024000e+004    +3.4206462e-007    +5.7987359e-007
+3.3152000e+004    +3.3510125e-007    +5.6001170e-007
+3.3280000e+004    +3.3355073e-007    +5.1330306e-007
+3.3408000e+004    +3.4177930e-007    +5.2909320e-007
+3.3536000e+004    +3.5931018e-007    +5.4206305e-007
+3.3664000e+004    +3.5034012e-007    +5.2185379e-007
+3.3792000e+004    +3.4740941e-007    +5.3309162e-007
+3.3920000e+004    +3.4381927e-007    +5.3116241e-007
+3.4048000e+004    +3.4981392e-007    +5.5335136e-007
+3.4176000e+004    +3.3732351e-007    +5.2232326e-007
+3.4304000e+004    +3.5453473e-007    +5.3056033e-007
+3.4432000e+004    +3.6377111e-007    +5.8054758e-007
+3.4560000e+004    +3.6723193e-007    +5.9353272e-007
+3.4688000e+004    +3.5208308e-007    +6.0857104e-007
+3.4816000e+004    +3.4987229e-007    +5.8324883e-007
+3.4944000e+004    +3.7419682e-007    +5.8938502e-007
+3.5072000e+004    +3.8202208e-007    +5.6881311e-007
+3.5200000e+004    +3.8363743e-007    +5.6544008e-007
+3.5328000e+004    +3.7787049e-007    +5.9719594e-007
+3.5456000e+004    +3.7717868e-007    +5.7031900e-007
+3.5584000e+004    +3.8794647e-007    +5.1884354e-007
+3.5712000e+004    +3.8692428e-007    +5.5569723e-007
+3.5840000e+004    +3.7147706e-007    +5.2277596e-007
+3.5968000e+004    +3.8759438e-007    +5.7928048e-007
+3.6096000e+004    +3.7069640e-007    +5.1270041e-007
+3.6224000e+004    +3.9249224e-007    +5.7076750e-007
+3.6352000e+004    +4.0538191e-007    +6.1047098e-007
+3.6480000e+004    +3.8904955e-007    +5.8850299e-007
+3.6608000e+004    +3.9002256e-007    +5.9705104e-007
+3.6736000e+004    +4.0783107e-007    +5.8094611e-007
+3.6864000e+004    +4.2100811e-007    +6.1099269e-007
+3.6992000e+004    +4.1176531e-007    +6.1370895e-007
+3.7120000e+004    +4.0016459e-007    +5.9720577e-007
+3.7248000e+004    +3.7770045e-007    +6.1026662e-007
+3.7376000e+004    +3.8700628e-007    +5.8703614e-007
+3.7504000e+004    +4.0204861e-007    +6.2110115e-007
+3.7632000e+004    +4.2330620e-007    +5.7940900e-007
+3.7760000e+004    +4.1316923e-007    +6.3099571e-007
+3.7888000e+004    +4.1166001e-007    +6.4504547e-007
+3.8016000e+004    +4.0337909e-007    +6.0511968e-007
+3.8144000e+004    +4.0130152e-007    +6.2048161e-007
+3.8272000e+004    +3.9707206e-007    +6.3397209e-007
+3.8400000e+004    +3.8564852e-007    +6.6280148e-007
+3.8528000e+004    +4.0609069e-007    +6.2533331e-007
+3.8656000e+004    +3.9368385e-007    +6.9627390e-007
+3.8784000e+004    +4.0645870e-007    +6.8295122e-007
+3.8912000e+004    +4.2295173e-007    +6.0174335e-007
+3.9040000e+004    +4.1424940e-007    +6.4516729e-007
+3.9168000e+004    +4.2518386e-007    +6.5880886e-007
+3.9296000e+004    +3.8669197e-007    +6.8302023e-007
+3.9424000e+004    +3.9646565e-007    +6.6376134e-007
+3.9552000e+004    +3.9704415e-007    +6.0934934e-007
+3.9680000e+004    +3.9396190e-007    +6.5313640e-007
+3.9808000e+004    +4.1847983e-007    +6.4091137e-007
+3.9936000e+004    +4.1575441e-007    +6.7086387e-007
+4.0064000e+004    +4.0003192e-007    +6.9095137e-007
+4.0192000e+004    +3.9777021e-007    +6.5857239e-007
+4.0320000e+004    +3.9943765e-007    +6.5165221e-007
+4.0448000e+004    +3.9103364e-007    +6.0126655e-007
+4.0576000e+004    +4.1081881e-007    +6.4378747e-007
+4.0704000e+004    +4.0794214e-007    +6.8146812e-007
+4.0832000e+004    +3.9979921e-007    +6.4653659e-007
+4.0960000e+004    +3.9490772e-007    +6.6752960e-007
+4.1088000e+004    +3.9487389e-007    +6.5412388e-007
+4.1216000e+004    +3.9813418e-007    +6.6722112e-007
+4.1344000e+004    +3.9852341e-007    +7.0523572e-007
+4.1472000e+004    +3.9049476e-007    +7.1826645e-007
+4.1600000e+004    +3.8633209e-007    +6.7819730e-007
+4.1728000e+004    +3.9942231e-007    +7.3112597e-007
+4.1856000e+004    +4.0278383e-007    +7.6618323e-007
+4.1984000e+004    +4.0120108e-007    +7.2220695e-007
+4.2112000e+004    +3.9090872e-007    +6.9040385e-007
+4.2240000e+004    +4.0185398e-007    +6.8606420e-007
+4.2368000e+004    +4.0413980e-007    +6.8807913e-007
+4.2496000e+004    +4.0126716e-007    +6.8990073e-007
+4.2624000e+004    +4.0096415e-007    +6.9911590e-007
+4.2752000e+004    +3.9153156e-007    +6.9539300e-007
+4.2880000e+004    +3.8841617e-007    +7.4831257e-007
+4.3008000e+004    +3.8791921e-007    +7.3650801e-007
+4.3136000e+004    +3.8812371e-007    +7.4143622e-007
+4.3264000e+004    +3.9400516e-007    +7.4609096e-007
+4.3392000e+004    +3.9684804e-007    +7.5273437e-007
+4.3520000e+004    +3.8921959e-007    +7.4154531e-007
+4.3648000e+004    +3.8151992e-007    +7.5440488e-007
+4.3776000e+004    +3.8913970e-007    +7.8332738e-007
+4.3904000e+004    +3.8678368e-007    +7.6597803e-007
+4.4032000e+004    +3.7786262e-007    +7.3171140e-007
+4.4160000e+004    +3.8257195e-007    +7.1401575e-007
+4.4288000e+004    +3.9112294e-007    +7.0465524e-007
+4.4416000e+004    +3.8865718e-007    +7.5829217e-007
+4.4544000e+004    +3.9205293e-007    +7.9856432e-007
+4.4672000e+004    +3.9808393e-007    +7.6132881e-007
+4.4800000e+004    +3.9768724e-007    +7.1967077e-007
+4.4928000e+004    +4.0037159e-007    +7.5028788e-007
+4.5056000e+004    +3.9979307e-007    +7.7335790e-007
+4.5184000e+004    +3.9579280e-007    +8.1216473e-007
+4.5312000e+004    +4.0171633e-007    +7.8100783e-007
+4.5440000e+004    +4.0881244e-007    +8.1175199e-007
+4.5568000e+004    +4.1230641e-007    +8.0279369e-007
+4.5696000e+004    +4.0352438e-007    +7.6001254e-007
+4.5824000e+004    +3.8969040e-007    +7.6848579e-007
+4.5952000e+004    +4.1275979e-007    +7.4356069e-007
+4.6080000e+004    +4.1205070e-007    +7.9474103e-007
+4.6208000e+004    +4.1112881e-007    +8.1716212e-007
+4.6336000e+004    +4.1035267e-007    +8.0670179e-007
+4.6464000e+004    +4.0963198e-007    +8.1452322e-007
+4.6592000e+004    +4.0149368e-007    +8.0055361e-007
+4.6720000e+004    +4.0763589e-007    +8.0768376e-007
+4.6848000e+004    +4.1775587e-007    +7.9331738e-007
+4.6976000e+004    +4.3001575e-007    +8.0555645e-007
+4.7104000e+004    +4.1289621e-007    +8.2705401e-007
+4.7232000e+004    +4.1816108e-007    +7.6455467e-007
+4.7360000e+004    +4.2063201e-007    +7.8945942e-007
+4.7488000e+004    +4.1832547e-007    +8.6974052e-007
+4.7616000e+004    +4.1924693e-007    +8.9216695e-007
+4.7744000e+004    +4.2296148e-007    +8.0265090e-007
+4.7872000e+004    +4.3254295e-007    +7.4566918e-007
+4.8000000e+004    +4.1966283e-007    +8.2391807e-007
+4.8128000e+004    +4.2401138e-007    +8.5224207e-007
+4.8256000e+004    +4.1600191e-007    +9.0969075e-007
+4.8384000e+004    +4.2498735e-007    +8.3098985e-007
+4.8512000e+004    +4.1850558e-007    +8.6730790e-007
+4.8640000e+004    +4.3256290e-007    +8.3655391e-007
+4.8768000e+004    +4.2791703e-007    +8.8428322e-007
+4.8896000e+004    +4.4012174e-007    +8.4042142e-007
+4.9024000e+004    +4.5716732e-007    +7.9101164e-007
+4.9152000e+004    +4.4567503e-007    +8.3369952e-007
+4.9280000e+004    +4.2915684e-007    +8.5422062e-007
+4.9408000e+004    +4.3546353e-007    +9.3826355e-007
+4.9536000e+004    +4.1335255e-007    +9.2009338e-007
+4.9664000e+004    +4.1963011e-007    +8.7854056e-007
+4.9792000e+004    +4.4017585e-007    +8.7647300e-007
+4.9920000e+004    +4.2676234e-007    +8.1319803e-007
+5.0048000e+004    +4.3421073e-007    +8.3833402e-007
+5.0176000e+004    +4.3105430e-007    +9.4125477e-007
+5.0304000e+004    +4.3975655e-007    +9.1699320e-007
+5.0432000e+004    +4.3004218e-007    +8.8638575e-007
+5.0560000e+004    +4.5373488e-007    +8.8322651e-007
+5.0688000e+004    +4.4594913e-007    +8.5105643e-007
+5.0816000e+004    +4.4530475e-007    +9.1001743e-007
+5.0944000e+004    +4.4374147e-007    +8.8714620e-007
+5.1072000e+004    +4.1542771e-007    +9.0328115e-007
+5.1200000e+004    +4.2503495e-007    +8.5323268e-007
+5.1328000e+004    +4.2764839e-007    +9.0198483e-007
+5.1456000e+004    +4.0912047e-007    +9.2023782e-007
+5.1584000e+004    +4.0723907e-007    +9.1339984e-007
+5.1712000e+004    +4.0706922e-007    +9.1225729e-007
+5.1840000e+004    +4.0180987e-007    +9.2691636e-007
+5.1968000e+004    +4.2198550e-007    +9.0815490e-007
+5.2096000e+004    +4.1320143e-007    +9.6906501e-007
+5.2224000e+004    +4.1388614e-007    +1.0063101e-006
+5.2352000e+004    +4.2466550e-007    +1.0613087e-006
+5.2480000e+004    +4.2053597e-007    +1.0571359e-006
+5.2608000e+004    +4.2619433e-007    +1.0002614e-006
+5.2736000e+004    +4.1320371e-007    +9.2892952e-007
+5.2864000e+004    +4.3244370e-007    +9.4552229e-007
+5.2992000e+004    +4.2154190e-007    +9.4280728e-007
+5.3120000e+004    +4.1183043e-007    +9.0405803e-007
+5.3248000e+004    +3.9466238e-007    +9.5189296e-007
+5.3376000e+004    +3.8972806e-007    +9.9737497e-007
+5.3504000e+004    +3.8763525e-007    +1.0059389e-006
+5.3632000e+004    +3.9670252e-007    +9.9122656e-007
+5.3760000e+004    +3.9614324e-007    +1.0322500e-006
+5.3888000e+004    +3.9204258e-007    +1.0048824e-006
+5.4016000e+004    +3.9667248e-007    +1.0473941e-006
+5.4144000e+004    +3.8349339e-007    +1.0101479e-006
+5.4272000e+004    +3.7956369e-007    +1.0109125e-006
+5.4400000e+004    +3.8409598e-007    +1.0396968e-006
+5.4528000e+004    +3.9853569e-007    +1.0651985e-006
+5.4656000e+004    +3.7951287e-007    +9.9140937e-007
+5.4784000e+004    +3.9442239e-007    +9.2698656e-007
+5.4912000e+004    +3.9101431e-007    +1.0400394e-006
+5.5040000e+004    +3.8358351e-007    +1.0682096e-006
+5.5168000e+004    +3.9571677e-007    +1.0915089e-006
+5.5296000e+004    +3.9250259e-007    +1.0686342e-006
+5.5424000e+004    +3.8426680e-007    +9.9277315e-007
+5.5552000e+004    +4.3157144e-007    +9.4187300e-007
+5.5680000e+004    +4.1910474e-007    +1.0288023e-006
+5.5808000e+004    +3.8236871e-007    +1.0868761e-006
+5.5936000e+004    +3.6074786e-007    +1.1149527e-006
+5.6064000e+004    +3.7727685e-007    +1.0978622e-006
+5.6192000e+004    +3.9248877e-007    +1.0682073e-006
+5.6320000e+004    +3.8175247e-007    +1.0150443e-006
+5.6448000e+004    +3.6828663e-007    +1.1127648e-006
+5.6576000e+004    +3.6393689e-007    +1.0593598e-006
+5.6704000e+004    +3.8287956e-007    +1.0227791e-006
+5.6832000e+004    +3.7615717e-007    +1.0827061e-006
+5.6960000e+004    +3.7296709e-007    +1.0364247e-006
+5.7088000e+004    +3.7333501e-007    +1.1938482e-006
+5.7216000e+004    +3.9501614e-007    +1.0985724e-006
+5.7344000e+004    +7.8559691e-007    +1.0445426e-006
+5.7472000e+004    +9.1306697e-007    +1.0606191e-006
+5.7600000e+004    +4.5515992e-007    +1.1393754e-006
+5.7728000e+004    +3.8987400e-007    +1.0772114e-006
+5.7856000e+004    +3.7683967e-007    +1.1231825e-006
+5.7984000e+004    +3.9352568e-007    +1.1029488e-006
+5.8112000e+004    +3.9109631e-007    +1.1151573e-006
+5.8240000e+004    +3.7848295e-007    +1.1022478e-006
+5.8368000e+004    +3.8125987e-007    +1.0186023e-006
+5.8496000e+004    +3.9089497e-007    +1.0348259e-006
+5.8624000e+004    +3.9215581e-007    +1.0731858e-006
+5.8752000e+004    +4.0949976e-007    +1.1125596e-006
+5.8880000e+004    +4.0213160e-007    +1.1304535e-006
+5.9008000e+004    +4.0215591e-007    +1.1501193e-006
+5.9136000e+004    +3.7590203e-007    +1.0371087e-006
+5.9264000e+004    +3.7845967e-007    +1.0878717e-006
+5.9392000e+004    +3.8241615e-007    +1.1189802e-006
+5.9520000e+004    +3.8084275e-007    +1.0464562e-006
+5.9648000e+004    +3.8024319e-007    +1.0122096e-006
+5.9776000e+004    +3.8513861e-007    +1.0316824e-006
+5.9904000e+004    +3.6398924e-007    +1.1172492e-006
+6.0032000e+004    +3.7228713e-007    +1.2488230e-006
+6.0160000e+004    +3.8342054e-007    +1.2037740e-006
+6.0288000e+004    +3.8103138e-007    +1.1882159e-006
+6.0416000e+004    +3.8360162e-007    +1.2151797e-006
+6.0544000e+004    +3.7336824e-007    +1.1158480e-006
+6.0672000e+004    +3.7541656e-007    +1.1009561e-006
+6.0800000e+004    +3.6106607e-007    +1.2390902e-006
+6.0928000e+004    +3.6464004e-007    +1.1654100e-006
+6.1056000e+004    +3.6862889e-007    +1.0942651e-006
+6.1184000e+004    +3.6972938e-007    +1.1405657e-006
+6.1312000e+004    +3.8768547e-007    +1.2835781e-006
+6.1440000e+004    +3.8544997e-007    +1.3293625e-006
+6.1568000e+004    +3.8075035e-007    +1.3203191e-006
+6.1696000e+004    +3.8064127e-007    +1.2506575e-006
+6.1824000e+004    +3.7345637e-007    +1.2440563e-006
+6.1952000e+004    +3.6334200e-007    +1.2166402e-006
+6.2080000e+004    +3.6370403e-007    +1.1967460e-006
+6.2208000e+004    +3.7340104e-007    +1.2729901e-006
+6.2336000e+004    +3.8095735e-007    +1.3272055e-006
+6.2464000e+004    +3.7097286e-007    +1.2785104e-006
+6.2592000e+004    +3.6455239e-007    +1.2508114e-006
+6.2720000e+004    +3.7104658e-007    +1.2353112e-006
+6.2848000e+004    +3.7019490e-007    +1.2110693e-006
+6.2976000e+004    +3.8143656e-007    +1.2096101e-006
+6.3104000e+004    +3.8907135e-007    +1.2387733e-006
+6.3232000e+004    +3.8524138e-007    +1.3579507e-006
+6.3360000e+004    +3.8133064e-007    +1.3258422e-006
+6.3488000e+004    +3.7455936e-007    +1.3093073e-006
+6.3616000e+004    +3.7739866e-007    +1.2931703e-006
+6.3744000e+004    +3.7089018e-007    +1.2684668e-006
+6.3872000e+004    +3.6050119e-007    +1.2694421e-006
+6.4000000e+004    +3.6952281e-007    +1.2968301e-006
+6.4128000e+004    +3.7900526e-007    +1.3347930e-006
+6.4256000e+004    +3.8446811e-007    +1.3440253e-006
+6.4384000e+004    +3.7194312e-007    +1.3224605e-006
+6.4512000e+004    +3.7059425e-007    +1.3674695e-006
+6.4640000e+004    +3.8597764e-007    +1.3582192e-006
+6.4768000e+004    +3.7049864e-007    +1.4275320e-006
+6.4896000e+004    +3.5853461e-007    +1.2889956e-006
+6.5024000e+004    +3.7889083e-007    +1.2386128e-006
+6.5152000e+004    +3.7575884e-007    +1.3353059e-006
+6.5280000e+004    +3.8083397e-007    +1.3839729e-006
+6.5408000e+004    +4.0240280e-007    +1.4508357e-006
+6.5536000e+004    +3.8077252e-007    +1.4217960e-006
+6.5664000e+004    +3.8085949e-007    +1.3517254e-006
+6.5792000e+004    +3.7918630e-007    +1.4118943e-006
+6.5920000e+004    +3.9120670e-007    +1.3910354e-006
+6.6048000e+004    +3.9166270e-007    +1.3393056e-006
+6.6176000e+004    +3.8086617e-007    +1.4566201e-006
+6.6304000e+004    +3.7390399e-007    +1.4344907e-006
+6.6432000e+004    +3.7568375e-007    +1.3305116e-006
+6.6560000e+004    +3.7767927e-007    +1.3452892e-006
+6.6688000e+004    +3.8350476e-007    +1.4130001e-006
+6.6816000e+004    +3.8696209e-007    +1.4162728e-006
+6.6944000e+004    +3.8568237e-007    +1.3063450e-006
+6.7072000e+004    +3.8834452e-007    +1.4698775e-006
+6.7200000e+004    +3.8773314e-007    +1.5449851e-006
+6.7328000e+004    +3.9370806e-007    +1.4287801e-006
+6.7456000e+004    +3.9055777e-007    +1.4476660e-006
+6.7584000e+004    +3.8685758e-007    +1.3597620e-006
+6.7712000e+004    +3.8378698e-007    +1.4660335e-006
+6.7840000e+004    +3.7974169e-007    +1.4890057e-006
+6.7968000e+004    +3.8642628e-007    +1.4842755e-006
+6.8096000e+004    +3.9006582e-007    +1.4680598e-006
+6.8224000e+004    +3.8876988e-007    +1.4871204e-006
+6.8352000e+004    +3.9255258e-007    +1.5096322e-006
+6.8480000e+004    +4.0084399e-007    +1.4144996e-006
+6.8608000e+004    +4.0534007e-007    +1.3981402e-006
+6.8736000e+004    +4.0256100e-007    +1.5227400e-006
+6.8864000e+004    +3.9896912e-007    +1.4720320e-006
+6.8992000e+004    +3.9729969e-007    +1.3748796e-006
+6.9120000e+004    +3.9304896e-007    +1.4307942e-006
+6.9248000e+004    +3.9948898e-007    +1.5245535e-006
+6.9376000e+004    +4.0549367e-007    +1.4770670e-006
+6.9504000e+004    +4.0415046e-007    +1.6510767e-006
+6.9632000e+004    +4.0667297e-007    +1.5498715e-006
+6.9760000e+004    +4.0768242e-007    +1.4680179e-006
+6.9888000e+004    +4.0116890e-007    +1.5334241e-006
+7.0016000e+004    +3.9890210e-007    +1.5001974e-006
+7.0144000e+004    +6.3301712e-007    +1.4637608e-006
+7.0272000e+004    +8.8201421e-007    +1.6590632e-006
+7.0400000e+004    +4.8313041e-007    +1.7040245e-006
+7.0528000e+004    +4.1243089e-007    +1.6298037e-006
+7.0656000e+004    +4.6913726e-007    +1.5697219e-006
+7.0784000e+004    +6.3527227e-007    +1.5519405e-006
+7.0912000e+004    +4.6800750e-007    +1.4028425e-006
+7.1040000e+004    +3.9758422e-007    +1.5107100e-006
+7.1168000e+004    +4.0252209e-007    +1.5867033e-006
+7.1296000e+004    +4.0523463e-007    +1.5326901e-006
+7.1424000e+004    +4.0488507e-007    +1.6447241e-006
+7.1552000e+004    +3.9655185e-007    +1.6516841e-006
+7.1680000e+004    +4.1217649e-007    +1.5815949e-006
+7.1808000e+004    +4.1636520e-007    +1.4459075e-006
+7.1936000e+004    +4.0697984e-007    +1.5269054e-006
+7.2064000e+004    +4.0766989e-007    +1.5914944e-006
+7.2192000e+004    +4.1357771e-007    +1.5855957e-006
+7.2320000e+004    +4.1084093e-007    +1.5325689e-006
+7.2448000e+004    +3.8975330e-007    +1.5093653e-006
+7.2576000e+004    +4.0992848e-007    +1.5922740e-006
+7.2704000e+004    +4.0694812e-007    +1.6330710e-006
+7.2832000e+004    +4.0904996e-007    +1.6106484e-006
+7.2960000e+004    +4.2102707e-007    +1.7160539e-006
+7.3088000e+004    +4.1771415e-007    +1.5187394e-006
+7.3216000e+004    +4.2199804e-007    +1.7127993e-006
+7.3344000e+004    +4.1998547e-007    +1.8101825e-006
+7.3472000e+004    +4.2078537e-007    +1.5502715e-006
+7.3600000e+004    +4.3283845e-007    +1.6274113e-006
+7.3728000e+004    +4.2632024e-007    +1.6678757e-006
+7.3856000e+004    +4.2244770e-007    +1.7226139e-006
+7.3984000e+004    +4.2343032e-007    +1.7502311e-006
+7.4112000e+004    +4.2394203e-007    +1.6050416e-006
+7.4240000e+004    +4.2278458e-007    +1.8116679e-006
+7.4368000e+004    +4.3018670e-007    +1.8786842e-006
+7.4496000e+004    +4.2281243e-007    +1.7728131e-006
+7.4624000e+004    +4.2440496e-007    +1.8217829e-006
+7.4752000e+004    +4.3360617e-007    +1.7619947e-006
+7.4880000e+004    +4.4141143e-007    +1.6106201e-006
+7.5008000e+004    +4.3917223e-007    +1.6630682e-006
+7.5136000e+004    +4.3755745e-007    +1.6523933e-006
+7.5264000e+004    +4.2849251e-007    +1.6063357e-006
+7.5392000e+004    +4.3965613e-007    +1.5829881e-006
+7.5520000e+004    +4.4700653e-007    +1.6572117e-006
+7.5648000e+004    +4.4755802e-007    +1.8153495e-006
+7.5776000e+004    +4.4328422e-007    +1.8449214e-006
+7.5904000e+004    +4.2385034e-007    +1.7617064e-006
+7.6032000e+004    +4.3054109e-007    +1.7838272e-006
+7.6160000e+004    +4.4067536e-007    +1.8755370e-006
+7.6288000e+004    +4.3328970e-007    +3.1875854e-006
+7.6416000e+004    +4.2974199e-007    +8.2560600e-006
+7.6544000e+004    +4.2866944e-007    +5.9606268e-006
+7.6672000e+004    +4.3491067e-007    +1.9270672e-006
+7.6800000e+004    +4.3910086e-007    +1.9767135e-006
+7.6928000e+004    +4.3254391e-007    +1.9640211e-006
+7.7056000e+004    +4.3366759e-007    +1.9048571e-006
+7.7184000e+004    +4.4353689e-007    +1.8052127e-006
+7.7312000e+004    +4.4259946e-007    +1.6927279e-006
+7.7440000e+004    +4.4567403e-007    +1.8999485e-006
+7.7568000e+004    +4.6041336e-007    +1.9325487e-006
+7.7696000e+004    +4.5262382e-007    +1.7994798e-006
+7.7824000e+004    +4.2418461e-007    +1.9317447e-006
+7.7952000e+004    +4.5680207e-007    +1.9747547e-006
+7.8080000e+004    +4.4937249e-007    +1.8324473e-006
+7.8208000e+004    +4.5187551e-007    +1.9399702e-006
+7.8336000e+004    +4.7171568e-007    +1.9345484e-006
+7.8464000e+004    +4.4704186e-007    +1.9684444e-006
+7.8592000e+004    +4.3728562e-007    +1.9421441e-006
+7.8720000e+004    +4.5932728e-007    +1.9444910e-006
+7.8848000e+004    +4.5769519e-007    +1.8508722e-006
+7.8976000e+004    +4.5510896e-007    +1.9254364e-006
+7.9104000e+004    +4.5094421e-007    +1.9592010e-006
+7.9232000e+004    +4.5269786e-007    +2.0002556e-006
+7.9360000e+004    +4.5227856e-007    +1.8557070e-006
+7.9488000e+004    +4.3216366e-007    +1.9203253e-006
+7.9616000e+004    +4.4221960e-007    +2.1318999e-006
+7.9744000e+004    +4.4394810e-007    +2.0992788e-006
+7.9872000e+004    +4.4535560e-007    +1.9760951e-006
+8.0000000e+004    +4.4677444e-007    +1.9712909e-006
+8.0128000e+004    +4.5625870e-007    +1.9829197e-006
+8.0256000e+004    +4.5511746e-007    +1.9829936e-006
+8.0384000e+004    +4.5165379e-007    +2.0527361e-006
+8.0512000e+004    +4.6563949e-007    +2.3009870e-006
+8.0640000e+004    +4.6253584e-007    +2.1794431e-006
+8.0768000e+004    +4.5495807e-007    +2.1285998e-006
+8.0896000e+004    +4.5931216e-007    +2.1489830e-006
+8.1024000e+004    +4.5486817e-007    +2.0127645e-006
+8.1152000e+004    +4.6846966e-007    +2.1127087e-006
+8.1280000e+004    +4.6462628e-007    +2.0395755e-006
+8.1408000e+004    +4.5792288e-007    +2.0369528e-006
+8.1536000e+004    +4.5162949e-007    +2.0835698e-006
+8.1664000e+004    +4.5393222e-007    +2.1118110e-006
+8.1792000e+004    +4.7281964e-007    +2.0107148e-006
+8.1920000e+004    +4.7637394e-007    +1.8967679e-006
+8.2048000e+004    +4.7041954e-007    +2.0921136e-006
+8.2176000e+004    +4.7180734e-007    +2.1264648e-006
+8.2304000e+004    +4.8182829e-007    +2.1120591e-006
+8.2432000e+004    +4.7169911e-007    +2.0993848e-006
+8.2560000e+004    +4.7112147e-007    +2.0197399e-006
+8.2688000e+004    +4.4612935e-007    +1.9792392e-006
+8.2816000e+004    +4.6305769e-007    +2.0202633e-006
+8.2944000e+004    +4.6927224e-007    +2.0555665e-006
+8.3072000e+004    +4.7437388e-007    +2.0642583e-006
+8.3200000e+004    +4.6979861e-007    +2.1961473e-006
+8.3328000e+004    +4.5757912e-007    +2.1041594e-006
+8.3456000e+004    +4.4635914e-007    +2.2249467e-006
+8.3584000e+004    +4.4126267e-007    +2.2413276e-006
+8.3712000e+004    +4.4513951e-007    +2.2535198e-006
+8.3840000e+004    +4.4065555e-007    +2.2568577e-006
+8.3968000e+004    +4.4977676e-007    +2.1292799e-006
+8.4096000e+004    +4.7042420e-007    +2.0053087e-006
+8.4224000e+004    +4.7896265e-007    +2.1986709e-006
+8.4352000e+004    +4.5368509e-007    +2.2019904e-006
+8.4480000e+004    +4.4815940e-007    +2.0165380e-006
+8.4608000e+004    +4.4495187e-007    +2.1629705e-006
+8.4736000e+004    +4.6080581e-007    +2.3292755e-006
+8.4864000e+004    +4.6120468e-007    +2.3394869e-006
+8.4992000e+004    +4.5438799e-007    +2.4028402e-006
+8.5120000e+004    +4.5478427e-007    +2.3386497e-006
+8.5248000e+004    +4.6768437e-007    +2.3218122e-006
+8.5376000e+004    +4.6423924e-007    +2.2880404e-006
+8.5504000e+004    +4.5478029e-007    +2.1899350e-006
+8.5632000e+004    +4.3973435e-007    +1.9745291e-006
+8.5760000e+004    +4.5863740e-007    +2.0225673e-006
+8.5888000e+004    +4.5132859e-007    +2.0461453e-006
+8.6016000e+004    +4.4511850e-007    +2.1737958e-006
+8.6144000e+004    +4.5459757e-007    +2.2454831e-006
+8.6272000e+004    +4.6162364e-007    +2.1996923e-006
+8.6400000e+004    +4.6942839e-007    +2.1864200e-006
+8.6528000e+004    +4.6227944e-007    +2.3165387e-006
+8.6656000e+004    +4.3781648e-007    +2.2532181e-006
+8.6784000e+004    +4.4193663e-007    +2.1880508e-006
+8.6912000e+004    +4.5308025e-007    +2.1649710e-006
+8.7040000e+004    +4.6903116e-007    +2.3171644e-006
+8.7168000e+004    +4.6059236e-007    +2.2935537e-006
+8.7296000e+004    +4.3589739e-007    +2.2548738e-006
+8.7424000e+004    +4.2766808e-007    +2.2917036e-006
+8.7552000e+004    +4.1287990e-007    +2.3574901e-006
+8.7680000e+004    +4.1470722e-007    +2.3567293e-006
+8.7808000e+004    +4.3009413e-007    +2.1988592e-006
+8.7936000e+004    +4.4250180e-007    +2.2257236e-006
+8.8064000e+004    +4.2108670e-007    +2.2916079e-006
+8.8192000e+004    +4.2297123e-007    +2.4743126e-006
+8.8320000e+004    +4.2115559e-007    +2.5484590e-006
+8.8448000e+004    +4.1030222e-007    +2.4546921e-006
+8.8576000e+004    +4.1996381e-007    +2.5111397e-006
+8.8704000e+004    +4.2110335e-007    +2.3764537e-006
+8.8832000e+004    +4.0802993e-007    +2.1976427e-006
+8.8960000e+004    +4.0354698e-007    +2.4013027e-006
+8.9088000e+004    +3.9193756e-007    +2.5372913e-006
+8.9216000e+004    +3.9359395e-007    +2.4167680e-006
+8.9344000e+004    +4.1110127e-007    +2.5607162e-006
+8.9472000e+004    +4.1538118e-007    +2.4201881e-006
+8.9600000e+004    +4.2702669e-007    +2.3627297e-006
+8.9728000e+004    +4.2165206e-007    +2.4404947e-006
+8.9856000e+004    +4.0259812e-007    +2.4670101e-006
+8.9984000e+004    +4.1112790e-007    +2.3629061e-006
+9.0112000e+004    +4.1931509e-007    +2.2683423e-006
+9.0240000e+004    +4.1666198e-007    +2.2567513e-006
+9.0368000e+004    +4.0670957e-007    +2.2727274e-006
+9.0496000e+004    +3.8808068e-007    +2.4460639e-006
+9.0624000e+004    +3.8878139e-007    +2.4647277e-006
+9.0752000e+004    +3.9538540e-007    +2.3582875e-006
+9.0880000e+004    +3.7264292e-007    +2.3859704e-006
+9.1008000e+004    +3.9461864e-007    +2.4518663e-006
+9.1136000e+004    +3.9116031e-007    +2.4916430e-006
+9.1264000e+004    +3.8761738e-007    +2.4314920e-006
+9.1392000e+004    +3.8880060e-007    +2.3003604e-006
+9.1520000e+004    +3.9416915e-007    +2.5527186e-006
+9.1648000e+004    +3.8840082e-007    +2.6800301e-006
+9.1776000e+004    +3.8162634e-007    +2.6195271e-006
+9.1904000e+004    +3.7074483e-007    +2.5379711e-006
+9.2032000e+004    +3.6313222e-007    +2.5470436e-006
+9.2160000e+004    +3.7627407e-007    +2.2328904e-006
+9.2288000e+004    +3.8036134e-007    +2.5184456e-006
+9.2416000e+004    +3.6005181e-007    +2.5765914e-006
+9.2544000e+004    +3.5586694e-007    +2.5335107e-006
+9.2672000e+004    +3.8040145e-007    +2.4315027e-006
+9.2800000e+004    +3.9874575e-007    +2.5687218e-006
+9.2928000e+004    +3.8214080e-007    +2.5280228e-006
+9.3056000e+004    +3.7919463e-007    +2.5724050e-006
+9.3184000e+004    +3.4876695e-007    +2.4671128e-006
+9.3312000e+004    +3.5569974e-007    +2.4035237e-006
+9.3440000e+004    +3.7051572e-007    +2.4296346e-006
+9.3568000e+004    +3.6667112e-007    +2.6362707e-006
+9.3696000e+004    +3.7194067e-007    +2.6911023e-006
+9.3824000e+004    +3.7092764e-007    +2.4623391e-006
+9.3952000e+004    +3.5599513e-007    +2.3819393e-006
+9.4080000e+004    +3.4500781e-007    +2.6651792e-006
+9.4208000e+004    +3.3631909e-007    +2.8175493e-006
+9.4336000e+004    +3.5405935e-007    +2.5895808e-006
+9.4464000e+004    +3.6020643e-007    +2.5626316e-006
+9.4592000e+004    +3.5005712e-007    +2.7562680e-006
+9.4720000e+004    +3.3015672e-007    +2.6704956e-006
+9.4848000e+004    +3.4682895e-007    +2.5881341e-006
+9.4976000e+004    +3.5738896e-007    +2.6666573e-006
+9.5104000e+004    +3.4520900e-007    +2.6556829e-006
+9.5232000e+004    +3.3962090e-007    +2.6996283e-006
+9.5360000e+004    +3.3288305e-007    +2.8044510e-006
+9.5488000e+004    +3.4116894e-007    +2.6758844e-006
+9.5616000e+004    +3.5525247e-007    +2.4028193e-006
+9.5744000e+004    +3.4929539e-007    +2.6034788e-006
+9.5872000e+004    +3.2977124e-007    +2.7777317e-006
+9.6000000e+004    +2.9907264e-007    +2.9778623e-006
+9.6128000e+004    +3.2597518e-007    +2.7648941e-006
+9.6256000e+004    +3.3555742e-007    +2.6477230e-006
+9.6384000e+004    +3.3638003e-007    +2.5500824e-006
+9.6512000e+004    +3.7071797e-007    +2.5575944e-006
+9.6640000e+004    +3.5011630e-007    +2.5232007e-006
+9.6768000e+004    +3.2732802e-007    +2.7292765e-006
+9.6896000e+004    +3.2103523e-007    +2.6714310e-006
+9.7024000e+004    +3.2903526e-007    +2.5353559e-006
+9.7152000e+004    +3.6539993e-007    +2.6257815e-006
+9.7280000e+004    +3.4945151e-007    +2.5276315e-006
+9.7408000e+004    +3.1709664e-007    +2.4994574e-006
+9.7536000e+004    +3.4070325e-007    +2.5124111e-006
+9.7664000e+004    +3.4393670e-007    +2.5368788e-006
+9.7792000e+004    +3.3762993e-007    +2.5302418e-006
+9.7920000e+004    +3.6288074e-007    +2.7152823e-006
+9.8048000e+004    +3.2137839e-007    +2.8312966e-006
+9.8176000e+004    +3.4351439e-007    +2.8699467e-006
+9.8304000e+004    +3.6559337e-007    +2.6663529e-006
+9.8432000e+004    +3.5716849e-007    +2.6137725e-006
+9.8560000e+004    +3.5444637e-007    +2.8326801e-006
+9.8688000e+004    +3.7649022e-007    +2.7681231e-006
+9.8816000e+004    +3.6966199e-007    +2.5919617e-006
+9.8944000e+004    +3.5058483e-007    +2.4598316e-006
+9.9072000e+004    +3.6594074e-007    +2.4934436e-006
+9.9200000e+004    +3.8586535e-007    +2.5347210e-006
+9.9328000e+004    +3.9518184e-007    +2.7171225e-006
+9.9456000e+004    +4.1291347e-007    +2.5428969e-006
+9.9584000e+004    +4.0009255e-007    +2.5359877e-006
+9.9712000e+004    +4.0387587e-007    +2.5025852e-006
+9.9840000e+004    +3.9462554e-007    +2.7465890e-006
+9.9968000e+004    +3.8265765e-007    +2.7220524e-006
+1.0009600e+005    +3.9015063e-007    +2.6511236e-006
+1.0022400e+005    +4.0107201e-007    +2.5886739e-006
+1.0035200e+005    +4.1735885e-007    +2.6521745e-006
+1.0048000e+005    +3.8358223e-007    +2.5533493e-006
+1.0060800e+005    +4.1474226e-007    +2.4332840e-006
+1.0073600e+005    +4.0137556e-007    +2.4183500e-006
+1.0086400e+005    +3.6976471e-007    +2.7116209e-006
+1.0099200e+005    +3.6226052e-007    +2.4136389e-006
+1.0112000e+005    +3.7866667e-007    +2.5260586e-006
+1.0124800e+005    +3.7787174e-007    +2.6414104e-006
+1.0137600e+005    +4.0670511e-007    +2.5282616e-006
+1.0150400e+005    +4.0632216e-007    +2.5191066e-006
+1.0163200e+005    +3.9263188e-007    +2.3635080e-006
+1.0176000e+005    +3.8679431e-007    +2.3152215e-006
+1.0188800e+005    +3.9007523e-007    +2.4778958e-006
+1.0201600e+005    +3.7157167e-007    +2.6747800e-006
+1.0214400e+005    +3.7225811e-007    +2.6044079e-006
+1.0227200e+005    +4.1620979e-007    +2.5416909e-006
#
#
# North DC Val: 1.1297214899999999 VoltsSouth DC Val: 0.73121625 Volts
# SR785 Measurement - Timestamp: Apr 20 2020 - 17:23:10
# Parameter File: /home/controls/Git/cit_ctnlab/ctn_scripts/TransRINSpecLong.yml
#---------- Measurement Setup ------------
# Start Frequency (Hz): 0.000000
# Frequency Span (Hz): 800.000000
# Frequency Resolution: 800
# Number of Averages: 100
# Averaging Mode: RMS
# Window function: Hanning
#---------- Measurement Parameters ----------
# Measurement Group:  "FFT" "FFT"
# Measurements:  "FFT 1" "FFT 2"
# View:  "Log Magnitude" "Log Magnitude"
# Unit:  "Vrms/rtHz" "Vrms/rtHz"
#---------- Input Parameters ----------
# Input Source: Analog
# Input Mode: Single ended, Single ended
# Input Grounding: Float, Float
# Input Coupling: AC, AC
# Input Range: -36.0dBVpk, -36.0dBVpk
# Auto Range: Off, Off
# Auto Range Mode: Tracking, Tracking
# Anti-Aliasing Filter: On, On
#---------- Source Parameters ----------
# Source Type: Sine
# Source Amplitude: 500.0mVpk
# Source On: 0

#---------- Measurement Data ----------
# [Freq(Hz) Display 0(Vrms/rtHz) Display 1(Vrms/rtHz) ]
+7.0000000e+000    +7.7508099e-005    +2.5757570e-005
+8.0000000e+000    +6.3772313e-005    +2.0203677e-005
+9.0000000e+000    +5.4761258e-005    +1.7208597e-005
+1.0000000e+001    +4.8673981e-005    +1.2560161e-005
+1.1000000e+001    +4.5368310e-005    +9.9306963e-006
+1.2000000e+001    +3.7953203e-005    +9.2004893e-006
+1.3000000e+001    +3.3155276e-005    +7.2456664e-006
+1.4000000e+001    +2.6943131e-005    +5.5740516e-006
+1.5000000e+001    +2.4527873e-005    +5.0929930e-006
+1.6000000e+001    +2.3087130e-005    +4.4357780e-006
+1.7000000e+001    +2.1480299e-005    +3.7879931e-006
+1.8000000e+001    +1.8467108e-005    +3.5793441e-006
+1.9000000e+001    +1.6665448e-005    +2.9964158e-006
+2.0000000e+001    +1.5344480e-005    +2.6742014e-006
+2.1000000e+001    +1.4740213e-005    +2.3043142e-006
+2.2000000e+001    +1.2611054e-005    +2.1913540e-006
+2.3000000e+001    +1.0708988e-005    +1.8475383e-006
+2.4000000e+001    +1.0526917e-005    +1.6268002e-006
+2.5000000e+001    +9.9241133e-006    +1.4533388e-006
+2.6000000e+001    +1.0226084e-005    +1.3019276e-006
+2.7000000e+001    +1.0176353e-005    +1.1678924e-006
+2.8000000e+001    +8.6234650e-006    +1.0875708e-006
+2.9000000e+001    +8.0646350e-006    +1.0295696e-006
+3.0000000e+001    +7.2008256e-006    +9.5515520e-007
+3.1000000e+001    +6.1472115e-006    +7.6370395e-007
+3.2000000e+001    +5.5524533e-006    +7.7519246e-007
+3.3000000e+001    +5.8540577e-006    +6.9529301e-007
+3.4000000e+001    +6.0797734e-006    +6.1521473e-007
+3.5000000e+001    +5.6931358e-006    +5.6827128e-007
+3.6000000e+001    +5.1628294e-006    +5.4795839e-007
+3.7000000e+001    +4.7283625e-006    +5.1111260e-007
+3.8000000e+001    +4.3001432e-006    +4.5206011e-007
+3.9000000e+001    +4.0670334e-006    +4.4804429e-007
+4.0000000e+001    +4.0173354e-006    +4.4517373e-007
+4.1000000e+001    +3.9878387e-006    +3.6279110e-007
+4.2000000e+001    +3.6701549e-006    +3.2313335e-007
+4.3000000e+001    +3.2299395e-006    +3.2627921e-007
+4.4000000e+001    +3.2297407e-006    +3.2593798e-007
+4.5000000e+001    +3.3421095e-006    +2.8221348e-007
+4.6000000e+001    +2.9754437e-006    +2.5555454e-007
+4.7000000e+001    +2.6120169e-006    +2.4840438e-007
+4.8000000e+001    +2.5265551e-006    +2.1819811e-007
+4.9000000e+001    +2.3721602e-006    +2.2808193e-007
+5.0000000e+001    +2.2393476e-006    +2.1589867e-007
+5.1000000e+001    +1.9651620e-006    +1.9676666e-007
+5.2000000e+001    +2.0711279e-006    +1.9766419e-007
+5.3000000e+001    +2.0464688e-006    +1.7308970e-007
+5.4000000e+001    +2.0473610e-006    +1.7977005e-007
+5.5000000e+001    +1.9012319e-006    +1.6965814e-007
+5.6000000e+001    +1.7147336e-006    +1.6006578e-007
+5.7000000e+001    +1.6095258e-006    +1.6275864e-007
+5.8000000e+001    +1.5593396e-006    +1.5424038e-007
+5.9000000e+001    +1.4237502e-006    +1.5890691e-007
+6.0000000e+001    +1.2841969e-006    +1.6802771e-007
+6.1000000e+001    +1.4072576e-006    +1.5053553e-007
+6.2000000e+001    +1.3248731e-006    +1.3003904e-007
+6.3000000e+001    +1.2784527e-006    +1.1722604e-007
+6.4000000e+001    +1.2551861e-006    +1.0839932e-007
+6.5000000e+001    +1.1638742e-006    +1.0862879e-007
+6.6000000e+001    +1.1260855e-006    +1.0833674e-007
+6.7000000e+001    +1.0111166e-006    +9.8201880e-008
+6.8000000e+001    +1.0789088e-006    +9.6915763e-008
+6.9000000e+001    +9.1131926e-007    +9.9701580e-008
+7.0000000e+001    +8.5682444e-007    +9.2306621e-008
+7.1000000e+001    +7.7473555e-007    +8.7219341e-008
+7.2000000e+001    +7.2785730e-007    +8.9500041e-008
+7.3000000e+001    +7.4619828e-007    +8.2686697e-008
+7.4000000e+001    +7.3881063e-007    +8.5291418e-008
+7.5000000e+001    +6.7562650e-007    +8.5665135e-008
+7.6000000e+001    +6.6947831e-007    +8.2516920e-008
+7.7000000e+001    +6.7740098e-007    +7.5513576e-008
+7.8000000e+001    +6.0999395e-007    +7.6201367e-008
+7.9000000e+001    +6.1825921e-007    +7.3891449e-008
+8.0000000e+001    +5.4800654e-007    +7.2016086e-008
+8.1000000e+001    +6.2020507e-007    +7.3530330e-008
+8.2000000e+001    +6.8437294e-007    +6.6809271e-008
+8.3000000e+001    +6.0322913e-007    +6.5090497e-008
+8.4000000e+001    +4.9707029e-007    +6.6060593e-008
+8.5000000e+001    +4.5769167e-007    +6.8993934e-008
+8.6000000e+001    +4.2369120e-007    +6.8354836e-008
+8.7000000e+001    +4.5268396e-007    +6.6558144e-008
+8.8000000e+001    +4.6110492e-007    +6.4563928e-008
+8.9000000e+001    +4.3645676e-007    +5.8842677e-008
+9.0000000e+001    +4.4706246e-007    +5.9843714e-008
+9.1000000e+001    +4.0284664e-007    +5.8812578e-008
+9.2000000e+001    +3.5988384e-007    +5.9019577e-008
+9.3000000e+001    +3.4643696e-007    +5.8036786e-008
+9.4000000e+001    +3.7013231e-007    +5.3490158e-008
+9.5000000e+001    +3.4277181e-007    +5.6745822e-008
+9.6000000e+001    +3.0249728e-007    +5.6241234e-008
+9.7000000e+001    +3.0086960e-007    +5.4368432e-008
+9.8000000e+001    +3.0966487e-007    +5.4289334e-008
+9.9000000e+001    +2.9301918e-007    +5.2700315e-008
+1.0000000e+002    +2.8476609e-007    +5.5189272e-008
+1.0100000e+002    +3.0986519e-007    +5.2898635e-008
+1.0200000e+002    +3.1656299e-007    +5.3469662e-008
+1.0300000e+002    +3.0057902e-007    +5.5288737e-008
+1.0400000e+002    +2.6814755e-007    +5.2643291e-008
+1.0500000e+002    +2.6336699e-007    +4.9699988e-008
+1.0600000e+002    +2.5094749e-007    +4.8948483e-008
+1.0700000e+002    +2.5021484e-007    +5.2474903e-008
+1.0800000e+002    +2.5429583e-007    +5.2943609e-008
+1.0900000e+002    +2.6403956e-007    +4.9917865e-008
+1.1000000e+002    +2.4199596e-007    +4.7063860e-008
+1.1100000e+002    +2.4331692e-007    +4.6741796e-008
+1.1200000e+002    +2.5775987e-007    +5.2525916e-008
+1.1300000e+002    +2.4085244e-007    +5.1948764e-008
+1.1400000e+002    +2.2201490e-007    +4.6188575e-008
+1.1500000e+002    +2.3037398e-007    +4.8657576e-008
+1.1600000e+002    +2.5726226e-007    +4.8417284e-008
+1.1700000e+002    +2.4882749e-007    +4.6092371e-008
+1.1800000e+002    +2.1822805e-007    +4.4669694e-008
+1.1900000e+002    +9.7561360e-007    +4.5996874e-008
+1.2000000e+002    +1.7952567e-006    +4.7924619e-008
+1.2100000e+002    +8.4352115e-007    +4.9524207e-008
+1.2200000e+002    +2.0121480e-007    +4.5432511e-008
+1.2300000e+002    +2.1290626e-007    +4.2375586e-008
+1.2400000e+002    +2.1161306e-007    +4.2731841e-008
+1.2500000e+002    +1.8292933e-007    +4.7036426e-008
+1.2600000e+002    +2.0594318e-007    +4.4138865e-008
+1.2700000e+002    +2.1568449e-007    +4.2032315e-008
+1.2800000e+002    +2.1419513e-007    +4.0152628e-008
+1.2900000e+002    +1.9646099e-007    +4.3526466e-008
+1.3000000e+002    +1.8529461e-007    +4.3094072e-008
+1.3100000e+002    +2.0591378e-007    +3.9833751e-008
+1.3200000e+002    +2.1621679e-007    +3.9680099e-008
+1.3300000e+002    +2.2136307e-007    +3.9480714e-008
+1.3400000e+002    +2.3240744e-007    +4.2933735e-008
+1.3500000e+002    +2.4638157e-007    +5.0129707e-008
+1.3600000e+002    +2.9769470e-007    +4.8211884e-008
+1.3700000e+002    +3.4753759e-007    +4.6106646e-008
+1.3800000e+002    +4.0322143e-007    +4.4296261e-008
+1.3900000e+002    +5.2328187e-007    +4.6500904e-008
+1.4000000e+002    +7.1845886e-007    +4.3435712e-008
+1.4100000e+002    +1.0961579e-006    +4.0940673e-008
+1.4200000e+002    +1.7069119e-006    +4.2313843e-008
+1.4300000e+002    +2.5585521e-006    +4.0436571e-008
+1.4400000e+002    +2.5374250e-006    +4.0960771e-008
+1.4500000e+002    +1.6257663e-006    +4.1763435e-008
+1.4600000e+002    +1.0227296e-006    +4.1371578e-008
+1.4700000e+002    +7.0754231e-007    +3.8415333e-008
+1.4800000e+002    +5.6194017e-007    +4.0025732e-008
+1.4900000e+002    +4.1440862e-007    +4.0332903e-008
+1.5000000e+002    +3.0879806e-007    +4.2513015e-008
+1.5100000e+002    +2.7022350e-007    +4.1910518e-008
+1.5200000e+002    +2.1945323e-007    +3.8763567e-008
+1.5300000e+002    +2.0273829e-007    +3.9382005e-008
+1.5400000e+002    +2.0880540e-007    +3.9916323e-008
+1.5500000e+002    +2.7449519e-007    +4.1375394e-008
+1.5600000e+002    +2.7857033e-007    +4.2261473e-008
+1.5700000e+002    +2.3364167e-007    +4.0805997e-008
+1.5800000e+002    +2.1152130e-007    +4.2698026e-008
+1.5900000e+002    +2.0208225e-007    +4.2380936e-008
+1.6000000e+002    +1.6520632e-007    +4.2085560e-008
+1.6100000e+002    +1.6099358e-007    +4.1531507e-008
+1.6200000e+002    +1.4656698e-007    +4.2390013e-008
+1.6300000e+002    +1.3970109e-007    +3.9419728e-008
+1.6400000e+002    +1.3942098e-007    +3.8807812e-008
+1.6500000e+002    +1.3967210e-007    +3.8077335e-008
+1.6600000e+002    +1.3523756e-007    +4.2196096e-008
+1.6700000e+002    +1.1771964e-007    +4.0501757e-008
+1.6800000e+002    +1.1609490e-007    +3.7675694e-008
+1.6900000e+002    +1.0791161e-007    +3.9775493e-008
+1.7000000e+002    +1.0440415e-007    +4.1385118e-008
+1.7100000e+002    +9.3759006e-008    +4.1591466e-008
+1.7200000e+002    +9.8579655e-008    +3.9871249e-008
+1.7300000e+002    +1.0698740e-007    +3.6742552e-008
+1.7400000e+002    +9.8970077e-008    +3.7663657e-008
+1.7500000e+002    +9.5930659e-008    +3.7675445e-008
+1.7600000e+002    +1.0214335e-007    +3.8044405e-008
+1.7700000e+002    +9.5620656e-008    +3.9245904e-008
+1.7800000e+002    +8.9878576e-008    +3.4821976e-008
+1.7900000e+002    +2.8495532e-007    +6.6443725e-008
+1.8000000e+002    +4.8376154e-007    +1.0645952e-007
+1.8100000e+002    +2.3535694e-007    +6.4636986e-008
+1.8200000e+002    +9.4680004e-008    +4.0151217e-008
+1.8300000e+002    +9.2269026e-008    +3.8965659e-008
+1.8400000e+002    +9.0766441e-008    +3.6395210e-008
+1.8500000e+002    +9.2314117e-008    +3.5960696e-008
+1.8600000e+002    +9.7826835e-008    +3.6664293e-008
+1.8700000e+002    +9.5699221e-008    +3.6399765e-008
+1.8800000e+002    +9.4869812e-008    +3.9306322e-008
+1.8900000e+002    +9.5453345e-008    +3.7405304e-008
+1.9000000e+002    +1.0090206e-007    +3.8463362e-008
+1.9100000e+002    +1.0034965e-007    +3.7373038e-008
+1.9200000e+002    +9.4745211e-008    +3.8862435e-008
+1.9300000e+002    +9.5703214e-008    +4.0836518e-008
+1.9400000e+002    +1.0170021e-007    +3.9384858e-008
+1.9500000e+002    +8.7450239e-008    +3.7925293e-008
+1.9600000e+002    +8.7640657e-008    +3.9154703e-008
+1.9700000e+002    +8.7572268e-008    +3.6285801e-008
+1.9800000e+002    +8.9350017e-008    +3.5146048e-008
+1.9900000e+002    +9.0896989e-008    +3.5996287e-008
+2.0000000e+002    +8.0383003e-008    +3.5745998e-008
+2.0100000e+002    +8.3488025e-008    +3.9131624e-008
+2.0200000e+002    +9.0175909e-008    +3.8027242e-008
+2.0300000e+002    +8.7739053e-008    +3.5662264e-008
+2.0400000e+002    +8.5596405e-008    +3.4897532e-008
+2.0500000e+002    +8.6305597e-008    +3.5709949e-008
+2.0600000e+002    +8.8667875e-008    +3.8460197e-008
+2.0700000e+002    +8.5028120e-008    +4.0239044e-008
+2.0800000e+002    +8.9264219e-008    +4.1631491e-008
+2.0900000e+002    +8.8019931e-008    +4.0044721e-008
+2.1000000e+002    +8.6427548e-008    +3.9123247e-008
+2.1100000e+002    +8.6853909e-008    +3.9208004e-008
+2.1200000e+002    +8.7882810e-008    +3.9356632e-008
+2.1300000e+002    +9.3807813e-008    +3.9922149e-008
+2.1400000e+002    +1.1318234e-007    +3.9170828e-008
+2.1500000e+002    +1.2026392e-007    +3.9510898e-008
+2.1600000e+002    +1.2948013e-007    +3.9911633e-008
+2.1700000e+002    +1.8145325e-007    +3.9003627e-008
+2.1800000e+002    +1.4461298e-007    +3.8697397e-008
+2.1900000e+002    +1.1725706e-007    +3.7591153e-008
+2.2000000e+002    +1.4260688e-007    +3.7184307e-008
+2.2100000e+002    +1.5454178e-007    +3.8314450e-008
+2.2200000e+002    +1.5249719e-007    +3.9285958e-008
+2.2300000e+002    +1.3096366e-007    +4.0268123e-008
+2.2400000e+002    +1.0486507e-007    +3.7306624e-008
+2.2500000e+002    +9.0418212e-008    +3.5773166e-008
+2.2600000e+002    +9.0878629e-008    +3.6332604e-008
+2.2700000e+002    +9.2419590e-008    +3.1406689e-008
+2.2800000e+002    +8.9762601e-008    +3.4949451e-008
+2.2900000e+002    +8.2729379e-008    +3.9936179e-008
+2.3000000e+002    +8.7281222e-008    +3.9674521e-008
+2.3100000e+002    +8.1086206e-008    +3.5524000e-008
+2.3200000e+002    +8.7398988e-008    +3.2901323e-008
+2.3300000e+002    +9.5660035e-008    +3.5556074e-008
+2.3400000e+002    +9.3063235e-008    +3.5232748e-008
+2.3500000e+002    +9.9275567e-008    +3.2507593e-008
+2.3600000e+002    +1.1376204e-007    +3.5220527e-008
+2.3700000e+002    +1.0920171e-007    +3.7213265e-008
+2.3800000e+002    +1.0404700e-007    +3.7108570e-008
+2.3900000e+002    +2.6671083e-007    +3.6260872e-008
+2.4000000e+002    +4.3676499e-007    +3.4783344e-008
+2.4100000e+002    +2.0662945e-007    +3.6980367e-008
+2.4200000e+002    +1.1630618e-007    +3.4450135e-008
+2.4300000e+002    +1.2834259e-007    +3.1501628e-008
+2.4400000e+002    +1.2470376e-007    +3.4630766e-008
+2.4500000e+002    +1.1519517e-007    +3.6144566e-008
+2.4600000e+002    +1.2783573e-007    +3.5577592e-008
+2.4700000e+002    +1.3509909e-007    +3.7199335e-008
+2.4800000e+002    +1.5274604e-007    +3.8024027e-008
+2.4900000e+002    +1.6565969e-007    +3.7517591e-008
+2.5000000e+002    +1.8096679e-007    +3.5096072e-008
+2.5100000e+002    +2.0381205e-007    +3.4717146e-008
+2.5200000e+002    +2.2100244e-007    +3.4599601e-008
+2.5300000e+002    +2.5786886e-007    +3.3443339e-008
+2.5400000e+002    +2.9434867e-007    +3.6080610e-008
+2.5500000e+002    +3.4388722e-007    +3.8413521e-008
+2.5600000e+002    +4.2498829e-007    +3.8291361e-008
+2.5700000e+002    +4.8395441e-007    +3.6697802e-008
+2.5800000e+002    +4.6962944e-007    +3.3711245e-008
+2.5900000e+002    +4.6035271e-007    +3.6242600e-008
+2.6000000e+002    +5.4714741e-007    +3.8341593e-008
+2.6100000e+002    +6.5749441e-007    +3.7207791e-008
+2.6200000e+002    +7.1700498e-007    +3.3866467e-008
+2.6300000e+002    +7.5203718e-007    +3.3541525e-008
+2.6400000e+002    +9.4304437e-007    +3.4287496e-008
+2.6500000e+002    +1.0393088e-006    +3.5756990e-008
+2.6600000e+002    +1.2601448e-006    +3.7682891e-008
+2.6700000e+002    +1.7379621e-006    +3.5715711e-008
+2.6800000e+002    +2.2715474e-006    +3.6156315e-008
+2.6900000e+002    +2.8284753e-006    +3.9327215e-008
+2.7000000e+002    +4.3395671e-006    +3.8699607e-008
+2.7100000e+002    +5.9437002e-006    +3.4649592e-008
+2.7200000e+002    +5.6338886e-006    +3.6867824e-008
+2.7300000e+002    +4.2057845e-006    +3.7519694e-008
+2.7400000e+002    +3.2210326e-006    +3.6397765e-008
+2.7500000e+002    +2.9776825e-006    +3.3933240e-008
+2.7600000e+002    +2.8497377e-006    +3.6272738e-008
+2.7700000e+002    +2.3122950e-006    +3.5344840e-008
+2.7800000e+002    +2.0020395e-006    +3.6699976e-008
+2.7900000e+002    +1.7190354e-006    +3.8746972e-008
+2.8000000e+002    +1.4060699e-006    +3.6819849e-008
+2.8100000e+002    +1.3377096e-006    +3.7180676e-008
+2.8200000e+002    +1.6928617e-006    +3.6621685e-008
+2.8300000e+002    +1.2254886e-006    +3.8993392e-008
+2.8400000e+002    +8.5874007e-007    +3.7128949e-008
+2.8500000e+002    +8.1553526e-007    +3.6327819e-008
+2.8600000e+002    +7.3687283e-007    +3.6981991e-008
+2.8700000e+002    +6.1986469e-007    +3.4804778e-008
+2.8800000e+002    +5.6930168e-007    +3.7134981e-008
+2.8900000e+002    +5.2005089e-007    +3.8467796e-008
+2.9000000e+002    +4.8157074e-007    +3.8806107e-008
+2.9100000e+002    +4.2642043e-007    +3.7647986e-008
+2.9200000e+002    +3.5400416e-007    +3.3229220e-008
+2.9300000e+002    +3.2752251e-007    +3.5684433e-008
+2.9400000e+002    +3.0092707e-007    +3.4758912e-008
+2.9500000e+002    +2.6602473e-007    +3.5132004e-008
+2.9600000e+002    +2.6920745e-007    +3.4863831e-008
+2.9700000e+002    +2.6227534e-007    +3.6635761e-008
+2.9800000e+002    +2.6144730e-007    +3.4604312e-008
+2.9900000e+002    +2.7300769e-007    +3.6290306e-008
+3.0000000e+002    +2.8184436e-007    +4.2636703e-008
+3.0100000e+002    +2.0277814e-007    +3.7449151e-008
+3.0200000e+002    +1.9829719e-007    +3.2682777e-008
+3.0300000e+002    +1.9562647e-007    +3.6658054e-008
+3.0400000e+002    +1.6799302e-007    +3.5834020e-008
+3.0500000e+002    +1.5339410e-007    +3.4888604e-008
+3.0600000e+002    +1.5127382e-007    +3.8117744e-008
+3.0700000e+002    +1.5311562e-007    +3.6014828e-008
+3.0800000e+002    +1.5557467e-007    +3.4491880e-008
+3.0900000e+002    +1.5304603e-007    +3.5295471e-008
+3.1000000e+002    +1.4313677e-007    +3.6609787e-008
+3.1100000e+002    +1.3266126e-007    +3.5630482e-008
+3.1200000e+002    +1.3341233e-007    +3.7040508e-008
+3.1300000e+002    +1.3299143e-007    +3.6796006e-008
+3.1400000e+002    +1.4118261e-007    +3.4662413e-008
+3.1500000e+002    +1.4261221e-007    +3.2791867e-008
+3.1600000e+002    +1.3688350e-007    +3.3733240e-008
+3.1700000e+002    +1.3058072e-007    +3.4315249e-008
+3.1800000e+002    +1.3010759e-007    +3.4860271e-008
+3.1900000e+002    +1.2509376e-007    +3.3525581e-008
+3.2000000e+002    +1.2412649e-007    +3.5105014e-008
+3.2100000e+002    +1.2248604e-007    +3.5492693e-008
+3.2200000e+002    +1.2093685e-007    +3.5456274e-008
+3.2300000e+002    +1.1521743e-007    +3.6237111e-008
+3.2400000e+002    +1.1185368e-007    +3.2136814e-008
+3.2500000e+002    +1.1908660e-007    +3.1982744e-008
+3.2600000e+002    +1.2096977e-007    +3.4272627e-008
+3.2700000e+002    +1.1729620e-007    +3.3191188e-008
+3.2800000e+002    +1.0616082e-007    +3.1977301e-008
+3.2900000e+002    +1.1899040e-007    +3.3220136e-008
+3.3000000e+002    +1.3302194e-007    +3.3746318e-008
+3.3100000e+002    +1.2897048e-007    +3.4799466e-008
+3.3200000e+002    +1.2007642e-007    +3.2337077e-008
+3.3300000e+002    +1.2129337e-007    +3.3824254e-008
+3.3400000e+002    +1.2310772e-007    +3.1699045e-008
+3.3500000e+002    +1.2741506e-007    +3.3601459e-008
+3.3600000e+002    +1.3401205e-007    +3.8439975e-008
+3.3700000e+002    +1.3678630e-007    +3.6822435e-008
+3.3800000e+002    +1.3528344e-007    +3.3229476e-008
+3.3900000e+002    +1.2580449e-007    +3.4426918e-008
+3.4000000e+002    +1.4057396e-007    +3.5030510e-008
+3.4100000e+002    +1.4997626e-007    +3.3331787e-008
+3.4200000e+002    +1.6176577e-007    +3.5689212e-008
+3.4300000e+002    +1.6351038e-007    +3.6623295e-008
+3.4400000e+002    +1.7287945e-007    +3.0807030e-008
+3.4500000e+002    +2.1620349e-007    +3.1624893e-008
+3.4600000e+002    +2.2573410e-007    +3.3382037e-008
+3.4700000e+002    +2.1769749e-007    +3.2599665e-008
+3.4800000e+002    +2.5317340e-007    +3.3763513e-008
+3.4900000e+002    +3.1048842e-007    +3.3406568e-008
+3.5000000e+002    +2.7574575e-007    +3.5037896e-008
+3.5100000e+002    +2.6406741e-007    +3.7077331e-008
+3.5200000e+002    +3.0210694e-007    +3.4401637e-008
+3.5300000e+002    +2.8445578e-007    +3.3590133e-008
+3.5400000e+002    +2.5601568e-007    +3.0988698e-008
+3.5500000e+002    +2.4918836e-007    +3.3521754e-008
+3.5600000e+002    +2.4168210e-007    +3.3769407e-008
+3.5700000e+002    +2.3284011e-007    +3.6727872e-008
+3.5800000e+002    +2.1206637e-007    +3.5354038e-008
+3.5900000e+002    +2.1274759e-007    +3.6417912e-008
+3.6000000e+002    +1.9933670e-007    +3.9466151e-008
+3.6100000e+002    +1.5480313e-007    +3.1529204e-008
+3.6200000e+002    +1.3504155e-007    +3.3215176e-008
+3.6300000e+002    +1.2828454e-007    +3.4715089e-008
+3.6400000e+002    +1.1932258e-007    +3.6396887e-008
+3.6500000e+002    +1.1240066e-007    +3.8794180e-008
+3.6600000e+002    +1.1101412e-007    +3.6550666e-008
+3.6700000e+002    +1.0856726e-007    +3.6483669e-008
+3.6800000e+002    +1.0062846e-007    +3.5826272e-008
+3.6900000e+002    +9.6767216e-008    +3.5069380e-008
+3.7000000e+002    +1.0251716e-007    +3.4435914e-008
+3.7100000e+002    +1.0955467e-007    +3.6439310e-008
+3.7200000e+002    +1.1024645e-007    +3.5401388e-008
+3.7300000e+002    +1.0750445e-007    +3.2761349e-008
+3.7400000e+002    +1.0776870e-007    +3.4906115e-008
+3.7500000e+002    +1.1286453e-007    +3.4584446e-008
+3.7600000e+002    +1.1630094e-007    +3.4027671e-008
+3.7700000e+002    +1.2276460e-007    +3.4749295e-008
+3.7800000e+002    +1.2176733e-007    +3.3987234e-008
+3.7900000e+002    +1.2537151e-007    +3.1592133e-008
+3.8000000e+002    +1.2399218e-007    +3.4196361e-008
+3.8100000e+002    +1.1627962e-007    +3.3984470e-008
+3.8200000e+002    +1.0566926e-007    +3.6158259e-008
+3.8300000e+002    +1.2319317e-007    +3.4258520e-008
+3.8400000e+002    +1.1043871e-007    +3.0292668e-008
+3.8500000e+002    +1.0783936e-007    +3.0605925e-008
+3.8600000e+002    +1.1491700e-007    +3.4966646e-008
+3.8700000e+002    +1.3323769e-007    +3.4644721e-008
+3.8800000e+002    +1.5932812e-007    +3.4420758e-008
+3.8900000e+002    +1.4664762e-007    +3.4965915e-008
+3.9000000e+002    +1.2952975e-007    +3.5748116e-008
+3.9100000e+002    +1.3004275e-007    +3.4128846e-008
+3.9200000e+002    +1.2230785e-007    +3.3660761e-008
+3.9300000e+002    +1.0965058e-007    +3.4367435e-008
+3.9400000e+002    +9.8241351e-008    +3.4562088e-008
+3.9500000e+002    +9.2412591e-008    +3.3536036e-008
+3.9600000e+002    +9.3900972e-008    +3.2195370e-008
+3.9700000e+002    +8.7730001e-008    +3.1538622e-008
+3.9800000e+002    +9.5489931e-008    +3.3331496e-008
+3.9900000e+002    +9.7040022e-008    +3.1995281e-008
+4.0000000e+002    +9.9340227e-008    +3.0813897e-008
+4.0100000e+002    +1.0414220e-007    +3.3676102e-008
+4.0200000e+002    +1.0193654e-007    +3.2679331e-008
+4.0300000e+002    +1.0726534e-007    +3.2685467e-008
+4.0400000e+002    +1.0317877e-007    +3.1883484e-008
+4.0500000e+002    +1.2688568e-007    +3.3018864e-008
+4.0600000e+002    +1.3317116e-007    +3.4384534e-008
+4.0700000e+002    +1.1609273e-007    +3.3696445e-008
+4.0800000e+002    +1.1745085e-007    +3.5959236e-008
+4.0900000e+002    +1.3049386e-007    +3.4030471e-008
+4.1000000e+002    +1.2077071e-007    +3.3956496e-008
+4.1100000e+002    +1.1726324e-007    +3.2359420e-008
+4.1200000e+002    +1.1607145e-007    +3.1194819e-008
+4.1300000e+002    +1.1164129e-007    +3.2695230e-008
+4.1400000e+002    +1.0310142e-007    +3.4303497e-008
+4.1500000e+002    +9.5760704e-008    +3.2646160e-008
+4.1600000e+002    +9.8193681e-008    +3.4751281e-008
+4.1700000e+002    +9.1683816e-008    +3.4930842e-008
+4.1800000e+002    +8.6522967e-008    +3.3267476e-008
+4.1900000e+002    +9.3711456e-008    +3.6650849e-008
+4.2000000e+002    +9.6195080e-008    +3.9776324e-008
+4.2100000e+002    +8.8667392e-008    +3.1974984e-008
+4.2200000e+002    +8.3885055e-008    +3.2418310e-008
+4.2300000e+002    +9.3366999e-008    +3.4779603e-008
+4.2400000e+002    +8.9648154e-008    +3.3250423e-008
+4.2500000e+002    +8.6434000e-008    +3.4902129e-008
+4.2600000e+002    +8.0757999e-008    +3.5250974e-008
+4.2700000e+002    +7.5636223e-008    +3.4444689e-008
+4.2800000e+002    +7.8999356e-008    +3.2846820e-008
+4.2900000e+002    +7.7733603e-008    +3.1200297e-008
+4.3000000e+002    +8.0144275e-008    +3.2303223e-008
+4.3100000e+002    +8.1430677e-008    +3.3514503e-008
+4.3200000e+002    +7.8669572e-008    +3.1423141e-008
+4.3300000e+002    +7.6548538e-008    +3.2432478e-008
+4.3400000e+002    +8.0690462e-008    +3.2902296e-008
+4.3500000e+002    +1.0742610e-007    +3.2872904e-008
+4.3600000e+002    +1.0267880e-007    +3.5821984e-008
+4.3700000e+002    +9.8526307e-008    +3.5933109e-008
+4.3800000e+002    +1.1597756e-007    +3.2207463e-008
+4.3900000e+002    +1.3891429e-007    +3.2658779e-008
+4.4000000e+002    +1.5548399e-007    +3.2152236e-008
+4.4100000e+002    +1.9352707e-007    +3.1587902e-008
+4.4200000e+002    +2.1526692e-007    +3.5923879e-008
+4.4300000e+002    +2.2290007e-007    +3.7363520e-008
+4.4400000e+002    +2.4270432e-007    +3.5322881e-008
+4.4500000e+002    +2.3246895e-007    +3.4496423e-008
+4.4600000e+002    +2.1292986e-007    +3.2055620e-008
+4.4700000e+002    +1.7688740e-007    +3.2338107e-008
+4.4800000e+002    +1.5921270e-007    +3.3858438e-008
+4.4900000e+002    +1.4630025e-007    +3.3208465e-008
+4.5000000e+002    +1.2635877e-007    +3.2625053e-008
+4.5100000e+002    +1.1458967e-007    +3.5080586e-008
+4.5200000e+002    +1.0268298e-007    +3.6724806e-008
+4.5300000e+002    +9.1053913e-008    +3.3812000e-008
+4.5400000e+002    +9.4509261e-008    +3.0571467e-008
+4.5500000e+002    +8.9421853e-008    +3.4754560e-008
+4.5600000e+002    +8.6033687e-008    +3.1502733e-008
+4.5700000e+002    +8.7827630e-008    +3.2740743e-008
+4.5800000e+002    +8.8563183e-008    +3.4860154e-008
+4.5900000e+002    +9.0164917e-008    +3.5387902e-008
+4.6000000e+002    +8.5623952e-008    +3.5996919e-008
+4.6100000e+002    +8.0517530e-008    +3.5022282e-008
+4.6200000e+002    +7.3525648e-008    +3.3776267e-008
+4.6300000e+002    +7.7650519e-008    +3.1461081e-008
+4.6400000e+002    +7.8938399e-008    +3.4355363e-008
+4.6500000e+002    +7.7942815e-008    +3.5667902e-008
+4.6600000e+002    +8.2283414e-008    +3.3650672e-008
+4.6700000e+002    +8.4386571e-008    +3.1640386e-008
+4.6800000e+002    +8.5161446e-008    +3.4844543e-008
+4.6900000e+002    +8.9434224e-008    +3.4595271e-008
+4.7000000e+002    +9.0348841e-008    +3.4702399e-008
+4.7100000e+002    +9.7706291e-008    +3.2930124e-008
+4.7200000e+002    +1.0468376e-007    +3.4342275e-008
+4.7300000e+002    +1.0240657e-007    +3.4884469e-008
+4.7400000e+002    +1.1542572e-007    +3.1781674e-008
+4.7500000e+002    +1.1955365e-007    +3.1131552e-008
+4.7600000e+002    +1.3421555e-007    +3.4313629e-008
+4.7700000e+002    +1.4159291e-007    +3.3844238e-008
+4.7800000e+002    +1.4642286e-007    +3.1976178e-008
+4.7900000e+002    +2.6822940e-007    +3.3082113e-008
+4.8000000e+002    +3.6028118e-007    +3.4331304e-008
+4.8100000e+002    +1.9225573e-007    +3.5399523e-008
+4.8200000e+002    +1.6155543e-007    +3.5455418e-008
+4.8300000e+002    +1.7191184e-007    +3.2559495e-008
+4.8400000e+002    +1.9034208e-007    +3.0803818e-008
+4.8500000e+002    +2.0719217e-007    +3.4358344e-008
+4.8600000e+002    +2.3092885e-007    +3.3727130e-008
+4.8700000e+002    +2.2777137e-007    +3.1789806e-008
+4.8800000e+002    +2.2971525e-007    +3.1861894e-008
+4.8900000e+002    +2.5018048e-007    +3.0833188e-008
+4.9000000e+002    +2.6581128e-007    +3.2207463e-008
+4.9100000e+002    +2.9691387e-007    +3.4471888e-008
+4.9200000e+002    +2.9638852e-007    +3.3101152e-008
+4.9300000e+002    +2.9135290e-007    +3.2156933e-008
+4.9400000e+002    +2.8740934e-007    +3.2167314e-008
+4.9500000e+002    +2.7982102e-007    +3.3115402e-008
+4.9600000e+002    +2.7239358e-007    +3.0230638e-008
+4.9700000e+002    +2.6971603e-007    +3.1565435e-008
+4.9800000e+002    +2.5935816e-007    +3.0178537e-008
+4.9900000e+002    +2.3754259e-007    +3.0928430e-008
+5.0000000e+002    +2.0437182e-007    +3.2793523e-008
+5.0100000e+002    +1.8947904e-007    +3.2301521e-008
+5.0200000e+002    +2.0621695e-007    +3.5172839e-008
+5.0300000e+002    +2.2687109e-007    +3.3179163e-008
+5.0400000e+002    +2.7478316e-007    +3.1976878e-008
+5.0500000e+002    +3.1994475e-007    +3.3030719e-008
+5.0600000e+002    +3.7240079e-007    +3.3199534e-008
+5.0700000e+002    +4.4573764e-007    +3.4909796e-008
+5.0800000e+002    +5.3192929e-007    +3.4111462e-008
+5.0900000e+002    +5.6263218e-007    +3.4915313e-008
+5.1000000e+002    +5.8879323e-007    +3.4521396e-008
+5.1100000e+002    +5.1404533e-007    +3.6742875e-008
+5.1200000e+002    +4.6774858e-007    +3.5912954e-008
+5.1300000e+002    +3.6824295e-007    +3.4322071e-008
+5.1400000e+002    +2.6862639e-007    +3.3616217e-008
+5.1500000e+002    +2.3024957e-007    +3.3581323e-008
+5.1600000e+002    +2.1503777e-007    +3.2607542e-008
+5.1700000e+002    +1.9921023e-007    +3.4972519e-008
+5.1800000e+002    +1.7463421e-007    +3.2451961e-008
+5.1900000e+002    +1.7324486e-007    +3.1290284e-008
+5.2000000e+002    +1.7290375e-007    +3.1840106e-008
+5.2100000e+002    +1.6892375e-007    +3.5643826e-008
+5.2200000e+002    +1.6101444e-007    +3.5788215e-008
+5.2300000e+002    +2.0572577e-007    +3.2788769e-008
+5.2400000e+002    +3.0664216e-007    +3.1422211e-008
+5.2500000e+002    +4.9556792e-007    +3.4531439e-008
+5.2600000e+002    +7.3460774e-007    +3.4355928e-008
+5.2700000e+002    +1.1250968e-006    +3.5003559e-008
+5.2800000e+002    +1.4582715e-006    +3.5021280e-008
+5.2900000e+002    +1.8159775e-006    +3.4224346e-008
+5.3000000e+002    +2.2912229e-006    +3.4783344e-008
+5.3100000e+002    +2.4189130e-006    +3.4282674e-008
+5.3200000e+002    +2.5848001e-006    +3.4315551e-008
+5.3300000e+002    +2.7379417e-006    +3.3481143e-008
+5.3400000e+002    +2.5356092e-006    +3.4348421e-008
+5.3500000e+002    +2.3649254e-006    +3.5280014e-008
+5.3600000e+002    +2.2001948e-006    +3.8281900e-008
+5.3700000e+002    +1.9700683e-006    +3.5236734e-008
+5.3800000e+002    +1.8813325e-006    +3.3768853e-008
+5.3900000e+002    +1.9064452e-006    +3.5657681e-008
+5.4000000e+002    +1.9355618e-006    +3.7968956e-008
+5.4100000e+002    +1.6463737e-006    +3.5205179e-008
+5.4200000e+002    +1.4446285e-006    +3.7931372e-008
+5.4300000e+002    +1.7142894e-006    +3.7542318e-008
+5.4400000e+002    +2.1755866e-006    +3.3057169e-008
+5.4500000e+002    +2.5527186e-006    +3.3735944e-008
+5.4600000e+002    +3.1216541e-006    +3.5330366e-008
+5.4700000e+002    +3.6031322e-006    +3.8115985e-008
+5.4800000e+002    +3.1186394e-006    +3.7127482e-008
+5.4900000e+002    +2.3904386e-006    +3.5109139e-008
+5.5000000e+002    +2.0575039e-006    +3.6529805e-008
+5.5100000e+002    +1.5870604e-006    +3.6652580e-008
+5.5200000e+002    +1.4584380e-006    +3.3510567e-008
+5.5300000e+002    +1.2244450e-006    +3.3697553e-008
+5.5400000e+002    +9.2023481e-007    +3.5325868e-008
+5.5500000e+002    +7.8143495e-007    +3.6211972e-008
+5.5600000e+002    +7.4249283e-007    +3.6822517e-008
+5.5700000e+002    +7.4318444e-007    +3.5714145e-008
+5.5800000e+002    +7.3427225e-007    +3.5438411e-008
+5.5900000e+002    +6.6337225e-007    +3.1614999e-008
+5.6000000e+002    +6.3651368e-007    +3.4892206e-008
+5.6100000e+002    +5.6343026e-007    +3.5936935e-008
+5.6200000e+002    +4.9077045e-007    +3.5934175e-008
+5.6300000e+002    +4.6632610e-007    +3.4575031e-008
+5.6400000e+002    +4.6170729e-007    +3.4816168e-008
+5.6500000e+002    +4.9552222e-007    +3.4979472e-008
+5.6600000e+002    +4.6793966e-007    +3.2365033e-008
+5.6700000e+002    +4.7202602e-007    +3.6292295e-008
+5.6800000e+002    +5.3122073e-007    +3.6338111e-008
+5.6900000e+002    +5.8386263e-007    +3.5546357e-008
+5.7000000e+002    +6.7464282e-007    +3.7028798e-008
+5.7100000e+002    +7.6152691e-007    +3.8474852e-008
+5.7200000e+002    +7.3839948e-007    +3.8466446e-008
+5.7300000e+002    +8.9953710e-007    +3.7291141e-008
+5.7400000e+002    +1.0065476e-006    +3.4246899e-008
+5.7500000e+002    +1.1252463e-006    +3.4267810e-008
+5.7600000e+002    +1.1883491e-006    +3.1783280e-008
+5.7700000e+002    +1.1690676e-006    +3.8901238e-008
+5.7800000e+002    +1.0167029e-006    +3.9421892e-008
+5.7900000e+002    +8.2465834e-007    +3.6672144e-008
+5.8000000e+002    +6.5214107e-007    +3.3835246e-008
+5.8100000e+002    +6.0991897e-007    +3.5026087e-008
+5.8200000e+002    +4.8166646e-007    +3.5967844e-008
+5.8300000e+002    +4.1545053e-007    +3.5971201e-008
+5.8400000e+002    +4.0758843e-007    +3.5406675e-008
+5.8500000e+002    +3.6924865e-007    +3.4399751e-008
+5.8600000e+002    +3.3033550e-007    +3.4862108e-008
+5.8700000e+002    +3.2294145e-007    +3.4874933e-008
+5.8800000e+002    +3.1263258e-007    +3.4681982e-008
+5.8900000e+002    +2.6682505e-007    +3.7134818e-008
+5.9000000e+002    +2.2077495e-007    +3.4670521e-008
+5.9100000e+002    +2.0585998e-007    +3.8334647e-008
+5.9200000e+002    +2.1583729e-007    +3.6231143e-008
+5.9300000e+002    +2.1358383e-007    +3.5047016e-008
+5.9400000e+002    +2.0619477e-007    +3.5526185e-008
+5.9500000e+002    +1.9677941e-007    +3.7817347e-008
+5.9600000e+002    +1.9137708e-007    +3.7736839e-008
+5.9700000e+002    +1.6692552e-007    +3.4339749e-008
+5.9800000e+002    +1.5132349e-007    +3.4096370e-008
+5.9900000e+002    +1.6303801e-007    +3.7859351e-008
+6.0000000e+002    +1.7314939e-007    +3.9255557e-008
+6.0100000e+002    +1.9880513e-007    +3.8212026e-008
+6.0200000e+002    +2.9450382e-007    +3.5650675e-008
+6.0300000e+002    +3.9573979e-007    +3.6578527e-008
+6.0400000e+002    +4.2565608e-007    +3.9759776e-008
+6.0500000e+002    +4.7584336e-007    +5.5124595e-008
+6.0600000e+002    +3.6608944e-007    +4.8568921e-008
+6.0700000e+002    +2.0599383e-007    +3.6638980e-008
+6.0800000e+002    +1.2169355e-007    +3.7882177e-008
+6.0900000e+002    +9.5030565e-008    +3.7330018e-008
+6.1000000e+002    +7.7079697e-008    +3.7454619e-008
+6.1100000e+002    +7.5344133e-008    +3.6951715e-008
+6.1200000e+002    +8.0108997e-008    +3.7568952e-008
+6.1300000e+002    +9.9871514e-008    +3.9159818e-008
+6.1400000e+002    +8.3705928e-008    +3.6866773e-008
+6.1500000e+002    +6.2082570e-008    +3.4294910e-008
+6.1600000e+002    +6.2823744e-008    +3.8346769e-008
+6.1700000e+002    +5.8172414e-008    +4.0068645e-008
+6.1800000e+002    +5.9458216e-008    +3.7692697e-008
+6.1900000e+002    +6.6126340e-008    +3.2818090e-008
+6.2000000e+002    +7.0406983e-008    +3.4994223e-008
+6.2100000e+002    +6.3799071e-008    +3.8216303e-008
+6.2200000e+002    +6.1290152e-008    +3.9533983e-008
+6.2300000e+002    +6.7286742e-008    +3.8885482e-008
+6.2400000e+002    +6.6684024e-008    +3.8037680e-008
+6.2500000e+002    +6.2741371e-008    +3.7346293e-008
+6.2600000e+002    +6.5262029e-008    +3.5028126e-008
+6.2700000e+002    +6.9166333e-008    +3.3343905e-008
+6.2800000e+002    +7.2297730e-008    +3.3547234e-008
+6.2900000e+002    +6.8716332e-008    +3.7185412e-008
+6.3000000e+002    +6.7233941e-008    +3.6671700e-008
+6.3100000e+002    +7.1735144e-008    +3.8099124e-008
+6.3200000e+002    +7.7424829e-008    +3.5175734e-008
+6.3300000e+002    +8.9189953e-008    +3.6979433e-008
+6.3400000e+002    +1.0244672e-007    +3.7080223e-008
+6.3500000e+002    +1.0748285e-007    +3.6735859e-008
+6.3600000e+002    +9.0909467e-008    +3.4707352e-008
+6.3700000e+002    +9.2846761e-008    +3.4959619e-008
+6.3800000e+002    +1.0834030e-007    +3.7646995e-008
+6.3900000e+002    +1.1080625e-007    +3.6532612e-008
+6.4000000e+002    +1.1616108e-007    +3.5814747e-008
+6.4100000e+002    +1.2208969e-007    +3.6594919e-008
+6.4200000e+002    +1.2623467e-007    +3.6971841e-008
+6.4300000e+002    +1.3696138e-007    +3.8358014e-008
+6.4400000e+002    +1.6436229e-007    +3.8138044e-008
+6.4500000e+002    +2.0875015e-007    +3.7090690e-008
+6.4600000e+002    +2.3660473e-007    +3.4944883e-008
+6.4700000e+002    +2.5752394e-007    +3.7441257e-008
+6.4800000e+002    +2.6013814e-007    +3.7219230e-008
+6.4900000e+002    +2.7325720e-007    +3.6432752e-008
+6.5000000e+002    +2.4621906e-007    +3.5328661e-008
+6.5100000e+002    +2.3431474e-007    +3.7270429e-008
+6.5200000e+002    +2.4854214e-007    +3.7741856e-008
+6.5300000e+002    +2.0834189e-007    +3.7650221e-008
+6.5400000e+002    +1.5204029e-007    +3.7803233e-008
+6.5500000e+002    +1.2515559e-007    +3.5431952e-008
+6.5600000e+002    +1.1752438e-007    +3.5680671e-008
+6.5700000e+002    +1.0980636e-007    +3.8133020e-008
+6.5800000e+002    +9.6538528e-008    +3.7426258e-008
+6.5900000e+002    +1.0927632e-007    +4.0225835e-008
+6.6000000e+002    +1.2427307e-007    +4.0994287e-008
+6.6100000e+002    +8.8368630e-008    +3.7174633e-008
+6.6200000e+002    +9.6801223e-008    +3.5181877e-008
+6.6300000e+002    +9.7446168e-008    +3.5624108e-008
+6.6400000e+002    +1.0485862e-007    +3.5909444e-008
+6.6500000e+002    +1.1743435e-007    +3.5732658e-008
+6.6600000e+002    +1.2341398e-007    +3.8678156e-008
+6.6700000e+002    +1.5157941e-007    +3.8801591e-008
+6.6800000e+002    +1.5856584e-007    +3.6946116e-008
+6.6900000e+002    +1.4234736e-007    +3.6727712e-008
+6.7000000e+002    +1.5841304e-007    +3.7948162e-008
+6.7100000e+002    +1.4944861e-007    +4.0881467e-008
+6.7200000e+002    +1.4997380e-007    +4.0420947e-008
+6.7300000e+002    +1.4212466e-007    +3.5172299e-008
+6.7400000e+002    +1.2214868e-007    +3.8837864e-008
+6.7500000e+002    +1.2857954e-007    +3.7710706e-008
+6.7600000e+002    +1.2787672e-007    +3.6571137e-008
+6.7700000e+002    +1.2378936e-007    +3.8184680e-008
+6.7800000e+002    +1.2802789e-007    +3.8978840e-008
+6.7900000e+002    +1.2849881e-007    +3.8418793e-008
+6.8000000e+002    +1.4280336e-007    +3.9091429e-008
+6.8100000e+002    +1.5354424e-007    +3.9149889e-008
+6.8200000e+002    +1.5103832e-007    +4.1028329e-008
+6.8300000e+002    +1.6530193e-007    +4.1572978e-008
+6.8400000e+002    +2.0197334e-007    +3.8779188e-008
+6.8500000e+002    +2.3746200e-007    +3.4470791e-008
+6.8600000e+002    +3.0130266e-007    +3.7966039e-008
+6.8700000e+002    +2.9146810e-007    +3.9537976e-008
+6.8800000e+002    +3.0322386e-007    +3.7892079e-008
+6.8900000e+002    +3.1759663e-007    +4.1088331e-008
+6.9000000e+002    +2.8193597e-007    +4.1615266e-008
+6.9100000e+002    +2.4267712e-007    +3.9216527e-008
+6.9200000e+002    +2.6776391e-007    +3.8094729e-008
+6.9300000e+002    +2.7988833e-007    +3.9501483e-008
+6.9400000e+002    +2.7194505e-007    +4.0320860e-008
+6.9500000e+002    +2.2388632e-007    +3.5152762e-008
+6.9600000e+002    +2.6283314e-007    +3.8411240e-008
+6.9700000e+002    +2.7669319e-007    +3.9602842e-008
+6.9800000e+002    +2.3918037e-007    +4.0197932e-008
+6.9900000e+002    +2.3727749e-007    +3.8753011e-008
+7.0000000e+002    +2.4687171e-007    +3.8838035e-008
+7.0100000e+002    +3.1079128e-007    +3.8363741e-008
+7.0200000e+002    +4.5064280e-007    +3.8808025e-008
+7.0300000e+002    +3.3544248e-007    +3.6174143e-008
+7.0400000e+002    +2.9130334e-007    +3.6378388e-008
+7.0500000e+002    +3.0274117e-007    +3.8363488e-008
+7.0600000e+002    +2.6582356e-007    +4.1463618e-008
+7.0700000e+002    +2.5998852e-007    +4.3476554e-008
+7.0800000e+002    +2.7529200e-007    +3.9552738e-008
+7.0900000e+002    +2.8206352e-007    +3.4896804e-008
+7.1000000e+002    +2.5664187e-007    +3.6109856e-008
+7.1100000e+002    +2.5544205e-007    +3.7517633e-008
+7.1200000e+002    +2.4601016e-007    +3.8575564e-008
+7.1300000e+002    +2.5270018e-007    +3.7373244e-008
+7.1400000e+002    +2.4662464e-007    +3.9424791e-008
+7.1500000e+002    +2.3484687e-007    +4.2136975e-008
+7.1600000e+002    +2.0498915e-007    +3.9850111e-008
+7.1700000e+002    +1.7584848e-007    +3.6735091e-008
+7.1800000e+002    +1.8376313e-007    +3.8580819e-008
+7.1900000e+002    +2.3289483e-007    +4.4575089e-008
+7.2000000e+002    +2.5725123e-007    +4.3545729e-008
+7.2100000e+002    +1.6491815e-007    +3.7022783e-008
+7.2200000e+002    +1.4209455e-007    +3.8516017e-008
+7.2300000e+002    +1.2129856e-007    +4.1795268e-008
+7.2400000e+002    +1.1259693e-007    +3.8146965e-008
+7.2500000e+002    +9.8889259e-008    +3.8622819e-008
+7.2600000e+002    +9.8926947e-008    +3.9590624e-008
+7.2700000e+002    +1.0566625e-007    +4.2886715e-008
+7.2800000e+002    +1.0106816e-007    +4.3725343e-008
+7.2900000e+002    +1.0292679e-007    +4.3386617e-008
+7.3000000e+002    +1.0498741e-007    +4.2605024e-008
+7.3100000e+002    +1.0064150e-007    +4.1148649e-008
+7.3200000e+002    +9.4198882e-008    +4.0948180e-008
+7.3300000e+002    +9.3549957e-008    +4.0038874e-008
+7.3400000e+002    +8.5832625e-008    +3.9320998e-008
+7.3500000e+002    +8.5975707e-008    +4.1403887e-008
+7.3600000e+002    +9.0945903e-008    +3.7256356e-008
+7.3700000e+002    +9.7787641e-008    +4.1524668e-008
+7.3800000e+002    +8.8427058e-008    +4.2836877e-008
+7.3900000e+002    +8.2346403e-008    +4.2041037e-008
+7.4000000e+002    +8.1993200e-008    +3.8680451e-008
+7.4100000e+002    +7.7294111e-008    +3.8212359e-008
+7.4200000e+002    +7.3006710e-008    +3.5714613e-008
+7.4300000e+002    +7.5919935e-008    +3.7520270e-008
+7.4400000e+002    +7.3645786e-008    +4.3098709e-008
+7.4500000e+002    +7.6790634e-008    +4.5071207e-008
+7.4600000e+002    +7.6676393e-008    +3.9489343e-008
+7.4700000e+002    +9.3607802e-008    +3.8427565e-008
+7.4800000e+002    +9.0020002e-008    +4.0684579e-008
+7.4900000e+002    +7.5137109e-008    +4.0975163e-008
+7.5000000e+002    +7.8282184e-008    +4.1607546e-008
+7.5100000e+002    +7.6864190e-008    +4.3053543e-008
+7.5200000e+002    +7.1801331e-008    +4.5515144e-008
+7.5300000e+002    +6.3236897e-008    +4.6771980e-008
+7.5400000e+002    +6.2326464e-008    +4.2619387e-008
+7.5500000e+002    +7.0145404e-008    +4.2098083e-008
+7.5600000e+002    +6.7812955e-008    +4.1176623e-008
+7.5700000e+002    +7.2273998e-008    +4.2675389e-008
+7.5800000e+002    +7.0297986e-008    +4.1900950e-008
+7.5900000e+002    +6.2952658e-008    +4.0433509e-008
+7.6000000e+002    +6.6887218e-008    +3.9725826e-008
+7.6100000e+002    +6.4568674e-008    +3.9419209e-008
+7.6200000e+002    +6.6448393e-008    +4.0211308e-008
+7.6300000e+002    +6.8582544e-008    +4.2935103e-008
+7.6400000e+002    +7.0567260e-008    +3.9071992e-008
+7.6500000e+002    +7.3566270e-008    +3.9559730e-008
+7.6600000e+002    +7.9412345e-008    +4.2726025e-008
+7.6700000e+002    +7.4730515e-008    +4.1804174e-008
+7.6800000e+002    +6.6530156e-008    +4.0370917e-008
+7.6900000e+002    +6.8114197e-008    +4.2045471e-008
+7.7000000e+002    +6.4401938e-008    +4.5488367e-008
+7.7100000e+002    +6.1319369e-008    +4.2332108e-008
+7.7200000e+002    +5.7240108e-008    +4.2414548e-008
+7.7300000e+002    +5.7752899e-008    +4.3810548e-008
+7.7400000e+002    +5.3121259e-008    +4.0507850e-008
+7.7500000e+002    +5.3859310e-008    +4.3038700e-008
+7.7600000e+002    +5.3357649e-008    +4.2080107e-008
+7.7700000e+002    +5.8861286e-008    +4.0408654e-008
+7.7800000e+002    +6.6102025e-008    +3.9045830e-008
+7.7900000e+002    +1.0460047e-007    +4.3670983e-008
+7.8000000e+002    +1.2960942e-007    +4.5081602e-008
+7.8100000e+002    +7.4553739e-008    +4.1677545e-008
+7.8200000e+002    +6.0928912e-008    +4.1662677e-008
+7.8300000e+002    +6.3927807e-008    +4.4268450e-008
+7.8400000e+002    +6.4215321e-008    +4.5537988e-008
+7.8500000e+002    +6.5884791e-008    +4.1063210e-008
+7.8600000e+002    +6.9425553e-008    +3.9822204e-008
+7.8700000e+002    +6.3744174e-008    +4.0919279e-008
+7.8800000e+002    +6.4625205e-008    +4.2461188e-008
+7.8900000e+002    +6.5031990e-008    +4.4470525e-008
+7.9000000e+002    +6.2305325e-008    +4.3873076e-008
+7.9100000e+002    +6.0629745e-008    +4.6003336e-008
+7.9200000e+002    +6.8293922e-008    +4.2593285e-008
+7.9300000e+002    +6.3388718e-008    +4.1517374e-008
+7.9400000e+002    +6.2724155e-008    +4.4591779e-008
+7.9500000e+002    +6.5493090e-008    +4.3000018e-008
+7.9600000e+002    +6.9973950e-008    +4.3325020e-008
+7.9700000e+002    +6.8699890e-008    +4.4719307e-008
+7.9800000e+002    +6.9923182e-008    +4.6446765e-008
+7.9900000e+002    +7.3038137e-008    +4.4661306e-008
