# Comments from moku data file:% Moku:Phasemeter 
# 
# % Ch 1 - DC coupling, 50 Ohm impedance, 1 V range
# 
# % Ch 1 bandwidth = 1.0000000000e+04 (Hz)
# 
# % Acquisition rate: 1.2500000000e+05 Hz
# 
# % External 10 MHz clock
# 
# % Acquired 2020-04-13 T 18:15:10 -0700
# 
# % Time, Set frequency 1 (Hz), Frequency 1 (Hz), Phase 1 (cyc), I 1 (V), Q 1 (V)
# 
# #########################################################
# ASD calculated by mokuReadFreqNoise.py
# Frequency [Hz]         Freq ASD1 [Hz/rtHz]      Freq ASDlb1 [Hz/rtHz]    Freq ASDub1 [Hz/rtHz]    
# 
0.000000000000000000e+00 2.309015376120753160e+02 5.886062306584802428e+01 4.250867768032574645e+02
1.000000000000000056e-01 3.186233839334596496e+02 1.379151821611372668e+02 4.252989661470417673e+02
2.000000000000000111e-01 1.759184404568624416e+02 1.043743431836990680e+02 2.243981479693431140e+02
3.000000000000000444e-01 1.561675685765691810e+02 1.174538187261812396e+02 1.856055184698980440e+02
4.000000000000000222e-01 9.384101183578573568e+01 5.651387489773487971e+01 1.465531584495961965e+02
5.000000000000000000e-01 8.095182267828377576e+01 5.491071340601124717e+01 1.437488489297161323e+02
6.000000000000000888e-01 8.424089251952912605e+01 3.281105329020530803e+01 1.182620939191342728e+02
7.000000000000000666e-01 8.067292618159571305e+01 4.902303855448745651e+01 1.114784171980268894e+02
8.000000000000000444e-01 3.263367311485032474e+01 1.167910542453353884e+01 8.261738469525981543e+01
9.000000000000000222e-01 3.936208487678268853e+01 2.561277321617932046e+01 6.129647713498625450e+01
1.000000000000000000e+00 4.696859897468559808e+01 2.854715475702834837e+01 5.736798511961822555e+01
1.100000000000000089e+00 3.790911683860328907e+01 1.745442841945559209e+01 5.455458311186955456e+01
1.200000000000000178e+00 2.864348304515555199e+01 1.628734360159223371e+01 4.479619418019939303e+01
1.300000000000000044e+00 2.721643002258972999e+01 1.612771108876723858e+01 4.128029131533502749e+01
1.400000000000000133e+00 2.552904574959294237e+01 1.988768294780887658e+01 2.889390662324537118e+01
1.500000000000000000e+00 1.095850314357337929e+01 5.996549187140542081e+00 2.493273079443486395e+01
1.600000000000000089e+00 1.391722915496295343e+01 9.347450130303128546e+00 2.222487527761005666e+01
1.700000000000000178e+00 1.931346849281346678e+01 1.202599373120017212e+01 2.309661612397293240e+01
1.800000000000000044e+00 1.873292830528881225e+01 1.353314896949785862e+01 3.524518120437943480e+01
1.900000000000000133e+00 1.037772304024947267e+01 6.656950406011141297e+00 2.716632069685353912e+01
2.000000000000000000e+00 1.663589699066438499e+01 6.418940775806073695e+00 2.559400078152798486e+01
2.100000000000000089e+00 1.487577334884361591e+01 1.010337572342093893e+01 2.407802479114150529e+01
2.200000000000000178e+00 1.222209268511231173e+01 6.210230022475911049e+00 1.639146360010481374e+01
2.300000000000000266e+00 1.108409647805116371e+01 4.115375961950660688e+00 2.029848571771558952e+01
2.400000000000000355e+00 1.271277918577315624e+01 4.456865628744808738e+00 1.862817961976109515e+01
2.500000000000000000e+00 9.033583656044385179e+00 7.447290132622563341e+00 1.788396101412530115e+01
2.600000000000000089e+00 9.718060585103120985e+00 3.477185428225832986e+00 1.595893012694378577e+01
2.700000000000000178e+00 9.241459466073372653e+00 4.898011198137724342e+00 1.850504792868747472e+01
2.800000000000000266e+00 9.712358194468654560e+00 5.697840185702252036e+00 1.460150308746422532e+01
2.900000000000000355e+00 1.052989208506132179e+01 3.669855019209861346e+00 1.142678699606329751e+01
3.000000000000000000e+00 9.422646019740422929e+00 6.572740624874978899e+00 1.177147581081322691e+01
3.100000000000000089e+00 9.786597444192809192e+00 5.074473351873654003e+00 1.378970713206329890e+01
3.200000000000000178e+00 1.040410362272075950e+01 5.186886064885470660e+00 1.660802769999217077e+01
3.300000000000000266e+00 1.184521545964030587e+01 5.809994251479109195e+00 1.746304887547787743e+01
3.400000000000000355e+00 9.405098108210745877e+00 5.809446257978012618e+00 1.740722877163520010e+01
3.500000000000000000e+00 9.784002422956733724e+00 6.245584489722597610e+00 1.893937260561656188e+01
3.600000000000000089e+00 9.033927295196834351e+00 6.324102912429667711e+00 1.872412170887708527e+01
3.700000000000000178e+00 9.446117256451978861e+00 6.066134346652454212e+00 1.524065215397603090e+01
3.800000000000000266e+00 7.706566790105410902e+00 4.598663657330249954e+00 1.564704611293985792e+01
3.900000000000000355e+00 7.123038924306690944e+00 3.820472996569200141e+00 9.849568268122215642e+00
4.000000000000000000e+00 9.372545239843168119e+00 4.718616592865408244e+00 1.175371391609504634e+01
4.100000000000000533e+00 8.286912083537485429e+00 4.694488389972593545e+00 9.990610356753276022e+00
4.200000000000000178e+00 6.495129343459661975e+00 3.220880654003308141e+00 1.035954242139025538e+01
4.299999999999999822e+00 8.277716899875082746e+00 5.864802050946128276e+00 1.110800496875665289e+01
4.400000000000000355e+00 8.504714006972447393e+00 5.160017750823675087e+00 1.266996855017856127e+01
4.500000000000000000e+00 5.809038598906037798e+00 3.580965655126199909e+00 1.383484191260689755e+01
4.600000000000000533e+00 5.387759895420798806e+00 2.972985103692192599e+00 1.391131415040096186e+01
4.700000000000000178e+00 6.600128274872291811e+00 4.151412266579075805e+00 9.665617252938796256e+00
4.800000000000000711e+00 4.407595158758253362e+00 2.666358124534760510e+00 9.634727182135362611e+00
4.900000000000000355e+00 4.722862962844261325e+00 3.220595863444126294e+00 1.192816521470652447e+01
5.000000000000000000e+00 8.190766259580863462e+00 3.946476628559575595e+00 1.101288225400574028e+01
5.100000000000000533e+00 7.438034895094063792e+00 3.033157568213234345e+00 1.590736433552697804e+01
5.200000000000000178e+00 8.431580018237548657e+00 5.151640944002275901e+00 1.036740505242077681e+01
5.300000000000000711e+00 6.571613334469397216e+00 4.035011239414169282e+00 1.515013729163413991e+01
5.400000000000000355e+00 9.727318375566682107e+00 6.185258148050311711e+00 1.302323985466530587e+01
5.500000000000000000e+00 1.135707204480266874e+01 6.616390078360968374e+00 1.471811294224033517e+01
5.600000000000000533e+00 4.989610785305900187e+00 2.391589594766949656e+00 1.245047057918553790e+01
5.700000000000000178e+00 8.470954369933290096e+00 5.318993803287811239e+00 1.162665348029301882e+01
5.800000000000000711e+00 5.365718075743882487e+00 2.269829440659095532e+00 9.094399356245233434e+00
5.900000000000000355e+00 6.479688899109531164e+00 3.511594103267491107e+00 8.314513243296213219e+00
6.000000000000000000e+00 7.625764901290470910e+00 3.408581857446229435e+00 1.067819453657817341e+01
6.100000000000000533e+00 6.874908411575463951e+00 4.211064535320647728e+00 8.602334866887931142e+00
6.200000000000000178e+00 5.475201336996748047e+00 3.376148245037713380e+00 6.214589138911529531e+00
6.300000000000000711e+00 6.590638711930298932e+00 3.314490035045748240e+00 7.755581805114828420e+00
6.400000000000000355e+00 3.739207409904748314e+00 2.857805005828121470e+00 7.526552491501639963e+00
6.500000000000000000e+00 4.625160599075606171e+00 2.541365175756746808e+00 7.924967509535281174e+00
6.600000000000000533e+00 5.193558096405921809e+00 2.859777916766740091e+00 9.468517434828626733e+00
6.700000000000000178e+00 7.278480934419562232e+00 4.810281414911321995e+00 1.181655092859697120e+01
6.800000000000000711e+00 8.517814539704552601e+00 5.355640055610534134e+00 1.379459741320609112e+01
6.900000000000000355e+00 9.434660951788654160e+00 8.290694914884335631e+00 1.569288886143465689e+01
7.000000000000000000e+00 1.384400714371507668e+01 6.432847157653266201e+00 2.008524330016657444e+01
7.100000000000000533e+00 1.376874869880028029e+01 1.019267776981240203e+01 2.319014479133541329e+01
7.200000000000000178e+00 1.702633050721211561e+01 7.932346314099709694e+00 2.136303760955030739e+01
7.300000000000000711e+00 1.167501787057540419e+01 7.700482700926667867e+00 1.590618907527869297e+01
7.400000000000000355e+00 1.164353487304097534e+01 6.350399613199890325e+00 1.610450761062460145e+01
7.500000000000000000e+00 9.370516439715272483e+00 4.912273333306807821e+00 1.314471536176371558e+01
7.600000000000000533e+00 6.789803471008677427e+00 5.458340140052738931e+00 8.961275343550896721e+00
7.700000000000000178e+00 5.569763653577132878e+00 3.883322212277680929e+00 7.793674399739828118e+00
7.800000000000000711e+00 4.681611554316238433e+00 2.817989689421851018e+00 8.662366712631278887e+00
7.900000000000000355e+00 3.371219255093279799e+00 2.377826888080364132e+00 7.140414820204197710e+00
8.000000000000000000e+00 3.920884943901038255e+00 2.447829299453418539e+00 7.736225455085652847e+00
8.099999999999999645e+00 6.045048858022909144e+00 2.776760324988226447e+00 6.563865185076475761e+00
8.200000000000001066e+00 5.819990537239515760e+00 3.081701898453159227e+00 7.304867126589829951e+00
8.300000000000000711e+00 3.712053006355847007e+00 2.842107249183813078e+00 6.089065563519147517e+00
8.400000000000000355e+00 5.434513184351356330e+00 3.931115971868470726e+00 7.951015785835790162e+00
8.500000000000000000e+00 6.027288780006132995e+00 3.680033389391677900e+00 8.644861730661920873e+00
8.599999999999999645e+00 6.197620274830978992e+00 9.341171293321550717e-01 8.152829777868007000e+00
8.700000000000001066e+00 7.233512530532358653e+00 3.648817683599872019e+00 8.938690552145850177e+00
8.800000000000000711e+00 1.010206690429930276e+01 5.247609895778968969e+00 1.076268862170418572e+01
8.900000000000000355e+00 7.484018157161083984e+00 4.997751371289833600e+00 9.858513925304052350e+00
9.000000000000000000e+00 4.763789698032450559e+00 2.067031973793360233e+00 5.671782685538396152e+00
9.099999999999999645e+00 4.039634802412069625e+00 1.790620113546274261e+00 6.409394134188021397e+00
9.200000000000001066e+00 3.357122679100572604e+00 2.646211889964426245e+00 7.078977329829364784e+00
9.300000000000000711e+00 6.254745168035109160e+00 1.293535073923365308e+00 7.647115755510502488e+00
9.400000000000000355e+00 5.681567238241085782e+00 2.219745989928371355e+00 9.543304654097136464e+00
9.500000000000000000e+00 3.320953061268141937e+00 2.483686425678868659e+00 7.479393397513424802e+00
9.600000000000001421e+00 4.888818689195103318e+00 2.816202856711910396e+00 7.519665519245321228e+00
9.700000000000001066e+00 5.193106448261844754e+00 3.483505826837541619e+00 7.161397345290257732e+00
9.800000000000000711e+00 4.090760967846679641e+00 2.853989960196380071e+00 6.518762251663754448e+00
9.900000000000000355e+00 5.273743052801934006e+00 3.766109518684400914e+00 1.006622850807532288e+01
1.000000000000000000e+01 5.198574237955247312e+00 1.845696958502080376e+00 9.763905117683851387e+00
1.100000000000000000e+01 5.299333078520363394e+00 2.183981762217632294e+00 1.006604283336429262e+01
1.200000000000000000e+01 3.733925197840314514e+00 1.549360927557267065e+00 7.741164300142110655e+00
1.300000000000000000e+01 3.386644217661462619e+00 1.448986076075881257e+00 6.458684430202569438e+00
1.400000000000000000e+01 3.107612282800797487e+00 1.082848934275842501e+00 5.894741167570769491e+00
1.500000000000000000e+01 2.904214218537466863e+00 8.706660548163879243e-01 4.878275246781873520e+00
1.600000000000000000e+01 2.304862222461120602e+00 6.996124026221217651e-01 4.758569209881856388e+00
1.700000000000000000e+01 1.866811220448022279e+00 7.478553004143840832e-01 4.301321373223276012e+00
1.800000000000000000e+01 1.860840607802246360e+00 7.558942413970495267e-01 4.657849627453477304e+00
1.900000000000000000e+01 1.538970740564701067e+00 5.798724068635009443e-01 3.370674562597292478e+00
2.000000000000000000e+01 1.179007597282349717e+00 6.070383842627002924e-01 2.511361036333752406e+00
2.100000000000000000e+01 1.176809239864328394e+00 5.168912572677256678e-01 2.290367237182488580e+00
2.200000000000000000e+01 9.973886365095534501e-01 4.415715723869066967e-01 2.125223717391279799e+00
2.300000000000000000e+01 9.433743796204785426e-01 4.817740789508147548e-01 1.785682657464221945e+00
2.400000000000000000e+01 8.956048490485367664e-01 3.842645257970909167e-01 1.654313119453828529e+00
2.500000000000000000e+01 7.834946072421408170e-01 3.470082673171913656e-01 1.360652199904400783e+00
2.600000000000000000e+01 6.386291813992417410e-01 3.005635409567854466e-01 1.245910458792899522e+00
2.700000000000000000e+01 5.888285558048613755e-01 2.608030953559697385e-01 1.094092966936676348e+00
2.800000000000000000e+01 4.841832933404662254e-01 2.868767101752288662e-01 9.650734973999028909e-01
2.900000000000000000e+01 5.054559206645692360e-01 2.268958904588198044e-01 9.028906932599950474e-01
3.000000000000000000e+01 4.738780876299050204e-01 1.938244315050523248e-01 8.854385538190786553e-01
3.100000000000000000e+01 4.462531285600732645e-01 2.075544400528068767e-01 8.351415742586224544e-01
3.200000000000000000e+01 4.537550475399850236e-01 2.001135425808843460e-01 8.064954085066617928e-01
3.300000000000000000e+01 3.656960493902712828e-01 1.833963672545659840e-01 7.561970886662671143e-01
3.400000000000000000e+01 3.552304472959621484e-01 1.787086265119626483e-01 6.074446975006553284e-01
3.500000000000000000e+01 3.071705832596522412e-01 1.853542509311409681e-01 5.217763077438687391e-01
3.600000000000000000e+01 2.773312869067157127e-01 1.449572242567755131e-01 5.177125834822484673e-01
3.700000000000000000e+01 3.102452182738951181e-01 1.342516830464647593e-01 5.434783071539017740e-01
3.800000000000000000e+01 2.918707256875205935e-01 1.016271798292860545e-01 4.789376993210952005e-01
3.900000000000000000e+01 2.680587139122142526e-01 1.332549969373451881e-01 4.926915225436745982e-01
4.000000000000000000e+01 2.394711821070654723e-01 1.181816888904466817e-01 4.209594110233144115e-01
4.100000000000000000e+01 2.277181426741226311e-01 1.135937398029534945e-01 4.257307284755277865e-01
4.200000000000000000e+01 2.515699568156063437e-01 1.213935738901759931e-01 3.915541204943869813e-01
4.300000000000000000e+01 2.266474398549894187e-01 1.068570516767734235e-01 3.950989129670151034e-01
4.400000000000000000e+01 2.179443782573877164e-01 1.222033264666270991e-01 3.618938906262117450e-01
4.500000000000000000e+01 2.238584253323548656e-01 1.223671040641594876e-01 3.953307835594362940e-01
4.600000000000000000e+01 2.165258267200482201e-01 1.111899950838578510e-01 3.529625648091453405e-01
4.700000000000000000e+01 1.952688112724664249e-01 1.097058198816794200e-01 3.260336404152111012e-01
4.800000000000000000e+01 1.696633280081968342e-01 9.433636968709599446e-02 3.113602726526306652e-01
4.900000000000000000e+01 1.846771355486391264e-01 7.341272867758334708e-02 3.217167299824195692e-01
5.000000000000000000e+01 1.714747645679540189e-01 6.153385914305053300e-02 2.896587526210170904e-01
5.100000000000000000e+01 1.956993508058448294e-01 9.950085559473947905e-02 3.085531418173410034e-01
5.200000000000000000e+01 1.786486911018208557e-01 9.565005647193126903e-02 3.304968710338222482e-01
5.300000000000000000e+01 1.860738485885040372e-01 1.078791441005634011e-01 3.236090127965776664e-01
5.400000000000000000e+01 1.687245283070268054e-01 8.675688332339297204e-02 2.566371715296867362e-01
5.500000000000000000e+01 1.708857033196540531e-01 9.398778660093905224e-02 2.687741187026779777e-01
5.600000000000000000e+01 1.619968123619953126e-01 7.968040625697342394e-02 2.618999467020226013e-01
5.700000000000000000e+01 1.653731656219813440e-01 8.013795152281226464e-02 2.802319775462069340e-01
5.800000000000000000e+01 1.699829744252546182e-01 6.677998726310636901e-02 2.667573751171471996e-01
5.900000000000000000e+01 1.595832739281322077e-01 7.914220839523788964e-02 2.579886963277883694e-01
6.000000000000000000e+01 1.796957577742666623e-01 9.204692394356901730e-02 2.966005494429851952e-01
6.100000000000000000e+01 1.675643768647172016e-01 9.628710521686788260e-02 2.712814944416175877e-01
6.200000000000000000e+01 1.536510964644360600e-01 7.628523903530898265e-02 2.332906639835389540e-01
6.300000000000000000e+01 1.270764988556186692e-01 6.891021390887314135e-02 2.340190882569677666e-01
6.400000000000000000e+01 1.109948864564366255e-01 6.050541229660359732e-02 2.021060730091890634e-01
6.500000000000000000e+01 1.198198311522870735e-01 5.846282556151225634e-02 1.747582097167151571e-01
6.600000000000000000e+01 1.139827724795591940e-01 5.967445775119382956e-02 1.887631028631674146e-01
6.700000000000000000e+01 1.009789834116672780e-01 5.606308553077141849e-02 1.580543992145586052e-01
6.800000000000000000e+01 9.242645425141209070e-02 4.989788145522580654e-02 1.539259239337228968e-01
6.900000000000000000e+01 8.621662519770773025e-02 4.983071634691981638e-02 1.475565551764704275e-01
7.000000000000000000e+01 7.929349677251229522e-02 4.377246604826479787e-02 1.389329699374428351e-01
7.100000000000000000e+01 8.280433335292768093e-02 4.108856802677436637e-02 1.307049141146476856e-01
7.200000000000000000e+01 9.082155508758801843e-02 4.130967673944452301e-02 1.397145292195185740e-01
7.300000000000000000e+01 6.612897975490719671e-02 3.666057903432821952e-02 1.377169730791990010e-01
7.400000000000000000e+01 8.419869925148353029e-02 3.848352481559728228e-02 1.188841279701645243e-01
7.500000000000000000e+01 6.202271947444191330e-02 3.434307391749438082e-02 1.316646631967280101e-01
7.600000000000000000e+01 6.852859192660447352e-02 3.969807873891730704e-02 1.243613321922074494e-01
7.700000000000000000e+01 6.737150272681000085e-02 3.734607755505264803e-02 1.132352315151113759e-01
7.800000000000000000e+01 6.920227710025377010e-02 3.326305405237995477e-02 1.063674718258248858e-01
7.900000000000000000e+01 6.155295244278600336e-02 3.690141803053764019e-02 1.059336644573682790e-01
8.000000000000000000e+01 6.540616183587603938e-02 3.203357190239857627e-02 1.038332278601989261e-01
8.100000000000000000e+01 6.418661642925520272e-02 3.545502926888760564e-02 1.085737135716535462e-01
8.200000000000000000e+01 5.843480223489888603e-02 2.600124475056260834e-02 1.089547045560790711e-01
8.300000000000000000e+01 5.405503999067435422e-02 2.747207216022529500e-02 9.753742660206798920e-02
8.400000000000000000e+01 5.228968999545863944e-02 2.694910456554611144e-02 8.837685447586010601e-02
8.500000000000000000e+01 5.916445971268758514e-02 2.911425495809958144e-02 9.130023964854797058e-02
8.600000000000000000e+01 6.719335758196448571e-02 3.634464400636744363e-02 1.140260001769223125e-01
8.700000000000000000e+01 5.735946395158281197e-02 3.003114582530317864e-02 1.122578537322387604e-01
8.800000000000000000e+01 5.179487277670732220e-02 2.595583920039499018e-02 9.322063051085517638e-02
8.900000000000000000e+01 5.216870324859514824e-02 2.470463416749786242e-02 8.704075875521780081e-02
9.000000000000000000e+01 5.072015859079284650e-02 2.276868583472516777e-02 8.708106620974566392e-02
9.100000000000000000e+01 5.729008558887269814e-02 2.905931956892118806e-02 9.840229997693906994e-02
9.200000000000000000e+01 6.118716729627823869e-02 2.483562998504909927e-02 9.008965882823762039e-02
9.300000000000000000e+01 5.269123983067327405e-02 2.462010443011585295e-02 7.990619926562481101e-02
9.400000000000000000e+01 5.240107017958992724e-02 2.670853594339299072e-02 8.229624795568020457e-02
9.500000000000000000e+01 5.236339346670609851e-02 2.695306843030657526e-02 8.004317482269375505e-02
9.600000000000000000e+01 4.670866723543969784e-02 2.103193087891768245e-02 8.155655925844448872e-02
9.700000000000000000e+01 4.715605486418417841e-02 2.179394940795112423e-02 8.586299463467858550e-02
9.800000000000000000e+01 4.836222593208579223e-02 2.224468713735870337e-02 8.169648241854177151e-02
9.900000000000000000e+01 5.152776204709255681e-02 2.677929235595326307e-02 7.420937679103981055e-02
1.000000000000000000e+02 5.575755741088077311e-02 2.656944426097016324e-02 9.278627543458253801e-02
1.100000000000000000e+02 7.349108956678283844e-02 3.729320266543287299e-02 1.241882488492164344e-01
1.200000000000000000e+02 8.282799990170212900e-02 4.096080799054387100e-02 1.496656821435863594e-01
1.300000000000000000e+02 7.657458094604378818e-02 3.647141187684130315e-02 1.268548433987962687e-01
1.400000000000000000e+02 6.791010134161211409e-02 3.276273227185191872e-02 1.188669610269672550e-01
1.500000000000000000e+02 6.096652231859103765e-02 2.513248657489404111e-02 1.187128836290324702e-01
1.600000000000000000e+02 5.827139844258343720e-02 2.653692172444606714e-02 1.046812796707242005e-01
1.700000000000000000e+02 4.126733174316299380e-02 2.027645814476060696e-02 7.205345458610366849e-02
1.800000000000000000e+02 4.582602094178220981e-02 2.412783888653517728e-02 6.920304697317884723e-02
1.900000000000000000e+02 3.470848681021222043e-02 1.743919275278748432e-02 5.353348505518210065e-02
2.000000000000000000e+02 3.078534237262666243e-02 1.618305129894035549e-02 5.108782583233070079e-02
2.100000000000000000e+02 3.401165572910610363e-02 1.739590794221661588e-02 5.627397543701763427e-02
2.200000000000000000e+02 3.976482472840860843e-02 1.840964801077813254e-02 6.694427946683202679e-02
2.300000000000000000e+02 4.821628889293073927e-02 2.448276537548197199e-02 7.876967872765544554e-02
2.400000000000000000e+02 6.488825504159741187e-02 3.586494565767343878e-02 9.710902914962571408e-02
2.500000000000000000e+02 4.619472852514084488e-02 2.266458678385702488e-02 7.948593553216395935e-02
2.600000000000000000e+02 8.387500579254432431e-02 4.125606421012777136e-02 1.437728206481403981e-01
2.700000000000000000e+02 1.212664835426189858e-01 4.966940799626462510e-02 2.419404595671814373e-01
2.800000000000000000e+02 1.067860981432491307e-01 4.765694441923354341e-02 1.947638640969278356e-01
2.900000000000000000e+02 5.347482086517172523e-02 2.726025273495964046e-02 9.004551863318061011e-02
3.000000000000000000e+02 4.532799219260293111e-02 2.364632493424302997e-02 6.908319887833919148e-02
3.100000000000000000e+02 3.377606471605242716e-02 1.671309984619027272e-02 5.443058040368060901e-02
3.200000000000000000e+02 3.102654082223988904e-02 1.611452991328478704e-02 5.059781033283545365e-02
3.300000000000000000e+02 3.152101473841976281e-02 1.622392169757402858e-02 5.247157009863610833e-02
3.400000000000000000e+02 3.171669044696014128e-02 1.642133300550256345e-02 5.254628823747945626e-02
3.500000000000000000e+02 3.137008006223759166e-02 1.508950703725083636e-02 5.096094532680306433e-02
3.600000000000000000e+02 3.222061783657094447e-02 1.550174551225956716e-02 5.083522128552841329e-02
3.700000000000000000e+02 2.965289234273923991e-02 1.497487132340435609e-02 4.854997801297684934e-02
3.800000000000000000e+02 3.355278038387741329e-02 1.725750159490651095e-02 5.369099044125614367e-02
3.900000000000000000e+02 4.072681607181161817e-02 1.972006054699117911e-02 6.499395889974785012e-02
4.000000000000000000e+02 3.826149562092240330e-02 1.948323301973319335e-02 6.288490085669884433e-02
4.100000000000000000e+02 3.670351892453168480e-02 1.843513279746599939e-02 6.019218949041656164e-02
4.200000000000000000e+02 4.525506469406260363e-02 2.289131321034550831e-02 7.277447980244126924e-02
4.300000000000000000e+02 3.996932285835995413e-02 1.908081133968814527e-02 6.563143414370507800e-02
4.400000000000000000e+02 3.510827253254810570e-02 1.727354214026493098e-02 5.806291925126601944e-02
4.500000000000000000e+02 3.134244143206833116e-02 1.587207982811628462e-02 5.019218309580915360e-02
4.600000000000000000e+02 2.844024301788463174e-02 1.333138366034631109e-02 4.536400614398242853e-02
4.700000000000000000e+02 3.390002943382138673e-02 1.746561889999977135e-02 5.279805978293636293e-02
4.800000000000000000e+02 5.066660022401002494e-02 3.013403151562476026e-02 7.120503491015159336e-02
4.900000000000000000e+02 3.271771204551745388e-02 1.722591840280210049e-02 5.002875148586443527e-02
5.000000000000000000e+02 2.546334960945616580e-02 1.218798254392245047e-02 4.118110035208143865e-02
5.100000000000000000e+02 2.474368820015477449e-02 1.214822814273901035e-02 4.040223912349614338e-02
5.200000000000000000e+02 2.476107830630266959e-02 1.213127759151011106e-02 4.146823069223053854e-02
5.300000000000000000e+02 3.129884448472923519e-02 1.600450107719519899e-02 5.235178793008727488e-02
5.400000000000000000e+02 4.173952123822712718e-02 2.151287611342234118e-02 6.289887789517785432e-02
5.500000000000000000e+02 3.154346173031648271e-02 1.531857923152747658e-02 4.944431253564481044e-02
5.600000000000000000e+02 2.901578923594700862e-02 1.516595009524154998e-02 4.847752287760687118e-02
5.700000000000000000e+02 3.186544269290389475e-02 1.646576032076560100e-02 5.267896581589860683e-02
5.800000000000000000e+02 3.016915758432722749e-02 1.566085554220723527e-02 5.099209502436492791e-02
5.900000000000000000e+02 3.030142419488238495e-02 1.492683761388976377e-02 5.025450648448779450e-02
6.000000000000000000e+02 4.130646511763709505e-02 2.148013794224493470e-02 6.266923030433754760e-02
6.100000000000000000e+02 2.838652490106291851e-02 1.396703437786573493e-02 4.726074148276872972e-02
6.200000000000000000e+02 3.388277129959017114e-02 1.739018207490043363e-02 5.403440067078244674e-02
6.300000000000000000e+02 1.055456316061789412e-01 5.398354987789438092e-02 1.812559742292445542e-01
6.400000000000000000e+02 1.182401970301138888e-01 5.891056460562991287e-02 2.021324422230022233e-01
6.500000000000000000e+02 9.810455635342864300e-02 4.923754137892472071e-02 1.633054280829240867e-01
6.600000000000000000e+02 1.151051311912880820e-01 5.584796052904457409e-02 1.857410549495983332e-01
6.700000000000000000e+02 8.656605313075067809e-02 4.253246012955887861e-02 1.427407296630517353e-01
6.800000000000000000e+02 7.331512295538955559e-02 3.857468617118284260e-02 1.186935461254231133e-01
6.900000000000000000e+02 6.320081390824763834e-02 3.192962386187861434e-02 1.039431648794140323e-01
7.000000000000000000e+02 4.569108188529292375e-02 2.281346884342219314e-02 7.381687596296465648e-02
7.100000000000000000e+02 3.912556689382788028e-02 1.958464039660571740e-02 6.432258716144487187e-02
7.200000000000000000e+02 5.831985482577616009e-02 2.907388504280099956e-02 9.790500885308010826e-02
7.300000000000000000e+02 4.682647102085174540e-02 2.409844323221594850e-02 7.691794968130144516e-02
7.400000000000000000e+02 2.341778099230507407e-02 1.128313678409207342e-02 3.809327414777530924e-02
7.500000000000000000e+02 2.340569658604384554e-02 1.259510380114510671e-02 3.908314348138743760e-02
7.600000000000000000e+02 2.762747987364624555e-02 1.391175043061416462e-02 4.443746157542036862e-02
7.700000000000000000e+02 3.375581751643560308e-02 1.532376006127122818e-02 5.429527157640678253e-02
7.800000000000000000e+02 5.037169746387656216e-02 2.493938498809946877e-02 8.211261008447619247e-02
7.900000000000000000e+02 1.029067860835400083e-01 5.176400652203873298e-02 1.782564958014202505e-01
8.000000000000000000e+02 1.779336994552556672e-01 8.757517688907569264e-02 3.089360561299036578e-01
8.100000000000000000e+02 1.374576859104564008e-01 7.045224605444468102e-02 2.208447437535440705e-01
8.200000000000000000e+02 1.124174019831601923e-01 5.716409818245618557e-02 1.874142046863585542e-01
8.300000000000000000e+02 1.483152989518444487e-01 7.444511243811721690e-02 2.330818611322282852e-01
8.400000000000000000e+02 3.969572434851981191e-01 2.698453413144277224e-01 5.270116656430834379e-01
8.500000000000000000e+02 3.670588628095554085e-01 2.123121353807351785e-01 5.127306578140999882e-01
8.600000000000000000e+02 1.949006687720155895e-01 9.602743398044510936e-02 3.253019069320149947e-01
8.700000000000000000e+02 1.398952640909641720e-01 7.112437441849883690e-02 2.294327138909933450e-01
8.800000000000000000e+02 8.716292805384229236e-02 4.096727872376574459e-02 1.386727305597722504e-01
8.900000000000000000e+02 5.613640165475614063e-02 2.744607342604310496e-02 9.214940609158851770e-02
9.000000000000000000e+02 6.186172323836529319e-02 3.104434968875376469e-02 1.013409791818798283e-01
9.100000000000000000e+02 7.574974904228468087e-02 3.521520421726125755e-02 1.231960242646508441e-01
9.200000000000000000e+02 6.364112388677077570e-02 3.337015248171566056e-02 1.026499570146027079e-01
9.300000000000000000e+02 4.585424679742015203e-02 2.300249796102248404e-02 7.406914290868704676e-02
9.400000000000000000e+02 3.705262095777853842e-02 1.794459223095541678e-02 6.168509798758450152e-02
9.500000000000000000e+02 3.524393545679985890e-02 1.739527967364028205e-02 5.836098529934469203e-02
9.600000000000000000e+02 4.402951358967586298e-02 2.210154223272277341e-02 7.400815748406551486e-02
9.700000000000000000e+02 4.682867342117185555e-02 2.379842024649705609e-02 7.673870567329639514e-02
9.800000000000000000e+02 5.429352081549145004e-02 2.700089860820498178e-02 8.762612182702105013e-02
9.900000000000000000e+02 6.199751712837378581e-02 3.035950149948958218e-02 1.017243911802838963e-01
1.000000000000000000e+03 8.455369725008549109e-02 4.180036814627919456e-02 1.382605757436930483e-01
1.100000000000000000e+03 7.388308860157809244e-02 3.651927190659313982e-02 1.219701789363586142e-01
1.200000000000000000e+03 5.542238717610459969e-02 2.797158424420936179e-02 9.099166609476906642e-02
1.300000000000000000e+03 4.380662992959603874e-02 2.156617754244291932e-02 7.167597160920263777e-02
1.400000000000000000e+03 3.457032116946382599e-02 1.688655241501633292e-02 5.744333967189895612e-02
1.500000000000000000e+03 3.922014857064635984e-02 1.938838527762178771e-02 6.510588209319556618e-02
1.600000000000000000e+03 3.606553811074052207e-02 1.751551214232151613e-02 6.014610285142255736e-02
1.700000000000000000e+03 2.471384401602216493e-02 1.202055722152877218e-02 4.307644832561410148e-02
1.800000000000000000e+03 2.254404780658188570e-02 1.080139191813573978e-02 3.970756206096465873e-02
1.900000000000000000e+03 2.215273063873208700e-02 1.077081610210512200e-02 3.954878961750356997e-02
2.000000000000000000e+03 2.171995989653015616e-02 1.052581741059478541e-02 3.887110283391868870e-02
2.100000000000000000e+03 2.212221967853916435e-02 1.080455871761661947e-02 3.944489137985181942e-02
2.200000000000000000e+03 2.189209041309431863e-02 1.058163839970623944e-02 3.866652402673590588e-02
2.300000000000000000e+03 2.158251969685933899e-02 1.049489110187841294e-02 3.870714052641686942e-02
2.400000000000000000e+03 2.169253644525455035e-02 1.062907388409338807e-02 3.867446823561059704e-02
2.500000000000000000e+03 2.204580617291492309e-02 1.065943245062204135e-02 3.908899002853841870e-02
2.600000000000000000e+03 2.222964390835883638e-02 1.085340670269231006e-02 3.948310540686971598e-02
2.700000000000000000e+03 2.263722578316030784e-02 1.093506108761442205e-02 4.027440026479411905e-02
2.800000000000000000e+03 2.309944139114748773e-02 1.124501401019818367e-02 4.054312794157619720e-02
2.900000000000000000e+03 2.371226844927305441e-02 1.160423321989557943e-02 4.144182433734788784e-02
3.000000000000000000e+03 2.478461102020412810e-02 1.203886565441499891e-02 4.276181752501251321e-02
3.100000000000000000e+03 2.568054971179089055e-02 1.239124381115792525e-02 4.437983972219339268e-02
3.200000000000000000e+03 2.708162185578065484e-02 1.323545318619866185e-02 4.666675952357672574e-02
3.300000000000000000e+03 3.193125789450111662e-02 1.550683711500355083e-02 5.382520197726851918e-02
3.400000000000000000e+03 3.325581328063036829e-02 1.635169413625260290e-02 5.513466495210120333e-02
3.500000000000000000e+03 3.181265456499638572e-02 1.587751387014982654e-02 5.376026019934450340e-02
3.600000000000000000e+03 3.943062904247209011e-02 1.962534581058788738e-02 6.370644430992104812e-02
3.700000000000000000e+03 4.512587325732972388e-02 2.399652007108724061e-02 7.045612581827184751e-02
3.800000000000000000e+03 3.568974709460442235e-02 1.734291188763258454e-02 5.936578520408483661e-02
3.900000000000000000e+03 3.210759984909105497e-02 1.580690748200538204e-02 5.419004550982184365e-02
4.000000000000000000e+03 3.207375954240445498e-02 1.583922464934916022e-02 5.444554866418588324e-02
4.100000000000000000e+03 3.325583720685378747e-02 1.608522053069808694e-02 5.672546558757854407e-02
4.200000000000000000e+03 3.456571530455518348e-02 1.702913285184365702e-02 5.819317602553233243e-02
4.300000000000000000e+03 3.524713355735838161e-02 1.698301966903606811e-02 6.041331147003372454e-02
4.400000000000000000e+03 3.683626400254842725e-02 1.804925155193701572e-02 6.310776846469379198e-02
4.500000000000000000e+03 3.853377828674288408e-02 1.848343606276348430e-02 6.610376950154529807e-02
4.600000000000000000e+03 3.920472230103441008e-02 1.861245518792888076e-02 6.755617790521308008e-02
4.700000000000000000e+03 4.276107421136225717e-02 2.027340448289160005e-02 7.480484871508680245e-02
4.800000000000000000e+03 6.632898186201104107e-02 3.148813458201304288e-02 1.111834955044162243e-01
4.900000000000000000e+03 9.340591298860922986e-02 5.427495238522384718e-02 1.323149063426727057e-01
5.000000000000000000e+03 6.945095506053469703e-02 3.224108643423194420e-02 1.147756561675709885e-01
5.100000000000000000e+03 4.357362510982875498e-02 2.063865121935444871e-02 7.882460781745044553e-02
5.200000000000000000e+03 3.928544272115603447e-02 1.860198225428815952e-02 7.116573119032304495e-02
5.300000000000000000e+03 3.854869978131780089e-02 1.818397921303416265e-02 6.949848403352161530e-02
5.400000000000000000e+03 3.763313652479458732e-02 1.795865070714982789e-02 6.789318782065435764e-02
5.500000000000000000e+03 3.701564405678011566e-02 1.751158950841761111e-02 6.616577758553403299e-02
5.600000000000000000e+03 3.624792598298621354e-02 1.730420848119167479e-02 6.442025895120537249e-02
5.700000000000000000e+03 3.490922716176662888e-02 1.664877955736114926e-02 6.206555030677757268e-02
5.800000000000000000e+03 3.437703068582452504e-02 1.628158205026842761e-02 6.101893771289320506e-02
5.900000000000000000e+03 3.443627976685730702e-02 1.687780224308669044e-02 6.001534074140950359e-02
6.000000000000000000e+03 3.439866198943634240e-02 1.679173692123181114e-02 5.948886438379240998e-02
6.100000000000000000e+03 3.466910224359749659e-02 1.659239087071455454e-02 5.990110596612629318e-02
6.200000000000000000e+03 3.426082926461752193e-02 1.662930979019916142e-02 5.920933029919685925e-02
6.300000000000000000e+03 3.277241374842624483e-02 1.623709909558170711e-02 5.794002794735940431e-02
6.400000000000000000e+03 3.257984201946846625e-02 1.568985510399596023e-02 5.690659156645845596e-02
6.500000000000000000e+03 3.247962567562272945e-02 1.586437847954963801e-02 5.629357830280382752e-02
6.600000000000000000e+03 3.276823793804325285e-02 1.608816746812363058e-02 5.620466725030458938e-02
6.700000000000000000e+03 3.220967624645008909e-02 1.563061355870393535e-02 5.627662616295972531e-02
6.800000000000000000e+03 3.235917968460019778e-02 1.606132237199949658e-02 5.620886173770595073e-02
6.900000000000000000e+03 3.222815742958740765e-02 1.549830610450232335e-02 5.665148135393296286e-02
7.000000000000000000e+03 3.238703677896464378e-02 1.592760197938450362e-02 5.716438892853976939e-02
7.100000000000000000e+03 3.547766550046854706e-02 1.669232904463298015e-02 6.565310851181266338e-02
7.200000000000000000e+03 4.993222542339563474e-02 2.202590051442844879e-02 1.058528409798149272e-01
7.300000000000000000e+03 8.932506180065445667e-02 3.775035146129655100e-02 1.352004276340757760e-01
7.400000000000000000e+03 9.274310870643977245e-02 3.903638905415878629e-02 1.380116087036653560e-01
7.500000000000000000e+03 5.387695503010436066e-02 2.294947752246605591e-02 1.120334545521288611e-01
7.600000000000000000e+03 3.706943650624587583e-02 1.805904644616372276e-02 6.918872167142137153e-02
7.700000000000000000e+03 3.363114298348697517e-02 1.632064253883287741e-02 5.880447213728628997e-02
7.800000000000000000e+03 3.328116862998342640e-02 1.594333379595057679e-02 5.830449207719534677e-02
7.900000000000000000e+03 3.370578237574106684e-02 1.658468426624147909e-02 5.857327027070309555e-02
8.000000000000000000e+03 3.355110246700384463e-02 1.635768133961986934e-02 5.843881829455034593e-02
8.100000000000000000e+03 3.401272166037482003e-02 1.672695638123956538e-02 5.934416928862436269e-02
8.200000000000000000e+03 3.599931901310253479e-02 1.735448711092752935e-02 6.348308886981565702e-02
8.300000000000000000e+03 4.102663328726218611e-02 1.948375294126012541e-02 8.647090800597963256e-02
8.400000000000000000e+03 6.440247903983271904e-02 2.548661596484368824e-02 2.725755031438177323e-01
8.500000000000000000e+03 2.017090960390953702e-01 4.485208046910128116e-02 3.525696150606416057e-01
8.600000000000000000e+03 2.556271098707205702e-01 6.424940842298959565e-02 3.677603159483741613e-01
8.700000000000000000e+03 1.332498071951370155e-01 3.531790049107551982e-02 3.471069299247755979e-01
8.800000000000000000e+03 5.188524645866354756e-02 2.261933914385363606e-02 1.748518190748617196e-01
8.900000000000000000e+03 3.940055664349076392e-02 1.889979895059806791e-02 7.507868924374931641e-02
9.000000000000000000e+03 3.660829963264139453e-02 1.767759409969977755e-02 6.452921857992856280e-02
9.100000000000000000e+03 3.639342682757094188e-02 1.794686093215659695e-02 6.366865602588267503e-02
9.200000000000000000e+03 3.661072766358609148e-02 1.808026259320225440e-02 6.367260417991892074e-02
9.300000000000000000e+03 3.711831351428823700e-02 1.841667514023621888e-02 6.439314499031681405e-02
9.400000000000000000e+03 3.790516966530202425e-02 1.889006533745639718e-02 6.661142610327630553e-02
9.500000000000000000e+03 4.159847661589453904e-02 1.979581475777082711e-02 7.669099070810725394e-02
9.600000000000000000e+03 5.108680872362221514e-02 2.286697275960898959e-02 1.161886013145514707e-01
9.700000000000000000e+03 7.764437923182185286e-02 3.068816327400910801e-02 1.535817104855911885e-01
9.800000000000000000e+03 1.022891990118602740e-01 3.984133674586422258e-02 1.658702081502535230e-01
9.900000000000000000e+03 8.340081509556214467e-02 3.243714665831554794e-02 1.591612898494180472e-01
1.000000000000000000e+04 5.373139065154162314e-02 2.423995506436633224e-02 1.235799351701423882e-01
1.010000000000000000e+04 4.324905447796988794e-02 2.122057151806537589e-02 8.060418141411181125e-02
1.020000000000000000e+04 4.078994976007166429e-02 1.962151823094936826e-02 7.163420074117711478e-02
1.030000000000000000e+04 4.034967446004699559e-02 1.980790140539342992e-02 7.008643063058826728e-02
1.040000000000000000e+04 4.025604089887995646e-02 2.017685722823042010e-02 6.924471969509582436e-02
1.050000000000000000e+04 4.094131620020370621e-02 2.021088002412074064e-02 7.045492168559662483e-02
1.060000000000000000e+04 4.246544641370716272e-02 2.076404454553391205e-02 7.548766886145906463e-02
1.070000000000000000e+04 4.792765000455719016e-02 2.284026770992956396e-02 9.597941160937864535e-02
1.080000000000000000e+04 6.156400335149123798e-02 2.690800315144692076e-02 2.552995612415585036e-01
1.090000000000000000e+04 1.155782735425283786e-01 3.662080367936317027e-02 3.802392007500626225e-01
1.100000000000000000e+04 2.200746575103638691e-01 5.165509786183349050e-02 4.084366460870560989e-01
1.110000000000000000e+04 2.005983377181592975e-01 4.579947774442942598e-02 4.104170366135810877e-01
1.120000000000000000e+04 8.714251792942606656e-02 3.235798630073068866e-02 3.637418688716379522e-01
1.130000000000000000e+04 5.510284460168605319e-02 2.529234648493506113e-02 1.574254756971561198e-01
1.140000000000000000e+04 4.650535498958802139e-02 2.241812428877893587e-02 8.637921211237162278e-02
1.150000000000000000e+04 4.453931935533681635e-02 2.151999743010101634e-02 7.642250949372883517e-02
1.160000000000000000e+04 4.279275192597797872e-02 2.119629774809782610e-02 7.368962227413422550e-02
1.170000000000000000e+04 4.312744336002866802e-02 2.120128900107407996e-02 7.396001576553479229e-02
1.180000000000000000e+04 4.429809769507987022e-02 2.178518828860626436e-02 7.568465970054667757e-02
1.190000000000000000e+04 4.471286286070356303e-02 2.168002577594407843e-02 7.629077973606122887e-02
1.200000000000000000e+04 4.617049440103439262e-02 2.274117331315071364e-02 7.765639490171639958e-02
1.210000000000000000e+04 4.794481511816543057e-02 2.335408723917550486e-02 7.957534813903671678e-02
1.220000000000000000e+04 5.075125929914087175e-02 2.550033659231664210e-02 8.560341713898766969e-02
1.230000000000000000e+04 5.532497525831435448e-02 2.788386664405442458e-02 9.192193413207397357e-02
1.240000000000000000e+04 4.936678405895381094e-02 2.420351731718693375e-02 8.363563611333538206e-02
1.250000000000000000e+04 4.713567998181745350e-02 2.321898729842650222e-02 7.984256771590343693e-02
1.260000000000000000e+04 4.629101647846408513e-02 2.281391715579153198e-02 7.787180684548068721e-02
1.270000000000000000e+04 4.637754001762006695e-02 2.241238464002716715e-02 7.776139222944836171e-02
1.280000000000000000e+04 4.606257493995753044e-02 2.231044497302831983e-02 7.844216432326990562e-02
1.290000000000000000e+04 4.573803656665869494e-02 2.256434405727223216e-02 7.759014979537408319e-02
1.300000000000000000e+04 4.619853044945016612e-02 2.318169854296043067e-02 7.809583913664271126e-02
1.310000000000000000e+04 4.779372169780046753e-02 2.306210391240581109e-02 8.094280163419789731e-02
1.320000000000000000e+04 4.940512848481243974e-02 2.406665762032255546e-02 8.512563933467402755e-02
1.330000000000000000e+04 5.281606481230301242e-02 2.550211578296447679e-02 8.937028123612447694e-02
1.340000000000000000e+04 5.571878975659545763e-02 2.709066804836626763e-02 9.313359389559508483e-02
1.350000000000000000e+04 5.613342676968872264e-02 2.743560108346093651e-02 9.517805354158385966e-02
1.360000000000000000e+04 5.505050028875157347e-02 2.703507853186148252e-02 9.275122357883405777e-02
1.370000000000000000e+04 5.351157778402960974e-02 2.657450339414609702e-02 8.991201829951843416e-02
1.380000000000000000e+04 5.276314017777201243e-02 2.571010617141570795e-02 8.772415000691839715e-02
1.390000000000000000e+04 4.870703938979352443e-02 2.386553916009975795e-02 8.101612950429087912e-02
1.400000000000000000e+04 4.737260519855617663e-02 2.292445884087218957e-02 7.977813879838911715e-02
1.410000000000000000e+04 4.634204290116389346e-02 2.266949738685842056e-02 7.889438423644626330e-02
1.420000000000000000e+04 4.738239625641518099e-02 2.345859779100268813e-02 7.906661902702113998e-02
1.430000000000000000e+04 4.788960412887457996e-02 2.361863886271576424e-02 8.006191627340168704e-02
1.440000000000000000e+04 4.852611501372645908e-02 2.403174873211333037e-02 8.185378830889469826e-02
1.450000000000000000e+04 5.005876421268843496e-02 2.536663727798913609e-02 8.484820131297773904e-02
1.460000000000000000e+04 5.161680974127055843e-02 2.527726236996384601e-02 8.694338693786198002e-02
1.470000000000000000e+04 5.247870608336119985e-02 2.538705577856675832e-02 8.821423907085154670e-02
1.480000000000000000e+04 5.237870995293414378e-02 2.574311476183459638e-02 8.844760513936923696e-02
1.490000000000000000e+04 4.998378550879327420e-02 2.430246206587529864e-02 8.478419755380335598e-02
1.500000000000000000e+04 4.848092982262462020e-02 2.372466702073525516e-02 8.139872105617335096e-02
1.510000000000000000e+04 4.723605857072211978e-02 2.313447154501711844e-02 8.001094707542594220e-02
1.520000000000000000e+04 4.734875511118422087e-02 2.301844966331807393e-02 7.950583803656526005e-02
1.530000000000000000e+04 4.636095383554830751e-02 2.315511544125834972e-02 7.791066583044763127e-02
1.540000000000000000e+04 4.656996214404125062e-02 2.261156055158697331e-02 7.874234415383019048e-02
1.550000000000000000e+04 4.822835342826184424e-02 2.396940868508100342e-02 8.107482474047073007e-02
1.560000000000000000e+04 4.902529845638676359e-02 2.433168780691283284e-02 8.224450129344546001e-02
1.570000000000000000e+04 5.582278962467732142e-02 2.803392114117632047e-02 9.143778239736911895e-02
1.580000000000000000e+04 5.663520641884524365e-02 2.860211998739736750e-02 9.334546372869084729e-02
1.590000000000000000e+04 5.283698566782252248e-02 2.597181132418946090e-02 8.727393145453993251e-02
1.600000000000000000e+04 5.196019333189985656e-02 2.559906226834018569e-02 8.758285531287254844e-02
1.610000000000000000e+04 5.060877179332977371e-02 2.499801741171497199e-02 8.470779804722569639e-02
1.620000000000000000e+04 4.900182307745542393e-02 2.425407939967120716e-02 8.238339950725684369e-02
1.630000000000000000e+04 4.776914552130590019e-02 2.365480028390907000e-02 7.979788954514582811e-02
1.640000000000000000e+04 4.624808274717333301e-02 2.304149940043923733e-02 7.751773133971896768e-02
1.650000000000000000e+04 4.551181392059871350e-02 2.263408020959915140e-02 7.643810230340881973e-02
1.660000000000000000e+04 4.570354433057407378e-02 2.254542203353325155e-02 7.636031972157088232e-02
1.670000000000000000e+04 4.607245755581168556e-02 2.284409313996673199e-02 7.764577437244254976e-02
1.680000000000000000e+04 5.466200146100375773e-02 2.728700884156785508e-02 8.878937656094997022e-02
1.690000000000000000e+04 5.544650482777670891e-02 2.832787395816920364e-02 9.108719239375275001e-02
1.700000000000000000e+04 4.778095766840437936e-02 2.390004225711090877e-02 7.964340026058581989e-02
1.710000000000000000e+04 4.675405186171046473e-02 2.325042742870983559e-02 7.868523170002031386e-02
1.720000000000000000e+04 4.705477999038249620e-02 2.376395217872645863e-02 7.850905512130088026e-02
1.730000000000000000e+04 4.778164759128857020e-02 2.422553900998375420e-02 7.840386834110645020e-02
1.740000000000000000e+04 4.652279376428758439e-02 2.332867266062548309e-02 7.714255129213035134e-02
1.750000000000000000e+04 4.580478128146218963e-02 2.281456473980015068e-02 7.631829634574141541e-02
1.760000000000000000e+04 4.493832023800932440e-02 2.223900129445554111e-02 7.462627101012798969e-02
1.770000000000000000e+04 4.474243903824504792e-02 2.215831344278984191e-02 7.436845987833613780e-02
1.780000000000000000e+04 4.454155714129563043e-02 2.227221520921783549e-02 7.307758325317445514e-02
1.790000000000000000e+04 4.404346980267096617e-02 2.187715265758146191e-02 7.366698407402419435e-02
1.800000000000000000e+04 4.384410633779516064e-02 2.178788458052829252e-02 7.396297790578090781e-02
1.810000000000000000e+04 4.473552713651796076e-02 2.249614727121608537e-02 7.411344109510115130e-02
1.820000000000000000e+04 4.427676783815946704e-02 2.189461465620844149e-02 7.362439878562293538e-02
1.830000000000000000e+04 4.443093324420353124e-02 2.190975934254296709e-02 7.329375413967645359e-02
1.840000000000000000e+04 4.406794298584673641e-02 2.166571161656324906e-02 7.349975148051053619e-02
1.850000000000000000e+04 4.386162675804169270e-02 2.184049686332758047e-02 7.251478493335195008e-02
1.860000000000000000e+04 4.434117034500651561e-02 2.159789142383818777e-02 7.363251961604994067e-02
1.870000000000000000e+04 4.365273269259056094e-02 2.184738367416691820e-02 7.334283870401707428e-02
1.880000000000000000e+04 4.654967854476947664e-02 2.276847490366507021e-02 7.616861765992984090e-02
1.890000000000000000e+04 5.368126536316687736e-02 2.721304211257542099e-02 8.600912256207786377e-02
1.900000000000000000e+04 4.626898933126125102e-02 2.328295129784327053e-02 7.653302717029408786e-02
1.910000000000000000e+04 4.438011678913506702e-02 2.209265693393372421e-02 7.441478142589401379e-02
1.920000000000000000e+04 5.938175301174025700e-02 3.153744745297469565e-02 9.418834644775117559e-02
1.930000000000000000e+04 5.561233066666928376e-02 2.812030980436515393e-02 8.909418270033167553e-02
1.940000000000000000e+04 4.455377383739313191e-02 2.188676349164121737e-02 7.369439195579088886e-02
1.950000000000000000e+04 4.610377505285807170e-02 2.250790516599688110e-02 7.560619174731153525e-02
1.960000000000000000e+04 4.590438606249892806e-02 2.286439094628519089e-02 7.616936345408185927e-02
1.970000000000000000e+04 4.405664082694416006e-02 2.193811618285329210e-02 7.324171342705702858e-02
1.980000000000000000e+04 4.364136263601848392e-02 2.169922938122107250e-02 7.226031062838711438e-02
1.990000000000000000e+04 4.332603238287753566e-02 2.167082073635713188e-02 7.126100203732953220e-02
2.000000000000000000e+04 4.345261438195430204e-02 2.149535962931855074e-02 7.165373903368728314e-02
2.010000000000000000e+04 4.267630176318352314e-02 2.123996901540637847e-02 7.056378825918972753e-02
2.020000000000000000e+04 4.284433440956755129e-02 2.105384580658658383e-02 7.104923297543831728e-02
2.030000000000000000e+04 4.439033455398679745e-02 2.200693936176838575e-02 7.293658934665142590e-02
2.040000000000000000e+04 5.486134823515319975e-02 2.808360805906074537e-02 8.858001631474900217e-02
2.050000000000000000e+04 2.914167912656239201e-01 2.450361093574283666e-01 3.481670376395986088e-01
2.060000000000000000e+04 1.253709455872263456e+00 1.208534176177150421e+00 1.303617468046900596e+00
2.070000000000000000e+04 1.153529582189696034e+00 1.098450430851334092e+00 1.202023041940896153e+00
2.080000000000000000e+04 2.028992723058487824e-01 1.528615122948370764e-01 2.468151864439742660e-01
2.090000000000000000e+04 5.222051797975040682e-02 2.658475674475232683e-02 8.442903324139976184e-02
2.100000000000000000e+04 4.478846553663772684e-02 2.210450917149523950e-02 7.350580421725932956e-02
2.110000000000000000e+04 4.373670229821702282e-02 2.169765830370451107e-02 7.112073184494628608e-02
2.120000000000000000e+04 4.241277276019210507e-02 2.103807693229911221e-02 6.994441517126075147e-02
2.130000000000000000e+04 4.279270361708954751e-02 2.142778851832021630e-02 7.034269193231577899e-02
2.140000000000000000e+04 4.375111269663186503e-02 2.166589306910178883e-02 7.152302369380061919e-02
2.150000000000000000e+04 4.461740298521436193e-02 2.277760910004375527e-02 7.372116832225258931e-02
2.160000000000000000e+04 4.322633891693111047e-02 2.123680512025265948e-02 7.132504375437510868e-02
2.170000000000000000e+04 4.238202194873186279e-02 2.042721777766254299e-02 6.933952910594765040e-02
2.180000000000000000e+04 4.214589127643796757e-02 2.064451244696898988e-02 6.879243799637317636e-02
2.190000000000000000e+04 4.192701099154564487e-02 2.095871922122255482e-02 6.951579115439981971e-02
2.200000000000000000e+04 4.247525988022961274e-02 2.136327192503133590e-02 6.984971773377453286e-02
2.210000000000000000e+04 4.248639980018237977e-02 2.121687718334836631e-02 6.891520180117188810e-02
2.220000000000000000e+04 4.138459542209185771e-02 2.098726240181565325e-02 6.870252926107808800e-02
2.230000000000000000e+04 4.184936875457957728e-02 2.124210546125746349e-02 6.885345951463354985e-02
2.240000000000000000e+04 4.185761309287121951e-02 2.106321419112057100e-02 6.895778116638390243e-02
2.250000000000000000e+04 4.216376738573569816e-02 2.074148799851461764e-02 6.842843348544258575e-02
2.260000000000000000e+04 4.202002269175070248e-02 2.073287406274560221e-02 6.923653594805546929e-02
2.270000000000000000e+04 4.240443538770577447e-02 2.099202579664404336e-02 6.935670934856691394e-02
2.280000000000000000e+04 4.099542148586412388e-02 2.012695530841517380e-02 6.801485467500835436e-02
2.290000000000000000e+04 4.124171186447078696e-02 2.039642682844867300e-02 6.865333204912064946e-02
2.300000000000000000e+04 4.190347131977051331e-02 2.116831372168527514e-02 6.922511428349818752e-02
2.310000000000000000e+04 4.190868464778096936e-02 2.132084757774941816e-02 6.859541099047199164e-02
2.320000000000000000e+04 4.164056162139529588e-02 2.068911393526198794e-02 6.885223582891161764e-02
2.330000000000000000e+04 4.187505900145704896e-02 2.086185791280868035e-02 6.901859195440560035e-02
2.340000000000000000e+04 4.224307584616329714e-02 2.093920362096064400e-02 6.916466976034917058e-02
2.350000000000000000e+04 4.190617634427588195e-02 2.098138904787146333e-02 6.926080892968168590e-02
2.360000000000000000e+04 4.189172248958619726e-02 2.080685867784217574e-02 6.846275034192042530e-02
2.370000000000000000e+04 4.307630693026819751e-02 2.137671175708350316e-02 7.093818156354737836e-02
2.380000000000000000e+04 4.365071791718062866e-02 2.172798812413117772e-02 7.102878521069296014e-02
2.390000000000000000e+04 4.179743086660126644e-02 2.114999963543289646e-02 6.824957945748409693e-02
2.400000000000000000e+04 4.480886260972376245e-02 2.262014318296639431e-02 7.197386127215142648e-02
2.410000000000000000e+04 4.253253983961960416e-02 2.096143311601142076e-02 6.935668866992100723e-02
2.420000000000000000e+04 4.210380178915127530e-02 2.104311759950009200e-02 6.891339573229932070e-02
2.430000000000000000e+04 4.134226184361394774e-02 2.086083267562777524e-02 6.846901974420617487e-02
2.440000000000000000e+04 4.063555473183388944e-02 1.992401677174789748e-02 6.737113204665751143e-02
2.450000000000000000e+04 4.151506413431628462e-02 2.050484096787485999e-02 6.712938102004793739e-02
2.460000000000000000e+04 4.132847296452238361e-02 2.036406731068162237e-02 6.804443724925274273e-02
2.470000000000000000e+04 4.064198849733186014e-02 2.035423863361155231e-02 6.696075465859754883e-02
2.480000000000000000e+04 4.242671032247997270e-02 2.091289496969586312e-02 6.946600275102285393e-02
2.490000000000000000e+04 4.121423511685608915e-02 2.066304257130782696e-02 6.787659729723562185e-02
2.500000000000000000e+04 4.073420983098586384e-02 2.048774918132128045e-02 6.685941212352469742e-02
2.510000000000000000e+04 4.041279005916914580e-02 1.991356782533287503e-02 6.599661516914809289e-02
2.520000000000000000e+04 4.025405904717735406e-02 2.028407358326126883e-02 6.598224846954489631e-02
2.530000000000000000e+04 4.007247404684136788e-02 1.991731253212513514e-02 6.609623941566931948e-02
2.540000000000000000e+04 4.030879153383480629e-02 2.055793565662590236e-02 6.636273962007384342e-02
2.550000000000000000e+04 4.120706142507611636e-02 2.061341834963128714e-02 6.767968655571010572e-02
2.560000000000000000e+04 4.200339814986614462e-02 2.076171954975499293e-02 6.894301298397145783e-02
2.570000000000000000e+04 4.270192725683084195e-02 2.133651299460272502e-02 6.989186435024472011e-02
2.580000000000000000e+04 4.170255392468887046e-02 2.088597567072892486e-02 6.826126681597885493e-02
2.590000000000000000e+04 4.048606421115311799e-02 2.045605970639245014e-02 6.607791012415070719e-02
2.600000000000000000e+04 4.017693976894887858e-02 1.989415332942564424e-02 6.521736971596439614e-02
2.610000000000000000e+04 4.000022903411191294e-02 1.969585233631625937e-02 6.552729164594645050e-02
2.620000000000000000e+04 3.989660765194623371e-02 2.013932930843050778e-02 6.511760743040477528e-02
2.630000000000000000e+04 3.946607248967981540e-02 1.959361595378263099e-02 6.402458682233219678e-02
2.640000000000000000e+04 3.868684026139292825e-02 1.953989322510205073e-02 6.359785436412251913e-02
2.650000000000000000e+04 3.875753050155524709e-02 1.935467186389739150e-02 6.396000988660638376e-02
2.660000000000000000e+04 3.880213600936713997e-02 1.970542911186397642e-02 6.421056437100507164e-02
2.670000000000000000e+04 3.919807804096310522e-02 1.974171222759320624e-02 6.450358468465398898e-02
2.680000000000000000e+04 3.928982393133947232e-02 1.974945311495116332e-02 6.478717311149609359e-02
2.690000000000000000e+04 3.892745606798538038e-02 1.947798857208435375e-02 6.420606524064084719e-02
2.700000000000000000e+04 3.890348235770271779e-02 1.938297627617095037e-02 6.349667961022797957e-02
2.710000000000000000e+04 3.962775060401260707e-02 1.998626306548175954e-02 6.466494436356134967e-02
2.720000000000000000e+04 3.939247420662879418e-02 1.966788295062981556e-02 6.401515831625614883e-02
2.730000000000000000e+04 3.921376818991383073e-02 1.934378487496111673e-02 6.342348701508458697e-02
2.740000000000000000e+04 3.892516877016623938e-02 1.923195415766070643e-02 6.381501734405227444e-02
2.750000000000000000e+04 3.920905471603832598e-02 1.939585591994377051e-02 6.354277716129401454e-02
2.760000000000000000e+04 4.057900193356296648e-02 1.993419931233605252e-02 6.622084977236904202e-02
2.770000000000000000e+04 4.365069196570636745e-02 2.174110628005832338e-02 7.118305089179224887e-02
2.780000000000000000e+04 8.690993836938264439e-01 8.159236154711808631e-01 9.153322318224367260e-01
2.790000000000000000e+04 1.850851469708745922e+00 1.814475522115451378e+00 1.888045387822736343e+00
2.800000000000000000e+04 9.860412658134755093e-01 9.388767476039873161e-01 1.039557736208958749e+00
2.810000000000000000e+04 4.353869014466429932e-02 2.129004626114494592e-02 7.248574909484821471e-02
2.820000000000000000e+04 3.949456894166268606e-02 1.928664150351315845e-02 6.469410166103198301e-02
2.830000000000000000e+04 3.736522057681792436e-02 1.860290855442177718e-02 6.119332163944583153e-02
2.840000000000000000e+04 3.701690262958089866e-02 1.826453179282378630e-02 6.070020445948089149e-02
2.850000000000000000e+04 3.698014236181673686e-02 1.824850747477558405e-02 6.053911053895309757e-02
2.860000000000000000e+04 3.673633862880994888e-02 1.841069733149135884e-02 5.950613351610586216e-02
2.870000000000000000e+04 3.738529143268091298e-02 1.851668649299091987e-02 5.998807021867281347e-02
2.880000000000000000e+04 4.646356373875570878e-02 2.354963377179490960e-02 7.349839983389364062e-02
2.890000000000000000e+04 4.807019419207402000e-02 2.486290461659281317e-02 7.569078329279364803e-02
2.900000000000000000e+04 3.678776268220642492e-02 1.830616311663798429e-02 6.076303188799080102e-02
2.910000000000000000e+04 3.559645173872649782e-02 1.799419683134466721e-02 5.859570563848301439e-02
2.920000000000000000e+04 3.610559054156264880e-02 1.777028128877633506e-02 5.874363868457924132e-02
2.930000000000000000e+04 3.618016077468869801e-02 1.789901011064454900e-02 5.911397433134028129e-02
2.940000000000000000e+04 3.558971896869343732e-02 1.781872857361960910e-02 5.863415939774585528e-02
2.950000000000000000e+04 3.551873950127204527e-02 1.795957520949291106e-02 5.832421672548113167e-02
2.960000000000000000e+04 3.583028013997319183e-02 1.749710942809912934e-02 5.889173779714890200e-02
2.970000000000000000e+04 3.540537148605952394e-02 1.766982132852470966e-02 5.835146510296326805e-02
2.980000000000000000e+04 4.070307598763875379e-02 2.067605033140907517e-02 6.695774197861487087e-02
2.990000000000000000e+04 5.651255635904484792e-02 2.825014330138249374e-02 9.270141905165772689e-02
3.000000000000000000e+04 4.415666104536056930e-02 2.221982093098270189e-02 7.172174014629686956e-02
3.010000000000000000e+04 4.115406379011981447e-02 2.041062175804215367e-02 6.784045527720652946e-02
3.020000000000000000e+04 4.529591556941076069e-02 2.253030319824892574e-02 7.380973907682236712e-02
3.030000000000000000e+04 3.674733663961216035e-02 1.827551011540063178e-02 6.062269243633540416e-02
3.040000000000000000e+04 6.333067022456241590e-02 3.177484130037681181e-02 1.033221829396426539e-01
3.050000000000000000e+04 9.592069403744317435e-02 4.794744681501730832e-02 1.588540459735384713e-01
3.060000000000000000e+04 6.899964097274860486e-02 3.481475367747697419e-02 1.131868346699754918e-01
3.070000000000000000e+04 9.756903295196564518e-02 4.920840928960729110e-02 1.570463397753638357e-01
3.080000000000000000e+04 5.977711049929873566e-02 3.011278975903458957e-02 9.628948836162515290e-02
3.090000000000000000e+04 6.317524864755272307e-02 3.443630410979141299e-02 9.525874307984748268e-02
3.100000000000000000e+04 1.589838466936107086e-01 1.266038960650482104e-01 1.912041456036440157e-01
3.110000000000000000e+04 1.159620476694884217e-01 7.851464489019582826e-02 1.504709290323361093e-01
3.120000000000000000e+04 3.724643168961376538e-02 1.879107915024014891e-02 6.062429999257156615e-02
3.130000000000000000e+04 3.579085485751031664e-02 1.762080772206666909e-02 5.778691860398180863e-02
3.140000000000000000e+04 3.544129857460074501e-02 1.765083407315772360e-02 5.780977894696990443e-02
3.150000000000000000e+04 3.705530207077404464e-02 1.838770737053857518e-02 6.089036506154989203e-02
3.160000000000000000e+04 3.490902219553999181e-02 1.697399579481039325e-02 5.648926190883696297e-02
3.170000000000000000e+04 3.371190202756223914e-02 1.712085886990726696e-02 5.531294396086195581e-02
3.180000000000000000e+04 3.384108683510576171e-02 1.709465502598432607e-02 5.554779482036758392e-02
3.190000000000000000e+04 3.424055216803206791e-02 1.669822373585113165e-02 5.593525981400990221e-02
3.200000000000000000e+04 3.395339644085392655e-02 1.693029121085493430e-02 5.535882788379952596e-02
3.210000000000000000e+04 3.370370719668128873e-02 1.698641973856752918e-02 5.524818227001634247e-02
3.220000000000000000e+04 3.385275324508451450e-02 1.701070447791378643e-02 5.526409329171137752e-02
3.230000000000000000e+04 3.307132154337302093e-02 1.674405344708102331e-02 5.435024443701301500e-02
3.240000000000000000e+04 3.345059015647171979e-02 1.675543238043518401e-02 5.458092150580020480e-02
3.250000000000000000e+04 3.382711046102500341e-02 1.690656458880160709e-02 5.574698523363821878e-02
3.260000000000000000e+04 3.391379532732934771e-02 1.680848145127997878e-02 5.527348091190726481e-02
3.270000000000000000e+04 3.354259216642112296e-02 1.693460075155997849e-02 5.442904305197772408e-02
3.280000000000000000e+04 3.367982880602073820e-02 1.679755673870159116e-02 5.457321073826347513e-02
3.290000000000000000e+04 3.371382660186308250e-02 1.684096577768401728e-02 5.516975112715182678e-02
3.300000000000000000e+04 3.592008633040050941e-02 1.778491765472855687e-02 5.860674741657622561e-02
3.310000000000000000e+04 7.468455308347896060e-02 4.740354210496102588e-02 1.026471332662069885e-01
3.320000000000000000e+04 7.328165599959002297e-02 4.599046672161691274e-02 1.013168344733225978e-01
3.330000000000000000e+04 3.526003564537477653e-02 1.746167956254430359e-02 5.733575558470493938e-02
3.340000000000000000e+04 3.303343822429626736e-02 1.643333830231975476e-02 5.385839429636116171e-02
3.350000000000000000e+04 3.245918201488658117e-02 1.608961203458050132e-02 5.386857588763252491e-02
3.360000000000000000e+04 3.248952086793843730e-02 1.614345510375378434e-02 5.287876418950176322e-02
3.370000000000000000e+04 3.220655278725795267e-02 1.603326648476749786e-02 5.327652153462773127e-02
3.380000000000000000e+04 3.254152873274913232e-02 1.581577075303011726e-02 5.340978978913303588e-02
3.390000000000000000e+04 3.264575624291697620e-02 1.612989602012800464e-02 5.293883983256504611e-02
3.400000000000000000e+04 3.246005070960326921e-02 1.607084531475152026e-02 5.280598761096324395e-02
3.410000000000000000e+04 3.216814443006951740e-02 1.591737558981486458e-02 5.213991629156034674e-02
3.420000000000000000e+04 3.202714780572515213e-02 1.615014059680952227e-02 5.315930424895559669e-02
3.430000000000000000e+04 3.216170649039892804e-02 1.581039850950376191e-02 5.270841502281593122e-02
3.440000000000000000e+04 3.230586048353106809e-02 1.601852189548551644e-02 5.321891670633809024e-02
3.450000000000000000e+04 3.197355644588081858e-02 1.598328471255307942e-02 5.201139659001531579e-02
3.460000000000000000e+04 3.156698286705980627e-02 1.590570310675577803e-02 5.169737421409383027e-02
3.470000000000000000e+04 3.184867656645053863e-02 1.592192976739937801e-02 5.193253864865498420e-02
3.480000000000000000e+04 3.162702540341699731e-02 1.586372449543422755e-02 5.149086446075344659e-02
3.490000000000000000e+04 3.170599370154486563e-02 1.580700471504504351e-02 5.221498056040601438e-02
3.500000000000000000e+04 3.201549705125220080e-02 1.616053787957295526e-02 5.200648321259526696e-02
3.510000000000000000e+04 3.556883051188671624e-02 1.798778486506711141e-02 5.758215756783087447e-02
3.520000000000000000e+04 3.700910787309642097e-02 1.869327516791872285e-02 5.986313791726081968e-02
3.530000000000000000e+04 3.202926971504924808e-02 1.577822162181709981e-02 5.222671587200182486e-02
3.540000000000000000e+04 3.153142344108781497e-02 1.562070225000138264e-02 5.094314630820697548e-02
3.550000000000000000e+04 3.117377775424480177e-02 1.558178897278478942e-02 5.062367057412367477e-02
3.560000000000000000e+04 3.107704001142930217e-02 1.561153163757723721e-02 5.124726295988520780e-02
3.570000000000000000e+04 3.120587014541719578e-02 1.566211483285285047e-02 5.152349079819776995e-02
3.580000000000000000e+04 3.147606729584055685e-02 1.578620916744492494e-02 5.127715853550637165e-02
3.590000000000000000e+04 3.115214128949674380e-02 1.576684775768914457e-02 5.079130555849156042e-02
3.600000000000000000e+04 3.133350781534548213e-02 1.568415970877192617e-02 5.075295601824093145e-02
3.610000000000000000e+04 3.098555278586061917e-02 1.570459303673336915e-02 5.099570173107786236e-02
3.620000000000000000e+04 3.133061664435252830e-02 1.562294191209977028e-02 5.102214669736828551e-02
3.630000000000000000e+04 3.192546888309719805e-02 1.559438444096840695e-02 5.124423679222942646e-02
3.640000000000000000e+04 3.125324940059028000e-02 1.543820775046631649e-02 5.121149424359614649e-02
3.650000000000000000e+04 3.094356786951765401e-02 1.542210366055594799e-02 5.071820785520539387e-02
3.660000000000000000e+04 3.101485915745321245e-02 1.553836724395227416e-02 5.038823676552430658e-02
3.670000000000000000e+04 3.064610011149857677e-02 1.530517738156884390e-02 5.031231606115459803e-02
3.680000000000000000e+04 3.074003157031100775e-02 1.522904868304201555e-02 5.009299698717752797e-02
3.690000000000000000e+04 3.068146898685509757e-02 1.507330625631110761e-02 5.035929208794116124e-02
3.700000000000000000e+04 5.480333878319718077e-02 2.771437855134098807e-02 8.914800155285163008e-02
3.710000000000000000e+04 8.656669919650737677e-02 4.358315938036685933e-02 1.388598480912834887e-01
3.720000000000000000e+04 5.952912592665785679e-02 2.983725143678478409e-02 9.657954849272801234e-02
3.730000000000000000e+04 8.952532439603977377e-02 4.486376137157151861e-02 1.425551416460565657e-01
3.740000000000000000e+04 5.709005596411805689e-02 2.849685588346820286e-02 9.260710893601323268e-02
3.750000000000000000e+04 3.718232062734052462e-02 1.869308558515866275e-02 5.982151229006271026e-02
3.760000000000000000e+04 9.745274842630671785e-02 7.231252089505983693e-02 1.228463583293986083e-01
3.770000000000000000e+04 8.559557836556942745e-02 5.987890670440034618e-02 1.114716993309032012e-01
3.780000000000000000e+04 3.240027692556558120e-02 1.624660417384522423e-02 5.287576445939413949e-02
3.790000000000000000e+04 3.077778335488688677e-02 1.515694252874014852e-02 4.967162329192131853e-02
3.800000000000000000e+04 3.040161388466330883e-02 1.532616940121850520e-02 4.951347242521123709e-02
3.810000000000000000e+04 3.115182029217089879e-02 1.539428707120292852e-02 5.071948476660689820e-02
3.820000000000000000e+04 4.346142591981560360e-02 2.183139872876890472e-02 7.100812577481301069e-02
3.830000000000000000e+04 5.279963049547466841e-02 2.624264204245227786e-02 8.722413062430492414e-02
3.840000000000000000e+04 4.242438419434591684e-02 2.075694815914760905e-02 6.894347421603984338e-02
3.850000000000000000e+04 3.303145580989914898e-02 1.657712762680300239e-02 5.407947695161615526e-02
3.860000000000000000e+04 3.025142476376456099e-02 1.473648271615869698e-02 4.947507478754555044e-02
3.870000000000000000e+04 3.000323529057698918e-02 1.515011066204586740e-02 4.858678488192565148e-02
3.880000000000000000e+04 2.993893268702759944e-02 1.507651305914125064e-02 4.821789321740749951e-02
3.890000000000000000e+04 2.973927587498405994e-02 1.499808175456660356e-02 4.842826351365091958e-02
3.900000000000000000e+04 3.001336093561472046e-02 1.489220825497038214e-02 4.891963339775204367e-02
3.910000000000000000e+04 3.931705251032062420e-02 1.999362898424332860e-02 6.206679545050496766e-02
3.920000000000000000e+04 9.838270369649042280e-02 7.262627692013720604e-02 1.250940865066341168e-01
3.930000000000000000e+04 8.096053109826627237e-02 5.371193276122326887e-02 1.085922939522334513e-01
3.940000000000000000e+04 3.215592165020988991e-02 1.606084879164338189e-02 5.236673952268978971e-02
3.950000000000000000e+04 3.114804603089694687e-02 1.543284940876236619e-02 5.077739762255889522e-02
3.960000000000000000e+04 3.024217292136271301e-02 1.525122217545749059e-02 4.912569472372933094e-02
3.970000000000000000e+04 2.984375930874918689e-02 1.496935442018187609e-02 4.846502299937056890e-02
3.980000000000000000e+04 2.961318103523324224e-02 1.477548271224269835e-02 4.857706021391151874e-02
3.990000000000000000e+04 2.980782736736056412e-02 1.481497654362626606e-02 4.839456863428127920e-02
4.000000000000000000e+04 2.898792916069224332e-02 1.454168755553397752e-02 4.797465380022099962e-02
4.010000000000000000e+04 2.919376643898408466e-02 1.481483231369489124e-02 4.691407269017676407e-02
4.020000000000000000e+04 2.896251600350291736e-02 1.458677362783097377e-02 4.746796966182668248e-02
4.030000000000000000e+04 2.886153878568256323e-02 1.442596009529581447e-02 4.698042291750059024e-02
4.040000000000000000e+04 2.911223246747106710e-02 1.443249741923345944e-02 4.755155672337096212e-02
4.050000000000000000e+04 2.923532848354493466e-02 1.452571650974909985e-02 4.738912167193379960e-02
4.060000000000000000e+04 2.940875151270375132e-02 1.468526729949785198e-02 4.839312212779207228e-02
4.070000000000000000e+04 2.974255981459270406e-02 1.444301481220724298e-02 4.855428999308307458e-02
4.080000000000000000e+04 2.937904537211929318e-02 1.493219505735881095e-02 4.805716995765014349e-02
4.090000000000000000e+04 2.916179373170903200e-02 1.446219061043048197e-02 4.732632043386812010e-02
4.100000000000000000e+04 2.887351790690478870e-02 1.426825646171359790e-02 4.674011926521259158e-02
4.110000000000000000e+04 2.893784656671433836e-02 1.454785375064287893e-02 4.706394875872246114e-02
4.120000000000000000e+04 7.166531974468393074e-02 4.752188106573372595e-02 9.690107015286630876e-02
4.130000000000000000e+04 1.141103189194792589e-01 8.947311559649914758e-02 1.381590984073057249e-01
4.140000000000000000e+04 5.233435508704827738e-02 3.010244341295446879e-02 7.617225172078075091e-02
4.150000000000000000e+04 2.890808126469368924e-02 1.443314959785203799e-02 4.686526507909456046e-02
4.160000000000000000e+04 2.862084036492135511e-02 1.425099006048152414e-02 4.648265990203990367e-02
4.170000000000000000e+04 2.831206143139542580e-02 1.415287473114975637e-02 4.600835177872578813e-02
4.180000000000000000e+04 2.828896590139008682e-02 1.405546577282995244e-02 4.625445494172318595e-02
4.190000000000000000e+04 2.809636808624368237e-02 1.397823693216542276e-02 4.587596761354055530e-02
4.200000000000000000e+04 2.801844751358078048e-02 1.386070227924899798e-02 4.536779709937213689e-02
4.210000000000000000e+04 2.778700832357900580e-02 1.409544919462143477e-02 4.549912299791489950e-02
4.220000000000000000e+04 2.775016122136902269e-02 1.386811934225213629e-02 4.578973653060048471e-02
4.230000000000000000e+04 2.803285226884312531e-02 1.365591856848344908e-02 4.570668306121038887e-02
4.240000000000000000e+04 2.828911140241421526e-02 1.399558086354361908e-02 4.600169669443734261e-02
4.250000000000000000e+04 2.819999277052981715e-02 1.391332121622478393e-02 4.598534796726718582e-02
4.260000000000000000e+04 2.792274608695157270e-02 1.415870737033315431e-02 4.574318712062017123e-02
4.270000000000000000e+04 2.815410414151985757e-02 1.407979026891949259e-02 4.576743459326180347e-02
4.280000000000000000e+04 2.785440861724997053e-02 1.413720175571767622e-02 4.492864205809680989e-02
4.290000000000000000e+04 2.759466323622484021e-02 1.358107602771831471e-02 4.497703980726067141e-02
4.300000000000000000e+04 2.736687894745491734e-02 1.370386612977166595e-02 4.505044477513615864e-02
4.310000000000000000e+04 2.768982872281495686e-02 1.372288180840657359e-02 4.527573624508916816e-02
4.320000000000000000e+04 2.775580877702279320e-02 1.361701598506228489e-02 4.540670989421653758e-02
4.330000000000000000e+04 2.754839290166954599e-02 1.358967978488995025e-02 4.478379919749243127e-02
4.340000000000000000e+04 2.739836358824971480e-02 1.379290748768885813e-02 4.511304669521039312e-02
4.350000000000000000e+04 2.772438790738839323e-02 1.379545740768504773e-02 4.506731187826758939e-02
4.360000000000000000e+04 2.765911027884462858e-02 1.373042607577950290e-02 4.513093430139688417e-02
4.370000000000000000e+04 2.789760403257070948e-02 1.377272469214178320e-02 4.604809176105575247e-02
4.380000000000000000e+04 2.809951508709238391e-02 1.401883992499287739e-02 4.581287085484141153e-02
4.390000000000000000e+04 2.932689926314312190e-02 1.478750118049168387e-02 4.782128775005120569e-02
4.400000000000000000e+04 2.933061430951942883e-02 1.468938983559255236e-02 4.785465701546915557e-02
4.410000000000000000e+04 3.017090474974711348e-02 1.512461234591341158e-02 4.948290310014911986e-02
4.420000000000000000e+04 4.906604032467615228e-02 2.478198319289260862e-02 8.051632588960037917e-02
4.430000000000000000e+04 5.159372469271066713e-02 2.607232940383031466e-02 8.376697604318561474e-02
4.440000000000000000e+04 3.074127063208058341e-02 1.511567382500124748e-02 5.003160426648390474e-02
4.450000000000000000e+04 2.792897742188964888e-02 1.390798521478720309e-02 4.532699289446055768e-02
4.460000000000000000e+04 2.770364319583924761e-02 1.410682118414465641e-02 4.462609012935538771e-02
4.470000000000000000e+04 2.735537395143535291e-02 1.361045198816885141e-02 4.484918517835090324e-02
4.480000000000000000e+04 2.784579438955375047e-02 1.380416535185629255e-02 4.532551977812405986e-02
4.490000000000000000e+04 2.815370823296192704e-02 1.389388794411556757e-02 4.596019925035928905e-02
4.500000000000000000e+04 2.797078233487743440e-02 1.394379325041220259e-02 4.590993091344366256e-02
4.510000000000000000e+04 2.825728872257153232e-02 1.402621280372578008e-02 4.592101189927404875e-02
4.520000000000000000e+04 2.841037243935903844e-02 1.400792032938165919e-02 4.603937473375380868e-02
4.530000000000000000e+04 5.740259442497077508e-02 2.829737884523617075e-02 9.271049534679913495e-02
4.540000000000000000e+04 1.392639558661825372e-01 7.025200204208349730e-02 2.253473025615417291e-01
4.550000000000000000e+04 1.399145083287167968e-01 6.897483158359242472e-02 2.275687626569720123e-01
4.560000000000000000e+04 6.322318978007172852e-02 3.166392884306974687e-02 1.011790447181323688e-01
4.570000000000000000e+04 2.825632249065301513e-02 1.400391825776420469e-02 4.589551854618414972e-02
4.580000000000000000e+04 2.765646331014416995e-02 1.376522814129858829e-02 4.516588860792926374e-02
4.590000000000000000e+04 2.747533197069974495e-02 1.393592796965531337e-02 4.497368875450104969e-02
4.600000000000000000e+04 2.755504386144454546e-02 1.371011619311248396e-02 4.474230750002050616e-02
4.610000000000000000e+04 2.778753133320805563e-02 1.420962016949901124e-02 4.555049906539114513e-02
4.620000000000000000e+04 2.795835391411707893e-02 1.412169321383658499e-02 4.500723343507483792e-02
4.630000000000000000e+04 2.814708540854404112e-02 1.397196338342722444e-02 4.590922535723875042e-02
4.640000000000000000e+04 3.819495933736224980e-02 1.894416978539490565e-02 6.617772776249165878e-02
4.650000000000000000e+04 9.139709509859576808e-02 5.336099037300296583e-02 1.274096759573296878e-01
4.660000000000000000e+04 7.224663157562782878e-02 4.201442835086650895e-02 1.046320789603899098e-01
4.670000000000000000e+04 3.055439694682038354e-02 1.534874284200209854e-02 4.938553451148462725e-02
4.680000000000000000e+04 2.842255437729024337e-02 1.399219795157463468e-02 4.672892605327581134e-02
4.690000000000000000e+04 3.074502308915244911e-02 1.518179098340570292e-02 4.956285461483005139e-02
4.700000000000000000e+04 9.139705863829718224e-02 4.552772756715511848e-02 1.501463957837197161e-01
4.710000000000000000e+04 2.948132183277434870e-01 1.394788869651691632e-01 4.886084523301145732e-01
4.720000000000000000e+04 2.904071661276824146e-01 1.460581459659432424e-01 4.781978940886770224e-01
4.730000000000000000e+04 3.356665443929363057e-01 1.657757833400444192e-01 5.477039272420591853e-01
4.740000000000000000e+04 1.665668278771006150e-01 8.210192016844847229e-02 2.723643128728845397e-01
4.750000000000000000e+04 2.906524826464059255e-02 1.452474646296064709e-02 4.740434394499466741e-02
4.760000000000000000e+04 2.862662802344474733e-02 1.438047315646574786e-02 4.614417542495777985e-02
4.770000000000000000e+04 2.793199669645641744e-02 1.423897845030437648e-02 4.600974901453801225e-02
4.780000000000000000e+04 2.792727942093116769e-02 1.393341220752557577e-02 4.517769132421328021e-02
4.790000000000000000e+04 2.764350240763710845e-02 1.372758291104538009e-02 4.546890444853229907e-02
4.800000000000000000e+04 3.741011114040202618e-02 1.924095657242326854e-02 5.820899817254749503e-02
4.810000000000000000e+04 4.428325023304396230e-02 2.404703624757330641e-02 6.687289979934993300e-02
4.820000000000000000e+04 2.972436257631852138e-02 1.492238093062504996e-02 4.821579578569658298e-02
4.830000000000000000e+04 2.833761691873642324e-02 1.413722493108706194e-02 4.612202819836585393e-02
4.840000000000000000e+04 3.149876087448409689e-02 1.573921677857846244e-02 5.096380696852922249e-02
4.850000000000000000e+04 8.384611112446524461e-02 6.044965549078076122e-02 1.077955282287257621e-01
4.860000000000000000e+04 8.227422654251202727e-02 5.857836205460503071e-02 1.056312180850280391e-01
4.870000000000000000e+04 3.101122079327333844e-02 1.565776589524883397e-02 5.085386310068333582e-02
4.880000000000000000e+04 2.861094776551663041e-02 1.450144813576149418e-02 4.728121192195389871e-02
4.890000000000000000e+04 3.668868736861521929e-02 1.875170059798480018e-02 5.922641334249241496e-02
4.900000000000000000e+04 6.001621921995328041e-02 2.978518468855011897e-02 9.641798816633857794e-02
4.910000000000000000e+04 4.734263993892302153e-02 2.398074585119958774e-02 7.702031752197796566e-02
4.920000000000000000e+04 7.420698437910371037e-02 3.828373266912037109e-02 1.199356431346511181e-01
4.930000000000000000e+04 6.624922283315164140e-02 3.366184641705188829e-02 1.069979202594894541e-01
4.940000000000000000e+04 3.046358187338143661e-02 1.531084771602790606e-02 4.992538893982659265e-02
4.950000000000000000e+04 3.159075770482865086e-02 1.551383456177848029e-02 5.132594989369565486e-02
4.960000000000000000e+04 5.480167264384387671e-02 2.866060722510730546e-02 8.348157995563908196e-02
4.970000000000000000e+04 1.282861738277599750e-01 1.027290748216595079e-01 1.532690650434935797e-01
4.980000000000000000e+04 8.976497792991404434e-02 6.394066623520523740e-02 1.154417722555875631e-01
4.990000000000000000e+04 3.021930495698825492e-02 1.506117540049733625e-02 4.941387831784462004e-02
5.000000000000000000e+04 2.877103170241767510e-02 1.453992302084310823e-02 4.744051252196113816e-02
5.010000000000000000e+04 2.899439148700800120e-02 1.447850629365650746e-02 4.724988579246539727e-02
5.020000000000000000e+04 2.889181441855812743e-02 1.438836148280170195e-02 4.708150909722926686e-02
5.030000000000000000e+04 2.877162311369676692e-02 1.419978323806432054e-02 4.658032118821516659e-02
5.040000000000000000e+04 2.838020134312622955e-02 1.410625005405809727e-02 4.618126204812956354e-02
5.050000000000000000e+04 2.842016709603154695e-02 1.402892794463375149e-02 4.644083567846292449e-02
5.060000000000000000e+04 2.902015441278274835e-02 1.466693180805298848e-02 4.725244800569316367e-02
5.070000000000000000e+04 2.899571140547738471e-02 1.442452330755102964e-02 4.734035007530707634e-02
5.080000000000000000e+04 2.881078667867766410e-02 1.441994536041010105e-02 4.702579364115729021e-02
5.090000000000000000e+04 2.870563742100757515e-02 1.434168903431294086e-02 4.709819598675554775e-02
5.100000000000000000e+04 2.903268029320917390e-02 1.452788873939440603e-02 4.741155930010722275e-02
5.110000000000000000e+04 2.923673500740660638e-02 1.437337221716883558e-02 4.773131869320619558e-02
5.120000000000000000e+04 2.913936413837886485e-02 1.451393496353524035e-02 4.735930327716812716e-02
5.130000000000000000e+04 2.934671275350490827e-02 1.443350696405819485e-02 4.818837280883730978e-02
5.140000000000000000e+04 2.936415842230399170e-02 1.475754766412930991e-02 4.792144569442316482e-02
5.150000000000000000e+04 2.930903680779037637e-02 1.468207523336264274e-02 4.819166421748862644e-02
5.160000000000000000e+04 3.076562965526403320e-02 1.522116276264028241e-02 5.021678420455798209e-02
5.170000000000000000e+04 3.146919285335719740e-02 1.569017381919137269e-02 5.116487868889948998e-02
5.180000000000000000e+04 2.974475064413802106e-02 1.465162273256124387e-02 4.865930547355684643e-02
5.190000000000000000e+04 2.960149076128310019e-02 1.481158292278511937e-02 4.818411445565626977e-02
5.200000000000000000e+04 3.070915217607913389e-02 1.568686985831068900e-02 4.995788587310590056e-02
5.210000000000000000e+04 3.561140179218636598e-02 1.772036770444808396e-02 5.664525876301138713e-02
5.220000000000000000e+04 3.032550155327674163e-02 1.528836042254405614e-02 4.986273803671957550e-02
5.230000000000000000e+04 2.882880244870793945e-02 1.394166123827201079e-02 4.682560360958635398e-02
5.240000000000000000e+04 2.856392727685860139e-02 1.435251076370496100e-02 4.713115669083076803e-02
5.250000000000000000e+04 2.885306858028557214e-02 1.432523307512628165e-02 4.726879770147131288e-02
5.260000000000000000e+04 2.886567358176769446e-02 1.455680259854504575e-02 4.739832945126241925e-02
5.270000000000000000e+04 2.929802357503808255e-02 1.451610663884700218e-02 4.768115310193433987e-02
5.280000000000000000e+04 2.946261708590054706e-02 1.498023123143553924e-02 4.836815920196168433e-02
5.290000000000000000e+04 2.976856353214841350e-02 1.498051463206690262e-02 4.878046476548256183e-02
5.300000000000000000e+04 2.999478824686913764e-02 1.515032478299464282e-02 4.952884909425809418e-02
5.310000000000000000e+04 3.030162441891051661e-02 1.521023861700141963e-02 4.947543333597596849e-02
5.320000000000000000e+04 3.079254683838588899e-02 1.510731889393514271e-02 4.998029554921260692e-02
5.330000000000000000e+04 3.063237103402020878e-02 1.549195702558636527e-02 5.057434722119808629e-02
5.340000000000000000e+04 3.068066373221510143e-02 1.529771049877669438e-02 5.051327698310323355e-02
5.350000000000000000e+04 3.073014223884528578e-02 1.540421121180589152e-02 5.008637750084452694e-02
5.360000000000000000e+04 3.059939624142891598e-02 1.522801367121338900e-02 5.057691558397038600e-02
5.370000000000000000e+04 3.100282650225863468e-02 1.521697373574223792e-02 5.060992046614611745e-02
5.380000000000000000e+04 3.182940107218082404e-02 1.571303319395832981e-02 5.182058832066412796e-02
5.390000000000000000e+04 3.180574200559349585e-02 1.587970068623300798e-02 5.159667082139382521e-02
5.400000000000000000e+04 3.166616403540264274e-02 1.579511454331470124e-02 5.180281733567925623e-02
5.410000000000000000e+04 3.460346708610081284e-02 1.716799766752607689e-02 5.557532111026945026e-02
5.420000000000000000e+04 4.664128643440351024e-02 2.434245160631257066e-02 7.088924108161341608e-02
5.430000000000000000e+04 3.731987898449314056e-02 1.900222773485010438e-02 6.026738616472233911e-02
5.440000000000000000e+04 3.237156411558110569e-02 1.655947809732454673e-02 5.356273879272363536e-02
5.450000000000000000e+04 3.329884890989506796e-02 1.631497574703932862e-02 5.455266898632358391e-02
5.460000000000000000e+04 3.850882556268946100e-02 1.946595276086825199e-02 6.298050662111837061e-02
5.470000000000000000e+04 8.428345748822256567e-02 5.385962445857264691e-02 1.151548881417051307e-01
5.480000000000000000e+04 7.770209262426580610e-02 4.947450989351038358e-02 1.070857568766817869e-01
5.490000000000000000e+04 4.052928238518790222e-02 1.956919466238012800e-02 6.706036789504588036e-02
5.500000000000000000e+04 7.230338290412566260e-02 3.667807741528892468e-02 1.184531496737278172e-01
5.510000000000000000e+04 4.444851612341000902e-01 2.262228761437826696e-01 7.339521533732226155e-01
5.520000000000000000e+04 5.605456881974678618e-01 2.870556742340291123e-01 9.216533882642410358e-01
5.530000000000000000e+04 1.700376397644539905e-01 8.661367547913552400e-02 2.791291411295869218e-01
5.540000000000000000e+04 5.136666276818203231e-02 2.532722162361432383e-02 8.358650743476066236e-02
5.550000000000000000e+04 5.691434145583390558e-01 2.851163813782190970e-01 9.417038687938298347e-01
5.560000000000000000e+04 1.272337853487706560e+00 6.287131867881075031e-01 2.157815679518475083e+00
5.570000000000000000e+04 1.147941736471147056e+00 5.705269035351419049e-01 1.869976586627677628e+00
5.580000000000000000e+04 1.159407192604948511e+00 9.226938258242884938e-01 1.390793480498679457e+00
5.590000000000000000e+04 6.446513740834922679e-01 5.852598271556446186e-01 7.086866232698019186e-01
5.600000000000000000e+04 4.865278825661081830e-02 2.427491893912420498e-02 8.095446987720489318e-02
5.610000000000000000e+04 4.186283058750888547e-02 2.051471584811574711e-02 6.724235272049344792e-02
5.620000000000000000e+04 4.077887681708858986e-02 2.021746892989061475e-02 6.669785988773106744e-02
5.630000000000000000e+04 4.092808905846406775e-02 2.033272189775617647e-02 6.732707793104954208e-02
5.640000000000000000e+04 4.209851233537646731e-02 2.058041564470709101e-02 6.962525925044714403e-02
5.650000000000000000e+04 4.276953158739908029e-02 2.104232348861344651e-02 7.070599257183245168e-02
5.660000000000000000e+04 4.267252351894251089e-02 2.134203822032597689e-02 7.058324862856363291e-02
5.670000000000000000e+04 4.342575303764438510e-02 2.150581596996603562e-02 7.133844708966133319e-02
5.680000000000000000e+04 4.710797882004649773e-02 2.335498530753785454e-02 7.823333955282441021e-02
5.690000000000000000e+04 7.162379264920050448e-02 3.562728847450291614e-02 1.180196989720888184e-01
5.700000000000000000e+04 7.734486955881353376e-02 3.903850556025901392e-02 1.260426562621774493e-01
5.710000000000000000e+04 7.625081077390294393e-02 4.028280352796612812e-02 1.167202637123721520e-01
5.720000000000000000e+04 5.888196317474479746e-02 2.935207002026618203e-02 9.743758943665090100e-02
5.730000000000000000e+04 5.366611414814554532e-02 2.611336085160180509e-02 9.049847790516789281e-02
5.740000000000000000e+04 5.550141738952157205e-02 2.722564534772348860e-02 9.702947495939463762e-02
5.750000000000000000e+04 5.888777465821863621e-02 2.851875251332853731e-02 1.031659632129306586e-01
5.760000000000000000e+04 6.307706509387606131e-02 3.066893493850050140e-02 1.111953220409958171e-01
5.770000000000000000e+04 6.610101038552335107e-02 3.212408920260036160e-02 1.185542427215794947e-01
5.780000000000000000e+04 7.218855294874564066e-02 3.458811126854611367e-02 1.284144390784022205e-01
5.790000000000000000e+04 7.385964231387605328e-02 3.572956274436495799e-02 1.338068859443586056e-01
5.800000000000000000e+04 7.689437508255692055e-02 3.578903466258157723e-02 1.394057494128187746e-01
5.810000000000000000e+04 8.068524575514919583e-02 3.786884180797085026e-02 1.477715638061589676e-01
5.820000000000000000e+04 8.497729723513916533e-02 4.003910998137201471e-02 1.572639719005981263e-01
5.830000000000000000e+04 8.973331584182947518e-02 4.159324385048822348e-02 1.661440028933993396e-01
5.840000000000000000e+04 9.479146665300873520e-02 4.317318065530285215e-02 1.777885703736752088e-01
5.850000000000000000e+04 1.016396609196820594e-01 4.685550930235309747e-02 1.882040190999533513e-01
5.860000000000000000e+04 1.077438197960216837e-01 4.953638969404734055e-02 2.011449092518072246e-01
5.870000000000000000e+04 1.120718179906298184e-01 5.140510576002926824e-02 2.103970107611287665e-01
5.880000000000000000e+04 1.165706833884776472e-01 5.248710007427609403e-02 2.133210922411317434e-01
5.890000000000000000e+04 1.183182240995840490e-01 5.562442547360379325e-02 2.189680443639044627e-01
5.900000000000000000e+04 1.215833105211594628e-01 5.676889166953578980e-02 2.208611947458454516e-01
5.910000000000000000e+04 1.243171357082892142e-01 5.699186254357383602e-02 2.245551156837533036e-01
5.920000000000000000e+04 1.285235542339413506e-01 5.840132685220561504e-02 2.324201909556057322e-01
5.930000000000000000e+04 1.352575890459701835e-01 6.215574788774516635e-02 2.379853924255806163e-01
5.940000000000000000e+04 1.396755556371074292e-01 6.420028213865952571e-02 2.518582423926037372e-01
5.950000000000000000e+04 1.473841287424578483e-01 6.885083332772855280e-02 2.580853400192912872e-01
5.960000000000000000e+04 1.535626075411531399e-01 7.247587497763884057e-02 2.637690439387794239e-01
5.970000000000000000e+04 1.544519139892364112e-01 7.423306873550061802e-02 2.638686686426313099e-01
5.980000000000000000e+04 1.550104536858242787e-01 7.500902286608408798e-02 2.647730291385899104e-01
5.990000000000000000e+04 1.561304465459013857e-01 7.662262544314195345e-02 2.618770151102143839e-01
6.000000000000000000e+04 1.567161373628871424e-01 7.819443638747801406e-02 2.613695757633834327e-01
6.010000000000000000e+04 1.595720130212284482e-01 7.847520888259210126e-02 2.637880117122831658e-01
6.020000000000000000e+04 1.612191342420039308e-01 7.838746120425418851e-02 2.670369228437184383e-01
6.030000000000000000e+04 1.660986654332815837e-01 8.347204195902106771e-02 2.748324549569324815e-01
6.040000000000000000e+04 1.749982407391284522e-01 8.749437778561112988e-02 2.845655690779310132e-01
6.050000000000000000e+04 1.823184189210223516e-01 9.077542959023736369e-02 2.961905661043904847e-01
6.060000000000000000e+04 1.888789616134413374e-01 9.457592560386723912e-02 3.077827208462386999e-01
6.070000000000000000e+04 1.994862930709311588e-01 9.924964938396431402e-02 3.215794438723620363e-01
6.080000000000000000e+04 2.034082527832168363e-01 1.001201276742002544e-01 3.284412262412912953e-01
6.090000000000000000e+04 2.066143927956303195e-01 1.038914681604405088e-01 3.373567615553305643e-01
6.100000000000000000e+04 2.129945716094668873e-01 1.040116858221771107e-01 3.469788615373503027e-01
6.110000000000000000e+04 2.094537916965141244e-01 1.017010828799262273e-01 3.519633958053171030e-01
6.120000000000000000e+04 2.143372462655691313e-01 1.082051928502411470e-01 3.600121748942494149e-01
6.130000000000000000e+04 2.208048763547918181e-01 1.107370141864066626e-01 3.639241211497334927e-01
6.140000000000000000e+04 2.221014424974415424e-01 1.110351033802139398e-01 3.650750884524721629e-01
6.150000000000000000e+04 2.227877039014510008e-01 1.126375812209610000e-01 3.657858636577909772e-01
6.160000000000000000e+04 2.217941031052572953e-01 1.080548850812106804e-01 3.776822303922919288e-01
6.170000000000000000e+04 2.264160760181261611e-01 1.142728424138032550e-01 3.724483132807659413e-01
6.180000000000000000e+04 2.263368682979134405e-01 1.136446105647841431e-01 3.693136685582908418e-01
6.190000000000000000e+04 2.209474430050357152e-01 1.101227466271033906e-01 3.652378415302610648e-01
6.200000000000000000e+04 2.114992809334280965e-01 1.026414889293245369e-01 3.586142246493051466e-01
6.210000000000000000e+04 2.091291057887519345e-01 1.027550821650413670e-01 3.558540674746484833e-01
6.220000000000000000e+04 2.082168728033816918e-01 1.010153052381637384e-01 3.538891693942723959e-01
6.230000000000000000e+04 2.105526369670758513e-01 1.027251826518159467e-01 3.545049937059098211e-01
6.240000000000000000e+04 2.042315675283082610e-01 9.980006379776626413e-02 3.514076230706185133e-01
6.250000000000000000e+04 1.143755279713658396e-01 3.376416800652796979e-02 2.523803005790132281e-01
