# North DC Val: 1.08078225 VoltsSouth DC Val: 0.6802794900000001 Volts
# SR785 Measurement - Timestamp: Apr 19 2020 - 21:59:46
# Parameter File: /home/controls/Git/cit_ctnlab/ctn_scripts/TransRINSpecShort.yml
#---------- Measurement Setup ------------
# Start Frequency (Hz): 0.000000
# Frequency Span (Hz): 102400.000000
# Frequency Resolution: 800
# Number of Averages: 100
# Averaging Mode: RMS
# Window function: Hanning
#---------- Measurement Parameters ----------
# Measurement Group:  "FFT" "FFT"
# Measurements:  "FFT 1" "FFT 2"
# View:  "Log Magnitude" "Log Magnitude"
# Unit:  "Vrms/rtHz" "Vrms/rtHz"
#---------- Input Parameters ----------
# Input Source: Analog
# Input Mode: Single ended, Single ended
# Input Grounding: Float, Float
# Input Coupling: AC, AC
# Input Range: -36.0dBVpk, -36.0dBVpk
# Auto Range: Off, Off
# Auto Range Mode: Tracking, Tracking
# Anti-Aliasing Filter: On, On
#---------- Source Parameters ----------
# Source Type: Sine
# Source Amplitude: 500.0mVpk
# Source On: 0

#---------- Measurement Data ----------
# [Freq(Hz) Display 0(Vrms/rtHz) Display 1(Vrms/rtHz) ]
+0.0000000e+000    +1.4947799e-004    +6.1290222e-005
+1.2800000e+002    +7.4807765e-005    +3.0657684e-005
+2.5600000e+002    +8.0428384e-007    +1.5848786e-007
+3.8400000e+002    +5.5254816e-007    +6.0419950e-008
+5.1200000e+002    +8.4423084e-007    +4.3984830e-008
+6.4000000e+002    +5.9386514e-007    +4.7564644e-008
+7.6800000e+002    +2.2860718e-007    +5.5482300e-008
+8.9600000e+002    +2.5877702e-007    +6.4167601e-008
+1.0240000e+003    +1.8681897e-007    +7.1314062e-008
+1.1520000e+003    +1.1039895e-007    +8.2282419e-008
+1.2800000e+003    +8.0356799e-008    +1.0239780e-007
+1.4080000e+003    +7.8906943e-008    +1.0178622e-007
+1.5360000e+003    +8.2389995e-008    +1.0143368e-007
+1.6640000e+003    +9.3171707e-008    +1.0500101e-007
+1.7920000e+003    +9.5799088e-008    +1.1448943e-007
+1.9200000e+003    +1.1072817e-007    +1.3499337e-007
+2.0480000e+003    +1.2338485e-007    +1.4267250e-007
+2.1760000e+003    +1.2000500e-007    +1.5757760e-007
+2.3040000e+003    +1.3361390e-007    +1.6885588e-007
+2.4320000e+003    +1.4551846e-007    +1.7441135e-007
+2.5600000e+003    +1.5510768e-007    +1.8603357e-007
+2.6880000e+003    +1.5964963e-007    +1.9699515e-007
+2.8160000e+003    +1.7562525e-007    +2.1502362e-007
+2.9440000e+003    +1.9189089e-007    +2.2900787e-007
+3.0720000e+003    +2.0530607e-007    +2.3297872e-007
+3.2000000e+003    +2.0692460e-007    +2.2769235e-007
+3.3280000e+003    +2.1393284e-007    +2.5063250e-007
+3.4560000e+003    +2.1243108e-007    +2.6314817e-007
+3.5840000e+003    +2.2646469e-007    +2.7233796e-007
+3.7120000e+003    +2.3806400e-007    +2.8895880e-007
+3.8400000e+003    +2.4778060e-007    +2.7993227e-007
+3.9680000e+003    +2.4983461e-007    +2.8926451e-007
+4.0960000e+003    +2.5049329e-007    +3.0048301e-007
+4.2240000e+003    +2.6805600e-007    +3.2764228e-007
+4.3520000e+003    +2.9139707e-007    +3.1521452e-007
+4.4800000e+003    +2.9713661e-007    +3.1521452e-007
+4.6080000e+003    +2.9613088e-007    +3.0054042e-007
+4.7360000e+003    +2.9086581e-007    +3.0429544e-007
+4.8640000e+003    +2.9359725e-007    +2.8961279e-007
+4.9920000e+003    +2.9997076e-007    +2.7071380e-007
+5.1200000e+003    +3.0525047e-007    +2.9140315e-007
+5.2480000e+003    +3.2816754e-007    +3.0547008e-007
+5.3760000e+003    +3.2758078e-007    +3.0238306e-007
+5.5040000e+003    +3.4880333e-007    +2.8751728e-007
+5.6320000e+003    +3.5737560e-007    +2.4301360e-007
+5.7600000e+003    +3.5976058e-007    +2.5034370e-007
+5.8880000e+003    +3.7385064e-007    +2.8130643e-007
+6.0160000e+003    +3.7657372e-007    +2.7706804e-007
+6.1440000e+003    +3.6997750e-007    +2.5641486e-007
+6.2720000e+003    +3.5764882e-007    +2.4871250e-007
+6.4000000e+003    +4.0533965e-007    +2.5818161e-007
+6.5280000e+003    +4.4027590e-007    +2.5585970e-007
+6.6560000e+003    +4.2657871e-007    +2.3989705e-007
+6.7840000e+003    +4.1820425e-007    +2.4717167e-007
+6.9120000e+003    +4.1930770e-007    +2.3602614e-007
+7.0400000e+003    +3.9695698e-007    +2.0758314e-007
+7.1680000e+003    +4.2429966e-007    +2.1652872e-007
+7.2960000e+003    +4.2440075e-007    +2.2845737e-007
+7.4240000e+003    +4.4607646e-007    +2.2775011e-007
+7.5520000e+003    +4.4986271e-007    +2.4545545e-007
+7.6800000e+003    +4.6007025e-007    +2.3777848e-007
+7.8080000e+003    +4.4886804e-007    +2.0546842e-007
+7.9360000e+003    +4.4945688e-007    +2.0990622e-007
+8.0640000e+003    +4.8497833e-007    +2.2093839e-007
+8.1920000e+003    +4.7167009e-007    +2.2880430e-007
+8.3200000e+003    +4.8782533e-007    +2.2969709e-007
+8.4480000e+003    +4.7000032e-007    +2.1890166e-007
+8.5760000e+003    +4.3406916e-007    +2.0810413e-007
+8.7040000e+003    +4.7639801e-007    +2.0458262e-007
+8.8320000e+003    +4.9182177e-007    +2.2839843e-007
+8.9600000e+003    +4.9393066e-007    +2.2188355e-007
+9.0880000e+003    +5.0932391e-007    +1.9439020e-007
+9.2160000e+003    +5.0906675e-007    +2.0306021e-007
+9.3440000e+003    +5.1448683e-007    +2.0564673e-007
+9.4720000e+003    +5.1102677e-007    +2.1074194e-007
+9.6000000e+003    +5.2232730e-007    +2.1450438e-007
+9.7280000e+003    +5.6268101e-007    +2.2468370e-007
+9.8560000e+003    +5.6743454e-007    +2.3332174e-007
+9.9840000e+003    +5.5411374e-007    +2.3767460e-007
+1.0112000e+004    +5.3987907e-007    +2.2110268e-007
+1.0240000e+004    +5.7047430e-007    +2.2516254e-007
+1.0368000e+004    +5.6606683e-007    +2.2906018e-007
+1.0496000e+004    +5.8078535e-007    +2.2739255e-007
+1.0624000e+004    +5.7712333e-007    +2.1173577e-007
+1.0752000e+004    +5.8277897e-007    +2.2376049e-007
+1.0880000e+004    +5.6593319e-007    +2.3589013e-007
+1.1008000e+004    +5.7853936e-007    +2.5532538e-007
+1.1136000e+004    +5.9869279e-007    +2.3635548e-007
+1.1264000e+004    +5.8530105e-007    +2.4509998e-007
+1.1392000e+004    +5.8794888e-007    +2.4794741e-007
+1.1520000e+004    +5.7859779e-007    +2.4361549e-007
+1.1648000e+004    +5.9455800e-007    +2.5191065e-007
+1.1776000e+004    +5.9334178e-007    +2.4125819e-007
+1.1904000e+004    +5.5446310e-007    +2.4397445e-007
+1.2032000e+004    +5.9288789e-007    +2.4382450e-007
+1.2160000e+004    +6.2247409e-007    +2.5450140e-007
+1.2288000e+004    +6.4477643e-007    +2.5851520e-007
+1.2416000e+004    +5.9826107e-007    +2.4942184e-007
+1.2544000e+004    +5.6745012e-007    +2.6292955e-007
+1.2672000e+004    +5.9654127e-007    +2.7072389e-007
+1.2800000e+004    +6.3417122e-007    +2.4956870e-007
+1.2928000e+004    +6.1078407e-007    +2.4515003e-007
+1.3056000e+004    +6.2333237e-007    +2.4197951e-007
+1.3184000e+004    +5.8777977e-007    +2.5724586e-007
+1.3312000e+004    +5.5891337e-007    +2.7822156e-007
+1.3440000e+004    +6.1094772e-007    +2.5623868e-007
+1.3568000e+004    +5.8918704e-007    +2.4490038e-007
+1.3696000e+004    +5.6860955e-007    +2.2993176e-007
+1.3824000e+004    +5.4446389e-007    +2.5501470e-007
+1.3952000e+004    +5.5273927e-007    +2.6660484e-007
+1.4080000e+004    +5.6202902e-007    +2.6034846e-007
+1.4208000e+004    +5.8014234e-007    +2.6936979e-007
+1.4336000e+004    +5.7552489e-007    +2.8038045e-007
+1.4464000e+004    +5.5912022e-007    +2.7706895e-007
+1.4592000e+004    +5.8654905e-007    +2.9281946e-007
+1.4720000e+004    +5.9345973e-007    +3.1576425e-007
+1.4848000e+004    +5.7496339e-007    +2.9465971e-007
+1.4976000e+004    +5.7240487e-007    +2.7144955e-007
+1.5104000e+004    +5.2718542e-007    +2.7334391e-007
+1.5232000e+004    +5.3901726e-007    +2.8804749e-007
+1.5360000e+004    +5.6643302e-007    +2.9996647e-007
+1.5488000e+004    +5.3677246e-007    +3.1989697e-007
+1.5616000e+004    +5.3465556e-007    +3.0997884e-007
+1.5744000e+004    +5.4668021e-007    +2.9472119e-007
+1.5872000e+004    +5.2816745e-007    +3.0814439e-007
+1.6000000e+004    +4.9680511e-007    +3.2391304e-007
+1.6128000e+004    +5.2196782e-007    +3.1271497e-007
+1.6256000e+004    +5.0899740e-007    +3.0817046e-007
+1.6384000e+004    +4.5031044e-007    +3.2570830e-007
+1.6512000e+004    +4.7440409e-007    +3.1507437e-007
+1.6640000e+004    +5.1742813e-007    +3.1691667e-007
+1.6768000e+004    +5.1588404e-007    +3.4384041e-007
+1.6896000e+004    +4.8832425e-007    +3.3459719e-007
+1.7024000e+004    +4.9882857e-007    +3.2928608e-007
+1.7152000e+004    +4.8519030e-007    +3.3857060e-007
+1.7280000e+004    +4.6153698e-007    +3.3428546e-007
+1.7408000e+004    +5.0337752e-007    +3.3068784e-007
+1.7536000e+004    +5.1557709e-007    +3.3601384e-007
+1.7664000e+004    +4.8341644e-007    +3.4300936e-007
+1.7792000e+004    +4.7218930e-007    +3.3825069e-007
+1.7920000e+004    +5.1372933e-007    +3.7022741e-007
+1.8048000e+004    +4.9222422e-007    +3.7195048e-007
+1.8176000e+004    +4.6179449e-007    +3.3437354e-007
+1.8304000e+004    +4.8144545e-007    +3.3560679e-007
+1.8432000e+004    +4.5202935e-007    +3.5836027e-007
+1.8560000e+004    +4.6340915e-007    +3.6132622e-007
+1.8688000e+004    +4.6085134e-007    +3.8006161e-007
+1.8816000e+004    +4.6601900e-007    +3.6171997e-007
+1.8944000e+004    +4.6619812e-007    +3.2202794e-007
+1.9072000e+004    +4.7301018e-007    +3.4988037e-007
+1.9200000e+004    +4.2483387e-007    +3.6087701e-007
+1.9328000e+004    +4.2399088e-007    +3.7016116e-007
+1.9456000e+004    +4.4921069e-007    +3.5958089e-007
+1.9584000e+004    +4.1819092e-007    +3.8185769e-007
+1.9712000e+004    +4.4022272e-007    +3.6550026e-007
+1.9840000e+004    +4.6775679e-007    +3.5946090e-007
+1.9968000e+004    +4.5323250e-007    +3.6408318e-007
+2.0096000e+004    +4.2892603e-007    +3.9076926e-007
+2.0224000e+004    +4.4691768e-007    +4.0561522e-007
+2.0352000e+004    +4.5547537e-007    +3.9199867e-007
+2.0480000e+004    +4.4453046e-007    +3.9641560e-007
+2.0608000e+004    +3.9310808e-007    +3.8540597e-007
+2.0736000e+004    +3.6623416e-007    +3.8713716e-007
+2.0864000e+004    +3.6884589e-007    +3.9862059e-007
+2.0992000e+004    +4.1595760e-007    +3.8939658e-007
+2.1120000e+004    +4.2936469e-007    +4.0444385e-007
+2.1248000e+004    +4.2774278e-007    +4.1740788e-007
+2.1376000e+004    +4.1845595e-007    +4.1413844e-007
+2.1504000e+004    +4.0005784e-007    +4.4494601e-007
+2.1632000e+004    +3.9684323e-007    +4.2140121e-007
+2.1760000e+004    +4.1029637e-007    +4.0049292e-007
+2.1888000e+004    +3.7746995e-007    +4.1514090e-007
+2.2016000e+004    +3.8519275e-007    +4.1596536e-007
+2.2144000e+004    +4.1464983e-007    +4.0598994e-007
+2.2272000e+004    +4.0423788e-007    +4.0283868e-007
+2.2400000e+004    +3.8705684e-007    +4.2746200e-007
+2.2528000e+004    +3.8942608e-007    +4.0094918e-007
+2.2656000e+004    +3.8909525e-007    +4.1381389e-007
+2.2784000e+004    +3.8243377e-007    +4.3776888e-007
+2.2912000e+004    +3.8778890e-007    +4.3662163e-007
+2.3040000e+004    +4.1633410e-007    +4.4879806e-007
+2.3168000e+004    +4.0526666e-007    +4.4796212e-007
+2.3296000e+004    +3.8944958e-007    +4.4331875e-007
+2.3424000e+004    +4.0848087e-007    +4.3234735e-007
+2.3552000e+004    +4.0192680e-007    +4.4117064e-007
+2.3680000e+004    +3.8827844e-007    +4.5525988e-007
+2.3808000e+004    +4.1976142e-007    +4.3153162e-007
+2.3936000e+004    +4.1620476e-007    +4.1830850e-007
+2.4064000e+004    +3.8278372e-007    +4.2312405e-007
+2.4192000e+004    +4.0438437e-007    +4.5053199e-007
+2.4320000e+004    +4.1452330e-007    +4.5719895e-007
+2.4448000e+004    +3.8662998e-007    +4.4686323e-007
+2.4576000e+004    +3.7101523e-007    +4.3403867e-007
+2.4704000e+004    +3.7441217e-007    +4.4653413e-007
+2.4832000e+004    +4.1724567e-007    +4.4962815e-007
+2.4960000e+004    +4.0150292e-007    +4.3171738e-007
+2.5088000e+004    +3.6932568e-007    +4.4951460e-007
+2.5216000e+004    +3.7536546e-007    +4.4889021e-007
+2.5344000e+004    +3.7250547e-007    +4.4257467e-007
+2.5472000e+004    +3.7113256e-007    +4.6741897e-007
+2.5600000e+004    +3.5377840e-007    +4.8938216e-007
+2.5728000e+004    +3.7027294e-007    +4.5694702e-007
+2.5856000e+004    +3.7940370e-007    +4.6687785e-007
+2.5984000e+004    +3.5585953e-007    +4.8155169e-007
+2.6112000e+004    +3.6792369e-007    +4.6865179e-007
+2.6240000e+004    +3.5870471e-007    +4.9159826e-007
+2.6368000e+004    +3.5864920e-007    +4.8961004e-007
+2.6496000e+004    +3.5481705e-007    +4.7019955e-007
+2.6624000e+004    +3.5461258e-007    +4.5672934e-007
+2.6752000e+004    +3.5503956e-007    +4.9237559e-007
+2.6880000e+004    +3.8436681e-007    +5.2993335e-007
+2.7008000e+004    +3.9237761e-007    +4.7719737e-007
+2.7136000e+004    +3.9293548e-007    +4.7735620e-007
+2.7264000e+004    +3.8318487e-007    +5.1101722e-007
+2.7392000e+004    +3.8000277e-007    +5.0477666e-007
+2.7520000e+004    +3.6067857e-007    +4.9450313e-007
+2.7648000e+004    +3.5714535e-007    +4.8262461e-007
+2.7776000e+004    +3.9144214e-007    +4.6589980e-007
+2.7904000e+004    +4.0786870e-007    +4.8383538e-007
+2.8032000e+004    +3.8259296e-007    +5.4362340e-007
+2.8160000e+004    +3.6897427e-007    +5.1086857e-007
+2.8288000e+004    +3.8383081e-007    +4.8495065e-007
+2.8416000e+004    +3.6399365e-007    +4.3960932e-007
+2.8544000e+004    +3.5700657e-007    +4.6327534e-007
+2.8672000e+004    +3.8438031e-007    +5.3089775e-007
+2.8800000e+004    +4.0294748e-007    +5.1752016e-007
+2.8928000e+004    +3.6963277e-007    +5.4819913e-007
+2.9056000e+004    +3.6042917e-007    +4.9781693e-007
+2.9184000e+004    +3.6402363e-007    +5.4055641e-007
+2.9312000e+004    +3.7455689e-007    +5.4503926e-007
+2.9440000e+004    +4.0539794e-007    +5.1394767e-007
+2.9568000e+004    +4.0284840e-007    +5.7131672e-007
+2.9696000e+004    +3.7591317e-007    +5.7114926e-007
+2.9824000e+004    +3.4889064e-007    +5.7238600e-007
+2.9952000e+004    +3.4647348e-007    +5.8010539e-007
+3.0080000e+004    +3.5456353e-007    +5.5806407e-007
+3.0208000e+004    +3.9802754e-007    +5.3966630e-007
+3.0336000e+004    +3.8963134e-007    +4.7872084e-007
+3.0464000e+004    +3.8582257e-007    +5.1326026e-007
+3.0592000e+004    +3.9766323e-007    +5.2053133e-007
+3.0720000e+004    +4.0437371e-007    +5.2029594e-007
+3.0848000e+004    +4.1664049e-007    +5.5155590e-007
+3.0976000e+004    +3.8849549e-007    +5.3434860e-007
+3.1104000e+004    +3.8940169e-007    +5.5975534e-007
+3.1232000e+004    +3.5519514e-007    +5.5052192e-007
+3.1360000e+004    +3.5938277e-007    +5.1064029e-007
+3.1488000e+004    +3.8512593e-007    +5.3058420e-007
+3.1616000e+004    +3.5995973e-007    +5.3813915e-007
+3.1744000e+004    +3.8274882e-007    +5.6999596e-007
+3.1872000e+004    +3.9676524e-007    +5.5845516e-007
+3.2000000e+004    +4.0506825e-007    +5.4992927e-007
+3.2128000e+004    +3.9858426e-007    +5.5806345e-007
+3.2256000e+004    +3.6358662e-007    +5.9137631e-007
+3.2384000e+004    +3.6290703e-007    +6.0487389e-007
+3.2512000e+004    +3.6726260e-007    +5.8881000e-007
+3.2640000e+004    +3.8537803e-007    +5.6059548e-007
+3.2768000e+004    +3.9008467e-007    +5.8069355e-007
+3.2896000e+004    +3.8742675e-007    +6.1284499e-007
+3.3024000e+004    +4.1097400e-007    +5.6968315e-007
+3.3152000e+004    +4.4272727e-007    +5.4773824e-007
+3.3280000e+004    +4.2220333e-007    +5.8113301e-007
+3.3408000e+004    +3.6985404e-007    +5.5116243e-007
+3.3536000e+004    +3.3219590e-007    +5.0288310e-007
+3.3664000e+004    +3.6235360e-007    +5.1912559e-007
+3.3792000e+004    +3.6992429e-007    +5.7081951e-007
+3.3920000e+004    +3.7049540e-007    +6.1965443e-007
+3.4048000e+004    +4.0924493e-007    +6.1706362e-007
+3.4176000e+004    +4.1505615e-007    +6.3638788e-007
+3.4304000e+004    +3.8577048e-007    +6.1923680e-007
+3.4432000e+004    +4.0682971e-007    +5.8261202e-007
+3.4560000e+004    +4.0624988e-007    +5.8514229e-007
+3.4688000e+004    +4.2115144e-007    +5.8914890e-007
+3.4816000e+004    +4.2194381e-007    +6.0287221e-007
+3.4944000e+004    +4.0658458e-007    +5.9149193e-007
+3.5072000e+004    +4.2027008e-007    +5.8384472e-007
+3.5200000e+004    +4.0966796e-007    +5.9896041e-007
+3.5328000e+004    +4.1685371e-007    +6.0185306e-007
+3.5456000e+004    +4.1090317e-007    +5.9302135e-007
+3.5584000e+004    +4.1372485e-007    +5.7416980e-007
+3.5712000e+004    +4.1851200e-007    +6.2505808e-007
+3.5840000e+004    +3.9418515e-007    +6.1782288e-007
+3.5968000e+004    +4.1900580e-007    +6.1254093e-007
+3.6096000e+004    +4.3550224e-007    +6.3068819e-007
+3.6224000e+004    +4.4317812e-007    +6.5419283e-007
+3.6352000e+004    +4.4625867e-007    +6.2468212e-007
+3.6480000e+004    +4.3672807e-007    +5.8828141e-007
+3.6608000e+004    +4.3751805e-007    +6.4680501e-007
+3.6736000e+004    +4.4952250e-007    +6.3508190e-007
+3.6864000e+004    +4.3705137e-007    +6.0029885e-007
+3.6992000e+004    +4.0107906e-007    +6.1031415e-007
+3.7120000e+004    +4.3634176e-007    +7.0285489e-007
+3.7248000e+004    +4.6427493e-007    +6.7701359e-007
+3.7376000e+004    +4.6179295e-007    +6.5422660e-007
+3.7504000e+004    +4.4979257e-007    +6.3618182e-007
+3.7632000e+004    +4.4321754e-007    +6.2090959e-007
+3.7760000e+004    +4.4284835e-007    +6.3887182e-007
+3.7888000e+004    +4.5091849e-007    +7.0894203e-007
+3.8016000e+004    +4.5844357e-007    +6.6409228e-007
+3.8144000e+004    +4.4171395e-007    +6.3086344e-007
+3.8272000e+004    +4.2675157e-007    +6.4098106e-007
+3.8400000e+004    +4.5503901e-007    +6.8455176e-007
+3.8528000e+004    +4.3718288e-007    +6.8197261e-007
+3.8656000e+004    +4.3521257e-007    +7.0067279e-007
+3.8784000e+004    +4.4013527e-007    +7.0843782e-007
+3.8912000e+004    +4.5198468e-007    +6.8124143e-007
+3.9040000e+004    +4.4820320e-007    +6.9949675e-007
+3.9168000e+004    +4.7000756e-007    +7.3593088e-007
+3.9296000e+004    +4.5725267e-007    +6.8230668e-007
+3.9424000e+004    +4.4034988e-007    +6.7609619e-007
+3.9552000e+004    +4.3942785e-007    +6.5227351e-007
+3.9680000e+004    +4.2276554e-007    +6.2201974e-007
+3.9808000e+004    +4.3246223e-007    +6.3588709e-007
+3.9936000e+004    +4.1825660e-007    +6.7835367e-007
+4.0064000e+004    +4.1704783e-007    +7.0308408e-007
+4.0192000e+004    +4.1383163e-007    +7.1377906e-007
+4.0320000e+004    +4.2523286e-007    +6.9261938e-007
+4.0448000e+004    +4.2189936e-007    +6.8680430e-007
+4.0576000e+004    +4.2908994e-007    +7.2081508e-007
+4.0704000e+004    +4.3102543e-007    +6.5110368e-007
+4.0832000e+004    +4.2857391e-007    +6.5831790e-007
+4.0960000e+004    +4.2282960e-007    +6.9994002e-007
+4.1088000e+004    +4.1337069e-007    +7.0004222e-007
+4.1216000e+004    +4.2855885e-007    +7.0221307e-007
+4.1344000e+004    +4.3463285e-007    +7.6005176e-007
+4.1472000e+004    +4.4315769e-007    +7.3178211e-007
+4.1600000e+004    +4.0647879e-007    +7.1006383e-007
+4.1728000e+004    +4.2630853e-007    +8.0610238e-007
+4.1856000e+004    +4.3724961e-007    +7.7039675e-007
+4.1984000e+004    +4.4918752e-007    +7.0670535e-007
+4.2112000e+004    +4.3851838e-007    +6.5573607e-007
+4.2240000e+004    +4.0551859e-007    +6.8127662e-007
+4.2368000e+004    +4.1154792e-007    +7.4283690e-007
+4.2496000e+004    +4.2945334e-007    +7.6867735e-007
+4.2624000e+004    +4.2421209e-007    +7.2481726e-007
+4.2752000e+004    +4.1914154e-007    +7.4771958e-007
+4.2880000e+004    +4.2215234e-007    +7.8226850e-007
+4.3008000e+004    +4.1868020e-007    +7.7701770e-007
+4.3136000e+004    +4.1133561e-007    +7.7928098e-007
+4.3264000e+004    +4.1903709e-007    +7.4122295e-007
+4.3392000e+004    +4.0892738e-007    +7.2549562e-007
+4.3520000e+004    +4.1267822e-007    +7.2360547e-007
+4.3648000e+004    +4.3245984e-007    +7.2842971e-007
+4.3776000e+004    +4.3718433e-007    +7.3456818e-007
+4.3904000e+004    +4.4208221e-007    +7.0805214e-007
+4.4032000e+004    +4.3872885e-007    +7.7263905e-007
+4.4160000e+004    +4.3944763e-007    +8.1434166e-007
+4.4288000e+004    +4.2258733e-007    +8.1052383e-007
+4.4416000e+004    +4.2394575e-007    +7.7137184e-007
+4.4544000e+004    +4.3140088e-007    +7.7060236e-007
+4.4672000e+004    +4.3311323e-007    +8.5565495e-007
+4.4800000e+004    +4.5186957e-007    +8.5412870e-007
+4.4928000e+004    +4.3975123e-007    +8.2876477e-007
+4.5056000e+004    +4.3647975e-007    +8.3588918e-007
+4.5184000e+004    +4.3698518e-007    +8.0966106e-007
+4.5312000e+004    +4.4110428e-007    +8.4763769e-007
+4.5440000e+004    +4.3633219e-007    +7.9421591e-007
+4.5568000e+004    +4.4501343e-007    +8.1315068e-007
+4.5696000e+004    +4.4174112e-007    +7.6731556e-007
+4.5824000e+004    +4.4033536e-007    +7.8481759e-007
+4.5952000e+004    +4.1781368e-007    +8.1145168e-007
+4.6080000e+004    +3.9639252e-007    +7.5314114e-007
+4.6208000e+004    +4.1788616e-007    +7.8907033e-007
+4.6336000e+004    +4.1604073e-007    +8.0527082e-007
+4.6464000e+004    +4.2713643e-007    +8.8008625e-007
+4.6592000e+004    +4.4143616e-007    +7.9488416e-007
+4.6720000e+004    +4.2539071e-007    +7.7717129e-007
+4.6848000e+004    +4.3508359e-007    +7.8700936e-007
+4.6976000e+004    +4.2313334e-007    +8.2167219e-007
+4.7104000e+004    +4.2357027e-007    +8.2573837e-007
+4.7232000e+004    +4.5044888e-007    +8.1842904e-007
+4.7360000e+004    +4.4910220e-007    +8.4358965e-007
+4.7488000e+004    +4.3721602e-007    +8.7642582e-007
+4.7616000e+004    +4.4592025e-007    +8.3467495e-007
+4.7744000e+004    +4.9911455e-007    +8.0403925e-007
+4.7872000e+004    +4.9259944e-007    +8.1984376e-007
+4.8000000e+004    +4.8512908e-007    +8.0058697e-007
+4.8128000e+004    +4.5095413e-007    +7.9971551e-007
+4.8256000e+004    +4.1413799e-007    +7.8739311e-007
+4.8384000e+004    +4.6877634e-007    +8.9273431e-007
+4.8512000e+004    +4.6994924e-007    +9.3105547e-007
+4.8640000e+004    +4.5068634e-007    +8.5687526e-007
+4.8768000e+004    +4.7581096e-007    +8.8854017e-007
+4.8896000e+004    +4.5659547e-007    +9.1889603e-007
+4.9024000e+004    +4.3946164e-007    +8.8172084e-007
+4.9152000e+004    +4.3646634e-007    +8.0887651e-007
+4.9280000e+004    +4.2225710e-007    +8.5944754e-007
+4.9408000e+004    +4.2784515e-007    +8.3548360e-007
+4.9536000e+004    +4.4608723e-007    +8.2575468e-007
+4.9664000e+004    +4.4638216e-007    +8.3952131e-007
+4.9792000e+004    +4.4708455e-007    +8.5925882e-007
+4.9920000e+004    +4.5992226e-007    +8.9601906e-007
+5.0048000e+004    +4.5021403e-007    +8.7971142e-007
+5.0176000e+004    +4.4339325e-007    +9.4171270e-007
+5.0304000e+004    +4.4463542e-007    +9.3248258e-007
+5.0432000e+004    +4.7634362e-007    +9.5875487e-007
+5.0560000e+004    +4.3847891e-007    +9.8487692e-007
+5.0688000e+004    +4.4551697e-007    +9.2572742e-007
+5.0816000e+004    +4.6441463e-007    +9.2138737e-007
+5.0944000e+004    +4.5907922e-007    +1.0180846e-006
+5.1072000e+004    +4.4515809e-007    +9.5753455e-007
+5.1200000e+004    +4.1824464e-007    +8.9762210e-007
+5.1328000e+004    +4.3887866e-007    +8.4697530e-007
+5.1456000e+004    +4.6135204e-007    +8.8213818e-007
+5.1584000e+004    +4.3484528e-007    +1.0397049e-006
+5.1712000e+004    +4.4368642e-007    +9.8946168e-007
+5.1840000e+004    +4.2467715e-007    +8.4947965e-007
+5.1968000e+004    +4.1425349e-007    +8.7589575e-007
+5.2096000e+004    +4.0675422e-007    +9.4047897e-007
+5.2224000e+004    +4.1673152e-007    +9.7798909e-007
+5.2352000e+004    +4.3600173e-007    +9.3522021e-007
+5.2480000e+004    +4.3538176e-007    +9.9778674e-007
+5.2608000e+004    +4.4146668e-007    +9.2207551e-007
+5.2736000e+004    +4.1864712e-007    +9.6189592e-007
+5.2864000e+004    +3.9354168e-007    +1.0258595e-006
+5.2992000e+004    +3.9843198e-007    +9.6893837e-007
+5.3120000e+004    +4.1909968e-007    +1.0073381e-006
+5.3248000e+004    +4.2343078e-007    +9.9721728e-007
+5.3376000e+004    +4.1211223e-007    +9.2259808e-007
+5.3504000e+004    +4.1624085e-007    +9.2248263e-007
+5.3632000e+004    +4.1305810e-007    +1.0009184e-006
+5.3760000e+004    +4.1464529e-007    +9.1402086e-007
+5.3888000e+004    +4.2333454e-007    +9.3151147e-007
+5.4016000e+004    +4.1075927e-007    +9.6298004e-007
+5.4144000e+004    +4.0598948e-007    +1.0587795e-006
+5.4272000e+004    +4.0370784e-007    +1.0981070e-006
+5.4400000e+004    +3.9510419e-007    +1.0694031e-006
+5.4528000e+004    +3.8045158e-007    +1.0672378e-006
+5.4656000e+004    +3.8270974e-007    +9.7984537e-007
+5.4784000e+004    +4.0316610e-007    +9.6454937e-007
+5.4912000e+004    +4.0448117e-007    +1.0540958e-006
+5.5040000e+004    +3.9256031e-007    +1.0883723e-006
+5.5168000e+004    +4.7391470e-007    +1.0740051e-006
+5.5296000e+004    +4.4143761e-007    +9.3966872e-007
+5.5424000e+004    +5.3585973e-007    +9.9315366e-007
+5.5552000e+004    +1.2741884e-006    +1.0712092e-006
+5.5680000e+004    +1.0273271e-006    +1.0616700e-006
+5.5808000e+004    +4.0856520e-007    +9.8294322e-007
+5.5936000e+004    +4.0652074e-007    +1.0968417e-006
+5.6064000e+004    +4.1123988e-007    +1.0554229e-006
+5.6192000e+004    +3.9831869e-007    +1.0155414e-006
+5.6320000e+004    +3.8028995e-007    +1.0345317e-006
+5.6448000e+004    +3.9974347e-007    +1.0186795e-006
+5.6576000e+004    +4.0676852e-007    +1.0495572e-006
+5.6704000e+004    +4.0016326e-007    +1.0729573e-006
+5.6832000e+004    +4.0008507e-007    +1.0672190e-006
+5.6960000e+004    +3.9250429e-007    +1.1023967e-006
+5.7088000e+004    +3.9032071e-007    +1.2006759e-006
+5.7216000e+004    +3.8302082e-007    +1.1807472e-006
+5.7344000e+004    +3.7678589e-007    +1.1672784e-006
+5.7472000e+004    +3.9121872e-007    +1.1175547e-006
+5.7600000e+004    +3.9767676e-007    +1.0139159e-006
+5.7728000e+004    +3.9757549e-007    +1.0587842e-006
+5.7856000e+004    +3.8924438e-007    +1.1586212e-006
+5.7984000e+004    +3.7532672e-007    +1.1014228e-006
+5.8112000e+004    +3.7558644e-007    +1.1186092e-006
+5.8240000e+004    +3.7228631e-007    +1.1012402e-006
+5.8368000e+004    +3.8425077e-007    +1.0770423e-006
+5.8496000e+004    +4.0593511e-007    +1.0809115e-006
+5.8624000e+004    +4.1668073e-007    +1.1104300e-006
+5.8752000e+004    +4.2056735e-007    +1.2095676e-006
+5.8880000e+004    +4.1905503e-007    +1.2889828e-006
+5.9008000e+004    +3.8052301e-007    +1.1615496e-006
+5.9136000e+004    +3.8892313e-007    +1.0266787e-006
+5.9264000e+004    +3.7869660e-007    +1.0816250e-006
+5.9392000e+004    +3.6837721e-007    +1.1172468e-006
+5.9520000e+004    +3.8499869e-007    +1.1637554e-006
+5.9648000e+004    +3.8648483e-007    +1.1260435e-006
+5.9776000e+004    +3.9659105e-007    +1.0956345e-006
+5.9904000e+004    +4.0134910e-007    +1.2180917e-006
+6.0032000e+004    +3.8997931e-007    +1.2361510e-006
+6.0160000e+004    +3.9760124e-007    +1.1798413e-006
+6.0288000e+004    +4.0430314e-007    +1.1574248e-006
+6.0416000e+004    +3.9474776e-007    +1.0677171e-006
+6.0544000e+004    +3.7334814e-007    +1.1751728e-006
+6.0672000e+004    +3.6564515e-007    +1.2253433e-006
+6.0800000e+004    +3.8157395e-007    +1.2001803e-006
+6.0928000e+004    +3.8510692e-007    +1.2227670e-006
+6.1056000e+004    +3.6833839e-007    +1.1922947e-006
+6.1184000e+004    +3.6455120e-007    +1.1641107e-006
+6.1312000e+004    +3.8291361e-007    +1.2044680e-006
+6.1440000e+004    +3.8714441e-007    +1.1607412e-006
+6.1568000e+004    +4.0352660e-007    +1.1728295e-006
+6.1696000e+004    +3.8870968e-007    +1.2109749e-006
+6.1824000e+004    +3.7672632e-007    +1.1954012e-006
+6.1952000e+004    +3.7893952e-007    +1.1579891e-006
+6.2080000e+004    +3.8237374e-007    +1.1886414e-006
+6.2208000e+004    +3.8234350e-007    +1.2410222e-006
+6.2336000e+004    +3.9601449e-007    +1.2842152e-006
+6.2464000e+004    +3.9329458e-007    +1.3167925e-006
+6.2592000e+004    +3.8460365e-007    +1.2697739e-006
+6.2720000e+004    +3.6916433e-007    +1.1701219e-006
+6.2848000e+004    +3.6113704e-007    +1.2625560e-006
+6.2976000e+004    +3.7821334e-007    +1.2608839e-006
+6.3104000e+004    +3.9000071e-007    +1.3754427e-006
+6.3232000e+004    +3.9215021e-007    +1.4126604e-006
+6.3360000e+004    +3.8273538e-007    +1.2675688e-006
+6.3488000e+004    +3.8611327e-007    +1.1524779e-006
+6.3616000e+004    +3.8045826e-007    +1.2445673e-006
+6.3744000e+004    +3.7903936e-007    +1.2830975e-006
+6.3872000e+004    +3.8075453e-007    +1.2230154e-006
+6.4000000e+004    +3.7708386e-007    +1.3592396e-006
+6.4128000e+004    +3.7576626e-007    +1.3749641e-006
+6.4256000e+004    +3.9245603e-007    +1.3425756e-006
+6.4384000e+004    +3.8910423e-007    +1.2457950e-006
+6.4512000e+004    +3.7264169e-007    +1.3698559e-006
+6.4640000e+004    +3.7445000e-007    +1.4240551e-006
+6.4768000e+004    +3.7477534e-007    +1.4005309e-006
+6.4896000e+004    +3.8122974e-007    +1.3144956e-006
+6.5024000e+004    +3.7731579e-007    +1.2746223e-006
+6.5152000e+004    +3.7717206e-007    +1.3055234e-006
+6.5280000e+004    +3.7678342e-007    +1.3481415e-006
+6.5408000e+004    +3.8101132e-007    +1.4029625e-006
+6.5536000e+004    +3.8746418e-007    +1.4072143e-006
+6.5664000e+004    +3.9092245e-007    +1.4016600e-006
+6.5792000e+004    +3.8765822e-007    +1.2853734e-006
+6.5920000e+004    +3.9020074e-007    +1.3891002e-006
+6.6048000e+004    +3.8297836e-007    +1.3627572e-006
+6.6176000e+004    +3.8199943e-007    +1.3894129e-006
+6.6304000e+004    +3.6857384e-007    +1.3932931e-006
+6.6432000e+004    +3.6653265e-007    +1.4046041e-006
+6.6560000e+004    +3.7218047e-007    +1.3561003e-006
+6.6688000e+004    +3.8251650e-007    +1.4098000e-006
+6.6816000e+004    +3.7727352e-007    +1.3919888e-006
+6.6944000e+004    +3.7643483e-007    +1.5536198e-006
+6.7072000e+004    +3.8092890e-007    +1.4728274e-006
+6.7200000e+004    +3.7268794e-007    +1.4767476e-006
+6.7328000e+004    +3.6984957e-007    +1.4818362e-006
+6.7456000e+004    +3.7106085e-007    +1.3757947e-006
+6.7584000e+004    +3.7909265e-007    +1.4226064e-006
+6.7712000e+004    +3.8071315e-007    +1.3759155e-006
+6.7840000e+004    +3.6603677e-007    +1.2823680e-006
+6.7968000e+004    +3.7378783e-007    +1.3586726e-006
+6.8096000e+004    +3.8820426e-007    +1.4670495e-006
+6.8224000e+004    +3.8649543e-007    +1.5167147e-006
+6.8352000e+004    +3.8966644e-007    +1.4948192e-006
+6.8480000e+004    +3.8192562e-007    +1.4482781e-006
+6.8608000e+004    +3.9275906e-007    +1.3200669e-006
+6.8736000e+004    +3.9018832e-007    +1.3316954e-006
+6.8864000e+004    +3.8106026e-007    +1.3852439e-006
+6.8992000e+004    +3.9360910e-007    +1.4617677e-006
+6.9120000e+004    +3.9258876e-007    +1.5342914e-006
+6.9248000e+004    +4.0408167e-007    +1.6089551e-006
+6.9376000e+004    +3.9927980e-007    +1.6025658e-006
+6.9504000e+004    +4.0384350e-007    +1.5507821e-006
+6.9632000e+004    +3.9416568e-007    +1.6303586e-006
+6.9760000e+004    +3.8517246e-007    +1.5476897e-006
+6.9888000e+004    +3.8644197e-007    +1.4421056e-006
+7.0016000e+004    +4.0084794e-007    +1.4316114e-006
+7.0144000e+004    +5.3067629e-007    +1.4769114e-006
+7.0272000e+004    +6.9923180e-007    +1.5943488e-006
+7.0400000e+004    +4.6128520e-007    +1.4869930e-006
+7.0528000e+004    +4.0183016e-007    +1.5344413e-006
+7.0656000e+004    +4.3757666e-007    +1.6945261e-006
+7.0784000e+004    +5.4654038e-007    +1.6372200e-006
+7.0912000e+004    +4.3339057e-007    +1.5873376e-006
+7.1040000e+004    +3.8986201e-007    +1.6571644e-006
+7.1168000e+004    +3.9566203e-007    +1.6255505e-006
+7.1296000e+004    +3.9802973e-007    +1.4423542e-006
+7.1424000e+004    +3.8565656e-007    +1.5075617e-006
+7.1552000e+004    +4.0180279e-007    +1.6171055e-006
+7.1680000e+004    +4.2964055e-007    +1.5432830e-006
+7.1808000e+004    +4.2386569e-007    +1.3982999e-006
+7.1936000e+004    +3.9902386e-007    +1.4603240e-006
+7.2064000e+004    +4.1336298e-007    +1.6151499e-006
+7.2192000e+004    +4.2368933e-007    +1.6079484e-006
+7.2320000e+004    +4.2590057e-007    +1.5171128e-006
+7.2448000e+004    +4.0145841e-007    +1.5831064e-006
+7.2576000e+004    +3.9367131e-007    +1.6461441e-006
+7.2704000e+004    +3.9558819e-007    +1.6740364e-006
+7.2832000e+004    +3.8739739e-007    +1.6234653e-006
+7.2960000e+004    +3.9792747e-007    +1.5649122e-006
+7.3088000e+004    +4.1603937e-007    +1.5217973e-006
+7.3216000e+004    +4.1793433e-007    +1.4636740e-006
+7.3344000e+004    +4.2497521e-007    +1.4861394e-006
+7.3472000e+004    +4.2225062e-007    +1.5743511e-006
+7.3600000e+004    +4.1247392e-007    +1.5814785e-006
+7.3728000e+004    +4.1475730e-007    +1.5786559e-006
+7.3856000e+004    +4.1677407e-007    +1.6044884e-006
+7.3984000e+004    +4.0125130e-007    +1.5792419e-006
+7.4112000e+004    +4.0462152e-007    +1.6778141e-006
+7.4240000e+004    +4.3019804e-007    +1.7329945e-006
+7.4368000e+004    +4.2329737e-007    +1.7833984e-006
+7.4496000e+004    +4.2308037e-007    +1.6712504e-006
+7.4624000e+004    +4.2017459e-007    +1.6857986e-006
+7.4752000e+004    +4.3722127e-007    +1.7390291e-006
+7.4880000e+004    +4.3374712e-007    +1.6749593e-006
+7.5008000e+004    +4.3279283e-007    +1.6532443e-006
+7.5136000e+004    +4.2510777e-007    +1.7639923e-006
+7.5264000e+004    +4.2295869e-007    +1.7458705e-006
+7.5392000e+004    +4.2205502e-007    +1.6208454e-006
+7.5520000e+004    +4.1904306e-007    +1.7065952e-006
+7.5648000e+004    +4.1350097e-007    +1.6662119e-006
+7.5776000e+004    +4.2561263e-007    +1.6831391e-006
+7.5904000e+004    +4.2651172e-007    +1.7814433e-006
+7.6032000e+004    +4.1876481e-007    +1.7531987e-006
+7.6160000e+004    +4.2238693e-007    +1.7311841e-006
+7.6288000e+004    +4.3685756e-007    +3.3519104e-006
+7.6416000e+004    +4.3942833e-007    +9.3987719e-006
+7.6544000e+004    +4.3069193e-007    +7.2893854e-006
+7.6672000e+004    +4.3011443e-007    +1.9118302e-006
+7.6800000e+004    +4.1896163e-007    +1.6190347e-006
+7.6928000e+004    +4.1883425e-007    +1.8375910e-006
+7.7056000e+004    +4.2554487e-007    +1.9173210e-006
+7.7184000e+004    +4.2728090e-007    +1.5691136e-006
+7.7312000e+004    +4.3297678e-007    +1.6883530e-006
+7.7440000e+004    +4.2945004e-007    +1.7684953e-006
+7.7568000e+004    +5.4254770e-007    +1.8248959e-006
+7.7696000e+004    +8.7317841e-007    +1.7735392e-006
+7.7824000e+004    +6.5205944e-007    +1.8352440e-006
+7.7952000e+004    +4.3034402e-007    +1.8063448e-006
+7.8080000e+004    +4.2723210e-007    +1.7371951e-006
+7.8208000e+004    +4.2871085e-007    +1.7823706e-006
+7.8336000e+004    +4.5344106e-007    +1.8182799e-006
+7.8464000e+004    +4.5102345e-007    +1.9176452e-006
+7.8592000e+004    +4.3968606e-007    +1.9230745e-006
+7.8720000e+004    +4.4092269e-007    +1.8651153e-006
+7.8848000e+004    +4.3428798e-007    +1.7610064e-006
+7.8976000e+004    +4.2800443e-007    +1.9297477e-006
+7.9104000e+004    +4.4609507e-007    +1.7924893e-006
+7.9232000e+004    +4.3804678e-007    +1.8561899e-006
+7.9360000e+004    +4.5642454e-007    +1.9132624e-006
+7.9488000e+004    +5.0878288e-007    +1.7685438e-006
+7.9616000e+004    +4.3435188e-007    +1.7893491e-006
+7.9744000e+004    +4.3137530e-007    +1.8860150e-006
+7.9872000e+004    +4.3164962e-007    +1.8501854e-006
+8.0000000e+004    +4.5365368e-007    +1.7608053e-006
+8.0128000e+004    +4.5714725e-007    +1.6112232e-006
+8.0256000e+004    +4.4540889e-007    +1.8054446e-006
+8.0384000e+004    +4.5819246e-007    +1.7854672e-006
+8.0512000e+004    +4.5842495e-007    +1.8456649e-006
+8.0640000e+004    +4.5403192e-007    +2.0296502e-006
+8.0768000e+004    +4.6292351e-007    +2.0577479e-006
+8.0896000e+004    +4.5490813e-007    +2.0327836e-006
+8.1024000e+004    +4.5373488e-007    +1.9482438e-006
+8.1152000e+004    +4.4269666e-007    +1.9459756e-006
+8.1280000e+004    +4.5631029e-007    +2.0901343e-006
+8.1408000e+004    +4.4205746e-007    +2.0200816e-006
+8.1536000e+004    +4.4088443e-007    +1.8651256e-006
+8.1664000e+004    +4.5140342e-007    +1.9470740e-006
+8.1792000e+004    +4.3228420e-007    +1.9448796e-006
+8.1920000e+004    +4.4708750e-007    +2.0028026e-006
+8.2048000e+004    +4.7132585e-007    +2.0528937e-006
+8.2176000e+004    +4.5828352e-007    +1.9896104e-006
+8.2304000e+004    +4.5584409e-007    +1.7455408e-006
+8.2432000e+004    +4.4051333e-007    +1.7266415e-006
+8.2560000e+004    +4.5341068e-007    +1.9695794e-006
+8.2688000e+004    +4.5431813e-007    +2.0296970e-006
+8.2816000e+004    +4.3700243e-007    +1.9998779e-006
+8.2944000e+004    +4.7247713e-007    +2.0935151e-006
+8.3072000e+004    +4.7241019e-007    +2.1332767e-006
+8.3200000e+004    +4.5108834e-007    +2.2007889e-006
+8.3328000e+004    +4.6709371e-007    +2.0573864e-006
+8.3456000e+004    +4.5772484e-007    +2.0767957e-006
+8.3584000e+004    +4.6155927e-007    +2.2039567e-006
+8.3712000e+004    +4.6540438e-007    +2.2638415e-006
+8.3840000e+004    +4.6230838e-007    +2.1190624e-006
+8.3968000e+004    +4.4974911e-007    +1.9654210e-006
+8.4096000e+004    +4.5071852e-007    +1.8589923e-006
+8.4224000e+004    +4.4878033e-007    +1.9735364e-006
+8.4352000e+004    +4.6051650e-007    +2.1364528e-006
+8.4480000e+004    +4.4358850e-007    +2.0417040e-006
+8.4608000e+004    +4.4746318e-007    +2.0939658e-006
+8.4736000e+004    +4.6176052e-007    +2.1344413e-006
+8.4864000e+004    +4.6780147e-007    +1.9702543e-006
+8.4992000e+004    +4.6315074e-007    +1.9219242e-006
+8.5120000e+004    +4.4742731e-007    +2.0414820e-006
+8.5248000e+004    +4.4169940e-007    +2.1360213e-006
+8.5376000e+004    +4.5480274e-007    +2.2712979e-006
+8.5504000e+004    +4.6841876e-007    +2.1603669e-006
+8.5632000e+004    +4.7013762e-007    +2.0603861e-006
+8.5760000e+004    +4.4169747e-007    +2.0560246e-006
+8.5888000e+004    +4.2525667e-007    +2.1126320e-006
+8.6016000e+004    +4.3568303e-007    +2.1039791e-006
+8.6144000e+004    +4.2838195e-007    +2.0532050e-006
+8.6272000e+004    +4.3574283e-007    +2.0498194e-006
+8.6400000e+004    +4.4348528e-007    +2.1582971e-006
+8.6528000e+004    +4.3827723e-007    +2.0024968e-006
+8.6656000e+004    +4.6271057e-007    +2.0432244e-006
+8.6784000e+004    +4.5287834e-007    +2.1252579e-006
+8.6912000e+004    +4.3926821e-007    +2.0358302e-006
+8.7040000e+004    +4.2415013e-007    +1.9108481e-006
+8.7168000e+004    +4.2433132e-007    +2.0897673e-006
+8.7296000e+004    +4.3578063e-007    +2.1537141e-006
+8.7424000e+004    +4.3789049e-007    +2.1845028e-006
+8.7552000e+004    +4.1376711e-007    +2.0918701e-006
+8.7680000e+004    +4.4227397e-007    +2.1585602e-006
+8.7808000e+004    +4.5263624e-007    +1.9469351e-006
+8.7936000e+004    +4.2688558e-007    +2.0393941e-006
+8.8064000e+004    +4.0848894e-007    +2.0178582e-006
+8.8192000e+004    +4.0644130e-007    +1.8446236e-006
+8.8320000e+004    +4.1556228e-007    +2.0803079e-006
+8.8448000e+004    +4.1626097e-007    +2.0823784e-006
+8.8576000e+004    +4.0625659e-007    +2.1379499e-006
+8.8704000e+004    +3.9571850e-007    +2.1701567e-006
+8.8832000e+004    +3.7459884e-007    +2.1385415e-006
+8.8960000e+004    +3.8214711e-007    +2.1336282e-006
+8.9088000e+004    +3.8398338e-007    +2.3134326e-006
+8.9216000e+004    +3.9582409e-007    +2.1280553e-006
+8.9344000e+004    +3.8867725e-007    +2.2177567e-006
+8.9472000e+004    +3.7733733e-007    +2.1594110e-006
+8.9600000e+004    +3.6035516e-007    +2.1911376e-006
+8.9728000e+004    +3.6882523e-007    +2.2855597e-006
+8.9856000e+004    +3.7995147e-007    +2.2460970e-006
+8.9984000e+004    +3.8878991e-007    +2.2301072e-006
+9.0112000e+004    +3.7847047e-007    +2.1278192e-006
+9.0240000e+004    +3.7631787e-007    +1.9535323e-006
+9.0368000e+004    +3.9055735e-007    +2.0430898e-006
+9.0496000e+004    +3.8951117e-007    +2.0719194e-006
+9.0624000e+004    +3.7272147e-007    +2.1471810e-006
+9.0752000e+004    +3.6884668e-007    +2.2050895e-006
+9.0880000e+004    +3.8183421e-007    +2.3559194e-006
+9.1008000e+004    +3.7248586e-007    +2.4378835e-006
+9.1136000e+004    +3.6777507e-007    +2.2448421e-006
+9.1264000e+004    +3.6716904e-007    +2.2927077e-006
+9.1392000e+004    +3.6895483e-007    +2.3450623e-006
+9.1520000e+004    +3.6313023e-007    +2.2934908e-006
+9.1648000e+004    +3.4490895e-007    +1.9782333e-006
+9.1776000e+004    +3.5257477e-007    +2.2158679e-006
+9.1904000e+004    +3.4962270e-007    +2.2252227e-006
+9.2032000e+004    +3.5191613e-007    +2.1436781e-006
+9.2160000e+004    +3.5904279e-007    +2.1425958e-006
+9.2288000e+004    +3.4624074e-007    +2.0597438e-006
+9.2416000e+004    +3.5348992e-007    +2.1594183e-006
+9.2544000e+004    +3.5419427e-007    +2.3758589e-006
+9.2672000e+004    +3.4500781e-007    +2.3220239e-006
+9.2800000e+004    +3.6628484e-007    +2.2404788e-006
+9.2928000e+004    +3.7190841e-007    +2.2804061e-006
+9.3056000e+004    +3.4968218e-007    +2.1375370e-006
+9.3184000e+004    +3.2531159e-007    +2.0312843e-006
+9.3312000e+004    +3.3622052e-007    +2.2232202e-006
+9.3440000e+004    +3.3773375e-007    +2.3296643e-006
+9.3568000e+004    +3.4301991e-007    +2.2766935e-006
+9.3696000e+004    +3.4262695e-007    +2.2733514e-006
+9.3824000e+004    +3.2511448e-007    +2.1845219e-006
+9.3952000e+004    +3.1214793e-007    +2.3268499e-006
+9.4080000e+004    +3.0628044e-007    +2.2651120e-006
+9.4208000e+004    +3.2971911e-007    +2.3422936e-006
+9.4336000e+004    +3.6605647e-007    +2.2341853e-006
+9.4464000e+004    +5.7247524e-007    +2.2386371e-006
+9.4592000e+004    +5.2055935e-007    +2.2744998e-006
+9.4720000e+004    +3.4672044e-007    +2.1031176e-006
+9.4848000e+004    +3.4974747e-007    +2.1260864e-006
+9.4976000e+004    +3.3612972e-007    +2.3688235e-006
+9.5104000e+004    +3.0544626e-007    +2.4482349e-006
+9.5232000e+004    +3.0506988e-007    +2.3411724e-006
+9.5360000e+004    +3.1330470e-007    +2.4940077e-006
+9.5488000e+004    +3.0592687e-007    +2.3375355e-006
+9.5616000e+004    +3.1318331e-007    +2.1106034e-006
+9.5744000e+004    +3.0262618e-007    +2.2124182e-006
+9.5872000e+004    +3.0847104e-007    +2.3183250e-006
+9.6000000e+004    +3.2409233e-007    +2.4013370e-006
+9.6128000e+004    +3.1560964e-007    +2.2454856e-006
+9.6256000e+004    +2.9993717e-007    +2.2851507e-006
+9.6384000e+004    +3.0131224e-007    +2.2355300e-006
+9.6512000e+004    +3.5082320e-007    +2.2579754e-006
+9.6640000e+004    +3.3702068e-007    +2.2740453e-006
+9.6768000e+004    +3.2614918e-007    +2.2322874e-006
+9.6896000e+004    +3.2535016e-007    +2.1836611e-006
+9.7024000e+004    +3.1656020e-007    +2.2813754e-006
+9.7152000e+004    +3.0921910e-007    +2.3732412e-006
+9.7280000e+004    +3.0348863e-007    +2.4050469e-006
+9.7408000e+004    +3.3373681e-007    +2.3665671e-006
+9.7536000e+004    +3.3784650e-007    +2.4709243e-006
+9.7664000e+004    +3.2305672e-007    +2.4833921e-006
+9.7792000e+004    +3.1285165e-007    +2.3295186e-006
+9.7920000e+004    +3.4443781e-007    +2.2551858e-006
+9.8048000e+004    +3.7396310e-007    +2.2607067e-006
+9.8176000e+004    +3.9213901e-007    +2.2591435e-006
+9.8304000e+004    +3.5977561e-007    +2.2743475e-006
+9.8432000e+004    +3.5660187e-007    +2.2347349e-006
+9.8560000e+004    +3.8759310e-007    +2.3226764e-006
+9.8688000e+004    +4.2651686e-007    +2.3286721e-006
+9.8816000e+004    +4.2504243e-007    +2.2879976e-006
+9.8944000e+004    +4.5188742e-007    +2.1761912e-006
+9.9072000e+004    +5.3927715e-007    +2.3520090e-006
+9.9200000e+004    +6.5388548e-007    +2.3021569e-006
+9.9328000e+004    +7.5505125e-007    +2.2632325e-006
+9.9456000e+004    +8.4838535e-007    +2.1749443e-006
+9.9584000e+004    +9.0871742e-007    +2.2822446e-006
+9.9712000e+004    +9.0937618e-007    +2.1690587e-006
+9.9840000e+004    +8.6381914e-007    +2.3107266e-006
+9.9968000e+004    +7.9354123e-007    +2.2979093e-006
+1.0009600e+005    +7.7438858e-007    +2.4080882e-006
+1.0022400e+005    +8.7076671e-007    +2.3627920e-006
+1.0035200e+005    +9.4669196e-007    +2.1393448e-006
+1.0048000e+005    +8.5168551e-007    +2.2212732e-006
+1.0060800e+005    +7.5486804e-007    +2.2932288e-006
+1.0073600e+005    +8.3165980e-007    +2.2492732e-006
+1.0086400e+005    +7.8476154e-007    +2.3595255e-006
+1.0099200e+005    +7.1599408e-007    +2.2877089e-006
+1.0112000e+005    +8.0842455e-007    +2.3674297e-006
+1.0124800e+005    +7.5739933e-007    +2.3323287e-006
+1.0137600e+005    +7.9933096e-007    +2.2266036e-006
+1.0150400e+005    +7.8269119e-007    +2.2847041e-006
+1.0163200e+005    +8.0165393e-007    +2.4948047e-006
+1.0176000e+005    +8.2342609e-007    +2.2533170e-006
+1.0188800e+005    +8.7462053e-007    +2.0702935e-006
+1.0201600e+005    +9.0005278e-007    +2.1654132e-006
+1.0214400e+005    +9.3362792e-007    +2.1371591e-006
+1.0227200e+005    +9.3537324e-007    +2.2983736e-006
#
#
# North DC Val: 1.08277977 VoltsSouth DC Val: 0.67928073 Volts
# SR785 Measurement - Timestamp: Apr 19 2020 - 22:00:35
# Parameter File: /home/controls/Git/cit_ctnlab/ctn_scripts/TransRINSpecLong.yml
#---------- Measurement Setup ------------
# Start Frequency (Hz): 0.000000
# Frequency Span (Hz): 800.000000
# Frequency Resolution: 800
# Number of Averages: 100
# Averaging Mode: RMS
# Window function: Hanning
#---------- Measurement Parameters ----------
# Measurement Group:  "FFT" "FFT"
# Measurements:  "FFT 1" "FFT 2"
# View:  "Log Magnitude" "Log Magnitude"
# Unit:  "Vrms/rtHz" "Vrms/rtHz"
#---------- Input Parameters ----------
# Input Source: Analog
# Input Mode: Single ended, Single ended
# Input Grounding: Float, Float
# Input Coupling: AC, AC
# Input Range: -36.0dBVpk, -36.0dBVpk
# Auto Range: Off, Off
# Auto Range Mode: Tracking, Tracking
# Anti-Aliasing Filter: On, On
#---------- Source Parameters ----------
# Source Type: Sine
# Source Amplitude: 500.0mVpk
# Source On: 0

#---------- Measurement Data ----------
# [Freq(Hz) Display 0(Vrms/rtHz) Display 1(Vrms/rtHz) ]
+7.0000000e+000    +8.9724665e-005    +2.8254801e-005
+8.0000000e+000    +6.3300111e-005    +2.0704823e-005
+9.0000000e+000    +6.0159473e-005    +1.6184928e-005
+1.0000000e+001    +5.6623900e-005    +1.3745460e-005
+1.1000000e+001    +5.2220803e-005    +1.0703910e-005
+1.2000000e+001    +4.2243704e-005    +8.5070142e-006
+1.3000000e+001    +3.2944990e-005    +7.1665313e-006
+1.4000000e+001    +2.8148934e-005    +5.6341792e-006
+1.5000000e+001    +2.5404355e-005    +5.1765255e-006
+1.6000000e+001    +2.5237548e-005    +4.2477791e-006
+1.7000000e+001    +2.5863983e-005    +3.5884534e-006
+1.8000000e+001    +2.2986613e-005    +3.1014292e-006
+1.9000000e+001    +2.0714782e-005    +2.8852353e-006
+2.0000000e+001    +1.9266397e-005    +2.6588484e-006
+2.1000000e+001    +1.8291928e-005    +2.1419537e-006
+2.2000000e+001    +1.6313326e-005    +1.9292308e-006
+2.3000000e+001    +1.7181654e-005    +1.8224711e-006
+2.4000000e+001    +1.6234902e-005    +1.6545537e-006
+2.5000000e+001    +1.4516834e-005    +1.5684969e-006
+2.6000000e+001    +1.2891739e-005    +1.3190208e-006
+2.7000000e+001    +1.4574920e-005    +1.1912949e-006
+2.8000000e+001    +1.4035604e-005    +1.1099437e-006
+2.9000000e+001    +1.2567748e-005    +1.0421380e-006
+3.0000000e+001    +1.0377273e-005    +9.2497555e-007
+3.1000000e+001    +1.0302821e-005    +8.4973243e-007
+3.2000000e+001    +1.0467331e-005    +7.5891768e-007
+3.3000000e+001    +9.6986332e-006    +7.1351576e-007
+3.4000000e+001    +9.4096240e-006    +6.0475173e-007
+3.5000000e+001    +8.2939832e-006    +5.8122617e-007
+3.6000000e+001    +7.6425249e-006    +5.8153387e-007
+3.7000000e+001    +7.2275111e-006    +5.3024064e-007
+3.8000000e+001    +7.0429091e-006    +4.6110898e-007
+3.9000000e+001    +6.5776735e-006    +4.6451049e-007
+4.0000000e+001    +6.0419420e-006    +4.3611570e-007
+4.1000000e+001    +5.2132291e-006    +3.7483377e-007
+4.2000000e+001    +5.1016732e-006    +3.2095488e-007
+4.3000000e+001    +4.8761704e-006    +3.2455526e-007
+4.4000000e+001    +4.4823223e-006    +3.3945278e-007
+4.5000000e+001    +4.1520016e-006    +3.4008249e-007
+4.6000000e+001    +3.7167410e-006    +3.2698892e-007
+4.7000000e+001    +3.5698540e-006    +2.9995726e-007
+4.8000000e+001    +3.5655332e-006    +2.7456542e-007
+4.9000000e+001    +3.7241468e-006    +2.3564031e-007
+5.0000000e+001    +4.0002533e-006    +2.1903918e-007
+5.1000000e+001    +3.7859018e-006    +2.0859252e-007
+5.2000000e+001    +3.5198104e-006    +2.1180226e-007
+5.3000000e+001    +2.9996384e-006    +2.0438505e-007
+5.4000000e+001    +2.7557173e-006    +2.0009979e-007
+5.5000000e+001    +2.8227669e-006    +1.8892626e-007
+5.6000000e+001    +2.9452938e-006    +1.7404598e-007
+5.7000000e+001    +2.6352202e-006    +1.6605868e-007
+5.8000000e+001    +2.6579758e-006    +1.5159122e-007
+5.9000000e+001    +2.3014240e-006    +1.4548523e-007
+6.0000000e+001    +1.9313522e-006    +1.6710045e-007
+6.1000000e+001    +1.7999698e-006    +1.4569447e-007
+6.2000000e+001    +1.8458736e-006    +1.3452774e-007
+6.3000000e+001    +2.0204031e-006    +1.3008760e-007
+6.4000000e+001    +2.3727932e-006    +1.1423705e-007
+6.5000000e+001    +2.1386732e-006    +1.0735418e-007
+6.6000000e+001    +1.5869298e-006    +1.1629481e-007
+6.7000000e+001    +1.7394626e-006    +1.0324404e-007
+6.8000000e+001    +1.9915688e-006    +1.0093697e-007
+6.9000000e+001    +1.7440007e-006    +9.7987758e-008
+7.0000000e+001    +1.3429928e-006    +8.4449411e-008
+7.1000000e+001    +1.3424694e-006    +8.7231314e-008
+7.2000000e+001    +1.4713453e-006    +8.8987868e-008
+7.3000000e+001    +1.4651935e-006    +8.5351935e-008
+7.4000000e+001    +1.3501353e-006    +8.2616097e-008
+7.5000000e+001    +1.1720596e-006    +7.8235701e-008
+7.6000000e+001    +1.2576182e-006    +7.3059958e-008
+7.7000000e+001    +1.2688707e-006    +7.2310826e-008
+7.8000000e+001    +1.0422972e-006    +7.2568284e-008
+7.9000000e+001    +1.0539824e-006    +6.0227215e-008
+8.0000000e+001    +1.1312754e-006    +6.4423645e-008
+8.1000000e+001    +9.2002267e-007    +6.6534177e-008
+8.2000000e+001    +7.6903359e-007    +6.5422157e-008
+8.3000000e+001    +7.7882845e-007    +6.8900292e-008
+8.4000000e+001    +8.6986086e-007    +6.4520059e-008
+8.5000000e+001    +9.7456655e-007    +5.8242076e-008
+8.6000000e+001    +9.4971421e-007    +5.9956044e-008
+8.7000000e+001    +7.7771165e-007    +6.2764180e-008
+8.8000000e+001    +7.0865565e-007    +6.0322115e-008
+8.9000000e+001    +8.1878409e-007    +5.4941570e-008
+9.0000000e+001    +9.0122757e-007    +5.2474441e-008
+9.1000000e+001    +8.7752449e-007    +5.6723273e-008
+9.2000000e+001    +8.8339044e-007    +5.9420952e-008
+9.3000000e+001    +9.0136314e-007    +5.5737765e-008
+9.4000000e+001    +7.9369113e-007    +5.7254880e-008
+9.5000000e+001    +6.7212608e-007    +5.5808307e-008
+9.6000000e+001    +5.3496854e-007    +5.7512253e-008
+9.7000000e+001    +4.9665897e-007    +5.7142024e-008
+9.8000000e+001    +5.0993214e-007    +5.1508486e-008
+9.9000000e+001    +5.0401405e-007    +4.9321912e-008
+1.0000000e+002    +4.5814215e-007    +4.9116125e-008
+1.0100000e+002    +4.5002574e-007    +4.9331661e-008
+1.0200000e+002    +5.1348968e-007    +5.1259121e-008
+1.0300000e+002    +5.6483259e-007    +4.9950049e-008
+1.0400000e+002    +6.0257508e-007    +4.5974456e-008
+1.0500000e+002    +5.9763539e-007    +4.6357506e-008
+1.0600000e+002    +5.4901227e-007    +4.8886449e-008
+1.0700000e+002    +5.0619076e-007    +4.8548447e-008
+1.0800000e+002    +4.3745848e-007    +4.7596561e-008
+1.0900000e+002    +4.0204904e-007    +4.5144755e-008
+1.1000000e+002    +3.8907049e-007    +4.3164107e-008
+1.1100000e+002    +3.7357694e-007    +4.5531589e-008
+1.1200000e+002    +3.5088058e-007    +4.6537576e-008
+1.1300000e+002    +3.6629328e-007    +4.5925972e-008
+1.1400000e+002    +3.6742756e-007    +4.2755495e-008
+1.1500000e+002    +3.1224562e-007    +4.4438409e-008
+1.1600000e+002    +3.0843074e-007    +4.1849088e-008
+1.1700000e+002    +3.2811639e-007    +4.4952053e-008
+1.1800000e+002    +3.1651504e-007    +4.6718451e-008
+1.1900000e+002    +1.0247102e-006    +4.4522260e-008
+1.2000000e+002    +1.7789883e-006    +4.6975373e-008
+1.2100000e+002    +8.9084648e-007    +4.6651355e-008
+1.2200000e+002    +3.9646565e-007    +4.0856339e-008
+1.2300000e+002    +3.4977589e-007    +4.2658058e-008
+1.2400000e+002    +3.1106953e-007    +4.5589566e-008
+1.2500000e+002    +2.9803221e-007    +4.3098616e-008
+1.2600000e+002    +2.9157533e-007    +4.0602114e-008
+1.2700000e+002    +2.7014428e-007    +4.3315271e-008
+1.2800000e+002    +2.5774119e-007    +4.2538321e-008
+1.2900000e+002    +2.4416659e-007    +4.4812055e-008
+1.3000000e+002    +2.3620139e-007    +4.4403926e-008
+1.3100000e+002    +2.1756655e-007    +4.2801805e-008
+1.3200000e+002    +2.3375688e-007    +4.2415106e-008
+1.3300000e+002    +3.0301086e-007    +4.3895820e-008
+1.3400000e+002    +3.0672399e-007    +4.3140986e-008
+1.3500000e+002    +2.7821758e-007    +4.1679606e-008
+1.3600000e+002    +3.0944634e-007    +4.1335117e-008
+1.3700000e+002    +3.5980048e-007    +4.3294015e-008
+1.3800000e+002    +4.2887140e-007    +4.1271491e-008
+1.3900000e+002    +5.5840121e-007    +4.0473218e-008
+1.4000000e+002    +7.3813601e-007    +3.9205592e-008
+1.4100000e+002    +9.9850456e-007    +4.0530583e-008
+1.4200000e+002    +1.6191965e-006    +4.0035577e-008
+1.4300000e+002    +2.6333719e-006    +3.4523705e-008
+1.4400000e+002    +2.4103419e-006    +4.1801833e-008
+1.4500000e+002    +1.6613491e-006    +4.5760324e-008
+1.4600000e+002    +1.1141769e-006    +4.1227199e-008
+1.4700000e+002    +7.2128847e-007    +4.2849344e-008
+1.4800000e+002    +5.2960758e-007    +4.2971180e-008
+1.4900000e+002    +4.3560843e-007    +4.2959339e-008
+1.5000000e+002    +3.2551668e-007    +4.0216250e-008
+1.5100000e+002    +2.9139258e-007    +4.0593154e-008
+1.5200000e+002    +2.6709765e-007    +4.1568825e-008
+1.5300000e+002    +2.3477725e-007    +3.6519257e-008
+1.5400000e+002    +2.3231024e-007    +3.8281481e-008
+1.5500000e+002    +2.7240165e-007    +3.8007414e-008
+1.5600000e+002    +2.8568525e-007    +4.1084409e-008
+1.5700000e+002    +2.7315400e-007    +3.9345700e-008
+1.5800000e+002    +2.3305215e-007    +3.8680536e-008
+1.5900000e+002    +2.1246747e-007    +4.0039225e-008
+1.6000000e+002    +1.9485304e-007    +3.7042788e-008
+1.6100000e+002    +1.9423445e-007    +3.7800245e-008
+1.6200000e+002    +1.9071466e-007    +3.9153498e-008
+1.6300000e+002    +1.7709066e-007    +3.7141628e-008
+1.6400000e+002    +1.5847463e-007    +3.8217856e-008
+1.6500000e+002    +1.5301411e-007    +3.7827107e-008
+1.6600000e+002    +1.5625891e-007    +3.9850942e-008
+1.6700000e+002    +1.5375646e-007    +3.7576626e-008
+1.6800000e+002    +1.3977350e-007    +3.5534065e-008
+1.6900000e+002    +1.2510682e-007    +4.0063764e-008
+1.7000000e+002    +1.2437503e-007    +4.0611699e-008
+1.7100000e+002    +1.1803751e-007    +3.8760376e-008
+1.7200000e+002    +1.0680771e-007    +3.8434571e-008
+1.7300000e+002    +1.0944430e-007    +3.6576360e-008
+1.7400000e+002    +1.1052641e-007    +3.7663781e-008
+1.7500000e+002    +1.0704228e-007    +3.8564089e-008
+1.7600000e+002    +1.0679610e-007    +3.8184680e-008
+1.7700000e+002    +1.0970682e-007    +3.8458758e-008
+1.7800000e+002    +1.0848886e-007    +3.7563922e-008
+1.7900000e+002    +2.9556730e-007    +7.0132238e-008
+1.8000000e+002    +4.8020064e-007    +1.0269650e-007
+1.8100000e+002    +2.2860466e-007    +6.0080659e-008
+1.8200000e+002    +1.0531414e-007    +3.9480238e-008
+1.8300000e+002    +1.0248215e-007    +3.6829956e-008
+1.8400000e+002    +1.0217207e-007    +3.5409670e-008
+1.8500000e+002    +9.8607259e-008    +3.9476294e-008
+1.8600000e+002    +9.1283241e-008    +3.8561126e-008
+1.8700000e+002    +1.0178444e-007    +3.9688636e-008
+1.8800000e+002    +1.0524109e-007    +3.8099792e-008
+1.8900000e+002    +1.0147646e-007    +3.7861263e-008
+1.9000000e+002    +1.0763874e-007    +3.7761833e-008
+1.9100000e+002    +1.1485784e-007    +3.8818424e-008
+1.9200000e+002    +9.9310022e-008    +3.6183955e-008
+1.9300000e+002    +1.0331730e-007    +3.5743291e-008
+1.9400000e+002    +1.1367676e-007    +3.7028066e-008
+1.9500000e+002    +9.6336080e-008    +3.7783646e-008
+1.9600000e+002    +9.2332265e-008    +3.7880181e-008
+1.9700000e+002    +9.6340202e-008    +3.7235580e-008
+1.9800000e+002    +9.6100813e-008    +3.7808714e-008
+1.9900000e+002    +9.2288786e-008    +3.6794308e-008
+2.0000000e+002    +8.9776798e-008    +3.7981298e-008
+2.0100000e+002    +9.0476405e-008    +3.4814867e-008
+2.0200000e+002    +9.3626198e-008    +3.5985657e-008
+2.0300000e+002    +8.1819813e-008    +3.2575013e-008
+2.0400000e+002    +8.2287023e-008    +3.7065814e-008
+2.0500000e+002    +8.9816233e-008    +3.8802956e-008
+2.0600000e+002    +8.8642473e-008    +3.4278347e-008
+2.0700000e+002    +8.8752323e-008    +3.4681374e-008
+2.0800000e+002    +8.8417060e-008    +3.7246622e-008
+2.0900000e+002    +9.7776258e-008    +3.6738680e-008
+2.1000000e+002    +9.5666550e-008    +3.9009663e-008
+2.1100000e+002    +8.3656857e-008    +3.6185664e-008
+2.1200000e+002    +9.0938016e-008    +3.7949246e-008
+2.1300000e+002    +1.0630534e-007    +3.8869686e-008
+2.1400000e+002    +1.1533995e-007    +3.8505743e-008
+2.1500000e+002    +1.0453778e-007    +3.6493564e-008
+2.1600000e+002    +1.1927712e-007    +3.6593310e-008
+2.1700000e+002    +1.8117036e-007    +3.5831032e-008
+2.1800000e+002    +1.5124012e-007    +3.5617653e-008
+2.1900000e+002    +1.1767067e-007    +3.5230777e-008
+2.2000000e+002    +1.2138223e-007    +3.5962394e-008
+2.2100000e+002    +1.3317539e-007    +3.8596365e-008
+2.2200000e+002    +1.4152157e-007    +3.9295792e-008
+2.2300000e+002    +1.2563954e-007    +3.7979966e-008
+2.2400000e+002    +1.0853246e-007    +3.9256118e-008
+2.2500000e+002    +9.9140607e-008    +3.7116394e-008
+2.2600000e+002    +9.8841824e-008    +3.4459593e-008
+2.2700000e+002    +9.1044612e-008    +3.5598340e-008
+2.2800000e+002    +8.5361499e-008    +3.4650316e-008
+2.2900000e+002    +9.1388536e-008    +3.5689762e-008
+2.3000000e+002    +9.6522633e-008    +3.6502421e-008
+2.3100000e+002    +8.7715364e-008    +3.4842973e-008
+2.3200000e+002    +1.0025032e-007    +3.4859351e-008
+2.3300000e+002    +1.1854534e-007    +3.6357065e-008
+2.3400000e+002    +1.0517721e-007    +3.5212910e-008
+2.3500000e+002    +9.7658244e-008    +3.5720888e-008
+2.3600000e+002    +1.0464090e-007    +3.9304897e-008
+2.3700000e+002    +1.0654570e-007    +3.7625963e-008
+2.3800000e+002    +1.0608555e-007    +3.8310535e-008
+2.3900000e+002    +2.3161496e-007    +3.7532136e-008
+2.4000000e+002    +3.4573702e-007    +3.4905923e-008
+2.4100000e+002    +1.6961287e-007    +3.4779603e-008
+2.4200000e+002    +1.1725603e-007    +3.6169773e-008
+2.4300000e+002    +1.2539134e-007    +3.3843680e-008
+2.4400000e+002    +1.1614144e-007    +3.3396592e-008
+2.4500000e+002    +1.0927920e-007    +3.9026371e-008
+2.4600000e+002    +1.1961680e-007    +3.8875918e-008
+2.4700000e+002    +1.4078201e-007    +3.4161122e-008
+2.4800000e+002    +1.5658196e-007    +3.5838898e-008
+2.4900000e+002    +1.8891278e-007    +3.6911246e-008
+2.5000000e+002    +1.9228443e-007    +3.7850747e-008
+2.5100000e+002    +1.8752488e-007    +3.7919506e-008
+2.5200000e+002    +2.0048992e-007    +3.5098964e-008
+2.5300000e+002    +2.3106224e-007    +3.7267238e-008
+2.5400000e+002    +2.7395896e-007    +3.8947054e-008
+2.5500000e+002    +3.4782047e-007    +3.5821433e-008
+2.5600000e+002    +4.0159861e-007    +3.6849535e-008
+2.5700000e+002    +4.4342733e-007    +3.6287197e-008
+2.5800000e+002    +4.4360945e-007    +3.9053806e-008
+2.5900000e+002    +4.5060372e-007    +3.9548048e-008
+2.6000000e+002    +4.7223907e-007    +3.4651151e-008
+2.6100000e+002    +5.0120735e-007    +3.4566185e-008
+2.6200000e+002    +6.1363954e-007    +3.5045783e-008
+2.6300000e+002    +8.5445328e-007    +3.0861944e-008
+2.6400000e+002    +1.1483728e-006    +3.3362106e-008
+2.6500000e+002    +1.0680137e-006    +3.5936619e-008
+2.6600000e+002    +1.0713363e-006    +3.8497287e-008
+2.6700000e+002    +1.3254842e-006    +3.7443765e-008
+2.6800000e+002    +1.6470174e-006    +3.5732537e-008
+2.6900000e+002    +2.1531891e-006    +3.4621831e-008
+2.7000000e+002    +3.6156712e-006    +3.6418871e-008
+2.7100000e+002    +4.9371324e-006    +3.4782428e-008
+2.7200000e+002    +4.8111201e-006    +3.7584797e-008
+2.7300000e+002    +3.7416846e-006    +3.7392905e-008
+2.7400000e+002    +2.8776014e-006    +3.8997161e-008
+2.7500000e+002    +2.4862566e-006    +3.5849251e-008
+2.7600000e+002    +2.4608717e-006    +3.7792027e-008
+2.7700000e+002    +2.1158098e-006    +3.7681197e-008
+2.7800000e+002    +1.8244231e-006    +3.3990517e-008
+2.7900000e+002    +1.6437908e-006    +3.4578864e-008
+2.8000000e+002    +1.3980082e-006    +3.7612413e-008
+2.8100000e+002    +1.3873413e-006    +3.7614065e-008
+2.8200000e+002    +1.4742398e-006    +3.8636053e-008
+2.8300000e+002    +1.0406517e-006    +3.7789913e-008
+2.8400000e+002    +8.6567439e-007    +3.8266773e-008
+2.8500000e+002    +7.4283122e-007    +3.5807592e-008
+2.8600000e+002    +6.3491808e-007    +3.4226598e-008
+2.8700000e+002    +5.2012001e-007    +3.6947089e-008
+2.8800000e+002    +4.8471748e-007    +3.8116990e-008
+2.8900000e+002    +4.3460614e-007    +3.8664698e-008
+2.9000000e+002    +4.4930786e-007    +3.8172942e-008
+2.9100000e+002    +3.9772263e-007    +3.6379749e-008
+2.9200000e+002    +3.5010478e-007    +3.2215386e-008
+2.9300000e+002    +2.7712068e-007    +3.4653588e-008
+2.9400000e+002    +2.8084722e-007    +3.5342666e-008
+2.9500000e+002    +2.5748153e-007    +3.6458122e-008
+2.9600000e+002    +2.3500162e-007    +3.3511157e-008
+2.9700000e+002    +2.4077102e-007    +3.6592628e-008
+2.9800000e+002    +2.2714552e-007    +3.7345636e-008
+2.9900000e+002    +2.5143180e-007    +3.6591704e-008
+3.0000000e+002    +2.5046634e-007    +4.0076653e-008
+3.0100000e+002    +1.7323762e-007    +3.8902691e-008
+3.0200000e+002    +1.5655806e-007    +3.8790006e-008
+3.0300000e+002    +1.5330755e-007    +3.6426830e-008
+3.0400000e+002    +1.4237064e-007    +3.6810551e-008
+3.0500000e+002    +1.3152896e-007    +3.6373997e-008
+3.0600000e+002    +1.3134569e-007    +3.4499379e-008
+3.0700000e+002    +1.2090392e-007    +3.7678092e-008
+3.0800000e+002    +1.2404514e-007    +3.7591814e-008
+3.0900000e+002    +1.3524929e-007    +3.5766568e-008
+3.1000000e+002    +1.2642484e-007    +3.7606839e-008
+3.1100000e+002    +1.2147662e-007    +3.7912304e-008
+3.1200000e+002    +1.1564733e-007    +3.8133734e-008
+3.1300000e+002    +1.1156850e-007    +3.8639023e-008
+3.1400000e+002    +1.1653012e-007    +3.5361804e-008
+3.1500000e+002    +1.2001527e-007    +3.6239499e-008
+3.1600000e+002    +1.1192628e-007    +3.6954432e-008
+3.1700000e+002    +1.0145384e-007    +3.5360639e-008
+3.1800000e+002    +1.1256417e-007    +3.9211233e-008
+3.1900000e+002    +1.1752606e-007    +3.8433306e-008
+3.2000000e+002    +1.1208283e-007    +3.7175042e-008
+3.2100000e+002    +1.0785724e-007    +3.8601112e-008
+3.2200000e+002    +1.0609673e-007    +3.4756891e-008
+3.2300000e+002    +1.0871876e-007    +3.6945952e-008
+3.2400000e+002    +1.0888576e-007    +3.5692192e-008
+3.2500000e+002    +1.0902884e-007    +3.6428112e-008
+3.2600000e+002    +1.0164204e-007    +3.7463423e-008
+3.2700000e+002    +1.0182534e-007    +3.9379195e-008
+3.2800000e+002    +1.0851054e-007    +3.8031668e-008
+3.2900000e+002    +1.2241600e-007    +3.7207261e-008
+3.3000000e+002    +1.2078159e-007    +3.6469853e-008
+3.3100000e+002    +1.2385340e-007    +3.5425533e-008
+3.3200000e+002    +1.1711604e-007    +3.7416477e-008
+3.3300000e+002    +1.1228323e-007    +3.6297319e-008
+3.3400000e+002    +1.2641623e-007    +3.6612239e-008
+3.3500000e+002    +1.2740472e-007    +4.0533074e-008
+3.3600000e+002    +1.3607522e-007    +3.6975496e-008
+3.3700000e+002    +1.4549290e-007    +3.5955960e-008
+3.3800000e+002    +1.4377326e-007    +3.6869121e-008
+3.3900000e+002    +1.3609943e-007    +3.7822499e-008
+3.4000000e+002    +1.4134159e-007    +3.9351185e-008
+3.4100000e+002    +1.5669892e-007    +3.7819508e-008
+3.4200000e+002    +1.8800957e-007    +3.8380467e-008
+3.4300000e+002    +2.0204897e-007    +3.6706908e-008
+3.4400000e+002    +2.2947704e-007    +3.7938371e-008
+3.4500000e+002    +2.4242627e-007    +3.9973294e-008
+3.4600000e+002    +2.3950753e-007    +3.7561364e-008
+3.4700000e+002    +2.3957486e-007    +3.5063142e-008
+3.4800000e+002    +3.1991735e-007    +3.9522305e-008
+3.4900000e+002    +4.9806511e-007    +4.0086643e-008
+3.5000000e+002    +4.5217527e-007    +3.9311455e-008
+3.5100000e+002    +4.7069904e-007    +4.0510340e-008
+3.5200000e+002    +5.4694317e-007    +3.9221781e-008
+3.5300000e+002    +5.0104012e-007    +3.7398735e-008
+3.5400000e+002    +3.6335598e-007    +3.5931532e-008
+3.5500000e+002    +2.9418291e-007    +3.7607375e-008
+3.5600000e+002    +2.9111885e-007    +3.9085808e-008
+3.5700000e+002    +2.5500739e-007    +4.0751953e-008
+3.5800000e+002    +2.2706024e-007    +4.0958970e-008
+3.5900000e+002    +2.1405008e-007    +4.0271530e-008
+3.6000000e+002    +2.2019250e-007    +4.2454058e-008
+3.6100000e+002    +1.5864943e-007    +4.0636721e-008
+3.6200000e+002    +1.2150009e-007    +3.5621721e-008
+3.6300000e+002    +1.1527678e-007    +3.6743522e-008
+3.6400000e+002    +1.1899144e-007    +3.9499056e-008
+3.6500000e+002    +1.1125816e-007    +4.0779121e-008
+3.6600000e+002    +1.0446470e-007    +3.7921797e-008
+3.6700000e+002    +1.0185755e-007    +3.5723829e-008
+3.6800000e+002    +9.6003468e-008    +3.6288910e-008
+3.6900000e+002    +9.5798562e-008    +3.7464904e-008
+3.7000000e+002    +1.0246539e-007    +3.9908826e-008
+3.7100000e+002    +1.0889843e-007    +4.0570832e-008
+3.7200000e+002    +1.1524539e-007    +3.6796166e-008
+3.7300000e+002    +1.1057655e-007    +3.9646697e-008
+3.7400000e+002    +1.1521617e-007    +3.7131841e-008
+3.7500000e+002    +1.1860093e-007    +3.4809478e-008
+3.7600000e+002    +1.2247206e-007    +3.6580253e-008
+3.7700000e+002    +1.1351612e-007    +3.9218122e-008
+3.7800000e+002    +1.2018577e-007    +3.6436433e-008
+3.7900000e+002    +1.1946415e-007    +3.8085737e-008
+3.8000000e+002    +1.0436347e-007    +3.8451073e-008
+3.8100000e+002    +1.0998783e-007    +4.0624187e-008
+3.8200000e+002    +1.1893946e-007    +4.3287883e-008
+3.8300000e+002    +1.2426898e-007    +3.9904315e-008
+3.8400000e+002    +1.1621120e-007    +4.0603762e-008
+3.8500000e+002    +1.0681310e-007    +4.1155651e-008
+3.8600000e+002    +1.1957819e-007    +4.0667384e-008
+3.8700000e+002    +1.4679163e-007    +3.9154187e-008
+3.8800000e+002    +1.6331481e-007    +4.5212214e-008
+3.8900000e+002    +1.5716603e-007    +4.0792735e-008
+3.9000000e+002    +1.5999093e-007    +3.7581042e-008
+3.9100000e+002    +1.4374785e-007    +3.9088125e-008
+3.9200000e+002    +1.3273161e-007    +4.0417397e-008
+3.9300000e+002    +1.2331390e-007    +3.8387675e-008
+3.9400000e+002    +1.1293556e-007    +3.6793985e-008
+3.9500000e+002    +1.0890095e-007    +3.8585647e-008
+3.9600000e+002    +9.2118100e-008    +3.9135447e-008
+3.9700000e+002    +9.0687848e-008    +3.7802319e-008
+3.9800000e+002    +9.0229882e-008    +3.7247602e-008
+3.9900000e+002    +8.6639517e-008    +4.0765066e-008
+4.0000000e+002    +9.4652563e-008    +3.8010878e-008
+4.0100000e+002    +1.0032266e-007    +3.8773400e-008
+4.0200000e+002    +9.2703132e-008    +4.1371077e-008
+4.0300000e+002    +9.1792096e-008    +4.0735447e-008
+4.0400000e+002    +1.0330243e-007    +3.8397665e-008
+4.0500000e+002    +1.1584063e-007    +3.7346990e-008
+4.0600000e+002    +1.1780304e-007    +3.8028244e-008
+4.0700000e+002    +1.1069122e-007    +3.7571510e-008
+4.0800000e+002    +1.0425902e-007    +4.1010811e-008
+4.0900000e+002    +1.0374733e-007    +4.1689994e-008
+4.1000000e+002    +1.0623545e-007    +4.1787516e-008
+4.1100000e+002    +1.1355863e-007    +4.1190731e-008
+4.1200000e+002    +1.1189139e-007    +4.0507135e-008
+4.1300000e+002    +1.0112122e-007    +4.1982872e-008
+4.1400000e+002    +1.0635717e-007    +4.2946937e-008
+4.1500000e+002    +1.0156474e-007    +4.1914017e-008
+4.1600000e+002    +9.2574062e-008    +4.1237204e-008
+4.1700000e+002    +9.2369071e-008    +4.0521105e-008
+4.1800000e+002    +8.9268823e-008    +4.0756607e-008
+4.1900000e+002    +9.3068444e-008    +4.3824308e-008
+4.2000000e+002    +1.0413032e-007    +4.6351499e-008
+4.2100000e+002    +9.3943974e-008    +4.1951907e-008
+4.2200000e+002    +8.2992671e-008    +3.9504606e-008
+4.2300000e+002    +8.5318206e-008    +3.6668681e-008
+4.2400000e+002    +7.8545547e-008    +3.9021018e-008
+4.2500000e+002    +8.0929489e-008    +3.9352138e-008
+4.2600000e+002    +7.5949949e-008    +4.4381309e-008
+4.2700000e+002    +7.2996052e-008    +4.0833246e-008
+4.2800000e+002    +7.1689314e-008    +3.8218065e-008
+4.2900000e+002    +7.0240127e-008    +3.8855351e-008
+4.3000000e+002    +7.6017862e-008    +3.7921048e-008
+4.3100000e+002    +8.4364061e-008    +4.0776392e-008
+4.3200000e+002    +7.6447407e-008    +4.0892242e-008
+4.3300000e+002    +8.1010299e-008    +3.7673253e-008
+4.3400000e+002    +8.1702666e-008    +4.0260431e-008
+4.3500000e+002    +9.3529209e-008    +4.1028962e-008
+4.3600000e+002    +1.1327707e-007    +4.0469530e-008
+4.3700000e+002    +1.1173940e-007    +4.1085940e-008
+4.3800000e+002    +1.1792702e-007    +4.0224421e-008
+4.3900000e+002    +1.4792759e-007    +4.3203084e-008
+4.4000000e+002    +1.6357448e-007    +4.1959510e-008
+4.4100000e+002    +1.7867380e-007    +4.1107015e-008
+4.4200000e+002    +2.0673157e-007    +4.3223721e-008
+4.4300000e+002    +2.3932617e-007    +4.2344379e-008
+4.4400000e+002    +2.3413087e-007    +4.4137462e-008
+4.4500000e+002    +2.1564470e-007    +4.1346873e-008
+4.4600000e+002    +1.8035544e-007    +3.9065469e-008
+4.4700000e+002    +1.6843222e-007    +3.7992312e-008
+4.4800000e+002    +1.6467877e-007    +4.2006157e-008
+4.4900000e+002    +1.3304985e-007    +4.4810776e-008
+4.5000000e+002    +1.2262194e-007    +4.4290815e-008
+4.5100000e+002    +1.1528222e-007    +4.1808214e-008
+4.5200000e+002    +1.0161895e-007    +3.9884167e-008
+4.5300000e+002    +1.0147679e-007    +4.1165276e-008
+4.5400000e+002    +9.4229918e-008    +4.1340520e-008
+4.5500000e+002    +8.6876511e-008    +4.5001386e-008
+4.5600000e+002    +8.9412723e-008    +4.6705320e-008
+4.5700000e+002    +8.3096154e-008    +4.4149335e-008
+4.5800000e+002    +8.0467956e-008    +3.9669992e-008
+4.5900000e+002    +8.3340019e-008    +4.2332477e-008
+4.6000000e+002    +8.1738193e-008    +3.8665462e-008
+4.6100000e+002    +7.9060527e-008    +4.1912177e-008
+4.6200000e+002    +7.8816463e-008    +4.1299415e-008
+4.6300000e+002    +7.6244554e-008    +4.2972218e-008
+4.6400000e+002    +7.4125225e-008    +4.1846331e-008
+4.6500000e+002    +7.8648583e-008    +4.0949754e-008
+4.6600000e+002    +7.8177308e-008    +3.9220058e-008
+4.6700000e+002    +7.8796994e-008    +4.0335870e-008
+4.6800000e+002    +8.5508582e-008    +4.2456293e-008
+4.6900000e+002    +8.6516792e-008    +4.3227708e-008
+4.7000000e+002    +8.5609287e-008    +4.3013710e-008
+4.7100000e+002    +8.9049834e-008    +4.1474866e-008
+4.7200000e+002    +9.5713297e-008    +4.3070042e-008
+4.7300000e+002    +1.0288046e-007    +4.5764644e-008
+4.7400000e+002    +1.0419767e-007    +4.6402011e-008
+4.7500000e+002    +1.1530108e-007    +4.2961414e-008
+4.7600000e+002    +1.2292578e-007    +4.1874365e-008
+4.7700000e+002    +1.1800408e-007    +4.3261657e-008
+4.7800000e+002    +1.2364985e-007    +4.3581174e-008
+4.7900000e+002    +2.6092422e-007    +4.2973443e-008
+4.8000000e+002    +3.2950018e-007    +4.5173859e-008
+4.8100000e+002    +1.8166475e-007    +4.3103537e-008
+4.8200000e+002    +1.6318701e-007    +4.1126153e-008
+4.8300000e+002    +1.6487995e-007    +4.1890782e-008
+4.8400000e+002    +1.8339709e-007    +4.0949978e-008
+4.8500000e+002    +2.1591717e-007    +4.5287585e-008
+4.8600000e+002    +2.2894979e-007    +4.6524040e-008
+4.8700000e+002    +2.5028490e-007    +4.4778609e-008
+4.8800000e+002    +2.4859017e-007    +4.2508443e-008
+4.8900000e+002    +2.6321896e-007    +4.1338385e-008
+4.9000000e+002    +2.7703456e-007    +4.2064681e-008
+4.9100000e+002    +2.9088815e-007    +4.3881698e-008
+4.9200000e+002    +2.9807703e-007    +4.3793474e-008
+4.9300000e+002    +3.1105688e-007    +4.1636930e-008
+4.9400000e+002    +2.8264014e-007    +4.3883819e-008
+4.9500000e+002    +2.9889407e-007    +4.5172126e-008
+4.9600000e+002    +2.8509459e-007    +4.6406139e-008
+4.9700000e+002    +2.8013028e-007    +4.6657295e-008
+4.9800000e+002    +2.6708506e-007    +4.3988212e-008
+4.9900000e+002    +2.3022278e-007    +4.6711218e-008
+5.0000000e+002    +2.0429508e-007    +4.4873303e-008
+5.0100000e+002    +2.0666734e-007    +4.4197932e-008
+5.0200000e+002    +2.0734032e-007    +4.6633172e-008
+5.0300000e+002    +2.4307340e-007    +4.6905694e-008
+5.0400000e+002    +2.6873494e-007    +4.2467668e-008
+5.0500000e+002    +3.1097869e-007    +4.3587683e-008
+5.0600000e+002    +3.6824497e-007    +4.5536186e-008
+5.0700000e+002    +4.6407973e-007    +4.3614826e-008
+5.0800000e+002    +5.5154806e-007    +4.3477126e-008
+5.0900000e+002    +5.8782814e-007    +4.3229893e-008
+5.1000000e+002    +6.2598940e-007    +4.2807681e-008
+5.1100000e+002    +5.4349033e-007    +4.5569699e-008
+5.1200000e+002    +4.6324789e-007    +4.5647017e-008
+5.1300000e+002    +3.4992647e-007    +4.7982326e-008
+5.1400000e+002    +2.8015612e-007    +4.6387594e-008
+5.1500000e+002    +2.3907560e-007    +4.7886171e-008
+5.1600000e+002    +2.1372271e-007    +4.5036384e-008
+5.1700000e+002    +1.9437846e-007    +4.4443190e-008
+5.1800000e+002    +1.7745560e-007    +4.8029236e-008
+5.1900000e+002    +1.6637038e-007    +4.2302233e-008
+5.2000000e+002    +1.6114602e-007    +4.3359094e-008
+5.2100000e+002    +1.6070977e-007    +4.5041624e-008
+5.2200000e+002    +1.6196054e-007    +4.5943473e-008
+5.2300000e+002    +1.9111376e-007    +4.6568246e-008
+5.2400000e+002    +2.6821496e-007    +4.6139206e-008
+5.2500000e+002    +4.7989226e-007    +5.0730133e-008
+5.2600000e+002    +6.6346695e-007    +5.0816819e-008
+5.2700000e+002    +9.2878980e-007    +4.6334861e-008
+5.2800000e+002    +1.4287425e-006    +4.0775451e-008
+5.2900000e+002    +1.6996129e-006    +4.5670777e-008
+5.3000000e+002    +2.0201458e-006    +4.9517737e-008
+5.3100000e+002    +2.3510847e-006    +4.7492577e-008
+5.3200000e+002    +2.5302195e-006    +4.4460808e-008
+5.3300000e+002    +2.4723952e-006    +3.9219284e-008
+5.3400000e+002    +2.4357298e-006    +3.9437694e-008
+5.3500000e+002    +2.2975764e-006    +4.4219970e-008
+5.3600000e+002    +2.0293785e-006    +4.5988994e-008
+5.3700000e+002    +1.9173463e-006    +4.8331028e-008
+5.3800000e+002    +1.8620053e-006    +4.7836039e-008
+5.3900000e+002    +1.8285704e-006    +4.6216424e-008
+5.4000000e+002    +1.7128200e-006    +4.8169397e-008
+5.4100000e+002    +1.5498715e-006    +5.0855054e-008
+5.4200000e+002    +1.3246258e-006    +4.6498045e-008
+5.4300000e+002    +1.5333364e-006    +4.0723908e-008
+5.4400000e+002    +2.1833591e-006    +4.8482928e-008
+5.4500000e+002    +2.9034252e-006    +5.3982273e-008
+5.4600000e+002    +3.4864863e-006    +5.1253043e-008
+5.4700000e+002    +3.5742701e-006    +4.9416336e-008
+5.4800000e+002    +2.8889885e-006    +4.6072792e-008
+5.4900000e+002    +2.1538183e-006    +4.3918718e-008
+5.5000000e+002    +1.5911450e-006    +4.6297025e-008
+5.5100000e+002    +1.3660664e-006    +5.0842882e-008
+5.5200000e+002    +1.3095388e-006    +5.2011544e-008
+5.5300000e+002    +1.1622652e-006    +5.1835496e-008
+5.5400000e+002    +9.6205861e-007    +5.0893092e-008
+5.5500000e+002    +7.9046117e-007    +4.7802803e-008
+5.5600000e+002    +6.8479233e-007    +4.7292708e-008
+5.5700000e+002    +6.8621034e-007    +4.4793705e-008
+5.5800000e+002    +7.0569428e-007    +4.2439936e-008
+5.5900000e+002    +7.0648349e-007    +4.7615483e-008
+5.6000000e+002    +6.7235339e-007    +4.9359183e-008
+5.6100000e+002    +6.1355195e-007    +4.5396959e-008
+5.6200000e+002    +4.7244652e-007    +4.7119027e-008
+5.6300000e+002    +4.3602520e-007    +4.7520690e-008
+5.6400000e+002    +4.2474477e-007    +4.6267147e-008
+5.6500000e+002    +4.0478460e-007    +4.5844004e-008
+5.6600000e+002    +4.5067497e-007    +4.8341484e-008
+5.6700000e+002    +4.4476042e-007    +4.7934986e-008
+5.6800000e+002    +4.5450275e-007    +4.8332144e-008
+5.6900000e+002    +5.2928789e-007    +4.7256066e-008
+5.7000000e+002    +5.6943298e-007    +4.8193044e-008
+5.7100000e+002    +7.1799678e-007    +4.9112405e-008
+5.7200000e+002    +7.9515303e-007    +4.4846853e-008
+5.7300000e+002    +9.0681476e-007    +4.4153310e-008
+5.7400000e+002    +9.4633549e-007    +4.4646942e-008
+5.7500000e+002    +9.2687566e-007    +4.8878022e-008
+5.7600000e+002    +1.0875696e-006    +4.9747488e-008
+5.7700000e+002    +1.0256670e-006    +4.7477926e-008
+5.7800000e+002    +1.0027927e-006    +4.8931128e-008
+5.7900000e+002    +8.6729648e-007    +4.8013366e-008
+5.8000000e+002    +6.7933155e-007    +4.7259231e-008
+5.8100000e+002    +5.3902198e-007    +4.7476465e-008
+5.8200000e+002    +4.4580031e-007    +4.3384809e-008
+5.8300000e+002    +4.4886804e-007    +4.5354163e-008
+5.8400000e+002    +3.9420593e-007    +4.9340759e-008
+5.8500000e+002    +3.9581627e-007    +5.0353727e-008
+5.8600000e+002    +3.5969109e-007    +5.0169792e-008
+5.8700000e+002    +3.2747431e-007    +4.5367909e-008
+5.8800000e+002    +3.0046454e-007    +4.7160018e-008
+5.8900000e+002    +2.5982615e-007    +4.5923048e-008
+5.9000000e+002    +2.3269341e-007    +4.3426127e-008
+5.9100000e+002    +1.9942317e-007    +4.9625722e-008
+5.9200000e+002    +1.8845824e-007    +5.1659367e-008
+5.9300000e+002    +2.0928280e-007    +4.8612723e-008
+5.9400000e+002    +2.1118088e-007    +4.8506035e-008
+5.9500000e+002    +1.9486160e-007    +4.8088491e-008
+5.9600000e+002    +1.7781389e-007    +4.5702681e-008
+5.9700000e+002    +1.7116338e-007    +4.5162306e-008
+5.9800000e+002    +1.7494203e-007    +4.8510778e-008
+5.9900000e+002    +1.8205532e-007    +4.8176748e-008
+6.0000000e+002    +2.0260367e-007    +5.1501811e-008
+6.0100000e+002    +2.3418228e-007    +4.9844097e-008
+6.0200000e+002    +2.9306037e-007    +5.1370620e-008
+6.0300000e+002    +3.2906885e-007    +5.0880857e-008
+6.0400000e+002    +3.1190228e-007    +5.2310035e-008
+6.0500000e+002    +2.3111706e-007    +5.4204161e-008
+6.0600000e+002    +1.9628742e-007    +5.2279489e-008
+6.0700000e+002    +1.3668615e-007    +5.0241784e-008
+6.0800000e+002    +1.0050126e-007    +4.4408264e-008
+6.0900000e+002    +8.5014022e-008    +4.7205969e-008
+6.1000000e+002    +7.6325634e-008    +5.0268877e-008
+6.1100000e+002    +6.9584594e-008    +4.6657501e-008
+6.1200000e+002    +6.3458984e-008    +5.0901306e-008
+6.1300000e+002    +8.9807848e-008    +5.1977519e-008
+6.1400000e+002    +7.9463547e-008    +5.0248239e-008
+6.1500000e+002    +6.0669699e-008    +4.9343360e-008
+6.1600000e+002    +6.2103709e-008    +4.9434732e-008
+6.1700000e+002    +6.3378138e-008    +4.8474092e-008
+6.1800000e+002    +6.0401646e-008    +4.8507793e-008
+6.1900000e+002    +6.6579041e-008    +5.1807334e-008
+6.2000000e+002    +6.5966226e-008    +5.1391268e-008
+6.2100000e+002    +6.5880016e-008    +4.6578268e-008
+6.2200000e+002    +6.2448457e-008    +4.9496375e-008
+6.2300000e+002    +5.9219175e-008    +4.9365468e-008
+6.2400000e+002    +6.2934348e-008    +4.9777153e-008
+6.2500000e+002    +6.5560144e-008    +5.1930456e-008
+6.2600000e+002    +6.1307652e-008    +5.4334773e-008
+6.2700000e+002    +6.0980781e-008    +4.8125571e-008
+6.2800000e+002    +6.5892678e-008    +4.9773657e-008
+6.2900000e+002    +6.5607601e-008    +4.9080384e-008
+6.3000000e+002    +6.4034374e-008    +4.8202516e-008
+6.3100000e+002    +7.2196435e-008    +4.9942866e-008
+6.3200000e+002    +8.0321072e-008    +5.4109083e-008
+6.3300000e+002    +8.7793794e-008    +4.7163024e-008
+6.3400000e+002    +9.1971359e-008    +4.9736126e-008
+6.3500000e+002    +9.9924492e-008    +4.7875499e-008
+6.3600000e+002    +1.0228521e-007    +4.7040714e-008
+6.3700000e+002    +1.0746456e-007    +4.6568090e-008
+6.3800000e+002    +1.0287143e-007    +4.6294687e-008
+6.3900000e+002    +1.0834530e-007    +5.1799084e-008
+6.4000000e+002    +1.1556217e-007    +4.8403678e-008
+6.4100000e+002    +1.0638450e-007    +4.7733625e-008
+6.4200000e+002    +1.0806693e-007    +5.0684147e-008
+6.4300000e+002    +1.2138035e-007    +5.1838228e-008
+6.4400000e+002    +1.6452714e-007    +5.2909147e-008
+6.4500000e+002    +1.9268302e-007    +4.9642725e-008
+6.4600000e+002    +2.0879486e-007    +5.1399393e-008
+6.4700000e+002    +2.3287130e-007    +5.8198864e-008
+6.4800000e+002    +2.2719689e-007    +5.6975630e-008
+6.4900000e+002    +2.2437406e-007    +5.2055306e-008
+6.5000000e+002    +2.0461250e-007    +5.1630618e-008
+6.5100000e+002    +2.2525526e-007    +5.0527682e-008
+6.5200000e+002    +2.1216582e-007    +5.1754970e-008
+6.5300000e+002    +1.6486329e-007    +5.5592427e-008
+6.5400000e+002    +1.3096854e-007    +5.3617811e-008
+6.5500000e+002    +1.1874478e-007    +5.7422213e-008
+6.5600000e+002    +1.0624466e-007    +5.4346767e-008
+6.5700000e+002    +9.5491608e-008    +4.8067538e-008
+6.5800000e+002    +8.7463590e-008    +5.0906056e-008
+6.5900000e+002    +9.2008932e-008    +5.5123142e-008
+6.6000000e+002    +8.9617743e-008    +5.1735029e-008
+6.6100000e+002    +8.2280522e-008    +5.2795933e-008
+6.6200000e+002    +8.8121269e-008    +5.1824173e-008
+6.6300000e+002    +9.2073407e-008    +5.1206190e-008
+6.6400000e+002    +9.0556910e-008    +5.0993886e-008
+6.6500000e+002    +9.6779864e-008    +5.2839194e-008
+6.6600000e+002    +1.2179648e-007    +5.1924587e-008
+6.6700000e+002    +1.4550727e-007    +5.1697722e-008
+6.6800000e+002    +1.6326551e-007    +5.3037805e-008
+6.6900000e+002    +1.6377432e-007    +5.0092570e-008
+6.7000000e+002    +1.4594696e-007    +4.9181800e-008
+6.7100000e+002    +1.3340633e-007    +5.5723078e-008
+6.7200000e+002    +1.3513055e-007    +5.6523522e-008
+6.7300000e+002    +1.3648925e-007    +5.5920186e-008
+6.7400000e+002    +1.3378551e-007    +5.0043752e-008
+6.7500000e+002    +1.2065567e-007    +4.9701626e-008
+6.7600000e+002    +1.1961036e-007    +5.4804506e-008
+6.7700000e+002    +1.2174687e-007    +5.3672647e-008
+6.7800000e+002    +1.2282743e-007    +5.1644619e-008
+6.7900000e+002    +1.2458018e-007    +5.5028988e-008
+6.8000000e+002    +1.4131413e-007    +5.3702770e-008
+6.8100000e+002    +1.4881020e-007    +5.5122172e-008
+6.8200000e+002    +1.5900797e-007    +5.5048627e-008
+6.8300000e+002    +1.6503354e-007    +5.4519845e-008
+6.8400000e+002    +2.2347962e-007    +5.2854510e-008
+6.8500000e+002    +2.5738291e-007    +5.4693960e-008
+6.8600000e+002    +2.7257968e-007    +5.2344049e-008
+6.8700000e+002    +3.0187749e-007    +5.5377438e-008
+6.8800000e+002    +3.1585648e-007    +5.5926080e-008
+6.8900000e+002    +3.2148461e-007    +5.3773160e-008
+6.9000000e+002    +2.7060145e-007    +5.6222280e-008
+6.9100000e+002    +2.5179534e-007    +5.4442321e-008
+6.9200000e+002    +2.5895039e-007    +5.1331661e-008
+6.9300000e+002    +2.6981081e-007    +5.4237976e-008
+6.9400000e+002    +2.7174684e-007    +6.1128993e-008
+6.9500000e+002    +2.4497513e-007    +5.5028867e-008
+6.9600000e+002    +2.4198482e-007    +5.3733320e-008
+6.9700000e+002    +2.3416995e-007    +5.6363508e-008
+6.9800000e+002    +2.1738101e-007    +5.5805184e-008
+6.9900000e+002    +2.3753711e-007    +5.6559095e-008
+7.0000000e+002    +2.3855748e-007    +5.7891743e-008
+7.0100000e+002    +2.9348445e-007    +5.4183751e-008
+7.0200000e+002    +4.2113203e-007    +5.3786504e-008
+7.0300000e+002    +3.2547842e-007    +5.4013281e-008
+7.0400000e+002    +2.8821862e-007    +5.5505271e-008
+7.0500000e+002    +2.8441957e-007    +5.5860845e-008
+7.0600000e+002    +2.7048620e-007    +5.4006225e-008
+7.0700000e+002    +2.6603172e-007    +4.9614336e-008
+7.0800000e+002    +2.8120328e-007    +5.0813583e-008
+7.0900000e+002    +2.6100730e-007    +5.6330226e-008
+7.1000000e+002    +2.4630774e-007    +5.9339783e-008
+7.1100000e+002    +2.5220817e-007    +5.5358349e-008
+7.1200000e+002    +2.7265779e-007    +5.1629257e-008
+7.1300000e+002    +2.5658383e-007    +5.2882257e-008
+7.1400000e+002    +2.5113272e-007    +5.3899832e-008
+7.1500000e+002    +2.2273689e-007    +5.5171764e-008
+7.1600000e+002    +1.8769708e-007    +5.6082389e-008
+7.1700000e+002    +1.5623009e-007    +5.5118480e-008
+7.1800000e+002    +1.4874828e-007    +5.4820454e-008
+7.1900000e+002    +1.8958393e-007    +5.7196196e-008
+7.2000000e+002    +1.9156187e-007    +5.7056699e-008
+7.2100000e+002    +1.4736005e-007    +5.6654436e-008
+7.2200000e+002    +1.2754356e-007    +5.4117756e-008
+7.2300000e+002    +1.0645741e-007    +5.4105577e-008
+7.2400000e+002    +9.6703495e-008    +5.5854407e-008
+7.2500000e+002    +1.0116941e-007    +5.7087970e-008
+7.2600000e+002    +9.5064166e-008    +5.7841234e-008
+7.2700000e+002    +9.6648719e-008    +5.8126130e-008
+7.2800000e+002    +9.1412922e-008    +5.3979310e-008
+7.2900000e+002    +9.4275656e-008    +5.1706976e-008
+7.3000000e+002    +8.8080547e-008    +5.4134397e-008
+7.3100000e+002    +8.8150301e-008    +6.0308871e-008
+7.3200000e+002    +8.7354472e-008    +5.8271819e-008
+7.3300000e+002    +8.1276596e-008    +5.1170051e-008
+7.3400000e+002    +8.7089482e-008    +5.2554412e-008
+7.3500000e+002    +9.1238853e-008    +5.8365369e-008
+7.3600000e+002    +8.4682839e-008    +5.8825496e-008
+7.3700000e+002    +8.2533866e-008    +5.2186355e-008
+7.3800000e+002    +8.0004924e-008    +5.2357326e-008
+7.3900000e+002    +7.4146470e-008    +5.8827368e-008
+7.4000000e+002    +7.5011329e-008    +6.0066213e-008
+7.4100000e+002    +7.0692423e-008    +5.7665208e-008
+7.4200000e+002    +6.9381663e-008    +5.6126371e-008
+7.4300000e+002    +6.4440840e-008    +5.5124957e-008
+7.4400000e+002    +6.8373829e-008    +5.5039806e-008
+7.4500000e+002    +6.8508037e-008    +5.3779594e-008
+7.4600000e+002    +7.7006106e-008    +5.7245639e-008
+7.4700000e+002    +8.5951264e-008    +5.6341420e-008
+7.4800000e+002    +8.0582097e-008    +5.9938010e-008
+7.4900000e+002    +7.4761374e-008    +5.9471603e-008
+7.5000000e+002    +7.0419276e-008    +5.4964438e-008
+7.5100000e+002    +6.5027066e-008    +5.5421232e-008
+7.5200000e+002    +6.4222512e-008    +5.6673596e-008
+7.5300000e+002    +6.0684428e-008    +5.6709201e-008
+7.5400000e+002    +6.1783645e-008    +5.6969938e-008
+7.5500000e+002    +6.6873703e-008    +6.2712928e-008
+7.5600000e+002    +6.4152530e-008    +6.0180021e-008
+7.5700000e+002    +6.5013353e-008    +5.9297253e-008
+7.5800000e+002    +7.0014757e-008    +6.0774973e-008
+7.5900000e+002    +6.8680428e-008    +5.9662248e-008
+7.6000000e+002    +6.2343098e-008    +5.5311812e-008
+7.6100000e+002    +6.3096735e-008    +5.4711858e-008
+7.6200000e+002    +6.3828637e-008    +6.0113251e-008
+7.6300000e+002    +6.7665468e-008    +5.5876182e-008
+7.6400000e+002    +7.4474137e-008    +5.5442719e-008
+7.6500000e+002    +7.3958653e-008    +5.6547545e-008
+7.6600000e+002    +6.9233728e-008    +6.0279412e-008
+7.6700000e+002    +6.7468356e-008    +6.4582217e-008
+7.6800000e+002    +6.3290450e-008    +6.4433763e-008
+7.6900000e+002    +6.5919380e-008    +6.2487622e-008
+7.7000000e+002    +5.9029624e-008    +6.0619563e-008
+7.7100000e+002    +5.5753432e-008    +5.9917348e-008
+7.7200000e+002    +5.8488538e-008    +5.7800413e-008
+7.7300000e+002    +5.5711212e-008    +5.5784170e-008
+7.7400000e+002    +5.4137725e-008    +5.6769942e-008
+7.7500000e+002    +5.7027890e-008    +6.0382220e-008
+7.7600000e+002    +6.5352012e-008    +5.8432182e-008
+7.7700000e+002    +6.2512669e-008    +5.9375626e-008
+7.7800000e+002    +5.5648915e-008    +5.9444247e-008
+7.7900000e+002    +7.4971638e-008    +5.5426163e-008
+7.8000000e+002    +8.5479478e-008    +6.0024419e-008
+7.8100000e+002    +6.5584985e-008    +6.2722293e-008
+7.8200000e+002    +6.3705969e-008    +6.2175211e-008
+7.8300000e+002    +6.2022480e-008    +5.4137310e-008
+7.8400000e+002    +6.1973672e-008    +5.8298252e-008
+7.8500000e+002    +6.1764382e-008    +6.0835262e-008
+7.8600000e+002    +6.3568329e-008    +5.8369665e-008
+7.8700000e+002    +6.5284382e-008    +6.0680293e-008
+7.8800000e+002    +6.3676744e-008    +5.6501992e-008
+7.8900000e+002    +6.1205689e-008    +5.7494134e-008
+7.9000000e+002    +6.0858774e-008    +6.1599543e-008
+7.9100000e+002    +5.5612389e-008    +5.5184245e-008
+7.9200000e+002    +6.2653605e-008    +6.2718918e-008
+7.9300000e+002    +6.3187343e-008    +6.2880055e-008
+7.9400000e+002    +6.2735310e-008    +6.1774216e-008
+7.9500000e+002    +6.8792652e-008    +6.3610145e-008
+7.9600000e+002    +6.8242805e-008    +6.0911724e-008
+7.9700000e+002    +6.7827322e-008    +6.0115894e-008
+7.9800000e+002    +6.7323398e-008    +5.8275404e-008
+7.9900000e+002    +7.2210149e-008    +5.8167689e-008
