# North DC Val: 1.1352146699999999 VoltsSouth DC Val: 0.7352112900000001 Volts
# SR785 Measurement - Timestamp: Apr 20 2020 - 17:11:37
# Parameter File: /home/controls/Git/cit_ctnlab/ctn_scripts/TransRINSpecShort.yml
#---------- Measurement Setup ------------
# Start Frequency (Hz): 0.000000
# Frequency Span (Hz): 102400.000000
# Frequency Resolution: 800
# Number of Averages: 100
# Averaging Mode: RMS
# Window function: Hanning
#---------- Measurement Parameters ----------
# Measurement Group:  "FFT" "FFT"
# Measurements:  "FFT 1" "FFT 2"
# View:  "Log Magnitude" "Log Magnitude"
# Unit:  "Vrms/rtHz" "Vrms/rtHz"
#---------- Input Parameters ----------
# Input Source: Analog
# Input Mode: Single ended, Single ended
# Input Grounding: Float, Float
# Input Coupling: AC, AC
# Input Range: -36.0dBVpk, -36.0dBVpk
# Auto Range: Off, Off
# Auto Range Mode: Tracking, Tracking
# Anti-Aliasing Filter: On, On
#---------- Source Parameters ----------
# Source Type: Sine
# Source Amplitude: 500.0mVpk
# Source On: 0

#---------- Measurement Data ----------
# [Freq(Hz) Display 0(Vrms/rtHz) Display 1(Vrms/rtHz) ]
+0.0000000e+000    +3.2384440e-004    +5.2796917e-005
+1.2800000e+002    +1.6195032e-004    +2.6403550e-005
+2.5600000e+002    +1.0269944e-006    +8.4235772e-008
+3.8400000e+002    +6.4374791e-007    +4.2842899e-008
+5.1200000e+002    +7.7723701e-007    +3.6406078e-008
+6.4000000e+002    +5.6946737e-007    +4.0917527e-008
+7.6800000e+002    +3.0205521e-007    +5.2194835e-008
+8.9600000e+002    +2.9664213e-007    +6.6586793e-008
+1.0240000e+003    +1.6865039e-007    +7.3884308e-008
+1.1520000e+003    +1.1088390e-007    +9.1376194e-008
+1.2800000e+003    +7.3277185e-008    +9.8932922e-008
+1.4080000e+003    +5.9031503e-008    +9.5121074e-008
+1.5360000e+003    +6.5263102e-008    +9.4190611e-008
+1.6640000e+003    +6.1080826e-008    +9.9278509e-008
+1.7920000e+003    +6.5646432e-008    +9.8180635e-008
+1.9200000e+003    +8.5380428e-008    +9.9231976e-008
+2.0480000e+003    +8.6943402e-008    +1.1293233e-007
+2.1760000e+003    +7.9048725e-008    +1.1032952e-007
+2.3040000e+003    +7.7679339e-008    +1.0236790e-007
+2.4320000e+003    +8.1919232e-008    +1.0243322e-007
+2.5600000e+003    +8.2053624e-008    +9.4463196e-008
+2.6880000e+003    +7.9521065e-008    +9.3636686e-008
+2.8160000e+003    +9.0885315e-008    +1.0085887e-007
+2.9440000e+003    +9.6627822e-008    +9.3549957e-008
+3.0720000e+003    +9.8099719e-008    +9.6934706e-008
+3.2000000e+003    +9.4602491e-008    +9.6066209e-008
+3.3280000e+003    +9.7976788e-008    +1.0150376e-007
+3.4560000e+003    +1.0211453e-007    +9.8526527e-008
+3.5840000e+003    +1.0098951e-007    +8.8372801e-008
+3.7120000e+003    +1.0362756e-007    +9.1507722e-008
+3.8400000e+003    +1.0992928e-007    +1.0031638e-007
+3.9680000e+003    +1.0905099e-007    +1.0044610e-007
+4.0960000e+003    +1.1128394e-007    +8.6196508e-008
+4.2240000e+003    +1.1385101e-007    +8.4824471e-008
+4.3520000e+003    +1.1370198e-007    +1.0150197e-007
+4.4800000e+003    +1.2149849e-007    +9.6549769e-008
+4.6080000e+003    +1.3074455e-007    +9.6583797e-008
+4.7360000e+003    +1.3017917e-007    +1.0043684e-007
+4.8640000e+003    +1.3090845e-007    +9.4605809e-008
+4.9920000e+003    +1.2503610e-007    +9.2569486e-008
+5.1200000e+003    +1.3003847e-007    +9.1681699e-008
+5.2480000e+003    +1.3529608e-007    +9.6334915e-008
+5.3760000e+003    +1.4463791e-007    +9.4628248e-008
+5.5040000e+003    +1.4932215e-007    +8.9804793e-008
+5.6320000e+003    +1.4305445e-007    +8.8041872e-008
+5.7600000e+003    +1.4538847e-007    +8.2272571e-008
+5.8880000e+003    +1.5249988e-007    +8.9057366e-008
+6.0160000e+003    +1.5171061e-007    +1.0091968e-007
+6.1440000e+003    +1.5454721e-007    +9.9412894e-008
+6.2720000e+003    +1.5246422e-007    +9.1714419e-008
+6.4000000e+003    +1.4660384e-007    +9.1761962e-008
+6.5280000e+003    +1.5006290e-007    +8.8034717e-008
+6.6560000e+003    +1.5752278e-007    +9.1797233e-008
+6.7840000e+003    +1.5987889e-007    +9.6794956e-008
+6.9120000e+003    +1.5750513e-007    +9.6360090e-008
+7.0400000e+003    +1.5885999e-007    +9.2933860e-008
+7.1680000e+003    +1.6102416e-007    +8.8167241e-008
+7.2960000e+003    +1.6278580e-007    +9.7716054e-008
+7.4240000e+003    +1.5969223e-007    +9.5983864e-008
+7.5520000e+003    +1.6399078e-007    +9.5354672e-008
+7.6800000e+003    +1.6462147e-007    +1.0321808e-007
+7.8080000e+003    +1.6601365e-007    +1.0544639e-007
+7.9360000e+003    +1.7318912e-007    +9.9467158e-008
+8.0640000e+003    +1.7195167e-007    +9.4649550e-008
+8.1920000e+003    +1.7484065e-007    +1.0393841e-007
+8.3200000e+003    +1.8026557e-007    +1.0678871e-007
+8.4480000e+003    +1.8099759e-007    +1.0546399e-007
+8.5760000e+003    +1.8060315e-007    +1.0206914e-007
+8.7040000e+003    +1.8035841e-007    +1.0340502e-007
+8.8320000e+003    +1.8569318e-007    +1.0357683e-007
+8.9600000e+003    +1.8086469e-007    +1.1685029e-007
+9.0880000e+003    +1.8039981e-007    +1.1990608e-007
+9.2160000e+003    +1.8770120e-007    +1.1209391e-007
+9.3440000e+003    +2.0451861e-007    +1.1124644e-007
+9.4720000e+003    +1.9804044e-007    +1.2316721e-007
+9.6000000e+003    +1.9575151e-007    +1.4090804e-007
+9.7280000e+003    +1.9964925e-007    +1.3009731e-007
+9.8560000e+003    +1.9250645e-007    +1.2671347e-007
+9.9840000e+003    +2.1051669e-007    +1.2664448e-007
+1.0112000e+004    +2.2302982e-007    +1.3544202e-007
+1.0240000e+004    +2.1849442e-007    +1.3498789e-007
+1.0368000e+004    +2.1714771e-007    +1.2515972e-007
+1.0496000e+004    +2.1327077e-007    +1.2605213e-007
+1.0624000e+004    +2.0871303e-007    +1.4086551e-007
+1.0752000e+004    +2.0176233e-007    +1.4530691e-007
+1.0880000e+004    +2.1616124e-007    +1.4715941e-007
+1.1008000e+004    +2.2700191e-007    +1.5137219e-007
+1.1136000e+004    +2.2214682e-007    +1.4994383e-007
+1.1264000e+004    +2.2184459e-007    +1.5043325e-007
+1.1392000e+004    +2.2758088e-007    +1.5721574e-007
+1.1520000e+004    +2.2661941e-007    +1.5552412e-007
+1.1648000e+004    +2.0306912e-007    +1.5781724e-007
+1.1776000e+004    +2.0099576e-007    +1.5125207e-007
+1.1904000e+004    +2.0353588e-007    +1.5771609e-007
+1.2032000e+004    +2.2073036e-007    +1.5454907e-007
+1.2160000e+004    +2.2283497e-007    +1.6244104e-007
+1.2288000e+004    +2.3398053e-007    +1.5286786e-007
+1.2416000e+004    +2.2628971e-007    +1.5194850e-007
+1.2544000e+004    +2.2746372e-007    +1.6805353e-007
+1.2672000e+004    +2.3492191e-007    +1.6174819e-007
+1.2800000e+004    +2.2807366e-007    +1.7445618e-007
+1.2928000e+004    +2.2096775e-007    +1.7433764e-007
+1.3056000e+004    +2.1308585e-007    +1.7137850e-007
+1.3184000e+004    +2.0154867e-007    +1.9082650e-007
+1.3312000e+004    +2.1212226e-007    +1.7542443e-007
+1.3440000e+004    +2.1458659e-007    +1.7512980e-007
+1.3568000e+004    +2.0685621e-007    +1.8654943e-007
+1.3696000e+004    +2.1292800e-007    +1.8816672e-007
+1.3824000e+004    +2.1863528e-007    +2.0758542e-007
+1.3952000e+004    +2.1741373e-007    +1.9216287e-007
+1.4080000e+004    +2.1477209e-007    +1.8128438e-007
+1.4208000e+004    +2.0530561e-007    +1.9820402e-007
+1.4336000e+004    +1.9724968e-007    +2.0302855e-007
+1.4464000e+004    +2.1473554e-007    +1.9933276e-007
+1.4592000e+004    +2.0128617e-007    +1.9365184e-007
+1.4720000e+004    +2.0580981e-007    +1.9399106e-007
+1.4848000e+004    +2.1191578e-007    +1.9489883e-007
+1.4976000e+004    +1.9301736e-007    +2.0533987e-007
+1.5104000e+004    +1.9094765e-007    +2.1442573e-007
+1.5232000e+004    +1.8737505e-007    +2.2314151e-007
+1.5360000e+004    +2.0713395e-007    +2.2405501e-007
+1.5488000e+004    +1.9735626e-007    +2.3156588e-007
+1.5616000e+004    +1.8408058e-007    +2.4746305e-007
+1.5744000e+004    +1.9266376e-007    +2.3505788e-007
+1.5872000e+004    +1.9782551e-007    +2.3966749e-007
+1.6000000e+004    +1.8528648e-007    +2.2529287e-007
+1.6128000e+004    +1.6871300e-007    +2.3978276e-007
+1.6256000e+004    +1.7056924e-007    +2.3208004e-007
+1.6384000e+004    +1.5963245e-007    +2.2673936e-007
+1.6512000e+004    +1.5985046e-007    +2.1921818e-007
+1.6640000e+004    +1.6682236e-007    +2.2716297e-007
+1.6768000e+004    +1.7367203e-007    +2.3517224e-007
+1.6896000e+004    +1.6865984e-007    +2.2668063e-007
+1.7024000e+004    +1.6367959e-007    +2.5546166e-007
+1.7152000e+004    +1.6711385e-007    +2.4920206e-007
+1.7280000e+004    +1.6024251e-007    +2.3623639e-007
+1.7408000e+004    +1.5750116e-007    +2.3561496e-007
+1.7536000e+004    +1.4903650e-007    +2.5527240e-007
+1.7664000e+004    +1.5515621e-007    +2.5316228e-007
+1.7792000e+004    +1.6606944e-007    +2.7333880e-007
+1.7920000e+004    +1.6134467e-007    +2.6404362e-007
+1.8048000e+004    +1.5718535e-007    +2.6319123e-007
+1.8176000e+004    +1.5172577e-007    +2.6897641e-007
+1.8304000e+004    +1.5281901e-007    +2.6041107e-007
+1.8432000e+004    +1.5348945e-007    +2.4539455e-007
+1.8560000e+004    +1.4133958e-007    +2.6391348e-007
+1.8688000e+004    +1.4696951e-007    +2.6477869e-007
+1.8816000e+004    +1.5739259e-007    +2.7971043e-007
+1.8944000e+004    +1.5016442e-007    +2.7510859e-007
+1.9072000e+004    +1.4400882e-007    +2.5808015e-007
+1.9200000e+004    +1.5564625e-007    +2.6715867e-007
+1.9328000e+004    +1.4538335e-007    +3.0048565e-007
+1.9456000e+004    +1.4203808e-007    +3.0971179e-007
+1.9584000e+004    +1.4548682e-007    +2.9439002e-007
+1.9712000e+004    +1.5148574e-007    +2.8922099e-007
+1.9840000e+004    +1.5069659e-007    +3.0572809e-007
+1.9968000e+004    +1.3902354e-007    +3.0140390e-007
+2.0096000e+004    +1.4371896e-007    +3.0376867e-007
+2.0224000e+004    +1.3904797e-007    +3.0608143e-007
+2.0352000e+004    +1.3229673e-007    +2.8183075e-007
+2.0480000e+004    +1.4370872e-007    +2.8979409e-007
+2.0608000e+004    +1.5431355e-007    +3.1365406e-007
+2.0736000e+004    +1.6142742e-007    +3.2364073e-007
+2.0864000e+004    +1.5465636e-007    +3.0506084e-007
+2.0992000e+004    +1.4392219e-007    +3.0973831e-007
+2.1120000e+004    +1.4808734e-007    +2.8558489e-007
+2.1248000e+004    +1.5079011e-007    +3.0936039e-007
+2.1376000e+004    +1.4325563e-007    +2.9774014e-007
+2.1504000e+004    +1.3906507e-007    +2.8403167e-007
+2.1632000e+004    +1.3883347e-007    +3.2896409e-007
+2.1760000e+004    +1.5425495e-007    +3.1470168e-007
+2.1888000e+004    +1.4863352e-007    +3.2617999e-007
+2.2016000e+004    +1.4369073e-007    +3.3715577e-007
+2.2144000e+004    +1.4822056e-007    +3.4293330e-007
+2.2272000e+004    +1.4676520e-007    +3.1521833e-007
+2.2400000e+004    +1.4857265e-007    +3.2286843e-007
+2.2528000e+004    +1.4591235e-007    +3.3820280e-007
+2.2656000e+004    +1.4940562e-007    +3.2922389e-007
+2.2784000e+004    +1.4831448e-007    +3.4278159e-007
+2.2912000e+004    +1.5208153e-007    +3.5622307e-007
+2.3040000e+004    +1.5485210e-007    +3.6628967e-007
+2.3168000e+004    +1.6249579e-007    +3.7413108e-007
+2.3296000e+004    +1.6239699e-007    +3.6643246e-007
+2.3424000e+004    +1.5647180e-007    +3.2934355e-007
+2.3552000e+004    +1.7209767e-007    +3.4114197e-007
+2.3680000e+004    +1.7727741e-007    +3.4628295e-007
+2.3808000e+004    +1.7686584e-007    +3.7286310e-007
+2.3936000e+004    +1.8208570e-007    +3.6180776e-007
+2.4064000e+004    +1.7231794e-007    +3.6399445e-007
+2.4192000e+004    +1.7752731e-007    +3.5929676e-007
+2.4320000e+004    +1.7851909e-007    +3.7628524e-007
+2.4448000e+004    +1.8330087e-007    +4.1406204e-007
+2.4576000e+004    +1.8098865e-007    +3.7677225e-007
+2.4704000e+004    +1.7856986e-007    +3.8961423e-007
+2.4832000e+004    +1.7729046e-007    +3.7206974e-007
+2.4960000e+004    +1.8671459e-007    +3.7447302e-007
+2.5088000e+004    +1.9755917e-007    +3.9250773e-007
+2.5216000e+004    +1.8636231e-007    +4.1856117e-007
+2.5344000e+004    +1.9052817e-007    +3.9544747e-007
+2.5472000e+004    +1.9988789e-007    +3.7888543e-007
+2.5600000e+004    +1.9843135e-007    +3.7214983e-007
+2.5728000e+004    +1.8909124e-007    +4.0310900e-007
+2.5856000e+004    +1.9515622e-007    +4.0685072e-007
+2.5984000e+004    +2.0263792e-007    +4.1128141e-007
+2.6112000e+004    +2.0659293e-007    +3.9255946e-007
+2.6240000e+004    +2.1002056e-007    +3.7432463e-007
+2.6368000e+004    +2.0687098e-007    +4.3163067e-007
+2.6496000e+004    +2.1075004e-007    +4.4526661e-007
+2.6624000e+004    +2.1335110e-007    +4.3933477e-007
+2.6752000e+004    +2.1614154e-007    +4.4360849e-007
+2.6880000e+004    +2.2020870e-007    +4.4747497e-007
+2.7008000e+004    +2.1526834e-007    +4.4800049e-007
+2.7136000e+004    +2.2249320e-007    +3.9960830e-007
+2.7264000e+004    +2.2759762e-007    +4.1408296e-007
+2.7392000e+004    +2.1958748e-007    +4.2405281e-007
+2.7520000e+004    +2.1640109e-007    +4.4428211e-007
+2.7648000e+004    +2.1914238e-007    +4.3382190e-007
+2.7776000e+004    +2.2134461e-007    +4.2790199e-007
+2.7904000e+004    +2.2503971e-007    +3.9695917e-007
+2.8032000e+004    +2.4041466e-007    +4.2071699e-007
+2.8160000e+004    +2.6776888e-007    +4.5190529e-007
+2.8288000e+004    +2.5662271e-007    +4.6083616e-007
+2.8416000e+004    +2.3832291e-007    +4.6353128e-007
+2.8544000e+004    +4.8116220e-007    +4.3778570e-007
+2.8672000e+004    +1.4640888e-006    +4.3185014e-007
+2.8800000e+004    +1.1808482e-006    +4.0327944e-007
+2.8928000e+004    +2.9943274e-007    +4.0522173e-007
+2.9056000e+004    +2.6547355e-007    +4.2611526e-007
+2.9184000e+004    +2.7613024e-007    +4.2421999e-007
+2.9312000e+004    +2.5930490e-007    +4.5789625e-007
+2.9440000e+004    +2.6927515e-007    +4.6092725e-007
+2.9568000e+004    +2.7024723e-007    +4.5840278e-007
+2.9696000e+004    +2.7626911e-007    +4.5364723e-007
+2.9824000e+004    +2.7131517e-007    +4.6140525e-007
+2.9952000e+004    +2.6168308e-007    +4.6738253e-007
+3.0080000e+004    +2.7846664e-007    +4.9008014e-007
+3.0208000e+004    +2.9160350e-007    +4.8490591e-007
+3.0336000e+004    +2.8021518e-007    +4.5436951e-007
+3.0464000e+004    +2.8515814e-007    +4.9348239e-007
+3.0592000e+004    +2.9534996e-007    +5.0154813e-007
+3.0720000e+004    +2.8961088e-007    +4.5105068e-007
+3.0848000e+004    +2.9257748e-007    +4.8977404e-007
+3.0976000e+004    +2.9932426e-007    +5.3524525e-007
+3.1104000e+004    +2.9856443e-007    +4.9528126e-007
+3.1232000e+004    +3.1499241e-007    +4.8068750e-007
+3.1360000e+004    +3.0583419e-007    +4.4994766e-007
+3.1488000e+004    +3.0686749e-007    +4.7795561e-007
+3.1616000e+004    +3.0893574e-007    +5.0977820e-007
+3.1744000e+004    +3.0704408e-007    +5.0095042e-007
+3.1872000e+004    +3.0104738e-007    +4.6648333e-007
+3.2000000e+004    +3.1034833e-007    +4.5176390e-007
+3.2128000e+004    +3.1729826e-007    +5.0656661e-007
+3.2256000e+004    +3.1899734e-007    +4.8679220e-007
+3.2384000e+004    +3.2176641e-007    +4.5960022e-007
+3.2512000e+004    +3.3785059e-007    +5.0687208e-007
+3.2640000e+004    +3.4025467e-007    +5.3572444e-007
+3.2768000e+004    +3.4068941e-007    +5.1843239e-007
+3.2896000e+004    +3.5076155e-007    +5.0621190e-007
+3.3024000e+004    +3.3341891e-007    +4.9155938e-007
+3.3152000e+004    +3.3328422e-007    +4.8136195e-007
+3.3280000e+004    +3.4383399e-007    +4.9601482e-007
+3.3408000e+004    +3.4830123e-007    +4.8969662e-007
+3.3536000e+004    +3.6121278e-007    +5.1055230e-007
+3.3664000e+004    +3.5091142e-007    +5.2834264e-007
+3.3792000e+004    +3.4662264e-007    +5.5028625e-007
+3.3920000e+004    +3.3236918e-007    +4.9659246e-007
+3.4048000e+004    +3.5230428e-007    +5.0047214e-007
+3.4176000e+004    +3.4863027e-007    +5.3928721e-007
+3.4304000e+004    +3.3809994e-007    +5.0759553e-007
+3.4432000e+004    +3.4575143e-007    +5.1644622e-007
+3.4560000e+004    +3.4996987e-007    +6.2991933e-007
+3.4688000e+004    +3.3875912e-007    +6.4603495e-007
+3.4816000e+004    +3.6217341e-007    +5.8046152e-007
+3.4944000e+004    +3.5053057e-007    +5.4915517e-007
+3.5072000e+004    +3.6759502e-007    +5.3864335e-007
+3.5200000e+004    +3.6925553e-007    +5.3806230e-007
+3.5328000e+004    +3.6751229e-007    +5.4165668e-007
+3.5456000e+004    +3.7415245e-007    +5.4745630e-007
+3.5584000e+004    +3.7875898e-007    +5.3876875e-007
+3.5712000e+004    +3.7192433e-007    +5.5936584e-007
+3.5840000e+004    +3.5971831e-007    +6.3602045e-007
+3.5968000e+004    +3.6500177e-007    +6.1029607e-007
+3.6096000e+004    +3.8634269e-007    +5.8367101e-007
+3.6224000e+004    +3.8833983e-007    +6.4562153e-007
+3.6352000e+004    +3.9742230e-007    +6.4867402e-007
+3.6480000e+004    +3.9696178e-007    +5.8695946e-007
+3.6608000e+004    +3.9126039e-007    +6.0333377e-007
+3.6736000e+004    +3.8786555e-007    +6.5135322e-007
+3.6864000e+004    +3.9451768e-007    +6.4461926e-007
+3.6992000e+004    +4.0665779e-007    +6.1549378e-007
+3.7120000e+004    +3.8881299e-007    +5.7141148e-007
+3.7248000e+004    +3.9702672e-007    +5.7775668e-007
+3.7376000e+004    +3.9699401e-007    +5.8258576e-007
+3.7504000e+004    +4.0677389e-007    +6.2445446e-007
+3.7632000e+004    +4.0747659e-007    +6.3448812e-007
+3.7760000e+004    +4.0006267e-007    +5.9241091e-007
+3.7888000e+004    +3.8347318e-007    +5.7744148e-007
+3.8016000e+004    +4.0336846e-007    +5.9863100e-007
+3.8144000e+004    +4.1232224e-007    +6.3192823e-007
+3.8272000e+004    +3.9856150e-007    +6.4892976e-007
+3.8400000e+004    +3.9525779e-007    +6.0405097e-007
+3.8528000e+004    +4.0929839e-007    +6.2029221e-007
+3.8656000e+004    +3.8782937e-007    +6.5733849e-007
+3.8784000e+004    +4.0782615e-007    +6.8912021e-007
+3.8912000e+004    +4.0473350e-007    +6.7674534e-007
+3.9040000e+004    +3.8938160e-007    +6.3003898e-007
+3.9168000e+004    +3.9482276e-007    +6.3882129e-007
+3.9296000e+004    +3.9475165e-007    +6.2167425e-007
+3.9424000e+004    +4.2454010e-007    +6.8616816e-007
+3.9552000e+004    +4.1419347e-007    +6.6014405e-007
+3.9680000e+004    +4.2463054e-007    +6.4643513e-007
+3.9808000e+004    +4.1175176e-007    +6.5867505e-007
+3.9936000e+004    +3.9169322e-007    +6.6758088e-007
+4.0064000e+004    +4.0767392e-007    +6.7430290e-007
+4.0192000e+004    +4.0192546e-007    +6.8801870e-007
+4.0320000e+004    +3.9554519e-007    +6.4618320e-007
+4.0448000e+004    +3.8583147e-007    +6.5405567e-007
+4.0576000e+004    +3.9349717e-007    +6.5465917e-007
+4.0704000e+004    +3.8153919e-007    +6.8405888e-007
+4.0832000e+004    +3.7840400e-007    +6.8960009e-007
+4.0960000e+004    +3.9529641e-007    +7.0829083e-007
+4.1088000e+004    +4.0322365e-007    +6.9710001e-007
+4.1216000e+004    +3.9846742e-007    +6.7113427e-007
+4.1344000e+004    +4.0494152e-007    +6.8697022e-007
+4.1472000e+004    +4.0372069e-007    +6.8829900e-007
+4.1600000e+004    +4.1066727e-007    +7.4923088e-007
+4.1728000e+004    +4.0134779e-007    +6.9466120e-007
+4.1856000e+004    +3.9858864e-007    +6.9492211e-007
+4.1984000e+004    +4.0370605e-007    +7.2355698e-007
+4.2112000e+004    +4.0803889e-007    +6.5981294e-007
+4.2240000e+004    +4.0684134e-007    +6.8281099e-007
+4.2368000e+004    +3.9952801e-007    +6.4245006e-007
+4.2496000e+004    +4.0191401e-007    +7.1843681e-007
+4.2624000e+004    +4.0974129e-007    +7.3760617e-007
+4.2752000e+004    +3.9813287e-007    +7.4274556e-007
+4.2880000e+004    +4.0552348e-007    +7.2350775e-007
+4.3008000e+004    +4.1045902e-007    +6.9717424e-007
+4.3136000e+004    +3.9802796e-007    +7.4561763e-007
+4.3264000e+004    +4.0428492e-007    +7.4363498e-007
+4.3392000e+004    +4.1196429e-007    +7.3072391e-007
+4.3520000e+004    +4.1384297e-007    +6.9674883e-007
+4.3648000e+004    +4.0567892e-007    +6.9961038e-007
+4.3776000e+004    +4.1052257e-007    +7.9152596e-007
+4.3904000e+004    +4.2118657e-007    +7.4837914e-007
+4.4032000e+004    +4.1392477e-007    +7.8169154e-007
+4.4160000e+004    +4.1129857e-007    +7.7329594e-007
+4.4288000e+004    +4.0471971e-007    +7.5490533e-007
+4.4416000e+004    +3.9546529e-007    +7.5352654e-007
+4.4544000e+004    +3.9784359e-007    +6.8754065e-007
+4.4672000e+004    +3.9207015e-007    +7.1093751e-007
+4.4800000e+004    +3.9536414e-007    +7.7334602e-007
+4.4928000e+004    +4.0018216e-007    +7.6874318e-007
+4.5056000e+004    +4.1098482e-007    +7.6786591e-007
+4.5184000e+004    +4.1814548e-007    +7.8528387e-007
+4.5312000e+004    +4.0723953e-007    +7.3421825e-007
+4.5440000e+004    +4.0453446e-007    +7.4587388e-007
+4.5568000e+004    +4.1126469e-007    +7.5048229e-007
+4.5696000e+004    +4.1544641e-007    +7.9129222e-007
+4.5824000e+004    +4.0695971e-007    +7.8153192e-007
+4.5952000e+004    +4.0511318e-007    +7.5534643e-007
+4.6080000e+004    +4.1202537e-007    +7.4795031e-007
+4.6208000e+004    +4.1930863e-007    +7.8504593e-007
+4.6336000e+004    +4.1846880e-007    +7.8388575e-007
+4.6464000e+004    +4.2418273e-007    +8.0351680e-007
+4.6592000e+004    +4.3132698e-007    +8.2436236e-007
+4.6720000e+004    +4.2736252e-007    +7.8439285e-007
+4.6848000e+004    +4.2522632e-007    +7.9891424e-007
+4.6976000e+004    +4.3150084e-007    +8.0962820e-007
+4.7104000e+004    +4.0542378e-007    +7.5954119e-007
+4.7232000e+004    +4.2643867e-007    +7.9336439e-007
+4.7360000e+004    +4.2594874e-007    +8.1049092e-007
+4.7488000e+004    +4.4995951e-007    +8.5164436e-007
+4.7616000e+004    +4.3778041e-007    +8.3854025e-007
+4.7744000e+004    +4.3076710e-007    +8.3942729e-007
+4.7872000e+004    +4.2938450e-007    +8.2497712e-007
+4.8000000e+004    +4.4230555e-007    +7.8764901e-007
+4.8128000e+004    +4.3845193e-007    +8.4642124e-007
+4.8256000e+004    +4.2270568e-007    +8.5013090e-007
+4.8384000e+004    +4.3770351e-007    +8.4371936e-007
+4.8512000e+004    +4.3354333e-007    +7.6251416e-007
+4.8640000e+004    +4.3103395e-007    +8.4247523e-007
+4.8768000e+004    +4.5163247e-007    +8.7045606e-007
+4.8896000e+004    +4.3939505e-007    +7.7811990e-007
+4.9024000e+004    +4.2850616e-007    +7.9789032e-007
+4.9152000e+004    +4.3451740e-007    +8.1856746e-007
+4.9280000e+004    +4.3291450e-007    +8.2881024e-007
+4.9408000e+004    +4.2890341e-007    +8.9844144e-007
+4.9536000e+004    +4.3726209e-007    +9.1697405e-007
+4.9664000e+004    +4.2836032e-007    +8.9606624e-007
+4.9792000e+004    +4.4149479e-007    +8.9544272e-007
+4.9920000e+004    +4.5170586e-007    +8.4004597e-007
+5.0048000e+004    +4.4765434e-007    +8.7448899e-007
+5.0176000e+004    +4.4849855e-007    +8.5439694e-007
+5.0304000e+004    +4.5003955e-007    +9.2409852e-007
+5.0432000e+004    +4.3638201e-007    +9.2416343e-007
+5.0560000e+004    +4.4041224e-007    +8.9515470e-007
+5.0688000e+004    +4.3722704e-007    +8.8883485e-007
+5.0816000e+004    +4.4263689e-007    +8.2561507e-007
+5.0944000e+004    +4.5909837e-007    +9.0302132e-007
+5.1072000e+004    +4.4627876e-007    +9.1051015e-007
+5.1200000e+004    +4.0552126e-007    +9.1084610e-007
+5.1328000e+004    +4.0875634e-007    +9.1252076e-007
+5.1456000e+004    +4.3371426e-007    +9.4589092e-007
+5.1584000e+004    +4.3221016e-007    +9.6296844e-007
+5.1712000e+004    +4.1608459e-007    +1.1197434e-006
+5.1840000e+004    +4.1080483e-007    +9.2636793e-007
+5.1968000e+004    +4.3191795e-007    +8.6361717e-007
+5.2096000e+004    +4.1703865e-007    +8.9138950e-007
+5.2224000e+004    +4.1474362e-007    +9.1519678e-007
+5.2352000e+004    +4.2199153e-007    +9.2692346e-007
+5.2480000e+004    +4.1077192e-007    +9.6660926e-007
+5.2608000e+004    +4.0214485e-007    +9.6998474e-007
+5.2736000e+004    +4.1719849e-007    +9.3362894e-007
+5.2864000e+004    +4.1465623e-007    +9.5384621e-007
+5.2992000e+004    +4.1756968e-007    +9.4367414e-007
+5.3120000e+004    +4.1886230e-007    +9.7106420e-007
+5.3248000e+004    +4.1332487e-007    +9.6968131e-007
+5.3376000e+004    +4.0245229e-007    +9.1130323e-007
+5.3504000e+004    +4.0803172e-007    +9.3260752e-007
+5.3632000e+004    +4.0236083e-007    +9.2507918e-007
+5.3760000e+004    +4.0325375e-007    +1.0489455e-006
+5.3888000e+004    +4.0879630e-007    +1.0391228e-006
+5.4016000e+004    +3.9270259e-007    +9.7109512e-007
+5.4144000e+004    +3.9868755e-007    +1.0857108e-006
+5.4272000e+004    +3.8662446e-007    +1.0523728e-006
+5.4400000e+004    +3.8558414e-007    +9.9132444e-007
+5.4528000e+004    +3.8851383e-007    +9.1193283e-007
+5.4656000e+004    +3.9573371e-007    +9.4573511e-007
+5.4784000e+004    +3.9153198e-007    +9.5243968e-007
+5.4912000e+004    +3.8596028e-007    +1.0146431e-006
+5.5040000e+004    +3.9660148e-007    +1.0254530e-006
+5.5168000e+004    +3.9793096e-007    +1.0278088e-006
+5.5296000e+004    +3.8714737e-007    +1.0334010e-006
+5.5424000e+004    +4.0916899e-007    +9.9555439e-007
+5.5552000e+004    +5.0282625e-007    +1.0420248e-006
+5.5680000e+004    +4.3889216e-007    +1.0631969e-006
+5.5808000e+004    +3.7793939e-007    +1.0131203e-006
+5.5936000e+004    +4.0017514e-007    +1.0019376e-006
+5.6064000e+004    +3.9063627e-007    +9.9479178e-007
+5.6192000e+004    +3.8189040e-007    +1.0396386e-006
+5.6320000e+004    +3.8485581e-007    +9.9308602e-007
+5.6448000e+004    +3.8819448e-007    +1.0884967e-006
+5.6576000e+004    +3.8792390e-007    +1.0982216e-006
+5.6704000e+004    +3.8006286e-007    +1.0512583e-006
+5.6832000e+004    +3.7032538e-007    +1.1128834e-006
+5.6960000e+004    +3.7675693e-007    +1.1146333e-006
+5.7088000e+004    +3.8430142e-007    +1.1095038e-006
+5.7216000e+004    +3.9172119e-007    +1.1386576e-006
+5.7344000e+004    +8.2689240e-007    +1.0360753e-006
+5.7472000e+004    +9.7185568e-007    +1.0601266e-006
+5.7600000e+004    +4.4701781e-007    +1.0916515e-006
+5.7728000e+004    +3.8558119e-007    +1.0446607e-006
+5.7856000e+004    +3.8769099e-007    +1.0273395e-006
+5.7984000e+004    +3.9638556e-007    +1.0658513e-006
+5.8112000e+004    +3.8796480e-007    +1.0818138e-006
+5.8240000e+004    +3.6809055e-007    +1.0767881e-006
+5.8368000e+004    +3.6675445e-007    +1.0860578e-006
+5.8496000e+004    +3.7464409e-007    +1.0649926e-006
+5.8624000e+004    +3.8544192e-007    +1.1100607e-006
+5.8752000e+004    +3.8983418e-007    +1.0452309e-006
+5.8880000e+004    +3.9143526e-007    +1.0901723e-006
+5.9008000e+004    +3.8034923e-007    +1.1255589e-006
+5.9136000e+004    +3.9040174e-007    +1.1523957e-006
+5.9264000e+004    +3.8423516e-007    +1.1627643e-006
+5.9392000e+004    +3.7029571e-007    +1.1032952e-006
+5.9520000e+004    +3.7239221e-007    +1.1136865e-006
+5.9648000e+004    +3.6972168e-007    +1.2520727e-006
+5.9776000e+004    +3.8267447e-007    +1.2016321e-006
+5.9904000e+004    +3.8135030e-007    +1.1436141e-006
+6.0032000e+004    +3.8634059e-007    +1.1240473e-006
+6.0160000e+004    +3.9132183e-007    +1.0326105e-006
+6.0288000e+004    +4.0687260e-007    +1.1452840e-006
+6.0416000e+004    +3.8492641e-007    +1.2546943e-006
+6.0544000e+004    +3.8677052e-007    +1.2070429e-006
+6.0672000e+004    +3.9212395e-007    +1.1592473e-006
+6.0800000e+004    +3.8091051e-007    +1.2287478e-006
+6.0928000e+004    +3.8070897e-007    +1.2331551e-006
+6.1056000e+004    +3.7337682e-007    +1.2219294e-006
+6.1184000e+004    +3.7691456e-007    +1.1742648e-006
+6.1312000e+004    +3.8642204e-007    +1.1109374e-006
+6.1440000e+004    +3.8950901e-007    +1.1343861e-006
+6.1568000e+004    +3.9125823e-007    +1.1949459e-006
+6.1696000e+004    +3.8196504e-007    +1.2050368e-006
+6.1824000e+004    +3.7840275e-007    +1.3506498e-006
+6.1952000e+004    +3.6881997e-007    +1.2613713e-006
+6.2080000e+004    +3.7386252e-007    +1.1297301e-006
+6.2208000e+004    +3.7236563e-007    +1.1309066e-006
+6.2336000e+004    +3.7673047e-007    +1.2713042e-006
+6.2464000e+004    +3.7754620e-007    +1.1377191e-006
+6.2592000e+004    +3.8495935e-007    +1.2001962e-006
+6.2720000e+004    +3.7291059e-007    +1.3678600e-006
+6.2848000e+004    +3.8463361e-007    +1.2697739e-006
+6.2976000e+004    +3.7939620e-007    +1.2666117e-006
+6.3104000e+004    +3.7789374e-007    +1.3350949e-006
+6.3232000e+004    +3.8832746e-007    +1.2843816e-006
+6.3360000e+004    +3.8347653e-007    +1.2203554e-006
+6.3488000e+004    +3.8468474e-007    +1.2396795e-006
+6.3616000e+004    +3.8313985e-007    +1.3042211e-006
+6.3744000e+004    +3.8842043e-007    +1.2605351e-006
+6.3872000e+004    +3.8023902e-007    +1.3265018e-006
+6.4000000e+004    +3.7630960e-007    +1.4180232e-006
+6.4128000e+004    +3.7526945e-007    +1.2416383e-006
+6.4256000e+004    +3.7736964e-007    +1.2676385e-006
+6.4384000e+004    +3.7483008e-007    +1.3671498e-006
+6.4512000e+004    +3.7549160e-007    +1.3325130e-006
+6.4640000e+004    +3.8407910e-007    +1.2953302e-006
+6.4768000e+004    +3.7354167e-007    +1.3668360e-006
+6.4896000e+004    +3.7102825e-007    +1.3700304e-006
+6.5024000e+004    +3.8583190e-007    +1.3746924e-006
+6.5152000e+004    +3.9483228e-007    +1.3516496e-006
+6.5280000e+004    +3.8689157e-007    +1.3487025e-006
+6.5408000e+004    +4.0394460e-007    +1.3034094e-006
+6.5536000e+004    +3.9323416e-007    +1.3206250e-006
+6.5664000e+004    +3.8046494e-007    +1.4360162e-006
+6.5792000e+004    +3.8488582e-007    +1.4210359e-006
+6.5920000e+004    +3.9172247e-007    +1.3159975e-006
+6.6048000e+004    +3.8717585e-007    +1.3352385e-006
+6.6176000e+004    +3.8952058e-007    +1.3779384e-006
+6.6304000e+004    +3.8888726e-007    +1.4018879e-006
+6.6432000e+004    +3.8385440e-007    +1.3629862e-006
+6.6560000e+004    +3.8613913e-007    +1.3179698e-006
+6.6688000e+004    +3.7471855e-007    +1.3471160e-006
+6.6816000e+004    +3.7793149e-007    +1.3672009e-006
+6.6944000e+004    +3.8480133e-007    +1.3358588e-006
+6.7072000e+004    +3.8483006e-007    +1.3900431e-006
+6.7200000e+004    +3.9334384e-007    +1.3022607e-006
+6.7328000e+004    +4.0534098e-007    +1.3979652e-006
+6.7456000e+004    +3.9974259e-007    +1.5274420e-006
+6.7584000e+004    +3.8967542e-007    +1.4929248e-006
+6.7712000e+004    +3.8518723e-007    +1.5184477e-006
+6.7840000e+004    +3.8662745e-007    +1.5089843e-006
+6.7968000e+004    +3.8991681e-007    +1.4492866e-006
+6.8096000e+004    +3.8838888e-007    +1.4324478e-006
+6.8224000e+004    +3.8580478e-007    +1.3928939e-006
+6.8352000e+004    +3.8777955e-007    +1.4140679e-006
+6.8480000e+004    +3.9879043e-007    +1.3514078e-006
+6.8608000e+004    +4.1014414e-007    +1.3397483e-006
+6.8736000e+004    +3.9757811e-007    +1.4245618e-006
+6.8864000e+004    +3.9906374e-007    +1.4630361e-006
+6.8992000e+004    +3.8717499e-007    +1.4705878e-006
+6.9120000e+004    +3.8761823e-007    +1.3635309e-006
+6.9248000e+004    +3.8664908e-007    +1.4215150e-006
+6.9376000e+004    +3.9801049e-007    +1.5740349e-006
+6.9504000e+004    +4.0745198e-007    +1.4243318e-006
+6.9632000e+004    +4.0515053e-007    +1.4459075e-006
+6.9760000e+004    +4.0405993e-007    +1.4272749e-006
+6.9888000e+004    +4.0385680e-007    +1.4992357e-006
+7.0016000e+004    +4.0452070e-007    +1.6177198e-006
+7.0144000e+004    +7.2808911e-007    +1.5311158e-006
+7.0272000e+004    +1.1806745e-006    +1.5541981e-006
+7.0400000e+004    +6.7678394e-007    +1.5899068e-006
+7.0528000e+004    +3.9825443e-007    +1.5122234e-006
+7.0656000e+004    +4.6571057e-007    +1.4950490e-006
+7.0784000e+004    +6.3240020e-007    +1.6725575e-006
+7.0912000e+004    +4.8309806e-007    +1.5934456e-006
+7.1040000e+004    +4.1309846e-007    +1.5624433e-006
+7.1168000e+004    +4.1647127e-007    +1.6060676e-006
+7.1296000e+004    +4.1414071e-007    +1.5742751e-006
+7.1424000e+004    +3.9947275e-007    +1.6311948e-006
+7.1552000e+004    +4.0470417e-007    +1.5992771e-006
+7.1680000e+004    +4.1620567e-007    +1.6478024e-006
+7.1808000e+004    +4.2283239e-007    +1.5272475e-006
+7.1936000e+004    +4.1112384e-007    +1.4346813e-006
+7.2064000e+004    +4.1351913e-007    +1.5777185e-006
+7.2192000e+004    +4.1700341e-007    +1.7526040e-006
+7.2320000e+004    +4.2866708e-007    +1.5356801e-006
+7.2448000e+004    +4.1449644e-007    +1.4189670e-006
+7.2576000e+004    +4.1697089e-007    +1.6875023e-006
+7.2704000e+004    +4.2657308e-007    +1.6529104e-006
+7.2832000e+004    +4.3607739e-007    +1.7289767e-006
+7.2960000e+004    +4.2859037e-007    +1.6928320e-006
+7.3088000e+004    +4.2098176e-007    +1.6144975e-006
+7.3216000e+004    +4.2433786e-007    +1.5697460e-006
+7.3344000e+004    +4.2584679e-007    +1.5775488e-006
+7.3472000e+004    +4.1928192e-007    +1.7423049e-006
+7.3600000e+004    +4.2460817e-007    +1.7437939e-006
+7.3728000e+004    +4.2987838e-007    +1.8451867e-006
+7.3856000e+004    +4.2976794e-007    +1.8849963e-006
+7.3984000e+004    +4.3844955e-007    +1.7299679e-006
+7.4112000e+004    +4.2775545e-007    +1.7391876e-006
+7.4240000e+004    +4.3497323e-007    +1.6040181e-006
+7.4368000e+004    +4.3839418e-007    +1.7454776e-006
+7.4496000e+004    +4.2366469e-007    +1.8312968e-006
+7.4624000e+004    +4.2718003e-007    +1.6238415e-006
+7.4752000e+004    +4.4192547e-007    +1.6820712e-006
+7.4880000e+004    +4.4719698e-007    +1.7345878e-006
+7.5008000e+004    +4.3064131e-007    +1.7811734e-006
+7.5136000e+004    +4.3577489e-007    +1.9177442e-006
+7.5264000e+004    +4.3867922e-007    +1.8457338e-006
+7.5392000e+004    +4.5065417e-007    +1.8608056e-006
+7.5520000e+004    +4.4568480e-007    +1.7377808e-006
+7.5648000e+004    +4.3939554e-007    +1.6356945e-006
+7.5776000e+004    +4.5004549e-007    +1.5650187e-006
+7.5904000e+004    +4.5751131e-007    +1.7352717e-006
+7.6032000e+004    +4.4885277e-007    +1.7788145e-006
+7.6160000e+004    +4.4287896e-007    +1.8299984e-006
+7.6288000e+004    +4.3853908e-007    +3.1341722e-006
+7.6416000e+004    +4.4827652e-007    +8.1423350e-006
+7.6544000e+004    +4.5224081e-007    +5.7967050e-006
+7.6672000e+004    +4.4738900e-007    +1.7270946e-006
+7.6800000e+004    +4.4209386e-007    +1.7869735e-006
+7.6928000e+004    +4.4705118e-007    +1.8300707e-006
+7.7056000e+004    +4.5075959e-007    +1.7081250e-006
+7.7184000e+004    +4.5847980e-007    +1.5340202e-006
+7.7312000e+004    +4.5495608e-007    +1.7542001e-006
+7.7440000e+004    +4.4936164e-007    +1.8755227e-006
+7.7568000e+004    +4.5390431e-007    +1.9014135e-006
+7.7696000e+004    +4.6887877e-007    +1.8351009e-006
+7.7824000e+004    +4.5497157e-007    +1.8915000e-006
+7.7952000e+004    +4.6120871e-007    +1.9325337e-006
+7.8080000e+004    +4.5662554e-007    +1.9694585e-006
+7.8208000e+004    +4.6215106e-007    +1.9872177e-006
+7.8336000e+004    +4.8124463e-007    +1.7519961e-006
+7.8464000e+004    +4.6904816e-007    +1.8810681e-006
+7.8592000e+004    +4.6454210e-007    +1.9612175e-006
+7.8720000e+004    +4.5500605e-007    +1.9208039e-006
+7.8848000e+004    +4.5374983e-007    +1.8842577e-006
+7.8976000e+004    +4.6865230e-007    +1.8518417e-006
+7.9104000e+004    +4.7377060e-007    +1.9618012e-006
+7.9232000e+004    +4.6792888e-007    +1.9472727e-006
+7.9360000e+004    +4.6573257e-007    +1.9316110e-006
+7.9488000e+004    +4.5417949e-007    +1.8652607e-006
+7.9616000e+004    +4.5927686e-007    +1.8412202e-006
+7.9744000e+004    +4.6010410e-007    +1.9296353e-006
+7.9872000e+004    +4.4970466e-007    +2.1315957e-006
+8.0000000e+004    +4.5593418e-007    +2.0986888e-006
+8.0128000e+004    +4.5032823e-007    +2.0833343e-006
+8.0256000e+004    +4.6453496e-007    +1.9953684e-006
+8.0384000e+004    +4.8194312e-007    +1.9948689e-006
+8.0512000e+004    +4.7810465e-007    +1.9888744e-006
+8.0640000e+004    +4.6274869e-007    +2.0072207e-006
+8.0768000e+004    +4.7525751e-007    +2.1982944e-006
+8.0896000e+004    +4.6608551e-007    +2.0144203e-006
+8.1024000e+004    +4.5947053e-007    +2.1308094e-006
+8.1152000e+004    +4.6413885e-007    +2.1598332e-006
+8.1280000e+004    +4.5459058e-007    +2.0349810e-006
+8.1408000e+004    +4.6447326e-007    +1.9637234e-006
+8.1536000e+004    +4.7312031e-007    +2.1176040e-006
+8.1664000e+004    +4.6621500e-007    +2.0654779e-006
+8.1792000e+004    +4.7011491e-007    +1.8940042e-006
+8.1920000e+004    +4.6126544e-007    +1.9918946e-006
+8.2048000e+004    +4.6484621e-007    +2.2522115e-006
+8.2176000e+004    +4.6194407e-007    +2.1212086e-006
+8.2304000e+004    +4.6883036e-007    +2.0203877e-006
+8.2432000e+004    +4.5649472e-007    +2.0603047e-006
+8.2560000e+004    +4.6001975e-007    +2.2469801e-006
+8.2688000e+004    +4.6548718e-007    +2.0874122e-006
+8.2816000e+004    +4.6788315e-007    +1.9298429e-006
+8.2944000e+004    +4.6006167e-007    +2.0219122e-006
+8.3072000e+004    +4.4962567e-007    +2.1960075e-006
+8.3200000e+004    +4.6162111e-007    +2.0644350e-006
+8.3328000e+004    +4.6328196e-007    +1.9893548e-006
+8.3456000e+004    +4.4928319e-007    +2.1866049e-006
+8.3584000e+004    +4.6654222e-007    +2.2226247e-006
+8.3712000e+004    +4.6153446e-007    +2.1704641e-006
+8.3840000e+004    +4.5679906e-007    +2.2045667e-006
+8.3968000e+004    +4.8010310e-007    +2.1477185e-006
+8.4096000e+004    +4.6975063e-007    +2.0771308e-006
+8.4224000e+004    +4.5240768e-007    +2.0241912e-006
+8.4352000e+004    +4.5090016e-007    +2.1573730e-006
+8.4480000e+004    +4.5533287e-007    +2.4299654e-006
+8.4608000e+004    +4.5269289e-007    +2.3109474e-006
+8.4736000e+004    +4.6817451e-007    +2.2484435e-006
+8.4864000e+004    +4.6129179e-007    +2.3217178e-006
+8.4992000e+004    +4.6183808e-007    +2.3446735e-006
+8.5120000e+004    +4.6003237e-007    +2.1687704e-006
+8.5248000e+004    +4.5058047e-007    +2.2535398e-006
+8.5376000e+004    +4.4774478e-007    +2.1658982e-006
+8.5504000e+004    +4.5687929e-007    +2.1511735e-006
+8.5632000e+004    +4.3725680e-007    +2.2996560e-006
+8.5760000e+004    +4.3373379e-007    +2.3746306e-006
+8.5888000e+004    +4.3735861e-007    +2.3326538e-006
+8.6016000e+004    +4.3506398e-007    +2.2946570e-006
+8.6144000e+004    +4.3729378e-007    +2.1589085e-006
+8.6272000e+004    +4.4297914e-007    +2.4105350e-006
+8.6400000e+004    +4.3789194e-007    +2.3201023e-006
+8.6528000e+004    +4.4075620e-007    +2.1643364e-006
+8.6656000e+004    +4.1839897e-007    +2.4365697e-006
+8.6784000e+004    +4.4367911e-007    +2.5105635e-006
+8.6912000e+004    +4.5087145e-007    +2.3914649e-006
+8.7040000e+004    +4.4728586e-007    +2.1341671e-006
+8.7168000e+004    +4.5923349e-007    +2.1097321e-006
+8.7296000e+004    +4.5670879e-007    +2.1907622e-006
+8.7424000e+004    +4.4298011e-007    +2.1944143e-006
+8.7552000e+004    +4.3643183e-007    +2.2118450e-006
+8.7680000e+004    +4.2820420e-007    +2.1955734e-006
+8.7808000e+004    +4.3553860e-007    +2.2549059e-006
+8.7936000e+004    +4.4946478e-007    +2.4265821e-006
+8.8064000e+004    +4.4378825e-007    +2.5219156e-006
+8.8192000e+004    +4.2899336e-007    +2.4414542e-006
+8.8320000e+004    +4.2358329e-007    +2.4121659e-006
+8.8448000e+004    +4.3148188e-007    +2.3552884e-006
+8.8576000e+004    +4.3101264e-007    +2.4172034e-006
+8.8704000e+004    +4.3761031e-007    +2.4556462e-006
+8.8832000e+004    +4.3706865e-007    +2.2824952e-006
+8.8960000e+004    +4.3247979e-007    +2.4584438e-006
+8.9088000e+004    +4.1018509e-007    +2.5665736e-006
+8.9216000e+004    +3.9753141e-007    +2.3927309e-006
+8.9344000e+004    +3.9297561e-007    +2.2370057e-006
+8.9472000e+004    +4.0465352e-007    +2.1447022e-006
+8.9600000e+004    +4.0915415e-007    +2.3230029e-006
+8.9728000e+004    +4.1361949e-007    +2.4512285e-006
+8.9856000e+004    +4.2568598e-007    +2.7855258e-006
+8.9984000e+004    +4.1636565e-007    +2.6309183e-006
+9.0112000e+004    +3.9873615e-007    +2.4094820e-006
+9.0240000e+004    +4.0387943e-007    +2.5977167e-006
+9.0368000e+004    +3.8870968e-007    +2.5415654e-006
+9.0496000e+004    +3.9656666e-007    +2.4984122e-006
+9.0624000e+004    +4.0455046e-007    +2.6947509e-006
+9.0752000e+004    +4.0603496e-007    +2.6686139e-006
+9.0880000e+004    +4.0677523e-007    +2.6665080e-006
+9.1008000e+004    +4.0357310e-007    +2.4129527e-006
+9.1136000e+004    +3.9700450e-007    +2.3651774e-006
+9.1264000e+004    +3.7908183e-007    +2.5305167e-006
+9.1392000e+004    +3.5623168e-007    +2.3933405e-006
+9.1520000e+004    +3.6787844e-007    +2.2724978e-006
+9.1648000e+004    +3.9578802e-007    +2.2586203e-006
+9.1776000e+004    +4.1038513e-007    +2.3985333e-006
+9.1904000e+004    +4.1329309e-007    +2.4109665e-006
+9.2032000e+004    +4.0345262e-007    +2.4286423e-006
+9.2160000e+004    +3.7525626e-007    +2.4437713e-006
+9.2288000e+004    +3.7993144e-007    +2.4842184e-006
+9.2416000e+004    +3.9111350e-007    +2.3981463e-006
+9.2544000e+004    +3.8983461e-007    +2.4614094e-006
+9.2672000e+004    +3.8648864e-007    +2.7023596e-006
+9.2800000e+004    +3.6900994e-007    +2.6037360e-006
+9.2928000e+004    +3.6966443e-007    +2.7095375e-006
+9.3056000e+004    +3.6206328e-007    +2.5065037e-006
+9.3184000e+004    +3.7153049e-007    +2.4639808e-006
+9.3312000e+004    +3.7007055e-007    +2.5280813e-006
+9.3440000e+004    +3.6522025e-007    +2.4827759e-006
+9.3568000e+004    +3.6033853e-007    +2.3094863e-006
+9.3696000e+004    +3.5369570e-007    +2.4690694e-006
+9.3824000e+004    +3.6224898e-007    +2.5272652e-006
+9.3952000e+004    +3.6973060e-007    +2.5516172e-006
+9.4080000e+004    +3.5445336e-007    +2.7711033e-006
+9.4208000e+004    +3.3816454e-007    +2.6522007e-006
+9.4336000e+004    +3.4455545e-007    +2.3707332e-006
+9.4464000e+004    +3.1715615e-007    +2.4416204e-006
+9.4592000e+004    +3.3052342e-007    +2.3819812e-006
+9.4720000e+004    +3.6148256e-007    +2.3473601e-006
+9.4848000e+004    +3.7671515e-007    +2.7484743e-006
+9.4976000e+004    +3.4356341e-007    +2.4621256e-006
+9.5104000e+004    +3.5937410e-007    +2.4976441e-006
+9.5232000e+004    +3.5347594e-007    +2.5902348e-006
+9.5360000e+004    +3.5056445e-007    +2.4136787e-006
+9.5488000e+004    +3.3066243e-007    +2.3285827e-006
+9.5616000e+004    +3.2763830e-007    +2.6870368e-006
+9.5744000e+004    +3.4481013e-007    +2.6270734e-006
+9.5872000e+004    +3.5539799e-007    +2.5124800e-006
+9.6000000e+004    +3.3981971e-007    +2.4590133e-006
+9.6128000e+004    +3.2508450e-007    +2.5312947e-006
+9.6256000e+004    +3.3112929e-007    +2.4982860e-006
+9.6384000e+004    +3.5850863e-007    +2.5493434e-006
+9.6512000e+004    +3.6707030e-007    +2.5652919e-006
+9.6640000e+004    +3.5973767e-007    +2.3911236e-006
+9.6768000e+004    +3.2831170e-007    +2.7273804e-006
+9.6896000e+004    +3.7110036e-007    +2.9160958e-006
+9.7024000e+004    +3.6757888e-007    +2.7811009e-006
+9.7152000e+004    +3.4006644e-007    +2.6109387e-006
+9.7280000e+004    +3.4322335e-007    +2.3912917e-006
+9.7408000e+004    +3.3995144e-007    +2.5082022e-006
+9.7536000e+004    +3.5261232e-007    +2.7210901e-006
+9.7664000e+004    +3.5180449e-007    +2.7836945e-006
+9.7792000e+004    +3.6414394e-007    +2.5884835e-006
+9.7920000e+004    +3.9791917e-007    +2.5206284e-006
+9.8048000e+004    +3.8966343e-007    +2.6846599e-006
+9.8176000e+004    +3.8638768e-007    +2.8929658e-006
+9.8304000e+004    +3.7497537e-007    +2.6019356e-006
+9.8432000e+004    +3.6050594e-007    +2.4493290e-006
+9.8560000e+004    +3.4933183e-007    +2.6628334e-006
+9.8688000e+004    +3.7199089e-007    +2.4394340e-006
+9.8816000e+004    +3.6952889e-007    +2.4144447e-006
+9.8944000e+004    +3.4261228e-007    +2.6455668e-006
+9.9072000e+004    +3.5004174e-007    +2.5521776e-006
+9.9200000e+004    +3.6545009e-007    +2.6672283e-006
+9.9328000e+004    +3.6501299e-007    +2.8795766e-006
+9.9456000e+004    +3.5189100e-007    +2.7049273e-006
+9.9584000e+004    +3.8777699e-007    +2.5937295e-006
+9.9712000e+004    +3.9974125e-007    +2.7268204e-006
+9.9840000e+004    +3.6846379e-007    +2.5924398e-006
+9.9968000e+004    +3.8348665e-007    +2.6138530e-006
+1.0009600e+005    +3.8673102e-007    +2.6099442e-006
+1.0022400e+005    +3.8239810e-007    +2.7943970e-006
+1.0035200e+005    +3.8581581e-007    +2.7125113e-006
+1.0048000e+005    +3.7439696e-007    +2.6761254e-006
+1.0060800e+005    +3.6290584e-007    +2.6773714e-006
+1.0073600e+005    +3.8959928e-007    +2.4686194e-006
+1.0086400e+005    +4.0967157e-007    +2.4911424e-006
+1.0099200e+005    +3.7346663e-007    +2.5188742e-006
+1.0112000e+005    +3.7094352e-007    +2.5138513e-006
+1.0124800e+005    +3.8091176e-007    +2.5213951e-006
+1.0137600e+005    +3.9593797e-007    +2.4834167e-006
+1.0150400e+005    +3.7801905e-007    +2.5611744e-006
+1.0163200e+005    +3.8687671e-007    +2.5580043e-006
+1.0176000e+005    +4.0535522e-007    +2.6280543e-006
+1.0188800e+005    +3.8364880e-007    +2.6249081e-006
+1.0201600e+005    +3.7584880e-007    +2.4068008e-006
+1.0214400e+005    +3.8693489e-007    +2.4846329e-006
+1.0227200e+005    +3.8318151e-007    +2.6216967e-006
#
#
# North DC Val: 1.13970909 VoltsSouth DC Val: 0.73471191 Volts
# SR785 Measurement - Timestamp: Apr 20 2020 - 17:12:26
# Parameter File: /home/controls/Git/cit_ctnlab/ctn_scripts/TransRINSpecLong.yml
#---------- Measurement Setup ------------
# Start Frequency (Hz): 0.000000
# Frequency Span (Hz): 800.000000
# Frequency Resolution: 800
# Number of Averages: 100
# Averaging Mode: RMS
# Window function: Hanning
#---------- Measurement Parameters ----------
# Measurement Group:  "FFT" "FFT"
# Measurements:  "FFT 1" "FFT 2"
# View:  "Log Magnitude" "Log Magnitude"
# Unit:  "Vrms/rtHz" "Vrms/rtHz"
#---------- Input Parameters ----------
# Input Source: Analog
# Input Mode: Single ended, Single ended
# Input Grounding: Float, Float
# Input Coupling: AC, AC
# Input Range: -36.0dBVpk, -36.0dBVpk
# Auto Range: Off, Off
# Auto Range Mode: Tracking, Tracking
# Anti-Aliasing Filter: On, On
#---------- Source Parameters ----------
# Source Type: Sine
# Source Amplitude: 500.0mVpk
# Source On: 0

#---------- Measurement Data ----------
# [Freq(Hz) Display 0(Vrms/rtHz) Display 1(Vrms/rtHz) ]
+7.0000000e+000    +8.9054920e-005    +2.6022242e-005
+8.0000000e+000    +7.4485746e-005    +2.0754600e-005
+9.0000000e+000    +6.4723761e-005    +1.6333848e-005
+1.0000000e+001    +5.7579036e-005    +1.2817529e-005
+1.1000000e+001    +4.8358048e-005    +9.9639201e-006
+1.2000000e+001    +4.1606632e-005    +7.9221363e-006
+1.3000000e+001    +3.6710779e-005    +7.3786377e-006
+1.4000000e+001    +3.2094784e-005    +6.6536440e-006
+1.5000000e+001    +3.0063613e-005    +5.2115524e-006
+1.6000000e+001    +2.6421530e-005    +4.2856636e-006
+1.7000000e+001    +2.1981978e-005    +4.1038061e-006
+1.8000000e+001    +2.0523597e-005    +3.4600739e-006
+1.9000000e+001    +2.0097745e-005    +3.0522399e-006
+2.0000000e+001    +1.9261279e-005    +2.7802459e-006
+2.1000000e+001    +1.8154391e-005    +2.4720857e-006
+2.2000000e+001    +1.5661617e-005    +2.0938348e-006
+2.3000000e+001    +1.5506188e-005    +1.8960475e-006
+2.4000000e+001    +1.5491689e-005    +1.6357843e-006
+2.5000000e+001    +1.4551878e-005    +1.6129595e-006
+2.6000000e+001    +1.1572837e-005    +1.5529597e-006
+2.7000000e+001    +1.1187431e-005    +1.4580842e-006
+2.8000000e+001    +1.0077905e-005    +1.2116119e-006
+2.9000000e+001    +1.0058770e-005    +1.0235250e-006
+3.0000000e+001    +9.1332968e-006    +9.7921406e-007
+3.1000000e+001    +8.1856297e-006    +9.3680080e-007
+3.2000000e+001    +7.7381910e-006    +8.8458228e-007
+3.3000000e+001    +7.2577927e-006    +7.7676611e-007
+3.4000000e+001    +6.7144088e-006    +7.4242269e-007
+3.5000000e+001    +6.9420448e-006    +7.3422228e-007
+3.6000000e+001    +6.3502193e-006    +6.5339390e-007
+3.7000000e+001    +6.1363953e-006    +5.6881061e-007
+3.8000000e+001    +5.0849412e-006    +5.6453501e-007
+3.9000000e+001    +5.3218928e-006    +5.6201173e-007
+4.0000000e+001    +5.3516592e-006    +5.2535142e-007
+4.1000000e+001    +4.1208373e-006    +4.7346640e-007
+4.2000000e+001    +4.8337238e-006    +4.2562104e-007
+4.3000000e+001    +5.0593576e-006    +4.0112707e-007
+4.4000000e+001    +4.1139115e-006    +4.0189943e-007
+4.5000000e+001    +3.7934415e-006    +3.7180388e-007
+4.6000000e+001    +3.6477741e-006    +3.4740941e-007
+4.7000000e+001    +3.8318067e-006    +3.0350165e-007
+4.8000000e+001    +3.3513363e-006    +2.9297865e-007
+4.9000000e+001    +3.0636756e-006    +2.7287044e-007
+5.0000000e+001    +3.2403327e-006    +2.5350718e-007
+5.1000000e+001    +2.7535609e-006    +2.5513484e-007
+5.2000000e+001    +2.3658968e-006    +2.2196105e-007
+5.3000000e+001    +2.2739255e-006    +2.1041201e-007
+5.4000000e+001    +2.6677262e-006    +1.9056019e-007
+5.5000000e+001    +2.8878530e-006    +1.8768246e-007
+5.6000000e+001    +2.7214576e-006    +1.9178978e-007
+5.7000000e+001    +2.1833951e-006    +1.6730387e-007
+5.8000000e+001    +2.0561195e-006    +1.6010709e-007
+5.9000000e+001    +1.9382585e-006    +1.6012572e-007
+6.0000000e+001    +1.8889224e-006    +1.6981618e-007
+6.1000000e+001    +1.5566112e-006    +1.4728484e-007
+6.2000000e+001    +1.7222375e-006    +1.4197899e-007
+6.3000000e+001    +2.1277983e-006    +1.3885619e-007
+6.4000000e+001    +2.2112210e-006    +1.1525665e-007
+6.5000000e+001    +1.7561252e-006    +1.1457256e-007
+6.6000000e+001    +1.6323181e-006    +1.1590373e-007
+6.7000000e+001    +1.5947426e-006    +1.1581608e-007
+6.8000000e+001    +1.6051315e-006    +1.0989947e-007
+6.9000000e+001    +1.4790729e-006    +9.5155016e-008
+7.0000000e+001    +1.4414534e-006    +8.7229296e-008
+7.1000000e+001    +1.1748464e-006    +8.7811529e-008
+7.2000000e+001    +9.9543308e-007    +7.7364753e-008
+7.3000000e+001    +9.8258397e-007    +7.9966547e-008
+7.4000000e+001    +1.0810658e-006    +8.4165514e-008
+7.5000000e+001    +1.1388702e-006    +8.3773315e-008
+7.6000000e+001    +1.1023676e-006    +7.9583081e-008
+7.7000000e+001    +8.2818991e-007    +7.6805811e-008
+7.8000000e+001    +9.5073563e-007    +7.7096622e-008
+7.9000000e+001    +1.0142132e-006    +7.4726820e-008
+8.0000000e+001    +9.6421900e-007    +6.6191497e-008
+8.1000000e+001    +8.1309798e-007    +6.8780345e-008
+8.2000000e+001    +7.0608644e-007    +6.7513191e-008
+8.3000000e+001    +6.8333077e-007    +6.5258014e-008
+8.4000000e+001    +7.8496578e-007    +6.7142977e-008
+8.5000000e+001    +6.7433621e-007    +6.0344107e-008
+8.6000000e+001    +5.7659253e-007    +6.1118996e-008
+8.7000000e+001    +6.3487414e-007    +6.2470953e-008
+8.8000000e+001    +6.9600253e-007    +6.1233386e-008
+8.9000000e+001    +7.7323989e-007    +5.8958825e-008
+9.0000000e+001    +6.8072256e-007    +5.4342589e-008
+9.1000000e+001    +6.0713882e-007    +5.0038313e-008
+9.2000000e+001    +4.3378901e-007    +5.4068639e-008
+9.3000000e+001    +4.3226950e-007    +5.8493999e-008
+9.4000000e+001    +5.1136351e-007    +5.7158527e-008
+9.5000000e+001    +3.9236815e-007    +5.3442900e-008
+9.6000000e+001    +3.7899818e-007    +5.2779356e-008
+9.7000000e+001    +4.2352283e-007    +5.4206303e-008
+9.8000000e+001    +4.6260541e-007    +5.4316224e-008
+9.9000000e+001    +4.0138085e-007    +5.5326876e-008
+1.0000000e+002    +4.0505179e-007    +5.7862067e-008
+1.0100000e+002    +4.0371094e-007    +5.2335139e-008
+1.0200000e+002    +4.0074278e-007    +5.2126225e-008
+1.0300000e+002    +3.4398806e-007    +5.4587350e-008
+1.0400000e+002    +3.4527761e-007    +5.2521937e-008
+1.0500000e+002    +3.5658036e-007    +5.1826618e-008
+1.0600000e+002    +3.3941140e-007    +5.0618912e-008
+1.0700000e+002    +3.4139376e-007    +5.2954015e-008
+1.0800000e+002    +3.3198478e-007    +5.2010801e-008
+1.0900000e+002    +3.0197728e-007    +4.7669939e-008
+1.1000000e+002    +3.0152205e-007    +4.7723251e-008
+1.1100000e+002    +2.8859449e-007    +4.4560455e-008
+1.1200000e+002    +3.2518338e-007    +4.4640277e-008
+1.1300000e+002    +3.5985894e-007    +4.7889010e-008
+1.1400000e+002    +3.5522635e-007    +4.6252264e-008
+1.1500000e+002    +3.0208241e-007    +4.6608193e-008
+1.1600000e+002    +3.1833639e-007    +4.3947129e-008
+1.1700000e+002    +2.8934136e-007    +4.2985807e-008
+1.1800000e+002    +2.8222462e-007    +4.5279730e-008
+1.1900000e+002    +8.8946939e-007    +4.9061960e-008
+1.2000000e+002    +1.8240826e-006    +4.8146237e-008
+1.2100000e+002    +9.8760142e-007    +4.7132790e-008
+1.2200000e+002    +2.9525560e-007    +4.7803383e-008
+1.2300000e+002    +2.8812212e-007    +4.6042146e-008
+1.2400000e+002    +2.8773138e-007    +4.3317932e-008
+1.2500000e+002    +2.3436800e-007    +4.3602711e-008
+1.2600000e+002    +2.0950236e-007    +4.7390898e-008
+1.2700000e+002    +2.3171873e-007    +4.7245273e-008
+1.2800000e+002    +2.3747087e-007    +4.5758714e-008
+1.2900000e+002    +2.3576997e-007    +4.4360895e-008
+1.3000000e+002    +2.4417812e-007    +4.4603826e-008
+1.3100000e+002    +2.3019724e-007    +4.3787225e-008
+1.3200000e+002    +2.7832391e-007    +4.3286601e-008
+1.3300000e+002    +2.7936179e-007    +4.5634437e-008
+1.3400000e+002    +2.7195938e-007    +4.4879609e-008
+1.3500000e+002    +2.8894866e-007    +4.3716128e-008
+1.3600000e+002    +3.2941625e-007    +4.4199872e-008
+1.3700000e+002    +3.6866126e-007    +4.4492698e-008
+1.3800000e+002    +4.1212718e-007    +4.2139288e-008
+1.3900000e+002    +5.0936359e-007    +4.3771312e-008
+1.4000000e+002    +7.5311465e-007    +4.8870024e-008
+1.4100000e+002    +1.0832781e-006    +4.5294993e-008
+1.4200000e+002    +1.6273773e-006    +4.2913094e-008
+1.4300000e+002    +2.5082134e-006    +4.0369144e-008
+1.4400000e+002    +2.3797827e-006    +4.2774229e-008
+1.4500000e+002    +1.6143380e-006    +4.6110443e-008
+1.4600000e+002    +1.1173045e-006    +4.4253387e-008
+1.4700000e+002    +7.2340526e-007    +4.2621867e-008
+1.4800000e+002    +5.6159598e-007    +4.1807386e-008
+1.4900000e+002    +4.5078929e-007    +4.2215003e-008
+1.5000000e+002    +3.7219232e-007    +4.2948823e-008
+1.5100000e+002    +2.9536389e-007    +4.0530850e-008
+1.5200000e+002    +2.4577557e-007    +3.8253710e-008
+1.5300000e+002    +2.1840303e-007    +4.1964668e-008
+1.5400000e+002    +2.2314224e-007    +4.1193626e-008
+1.5500000e+002    +2.7742601e-007    +3.7201744e-008
+1.5600000e+002    +2.8706904e-007    +4.1509260e-008
+1.5700000e+002    +2.2539332e-007    +4.2691557e-008
+1.5800000e+002    +1.9298007e-007    +4.0684224e-008
+1.5900000e+002    +1.9734131e-007    +4.2296612e-008
+1.6000000e+002    +2.0562550e-007    +4.3593282e-008
+1.6100000e+002    +1.8610794e-007    +4.3306141e-008
+1.6200000e+002    +1.6245619e-007    +4.4353396e-008
+1.6300000e+002    +1.5811226e-007    +4.0687439e-008
+1.6400000e+002    +1.5079326e-007    +4.1327947e-008
+1.6500000e+002    +1.4124231e-007    +3.7938705e-008
+1.6600000e+002    +1.4177913e-007    +3.7655717e-008
+1.6700000e+002    +1.4950425e-007    +3.8806789e-008
+1.6800000e+002    +1.3412466e-007    +4.0528356e-008
+1.6900000e+002    +1.1610433e-007    +4.0916181e-008
+1.7000000e+002    +1.1235574e-007    +4.2577199e-008
+1.7100000e+002    +1.1368899e-007    +4.4656502e-008
+1.7200000e+002    +1.1564873e-007    +4.0496687e-008
+1.7300000e+002    +1.1593045e-007    +3.9317111e-008
+1.7400000e+002    +1.0204852e-007    +4.0331045e-008
+1.7500000e+002    +1.0488809e-007    +3.6140040e-008
+1.7600000e+002    +9.9458639e-008    +3.7935120e-008
+1.7700000e+002    +9.8858216e-008    +4.1241687e-008
+1.7800000e+002    +9.5547300e-008    +4.1631672e-008
+1.7900000e+002    +2.4349544e-007    +5.7447689e-008
+1.8000000e+002    +4.8472390e-007    +1.0127711e-007
+1.8100000e+002    +2.6771832e-007    +6.3875397e-008
+1.8200000e+002    +8.8806225e-008    +3.9496278e-008
+1.8300000e+002    +9.3154320e-008    +3.9179472e-008
+1.8400000e+002    +1.0238892e-007    +4.0295102e-008
+1.8500000e+002    +9.3161276e-008    +3.9788642e-008
+1.8600000e+002    +8.4350262e-008    +4.1670269e-008
+1.8700000e+002    +9.0836927e-008    +4.1136136e-008
+1.8800000e+002    +9.6231524e-008    +4.2080845e-008
+1.8900000e+002    +9.5647536e-008    +4.2768640e-008
+1.9000000e+002    +9.5286957e-008    +4.1100829e-008
+1.9100000e+002    +9.8847472e-008    +3.7564458e-008
+1.9200000e+002    +9.6960889e-008    +3.7749150e-008
+1.9300000e+002    +8.8551708e-008    +4.0174282e-008
+1.9400000e+002    +9.7296493e-008    +4.1461888e-008
+1.9500000e+002    +8.9934154e-008    +4.0505004e-008
+1.9600000e+002    +9.2062592e-008    +4.0808906e-008
+1.9700000e+002    +8.9714028e-008    +4.0572971e-008
+1.9800000e+002    +9.0668934e-008    +3.8732210e-008
+1.9900000e+002    +8.5303689e-008    +4.0980428e-008
+2.0000000e+002    +8.0840593e-008    +4.0612591e-008
+2.0100000e+002    +8.4750091e-008    +4.0785210e-008
+2.0200000e+002    +8.7186883e-008    +3.7176758e-008
+2.0300000e+002    +9.0872540e-008    +3.8058985e-008
+2.0400000e+002    +9.1405091e-008    +3.8991296e-008
+2.0500000e+002    +9.0570033e-008    +3.9028215e-008
+2.0600000e+002    +8.6130186e-008    +4.0756337e-008
+2.0700000e+002    +8.9407322e-008    +4.1004913e-008
+2.0800000e+002    +9.7722172e-008    +3.7951494e-008
+2.0900000e+002    +1.0033224e-007    +3.7882430e-008
+2.1000000e+002    +1.0002042e-007    +3.7223810e-008
+2.1100000e+002    +9.5186159e-008    +3.8583952e-008
+2.1200000e+002    +9.0552732e-008    +3.8963094e-008
+2.1300000e+002    +1.0216007e-007    +3.7019856e-008
+2.1400000e+002    +1.1072780e-007    +3.8522067e-008
+2.1500000e+002    +1.1482820e-007    +3.9110578e-008
+2.1600000e+002    +1.2862614e-007    +3.9780254e-008
+2.1700000e+002    +1.8510531e-007    +4.0103373e-008
+2.1800000e+002    +1.5586703e-007    +3.8468134e-008
+2.1900000e+002    +1.2646510e-007    +3.5611592e-008
+2.2000000e+002    +1.4182069e-007    +3.8958216e-008
+2.2100000e+002    +1.4814475e-007    +4.0333877e-008
+2.2200000e+002    +1.4161078e-007    +3.7185494e-008
+2.2300000e+002    +1.2438078e-007    +3.2118084e-008
+2.2400000e+002    +1.0879840e-007    +3.7561119e-008
+2.2500000e+002    +9.3317496e-008    +3.9027530e-008
+2.2600000e+002    +9.1518068e-008    +4.0792958e-008
+2.2700000e+002    +8.9545843e-008    +3.9589278e-008
+2.2800000e+002    +8.0733443e-008    +3.9903131e-008
+2.2900000e+002    +8.4040209e-008    +3.6457720e-008
+2.3000000e+002    +1.0096402e-007    +3.2803893e-008
+2.3100000e+002    +9.9557077e-008    +3.3843271e-008
+2.3200000e+002    +9.0041155e-008    +3.6272141e-008
+2.3300000e+002    +1.0404585e-007    +3.7345103e-008
+2.3400000e+002    +1.0458003e-007    +3.6709167e-008
+2.3500000e+002    +1.0215939e-007    +3.5909366e-008
+2.3600000e+002    +1.1375105e-007    +3.4239982e-008
+2.3700000e+002    +1.1637861e-007    +3.7532136e-008
+2.3800000e+002    +1.1572266e-007    +3.7555427e-008
+2.3900000e+002    +2.2735037e-007    +3.8294008e-008
+2.4000000e+002    +4.4661161e-007    +4.0226055e-008
+2.4100000e+002    +2.6804099e-007    +3.8109583e-008
+2.4200000e+002    +1.1142308e-007    +3.3973613e-008
+2.4300000e+002    +1.2093804e-007    +3.4299880e-008
+2.4400000e+002    +1.4413695e-007    +3.8537422e-008
+2.4500000e+002    +1.3942450e-007    +3.8590475e-008
+2.4600000e+002    +1.6806922e-007    +3.6146073e-008
+2.4700000e+002    +1.8029763e-007    +3.4195647e-008
+2.4800000e+002    +1.7201965e-007    +3.3954411e-008
+2.4900000e+002    +1.8909830e-007    +3.8389992e-008
+2.5000000e+002    +1.7564646e-007    +4.0449848e-008
+2.5100000e+002    +2.0307559e-007    +3.8173276e-008
+2.5200000e+002    +2.1841407e-007    +3.6749817e-008
+2.5300000e+002    +2.7769570e-007    +3.7342726e-008
+2.5400000e+002    +3.4381023e-007    +3.6118898e-008
+2.5500000e+002    +3.2390415e-007    +3.8018850e-008
+2.5600000e+002    +3.7033473e-007    +3.6567567e-008
+2.5700000e+002    +3.8007289e-007    +3.5197139e-008
+2.5800000e+002    +4.1712201e-007    +3.5056946e-008
+2.5900000e+002    +4.9480673e-007    +3.6462726e-008
+2.6000000e+002    +6.9266270e-007    +3.7156966e-008
+2.6100000e+002    +8.2718662e-007    +3.5562831e-008
+2.6200000e+002    +7.9854766e-007    +3.7605066e-008
+2.6300000e+002    +8.6999268e-007    +3.7556827e-008
+2.6400000e+002    +9.7390762e-007    +3.5905579e-008
+2.6500000e+002    +1.2375281e-006    +3.4861458e-008
+2.6600000e+002    +1.2594367e-006    +3.4736630e-008
+2.6700000e+002    +1.4612783e-006    +3.3525801e-008
+2.6800000e+002    +1.9224601e-006    +3.4372757e-008
+2.6900000e+002    +2.9545893e-006    +3.5897184e-008
+2.7000000e+002    +4.7083654e-006    +3.6946197e-008
+2.7100000e+002    +6.1341252e-006    +3.8645343e-008
+2.7200000e+002    +5.6068720e-006    +3.9602103e-008
+2.7300000e+002    +3.9890865e-006    +3.8671743e-008
+2.7400000e+002    +3.5275366e-006    +3.4636699e-008
+2.7500000e+002    +3.2308049e-006    +3.3251702e-008
+2.7600000e+002    +3.0243218e-006    +3.5326526e-008
+2.7700000e+002    +2.4153967e-006    +3.7808878e-008
+2.7800000e+002    +2.1831504e-006    +3.9930349e-008
+2.7900000e+002    +1.8129533e-006    +3.9304464e-008
+2.8000000e+002    +1.5311629e-006    +3.6661074e-008
+2.8100000e+002    +1.6230999e-006    +3.7029611e-008
+2.8200000e+002    +1.7575313e-006    +3.8226041e-008
+2.8300000e+002    +1.2788065e-006    +4.0775181e-008
+2.8400000e+002    +8.8832456e-007    +3.7575884e-008
+2.8500000e+002    +8.2752814e-007    +3.3930970e-008
+2.8600000e+002    +7.3549791e-007    +3.5628450e-008
+2.8700000e+002    +6.0795600e-007    +3.6894107e-008
+2.8800000e+002    +5.2113694e-007    +3.6696310e-008
+2.8900000e+002    +5.1500626e-007    +3.3834542e-008
+2.9000000e+002    +5.0957783e-007    +3.3597328e-008
+2.9100000e+002    +4.7507024e-007    +3.3781127e-008
+2.9200000e+002    +3.8446939e-007    +3.6253347e-008
+2.9300000e+002    +3.5259450e-007    +3.6596163e-008
+2.9400000e+002    +3.2814702e-007    +3.4267963e-008
+2.9500000e+002    +3.1673301e-007    +3.3378885e-008
+2.9600000e+002    +2.9291883e-007    +3.5186940e-008
+2.9700000e+002    +2.6701409e-007    +3.4994912e-008
+2.9800000e+002    +2.4961611e-007    +3.3318763e-008
+2.9900000e+002    +2.8858182e-007    +3.6873899e-008
+3.0000000e+002    +3.0183210e-007    +4.2902919e-008
+3.0100000e+002    +2.2049564e-007    +3.7271697e-008
+3.0200000e+002    +1.7620353e-007    +3.5246522e-008
+3.0300000e+002    +1.7986699e-007    +3.2325364e-008
+3.0400000e+002    +1.8498665e-007    +3.1394173e-008
+3.0500000e+002    +1.6628783e-007    +3.4406778e-008
+3.0600000e+002    +1.6826696e-007    +3.3639370e-008
+3.0700000e+002    +1.6197744e-007    +3.2655230e-008
+3.0800000e+002    +1.4764186e-007    +3.5704105e-008
+3.0900000e+002    +1.2866032e-007    +3.8189459e-008
+3.1000000e+002    +1.3767708e-007    +3.6619557e-008
+3.1100000e+002    +1.4258731e-007    +3.6661838e-008
+3.1200000e+002    +1.2570564e-007    +3.9238667e-008
+3.1300000e+002    +1.3357869e-007    +3.8376339e-008
+3.1400000e+002    +1.5011169e-007    +3.5587632e-008
+3.1500000e+002    +1.5611967e-007    +3.5517331e-008
+3.1600000e+002    +1.3471517e-007    +3.3679985e-008
+3.1700000e+002    +1.2311597e-007    +3.2207250e-008
+3.1800000e+002    +1.2342414e-007    +3.3571478e-008
+3.1900000e+002    +1.2381614e-007    +3.5021703e-008
+3.2000000e+002    +1.1730226e-007    +3.1900818e-008
+3.2100000e+002    +1.2500027e-007    +3.6351000e-008
+3.2200000e+002    +1.3377640e-007    +3.7637985e-008
+3.2300000e+002    +1.2336278e-007    +3.5141728e-008
+3.2400000e+002    +1.1809325e-007    +3.6053049e-008
+3.2500000e+002    +1.1483250e-007    +3.3523669e-008
+3.2600000e+002    +1.1024076e-007    +3.4689904e-008
+3.2700000e+002    +1.0981745e-007    +3.4866584e-008
+3.2800000e+002    +1.2016862e-007    +3.6672748e-008
+3.2900000e+002    +1.1494312e-007    +3.5909011e-008
+3.3000000e+002    +1.2466653e-007    +3.4126185e-008
+3.3100000e+002    +1.3201567e-007    +3.3771187e-008
+3.3200000e+002    +1.2399504e-007    +3.3259990e-008
+3.3300000e+002    +1.1527412e-007    +3.5864801e-008
+3.3400000e+002    +1.1849576e-007    +3.3813780e-008
+3.3500000e+002    +1.3346259e-007    +3.0902633e-008
+3.3600000e+002    +1.2220006e-007    +3.3875615e-008
+3.3700000e+002    +1.2831215e-007    +3.2646447e-008
+3.3800000e+002    +1.3400573e-007    +3.3240312e-008
+3.3900000e+002    +1.4157006e-007    +3.5827725e-008
+3.4000000e+002    +1.4615415e-007    +3.3417095e-008
+3.4100000e+002    +1.6017601e-007    +3.4191782e-008
+3.4200000e+002    +1.9439361e-007    +3.5284934e-008
+3.4300000e+002    +1.9399702e-007    +3.6461884e-008
+3.4400000e+002    +1.9591815e-007    +3.5139259e-008
+3.4500000e+002    +2.0481075e-007    +3.3217912e-008
+3.4600000e+002    +2.2119495e-007    +3.1464502e-008
+3.4700000e+002    +2.4073665e-007    +3.0156741e-008
+3.4800000e+002    +2.7055452e-007    +3.3135731e-008
+3.4900000e+002    +3.2094113e-007    +3.4685257e-008
+3.5000000e+002    +2.9852410e-007    +3.4779831e-008
+3.5100000e+002    +2.9467202e-007    +3.3538836e-008
+3.5200000e+002    +3.1901274e-007    +3.6556568e-008
+3.5300000e+002    +3.1312553e-007    +3.7357776e-008
+3.5400000e+002    +2.8349672e-007    +3.5339525e-008
+3.5500000e+002    +2.3652916e-007    +3.3559683e-008
+3.5600000e+002    +2.3799919e-007    +3.3549554e-008
+3.5700000e+002    +2.2330842e-007    +3.4704343e-008
+3.5800000e+002    +2.0181551e-007    +3.6089919e-008
+3.5900000e+002    +2.1087642e-007    +3.6225615e-008
+3.6000000e+002    +2.4143839e-007    +3.7269121e-008
+3.6100000e+002    +1.8741373e-007    +3.4379173e-008
+3.6200000e+002    +1.4075975e-007    +3.8590180e-008
+3.6300000e+002    +1.4016815e-007    +3.9234660e-008
+3.6400000e+002    +1.2731857e-007    +3.5063564e-008
+3.6500000e+002    +1.1211299e-007    +3.5587789e-008
+3.6600000e+002    +1.1377004e-007    +3.6632745e-008
+3.6700000e+002    +9.6110412e-008    +3.4146460e-008
+3.6800000e+002    +1.0057875e-007    +3.4518855e-008
+3.6900000e+002    +1.0884273e-007    +3.4602980e-008
+3.7000000e+002    +1.0948156e-007    +3.3755764e-008
+3.7100000e+002    +1.2214547e-007    +3.3553714e-008
+3.7200000e+002    +1.2402866e-007    +3.4876273e-008
+3.7300000e+002    +1.2627224e-007    +3.5933660e-008
+3.7400000e+002    +1.1889050e-007    +3.6350759e-008
+3.7500000e+002    +1.1865512e-007    +3.4664698e-008
+3.7600000e+002    +1.1618761e-007    +3.5957775e-008
+3.7700000e+002    +1.2512920e-007    +3.2266641e-008
+3.7800000e+002    +1.2579594e-007    +3.2516233e-008
+3.7900000e+002    +1.2079433e-007    +3.5339834e-008
+3.8000000e+002    +1.2843873e-007    +3.7441382e-008
+3.8100000e+002    +1.2158844e-007    +3.6616861e-008
+3.8200000e+002    +1.1130765e-007    +3.3735461e-008
+3.8300000e+002    +1.1645440e-007    +3.6706183e-008
+3.8400000e+002    +1.2116757e-007    +3.5171720e-008
+3.8500000e+002    +1.1231048e-007    +3.3630283e-008
+3.8600000e+002    +1.2288193e-007    +3.2427991e-008
+3.8700000e+002    +1.4217569e-007    +3.5810853e-008
+3.8800000e+002    +1.7711186e-007    +3.6938491e-008
+3.8900000e+002    +1.3651683e-007    +3.7073629e-008
+3.9000000e+002    +1.3741597e-007    +3.6772661e-008
+3.9100000e+002    +1.4557902e-007    +3.4585014e-008
+3.9200000e+002    +1.4128852e-007    +3.3094139e-008
+3.9300000e+002    +1.2839361e-007    +3.1902953e-008
+3.9400000e+002    +1.0405431e-007    +3.4042657e-008
+3.9500000e+002    +1.0459197e-007    +3.3980182e-008
+3.9600000e+002    +1.0252830e-007    +3.2540626e-008
+3.9700000e+002    +9.5842644e-008    +3.2712180e-008
+3.9800000e+002    +9.2572130e-008    +3.2958702e-008
+3.9900000e+002    +9.2995613e-008    +3.3410931e-008
+4.0000000e+002    +9.3288506e-008    +3.4662378e-008
+4.0100000e+002    +1.0294136e-007    +3.6044064e-008
+4.0200000e+002    +9.9341975e-008    +3.5727478e-008
+4.0300000e+002    +1.0112444e-007    +3.4318152e-008
+4.0400000e+002    +1.0787145e-007    +3.3769112e-008
+4.0500000e+002    +1.1641617e-007    +3.6277438e-008
+4.0600000e+002    +1.1814643e-007    +3.6444792e-008
+4.0700000e+002    +1.1258494e-007    +3.5339369e-008
+4.0800000e+002    +1.0672260e-007    +3.5917765e-008
+4.0900000e+002    +1.1488167e-007    +3.3922326e-008
+4.1000000e+002    +1.1376166e-007    +3.4656782e-008
+4.1100000e+002    +1.0801023e-007    +3.5113956e-008
+4.1200000e+002    +1.0523554e-007    +3.4400845e-008
+4.1300000e+002    +1.1341047e-007    +3.7301053e-008
+4.1400000e+002    +1.1211360e-007    +3.5412352e-008
+4.1500000e+002    +1.0278946e-007    +3.4706666e-008
+4.1600000e+002    +9.2347470e-008    +3.3056189e-008
+4.1700000e+002    +9.0017139e-008    +3.1934917e-008
+4.1800000e+002    +9.4569046e-008    +3.3781497e-008
+4.1900000e+002    +1.0257525e-007    +3.3577486e-008
+4.2000000e+002    +1.0288532e-007    +3.6229114e-008
+4.2100000e+002    +9.7628011e-008    +3.4540729e-008
+4.2200000e+002    +8.7126118e-008    +3.3481143e-008
+4.2300000e+002    +8.7214168e-008    +3.5828080e-008
+4.2400000e+002    +8.9677592e-008    +3.6098758e-008
+4.2500000e+002    +8.9043873e-008    +3.6415233e-008
+4.2600000e+002    +8.5765080e-008    +3.5976374e-008
+4.2700000e+002    +8.1430052e-008    +3.3785131e-008
+4.2800000e+002    +7.9701913e-008    +3.4877690e-008
+4.2900000e+002    +8.4274447e-008    +3.7602216e-008
+4.3000000e+002    +7.6274027e-008    +3.7568952e-008
+4.3100000e+002    +6.6928138e-008    +3.7184595e-008
+4.3200000e+002    +7.2602155e-008    +3.7486092e-008
+4.3300000e+002    +8.4573287e-008    +3.8358138e-008
+4.3400000e+002    +8.2504421e-008    +3.5740975e-008
+4.3500000e+002    +8.5320920e-008    +3.5395598e-008
+4.3600000e+002    +1.1227916e-007    +3.4764561e-008
+4.3700000e+002    +1.1169131e-007    +3.4720465e-008
+4.3800000e+002    +1.1889768e-007    +3.5170135e-008
+4.3900000e+002    +1.3971949e-007    +3.1686273e-008
+4.4000000e+002    +1.5009273e-007    +3.3341561e-008
+4.4100000e+002    +1.9335546e-007    +3.4250057e-008
+4.4200000e+002    +2.2347250e-007    +3.4784186e-008
+4.4300000e+002    +2.4454141e-007    +3.4923904e-008
+4.4400000e+002    +2.3013305e-007    +3.4368604e-008
+4.4500000e+002    +2.1363684e-007    +3.6430389e-008
+4.4600000e+002    +2.0683623e-007    +3.5451563e-008
+4.4700000e+002    +2.0076747e-007    +3.2917221e-008
+4.4800000e+002    +1.7253471e-007    +3.4433004e-008
+4.4900000e+002    +1.3602533e-007    +3.3111004e-008
+4.5000000e+002    +1.2315341e-007    +3.2606717e-008
+4.5100000e+002    +1.0877726e-007    +3.3746872e-008
+4.5200000e+002    +1.0102378e-007    +3.1641182e-008
+4.5300000e+002    +9.1761962e-008    +3.4125847e-008
+4.5400000e+002    +9.3882619e-008    +3.5519395e-008
+4.5500000e+002    +9.3482392e-008    +3.6316333e-008
+4.5600000e+002    +8.8813735e-008    +3.6408398e-008
+4.5700000e+002    +8.9524413e-008    +3.7832880e-008
+4.5800000e+002    +8.9755801e-008    +3.5042707e-008
+4.5900000e+002    +8.0616253e-008    +3.6991537e-008
+4.6000000e+002    +8.3066325e-008    +3.8013422e-008
+4.6100000e+002    +8.3033413e-008    +3.5863462e-008
+4.6200000e+002    +8.1231455e-008    +3.5830166e-008
+4.6300000e+002    +7.9526480e-008    +3.3183717e-008
+4.6400000e+002    +7.9035530e-008    +3.4104907e-008
+4.6500000e+002    +8.2984378e-008    +3.6689944e-008
+4.6600000e+002    +7.8466591e-008    +3.4689524e-008
+4.6700000e+002    +8.0206242e-008    +3.2678077e-008
+4.6800000e+002    +8.2551267e-008    +3.5089215e-008
+4.6900000e+002    +9.7002520e-008    +3.7005957e-008
+4.7000000e+002    +1.0329699e-007    +4.0207112e-008
+4.7100000e+002    +9.0370769e-008    +3.7070944e-008
+4.7200000e+002    +9.3706213e-008    +3.4684724e-008
+4.7300000e+002    +9.8198861e-008    +3.4625973e-008
+4.7400000e+002    +1.1124705e-007    +3.8087745e-008
+4.7500000e+002    +1.2169127e-007    +3.6639623e-008
+4.7600000e+002    +1.3524513e-007    +3.5221184e-008
+4.7700000e+002    +1.4761349e-007    +3.5950155e-008
+4.7800000e+002    +1.5106137e-007    +3.5035548e-008
+4.7900000e+002    +1.7869597e-007    +3.6195200e-008
+4.8000000e+002    +3.5744154e-007    +3.3658175e-008
+4.8100000e+002    +2.6008902e-007    +3.1111870e-008
+4.8200000e+002    +1.5794586e-007    +3.4480671e-008
+4.8300000e+002    +1.7635682e-007    +3.6125719e-008
+4.8400000e+002    +1.9246693e-007    +3.6942506e-008
+4.8500000e+002    +1.9799543e-007    +3.8471175e-008
+4.8600000e+002    +2.2567239e-007    +3.5558262e-008
+4.8700000e+002    +2.5002561e-007    +3.5691563e-008
+4.8800000e+002    +2.4446354e-007    +3.6023845e-008
+4.8900000e+002    +2.5757345e-007    +3.8442000e-008
+4.9000000e+002    +3.1186016e-007    +3.6951310e-008
+4.9100000e+002    +2.9743626e-007    +3.6062310e-008
+4.9200000e+002    +2.7158012e-007    +3.6945995e-008
+4.9300000e+002    +2.8498974e-007    +3.9037900e-008
+4.9400000e+002    +2.9094087e-007    +3.7318870e-008
+4.9500000e+002    +2.7558352e-007    +3.4195160e-008
+4.9600000e+002    +2.7792083e-007    +3.7418697e-008
+4.9700000e+002    +3.0109365e-007    +3.6929407e-008
+4.9800000e+002    +2.8820438e-007    +3.6161119e-008
+4.9900000e+002    +2.3661227e-007    +3.5874489e-008
+5.0000000e+002    +2.1167138e-007    +3.7570686e-008
+5.0100000e+002    +1.9729733e-007    +4.0483528e-008
+5.0200000e+002    +2.0377446e-007    +3.5936463e-008
+5.0300000e+002    +2.5209133e-007    +3.2590290e-008
+5.0400000e+002    +2.9592579e-007    +3.5865863e-008
+5.0500000e+002    +2.8984502e-007    +3.6404042e-008
+5.0600000e+002    +3.6545973e-007    +3.7529581e-008
+5.0700000e+002    +4.5565196e-007    +4.0384659e-008
+5.0800000e+002    +5.3301733e-007    +3.8439424e-008
+5.0900000e+002    +5.7627233e-007    +3.6276997e-008
+5.1000000e+002    +6.1999060e-007    +3.9003197e-008
+5.1100000e+002    +5.7608634e-007    +3.7543799e-008
+5.1200000e+002    +4.3869946e-007    +3.5986094e-008
+5.1300000e+002    +3.4925245e-007    +3.4714365e-008
+5.1400000e+002    +2.7268325e-007    +3.5423589e-008
+5.1500000e+002    +2.3995975e-007    +3.9545096e-008
+5.1600000e+002    +2.0681694e-007    +3.9180161e-008
+5.1700000e+002    +2.0291266e-007    +3.2920799e-008
+5.1800000e+002    +1.7859496e-007    +3.6136747e-008
+5.1900000e+002    +1.5874787e-007    +3.6829551e-008
+5.2000000e+002    +1.7207444e-007    +3.6933987e-008
+5.2100000e+002    +1.7532469e-007    +3.6260353e-008
+5.2200000e+002    +1.7994127e-007    +3.3652004e-008
+5.2300000e+002    +2.1346756e-007    +3.6514006e-008
+5.2400000e+002    +3.1143963e-007    +3.3514834e-008
+5.2500000e+002    +5.3190593e-007    +3.6076806e-008
+5.2600000e+002    +7.7507246e-007    +4.0411894e-008
+5.2700000e+002    +1.0238543e-006    +3.8383501e-008
+5.2800000e+002    +1.4055420e-006    +3.7443435e-008
+5.2900000e+002    +1.7582474e-006    +3.8585309e-008
+5.3000000e+002    +2.0521907e-006    +3.8363403e-008
+5.3100000e+002    +2.3279001e-006    +3.6002415e-008
+5.3200000e+002    +2.4720750e-006    +3.4218296e-008
+5.3300000e+002    +2.4227832e-006    +3.7904520e-008
+5.3400000e+002    +2.4284025e-006    +3.9539234e-008
+5.3500000e+002    +2.4233045e-006    +3.6939706e-008
+5.3600000e+002    +2.3079551e-006    +3.5211674e-008
+5.3700000e+002    +1.9428819e-006    +3.8905299e-008
+5.3800000e+002    +1.7597616e-006    +3.7993185e-008
+5.3900000e+002    +1.8130369e-006    +3.9933635e-008
+5.4000000e+002    +1.7497891e-006    +4.0556266e-008
+5.4100000e+002    +1.4577000e-006    +3.4677793e-008
+5.4200000e+002    +1.4510221e-006    +3.5639129e-008
+5.4300000e+002    +1.8065510e-006    +3.5192503e-008
+5.4400000e+002    +2.1069150e-006    +3.7719733e-008
+5.4500000e+002    +2.8063205e-006    +4.1500737e-008
+5.4600000e+002    +3.6153258e-006    +4.0689180e-008
+5.4700000e+002    +3.7905395e-006    +4.1593111e-008
+5.4800000e+002    +3.2695409e-006    +3.9573155e-008
+5.4900000e+002    +2.3161419e-006    +4.1659884e-008
+5.5000000e+002    +1.7905892e-006    +4.2699529e-008
+5.5100000e+002    +1.5439440e-006    +4.2330246e-008
+5.5200000e+002    +1.4723844e-006    +4.1975358e-008
+5.5300000e+002    +1.1723891e-006    +4.1500375e-008
+5.5400000e+002    +8.8694361e-007    +3.6519136e-008
+5.5500000e+002    +8.3841502e-007    +3.5481509e-008
+5.5600000e+002    +7.5529999e-007    +3.7935788e-008
+5.5700000e+002    +7.1432629e-007    +3.6913029e-008
+5.5800000e+002    +6.6825629e-007    +3.7894075e-008
+5.5900000e+002    +6.8247448e-007    +3.7413724e-008
+5.6000000e+002    +6.5609686e-007    +3.6000518e-008
+5.6100000e+002    +5.9917090e-007    +3.4805961e-008
+5.6200000e+002    +5.4190537e-007    +3.4952329e-008
+5.6300000e+002    +5.3852983e-007    +3.5521190e-008
+5.6400000e+002    +4.9283528e-007    +3.9587146e-008
+5.6500000e+002    +4.6084173e-007    +3.9475253e-008
+5.6600000e+002    +4.5724866e-007    +3.8264798e-008
+5.6700000e+002    +4.6304905e-007    +3.8367194e-008
+5.6800000e+002    +4.4422114e-007    +3.9553129e-008
+5.6900000e+002    +5.0469350e-007    +4.0344155e-008
+5.7000000e+002    +5.8390367e-007    +3.9045915e-008
+5.7100000e+002    +6.8920269e-007    +3.7485105e-008
+5.7200000e+002    +7.7822585e-007    +3.8069309e-008
+5.7300000e+002    +8.7981380e-007    +4.0884565e-008
+5.7400000e+002    +9.9598958e-007    +4.1998870e-008
+5.7500000e+002    +1.1329585e-006    +3.9835282e-008
+5.7600000e+002    +1.2017759e-006    +3.8489429e-008
+5.7700000e+002    +1.0867925e-006    +3.7114599e-008
+5.7800000e+002    +9.8286444e-007    +3.6083144e-008
+5.7900000e+002    +7.6783471e-007    +3.9141121e-008
+5.8000000e+002    +6.1211472e-007    +3.8744250e-008
+5.8100000e+002    +5.7655899e-007    +4.0677747e-008
+5.8200000e+002    +5.3774573e-007    +4.0528935e-008
+5.8300000e+002    +4.4345558e-007    +3.9828983e-008
+5.8400000e+002    +4.0023841e-007    +3.9401552e-008
+5.8500000e+002    +3.6335916e-007    +3.8178644e-008
+5.8600000e+002    +3.5529811e-007    +4.1143995e-008
+5.8700000e+002    +3.3361408e-007    +3.8504730e-008
+5.8800000e+002    +2.9438905e-007    +4.0164050e-008
+5.8900000e+002    +2.4940380e-007    +3.7649560e-008
+5.9000000e+002    +2.1878849e-007    +3.8184218e-008
+5.9100000e+002    +1.8462973e-007    +3.9719893e-008
+5.9200000e+002    +1.9148132e-007    +3.9412889e-008
+5.9300000e+002    +2.0764013e-007    +3.8075914e-008
+5.9400000e+002    +2.0239311e-007    +3.8243630e-008
+5.9500000e+002    +1.6031993e-007    +4.0563616e-008
+5.9600000e+002    +1.6523715e-007    +4.0559296e-008
+5.9700000e+002    +1.6883845e-007    +3.9140946e-008
+5.9800000e+002    +1.6158666e-007    +3.7972836e-008
+5.9900000e+002    +1.6060481e-007    +4.0571322e-008
+6.0000000e+002    +1.7572825e-007    +4.1317922e-008
+6.0100000e+002    +1.9222765e-007    +3.9639602e-008
+6.0200000e+002    +2.4974906e-007    +4.2594174e-008
+6.0300000e+002    +3.9204818e-007    +3.9842760e-008
+6.0400000e+002    +4.1235799e-007    +4.2229466e-008
+6.0500000e+002    +4.9473232e-007    +5.8660252e-008
+6.0600000e+002    +4.1622076e-007    +5.4090847e-008
+6.0700000e+002    +2.1171113e-007    +4.0723684e-008
+6.0800000e+002    +1.3258277e-007    +3.9588365e-008
+6.0900000e+002    +9.9248865e-008    +3.9814772e-008
+6.1000000e+002    +9.3967593e-008    +3.9274571e-008
+6.1100000e+002    +7.8547359e-008    +3.9925176e-008
+6.1200000e+002    +7.6493841e-008    +4.1168441e-008
+6.1300000e+002    +1.0633218e-007    +3.7573987e-008
+6.1400000e+002    +9.2558103e-008    +3.7460627e-008
+6.1500000e+002    +6.6922993e-008    +3.6802589e-008
+6.1600000e+002    +6.1452006e-008    +3.6200205e-008
+6.1700000e+002    +6.0212535e-008    +3.8022023e-008
+6.1800000e+002    +6.4428384e-008    +4.1147338e-008
+6.1900000e+002    +6.1719639e-008    +3.9123162e-008
+6.2000000e+002    +5.6521845e-008    +3.7752422e-008
+6.2100000e+002    +6.1527217e-008    +3.9981941e-008
+6.2200000e+002    +6.8314399e-008    +4.2424048e-008
+6.2300000e+002    +6.9208497e-008    +4.2162473e-008
+6.2400000e+002    +6.3685690e-008    +4.1823547e-008
+6.2500000e+002    +6.0308345e-008    +4.0708620e-008
+6.2600000e+002    +7.1361995e-008    +3.8465771e-008
+6.2700000e+002    +7.0947074e-008    +4.1813582e-008
+6.2800000e+002    +6.9064953e-008    +4.1398113e-008
+6.2900000e+002    +6.7146743e-008    +4.1922714e-008
+6.3000000e+002    +6.8798471e-008    +4.1024499e-008
+6.3100000e+002    +6.9127012e-008    +3.8634738e-008
+6.3200000e+002    +7.3305507e-008    +4.1447461e-008
+6.3300000e+002    +8.6543203e-008    +4.1997165e-008
+6.3400000e+002    +9.8656962e-008    +4.0216030e-008
+6.3500000e+002    +1.0633055e-007    +4.2538321e-008
+6.3600000e+002    +1.0896350e-007    +4.4977035e-008
+6.3700000e+002    +1.0462045e-007    +4.2248342e-008
+6.3800000e+002    +1.0915952e-007    +4.2095866e-008
+6.3900000e+002    +1.1608712e-007    +4.3278760e-008
+6.4000000e+002    +1.1700332e-007    +4.5936108e-008
+6.4100000e+002    +1.1861161e-007    +4.5696357e-008
+6.4200000e+002    +1.2373134e-007    +4.4948106e-008
+6.4300000e+002    +1.3375539e-007    +4.3137860e-008
+6.4400000e+002    +1.6605794e-007    +4.2449724e-008
+6.4500000e+002    +2.3074180e-007    +3.9079413e-008
+6.4600000e+002    +2.5162402e-007    +4.0414378e-008
+6.4700000e+002    +2.5497297e-007    +3.9161193e-008
+6.4800000e+002    +2.7202867e-007    +3.9421892e-008
+6.4900000e+002    +2.5039512e-007    +4.4979650e-008
+6.5000000e+002    +2.1075167e-007    +4.1992600e-008
+6.5100000e+002    +2.1746385e-007    +4.2053134e-008
+6.5200000e+002    +2.4661597e-007    +4.5647166e-008
+6.5300000e+002    +2.1153384e-007    +4.6847017e-008
+6.5400000e+002    +1.5588535e-007    +4.6354096e-008
+6.5500000e+002    +1.4399981e-007    +4.4566622e-008
+6.5600000e+002    +1.1969313e-007    +4.6403795e-008
+6.5700000e+002    +1.0777592e-007    +4.3181316e-008
+6.5800000e+002    +9.6683642e-008    +4.3995939e-008
+6.5900000e+002    +1.0424368e-007    +4.2433552e-008
+6.6000000e+002    +1.3486019e-007    +4.7276096e-008
+6.6100000e+002    +1.0550638e-007    +4.3128011e-008
+6.6200000e+002    +8.9088466e-008    +4.4912980e-008
+6.6300000e+002    +9.7299484e-008    +4.7718796e-008
+6.6400000e+002    +9.9160530e-008    +5.1234419e-008
+6.6500000e+002    +1.0814706e-007    +4.9107658e-008
+6.6600000e+002    +1.3845018e-007    +4.6165404e-008
+6.6700000e+002    +1.4192210e-007    +4.4546564e-008
+6.6800000e+002    +1.5144184e-007    +4.4845720e-008
+6.6900000e+002    +1.6687659e-007    +4.2771131e-008
+6.7000000e+002    +1.6433938e-007    +4.1504975e-008
+6.7100000e+002    +1.5226648e-007    +4.7416140e-008
+6.7200000e+002    +1.4374453e-007    +4.3219355e-008
+6.7300000e+002    +1.4033370e-007    +4.4342343e-008
+6.7400000e+002    +1.3807127e-007    +4.6605841e-008
+6.7500000e+002    +1.3745098e-007    +4.5607038e-008
+6.7600000e+002    +1.1521958e-007    +4.5645010e-008
+6.7700000e+002    +1.2579000e-007    +4.2910219e-008
+6.7800000e+002    +1.3854871e-007    +4.5415703e-008
+6.7900000e+002    +1.2987124e-007    +4.8078356e-008
+6.8000000e+002    +1.2544133e-007    +4.1372303e-008
+6.8100000e+002    +1.4850383e-007    +4.2941419e-008
+6.8200000e+002    +1.6298503e-007    +4.7034000e-008
+6.8300000e+002    +1.7499180e-007    +4.5811046e-008
+6.8400000e+002    +2.1515162e-007    +4.3301576e-008
+6.8500000e+002    +2.6371595e-007    +4.2075534e-008
+6.8600000e+002    +2.6884592e-007    +4.5755097e-008
+6.8700000e+002    +2.7365590e-007    +4.6930111e-008
+6.8800000e+002    +3.0644225e-007    +4.6257394e-008
+6.8900000e+002    +2.8915591e-007    +4.7803905e-008
+6.9000000e+002    +2.9027240e-007    +4.8856023e-008
+6.9100000e+002    +2.8735252e-007    +4.6292961e-008
+6.9200000e+002    +2.6898172e-007    +4.3508070e-008
+6.9300000e+002    +2.7192385e-007    +4.1883656e-008
+6.9400000e+002    +2.7092491e-007    +4.2617703e-008
+6.9500000e+002    +2.7479612e-007    +4.4968985e-008
+6.9600000e+002    +2.6416106e-007    +4.6121126e-008
+6.9700000e+002    +2.6181786e-007    +4.6429481e-008
+6.9800000e+002    +2.4545491e-007    +4.6665697e-008
+6.9900000e+002    +2.3772967e-007    +4.7575767e-008
+7.0000000e+002    +2.3306596e-007    +4.7982748e-008
+7.0100000e+002    +2.6193834e-007    +4.5825534e-008
+7.0200000e+002    +3.8848526e-007    +4.4998423e-008
+7.0300000e+002    +4.1628201e-007    +4.6223427e-008
+7.0400000e+002    +3.0504006e-007    +5.0884545e-008
+7.0500000e+002    +3.2161242e-007    +5.1681095e-008
+7.0600000e+002    +3.1128477e-007    +5.1409724e-008
+7.0700000e+002    +2.7359192e-007    +4.6266944e-008
+7.0800000e+002    +2.7672237e-007    +4.5200551e-008
+7.0900000e+002    +2.7780123e-007    +4.9354195e-008
+7.1000000e+002    +2.7333490e-007    +4.6331603e-008
+7.1100000e+002    +2.7827136e-007    +4.6595659e-008
+7.1200000e+002    +2.7749883e-007    +4.5034255e-008
+7.1300000e+002    +2.8312655e-007    +4.6046495e-008
+7.1400000e+002    +2.7470503e-007    +4.9262379e-008
+7.1500000e+002    +2.5421349e-007    +4.6449621e-008
+7.1600000e+002    +2.1665547e-007    +4.7373938e-008
+7.1700000e+002    +1.7022050e-007    +4.8872710e-008
+7.1800000e+002    +1.5847812e-007    +5.0083937e-008
+7.1900000e+002    +1.8506100e-007    +4.7047997e-008
+7.2000000e+002    +2.6033359e-007    +5.2995077e-008
+7.2100000e+002    +1.9900014e-007    +5.2314572e-008
+7.2200000e+002    +1.4772374e-007    +4.6089792e-008
+7.2300000e+002    +1.3415882e-007    +4.7246623e-008
+7.2400000e+002    +1.2410618e-007    +5.0599741e-008
+7.2500000e+002    +1.0399047e-007    +4.6166623e-008
+7.2600000e+002    +1.0087182e-007    +4.5515943e-008
+7.2700000e+002    +9.7514665e-008    +4.4318735e-008
+7.2800000e+002    +9.9988583e-008    +4.7158622e-008
+7.2900000e+002    +1.0799921e-007    +4.8007724e-008
+7.3000000e+002    +1.1132378e-007    +4.9433702e-008
+7.3100000e+002    +1.0443442e-007    +4.7773053e-008
+7.3200000e+002    +9.4549115e-008    +4.4656353e-008
+7.3300000e+002    +8.7512774e-008    +4.7690669e-008
+7.3400000e+002    +8.6036714e-008    +5.0307914e-008
+7.3500000e+002    +9.0537817e-008    +5.0583743e-008
+7.3600000e+002    +9.0845106e-008    +5.3783729e-008
+7.3700000e+002    +8.8003503e-008    +4.9248211e-008
+7.3800000e+002    +9.7303221e-008    +4.6650484e-008
+7.3900000e+002    +8.6365318e-008    +4.7755222e-008
+7.4000000e+002    +8.1390638e-008    +4.5234213e-008
+7.4100000e+002    +7.5548492e-008    +4.7921674e-008
+7.4200000e+002    +7.2144211e-008    +4.7053785e-008
+7.4300000e+002    +7.2157917e-008    +4.7252847e-008
+7.4400000e+002    +7.1720891e-008    +5.1519006e-008
+7.4500000e+002    +6.9955050e-008    +5.0948834e-008
+7.4600000e+002    +8.4405102e-008    +4.7406147e-008
+7.4700000e+002    +8.9952422e-008    +4.4905043e-008
+7.4800000e+002    +8.7485873e-008    +4.7815821e-008
+7.4900000e+002    +7.2127975e-008    +5.2417434e-008
+7.5000000e+002    +7.6047911e-008    +5.2209622e-008
+7.5100000e+002    +7.9417582e-008    +4.7897267e-008
+7.5200000e+002    +7.0830403e-008    +4.9458784e-008
+7.5300000e+002    +6.6619045e-008    +5.7190416e-008
+7.5400000e+002    +6.8932756e-008    +5.5562829e-008
+7.5500000e+002    +7.0174757e-008    +4.9233396e-008
+7.5600000e+002    +7.1160756e-008    +4.6824393e-008
+7.5700000e+002    +6.8755575e-008    +4.5955680e-008
+7.5800000e+002    +6.5562162e-008    +4.7111111e-008
+7.5900000e+002    +6.2307919e-008    +4.6516121e-008
+7.6000000e+002    +6.3996069e-008    +4.9020873e-008
+7.6100000e+002    +6.7459467e-008    +4.7517716e-008
+7.6200000e+002    +6.8476375e-008    +5.1621548e-008
+7.6300000e+002    +6.6221666e-008    +5.0654492e-008
+7.6400000e+002    +7.2682312e-008    +4.9616133e-008
+7.6500000e+002    +7.6412078e-008    +4.7775416e-008
+7.6600000e+002    +8.4082664e-008    +5.2430959e-008
+7.6700000e+002    +8.3983572e-008    +4.8647856e-008
+7.6800000e+002    +7.4224502e-008    +4.9304369e-008
+7.6900000e+002    +6.6109791e-008    +5.2845053e-008
+7.7000000e+002    +6.4665734e-008    +5.1813988e-008
+7.7100000e+002    +6.1706089e-008    +5.2350426e-008
+7.7200000e+002    +6.1470494e-008    +5.0669122e-008
+7.7300000e+002    +6.2300806e-008    +5.3480818e-008
+7.7400000e+002    +6.0375122e-008    +5.2243912e-008
+7.7500000e+002    +5.4596043e-008    +4.8406918e-008
+7.7600000e+002    +5.6954555e-008    +5.0326420e-008
+7.7700000e+002    +5.9808308e-008    +5.5063680e-008
+7.7800000e+002    +6.5752261e-008    +5.4649480e-008
+7.7900000e+002    +8.1049180e-008    +5.6216539e-008
+7.8000000e+002    +1.4293246e-007    +5.6988458e-008
+7.8100000e+002    +1.1232824e-007    +5.3849199e-008
+7.8200000e+002    +6.4398755e-008    +5.5001021e-008
+7.8300000e+002    +6.0540678e-008    +5.2124680e-008
+7.8400000e+002    +6.2654706e-008    +5.5242442e-008
+7.8500000e+002    +6.8107092e-008    +5.7125149e-008
+7.8600000e+002    +6.8095730e-008    +5.6230306e-008
+7.8700000e+002    +6.9024544e-008    +5.2605390e-008
+7.8800000e+002    +6.9171804e-008    +5.3079692e-008
+7.8900000e+002    +7.0046667e-008    +5.3964733e-008
+7.9000000e+002    +6.3472640e-008    +5.1257544e-008
+7.9100000e+002    +5.5110615e-008    +4.9370620e-008
+7.9200000e+002    +6.1759231e-008    +5.4534635e-008
+7.9300000e+002    +6.5839522e-008    +5.5936582e-008
+7.9400000e+002    +6.2995596e-008    +5.3436914e-008
+7.9500000e+002    +6.5451687e-008    +5.4523976e-008
+7.9600000e+002    +7.0731083e-008    +5.2852073e-008
+7.9700000e+002    +6.9807349e-008    +5.0046555e-008
+7.9800000e+002    +6.7867177e-008    +5.0593520e-008
+7.9900000e+002    +7.6436081e-008    +5.0430025e-008
