# North DC Val: 0.51848037 VoltsSouth DC Val: 0.5269698300000001 Volts
# SR785 Measurement - Timestamp: Sep 09 2020 - 05:42:00
# Parameter File: /home/controls/Git/cit_ctnlab/ctn_scripts/TransRINSpecLong.yml
#---------- Measurement Setup ------------
# Start Frequency (Hz): 0.000000
# Frequency Span (Hz): 800.000000
# Frequency Resolution: 800
# Number of Averages: 100
# Averaging Mode: RMS
# Window function: Hanning
#---------- Measurement Parameters ----------
# Measurement Group:  "FFT" "FFT"
# Measurements:  "FFT 1" "FFT 2"
# View:  "Log Magnitude" "Log Magnitude"
# Unit:  "Vrms/rtHz" "Vrms/rtHz"
#---------- Input Parameters ----------
# Input Source: Analog
# Input Mode: Single ended, Single ended
# Input Grounding: Float, Float
# Input Coupling: AC, AC
# Input Range: -36.0dBVpk, -36.0dBVpk
# Auto Range: Off, Off
# Auto Range Mode: Tracking, Tracking
# Anti-Aliasing Filter: On, On
#---------- Source Parameters ----------
# Source Type: Sine
# Source Amplitude: 500.0mVpk
# Source On: 0

#---------- Measurement Data ----------
# [Freq(Hz) Display 0(Vrms/rtHz) Display 1(Vrms/rtHz) ]
+0.0000000e+000    +3.4479727e-004    +1.5677411e-004
+1.0000000e+000    +2.3522634e-004    +1.0728442e-004
+2.0000000e+000    +2.0256852e-004    +8.7371925e-005
+3.0000000e+000    +1.9752860e-004    +7.6353208e-005
+4.0000000e+000    +8.4680883e-005    +2.8606597e-005
+5.0000000e+000    +2.4633506e-005    +6.6567932e-006
+6.0000000e+000    +1.2011809e-005    +2.5501524e-006
+7.0000000e+000    +1.0709776e-005    +1.9846141e-006
+8.0000000e+000    +6.4030087e-006    +1.4587663e-006
+9.0000000e+000    +4.5317925e-006    +1.0897570e-006
+1.0000000e+001    +6.3884586e-006    +1.1656596e-006
+1.1000000e+001    +6.0856705e-006    +1.0034029e-006
+1.2000000e+001    +3.6588610e-006    +6.8751575e-007
+1.3000000e+001    +4.3051132e-006    +5.3859429e-007
+1.4000000e+001    +5.6669119e-006    +4.8646200e-007
+1.5000000e+001    +3.3283334e-006    +4.0553508e-007
+1.6000000e+001    +2.0506209e-006    +3.6943842e-007
+1.7000000e+001    +3.1192214e-006    +3.7697995e-007
+1.8000000e+001    +2.9050580e-006    +3.5210860e-007
+1.9000000e+001    +1.6664753e-006    +2.6174254e-007
+2.0000000e+001    +2.1225180e-006    +2.5974799e-007
+2.1000000e+001    +2.9685650e-006    +2.5914409e-007
+2.2000000e+001    +1.7897834e-006    +2.3998345e-007
+2.3000000e+001    +1.5365318e-006    +2.1401083e-007
+2.4000000e+001    +2.1731373e-006    +2.0952812e-007
+2.5000000e+001    +1.7701348e-006    +1.8675232e-007
+2.6000000e+001    +8.5822541e-007    +1.5750877e-007
+2.7000000e+001    +1.2739730e-006    +1.5549645e-007
+2.8000000e+001    +1.6874467e-006    +1.5884028e-007
+2.9000000e+001    +1.2202911e-006    +1.4104565e-007
+3.0000000e+001    +1.5255481e-006    +1.4380262e-007
+3.1000000e+001    +1.2540236e-006    +1.3181956e-007
+3.2000000e+001    +1.0005161e-006    +1.2631993e-007
+3.3000000e+001    +9.7748250e-007    +1.2313043e-007
+3.4000000e+001    +1.4039396e-006    +1.2429518e-007
+3.5000000e+001    +1.2804194e-006    +1.0282242e-007
+3.6000000e+001    +1.1642512e-006    +9.7561141e-008
+3.7000000e+001    +1.1110009e-006    +1.0663897e-007
+3.8000000e+001    +1.0790462e-006    +1.1102838e-007
+3.9000000e+001    +5.1971068e-007    +1.0163703e-007
+4.0000000e+001    +8.4251963e-007    +8.9636544e-008
+4.1000000e+001    +9.0841917e-007    +8.1078198e-008
+4.2000000e+001    +7.8648759e-007    +8.2482224e-008
+4.3000000e+001    +5.9577218e-007    +8.6317257e-008
+4.4000000e+001    +7.6973305e-007    +7.8745792e-008
+4.5000000e+001    +5.5156681e-007    +7.2987717e-008
+4.6000000e+001    +5.9465401e-007    +7.7932548e-008
+4.7000000e+001    +5.6519485e-007    +7.5773535e-008
+4.8000000e+001    +8.0929669e-007    +7.5611311e-008
+4.9000000e+001    +1.0459541e-006    +7.9821277e-008
+5.0000000e+001    +9.5180098e-007    +7.5759807e-008
+5.1000000e+001    +4.5028324e-007    +7.2809470e-008
+5.2000000e+001    +7.7936909e-007    +7.0472097e-008
+5.3000000e+001    +3.7773901e-007    +6.5894632e-008
+5.4000000e+001    +6.6141007e-007    +6.0326883e-008
+5.5000000e+001    +9.1475374e-007    +6.6479558e-008
+5.6000000e+001    +9.3860666e-007    +6.5518336e-008
+5.7000000e+001    +9.2312496e-007    +6.7251882e-008
+5.8000000e+001    +6.3568257e-007    +6.6293325e-008
+5.9000000e+001    +6.8712484e-007    +7.3570227e-008
+6.0000000e+001    +5.6480218e-007    +9.0484654e-008
+6.1000000e+001    +5.1642974e-007    +6.6752740e-008
+6.2000000e+001    +5.3656441e-007    +5.3990039e-008
+6.3000000e+001    +5.0017991e-007    +5.4462529e-008
+6.4000000e+001    +4.8836500e-007    +5.5864096e-008
+6.5000000e+001    +3.4677717e-007    +5.6385296e-008
+6.6000000e+001    +3.0721270e-007    +5.3334105e-008
+6.7000000e+001    +1.9651168e-007    +4.9941605e-008
+6.8000000e+001    +2.7217297e-007    +5.7128162e-008
+6.9000000e+001    +2.3397102e-007    +5.7095491e-008
+7.0000000e+001    +2.0821383e-007    +5.1713222e-008
+7.1000000e+001    +2.2738307e-007    +5.1189438e-008
+7.2000000e+001    +1.6515880e-007    +4.8563908e-008
+7.3000000e+001    +1.4876267e-007    +4.7654396e-008
+7.4000000e+001    +1.2611872e-007    +5.1481912e-008
+7.5000000e+001    +1.1777200e-007    +4.9892495e-008
+7.6000000e+001    +1.1732184e-007    +5.1758608e-008
+7.7000000e+001    +1.0856738e-007    +5.2171288e-008
+7.8000000e+001    +1.0914682e-007    +4.9173700e-008
+7.9000000e+001    +1.0990876e-007    +4.9137864e-008
+8.0000000e+001    +1.1710910e-007    +4.7732367e-008
+8.1000000e+001    +9.4712760e-008    +4.9974954e-008
+8.2000000e+001    +9.6639170e-008    +4.9898304e-008
+8.3000000e+001    +9.6591435e-008    +4.6880103e-008
+8.4000000e+001    +9.4545378e-008    +4.6875215e-008
+8.5000000e+001    +9.5219711e-008    +4.4874682e-008
+8.6000000e+001    +9.0969372e-008    +4.8033296e-008
+8.7000000e+001    +8.8746376e-008    +4.6939746e-008
+8.8000000e+001    +8.3046992e-008    +4.2867178e-008
+8.9000000e+001    +8.4289525e-008    +4.3581650e-008
+9.0000000e+001    +8.3514060e-008    +3.9685805e-008
+9.1000000e+001    +8.7300108e-008    +4.6316345e-008
+9.2000000e+001    +8.1330874e-008    +4.2826862e-008
+9.3000000e+001    +8.2530782e-008    +4.2586692e-008
+9.4000000e+001    +8.4366285e-008    +4.5429321e-008
+9.5000000e+001    +8.8555112e-008    +4.2944531e-008
+9.6000000e+001    +9.5605223e-008    +3.9310809e-008
+9.7000000e+001    +8.4633200e-008    +3.8690644e-008
+9.8000000e+001    +8.3918678e-008    +4.0679353e-008
+9.9000000e+001    +8.3438174e-008    +4.4844342e-008
+1.0000000e+002    +8.4844217e-008    +4.2071747e-008
+1.0100000e+002    +8.6906851e-008    +4.2133831e-008
+1.0200000e+002    +8.0664506e-008    +4.3644860e-008
+1.0300000e+002    +8.5036895e-008    +4.1640220e-008
+1.0400000e+002    +8.9514685e-008    +3.7837076e-008
+1.0500000e+002    +8.2596230e-008    +3.9165794e-008
+1.0600000e+002    +8.6196792e-008    +4.2242174e-008
+1.0700000e+002    +8.4282405e-008    +4.1341245e-008
+1.0800000e+002    +7.9842842e-008    +4.1092662e-008
+1.0900000e+002    +8.3228372e-008    +4.1789487e-008
+1.1000000e+002    +8.5727329e-008    +3.9695479e-008
+1.1100000e+002    +8.1299000e-008    +3.8792262e-008
+1.1200000e+002    +8.4910567e-008    +3.9078383e-008
+1.1300000e+002    +8.3881645e-008    +3.6751469e-008
+1.1400000e+002    +8.7499416e-008    +3.8108620e-008
+1.1500000e+002    +8.1586848e-008    +3.9101518e-008
+1.1600000e+002    +8.4623075e-008    +3.9247197e-008
+1.1700000e+002    +8.8952994e-008    +3.9531812e-008
+1.1800000e+002    +7.6781532e-008    +4.0301387e-008
+1.1900000e+002    +3.3292983e-007    +3.7984510e-008
+1.2000000e+002    +6.3821278e-007    +4.2282867e-008
+1.2100000e+002    +3.2394613e-007    +4.0462908e-008
+1.2200000e+002    +7.9354038e-008    +3.6648316e-008
+1.2300000e+002    +9.1020325e-008    +3.8321264e-008
+1.2400000e+002    +8.6776318e-008    +4.3075623e-008
+1.2500000e+002    +7.7240493e-008    +4.0486729e-008
+1.2600000e+002    +7.6519378e-008    +3.9355896e-008
+1.2700000e+002    +7.5835125e-008    +3.8925805e-008
+1.2800000e+002    +7.7698445e-008    +3.8950262e-008
+1.2900000e+002    +7.4773190e-008    +3.8275221e-008
+1.3000000e+002    +7.7920653e-008    +3.7808714e-008
+1.3100000e+002    +7.3864520e-008    +3.6035438e-008
+1.3200000e+002    +6.8103283e-008    +3.3414196e-008
+1.3300000e+002    +7.6039562e-008    +3.5328352e-008
+1.3400000e+002    +7.5230474e-008    +3.5265412e-008
+1.3500000e+002    +7.0118766e-008    +3.5827135e-008
+1.3600000e+002    +7.3042635e-008    +3.5671778e-008
+1.3700000e+002    +7.7549380e-008    +3.7341291e-008
+1.3800000e+002    +7.5162610e-008    +3.8007414e-008
+1.3900000e+002    +7.5895684e-008    +3.4647158e-008
+1.4000000e+002    +8.8427157e-008    +3.7992059e-008
+1.4100000e+002    +1.0227522e-007    +3.9466801e-008
+1.4200000e+002    +1.2136969e-007    +3.6292377e-008
+1.4300000e+002    +1.7184654e-007    +3.8102929e-008
+1.4400000e+002    +2.9005290e-007    +3.4505970e-008
+1.4500000e+002    +4.4120551e-007    +3.5679495e-008
+1.4600000e+002    +5.9126336e-007    +3.5846849e-008
+1.4700000e+002    +4.9679528e-007    +3.6557008e-008
+1.4800000e+002    +3.1405483e-007    +3.4945497e-008
+1.4900000e+002    +1.8052820e-007    +3.5169982e-008
+1.5000000e+002    +1.1584292e-007    +3.7694893e-008
+1.5100000e+002    +9.4995201e-008    +3.9250086e-008
+1.5200000e+002    +8.2440486e-008    +4.0101039e-008
+1.5300000e+002    +7.1734746e-008    +3.6091940e-008
+1.5400000e+002    +9.0497664e-008    +3.6201676e-008
+1.5500000e+002    +9.8643099e-008    +3.5683687e-008
+1.5600000e+002    +7.7441918e-008    +3.4798166e-008
+1.5700000e+002    +7.6904541e-008    +3.3914915e-008
+1.5800000e+002    +7.9630361e-008    +3.4329872e-008
+1.5900000e+002    +6.7541514e-008    +3.4301276e-008
+1.6000000e+002    +6.4845970e-008    +3.5233136e-008
+1.6100000e+002    +6.8778000e-008    +3.4943540e-008
+1.6200000e+002    +6.8194865e-008    +3.3371080e-008
+1.6300000e+002    +6.1160819e-008    +3.5066183e-008
+1.6400000e+002    +6.0217495e-008    +3.3229878e-008
+1.6500000e+002    +6.2200748e-008    +3.6196550e-008
+1.6600000e+002    +6.5844873e-008    +3.5645037e-008
+1.6700000e+002    +6.2448322e-008    +3.3232212e-008
+1.6800000e+002    +6.5034776e-008    +3.2865866e-008
+1.6900000e+002    +6.3617485e-008    +3.3928288e-008
+1.7000000e+002    +6.2006343e-008    +3.6471132e-008
+1.7100000e+002    +6.5224128e-008    +3.8887318e-008
+1.7200000e+002    +6.3413850e-008    +3.6084728e-008
+1.7300000e+002    +6.1598662e-008    +3.4895461e-008
+1.7400000e+002    +6.2980455e-008    +3.2210007e-008
+1.7500000e+002    +5.9151400e-008    +3.0436659e-008
+1.7600000e+002    +6.2047206e-008    +3.1290867e-008
+1.7700000e+002    +6.3302338e-008    +3.3491588e-008
+1.7800000e+002    +5.9972045e-008    +3.4245957e-008
+1.7900000e+002    +4.1013647e-007    +5.5707783e-008
+1.8000000e+002    +7.9769063e-007    +8.8867871e-008
+1.8100000e+002    +4.0040061e-007    +5.3923213e-008
+1.8200000e+002    +6.2578664e-008    +3.5621056e-008
+1.8300000e+002    +5.7826501e-008    +3.4186375e-008
+1.8400000e+002    +5.6212219e-008    +3.5716653e-008
+1.8500000e+002    +5.6525693e-008    +3.4526170e-008
+1.8600000e+002    +5.7034026e-008    +3.4629434e-008
+1.8700000e+002    +5.7265442e-008    +3.3475079e-008
+1.8800000e+002    +5.7786579e-008    +3.4923097e-008
+1.8900000e+002    +5.7221822e-008    +3.5356095e-008
+1.9000000e+002    +5.3254524e-008    +3.5218669e-008
+1.9100000e+002    +5.7493754e-008    +3.4153622e-008
+1.9200000e+002    +6.1761334e-008    +3.0500789e-008
+1.9300000e+002    +5.7284055e-008    +3.0968664e-008
+1.9400000e+002    +5.7189038e-008    +3.6859205e-008
+1.9500000e+002    +5.9931367e-008    +3.4846760e-008
+1.9600000e+002    +5.7499182e-008    +3.2730071e-008
+1.9700000e+002    +5.3390057e-008    +3.4995143e-008
+1.9800000e+002    +5.3412045e-008    +3.6609585e-008
+1.9900000e+002    +5.6333626e-008    +3.5444753e-008
+2.0000000e+002    +5.6545680e-008    +3.5885837e-008
+2.0100000e+002    +5.6145971e-008    +3.5664261e-008
+2.0200000e+002    +6.0390704e-008    +3.4266005e-008
+2.0300000e+002    +5.8009007e-008    +3.3665788e-008
+2.0400000e+002    +5.8393958e-008    +3.5447439e-008
+2.0500000e+002    +5.9259438e-008    +3.3273214e-008
+2.0600000e+002    +5.3209636e-008    +3.1852309e-008
+2.0700000e+002    +5.0947154e-008    +3.6881104e-008
+2.0800000e+002    +5.1821385e-008    +3.4866279e-008
+2.0900000e+002    +5.2134752e-008    +3.3352105e-008
+2.1000000e+002    +5.3860138e-008    +3.3568160e-008
+2.1100000e+002    +5.7234264e-008    +3.7819923e-008
+2.1200000e+002    +5.6132350e-008    +4.0847279e-008
+2.1300000e+002    +5.4738113e-008    +3.9714269e-008
+2.1400000e+002    +5.3086101e-008    +3.5650793e-008
+2.1500000e+002    +5.2251369e-008    +3.2828108e-008
+2.1600000e+002    +5.9898341e-008    +3.4663330e-008
+2.1700000e+002    +1.0322466e-007    +3.5901600e-008
+2.1800000e+002    +9.6689796e-008    +3.9291564e-008
+2.1900000e+002    +5.6095875e-008    +3.8653237e-008
+2.2000000e+002    +5.4000353e-008    +3.6475218e-008
+2.2100000e+002    +5.7168947e-008    +3.6413077e-008
+2.2200000e+002    +5.3679720e-008    +3.8174704e-008
+2.2300000e+002    +5.5400303e-008    +3.7105472e-008
+2.2400000e+002    +5.8743524e-008    +3.2707653e-008
+2.2500000e+002    +5.5355798e-008    +3.9578456e-008
+2.2600000e+002    +5.1611121e-008    +4.2889258e-008
+2.2700000e+002    +5.5041376e-008    +3.9230180e-008
+2.2800000e+002    +5.4308291e-008    +3.8047496e-008
+2.2900000e+002    +5.3694457e-008    +3.6919840e-008
+2.3000000e+002    +5.4946756e-008    +3.4632286e-008
+2.3100000e+002    +5.6476313e-008    +3.6759097e-008
+2.3200000e+002    +5.5424824e-008    +3.5317957e-008
+2.3300000e+002    +5.9003703e-008    +3.8293251e-008
+2.3400000e+002    +5.4481550e-008    +3.5970253e-008
+2.3500000e+002    +5.4906170e-008    +3.1668083e-008
+2.3600000e+002    +5.7399205e-008    +3.5092526e-008
+2.3700000e+002    +6.0662572e-008    +4.0553772e-008
+2.3800000e+002    +5.7237404e-008    +3.9042014e-008
+2.3900000e+002    +6.6841331e-008    +3.5992731e-008
+2.4000000e+002    +9.0982759e-008    +3.7589750e-008
+2.4100000e+002    +6.8081746e-008    +3.6360820e-008
+2.4200000e+002    +6.0127185e-008    +3.8709000e-008
+2.4300000e+002    +6.2673827e-008    +4.1333394e-008
+2.4400000e+002    +6.4520627e-008    +3.8091301e-008
+2.4500000e+002    +6.3667372e-008    +3.7156841e-008
+2.4600000e+002    +6.1649139e-008    +3.5809084e-008
+2.4700000e+002    +5.8758232e-008    +3.5089830e-008
+2.4800000e+002    +5.8968084e-008    +3.3682316e-008
+2.4900000e+002    +6.0054802e-008    +3.7074525e-008
+2.5000000e+002    +6.0753628e-008    +3.7509931e-008
+2.5100000e+002    +6.8064857e-008    +3.7240937e-008
+2.5200000e+002    +8.0508784e-008    +3.7945494e-008
+2.5300000e+002    +7.0991881e-008    +3.8572178e-008
+2.5400000e+002    +7.4488938e-008    +3.6301621e-008
+2.5500000e+002    +7.7680788e-008    +3.4445975e-008
+2.5600000e+002    +8.7465892e-008    +3.7751470e-008
+2.5700000e+002    +1.0045405e-007    +4.1471360e-008
+2.5800000e+002    +1.0875660e-007    +4.1137671e-008
+2.5900000e+002    +1.0578685e-007    +3.9548571e-008
+2.6000000e+002    +9.8280509e-008    +3.6452477e-008
+2.6100000e+002    +1.0599392e-007    +4.0760767e-008
+2.6200000e+002    +1.1790876e-007    +3.8884927e-008
+2.6300000e+002    +1.3847512e-007    +3.8518596e-008
+2.6400000e+002    +1.6848216e-007    +4.1216563e-008
+2.6500000e+002    +1.7142480e-007    +4.2529731e-008
+2.6600000e+002    +1.6063991e-007    +4.2269313e-008
+2.6700000e+002    +1.6055316e-007    +3.8587679e-008
+2.6800000e+002    +2.1506611e-007    +3.4323843e-008
+2.6900000e+002    +2.2618588e-007    +3.5312993e-008
+2.7000000e+002    +2.4782059e-007    +3.9214246e-008
+2.7100000e+002    +3.4033164e-007    +3.7135756e-008
+2.7200000e+002    +3.7269081e-007    +4.1198781e-008
+2.7300000e+002    +3.1414137e-007    +3.9086537e-008
+2.7400000e+002    +3.8178055e-007    +3.6833757e-008
+2.7500000e+002    +6.0444239e-007    +4.0493930e-008
+2.7600000e+002    +6.2751502e-007    +3.9562163e-008
+2.7700000e+002    +7.9664295e-007    +3.7797133e-008
+2.7800000e+002    +1.0085056e-006    +3.6329691e-008
+2.7900000e+002    +9.8809596e-007    +3.6511079e-008
+2.8000000e+002    +7.3201517e-007    +3.9653312e-008
+2.8100000e+002    +4.7565584e-007    +4.4596870e-008
+2.8200000e+002    +4.9650902e-007    +4.4441286e-008
+2.8300000e+002    +4.2691323e-007    +4.0194355e-008
+2.8400000e+002    +3.2038452e-007    +4.0994468e-008
+2.8500000e+002    +3.3217839e-007    +3.8134697e-008
+2.8600000e+002    +3.0954214e-007    +3.9346389e-008
+2.8700000e+002    +2.6738022e-007    +4.1164419e-008
+2.8800000e+002    +2.0475318e-007    +3.9854442e-008
+2.8900000e+002    +1.7243850e-007    +3.9175514e-008
+2.9000000e+002    +1.7636515e-007    +4.2961791e-008
+2.9100000e+002    +1.8461452e-007    +4.3659814e-008
+2.9200000e+002    +1.8621095e-007    +4.5802850e-008
+2.9300000e+002    +1.5039676e-007    +4.7158050e-008
+2.9400000e+002    +1.2740723e-007    +4.3937963e-008
+2.9500000e+002    +1.1910190e-007    +4.0574307e-008
+2.9600000e+002    +1.0573797e-007    +3.9349718e-008
+2.9700000e+002    +9.3471414e-008    +4.1238064e-008
+2.9800000e+002    +9.5217203e-008    +4.0982226e-008
+2.9900000e+002    +1.1565406e-007    +4.5361485e-008
+3.0000000e+002    +1.7424809e-007    +4.9426429e-008
+3.0100000e+002    +1.0732836e-007    +4.3718671e-008
+3.0200000e+002    +6.9626552e-008    +4.2988972e-008
+3.0300000e+002    +7.3156521e-008    +4.1078362e-008
+3.0400000e+002    +6.7707013e-008    +4.2867178e-008
+3.0500000e+002    +6.6387720e-008    +4.1822997e-008
+3.0600000e+002    +6.5989987e-008    +4.1809038e-008
+3.0700000e+002    +7.6347007e-008    +3.9751612e-008
+3.0800000e+002    +6.4005484e-008    +4.4913918e-008
+3.0900000e+002    +5.1508259e-008    +4.3368185e-008
+3.1000000e+002    +6.2062057e-008    +4.4187743e-008
+3.1100000e+002    +6.2160666e-008    +4.5448576e-008
+3.1200000e+002    +6.4795721e-008    +4.5292605e-008
+3.1300000e+002    +6.5072200e-008    +4.6058375e-008
+3.1400000e+002    +5.6864078e-008    +4.7521212e-008
+3.1500000e+002    +5.5173519e-008    +4.7580418e-008
+3.1600000e+002    +5.5142390e-008    +4.3949203e-008
+3.1700000e+002    +5.5946224e-008    +4.2328480e-008
+3.1800000e+002    +5.8554335e-008    +4.6017938e-008
+3.1900000e+002    +5.8560122e-008    +4.8096098e-008
+3.2000000e+002    +5.6537612e-008    +4.6714707e-008
+3.2100000e+002    +5.1656926e-008    +4.6920217e-008
+3.2200000e+002    +5.1574865e-008    +4.5571397e-008
+3.2300000e+002    +5.1440779e-008    +4.3382332e-008
+3.2400000e+002    +5.0559645e-008    +4.4504130e-008
+3.2500000e+002    +5.2503946e-008    +4.6174986e-008
+3.2600000e+002    +5.7503854e-008    +4.4820517e-008
+3.2700000e+002    +5.2159372e-008    +4.3101643e-008
+3.2800000e+002    +5.3478296e-008    +4.5137568e-008
+3.2900000e+002    +5.6096184e-008    +4.3667917e-008
+3.3000000e+002    +5.3634004e-008    +4.6814574e-008
+3.3100000e+002    +5.0221491e-008    +4.7085102e-008
+3.3200000e+002    +4.8977888e-008    +4.4277105e-008
+3.3300000e+002    +5.2803003e-008    +4.4315332e-008
+3.3400000e+002    +5.2634334e-008    +4.4225892e-008
+3.3500000e+002    +4.4168583e-008    +4.6770850e-008
+3.3600000e+002    +4.4438018e-008    +4.8865573e-008
+3.3700000e+002    +5.0603518e-008    +5.1169376e-008
+3.3800000e+002    +5.0496347e-008    +5.3812670e-008
+3.3900000e+002    +4.9173700e-008    +5.1466255e-008
+3.4000000e+002    +4.9746177e-008    +4.3288882e-008
+3.4100000e+002    +4.8684669e-008    +4.6676611e-008
+3.4200000e+002    +4.9645340e-008    +4.8230945e-008
+3.4300000e+002    +5.2018738e-008    +4.7372588e-008
+3.4400000e+002    +5.0234174e-008    +4.9037563e-008
+3.4500000e+002    +5.1646435e-008    +4.7364836e-008
+3.4600000e+002    +4.9059643e-008    +4.7251760e-008
+3.4700000e+002    +5.1527039e-008    +5.0738766e-008
+3.4800000e+002    +5.1997155e-008    +5.0656439e-008
+3.4900000e+002    +5.3268675e-008    +5.0688875e-008
+3.5000000e+002    +5.6054439e-008    +4.8628042e-008
+3.5100000e+002    +5.6905048e-008    +5.0097135e-008
+3.5200000e+002    +6.5826228e-008    +4.8136407e-008
+3.5300000e+002    +7.6272350e-008    +4.8579000e-008
+3.5400000e+002    +7.0454540e-008    +4.9570939e-008
+3.5500000e+002    +5.9093949e-008    +4.7781448e-008
+3.5600000e+002    +5.5879493e-008    +5.4747613e-008
+3.5700000e+002    +5.4496507e-008    +5.4746650e-008
+3.5800000e+002    +5.3034835e-008    +5.0396757e-008
+3.5900000e+002    +5.8407295e-008    +4.9103832e-008
+3.6000000e+002    +6.4590587e-008    +5.2338532e-008
+3.6100000e+002    +5.7076999e-008    +4.8261246e-008
+3.6200000e+002    +5.1547410e-008    +4.6959130e-008
+3.6300000e+002    +4.9667424e-008    +5.2017025e-008
+3.6400000e+002    +4.8771398e-008    +5.2283507e-008
+3.6500000e+002    +4.6149086e-008    +5.1938727e-008
+3.6600000e+002    +4.3609607e-008    +4.9109815e-008
+3.6700000e+002    +4.5777508e-008    +5.0545601e-008
+3.6800000e+002    +4.4298741e-008    +5.2413519e-008
+3.6900000e+002    +4.6161198e-008    +5.3764953e-008
+3.7000000e+002    +4.4978123e-008    +4.9153297e-008
+3.7100000e+002    +4.4482391e-008    +5.1056688e-008
+3.7200000e+002    +4.5388237e-008    +5.3459683e-008
+3.7300000e+002    +4.7199233e-008    +5.5804875e-008
+3.7400000e+002    +4.7914625e-008    +5.3935409e-008
+3.7500000e+002    +5.4700806e-008    +4.9470298e-008
+3.7600000e+002    +5.1132758e-008    +5.3811608e-008
+3.7700000e+002    +5.2216041e-008    +5.9938010e-008
+3.7800000e+002    +5.2549971e-008    +5.8743911e-008
+3.7900000e+002    +4.9748905e-008    +5.3208353e-008
+3.8000000e+002    +4.6765205e-008    +5.4300781e-008
+3.8100000e+002    +4.5462151e-008    +5.7145037e-008
+3.8200000e+002    +4.5573952e-008    +5.5178365e-008
+3.8300000e+002    +4.2847603e-008    +5.5189879e-008
+3.8400000e+002    +4.3276003e-008    +6.0665570e-008
+3.8500000e+002    +4.5157940e-008    +5.4582316e-008
+3.8600000e+002    +4.7138226e-008    +5.4740880e-008
+3.8700000e+002    +4.3857135e-008    +5.7826501e-008
+3.8800000e+002    +4.5606438e-008    +5.6975942e-008
+3.8900000e+002    +4.8516743e-008    +5.5465062e-008
+3.9000000e+002    +4.9464649e-008    +5.5124595e-008
+3.9100000e+002    +5.0448410e-008    +5.6741712e-008
+3.9200000e+002    +5.0524296e-008    +5.5111524e-008
+3.9300000e+002    +4.5899810e-008    +5.3251892e-008
+3.9400000e+002    +4.4869704e-008    +5.2600306e-008
+3.9500000e+002    +5.0363290e-008    +5.2262845e-008
+3.9600000e+002    +4.8395172e-008    +5.8971256e-008
+3.9700000e+002    +4.6634760e-008    +5.5201028e-008
+3.9800000e+002    +4.2589029e-008    +5.8449185e-008
+3.9900000e+002    +4.3911342e-008    +5.5722772e-008
+4.0000000e+002    +4.8652982e-008    +5.3690741e-008
+4.0100000e+002    +5.1853711e-008    +5.3239265e-008
+4.0200000e+002    +5.0025736e-008    +5.5700383e-008
+4.0300000e+002    +5.0316256e-008    +5.8029393e-008
+4.0400000e+002    +4.5334449e-008    +6.4453431e-008
+4.0500000e+002    +4.5921837e-008    +6.0115298e-008
+4.0600000e+002    +4.6832671e-008    +5.5659854e-008
+4.0700000e+002    +4.9763493e-008    +5.6976319e-008
+4.0800000e+002    +5.2273748e-008    +6.0585364e-008
+4.0900000e+002    +4.4969379e-008    +5.9246233e-008
+4.1000000e+002    +4.2163816e-008    +6.1098532e-008
+4.1100000e+002    +4.1506205e-008    +6.2871912e-008
+4.1200000e+002    +4.1832962e-008    +6.3849242e-008
+4.1300000e+002    +4.5348987e-008    +6.2811196e-008
+4.1400000e+002    +4.2718426e-008    +5.8278282e-008
+4.1500000e+002    +3.9409340e-008    +6.0617829e-008
+4.1600000e+002    +4.1994305e-008    +6.4519142e-008
+4.1700000e+002    +4.2194383e-008    +6.4499872e-008
+4.1800000e+002    +4.0175824e-008    +6.0632544e-008
+4.1900000e+002    +9.9602346e-008    +5.6722588e-008
+4.2000000e+002    +1.6951327e-007    +6.1804542e-008
+4.2100000e+002    +9.0512174e-008    +6.8444280e-008
+4.2200000e+002    +4.2594312e-008    +6.7108488e-008
+4.2300000e+002    +4.6100975e-008    +6.5143617e-008
+4.2400000e+002    +4.7355268e-008    +6.5158140e-008
+4.2500000e+002    +4.2256275e-008    +6.2064650e-008
+4.2600000e+002    +4.2252562e-008    +6.1467119e-008
+4.2700000e+002    +4.2791562e-008    +6.7247669e-008
+4.2800000e+002    +3.9604927e-008    +6.3324165e-008
+4.2900000e+002    +4.4046011e-008    +5.9722673e-008
+4.3000000e+002    +4.1423075e-008    +6.4483871e-008
+4.3100000e+002    +4.3037566e-008    +6.5606514e-008
+4.3200000e+002    +4.7674963e-008    +6.2828164e-008
+4.3300000e+002    +4.4239879e-008    +6.6477220e-008
+4.3400000e+002    +1.0814516e-007    +6.5993753e-008
+4.3500000e+002    +1.4712160e-007    +6.5017851e-008
+4.3600000e+002    +7.1512908e-008    +6.6758972e-008
+4.3700000e+002    +6.5007931e-008    +6.2556339e-008
+4.3800000e+002    +5.6336965e-008    +6.7270783e-008
+4.3900000e+002    +5.8559994e-008    +6.8105450e-008
+4.4000000e+002    +6.3446166e-008    +7.2077626e-008
+4.4100000e+002    +6.7167164e-008    +7.6434318e-008
+4.4200000e+002    +6.8509920e-008    +7.8952006e-008
+4.4300000e+002    +7.1858906e-008    +6.8658039e-008
+4.4400000e+002    +7.9604924e-008    +6.6059577e-008
+4.4500000e+002    +6.0304302e-008    +6.7530685e-008
+4.4600000e+002    +5.2287525e-008    +6.4235067e-008
+4.4700000e+002    +4.8164427e-008    +6.0620827e-008
+4.4800000e+002    +4.4357293e-008    +6.7318446e-008
+4.4900000e+002    +4.4922992e-008    +6.7381670e-008
+4.5000000e+002    +4.4982862e-008    +6.6788296e-008
+4.5100000e+002    +4.3933330e-008    +6.5407932e-008
+4.5200000e+002    +4.1373941e-008    +6.9339926e-008
+4.5300000e+002    +4.0914024e-008    +7.0257862e-008
+4.5400000e+002    +4.1168803e-008    +6.8792652e-008
+4.5500000e+002    +3.8934868e-008    +6.8343731e-008
+4.5600000e+002    +4.0662428e-008    +6.8995149e-008
+4.5700000e+002    +4.3435140e-008    +7.4154528e-008
+4.5800000e+002    +4.0233033e-008    +7.3271394e-008
+4.5900000e+002    +3.9309644e-008    +7.6762397e-008
+4.6000000e+002    +3.8798184e-008    +7.8384012e-008
+4.6100000e+002    +4.2829637e-008    +7.5618289e-008
+4.6200000e+002    +4.3537650e-008    +7.5259805e-008
+4.6300000e+002    +4.1979693e-008    +7.6686156e-008
+4.6400000e+002    +3.9149974e-008    +7.0487424e-008
+4.6500000e+002    +3.5037282e-008    +6.8533318e-008
+4.6600000e+002    +3.5537653e-008    +7.3312108e-008
+4.6700000e+002    +3.8115314e-008    +7.3030044e-008
+4.6800000e+002    +3.8583739e-008    +7.7186492e-008
+4.6900000e+002    +3.9880312e-008    +7.5837043e-008
+4.7000000e+002    +4.0608757e-008    +7.7508524e-008
+4.7100000e+002    +3.7835331e-008    +7.6673615e-008
+4.7200000e+002    +4.0034564e-008    +6.9114336e-008
+4.7300000e+002    +4.2269779e-008    +6.9494803e-008
+4.7400000e+002    +4.0946649e-008    +7.4082919e-008
+4.7500000e+002    +4.3082718e-008    +7.0184619e-008
+4.7600000e+002    +4.1297238e-008    +6.9464669e-008
+4.7700000e+002    +4.4909676e-008    +6.9569310e-008
+4.7800000e+002    +4.7495444e-008    +7.7828737e-008
+4.7900000e+002    +6.0499211e-008    +8.2895681e-008
+4.8000000e+002    +9.5446119e-008    +7.9354734e-008
+4.8100000e+002    +6.2283981e-008    +8.0978197e-008
+4.8200000e+002    +4.4560210e-008    +8.0918561e-008
+4.8300000e+002    +4.8627083e-008    +7.4023077e-008
+4.8400000e+002    +5.4719546e-008    +7.9760042e-008
+4.8500000e+002    +5.5289711e-008    +7.7083335e-008
+4.8600000e+002    +5.4559070e-008    +7.5280958e-008
+4.8700000e+002    +5.8843774e-008    +7.9007073e-008
+4.8800000e+002    +6.1508572e-008    +7.7346066e-008
+4.8900000e+002    +6.7552932e-008    +8.4513601e-008
+4.9000000e+002    +6.9430051e-008    +8.3498293e-008
+4.9100000e+002    +7.2475125e-008    +8.2512116e-008
+4.9200000e+002    +7.4156404e-008    +7.5308733e-008
+4.9300000e+002    +7.4949419e-008    +7.5028460e-008
+4.9400000e+002    +6.7576302e-008    +8.2778804e-008
+4.9500000e+002    +6.5723171e-008    +7.9659657e-008
+4.9600000e+002    +6.3037596e-008    +7.9698943e-008
+4.9700000e+002    +7.1343038e-008    +8.5675673e-008
+4.9800000e+002    +6.8535499e-008    +7.7562071e-008
+4.9900000e+002    +8.1034052e-008    +7.4052991e-008
+5.0000000e+002    +7.8156368e-008    +8.0694271e-008
+5.0100000e+002    +6.7207736e-008    +8.3118515e-008
+5.0200000e+002    +6.5301734e-008    +7.8370931e-008
+5.0300000e+002    +6.6073575e-008    +8.2206924e-008
+5.0400000e+002    +6.9788193e-008    +8.4291287e-008
+5.0500000e+002    +7.4846625e-008    +8.6207102e-008
+5.0600000e+002    +7.8927741e-008    +8.6271491e-008
+5.0700000e+002    +9.1555052e-008    +8.4454328e-008
+5.0800000e+002    +1.0327918e-007    +8.8265651e-008
+5.0900000e+002    +1.0506606e-007    +8.3441655e-008
+5.1000000e+002    +1.0439314e-007    +9.1089113e-008
+5.1100000e+002    +1.1679411e-007    +9.2564306e-008
+5.1200000e+002    +9.9208556e-008    +8.4323311e-008
+5.1300000e+002    +8.7657114e-008    +8.7949992e-008
+5.1400000e+002    +8.7280071e-008    +8.8844651e-008
+5.1500000e+002    +7.4898743e-008    +8.0303174e-008
+5.1600000e+002    +6.3284688e-008    +8.2554706e-008
+5.1700000e+002    +5.6272487e-008    +8.6825878e-008
+5.1800000e+002    +4.7333906e-008    +8.6133213e-008
+5.1900000e+002    +5.0246971e-008    +8.8818318e-008
+5.2000000e+002    +4.6809177e-008    +8.8559197e-008
+5.2100000e+002    +4.5990006e-008    +8.7160849e-008
+5.2200000e+002    +4.1411433e-008    +8.3259629e-008
+5.2300000e+002    +3.9777504e-008    +8.7200952e-008
+5.2400000e+002    +4.0585579e-008    +8.7295028e-008
+5.2500000e+002    +4.4047606e-008    +8.9935043e-008
+5.2600000e+002    +4.7012318e-008    +8.4125141e-008
+5.2700000e+002    +4.7324185e-008    +8.3313950e-008
+5.2800000e+002    +5.5049291e-008    +8.4079247e-008
+5.2900000e+002    +6.6084752e-008    +8.6558408e-008
+5.3000000e+002    +8.8441915e-008    +8.5559385e-008
+5.3100000e+002    +1.0445701e-007    +8.6519165e-008
+5.3200000e+002    +1.2430037e-007    +8.7157119e-008
+5.3300000e+002    +1.4396187e-007    +8.7801695e-008
+5.3400000e+002    +1.4778198e-007    +8.4417522e-008
+5.3500000e+002    +1.5501676e-007    +8.8831094e-008
+5.3600000e+002    +1.7024499e-007    +8.7721332e-008
+5.3700000e+002    +1.6500039e-007    +9.4272863e-008
+5.3800000e+002    +1.5057867e-007    +1.0020289e-007
+5.3900000e+002    +1.2455489e-007    +9.5783420e-008
+5.4000000e+002    +1.1506042e-007    +9.0599173e-008
+5.4100000e+002    +1.0708988e-007    +9.2435016e-008
+5.4200000e+002    +9.4209121e-008    +9.5216365e-008
+5.4300000e+002    +9.1700024e-008    +8.8363976e-008
+5.4400000e+002    +9.6935338e-008    +9.2524779e-008
+5.4500000e+002    +9.3085205e-008    +9.4587740e-008
+5.4600000e+002    +1.0445243e-007    +9.0874039e-008
+5.4700000e+002    +1.3680418e-007    +9.1516057e-008
+5.4800000e+002    +2.4229240e-007    +9.5926552e-008
+5.4900000e+002    +4.5589917e-007    +1.0045802e-007
+5.5000000e+002    +7.9104552e-007    +9.5598189e-008
+5.5100000e+002    +1.2111331e-006    +8.8297732e-008
+5.5200000e+002    +1.4827167e-006    +9.1492446e-008
+5.5300000e+002    +1.9952215e-006    +9.6494972e-008
+5.5400000e+002    +2.1232988e-006    +1.0097687e-007
+5.5500000e+002    +9.7934844e-007    +9.5609735e-008
+5.5600000e+002    +5.6996339e-007    +1.0267531e-007
+5.5700000e+002    +4.9221723e-007    +1.0153452e-007
+5.5800000e+002    +4.2355725e-007    +9.5208314e-008
+5.5900000e+002    +3.7064106e-007    +9.7369593e-008
+5.6000000e+002    +3.0711152e-007    +1.0280583e-007
+5.6100000e+002    +2.4224133e-007    +9.8143026e-008
+5.6200000e+002    +2.1413211e-007    +1.0088578e-007
+5.6300000e+002    +1.9309515e-007    +9.8508352e-008
+5.6400000e+002    +1.7495606e-007    +1.0533958e-007
+5.6500000e+002    +1.6573246e-007    +9.8747996e-008
+5.6600000e+002    +1.4356489e-007    +1.0287199e-007
+5.6700000e+002    +1.1197164e-007    +1.0343829e-007
+5.6800000e+002    +9.9725774e-008    +9.5294389e-008
+5.6900000e+002    +9.1756320e-008    +9.3849536e-008
+5.7000000e+002    +9.2411476e-008    +1.0266201e-007
+5.7100000e+002    +1.0169742e-007    +1.0406013e-007
+5.7200000e+002    +1.1127710e-007    +1.1713791e-007
+5.7300000e+002    +1.1937277e-007    +1.1170113e-007
+5.7400000e+002    +1.4471495e-007    +1.0251479e-007
+5.7500000e+002    +1.6748251e-007    +9.8871240e-008
+5.7600000e+002    +1.7920662e-007    +1.0311172e-007
+5.7700000e+002    +2.0543008e-007    +1.0772315e-007
+5.7800000e+002    +2.5961884e-007    +1.1616388e-007
+5.7900000e+002    +3.1470168e-007    +1.1544346e-007
+5.8000000e+002    +3.3110240e-007    +9.9909791e-008
+5.8100000e+002    +3.0676912e-007    +1.0125120e-007
+5.8200000e+002    +2.6090933e-007    +1.0713916e-007
+5.8300000e+002    +2.4740299e-007    +1.0155404e-007
+5.8400000e+002    +1.9350625e-007    +1.0134262e-007
+5.8500000e+002    +1.7398274e-007    +1.0810325e-007
+5.8600000e+002    +1.4557040e-007    +1.1669631e-007
+5.8700000e+002    +1.1232861e-007    +1.1620100e-007
+5.8800000e+002    +8.9271765e-008    +9.9750196e-008
+5.8900000e+002    +7.4987611e-008    +1.0019717e-007
+5.9000000e+002    +6.1704732e-008    +1.0905661e-007
+5.9100000e+002    +5.3279496e-008    +1.1861161e-007
+5.9200000e+002    +5.0549986e-008    +1.0714339e-007
+5.9300000e+002    +5.4266092e-008    +1.0193956e-007
+5.9400000e+002    +5.0366278e-008    +1.0242130e-007
+5.9500000e+002    +4.7755641e-008    +1.0090904e-007
+5.9600000e+002    +5.0328797e-008    +9.7940436e-008
+5.9700000e+002    +5.2397237e-008    +1.1067238e-007
+5.9800000e+002    +5.2097558e-008    +1.0693726e-007
+5.9900000e+002    +5.7486051e-008    +1.0573704e-007
+6.0000000e+002    +7.4198184e-008    +1.1775855e-007
+6.0100000e+002    +8.2267604e-008    +1.1743770e-007
+6.0200000e+002    +1.2664991e-007    +1.1045775e-007
+6.0300000e+002    +1.8166755e-007    +1.1031680e-007
+6.0400000e+002    +2.4033258e-007    +1.1346091e-007
+6.0500000e+002    +3.2543198e-007    +1.1237820e-007
+6.0600000e+002    +2.6985140e-007    +1.1168935e-007
+6.0700000e+002    +1.3322848e-007    +1.1018316e-007
+6.0800000e+002    +6.3846230e-008    +1.0538007e-007
+6.0900000e+002    +4.8933973e-008    +1.1522869e-007
+6.1000000e+002    +4.0502869e-008    +1.0676386e-007
+6.1100000e+002    +3.8502911e-008    +1.1435552e-007
+6.1200000e+002    +3.8157271e-008    +1.0657494e-007
+6.1300000e+002    +3.8485243e-008    +1.0652792e-007
+6.1400000e+002    +3.8007162e-008    +1.1526375e-007
+6.1500000e+002    +4.0263792e-008    +1.0491897e-007
+6.1600000e+002    +4.7561457e-008    +1.0728041e-007
+6.1700000e+002    +3.7276322e-008    +1.1375230e-007
+6.1800000e+002    +3.7289094e-008    +1.1946442e-007
+6.1900000e+002    +3.8626339e-008    +1.2642400e-007
+6.2000000e+002    +3.5417990e-008    +1.1687044e-007
+6.2100000e+002    +3.5379628e-008    +1.1591111e-007
+6.2200000e+002    +3.8735827e-008    +1.1334077e-007
+6.2300000e+002    +3.9479978e-008    +1.1882081e-007
+6.2400000e+002    +3.7609649e-008    +1.1918561e-007
+6.2500000e+002    +3.8595562e-008    +1.2096778e-007
+6.2600000e+002    +3.7987306e-008    +1.0629833e-007
+6.2700000e+002    +3.5376015e-008    +1.1796406e-007
+6.2800000e+002    +3.6809379e-008    +1.2829862e-007
+6.2900000e+002    +3.8750162e-008    +1.2392412e-007
+6.3000000e+002    +4.0485617e-008    +1.3131152e-007
+6.3100000e+002    +3.7382065e-008    +1.2812858e-007
+6.3200000e+002    +3.8730640e-008    +1.3016417e-007
+6.3300000e+002    +3.9843329e-008    +1.3256704e-007
+6.3400000e+002    +3.8216765e-008    +1.2981650e-007
+6.3500000e+002    +3.8792347e-008    +1.2160953e-007
+6.3600000e+002    +3.9372321e-008    +1.1192137e-007
+6.3700000e+002    +3.9579628e-008    +1.1434835e-007
+6.3800000e+002    +3.6713800e-008    +1.2382185e-007
+6.3900000e+002    +3.8417905e-008    +1.2433749e-007
+6.4000000e+002    +4.0956451e-008    +1.2932782e-007
+6.4100000e+002    +4.0793722e-008    +1.3667896e-007
+6.4200000e+002    +4.3594429e-008    +1.2881311e-007
+6.4300000e+002    +4.6849795e-008    +1.1919713e-007
+6.4400000e+002    +6.2853900e-008    +1.1984739e-007
+6.4500000e+002    +8.6132459e-008    +1.3164180e-007
+6.4600000e+002    +1.0617784e-007    +1.3356974e-007
+6.4700000e+002    +9.4635105e-008    +1.2910408e-007
+6.4800000e+002    +7.4735439e-008    +1.2782155e-007
+6.4900000e+002    +6.6443285e-008    +1.3372750e-007
+6.5000000e+002    +6.4852664e-008    +1.3026197e-007
+6.5100000e+002    +6.4345180e-008    +1.3158906e-007
+6.5200000e+002    +6.7695709e-008    +1.2791210e-007
+6.5300000e+002    +6.2866249e-008    +1.2507400e-007
+6.5400000e+002    +6.3724791e-008    +1.3625343e-007
+6.5500000e+002    +6.6812355e-008    +1.3401441e-007
+6.5600000e+002    +6.7483839e-008    +1.2528606e-007
+6.5700000e+002    +5.0877450e-008    +1.2096991e-007
+6.5800000e+002    +4.4547445e-008    +1.3059764e-007
+6.5900000e+002    +5.3470604e-008    +1.2718165e-007
+6.6000000e+002    +6.9821688e-008    +1.2339881e-007
+6.6100000e+002    +5.1020038e-008    +1.2858095e-007
+6.6200000e+002    +4.2908994e-008    +1.3359909e-007
+6.6300000e+002    +3.9749430e-008    +1.4069255e-007
+6.6400000e+002    +4.0451891e-008    +1.3608792e-007
+6.6500000e+002    +4.2279062e-008    +1.2771241e-007
+6.6600000e+002    +4.3222535e-008    +1.3094942e-007
+6.6700000e+002    +4.3182073e-008    +1.3210978e-007
+6.6800000e+002    +4.3868404e-008    +1.3530082e-007
+6.6900000e+002    +4.4550085e-008    +1.3068973e-007
+6.7000000e+002    +4.6789086e-008    +1.3179684e-007
+6.7100000e+002    +4.5714724e-008    +1.3658895e-007
+6.7200000e+002    +4.5294893e-008    +1.3499574e-007
+6.7300000e+002    +4.5951694e-008    +1.4151007e-007
+6.7400000e+002    +4.8337398e-008    +1.3892038e-007
+6.7500000e+002    +4.7263381e-008    +1.2574912e-007
+6.7600000e+002    +4.6744312e-008    +1.2999907e-007
+6.7700000e+002    +4.4729127e-008    +1.3501753e-007
+6.7800000e+002    +4.6361016e-008    +1.2566258e-007
+6.7900000e+002    +4.9026472e-008    +1.2008724e-007
+6.8000000e+002    +5.2201369e-008    +1.2306110e-007
+6.8100000e+002    +4.8275449e-008    +1.3454842e-007
+6.8200000e+002    +4.8987783e-008    +1.3046422e-007
+6.8300000e+002    +5.0398086e-008    +1.3874296e-007
+6.8400000e+002    +5.3081148e-008    +1.5010410e-007
+6.8500000e+002    +5.3857772e-008    +1.4922922e-007
+6.8600000e+002    +5.6579839e-008    +1.3829870e-007
+6.8700000e+002    +6.3833262e-008    +1.2946379e-007
+6.8800000e+002    +5.2992167e-008    +1.3419744e-007
+6.8900000e+002    +5.4146167e-008    +1.3369858e-007
+6.9000000e+002    +5.7042229e-008    +1.4048786e-007
+6.9100000e+002    +6.7669333e-008    +1.3779474e-007
+6.9200000e+002    +7.5883683e-008    +1.2807260e-007
+6.9300000e+002    +8.3034870e-008    +1.3300281e-007
+6.9400000e+002    +1.0629506e-007    +1.4959521e-007
+6.9500000e+002    +1.0862485e-007    +1.4827965e-007
+6.9600000e+002    +8.7044079e-008    +1.3641269e-007
+6.9700000e+002    +9.0876036e-008    +1.4406069e-007
+6.9800000e+002    +6.7788982e-008    +1.4121626e-007
+6.9900000e+002    +6.6961583e-008    +1.4449489e-007
+7.0000000e+002    +7.5256004e-008    +1.5068535e-007
+7.0100000e+002    +7.3588240e-008    +1.5054032e-007
+7.0200000e+002    +6.9599260e-008    +1.4605116e-007
+7.0300000e+002    +7.2153718e-008    +1.3943323e-007
+7.0400000e+002    +7.1832083e-008    +1.3687630e-007
+7.0500000e+002    +6.9316329e-008    +1.4103017e-007
+7.0600000e+002    +7.0134163e-008    +1.4367353e-007
+7.0700000e+002    +7.0049431e-008    +1.4049542e-007
+7.0800000e+002    +7.1504900e-008    +1.3239554e-007
+7.0900000e+002    +6.6994964e-008    +1.3235906e-007
+7.1000000e+002    +7.5007868e-008    +1.4339238e-007
+7.1100000e+002    +8.0426531e-008    +1.4689128e-007
+7.1200000e+002    +7.9060960e-008    +1.4768383e-007
+7.1300000e+002    +9.3663729e-008    +1.5627093e-007
+7.1400000e+002    +1.0146587e-007    +1.5847255e-007
+7.1500000e+002    +1.0378264e-007    +1.5185343e-007
+7.1600000e+002    +9.7162946e-008    +1.5124327e-007
+7.1700000e+002    +8.4465455e-008    +1.5089793e-007
+7.1800000e+002    +8.2785533e-008    +1.4770070e-007
+7.1900000e+002    +8.2141696e-008    +1.4118602e-007
+7.2000000e+002    +8.0109260e-008    +1.4162245e-007
+7.2100000e+002    +8.2774172e-008    +1.3714271e-007
+7.2200000e+002    +7.3452384e-008    +1.2836951e-007
+7.2300000e+002    +6.8613424e-008    +1.3340603e-007
+7.2400000e+002    +6.2043050e-008    +1.4258214e-007
+7.2500000e+002    +5.8517699e-008    +1.4312388e-007
+7.2600000e+002    +5.9961046e-008    +1.4687934e-007
+7.2700000e+002    +5.1211924e-008    +1.4801630e-007
+7.2800000e+002    +4.2696762e-008    +1.5904550e-007
+7.2900000e+002    +4.4474870e-008    +1.5812840e-007
+7.3000000e+002    +4.3716511e-008    +1.5591222e-007
+7.3100000e+002    +4.3541764e-008    +1.5086148e-007
+7.3200000e+002    +4.5496108e-008    +1.4892625e-007
+7.3300000e+002    +4.5886758e-008    +1.4007308e-007
+7.3400000e+002    +4.1693291e-008    +1.4332109e-007
+7.3500000e+002    +4.0628827e-008    +1.4469001e-007
+7.3600000e+002    +4.2637829e-008    +1.4555553e-007
+7.3700000e+002    +4.1457611e-008    +1.4422909e-007
+7.3800000e+002    +3.7840067e-008    +1.4518109e-007
+7.3900000e+002    +4.1412115e-008    +1.5204563e-007
+7.4000000e+002    +4.3742393e-008    +1.4883683e-007
+7.4100000e+002    +4.6783075e-008    +1.5577926e-007
+7.4200000e+002    +4.8082896e-008    +1.4951985e-007
+7.4300000e+002    +4.6091309e-008    +1.4480666e-007
+7.4400000e+002    +5.0222372e-008    +1.5230928e-007
+7.4500000e+002    +4.9734815e-008    +1.6486221e-007
+7.4600000e+002    +4.8845134e-008    +1.5674416e-007
+7.4700000e+002    +5.0449962e-008    +1.5655806e-007
+7.4800000e+002    +5.4091441e-008    +1.5524671e-007
+7.4900000e+002    +5.5422269e-008    +1.6164255e-007
+7.5000000e+002    +6.2395827e-008    +1.6736799e-007
+7.5100000e+002    +5.9202016e-008    +1.6157105e-007
+7.5200000e+002    +5.2035819e-008    +1.6203508e-007
+7.5300000e+002    +4.7467815e-008    +1.5864420e-007
+7.5400000e+002    +4.1468169e-008    +1.5006685e-007
+7.5500000e+002    +4.3528761e-008    +1.6989468e-007
+7.5600000e+002    +4.8315854e-008    +1.7737048e-007
+7.5700000e+002    +4.7366086e-008    +1.7512153e-007
+7.5800000e+002    +4.6816218e-008    +1.7054808e-007
+7.5900000e+002    +4.7702819e-008    +1.7569468e-007
+7.6000000e+002    +4.4528129e-008    +1.6107845e-007
+7.6100000e+002    +4.2918888e-008    +1.5337221e-007
+7.6200000e+002    +4.2789260e-008    +1.5051140e-007
+7.6300000e+002    +4.6679073e-008    +1.5339090e-007
+7.6400000e+002    +4.7998714e-008    +1.7273885e-007
+7.6500000e+002    +4.6256986e-008    +1.7276712e-007
+7.6600000e+002    +4.0982272e-008    +1.6572118e-007
+7.6700000e+002    +4.2042700e-008    +1.5925431e-007
+7.6800000e+002    +4.3974495e-008    +1.5488423e-007
+7.6900000e+002    +4.0988617e-008    +1.6769522e-007
+7.7000000e+002    +3.5399289e-008    +1.7381167e-007
+7.7100000e+002    +3.5420868e-008    +1.6441427e-007
+7.7200000e+002    +3.6239975e-008    +1.6076007e-007
+7.7300000e+002    +3.7423298e-008    +1.5847237e-007
+7.7400000e+002    +3.8329006e-008    +1.6528905e-007
+7.7500000e+002    +3.6403723e-008    +1.5778311e-007
+7.7600000e+002    +3.5887055e-008    +1.6803860e-007
+7.7700000e+002    +3.6438671e-008    +1.6982810e-007
+7.7800000e+002    +3.6115804e-008    +1.6903896e-007
+7.7900000e+002    +4.2244444e-008    +1.5634060e-007
+7.8000000e+002    +5.2928844e-008    +1.5556100e-007
+7.8100000e+002    +4.0114820e-008    +1.5667052e-007
+7.8200000e+002    +3.4999946e-008    +1.6257395e-007
+7.8300000e+002    +3.4776050e-008    +1.6634938e-007
+7.8400000e+002    +3.4367737e-008    +1.5225946e-007
+7.8500000e+002    +3.6874628e-008    +1.6879859e-007
+7.8600000e+002    +3.9996078e-008    +1.7780042e-007
+7.8700000e+002    +4.3929472e-008    +1.7679109e-007
+7.8800000e+002    +4.0963425e-008    +1.6525603e-007
+7.8900000e+002    +3.5611905e-008    +1.6540125e-007
+7.9000000e+002    +3.8751949e-008    +1.7538996e-007
+7.9100000e+002    +3.5815376e-008    +1.6563550e-007
+7.9200000e+002    +3.6992510e-008    +1.6172208e-007
+7.9300000e+002    +3.5673345e-008    +1.7041798e-007
+7.9400000e+002    +3.7002302e-008    +1.8135445e-007
+7.9500000e+002    +3.6868837e-008    +1.7582242e-007
+7.9600000e+002    +3.8303806e-008    +1.7324922e-007
+7.9700000e+002    +3.6547174e-008    +1.7314939e-007
+7.9800000e+002    +3.7705902e-008    +1.6900091e-007
+7.9900000e+002    +3.7740072e-008    +1.6535040e-007
#
#
# North DC Val: 0.51648285 VoltsSouth DC Val: 0.5269698300000001 Volts
# SR785 Measurement - Timestamp: Sep 09 2020 - 05:41:11
# Parameter File: /home/controls/Git/cit_ctnlab/ctn_scripts/TransRINSpecShort.yml
#---------- Measurement Setup ------------
# Start Frequency (Hz): 0.000000
# Frequency Span (Hz): 102400.000000
# Frequency Resolution: 800
# Number of Averages: 100
# Averaging Mode: RMS
# Window function: Hanning
#---------- Measurement Parameters ----------
# Measurement Group:  "FFT" "FFT"
# Measurements:  "FFT 1" "FFT 2"
# View:  "Log Magnitude" "Log Magnitude"
# Unit:  "Vrms/rtHz" "Vrms/rtHz"
#---------- Input Parameters ----------
# Input Source: Analog
# Input Mode: Single ended, Single ended
# Input Grounding: Float, Float
# Input Coupling: AC, AC
# Input Range: -36.0dBVpk, -36.0dBVpk
# Auto Range: Off, Off
# Auto Range Mode: Tracking, Tracking
# Anti-Aliasing Filter: On, On
#---------- Source Parameters ----------
# Source Type: Sine
# Source Amplitude: 500.0mVpk
# Source On: 0

#---------- Measurement Data ----------
# [Freq(Hz) Display 0(Vrms/rtHz) Display 1(Vrms/rtHz) ]
+8.9600000e+002    +9.6003468e-008    +2.1676445e-007
+1.0240000e+003    +8.8122434e-008    +2.6717098e-007
+1.1520000e+003    +4.9401851e-008    +2.8205363e-007
+1.2800000e+003    +3.6589132e-008    +3.1139518e-007
+1.4080000e+003    +3.9660499e-008    +3.6915137e-007
+1.5360000e+003    +4.5286939e-008    +4.1362495e-007
+1.6640000e+003    +4.9176776e-008    +4.0551458e-007
+1.7920000e+003    +5.3386600e-008    +3.8262405e-007
+1.9200000e+003    +5.7948153e-008    +3.8050629e-007
+2.0480000e+003    +6.6493129e-008    +4.2147525e-007
+2.1760000e+003    +6.8551152e-008    +4.4850299e-007
+2.3040000e+003    +7.3763857e-008    +4.4258343e-007
+2.4320000e+003    +8.0305639e-008    +4.2371539e-007
+2.5600000e+003    +8.3024929e-008    +4.1443775e-007
+2.6880000e+003    +9.2371707e-008    +3.8868535e-007
+2.8160000e+003    +1.0509998e-007    +3.6508311e-007
+2.9440000e+003    +1.1485469e-007    +3.7128908e-007
+3.0720000e+003    +1.2562879e-007    +3.7161655e-007
+3.2000000e+003    +1.2718543e-007    +3.3244874e-007
+3.3280000e+003    +1.4089335e-007    +3.3301282e-007
+3.4560000e+003    +1.4915403e-007    +3.3492029e-007
+3.5840000e+003    +1.4243240e-007    +3.5116773e-007
+3.7120000e+003    +1.5190997e-007    +3.5087675e-007
+3.8400000e+003    +1.7720269e-007    +2.9206780e-007
+3.9680000e+003    +2.0780023e-007    +2.9654475e-007
+4.0960000e+003    +2.0811875e-007    +2.7623454e-007
+4.2240000e+003    +2.1066676e-007    +2.8787201e-007
+4.3520000e+003    +2.1480983e-007    +2.9648842e-007
+4.4800000e+003    +2.2345753e-007    +2.8751791e-007
+4.6080000e+003    +2.2456975e-007    +2.8397523e-007
+4.7360000e+003    +2.4513497e-007    +2.7475994e-007
+4.8640000e+003    +2.4548996e-007    +2.5811332e-007
+4.9920000e+003    +2.6386277e-007    +2.4754104e-007
+5.1200000e+003    +2.7536333e-007    +2.3406892e-007
+5.2480000e+003    +2.6664350e-007    +2.3688391e-007
+5.3760000e+003    +2.7213173e-007    +2.3402730e-007
+5.5040000e+003    +2.8916702e-007    +2.1473554e-007
+5.6320000e+003    +3.0154754e-007    +2.2345925e-007
+5.7600000e+003    +2.9831801e-007    +2.4969668e-007
+5.8880000e+003    +3.2466110e-007    +2.2002962e-007
+6.0160000e+003    +3.3528269e-007    +1.9868358e-007
+6.1440000e+003    +3.2939889e-007    +2.0176189e-007
+6.2720000e+003    +3.3593969e-007    +1.8833083e-007
+6.4000000e+003    +3.7176594e-007    +1.9957912e-007
+6.5280000e+003    +4.0889100e-007    +2.0343154e-007
+6.6560000e+003    +4.1800317e-007    +1.8568952e-007
+6.7840000e+003    +4.1640405e-007    +1.9292223e-007
+6.9120000e+003    +4.2266808e-007    +1.7108520e-007
+7.0400000e+003    +4.2088655e-007    +1.6659540e-007
+7.1680000e+003    +4.4270931e-007    +1.7220749e-007
+7.2960000e+003    +4.8112895e-007    +1.8069102e-007
+7.4240000e+003    +5.0544327e-007    +1.6880286e-007
+7.5520000e+003    +4.6729480e-007    +1.5100649e-007
+7.6800000e+003    +4.5662404e-007    +1.6588629e-007
+7.8080000e+003    +4.3947321e-007    +1.6864891e-007
+7.9360000e+003    +4.4269228e-007    +1.6006402e-007
+8.0640000e+003    +5.0668291e-007    +1.7207859e-007
+8.1920000e+003    +5.1027155e-007    +1.6122797e-007
+8.3200000e+003    +5.2832291e-007    +1.5783301e-007
+8.4480000e+003    +5.7476967e-007    +1.5920396e-007
+8.5760000e+003    +5.8962905e-007    +1.5761533e-007
+8.7040000e+003    +6.2095864e-007    +1.6578051e-007
+8.8320000e+003    +5.7237594e-007    +1.6945819e-007
+8.9600000e+003    +5.8982067e-007    +1.6691342e-007
+9.0880000e+003    +6.0089036e-007    +1.7085019e-007
+9.2160000e+003    +5.8198356e-007    +1.6900871e-007
+9.3440000e+003    +5.7030957e-007    +1.7251786e-007
+9.4720000e+003    +6.1500333e-007    +1.5605522e-007
+9.6000000e+003    +6.2922533e-007    +1.5471088e-007
+9.7280000e+003    +6.5432857e-007    +1.6290828e-007
+9.8560000e+003    +7.1801725e-007    +1.6668285e-007
+9.9840000e+003    +7.1878475e-007    +1.6212476e-007
+1.0112000e+004    +7.2426280e-007    +1.5518927e-007
+1.0240000e+004    +7.5189104e-007    +1.6568788e-007
+1.0368000e+004    +7.5409929e-007    +1.5777601e-007
+1.0496000e+004    +7.7778509e-007    +1.7012970e-007
+1.0624000e+004    +7.1646434e-007    +1.7579406e-007
+1.0752000e+004    +8.1341409e-007    +1.6039934e-007
+1.0880000e+004    +7.8671644e-007    +1.6117805e-007
+1.1008000e+004    +8.0074960e-007    +1.6761699e-007
+1.1136000e+004    +8.4930707e-007    +1.7291325e-007
+1.1264000e+004    +7.4620726e-007    +1.7200190e-007
+1.1392000e+004    +7.6016192e-007    +1.7509730e-007
+1.1520000e+004    +8.2356985e-007    +1.7731595e-007
+1.1648000e+004    +7.7268317e-007    +1.6788331e-007
+1.1776000e+004    +8.1807775e-007    +1.6710597e-007
+1.1904000e+004    +8.3768168e-007    +1.7805340e-007
+1.2032000e+004    +7.6679424e-007    +1.7440198e-007
+1.2160000e+004    +7.5448111e-007    +1.7533509e-007
+1.2288000e+004    +8.0018538e-007    +1.7830088e-007
+1.2416000e+004    +7.9067644e-007    +1.7727703e-007
+1.2544000e+004    +7.3699096e-007    +1.8693223e-007
+1.2672000e+004    +7.9355522e-007    +1.9120674e-007
+1.2800000e+004    +8.2104276e-007    +1.8054506e-007
+1.2928000e+004    +8.0932602e-007    +1.6942749e-007
+1.3056000e+004    +7.4599672e-007    +1.7997920e-007
+1.3184000e+004    +7.7042216e-007    +1.8148293e-007
+1.3312000e+004    +7.7472191e-007    +1.7802446e-007
+1.3440000e+004    +8.1681856e-007    +1.8464594e-007
+1.3568000e+004    +7.5743009e-007    +1.7941532e-007
+1.3696000e+004    +7.9150334e-007    +1.7632041e-007
+1.3824000e+004    +8.0526200e-007    +1.8584943e-007
+1.3952000e+004    +7.6245055e-007    +1.9112656e-007
+1.4080000e+004    +6.8533467e-007    +1.9815137e-007
+1.4208000e+004    +6.9485952e-007    +2.0267932e-007
+1.4336000e+004    +6.9226206e-007    +2.0577320e-007
+1.4464000e+004    +6.7588246e-007    +2.2054164e-007
+1.4592000e+004    +7.2585897e-007    +2.3954962e-007
+1.4720000e+004    +7.7533463e-007    +2.3159029e-007
+1.4848000e+004    +7.7060321e-007    +2.1148182e-007
+1.4976000e+004    +7.2785173e-007    +2.1689610e-007
+1.5104000e+004    +7.2442424e-007    +2.0653147e-007
+1.5232000e+004    +7.2432084e-007    +2.1453334e-007
+1.5360000e+004    +7.3189301e-007    +2.1436688e-007
+1.5488000e+004    +7.5327011e-007    +2.0616716e-007
+1.5616000e+004    +7.3260691e-007    +2.0522222e-007
+1.5744000e+004    +7.4142076e-007    +2.2511311e-007
+1.5872000e+004    +6.9307958e-007    +2.1753119e-007
+1.6000000e+004    +7.0515910e-007    +2.1904206e-007
+1.6128000e+004    +6.9781066e-007    +2.4266805e-007
+1.6256000e+004    +6.2639776e-007    +2.2042666e-007
+1.6384000e+004    +6.4570946e-007    +2.2029334e-007
+1.6512000e+004    +6.7396468e-007    +2.1153942e-007
+1.6640000e+004    +6.4682632e-007    +2.2401615e-007
+1.6768000e+004    +6.5072129e-007    +2.2925013e-007
+1.6896000e+004    +6.3463511e-007    +2.4154789e-007
+1.7024000e+004    +6.3519207e-007    +2.4201378e-007
+1.7152000e+004    +6.2932480e-007    +2.1938288e-007
+1.7280000e+004    +6.4154500e-007    +2.3945574e-007
+1.7408000e+004    +6.9459713e-007    +2.4691806e-007
+1.7536000e+004    +6.7061865e-007    +2.4385366e-007
+1.7664000e+004    +6.1286988e-007    +2.2446672e-007
+1.7792000e+004    +5.9530203e-007    +2.4075567e-007
+1.7920000e+004    +6.6541844e-007    +2.4737528e-007
+1.8048000e+004    +6.1205151e-007    +2.3785708e-007
+1.8176000e+004    +5.9554850e-007    +2.3886361e-007
+1.8304000e+004    +6.0884173e-007    +2.4698150e-007
+1.8432000e+004    +5.9806405e-007    +2.4471194e-007
+1.8560000e+004    +5.9991339e-007    +2.4846057e-007
+1.8688000e+004    +5.4674263e-007    +2.4928113e-007
+1.8816000e+004    +5.8563273e-007    +2.5292252e-007
+1.8944000e+004    +6.1376687e-007    +2.6957954e-007
+1.9072000e+004    +5.5056364e-007    +2.6871842e-007
+1.9200000e+004    +5.5377376e-007    +2.7653164e-007
+1.9328000e+004    +6.2105414e-007    +2.6738402e-007
+1.9456000e+004    +5.7855777e-007    +2.6267475e-007
+1.9584000e+004    +5.9426827e-007    +2.7290849e-007
+1.9712000e+004    +5.8933455e-007    +2.5536744e-007
+1.9840000e+004    +5.1356074e-007    +2.6230728e-007
+1.9968000e+004    +5.3846361e-007    +2.6358219e-007
+2.0096000e+004    +5.8064700e-007    +2.8178744e-007
+2.0224000e+004    +5.5720204e-007    +2.6992845e-007
+2.0352000e+004    +5.0598294e-007    +2.5419646e-007
+2.0480000e+004    +5.7229050e-007    +2.5003109e-007
+2.0608000e+004    +5.9387230e-007    +2.5938405e-007
+2.0736000e+004    +5.2688051e-007    +2.8905433e-007
+2.0864000e+004    +5.4634182e-007    +2.6759403e-007
+2.0992000e+004    +5.5870964e-007    +2.4623068e-007
+2.1120000e+004    +5.2596147e-007    +2.7181130e-007
+2.1248000e+004    +4.8490432e-007    +3.0378902e-007
+2.1376000e+004    +5.0426092e-007    +3.0745429e-007
+2.1504000e+004    +5.1908285e-007    +3.1794553e-007
+2.1632000e+004    +5.2278915e-007    +2.9239860e-007
+2.1760000e+004    +5.1977804e-007    +2.8757125e-007
+2.1888000e+004    +5.7382886e-007    +2.8235667e-007
+2.2016000e+004    +5.4778218e-007    +2.9918823e-007
+2.2144000e+004    +5.2467584e-007    +3.0828855e-007
+2.2272000e+004    +5.0490468e-007    +2.8768241e-007
+2.2400000e+004    +5.1120634e-007    +2.8527242e-007
+2.2528000e+004    +4.8213263e-007    +2.9870836e-007
+2.2656000e+004    +5.0865441e-007    +2.9951494e-007
+2.2784000e+004    +5.1530884e-007    +3.0145785e-007
+2.2912000e+004    +5.3493034e-007    +3.1876345e-007
+2.3040000e+004    +5.0431851e-007    +3.2067695e-007
+2.3168000e+004    +4.6648947e-007    +3.1898961e-007
+2.3296000e+004    +4.9180449e-007    +3.3290351e-007
+2.3424000e+004    +4.9826258e-007    +3.1282690e-007
+2.3552000e+004    +5.0437666e-007    +3.1488833e-007
+2.3680000e+004    +4.7832100e-007    +3.1030541e-007
+2.3808000e+004    +5.1930061e-007    +3.3211711e-007
+2.3936000e+004    +5.2895149e-007    +3.2758186e-007
+2.4064000e+004    +5.2434990e-007    +3.1030268e-007
+2.4192000e+004    +5.2257394e-007    +3.0363597e-007
+2.4320000e+004    +4.5034008e-007    +3.0105531e-007
+2.4448000e+004    +4.3858770e-007    +3.6286878e-007
+2.4576000e+004    +4.8471162e-007    +3.9946750e-007
+2.4704000e+004    +5.3406649e-007    +3.3622530e-007
+2.4832000e+004    +4.9228584e-007    +3.3070020e-007
+2.4960000e+004    +4.3889264e-007    +3.2178619e-007
+2.5088000e+004    +4.6136370e-007    +3.3593713e-007
+2.5216000e+004    +4.7181047e-007    +3.3387681e-007
+2.5344000e+004    +4.4963011e-007    +3.2928750e-007
+2.5472000e+004    +4.4088881e-007    +3.3319787e-007
+2.5600000e+004    +4.6792013e-007    +3.2609367e-007
+2.5728000e+004    +4.4886360e-007    +3.2285141e-007
+2.5856000e+004    +4.5794351e-007    +3.2566254e-007
+2.5984000e+004    +4.4340007e-007    +3.2074843e-007
+2.6112000e+004    +4.4757570e-007    +3.2255272e-007
+2.6240000e+004    +4.3925468e-007    +3.2240544e-007
+2.6368000e+004    +3.9576196e-007    +3.3352876e-007
+2.6496000e+004    +4.3381428e-007    +3.4286478e-007
+2.6624000e+004    +4.4561435e-007    +3.9602494e-007
+2.6752000e+004    +4.1561157e-007    +5.3984587e-007
+2.6880000e+004    +3.9505647e-007    +4.0330158e-007
+2.7008000e+004    +3.9675697e-007    +3.4034844e-007
+2.7136000e+004    +4.1545053e-007    +3.3026222e-007
+2.7264000e+004    +4.3573900e-007    +3.6308876e-007
+2.7392000e+004    +4.3122517e-007    +3.7946702e-007
+2.7520000e+004    +4.0104692e-007    +3.7630795e-007
+2.7648000e+004    +4.1220318e-007    +3.2903526e-007
+2.7776000e+004    +3.9028214e-007    +3.4164574e-007
+2.7904000e+004    +3.9690948e-007    +3.8328923e-007
+2.8032000e+004    +4.1957114e-007    +3.6610311e-007
+2.8160000e+004    +4.1878641e-007    +3.6911368e-007
+2.8288000e+004    +4.0171591e-007    +3.7656503e-007
+2.8416000e+004    +4.0347166e-007    +3.8069558e-007
+2.8544000e+004    +3.7930374e-007    +3.8183674e-007
+2.8672000e+004    +4.2972925e-007    +3.7525501e-007
+2.8800000e+004    +4.2276554e-007    +3.7001203e-007
+2.8928000e+004    +3.9724299e-007    +3.8443306e-007
+2.9056000e+004    +3.7419559e-007    +4.1054059e-007
+2.9184000e+004    +3.8010836e-007    +4.0033333e-007
+2.9312000e+004    +4.0370918e-007    +4.1088782e-007
+2.9440000e+004    +3.9398006e-007    +3.8077459e-007
+2.9568000e+004    +4.1489119e-007    +3.6480665e-007
+2.9696000e+004    +3.9734681e-007    +4.0292713e-007
+2.9824000e+004    +3.5700970e-007    +3.7063089e-007
+2.9952000e+004    +3.5536991e-007    +3.5845667e-007
+3.0080000e+004    +3.5154193e-007    +4.0243503e-007
+3.0208000e+004    +3.4069055e-007    +4.1874227e-007
+3.0336000e+004    +3.4784108e-007    +3.9682362e-007
+3.0464000e+004    +3.5704733e-007    +3.5537536e-007
+3.0592000e+004    +3.6716904e-007    +3.8068640e-007
+3.0720000e+004    +3.4920299e-007    +3.9200341e-007
+3.0848000e+004    +3.3536185e-007    +3.8783830e-007
+3.0976000e+004    +3.6667754e-007    +3.7531353e-007
+3.1104000e+004    +3.9014847e-007    +4.0353765e-007
+3.1232000e+004    +3.7168635e-007    +4.0670110e-007
+3.1360000e+004    +3.6618911e-007    +4.0480282e-007
+3.1488000e+004    +3.6981140e-007    +4.3036763e-007
+3.1616000e+004    +3.5893166e-007    +4.1871746e-007
+3.1744000e+004    +3.4551425e-007    +4.5865704e-007
+3.1872000e+004    +3.3773671e-007    +4.4697708e-007
+3.2000000e+004    +3.7892661e-007    +4.4826177e-007
+3.2128000e+004    +3.5235496e-007    +4.4490400e-007
+3.2256000e+004    +3.4380417e-007    +4.2725648e-007
+3.2384000e+004    +3.6346529e-007    +4.1309892e-007
+3.2512000e+004    +3.7306540e-007    +4.2108255e-007
+3.2640000e+004    +3.4975554e-007    +4.4607742e-007
+3.2768000e+004    +3.4078744e-007    +4.4114205e-007
+3.2896000e+004    +3.5298999e-007    +4.4718522e-007
+3.3024000e+004    +3.3982008e-007    +4.5143912e-007
+3.3152000e+004    +3.5837209e-007    +4.7227536e-007
+3.3280000e+004    +3.6583668e-007    +4.9457316e-007
+3.3408000e+004    +3.5701558e-007    +4.5487917e-007
+3.3536000e+004    +3.6281142e-007    +4.6124975e-007
+3.3664000e+004    +3.6207919e-007    +4.4914114e-007
+3.3792000e+004    +3.5410719e-007    +4.3030337e-007
+3.3920000e+004    +3.4210220e-007    +4.5223683e-007
+3.4048000e+004    +3.4430659e-007    +4.4203804e-007
+3.4176000e+004    +3.3234656e-007    +4.1372033e-007
+3.4304000e+004    +3.2226882e-007    +4.7389338e-007
+3.4432000e+004    +3.4229606e-007    +4.8207278e-007
+3.4560000e+004    +3.1292583e-007    +4.8743664e-007
+3.4688000e+004    +3.2152485e-007    +4.6744003e-007
+3.4816000e+004    +3.3627478e-007    +4.3832969e-007
+3.4944000e+004    +3.2730287e-007    +4.5683115e-007
+3.5072000e+004    +3.1918862e-007    +4.7257882e-007
+3.5200000e+004    +3.3010127e-007    +4.7918672e-007
+3.5328000e+004    +3.4158049e-007    +5.2171117e-007
+3.5456000e+004    +3.3894963e-007    +4.5947408e-007
+3.5584000e+004    +3.2127960e-007    +4.2564392e-007
+3.5712000e+004    +3.2889295e-007    +4.7444001e-007
+3.5840000e+004    +3.2758976e-007    +5.0754312e-007
+3.5968000e+004    +3.3143411e-007    +4.9463620e-007
+3.6096000e+004    +3.0904363e-007    +5.3027844e-007
+3.6224000e+004    +3.1721817e-007    +5.3301846e-007
+3.6352000e+004    +3.1746171e-007    +4.7309899e-007
+3.6480000e+004    +3.1712412e-007    +4.8359902e-007
+3.6608000e+004    +3.1152342e-007    +4.7749563e-007
+3.6736000e+004    +3.0858217e-007    +5.2081720e-007
+3.6864000e+004    +3.2418487e-007    +5.0547322e-007
+3.6992000e+004    +3.1039843e-007    +5.1479140e-007
+3.7120000e+004    +3.2271177e-007    +5.0425371e-007
+3.7248000e+004    +3.0366263e-007    +5.1466424e-007
+3.7376000e+004    +3.2108105e-007    +5.1158366e-007
+3.7504000e+004    +2.9946168e-007    +4.5951998e-007
+3.7632000e+004    +3.0198623e-007    +4.8584866e-007
+3.7760000e+004    +3.0977336e-007    +4.7336658e-007
+3.7888000e+004    +3.0774240e-007    +5.1599108e-007
+3.8016000e+004    +2.9656462e-007    +4.9559674e-007
+3.8144000e+004    +2.9749114e-007    +5.0046339e-007
+3.8272000e+004    +3.1193173e-007    +5.4309959e-007
+3.8400000e+004    +2.9751956e-007    +5.6513534e-007
+3.8528000e+004    +3.1714015e-007    +5.6615568e-007
+3.8656000e+004    +3.0241958e-007    +4.9198377e-007
+3.8784000e+004    +2.8813730e-007    +5.2018396e-007
+3.8912000e+004    +2.7114126e-007    +5.4769737e-007
+3.9040000e+004    +2.7947897e-007    +5.1702830e-007
+3.9168000e+004    +3.2845017e-007    +5.2759481e-007
+3.9296000e+004    +3.2640531e-007    +5.5194971e-007
+3.9424000e+004    +3.0445921e-007    +5.1725374e-007
+3.9552000e+004    +2.9721787e-007    +4.9986039e-007
+3.9680000e+004    +3.0381105e-007    +5.2061648e-007
+3.9808000e+004    +2.9615268e-007    +5.2477031e-007
+3.9936000e+004    +3.0096740e-007    +5.5314911e-007
+4.0064000e+004    +2.9848903e-007    +5.9539548e-007
+4.0192000e+004    +2.9242460e-007    +5.7329612e-007
+4.0320000e+004    +2.8628247e-007    +5.8014615e-007
+4.0448000e+004    +2.9271209e-007    +5.3017311e-007
+4.0576000e+004    +2.9031287e-007    +5.0290629e-007
+4.0704000e+004    +2.8280405e-007    +5.4031074e-007
+4.0832000e+004    +2.7497632e-007    +5.7553501e-007
+4.0960000e+004    +2.6553826e-007    +5.4547087e-007
+4.1088000e+004    +2.9775322e-007    +5.3737273e-007
+4.1216000e+004    +2.9214283e-007    +5.4080749e-007
+4.1344000e+004    +2.8305257e-007    +5.3559211e-007
+4.1472000e+004    +2.5636024e-007    +5.3978300e-007
+4.1600000e+004    +2.6634797e-007    +5.4233988e-007
+4.1728000e+004    +2.6444951e-007    +5.6467076e-007
+4.1856000e+004    +2.4434280e-007    +5.7988632e-007
+4.1984000e+004    +2.4508140e-007    +6.0077161e-007
+4.2112000e+004    +2.8478610e-007    +5.8569896e-007
+4.2240000e+004    +2.7332351e-007    +5.5147842e-007
+4.2368000e+004    +2.5572490e-007    +5.6778794e-007
+4.2496000e+004    +2.6599579e-007    +5.7730011e-007
+4.2624000e+004    +2.8921878e-007    +5.1870683e-007
+4.2752000e+004    +2.7388705e-007    +5.0947824e-007
+4.2880000e+004    +2.6523114e-007    +5.4413755e-007
+4.3008000e+004    +2.6170892e-007    +6.0141446e-007
+4.3136000e+004    +2.8532600e-007    +5.5810085e-007
+4.3264000e+004    +2.6085547e-007    +5.5287160e-007
+4.3392000e+004    +2.6886215e-007    +5.8390305e-007
+4.3520000e+004    +2.7413978e-007    +6.2034536e-007
+4.3648000e+004    +2.4776455e-007    +6.1293247e-007
+4.3776000e+004    +2.5264470e-007    +6.1388954e-007
+4.3904000e+004    +2.5982331e-007    +6.2582717e-007
+4.4032000e+004    +2.5510823e-007    +6.3989887e-007
+4.4160000e+004    +2.8124930e-007    +5.7817044e-007
+4.4288000e+004    +2.6676793e-007    +5.8453679e-007
+4.4416000e+004    +2.6640879e-007    +6.0316552e-007
+4.4544000e+004    +2.9440457e-007    +6.0778643e-007
+4.4672000e+004    +2.9021535e-007    +6.5239317e-007
+4.4800000e+004    +2.7627974e-007    +6.4364468e-007
+4.4928000e+004    +2.6430553e-007    +6.4225475e-007
+4.5056000e+004    +2.5049246e-007    +6.3882970e-007
+4.5184000e+004    +2.7070129e-007    +7.0931810e-007
+4.5312000e+004    +2.6805952e-007    +6.5816323e-007
+4.5440000e+004    +2.6385931e-007    +6.4825753e-007
+4.5568000e+004    +2.8004416e-007    +6.3156267e-007
+4.5696000e+004    +2.8255917e-007    +6.7656777e-007
+4.5824000e+004    +2.7622787e-007    +6.5223128e-007
+4.5952000e+004    +2.5784817e-007    +6.0343643e-007
+4.6080000e+004    +2.4183740e-007    +6.3082530e-007
+4.6208000e+004    +2.4451134e-007    +6.3848330e-007
+4.6336000e+004    +2.5273346e-007    +6.3532809e-007
+4.6464000e+004    +2.4295386e-007    +6.6705337e-007
+4.6592000e+004    +2.3745679e-007    +6.5812566e-007
+4.6720000e+004    +2.3248197e-007    +6.7323987e-007
+4.6848000e+004    +2.3871573e-007    +6.8681788e-007
+4.6976000e+004    +2.2078247e-007    +7.1052472e-007
+4.7104000e+004    +2.2185262e-007    +7.2157286e-007
+4.7232000e+004    +2.2710363e-007    +6.5319017e-007
+4.7360000e+004    +2.5050923e-007    +6.4368498e-007
+4.7488000e+004    +2.4398784e-007    +6.5113585e-007
+4.7616000e+004    +2.4997593e-007    +6.2786233e-007
+4.7744000e+004    +2.4497945e-007    +6.2603681e-007
+4.7872000e+004    +2.4202362e-007    +6.9541591e-007
+4.8000000e+004    +2.5027720e-007    +6.6987832e-007
+4.8128000e+004    +2.6550094e-007    +6.4218631e-007
+4.8256000e+004    +2.6338114e-007    +7.1901917e-007
+4.8384000e+004    +2.5226106e-007    +7.3751386e-007
+4.8512000e+004    +2.3076385e-007    +6.5430487e-007
+4.8640000e+004    +2.5134017e-007    +6.7635756e-007
+4.8768000e+004    +2.4716951e-007    +7.2822661e-007
+4.8896000e+004    +2.3637287e-007    +7.5343144e-007
+4.9024000e+004    +2.3988520e-007    +7.4968511e-007
+4.9152000e+004    +2.4523996e-007    +6.7205968e-007
+4.9280000e+004    +2.4177660e-007    +7.2231637e-007
+4.9408000e+004    +2.2268945e-007    +7.6169664e-007
+4.9536000e+004    +2.2681307e-007    +7.9159895e-007
+4.9664000e+004    +2.2863604e-007    +7.1611356e-007
+4.9792000e+004    +2.4193355e-007    +7.0465677e-007
+4.9920000e+004    +2.5255622e-007    +6.6057981e-007
+5.0048000e+004    +2.2150384e-007    +9.2444759e-007
+5.0176000e+004    +2.0389777e-007    +1.2478813e-006
+5.0304000e+004    +2.1281230e-007    +8.6266567e-007
+5.0432000e+004    +2.1565867e-007    +7.6341723e-007
+5.0560000e+004    +2.2805965e-007    +7.5025082e-007
+5.0688000e+004    +2.1963619e-007    +7.4743230e-007
+5.0816000e+004    +2.1721902e-007    +7.5771038e-007
+5.0944000e+004    +2.2782488e-007    +8.3025390e-007
+5.1072000e+004    +2.1239656e-007    +7.8551756e-007
+5.1200000e+004    +2.0895104e-007    +7.7308368e-007
+5.1328000e+004    +2.1859712e-007    +7.8885552e-007
+5.1456000e+004    +2.2574129e-007    +7.0684194e-007
+5.1584000e+004    +2.1027667e-007    +7.2289237e-007
+5.1712000e+004    +2.0366083e-007    +7.0176759e-007
+5.1840000e+004    +2.2360724e-007    +7.7838223e-007
+5.1968000e+004    +2.1686157e-007    +8.4925489e-007
+5.2096000e+004    +1.9781443e-007    +8.5889189e-007
+5.2224000e+004    +1.9157028e-007    +8.2903961e-007
+5.2352000e+004    +2.1371262e-007    +1.0337642e-006
+5.2480000e+004    +1.9647371e-007    +9.7269901e-007
+5.2608000e+004    +2.0980967e-007    +7.6566187e-007
+5.2736000e+004    +2.1482681e-007    +7.7468707e-007
+5.2864000e+004    +2.1198396e-007    +7.8112100e-007
+5.2992000e+004    +2.0119602e-007    +7.9443566e-007
+5.3120000e+004    +1.8348773e-007    +7.5546421e-007
+5.3248000e+004    +1.9878483e-007    +7.4464810e-007
+5.3376000e+004    +2.1044643e-007    +7.1134275e-007
+5.3504000e+004    +2.1276604e-007    +7.7244397e-007
+5.3632000e+004    +2.2666195e-007    +7.7173354e-007
+5.3760000e+004    +2.0917507e-007    +7.9962416e-007
+5.3888000e+004    +1.9191680e-007    +8.2170828e-007
+5.4016000e+004    +1.8806675e-007    +8.1973218e-007
+5.4144000e+004    +1.8603950e-007    +8.0215756e-007
+5.4272000e+004    +1.9700077e-007    +8.2252791e-007
+5.4400000e+004    +1.9879465e-007    +8.2914522e-007
+5.4528000e+004    +1.8647448e-007    +8.0531589e-007
+5.4656000e+004    +1.8981554e-007    +7.9124095e-007
+5.4784000e+004    +1.8681281e-007    +7.6955052e-007
+5.4912000e+004    +2.1510247e-007    +8.2166588e-007
+5.5040000e+004    +2.7345587e-007    +8.6283143e-007
+5.5168000e+004    +3.5855274e-007    +8.7559482e-007
+5.5296000e+004    +2.5152897e-007    +9.0901278e-007
+5.5424000e+004    +3.5241300e-007    +8.4105284e-007
+5.5552000e+004    +1.0877786e-006    +8.3220237e-007
+5.5680000e+004    +8.7698896e-007    +8.9037417e-007
+5.5808000e+004    +2.3127190e-007    +8.1557471e-007
+5.5936000e+004    +1.9741715e-007    +7.6999339e-007
+5.6064000e+004    +1.7803308e-007    +8.0288095e-007
+5.6192000e+004    +1.9173588e-007    +8.7095128e-007
+5.6320000e+004    +1.8941748e-007    +9.0882122e-007
+5.6448000e+004    +2.0625137e-007    +9.0879030e-007
+5.6576000e+004    +2.1344482e-007    +8.7617855e-007
+5.6704000e+004    +1.9970231e-007    +8.7735106e-007
+5.6832000e+004    +1.9442862e-007    +9.0405604e-007
+5.6960000e+004    +2.0117614e-007    +9.0760761e-007
+5.7088000e+004    +1.9415215e-007    +9.1082109e-007
+5.7216000e+004    +1.9327396e-007    +9.5215842e-007
+5.7344000e+004    +1.8205951e-007    +9.4600205e-007
+5.7472000e+004    +1.8253388e-007    +9.4260957e-007
+5.7600000e+004    +1.6760319e-007    +9.8541886e-007
+5.7728000e+004    +1.8985055e-007    +1.0203810e-006
+5.7856000e+004    +1.8654164e-007    +8.9487463e-007
+5.7984000e+004    +1.9339581e-007    +7.8611811e-007
+5.8112000e+004    +2.0055906e-007    +7.9337747e-007
+5.8240000e+004    +2.0402027e-007    +8.4613600e-007
+5.8368000e+004    +2.1135531e-007    +8.9920235e-007
+5.8496000e+004    +1.9914025e-007    +9.4627734e-007
+5.8624000e+004    +2.0136353e-007    +9.1223927e-007
+5.8752000e+004    +2.6831424e-007    +9.1636514e-007
+5.8880000e+004    +2.1637970e-007    +8.7202488e-007
+5.9008000e+004    +1.9951361e-007    +9.1561083e-007
+5.9136000e+004    +2.0033545e-007    +8.9433246e-007
+5.9264000e+004    +1.8546824e-007    +9.0101383e-007
+5.9392000e+004    +1.6482366e-007    +9.5429982e-007
+5.9520000e+004    +1.7651450e-007    +1.0647635e-006
+5.9648000e+004    +1.7980420e-007    +9.4596669e-007
+5.9776000e+004    +1.7278779e-007    +9.5649216e-007
+5.9904000e+004    +1.6600326e-007    +9.5370899e-007
+6.0032000e+004    +1.8394663e-007    +9.3485988e-007
+6.0160000e+004    +2.1339748e-007    +9.0341308e-007
+6.0288000e+004    +2.1324900e-007    +9.2951313e-007
+6.0416000e+004    +2.0277793e-007    +8.9708215e-007
+6.0544000e+004    +1.9714574e-007    +8.7594577e-007
+6.0672000e+004    +1.9402067e-007    +8.8524104e-007
+6.0800000e+004    +1.8989121e-007    +9.3264231e-007
+6.0928000e+004    +1.8514270e-007    +9.7237330e-007
+6.1056000e+004    +1.9653973e-007    +9.5617713e-007
+6.1184000e+004    +1.9335610e-007    +9.2340679e-007
+6.1312000e+004    +1.8236301e-007    +9.6069164e-007
+6.1440000e+004    +1.9006475e-007    +9.4924405e-007
+6.1568000e+004    +2.0755078e-007    +9.6516374e-007
+6.1696000e+004    +1.9330727e-007    +1.0058958e-006
+6.1824000e+004    +1.8895717e-007    +1.0649107e-006
+6.1952000e+004    +1.8502260e-007    +1.1137244e-006
+6.2080000e+004    +1.8797014e-007    +1.0271860e-006
+6.2208000e+004    +1.7831282e-007    +1.0638287e-006
+6.2336000e+004    +1.7045035e-007    +9.8429211e-007
+6.2464000e+004    +1.6961361e-007    +9.8589067e-007
+6.2592000e+004    +1.7122916e-007    +1.1289811e-006
+6.2720000e+004    +1.7347878e-007    +9.9854515e-007
+6.2848000e+004    +1.8795136e-007    +9.8607802e-007
+6.2976000e+004    +1.9011692e-007    +9.7593397e-007
+6.3104000e+004    +1.7947187e-007    +1.0417423e-006
+6.3232000e+004    +1.6909985e-007    +1.0460357e-006
+6.3360000e+004    +1.9889028e-007    +1.0171528e-006
+6.3488000e+004    +1.9107956e-007    +1.0086075e-006
+6.3616000e+004    +1.8586901e-007    +1.0072573e-006
+6.3744000e+004    +1.7736873e-007    +1.0642306e-006
+6.3872000e+004    +1.7403833e-007    +1.0182367e-006
+6.4000000e+004    +1.6610591e-007    +1.0006777e-006
+6.4128000e+004    +1.8244151e-007    +1.0798510e-006
+6.4256000e+004    +1.7645520e-007    +1.1366715e-006
+6.4384000e+004    +1.7097460e-007    +1.0192065e-006
+6.4512000e+004    +1.7307450e-007    +9.7950976e-007
+6.4640000e+004    +1.6916317e-007    +9.6438839e-007
+6.4768000e+004    +1.7991222e-007    +9.5146868e-007
+6.4896000e+004    +1.7871481e-007    +1.0726063e-006
+6.5024000e+004    +1.6934194e-007    +1.0139838e-006
+6.5152000e+004    +1.7467505e-007    +9.8671160e-007
+6.5280000e+004    +1.8293214e-007    +1.0009019e-006
+6.5408000e+004    +1.7683942e-007    +1.0634643e-006
+6.5536000e+004    +1.6922614e-007    +1.0979599e-006
+6.5664000e+004    +1.7017173e-007    +1.0832282e-006
+6.5792000e+004    +1.7894789e-007    +1.0584297e-006
+6.5920000e+004    +1.6559986e-007    +1.0831069e-006
+6.6048000e+004    +1.7914269e-007    +9.8245448e-007
+6.6176000e+004    +1.7987055e-007    +1.0402518e-006
+6.6304000e+004    +1.6836898e-007    +1.1178812e-006
+6.6432000e+004    +1.6338745e-007    +1.0695417e-006
+6.6560000e+004    +1.7438168e-007    +1.0601755e-006
+6.6688000e+004    +1.8431255e-007    +1.1269773e-006
+6.6816000e+004    +1.9121283e-007    +1.1072659e-006
+6.6944000e+004    +1.7920426e-007    +1.0626100e-006
+6.7072000e+004    +1.6674271e-007    +1.1325455e-006
+6.7200000e+004    +1.7156545e-007    +1.1582409e-006
+6.7328000e+004    +1.9355384e-007    +1.0827406e-006
+6.7456000e+004    +1.6571936e-007    +1.0864692e-006
+6.7584000e+004    +1.6134857e-007    +1.0974934e-006
+6.7712000e+004    +1.7093275e-007    +1.1024233e-006
+6.7840000e+004    +1.7720171e-007    +1.1151376e-006
+6.7968000e+004    +1.7362474e-007    +1.0882110e-006
+6.8096000e+004    +1.6558985e-007    +1.0430825e-006
+6.8224000e+004    +1.7157939e-007    +1.0705567e-006
+6.8352000e+004    +1.6154763e-007    +1.0819218e-006
+6.8480000e+004    +2.1128014e-007    +1.0937895e-006
+6.8608000e+004    +2.4876684e-007    +1.1261164e-006
+6.8736000e+004    +1.6661204e-007    +1.1902673e-006
+6.8864000e+004    +1.5884306e-007    +1.1904659e-006
+6.8992000e+004    +1.6159002e-007    +1.1945039e-006
+6.9120000e+004    +1.6040040e-007    +1.1105703e-006
+6.9248000e+004    +1.6436572e-007    +1.1245349e-006
+6.9376000e+004    +1.6873541e-007    +1.1880999e-006
+6.9504000e+004    +1.5788275e-007    +1.1569203e-006
+6.9632000e+004    +1.5346097e-007    +1.0643076e-006
+6.9760000e+004    +1.4913815e-007    +1.0717740e-006
+6.9888000e+004    +1.5056033e-007    +1.0802731e-006
+7.0016000e+004    +1.6394758e-007    +1.0823852e-006
+7.0144000e+004    +6.5937547e-007    +1.1416382e-006
+7.0272000e+004    +8.6261070e-007    +1.1784392e-006
+7.0400000e+004    +2.8785524e-007    +1.1044502e-006
+7.0528000e+004    +1.5623901e-007    +1.1216716e-006
+7.0656000e+004    +2.9046495e-007    +1.1154058e-006
+7.0784000e+004    +5.4824909e-007    +1.3040049e-006
+7.0912000e+004    +3.2873950e-007    +1.2705353e-006
+7.1040000e+004    +1.6497773e-007    +1.1362123e-006
+7.1168000e+004    +1.6194809e-007    +1.2125807e-006
+7.1296000e+004    +1.4984212e-007    +1.1734774e-006
+7.1424000e+004    +1.5605745e-007    +1.1210584e-006
+7.1552000e+004    +1.5952452e-007    +1.1350764e-006
+7.1680000e+004    +1.5634042e-007    +1.1095672e-006
+7.1808000e+004    +1.5257190e-007    +1.1903144e-006
+7.1936000e+004    +1.5559807e-007    +1.2076382e-006
+7.2064000e+004    +1.5024541e-007    +1.1393979e-006
+7.2192000e+004    +1.6891484e-007    +1.1080807e-006
+7.2320000e+004    +1.7439086e-007    +1.1496609e-006
+7.2448000e+004    +1.5499515e-007    +1.1635203e-006
+7.2576000e+004    +1.4920809e-007    +1.1789892e-006
+7.2704000e+004    +1.5270194e-007    +1.1641554e-006
+7.2832000e+004    +1.6771732e-007    +1.1248263e-006
+7.2960000e+004    +1.6755240e-007    +1.0745759e-006
+7.3088000e+004    +1.6033331e-007    +1.1624132e-006
+7.3216000e+004    +1.6956874e-007    +1.1808729e-006
+7.3344000e+004    +1.5718190e-007    +1.2420282e-006
+7.3472000e+004    +1.5656872e-007    +1.1590246e-006
+7.3600000e+004    +1.5661033e-007    +1.1575506e-006
+7.3728000e+004    +1.5104015e-007    +1.1989819e-006
+7.3856000e+004    +1.5622101e-007    +1.1112400e-006
+7.3984000e+004    +1.5831064e-007    +1.2005850e-006
+7.4112000e+004    +1.5670751e-007    +1.2976905e-006
+7.4240000e+004    +1.6302727e-007    +1.1617893e-006
+7.4368000e+004    +1.5231865e-007    +1.3383178e-006
+7.4496000e+004    +1.4067029e-007    +1.2624396e-006
+7.4624000e+004    +1.4427343e-007    +1.1316544e-006
+7.4752000e+004    +1.4777126e-007    +1.2031040e-006
+7.4880000e+004    +1.4640132e-007    +1.1994387e-006
+7.5008000e+004    +1.5564164e-007    +1.2126712e-006
+7.5136000e+004    +1.4225158e-007    +1.2648259e-006
+7.5264000e+004    +1.4514858e-007    +1.2138329e-006
+7.5392000e+004    +1.5394718e-007    +1.1793271e-006
+7.5520000e+004    +1.6161894e-007    +1.2236950e-006
+7.5648000e+004    +1.5513220e-007    +1.1765813e-006
+7.5776000e+004    +1.5191647e-007    +1.1095015e-006
+7.5904000e+004    +1.5339023e-007    +1.3425918e-006
+7.6032000e+004    +1.5347581e-007    +1.2880166e-006
+7.6160000e+004    +1.4465236e-007    +1.2582052e-006
+7.6288000e+004    +1.3927196e-007    +1.2553598e-006
+7.6416000e+004    +1.4113674e-007    +1.2293402e-006
+7.6544000e+004    +1.4523800e-007    +1.1376878e-006
+7.6672000e+004    +1.5107283e-007    +1.1653997e-006
+7.6800000e+004    +1.4872265e-007    +5.1602678e-006
+7.6928000e+004    +1.4705782e-007    +9.3708677e-006
+7.7056000e+004    +1.4645614e-007    +4.4044755e-006
+7.7184000e+004    +1.4839007e-007    +1.2158563e-006
+7.7312000e+004    +1.3799020e-007    +1.1810130e-006
+7.7440000e+004    +1.3468070e-007    +1.2315071e-006
+7.7568000e+004    +4.5241663e-007    +1.2183098e-006
+7.7696000e+004    +9.2314019e-007    +1.2164078e-006
+7.7824000e+004    +4.9758302e-007    +1.2148942e-006
+7.7952000e+004    +1.4420438e-007    +1.1960301e-006
+7.8080000e+004    +1.4366722e-007    +1.2256756e-006
+7.8208000e+004    +1.6601656e-007    +1.2929970e-006
+7.8336000e+004    +2.5324596e-007    +1.3155482e-006
+7.8464000e+004    +2.1164605e-007    +1.2027791e-006
+7.8592000e+004    +1.5776405e-007    +1.1647563e-006
+7.8720000e+004    +1.5770257e-007    +1.1822909e-006
+7.8848000e+004    +1.4960146e-007    +1.2950145e-006
+7.8976000e+004    +1.5911485e-007    +1.2666993e-006
+7.9104000e+004    +1.6877377e-007    +1.1796807e-006
+7.9232000e+004    +1.5757155e-007    +1.2518610e-006
+7.9360000e+004    +2.1138896e-007    +1.2742878e-006
+7.9488000e+004    +4.0739783e-007    +1.2543279e-006
+7.9616000e+004    +2.8040722e-007    +1.2498641e-006
+7.9744000e+004    +1.5422717e-007    +1.2703107e-006
+7.9872000e+004    +1.5267730e-007    +1.3065401e-006
+8.0000000e+004    +1.5855365e-007    +1.2824722e-006
+8.0128000e+004    +1.5411139e-007    +1.2938392e-006
+8.0256000e+004    +1.5572881e-007    +1.2477814e-006
+8.0384000e+004    +1.5337136e-007    +1.2312881e-006
+8.0512000e+004    +1.4151753e-007    +1.2418019e-006
+8.0640000e+004    +1.5971467e-007    +1.2783545e-006
+8.0768000e+004    +1.6150206e-007    +1.1058978e-006
+8.0896000e+004    +1.6365928e-007    +1.1978752e-006
+8.1024000e+004    +1.6095541e-007    +1.2408451e-006
+8.1152000e+004    +1.5962212e-007    +1.2166482e-006
+8.1280000e+004    +1.6864540e-007    +1.2725094e-006
+8.1408000e+004    +1.5834766e-007    +1.2774593e-006
+8.1536000e+004    +1.5942052e-007    +1.3249356e-006
+8.1664000e+004    +1.6768233e-007    +1.3456644e-006
+8.1792000e+004    +1.7403949e-007    +1.2713307e-006
+8.1920000e+004    +1.7768117e-007    +1.2819006e-006
+8.2048000e+004    +1.7928181e-007    +1.4096825e-006
+8.2176000e+004    +1.7573983e-007    +1.3711244e-006
+8.2304000e+004    +1.5926690e-007    +1.2736751e-006
+8.2432000e+004    +1.5474977e-007    +1.2871047e-006
+8.2560000e+004    +1.6603589e-007    +1.3346728e-006
+8.2688000e+004    +1.7266434e-007    +1.2911514e-006
+8.2816000e+004    +1.6818645e-007    +1.3051407e-006
+8.2944000e+004    +1.6375634e-007    +1.3255016e-006
+8.3072000e+004    +1.6839876e-007    +1.3536458e-006
+8.3200000e+004    +1.8217949e-007    +1.3349850e-006
+8.3328000e+004    +1.8757100e-007    +1.2521483e-006
+8.3456000e+004    +1.6883864e-007    +1.2406135e-006
+8.3584000e+004    +1.6287930e-007    +1.3808643e-006
+8.3712000e+004    +1.8256534e-007    +1.3664129e-006
+8.3840000e+004    +1.9969420e-007    +1.3030044e-006
+8.3968000e+004    +2.1247843e-007    +1.3086692e-006
+8.4096000e+004    +2.0522921e-007    +1.2624783e-006
+8.4224000e+004    +2.3898875e-007    +1.2762439e-006
+8.4352000e+004    +2.6368642e-007    +1.2620682e-006
+8.4480000e+004    +3.1297327e-007    +1.2381056e-006
+8.4608000e+004    +3.4859849e-007    +1.2739885e-006
+8.4736000e+004    +3.8577258e-007    +1.2778479e-006
+8.4864000e+004    +4.4101566e-007    +1.2585353e-006
+8.4992000e+004    +4.7787586e-007    +1.3164860e-006
+8.5120000e+004    +5.1670941e-007    +1.3275056e-006
+8.5248000e+004    +5.3503663e-007    +1.3303465e-006
+8.5376000e+004    +5.4693658e-007    +1.3087123e-006
+8.5504000e+004    +5.3067862e-007    +1.3640266e-006
+8.5632000e+004    +4.7968575e-007    +1.2486777e-006
+8.5760000e+004    +4.1672374e-007    +1.2423528e-006
+8.5888000e+004    +3.7036727e-007    +1.1796199e-006
+8.6016000e+004    +3.9018573e-007    +1.2609157e-006
+8.6144000e+004    +4.5627073e-007    +1.3015946e-006
+8.6272000e+004    +5.1915237e-007    +1.2172335e-006
+8.6400000e+004    +5.1544407e-007    +1.2019514e-006
+8.6528000e+004    +4.8219562e-007    +1.2836063e-006
+8.6656000e+004    +4.4915791e-007    +1.3450203e-006
+8.6784000e+004    +4.8279793e-007    +1.1988186e-006
+8.6912000e+004    +5.1245615e-007    +1.2421197e-006
+8.7040000e+004    +5.2999559e-007    +1.1949184e-006
+8.7168000e+004    +5.1084726e-007    +1.1690599e-006
+8.7296000e+004    +5.1088819e-007    +1.2255196e-006
+8.7424000e+004    +5.2556203e-007    +1.2847581e-006
+8.7552000e+004    +5.0096912e-007    +1.2794666e-006
+8.7680000e+004    +4.8180345e-007    +1.3071211e-006
+8.7808000e+004    +5.7379737e-007    +1.2690854e-006
+8.7936000e+004    +6.4075658e-007    +1.2313449e-006
+8.8064000e+004    +5.2857587e-007    +1.3465068e-006
+8.8192000e+004    +5.3461326e-007    +1.3374820e-006
+8.8320000e+004    +5.5705766e-007    +1.2731117e-006
+8.8448000e+004    +5.3906757e-007    +1.2149183e-006
+8.8576000e+004    +5.3441079e-007    +1.1496129e-006
+8.8704000e+004    +5.5409549e-007    +1.2332526e-006
+8.8832000e+004    +5.3252302e-007    +1.2287653e-006
+8.8960000e+004    +5.5214002e-007    +1.2857446e-006
+8.9088000e+004    +5.5612878e-007    +1.4404329e-006
+8.9216000e+004    +5.4040510e-007    +1.3350303e-006
+8.9344000e+004    +5.6859830e-007    +1.2520754e-006
+8.9472000e+004    +5.5860721e-007    +1.2525072e-006
+8.9600000e+004    +5.5686445e-007    +1.2866880e-006
+8.9728000e+004    +5.8113176e-007    +1.2925713e-006
+8.9856000e+004    +5.5255788e-007    +1.2447395e-006
+8.9984000e+004    +6.0079276e-007    +1.2687816e-006
+9.0112000e+004    +5.4403540e-007    +1.2714870e-006
+9.0240000e+004    +5.6544690e-007    +1.3378771e-006
+9.0368000e+004    +5.2484233e-007    +1.4151971e-006
+9.0496000e+004    +5.7398574e-007    +1.3666620e-006
+9.0624000e+004    +5.3505369e-007    +1.3488329e-006
+9.0752000e+004    +5.6979570e-007    +1.3895700e-006
+9.0880000e+004    +5.7866453e-007    +1.3500671e-006
+9.1008000e+004    +5.8770746e-007    +1.3209861e-006
+9.1136000e+004    +5.4554516e-007    +1.2463491e-006
+9.1264000e+004    +5.5572775e-007    +1.2807302e-006
+9.1392000e+004    +5.4365802e-007    +1.2321956e-006
+9.1520000e+004    +5.8062852e-007    +1.2382226e-006
+9.1648000e+004    +5.6938859e-007    +1.3282390e-006
+9.1776000e+004    +5.9910576e-007    +1.3381400e-006
+9.1904000e+004    +5.5120239e-007    +1.2092728e-006
+9.2032000e+004    +6.0432427e-007    +1.3120933e-006
+9.2160000e+004    +5.2789670e-007    +1.2879444e-006
+9.2288000e+004    +5.9820002e-007    +1.1940371e-006
+9.2416000e+004    +6.1529244e-007    +1.2693264e-006
+9.2544000e+004    +5.5130403e-007    +1.3014474e-006
+9.2672000e+004    +6.6391732e-007    +1.3359410e-006
+9.2800000e+004    +5.6775554e-007    +1.2561526e-006
+9.2928000e+004    +5.5923192e-007    +1.2661598e-006
+9.3056000e+004    +6.5231364e-007    +1.2998208e-006
+9.3184000e+004    +5.4745448e-007    +1.2818711e-006
+9.3312000e+004    +5.4659318e-007    +1.2979882e-006
+9.3440000e+004    +6.8721084e-007    +1.2116811e-006
+9.3568000e+004    +6.2033786e-007    +1.1999670e-006
+9.3696000e+004    +4.8713599e-007    +1.2408697e-006
+9.3824000e+004    +6.1531267e-007    +1.1951729e-006
+9.3952000e+004    +7.0080898e-007    +1.2417651e-006
+9.4080000e+004    +5.9345518e-007    +1.2264456e-006
+9.4208000e+004    +4.3321310e-007    +1.2726505e-006
+9.4336000e+004    +5.1390026e-007    +1.2564230e-006
+9.4464000e+004    +7.8092893e-007    +1.3249982e-006
+9.4592000e+004    +7.6557950e-007    +1.2962223e-006
+9.4720000e+004    +5.3930495e-007    +1.1881311e-006
+9.4848000e+004    +4.3381473e-007    +1.3678299e-006
+9.4976000e+004    +4.2814591e-007    +1.3593739e-006
+9.5104000e+004    +6.3678976e-007    +1.3003304e-006
+9.5232000e+004    +8.1853688e-007    +1.2637862e-006
+9.5360000e+004    +9.1448157e-007    +1.3277739e-006
+9.5488000e+004    +8.9252359e-007    +1.2755448e-006
+9.5616000e+004    +8.0834826e-007    +1.2779574e-006
+9.5744000e+004    +7.2743626e-007    +1.1682272e-006
+9.5872000e+004    +6.4864480e-007    +1.2303111e-006
+9.6000000e+004    +5.4124712e-007    +1.1965200e-006
+9.6128000e+004    +4.3801361e-007    +1.2601214e-006
+9.6256000e+004    +3.3710063e-007    +1.3450455e-006
+9.6384000e+004    +2.8499943e-007    +1.3834442e-006
+9.6512000e+004    +2.7786345e-007    +1.3644191e-006
+9.6640000e+004    +2.6938841e-007    +1.3162547e-006
+9.6768000e+004    +2.7159325e-007    +1.3127534e-006
+9.6896000e+004    +2.3563359e-007    +1.2637460e-006
+9.7024000e+004    +2.7397761e-007    +1.2430855e-006
+9.7152000e+004    +2.7164452e-007    +1.1310308e-006
+9.7280000e+004    +2.2823299e-007    +1.1302710e-006
+9.7408000e+004    +2.1713223e-007    +1.2102239e-006
+9.7536000e+004    +2.3338349e-007    +1.3544069e-006
+9.7664000e+004    +2.5295279e-007    +1.3218972e-006
+9.7792000e+004    +2.6080508e-007    +1.2125807e-006
+9.7920000e+004    +3.3834877e-007    +1.2056032e-006
+9.8048000e+004    +3.1429215e-007    +1.3242608e-006
+9.8176000e+004    +2.6451690e-007    +1.2550925e-006
+9.8304000e+004    +2.5633096e-007    +1.2616691e-006
+9.8432000e+004    +2.7295644e-007    +1.3054804e-006
+9.8560000e+004    +2.7069476e-007    +1.2131427e-006
+9.8688000e+004    +2.5948660e-007    +1.2563844e-006
+9.8816000e+004    +2.2976671e-007    +1.1947936e-006
+9.8944000e+004    +2.2533121e-007    +1.2245606e-006
+9.9072000e+004    +2.2251128e-007    +1.2735997e-006
+9.9200000e+004    +2.1192439e-007    +1.1720043e-006
+9.9328000e+004    +2.1585696e-007    +1.1868913e-006
+9.9456000e+004    +2.3119701e-007    +1.1105240e-006
+9.9584000e+004    +2.2516303e-007    +1.1856969e-006
+9.9712000e+004    +2.2059734e-007    +1.1863635e-006
+9.9840000e+004    +2.0150951e-007    +1.2056681e-006
+9.9968000e+004    +1.9142226e-007    +1.2852915e-006
+1.0009600e+005    +1.7832006e-007    +1.2275289e-006
+1.0022400e+005    +1.7322145e-007    +1.2457923e-006
+1.0035200e+005    +1.7932473e-007    +1.2440864e-006
+1.0048000e+005    +1.8125412e-007    +1.2414406e-006
+1.0060800e+005    +1.9078607e-007    +1.2387950e-006
+1.0073600e+005    +1.8444474e-007    +1.2633172e-006
+1.0086400e+005    +1.8595352e-007    +1.2092356e-006
+1.0099200e+005    +1.9400044e-007    +1.2318601e-006
+1.0112000e+005    +1.9317341e-007    +1.2799359e-006
+1.0124800e+005    +1.9918573e-007    +1.2577991e-006
+1.0137600e+005    +2.1171461e-007    +1.0712787e-006
+1.0150400e+005    +2.0022748e-007    +1.1164509e-006
+1.0163200e+005    +1.8236561e-007    +1.0968164e-006
+1.0176000e+005    +1.7981289e-007    +1.1803505e-006
+1.0188800e+005    +1.8460804e-007    +1.2707502e-006
+1.0201600e+005    +1.9028671e-007    +1.2183887e-006
+1.0214400e+005    +2.0303746e-007    +1.2441643e-006
+1.0227200e+005    +1.9351539e-007    +1.2336590e-006
