# North DC Val: 0.5564332500000001 VoltsSouth DC Val: 0.5324630100000001 Volts
# SR785 Measurement - Timestamp: Aug 28 2020 - 17:08:30
# Parameter File: /home/controls/Git/cit_ctnlab/ctn_scripts/TransRINSpecLong.yml
#---------- Measurement Setup ------------
# Start Frequency (Hz): 0.000000
# Frequency Span (Hz): 800.000000
# Frequency Resolution: 800
# Number of Averages: 100
# Averaging Mode: RMS
# Window function: Hanning
#---------- Measurement Parameters ----------
# Measurement Group:  "FFT" "FFT"
# Measurements:  "FFT 1" "FFT 2"
# View:  "Log Magnitude" "Log Magnitude"
# Unit:  "Vrms/rtHz" "Vrms/rtHz"
#---------- Input Parameters ----------
# Input Source: Analog
# Input Mode: Single ended, Single ended
# Input Grounding: Float, Float
# Input Coupling: AC, AC
# Input Range: -36.0dBVpk, -36.0dBVpk
# Auto Range: Off, Off
# Auto Range Mode: Tracking, Tracking
# Anti-Aliasing Filter: On, On
#---------- Source Parameters ----------
# Source Type: Sine
# Source Amplitude: 500.0mVpk
# Source On: 0

#---------- Measurement Data ----------
# [Freq(Hz) Display 0(Vrms/rtHz) Display 1(Vrms/rtHz) ]
+0.0000000e+000    +3.9751045e-004    +2.2955742e-004
+1.0000000e+000    +2.8656219e-004    +1.5093116e-004
+2.0000000e+000    +2.0912891e-004    +9.9354082e-005
+3.0000000e+000    +1.5908419e-004    +6.7651505e-005
+4.0000000e+000    +5.5507768e-005    +1.8697820e-005
+5.0000000e+000    +2.1837210e-005    +5.7425177e-006
+6.0000000e+000    +1.2724087e-005    +2.8315887e-006
+7.0000000e+000    +1.4044715e-005    +2.0152102e-006
+8.0000000e+000    +8.9204550e-006    +1.4481175e-006
+9.0000000e+000    +7.2280191e-006    +1.0765434e-006
+1.0000000e+001    +7.6999850e-006    +8.7404936e-007
+1.1000000e+001    +7.2667949e-006    +7.8534424e-007
+1.2000000e+001    +4.2771926e-006    +6.8481938e-007
+1.3000000e+001    +2.7537453e-006    +5.8903828e-007
+1.4000000e+001    +3.2415355e-006    +5.5320072e-007
+1.5000000e+001    +1.8370604e-006    +4.6877375e-007
+1.6000000e+001    +1.8779294e-006    +3.9978340e-007
+1.7000000e+001    +1.8826405e-006    +3.7453634e-007
+1.8000000e+001    +1.7124552e-006    +3.2871353e-007
+1.9000000e+001    +1.1675129e-006    +3.1822492e-007
+2.0000000e+001    +6.7681515e-007    +2.9049940e-007
+2.1000000e+001    +7.7367639e-007    +2.5900982e-007
+2.2000000e+001    +5.3026508e-007    +2.3729312e-007
+2.3000000e+001    +4.7774734e-007    +2.0437248e-007
+2.4000000e+001    +4.3536170e-007    +1.9884530e-007
+2.5000000e+001    +4.6254601e-007    +2.0381742e-007
+2.6000000e+001    +4.2707734e-007    +1.8827748e-007
+2.7000000e+001    +3.0962917e-007    +1.8927486e-007
+2.8000000e+001    +3.1864306e-007    +1.7317925e-007
+2.9000000e+001    +5.5438517e-007    +1.6778196e-007
+3.0000000e+001    +6.6545425e-007    +1.6195486e-007
+3.1000000e+001    +4.7124718e-007    +1.4592469e-007
+3.2000000e+001    +4.4852121e-007    +1.4176294e-007
+3.3000000e+001    +4.6983007e-007    +1.3912555e-007
+3.4000000e+001    +8.8541020e-007    +1.3485753e-007
+3.5000000e+001    +5.1704251e-007    +1.2084804e-007
+3.6000000e+001    +1.6644273e-007    +1.2159511e-007
+3.7000000e+001    +1.5685039e-007    +1.1316941e-007
+3.8000000e+001    +1.5525200e-007    +1.1030275e-007
+3.9000000e+001    +1.6122708e-007    +1.0981034e-007
+4.0000000e+001    +1.7609599e-007    +1.1027610e-007
+4.1000000e+001    +1.5350732e-007    +1.0291278e-007
+4.2000000e+001    +1.5897847e-007    +9.7463179e-008
+4.3000000e+001    +1.6260520e-007    +9.4477301e-008
+4.4000000e+001    +1.6143822e-007    +8.8662226e-008
+4.5000000e+001    +1.5930434e-007    +8.6954380e-008
+4.6000000e+001    +1.6157459e-007    +9.0235432e-008
+4.7000000e+001    +1.8979324e-007    +9.6328357e-008
+4.8000000e+001    +2.0943106e-007    +9.6361468e-008
+4.9000000e+001    +1.6523678e-007    +9.2529653e-008
+5.0000000e+001    +1.3665735e-007    +8.8442690e-008
+5.1000000e+001    +1.4466380e-007    +8.1978975e-008
+5.2000000e+001    +1.3723820e-007    +8.1983565e-008
+5.3000000e+001    +1.6909966e-007    +7.6685822e-008
+5.4000000e+001    +2.3532644e-007    +7.6152105e-008
+5.5000000e+001    +2.2707121e-007    +8.2313591e-008
+5.6000000e+001    +1.3998283e-007    +7.9069906e-008
+5.7000000e+001    +1.5247677e-007    +7.1195302e-008
+5.8000000e+001    +2.2289419e-007    +6.9709159e-008
+5.9000000e+001    +3.2113113e-007    +8.0537781e-008
+6.0000000e+001    +5.3698290e-007    +1.1189421e-007
+6.1000000e+001    +2.9689693e-007    +8.0983710e-008
+6.2000000e+001    +1.4671672e-007    +6.9024544e-008
+6.3000000e+001    +1.4268362e-007    +6.5635263e-008
+6.4000000e+001    +1.5499549e-007    +6.2088773e-008
+6.5000000e+001    +1.5364779e-007    +6.2746196e-008
+6.6000000e+001    +1.4560749e-007    +6.4560524e-008
+6.7000000e+001    +1.6784333e-007    +6.1517490e-008
+6.8000000e+001    +2.2668236e-007    +5.8207810e-008
+6.9000000e+001    +1.7890171e-007    +5.1868803e-008
+7.0000000e+001    +1.2732403e-007    +5.3233361e-008
+7.1000000e+001    +1.2085614e-007    +5.2840875e-008
+7.2000000e+001    +1.1348047e-007    +5.2843721e-008
+7.3000000e+001    +1.1035556e-007    +5.4819672e-008
+7.4000000e+001    +1.1555468e-007    +5.4428575e-008
+7.5000000e+001    +1.1384288e-007    +5.7691423e-008
+7.6000000e+001    +9.9554782e-008    +5.3720580e-008
+7.7000000e+001    +1.0017847e-007    +4.9237503e-008
+7.8000000e+001    +1.0286578e-007    +5.1064593e-008
+7.9000000e+001    +9.8355322e-008    +5.6786089e-008
+8.0000000e+001    +1.0335565e-007    +5.1669804e-008
+8.1000000e+001    +1.0397083e-007    +5.3471659e-008
+8.2000000e+001    +9.8111776e-008    +5.5479681e-008
+8.3000000e+001    +9.6417033e-008    +5.0383754e-008
+8.4000000e+001    +9.0519329e-008    +4.9581118e-008
+8.5000000e+001    +9.0069435e-008    +4.5616254e-008
+8.6000000e+001    +8.8617654e-008    +4.4605148e-008
+8.7000000e+001    +8.9245887e-008    +5.1216254e-008
+8.8000000e+001    +8.1738641e-008    +5.1456482e-008
+8.9000000e+001    +7.7790638e-008    +4.8142589e-008
+9.0000000e+001    +8.3943746e-008    +4.8429566e-008
+9.1000000e+001    +8.5023729e-008    +4.9899892e-008
+9.2000000e+001    +8.0874507e-008    +4.6871200e-008
+9.3000000e+001    +7.9561410e-008    +4.2286722e-008
+9.4000000e+001    +8.1987345e-008    +4.2980382e-008
+9.5000000e+001    +8.2085890e-008    +4.7383978e-008
+9.6000000e+001    +8.7110429e-008    +4.7014794e-008
+9.7000000e+001    +8.8245010e-008    +4.9231883e-008
+9.8000000e+001    +8.4044821e-008    +4.7119443e-008
+9.9000000e+001    +8.1422812e-008    +4.1164689e-008
+1.0000000e+002    +7.8088433e-008    +4.4789132e-008
+1.0100000e+002    +8.0079268e-008    +4.4225942e-008
+1.0200000e+002    +8.8387942e-008    +4.5255526e-008
+1.0300000e+002    +9.0239595e-008    +4.4150351e-008
+1.0400000e+002    +8.1390901e-008    +4.1882366e-008
+1.0500000e+002    +7.8349601e-008    +4.1351459e-008
+1.0600000e+002    +7.8622598e-008    +4.2301998e-008
+1.0700000e+002    +7.6264314e-008    +4.2333408e-008
+1.0800000e+002    +7.3386040e-008    +4.1964576e-008
+1.0900000e+002    +7.3381933e-008    +4.2664148e-008
+1.1000000e+002    +7.2656704e-008    +4.4886164e-008
+1.1100000e+002    +7.4247247e-008    +4.2740805e-008
+1.1200000e+002    +8.1687418e-008    +4.0609379e-008
+1.1300000e+002    +8.6915250e-008    +4.2430337e-008
+1.1400000e+002    +7.5392293e-008    +4.3625217e-008
+1.1500000e+002    +7.5892430e-008    +4.1576765e-008
+1.1600000e+002    +7.5609400e-008    +4.0557424e-008
+1.1700000e+002    +7.6865120e-008    +3.6640390e-008
+1.1800000e+002    +8.3234312e-008    +4.0927592e-008
+1.1900000e+002    +3.4223706e-007    +4.0763499e-008
+1.2000000e+002    +6.6534687e-007    +4.4361432e-008
+1.2100000e+002    +3.3448444e-007    +4.1841780e-008
+1.2200000e+002    +7.3126245e-008    +3.7792692e-008
+1.2300000e+002    +7.7912354e-008    +3.9291002e-008
+1.2400000e+002    +7.4707621e-008    +3.9145245e-008
+1.2500000e+002    +7.1663507e-008    +3.6647631e-008
+1.2600000e+002    +7.0143635e-008    +3.6133258e-008
+1.2700000e+002    +7.5925691e-008    +3.5374928e-008
+1.2800000e+002    +6.5126308e-008    +3.4466289e-008
+1.2900000e+002    +7.1442116e-008    +3.3116709e-008
+1.3000000e+002    +6.8482166e-008    +3.8502826e-008
+1.3100000e+002    +6.5437312e-008    +4.2294523e-008
+1.3200000e+002    +6.9883654e-008    +3.9525215e-008
+1.3300000e+002    +7.2600884e-008    +3.9019987e-008
+1.3400000e+002    +7.4325790e-008    +3.8184762e-008
+1.3500000e+002    +7.0033821e-008    +3.9713353e-008
+1.3600000e+002    +7.9131134e-008    +4.2158032e-008
+1.3700000e+002    +7.3009836e-008    +3.9116632e-008
+1.3800000e+002    +6.9718119e-008    +3.8375621e-008
+1.3900000e+002    +7.3179173e-008    +3.7855362e-008
+1.4000000e+002    +8.3262009e-008    +3.5561854e-008
+1.4100000e+002    +1.0132393e-007    +3.5660619e-008
+1.4200000e+002    +1.2561195e-007    +3.7054015e-008
+1.4300000e+002    +1.5543176e-007    +3.7795555e-008
+1.4400000e+002    +2.5511579e-007    +3.6507792e-008
+1.4500000e+002    +4.5876632e-007    +3.8354180e-008
+1.4600000e+002    +5.7557105e-007    +3.8629391e-008
+1.4700000e+002    +4.5778566e-007    +3.7883094e-008
+1.4800000e+002    +2.5367453e-007    +3.7799001e-008
+1.4900000e+002    +1.5344077e-007    +3.9029885e-008
+1.5000000e+002    +1.0322647e-007    +3.7621582e-008
+1.5100000e+002    +9.2171618e-008    +3.8058527e-008
+1.5200000e+002    +1.3087396e-007    +3.6718234e-008
+1.5300000e+002    +1.5179876e-007    +3.9329329e-008
+1.5400000e+002    +7.9465465e-008    +3.8815653e-008
+1.5500000e+002    +7.1391931e-008    +3.6960682e-008
+1.5600000e+002    +8.2106979e-008    +3.6120365e-008
+1.5700000e+002    +6.9975023e-008    +3.5521190e-008
+1.5800000e+002    +6.2782860e-008    +3.7562931e-008
+1.5900000e+002    +6.8129758e-008    +3.8510226e-008
+1.6000000e+002    +7.4812689e-008    +3.5729478e-008
+1.6100000e+002    +7.0206511e-008    +3.4885463e-008
+1.6200000e+002    +6.3443167e-008    +3.6749654e-008
+1.6300000e+002    +6.7386104e-008    +3.4675395e-008
+1.6400000e+002    +6.6707024e-008    +3.4140726e-008
+1.6500000e+002    +6.7822263e-008    +3.4050917e-008
+1.6600000e+002    +6.9811030e-008    +3.3295432e-008
+1.6700000e+002    +6.3815953e-008    +3.4262808e-008
+1.6800000e+002    +6.6037025e-008    +3.3152837e-008
+1.6900000e+002    +6.0024284e-008    +3.3664715e-008
+1.7000000e+002    +6.0731146e-008    +3.8434866e-008
+1.7100000e+002    +5.7219310e-008    +3.8299852e-008
+1.7200000e+002    +5.8826139e-008    +3.4324142e-008
+1.7300000e+002    +6.0877888e-008    +3.5091450e-008
+1.7400000e+002    +5.9265943e-008    +3.4498584e-008
+1.7500000e+002    +5.4232618e-008    +3.4956855e-008
+1.7600000e+002    +5.1957549e-008    +3.4680991e-008
+1.7700000e+002    +5.1204388e-008    +3.5115498e-008
+1.7800000e+002    +6.0960090e-008    +3.0243484e-008
+1.7900000e+002    +4.1213983e-007    +5.2317848e-008
+1.8000000e+002    +8.1231457e-007    +8.5411649e-008
+1.8100000e+002    +4.0386701e-007    +5.0638644e-008
+1.8200000e+002    +5.6947112e-008    +3.1926046e-008
+1.8300000e+002    +5.8049086e-008    +3.5288188e-008
+1.8400000e+002    +5.5377498e-008    +3.6841605e-008
+1.8500000e+002    +5.2988096e-008    +3.7416477e-008
+1.8600000e+002    +5.5809167e-008    +3.6930381e-008
+1.8700000e+002    +5.9023531e-008    +3.2920511e-008
+1.8800000e+002    +5.5862746e-008    +3.5037974e-008
+1.8900000e+002    +5.1857356e-008    +3.3749096e-008
+1.9000000e+002    +5.3343300e-008    +3.3456377e-008
+1.9100000e+002    +5.4749655e-008    +3.2941227e-008
+1.9200000e+002    +5.4048460e-008    +3.4247162e-008
+1.9300000e+002    +5.3791879e-008    +3.3327215e-008
+1.9400000e+002    +4.9289483e-008    +3.4998909e-008
+1.9500000e+002    +5.3648080e-008    +3.2774015e-008
+1.9600000e+002    +5.4152171e-008    +3.3447158e-008
+1.9700000e+002    +5.7232064e-008    +3.6877989e-008
+1.9800000e+002    +5.5150323e-008    +3.4328703e-008
+1.9900000e+002    +5.2122676e-008    +3.3563037e-008
+2.0000000e+002    +5.9524190e-008    +3.5736502e-008
+2.0100000e+002    +5.9314768e-008    +3.4432173e-008
+2.0200000e+002    +5.7954516e-008    +3.6555523e-008
+2.0300000e+002    +5.5748107e-008    +3.4098768e-008
+2.0400000e+002    +5.2718544e-008    +3.4475221e-008
+2.0500000e+002    +5.7661662e-008    +3.4848100e-008
+2.0600000e+002    +5.2954480e-008    +3.3705138e-008
+2.0700000e+002    +5.2311815e-008    +3.7543636e-008
+2.0800000e+002    +5.2712526e-008    +3.6161712e-008
+2.0900000e+002    +5.4692158e-008    +3.1928781e-008
+2.1000000e+002    +5.6814212e-008    +3.4278496e-008
+2.1100000e+002    +5.5058663e-008    +3.4148524e-008
+2.1200000e+002    +5.1267282e-008    +3.3475558e-008
+2.1300000e+002    +5.4312824e-008    +3.5497916e-008
+2.1400000e+002    +5.5066220e-008    +3.5299504e-008
+2.1500000e+002    +5.6339253e-008    +3.2756567e-008
+2.1600000e+002    +5.9670434e-008    +3.2957146e-008
+2.1700000e+002    +9.4183477e-008    +3.1927168e-008
+2.1800000e+002    +8.2639502e-008    +3.2827312e-008
+2.1900000e+002    +5.2048790e-008    +3.3676027e-008
+2.2000000e+002    +5.4168645e-008    +3.3772412e-008
+2.2100000e+002    +5.5560818e-008    +3.2142250e-008
+2.2200000e+002    +5.3315663e-008    +3.1912588e-008
+2.2300000e+002    +5.5374883e-008    +3.2264730e-008
+2.2400000e+002    +5.3563500e-008    +3.2564252e-008
+2.2500000e+002    +5.1632259e-008    +3.5276180e-008
+2.2600000e+002    +5.1052762e-008    +3.3529115e-008
+2.2700000e+002    +4.9420244e-008    +3.1460356e-008
+2.2800000e+002    +5.4659981e-008    +3.2390592e-008
+2.2900000e+002    +5.5358470e-008    +2.9821027e-008
+2.3000000e+002    +4.9561631e-008    +3.2534231e-008
+2.3100000e+002    +5.1236615e-008    +3.2991213e-008
+2.3200000e+002    +5.3502433e-008    +3.4037274e-008
+2.3300000e+002    +5.4164659e-008    +3.7249812e-008
+2.3400000e+002    +5.1957834e-008    +3.2674954e-008
+2.3500000e+002    +5.1520647e-008    +3.0018427e-008
+2.3600000e+002    +5.1474675e-008    +3.3054228e-008
+2.3700000e+002    +4.9782184e-008    +3.2416530e-008
+2.3800000e+002    +4.9566477e-008    +3.2598415e-008
+2.3900000e+002    +5.3900365e-008    +3.2442522e-008
+2.4000000e+002    +7.1342178e-008    +3.2013766e-008
+2.4100000e+002    +5.7465353e-008    +3.3315214e-008
+2.4200000e+002    +5.1777761e-008    +3.3463504e-008
+2.4300000e+002    +5.2457676e-008    +3.4659333e-008
+2.4400000e+002    +5.6030380e-008    +3.3404696e-008
+2.4500000e+002    +4.8670934e-008    +3.2043129e-008
+2.4600000e+002    +4.7939515e-008    +3.2296665e-008
+2.4700000e+002    +5.4526971e-008    +3.3157313e-008
+2.4800000e+002    +5.4683809e-008    +3.2359527e-008
+2.4900000e+002    +5.0889795e-008    +3.1781848e-008
+2.5000000e+002    +5.2187442e-008    +3.1177798e-008
+2.5100000e+002    +5.3860315e-008    +3.4066659e-008
+2.5200000e+002    +5.1832991e-008    +3.2910354e-008
+2.5300000e+002    +5.1325856e-008    +3.3022452e-008
+2.5400000e+002    +5.5210727e-008    +3.3904378e-008
+2.5500000e+002    +6.1088869e-008    +3.4805502e-008
+2.5600000e+002    +6.5544597e-008    +3.6650970e-008
+2.5700000e+002    +6.3124659e-008    +3.5390585e-008
+2.5800000e+002    +6.6876204e-008    +3.3991711e-008
+2.5900000e+002    +6.8827177e-008    +3.6349523e-008
+2.6000000e+002    +7.4124166e-008    +3.6221596e-008
+2.6100000e+002    +8.0449581e-008    +3.1607502e-008
+2.6200000e+002    +8.5522480e-008    +3.1776857e-008
+2.6300000e+002    +8.2638138e-008    +3.2461941e-008
+2.6400000e+002    +9.0670824e-008    +3.0883808e-008
+2.6500000e+002    +1.0142600e-007    +3.0083985e-008
+2.6600000e+002    +1.1692935e-007    +3.1611219e-008
+2.6700000e+002    +1.5782834e-007    +3.1914482e-008
+2.6800000e+002    +1.7370139e-007    +3.2292302e-008
+2.6900000e+002    +1.9935946e-007    +3.1538899e-008
+2.7000000e+002    +2.3318523e-007    +3.4335603e-008
+2.7100000e+002    +2.6385322e-007    +3.4547593e-008
+2.7200000e+002    +2.6992933e-007    +3.5492928e-008
+2.7300000e+002    +3.6466767e-007    +3.4236859e-008
+2.7400000e+002    +6.2575094e-007    +3.3598248e-008
+2.7500000e+002    +6.2380207e-007    +3.2742829e-008
+2.7600000e+002    +6.9453228e-007    +3.2215809e-008
+2.7700000e+002    +9.1551834e-007    +3.3379106e-008
+2.7800000e+002    +1.0445827e-006    +3.3618914e-008
+2.7900000e+002    +9.1259591e-007    +3.2777109e-008
+2.8000000e+002    +6.7452208e-007    +3.2468641e-008
+2.8100000e+002    +5.9123352e-007    +3.1142800e-008
+2.8200000e+002    +5.7003035e-007    +2.9479272e-008
+2.8300000e+002    +4.2939723e-007    +3.2230950e-008
+2.8400000e+002    +3.3794186e-007    +3.4964188e-008
+2.8500000e+002    +2.9187609e-007    +3.4113260e-008
+2.8600000e+002    +2.3716028e-007    +3.4867927e-008
+2.8700000e+002    +2.3409051e-007    +3.2933524e-008
+2.8800000e+002    +1.9922773e-007    +3.0384307e-008
+2.8900000e+002    +1.8506202e-007    +3.1145124e-008
+2.9000000e+002    +1.6679746e-007    +2.9711607e-008
+2.9100000e+002    +1.4417921e-007    +3.0023600e-008
+2.9200000e+002    +1.2984458e-007    +3.2042003e-008
+2.9300000e+002    +1.1235377e-007    +3.1238656e-008
+2.9400000e+002    +1.0254553e-007    +3.3393547e-008
+2.9500000e+002    +9.0934023e-008    +3.2085904e-008
+2.9600000e+002    +8.1709480e-008    +3.2224300e-008
+2.9700000e+002    +8.1277754e-008    +3.2481299e-008
+2.9800000e+002    +7.6104044e-008    +3.2475057e-008
+2.9900000e+002    +1.1078812e-007    +3.4712688e-008
+3.0000000e+002    +1.7515288e-007    +4.0546606e-008
+3.0100000e+002    +1.0238049e-007    +3.5573841e-008
+3.0200000e+002    +6.2142789e-008    +3.5269981e-008
+3.0300000e+002    +5.9407775e-008    +3.3900584e-008
+3.0400000e+002    +6.0422870e-008    +3.6642643e-008
+3.0500000e+002    +5.7407842e-008    +3.6709608e-008
+3.0600000e+002    +5.5732073e-008    +3.3888377e-008
+3.0700000e+002    +5.2279088e-008    +3.5840632e-008
+3.0800000e+002    +5.0152554e-008    +3.6373915e-008
+3.0900000e+002    +5.5534958e-008    +3.6112237e-008
+3.1000000e+002    +5.6944298e-008    +3.4304890e-008
+3.1100000e+002    +5.3647490e-008    +3.1675665e-008
+3.1200000e+002    +6.0516754e-008    +3.1093872e-008
+3.1300000e+002    +6.3618735e-008    +3.2898974e-008
+3.1400000e+002    +5.6550835e-008    +3.3353608e-008
+3.1500000e+002    +5.4835503e-008    +3.1256977e-008
+3.1600000e+002    +5.3362339e-008    +3.3794073e-008
+3.1700000e+002    +5.2951687e-008    +3.3178654e-008
+3.1800000e+002    +4.9905317e-008    +3.1175883e-008
+3.1900000e+002    +4.9158476e-008    +3.1899031e-008
+3.2000000e+002    +5.3544511e-008    +3.4621944e-008
+3.2100000e+002    +5.0757041e-008    +3.2330334e-008
+3.2200000e+002    +4.8391030e-008    +3.1718926e-008
+3.2300000e+002    +4.7223804e-008    +3.1540665e-008
+3.2400000e+002    +4.6199531e-008    +3.0423930e-008
+3.2500000e+002    +4.2499341e-008    +3.1638439e-008
+3.2600000e+002    +4.6668927e-008    +3.2312553e-008
+3.2700000e+002    +4.8748802e-008    +3.2749625e-008
+3.2800000e+002    +4.6419132e-008    +3.4035441e-008
+3.2900000e+002    +4.7835883e-008    +3.3291155e-008
+3.3000000e+002    +5.0857512e-008    +3.3633089e-008
+3.3100000e+002    +4.8644917e-008    +3.4341447e-008
+3.3200000e+002    +4.4461149e-008    +3.3373205e-008
+3.3300000e+002    +4.7202963e-008    +3.3600390e-008
+3.3400000e+002    +4.5728882e-008    +3.4641374e-008
+3.3500000e+002    +4.7518551e-008    +3.1999075e-008
+3.3600000e+002    +4.5437801e-008    +3.1291552e-008
+3.3700000e+002    +4.2304972e-008    +3.0790900e-008
+3.3800000e+002    +4.5599478e-008    +3.1857976e-008
+3.3900000e+002    +4.3684892e-008    +3.2175759e-008
+3.4000000e+002    +4.4513513e-008    +3.3750542e-008
+3.4100000e+002    +4.9587214e-008    +3.2731794e-008
+3.4200000e+002    +4.9248101e-008    +3.3618395e-008
+3.4300000e+002    +5.0244157e-008    +3.2128348e-008
+3.4400000e+002    +4.7899476e-008    +3.4563566e-008
+3.4500000e+002    +5.0447412e-008    +3.5032009e-008
+3.4600000e+002    +5.2699040e-008    +3.4587750e-008
+3.4700000e+002    +5.3745417e-008    +3.4130345e-008
+3.4800000e+002    +5.4429592e-008    +3.6307600e-008
+3.4900000e+002    +6.4844258e-008    +3.3076628e-008
+3.5000000e+002    +7.9861692e-008    +3.1415517e-008
+3.5100000e+002    +7.3735762e-008    +3.2736505e-008
+3.5200000e+002    +6.4565484e-008    +3.3600166e-008
+3.5300000e+002    +6.7571996e-008    +3.3537585e-008
+3.5400000e+002    +6.6472843e-008    +3.4718635e-008
+3.5500000e+002    +6.5078488e-008    +3.5742151e-008
+3.5600000e+002    +7.4539166e-008    +3.5354891e-008
+3.5700000e+002    +7.4248305e-008    +3.3816455e-008
+3.5800000e+002    +5.7623183e-008    +3.3405392e-008
+3.5900000e+002    +4.8734087e-008    +3.3132821e-008
+3.6000000e+002    +5.6356456e-008    +3.4443968e-008
+3.6100000e+002    +5.0882477e-008    +3.4807336e-008
+3.6200000e+002    +5.0442651e-008    +3.3399012e-008
+3.6300000e+002    +5.5333679e-008    +3.3065263e-008
+3.6400000e+002    +5.2061363e-008    +3.3719353e-008
+3.6500000e+002    +4.7357140e-008    +3.5161527e-008
+3.6600000e+002    +4.4549889e-008    +3.7208363e-008
+3.6700000e+002    +4.5136925e-008    +3.5634002e-008
+3.6800000e+002    +4.3190941e-008    +3.6190748e-008
+3.6900000e+002    +4.2154095e-008    +3.6278355e-008
+3.7000000e+002    +4.6247948e-008    +3.5537223e-008
+3.7100000e+002    +4.7974002e-008    +3.6464005e-008
+3.7200000e+002    +4.4260918e-008    +3.3677210e-008
+3.7300000e+002    +4.2699575e-008    +3.4266606e-008
+3.7400000e+002    +4.8377430e-008    +3.2571332e-008
+3.7500000e+002    +5.1077883e-008    +3.1174718e-008
+3.7600000e+002    +4.7400057e-008    +3.1780278e-008
+3.7700000e+002    +4.7360469e-008    +3.4363172e-008
+3.7800000e+002    +5.0098400e-008    +3.6657209e-008
+3.7900000e+002    +5.2770897e-008    +3.2810522e-008
+3.8000000e+002    +4.8634611e-008    +3.1110435e-008
+3.8100000e+002    +4.8204367e-008    +3.2972022e-008
+3.8200000e+002    +4.9523557e-008    +3.6088654e-008
+3.8300000e+002    +4.8148618e-008    +3.4531514e-008
+3.8400000e+002    +4.4304045e-008    +3.3801793e-008
+3.8500000e+002    +3.9612800e-008    +3.4346272e-008
+3.8600000e+002    +4.1180510e-008    +3.5098271e-008
+3.8700000e+002    +4.5572349e-008    +3.3582168e-008
+3.8800000e+002    +4.6219672e-008    +3.3841378e-008
+3.8900000e+002    +4.9120924e-008    +3.4053684e-008
+3.9000000e+002    +4.8084797e-008    +3.5891350e-008
+3.9100000e+002    +4.7406669e-008    +3.6665057e-008
+3.9200000e+002    +4.5713218e-008    +3.5812938e-008
+3.9300000e+002    +4.5287585e-008    +3.4993377e-008
+3.9400000e+002    +4.7815821e-008    +3.3344492e-008
+3.9500000e+002    +4.9443091e-008    +3.0122326e-008
+3.9600000e+002    +5.1913926e-008    +3.3251958e-008
+3.9700000e+002    +4.6152888e-008    +3.5226947e-008
+3.9800000e+002    +4.4052396e-008    +3.3880674e-008
+3.9900000e+002    +4.4956941e-008    +3.6027288e-008
+4.0000000e+002    +4.6629232e-008    +3.6916919e-008
+4.0100000e+002    +4.3473833e-008    +3.5704105e-008
+4.0200000e+002    +4.7464322e-008    +3.7024083e-008
+4.0300000e+002    +5.0997748e-008    +3.6679431e-008
+4.0400000e+002    +4.5009440e-008    +3.3559207e-008
+4.0500000e+002    +4.3110351e-008    +3.3111984e-008
+4.0600000e+002    +4.2929916e-008    +3.6625870e-008
+4.0700000e+002    +4.6096826e-008    +3.6713075e-008
+4.0800000e+002    +4.7035602e-008    +3.4905810e-008
+4.0900000e+002    +4.7527735e-008    +3.5173766e-008
+4.1000000e+002    +4.6500087e-008    +3.5203129e-008
+4.1100000e+002    +4.2045240e-008    +3.2776963e-008
+4.1200000e+002    +4.3245464e-008    +3.5038280e-008
+4.1300000e+002    +4.6298247e-008    +3.5727478e-008
+4.1400000e+002    +4.6404612e-008    +3.7351665e-008
+4.1500000e+002    +4.5106457e-008    +3.7727023e-008
+4.1600000e+002    +4.1649596e-008    +3.9060883e-008
+4.1700000e+002    +4.3071935e-008    +4.0987807e-008
+4.1800000e+002    +4.5205020e-008    +4.0200401e-008
+4.1900000e+002    +9.2944674e-008    +3.6799157e-008
+4.2000000e+002    +1.6400176e-007    +3.8350475e-008
+4.2100000e+002    +9.0470543e-008    +3.9011720e-008
+4.2200000e+002    +3.9816872e-008    +3.6599058e-008
+4.2300000e+002    +4.3047020e-008    +3.6519779e-008
+4.2400000e+002    +4.4641208e-008    +3.8654935e-008
+4.2500000e+002    +4.4001059e-008    +4.0018261e-008
+4.2600000e+002    +3.8995061e-008    +3.6236951e-008
+4.2700000e+002    +4.2274884e-008    +3.5106094e-008
+4.2800000e+002    +4.3862382e-008    +3.6778797e-008
+4.2900000e+002    +4.5446733e-008    +3.5751455e-008
+4.3000000e+002    +4.4215941e-008    +3.6212253e-008
+4.3100000e+002    +4.4797098e-008    +3.9535067e-008
+4.3200000e+002    +4.6521993e-008    +3.9285354e-008
+4.3300000e+002    +5.4226128e-008    +3.9427910e-008
+4.3400000e+002    +1.8709875e-007    +3.9275822e-008
+4.3500000e+002    +2.5227823e-007    +4.0425828e-008
+4.3600000e+002    +9.9412020e-008    +4.0165592e-008
+4.3700000e+002    +5.5639628e-008    +3.8545334e-008
+4.3800000e+002    +6.3224334e-008    +3.6581863e-008
+4.3900000e+002    +6.0394484e-008    +3.6965915e-008
+4.4000000e+002    +5.9136983e-008    +3.9580019e-008
+4.4100000e+002    +6.3006318e-008    +3.8902350e-008
+4.4200000e+002    +7.5538289e-008    +3.5810892e-008
+4.4300000e+002    +7.6676727e-008    +3.9168203e-008
+4.4400000e+002    +6.8700338e-008    +4.1309939e-008
+4.4500000e+002    +5.4012034e-008    +4.3474216e-008
+4.4600000e+002    +5.1406619e-008    +4.4716948e-008
+4.4700000e+002    +4.9796725e-008    +4.0719705e-008
+4.4800000e+002    +4.5283706e-008    +3.7940453e-008
+4.4900000e+002    +4.5959769e-008    +3.8801591e-008
+4.5000000e+002    +4.2740663e-008    +4.1808487e-008
+4.5100000e+002    +4.1301139e-008    +4.0820243e-008
+4.5200000e+002    +3.8624982e-008    +4.0131695e-008
+4.5300000e+002    +3.8635417e-008    +3.9652051e-008
+4.5400000e+002    +3.8294726e-008    +4.1830528e-008
+4.5500000e+002    +3.6795399e-008    +4.2081354e-008
+4.5600000e+002    +4.2778879e-008    +4.2049162e-008
+4.5700000e+002    +4.5945189e-008    +3.9943416e-008
+4.5800000e+002    +4.7341128e-008    +3.7722465e-008
+4.5900000e+002    +4.5977536e-008    +3.9743973e-008
+4.6000000e+002    +4.2396110e-008    +3.9806512e-008
+4.6100000e+002    +4.0578804e-008    +4.0541618e-008
+4.6200000e+002    +4.0128917e-008    +3.8946027e-008
+4.6300000e+002    +3.6827288e-008    +4.1918664e-008
+4.6400000e+002    +3.5169982e-008    +4.4320149e-008
+4.6500000e+002    +3.7212530e-008    +4.2662695e-008
+4.6600000e+002    +3.9489731e-008    +4.0697046e-008
+4.6700000e+002    +4.0697312e-008    +4.2820325e-008
+4.6800000e+002    +4.1574438e-008    +4.5350180e-008
+4.6900000e+002    +3.9810313e-008    +4.2944531e-008
+4.7000000e+002    +4.3330921e-008    +4.1552170e-008
+4.7100000e+002    +4.1199144e-008    +4.0914788e-008
+4.7200000e+002    +4.0379781e-008    +4.3580265e-008
+4.7300000e+002    +4.3234827e-008    +3.9109160e-008
+4.7400000e+002    +4.4696776e-008    +3.7686036e-008
+4.7500000e+002    +4.7156394e-008    +4.3512419e-008
+4.7600000e+002    +4.3290786e-008    +3.9195132e-008
+4.7700000e+002    +4.1188425e-008    +3.9017547e-008
+4.7800000e+002    +4.4042917e-008    +4.2387033e-008
+4.7900000e+002    +6.6691200e-008    +4.2479563e-008
+4.8000000e+002    +1.0729914e-007    +3.8502151e-008
+4.8100000e+002    +6.4553717e-008    +4.0568558e-008
+4.8200000e+002    +4.8258066e-008    +4.3863011e-008
+4.8300000e+002    +5.3020393e-008    +3.9892004e-008
+4.8400000e+002    +5.6804048e-008    +4.0724938e-008
+4.8500000e+002    +5.4743644e-008    +3.9561684e-008
+4.8600000e+002    +5.4506859e-008    +4.2185302e-008
+4.8700000e+002    +5.6968751e-008    +4.4386766e-008
+4.8800000e+002    +6.4273792e-008    +4.5305487e-008
+4.8900000e+002    +6.7106498e-008    +4.3604771e-008
+4.9000000e+002    +6.4193962e-008    +4.3388905e-008
+4.9100000e+002    +6.6865191e-008    +4.3860215e-008
+4.9200000e+002    +7.2528216e-008    +4.3293255e-008
+4.9300000e+002    +7.0639665e-008    +4.2973962e-008
+4.9400000e+002    +6.9537847e-008    +4.4979306e-008
+4.9500000e+002    +7.6342559e-008    +4.2427217e-008
+4.9600000e+002    +7.2172021e-008    +4.4934783e-008
+4.9700000e+002    +6.7448283e-008    +4.6330332e-008
+4.9800000e+002    +6.9821688e-008    +4.3195445e-008
+4.9900000e+002    +6.9434932e-008    +4.5620009e-008
+5.0000000e+002    +7.9077893e-008    +4.0258001e-008
+5.0100000e+002    +7.7928441e-008    +3.9378158e-008
+5.0200000e+002    +6.3811676e-008    +4.3966384e-008
+5.0300000e+002    +7.3412075e-008    +4.1960661e-008
+5.0400000e+002    +7.4042340e-008    +4.1977572e-008
+5.0500000e+002    +7.8917253e-008    +4.3927205e-008
+5.0600000e+002    +8.5822734e-008    +4.5824478e-008
+5.0700000e+002    +1.0180288e-007    +4.5701878e-008
+5.0800000e+002    +1.0858395e-007    +4.3131514e-008
+5.0900000e+002    +1.1192579e-007    +4.4059846e-008
+5.1000000e+002    +1.1944526e-007    +4.7113595e-008
+5.1100000e+002    +1.0728536e-007    +4.9065566e-008
+5.1200000e+002    +9.8283643e-008    +4.5710660e-008
+5.1300000e+002    +9.3260446e-008    +4.3771458e-008
+5.1400000e+002    +8.7056790e-008    +4.3670696e-008
+5.1500000e+002    +7.1785408e-008    +4.1726402e-008
+5.1600000e+002    +6.1830065e-008    +4.4504176e-008
+5.1700000e+002    +5.3646371e-008    +4.7793883e-008
+5.1800000e+002    +4.6502130e-008    +4.3262084e-008
+5.1900000e+002    +4.5890236e-008    +4.2205084e-008
+5.2000000e+002    +4.7511719e-008    +4.2480355e-008
+5.2100000e+002    +4.4253142e-008    +4.6086704e-008
+5.2200000e+002    +3.8701859e-008    +4.4749168e-008
+5.2300000e+002    +4.1159900e-008    +4.4243571e-008
+5.2400000e+002    +4.1659519e-008    +4.6202473e-008
+5.2500000e+002    +4.1269818e-008    +4.4132371e-008
+5.2600000e+002    +4.5178425e-008    +4.1353140e-008
+5.2700000e+002    +5.3775640e-008    +4.3617888e-008
+5.2800000e+002    +5.9109329e-008    +4.5704137e-008
+5.2900000e+002    +7.2791487e-008    +4.7492836e-008
+5.3000000e+002    +9.5656986e-008    +4.7682292e-008
+5.3100000e+002    +1.2416396e-007    +4.5414108e-008
+5.3200000e+002    +1.5393282e-007    +4.8985470e-008
+5.3300000e+002    +1.7865243e-007    +5.4323319e-008
+5.3400000e+002    +1.9141659e-007    +5.3528403e-008
+5.3500000e+002    +1.9347672e-007    +5.2096471e-008
+5.3600000e+002    +1.8842121e-007    +5.1366449e-008
+5.3700000e+002    +1.6963746e-007    +5.1059601e-008
+5.3800000e+002    +1.4813335e-007    +5.0427754e-008
+5.3900000e+002    +1.2655649e-007    +5.1868916e-008
+5.4000000e+002    +1.2486612e-007    +5.0026614e-008
+5.4100000e+002    +1.0828607e-007    +4.7263121e-008
+5.4200000e+002    +1.0263552e-007    +4.7926672e-008
+5.4300000e+002    +9.9850133e-008    +4.7173224e-008
+5.4400000e+002    +9.6364218e-008    +4.5140492e-008
+5.4500000e+002    +9.6548391e-008    +4.3942833e-008
+5.4600000e+002    +1.3362138e-007    +5.0126626e-008
+5.4700000e+002    +2.1727722e-007    +5.2122562e-008
+5.4800000e+002    +3.8381225e-007    +5.0903765e-008
+5.4900000e+002    +6.5095423e-007    +4.9642672e-008
+5.5000000e+002    +1.1088146e-006    +4.9025825e-008
+5.5100000e+002    +1.4240176e-006    +4.8416116e-008
+5.5200000e+002    +1.3659809e-006    +4.5644509e-008
+5.5300000e+002    +1.7671617e-006    +5.1868291e-008
+5.5400000e+002    +1.7185937e-006    +5.3774695e-008
+5.5500000e+002    +7.5749494e-007    +5.0327802e-008
+5.5600000e+002    +5.3739694e-007    +4.8451000e-008
+5.5700000e+002    +4.0298244e-007    +5.1174322e-008
+5.5800000e+002    +3.6179705e-007    +4.8896649e-008
+5.5900000e+002    +3.2719865e-007    +4.8434085e-008
+5.6000000e+002    +2.8334858e-007    +5.0171060e-008
+5.6100000e+002    +2.3173578e-007    +5.3439731e-008
+5.6200000e+002    +2.0936301e-007    +5.5292443e-008
+5.6300000e+002    +1.9812069e-007    +5.2335889e-008
+5.6400000e+002    +1.8695685e-007    +4.9935846e-008
+5.6500000e+002    +1.5555418e-007    +5.2112835e-008
+5.6600000e+002    +1.4189966e-007    +5.2115865e-008
+5.6700000e+002    +1.1420043e-007    +5.4504525e-008
+5.6800000e+002    +9.5186785e-008    +5.3982035e-008
+5.6900000e+002    +8.8639354e-008    +5.5112551e-008
+5.7000000e+002    +8.6430013e-008    +5.5391304e-008
+5.7100000e+002    +9.1277627e-008    +5.2047362e-008
+5.7200000e+002    +1.0020465e-007    +5.2355198e-008
+5.7300000e+002    +1.2192211e-007    +5.3946309e-008
+5.7400000e+002    +1.4143799e-007    +5.5072569e-008
+5.7500000e+002    +1.6702928e-007    +5.2915073e-008
+5.7600000e+002    +1.9047023e-007    +5.0364509e-008
+5.7700000e+002    +2.1558813e-007    +4.8025072e-008
+5.7800000e+002    +2.5480588e-007    +4.8100162e-008
+5.7900000e+002    +2.8375143e-007    +5.0560423e-008
+5.8000000e+002    +3.1100873e-007    +5.2300216e-008
+5.8100000e+002    +2.9294199e-007    +4.9885760e-008
+5.8200000e+002    +2.5346489e-007    +5.4258464e-008
+5.8300000e+002    +2.0673997e-007    +5.1547975e-008
+5.8400000e+002    +1.8824545e-007    +4.9156480e-008
+5.8500000e+002    +1.6767294e-007    +5.5218184e-008
+5.8600000e+002    +1.2995183e-007    +5.6431748e-008
+5.8700000e+002    +1.1351575e-007    +5.2811412e-008
+5.8800000e+002    +8.4873193e-008    +5.1091678e-008
+5.8900000e+002    +6.3311163e-008    +5.3114960e-008
+5.9000000e+002    +5.6539598e-008    +5.3867883e-008
+5.9100000e+002    +5.1078949e-008    +5.1700901e-008
+5.9200000e+002    +4.8392625e-008    +5.3483287e-008
+5.9300000e+002    +5.3627115e-008    +4.8585242e-008
+5.9400000e+002    +5.4506557e-008    +5.0439326e-008
+5.9500000e+002    +5.3067570e-008    +5.3989861e-008
+5.9600000e+002    +5.3706778e-008    +5.6738223e-008
+5.9700000e+002    +5.1454336e-008    +5.6509624e-008
+5.9800000e+002    +5.1325518e-008    +5.8681188e-008
+5.9900000e+002    +5.8666952e-008    +5.3618166e-008
+6.0000000e+002    +8.2153242e-008    +4.9991911e-008
+6.0100000e+002    +1.2156241e-007    +5.1756846e-008
+6.0200000e+002    +1.8643640e-007    +5.6728069e-008
+6.0300000e+002    +2.1799600e-007    +5.9337697e-008
+6.0400000e+002    +2.6857921e-007    +5.5587542e-008
+6.0500000e+002    +3.0028281e-007    +5.5705520e-008
+6.0600000e+002    +1.9745249e-007    +5.7076750e-008
+6.0700000e+002    +1.0618285e-007    +5.6582945e-008
+6.0800000e+002    +5.6093537e-008    +5.7225026e-008
+6.0900000e+002    +4.3883869e-008    +5.6107147e-008
+6.1000000e+002    +4.2844686e-008    +5.8402293e-008
+6.1100000e+002    +4.4505985e-008    +5.4091025e-008
+6.1200000e+002    +4.2304460e-008    +5.8368638e-008
+6.1300000e+002    +3.8761481e-008    +5.6883060e-008
+6.1400000e+002    +3.6607457e-008    +5.1870341e-008
+6.1500000e+002    +4.0063938e-008    +5.3876224e-008
+6.1600000e+002    +4.6219014e-008    +5.4099875e-008
+6.1700000e+002    +3.9405016e-008    +5.5432917e-008
+6.1800000e+002    +3.6124927e-008    +6.0090883e-008
+6.1900000e+002    +3.8244387e-008    +5.7842442e-008
+6.2000000e+002    +3.9018616e-008    +6.1704192e-008
+6.2100000e+002    +3.8178140e-008    +6.2094841e-008
+6.2200000e+002    +3.7121772e-008    +5.6431684e-008
+6.2300000e+002    +3.6782271e-008    +5.9400080e-008
+6.2400000e+002    +4.0067722e-008    +6.3089665e-008
+6.2500000e+002    +4.0099408e-008    +5.9595536e-008
+6.2600000e+002    +3.6897145e-008    +5.5261975e-008
+6.2700000e+002    +3.6465568e-008    +5.3611217e-008
+6.2800000e+002    +3.6452477e-008    +5.5685405e-008
+6.2900000e+002    +3.6459003e-008    +5.9160755e-008
+6.3000000e+002    +3.6945099e-008    +6.1588857e-008
+6.3100000e+002    +3.4776928e-008    +5.8314640e-008
+6.3200000e+002    +3.6428990e-008    +5.2425605e-008
+6.3300000e+002    +4.0331354e-008    +5.3245635e-008
+6.3400000e+002    +4.0494509e-008    +5.8669141e-008
+6.3500000e+002    +3.8776253e-008    +6.5796961e-008
+6.3600000e+002    +4.0255394e-008    +6.3747535e-008
+6.3700000e+002    +4.3011823e-008    +5.6021463e-008
+6.3800000e+002    +4.0687393e-008    +6.0155315e-008
+6.3900000e+002    +3.9420723e-008    +6.0761231e-008
+6.4000000e+002    +4.0811866e-008    +6.0008929e-008
+6.4100000e+002    +4.4975998e-008    +5.9424149e-008
+6.4200000e+002    +4.6052158e-008    +5.9291459e-008
+6.4300000e+002    +5.4837489e-008    +5.7780806e-008
+6.4400000e+002    +7.5484898e-008    +5.8694912e-008
+6.4500000e+002    +9.3092360e-008    +6.0592612e-008
+6.4600000e+002    +9.3855718e-008    +6.0344576e-008
+6.4700000e+002    +8.2436507e-008    +6.0492169e-008
+6.4800000e+002    +6.3775815e-008    +5.9265165e-008
+6.4900000e+002    +5.6948238e-008    +5.7919145e-008
+6.5000000e+002    +6.4993159e-008    +5.9514974e-008
+6.5100000e+002    +7.7726945e-008    +6.3192893e-008
+6.5200000e+002    +1.1153384e-007    +6.1577900e-008
+6.5300000e+002    +8.5575643e-008    +5.6057580e-008
+6.5400000e+002    +6.5497403e-008    +5.9002861e-008
+6.5500000e+002    +6.4828171e-008    +6.3438918e-008
+6.5600000e+002    +6.8749387e-008    +6.5932340e-008
+6.5700000e+002    +5.5166492e-008    +6.3680936e-008
+6.5800000e+002    +4.5651277e-008    +5.9057562e-008
+6.5900000e+002    +5.4753261e-008    +6.1421588e-008
+6.6000000e+002    +7.7699809e-008    +6.1800741e-008
+6.6100000e+002    +5.3039493e-008    +6.6422281e-008
+6.6200000e+002    +4.0919549e-008    +6.1511408e-008
+6.6300000e+002    +4.1635879e-008    +6.0065027e-008
+6.6400000e+002    +4.3379902e-008    +6.0142234e-008
+6.6500000e+002    +4.4808512e-008    +5.9841021e-008
+6.6600000e+002    +4.5748568e-008    +5.8174844e-008
+6.6700000e+002    +4.6738716e-008    +6.3628377e-008
+6.6800000e+002    +4.3957794e-008    +6.2014102e-008
+6.6900000e+002    +4.4761059e-008    +6.0956680e-008
+6.7000000e+002    +4.5930157e-008    +6.4514253e-008
+6.7100000e+002    +4.6197503e-008    +6.4882862e-008
+6.7200000e+002    +4.8328854e-008    +6.3256685e-008
+6.7300000e+002    +4.5962040e-008    +6.1506007e-008
+6.7400000e+002    +4.9725369e-008    +6.6058128e-008
+6.7500000e+002    +4.9782894e-008    +6.8883423e-008
+6.7600000e+002    +4.7300343e-008    +6.8224374e-008
+6.7700000e+002    +5.0011785e-008    +6.4198048e-008
+6.7800000e+002    +4.9381352e-008    +6.4025379e-008
+6.7900000e+002    +4.5589864e-008    +6.6547031e-008
+6.8000000e+002    +4.4999165e-008    +6.3635156e-008
+6.8100000e+002    +4.7853796e-008    +6.2132827e-008
+6.8200000e+002    +4.8998380e-008    +6.4327871e-008
+6.8300000e+002    +4.7976108e-008    +6.1806915e-008
+6.8400000e+002    +4.7988596e-008    +5.8345186e-008
+6.8500000e+002    +5.4340084e-008    +5.7074743e-008
+6.8600000e+002    +5.9192264e-008    +6.4357124e-008
+6.8700000e+002    +6.5880378e-008    +6.9318617e-008
+6.8800000e+002    +6.2957362e-008    +6.7456952e-008
+6.8900000e+002    +5.5861950e-008    +6.4845970e-008
+6.9000000e+002    +6.9812948e-008    +6.2259026e-008
+6.9100000e+002    +8.5503324e-008    +6.5906640e-008
+6.9200000e+002    +9.9457552e-008    +7.0267582e-008
+6.9300000e+002    +1.1114462e-007    +7.2070030e-008
+6.9400000e+002    +1.2212467e-007    +6.9765512e-008
+6.9500000e+002    +1.0083506e-007    +6.9402688e-008
+6.9600000e+002    +9.3619619e-008    +7.0139635e-008
+6.9700000e+002    +9.1229737e-008    +6.7923686e-008
+6.9800000e+002    +8.2104819e-008    +6.6443945e-008
+6.9900000e+002    +7.8483822e-008    +6.3318602e-008
+7.0000000e+002    +8.6823590e-008    +6.6858583e-008
+7.0100000e+002    +8.3381579e-008    +6.6544551e-008
+7.0200000e+002    +8.0135031e-008    +6.5257801e-008
+7.0300000e+002    +8.0801371e-008    +7.0835540e-008
+7.0400000e+002    +8.2898140e-008    +6.6839426e-008
+7.0500000e+002    +8.2289738e-008    +6.8688422e-008
+7.0600000e+002    +8.2438952e-008    +6.7756019e-008
+7.0700000e+002    +8.0055976e-008    +6.8544374e-008
+7.0800000e+002    +8.0723069e-008    +6.8746594e-008
+7.0900000e+002    +8.0215315e-008    +6.1992729e-008
+7.1000000e+002    +7.8735248e-008    +6.9421588e-008
+7.1100000e+002    +8.9617643e-008    +6.6833479e-008
+7.1200000e+002    +9.2221320e-008    +6.9901915e-008
+7.1300000e+002    +1.0263676e-007    +7.1495712e-008
+7.1400000e+002    +1.1394492e-007    +7.3311227e-008
+7.1500000e+002    +1.2179927e-007    +7.0534412e-008
+7.1600000e+002    +1.2279777e-007    +7.2661649e-008
+7.1700000e+002    +1.1756219e-007    +6.9835330e-008
+7.1800000e+002    +1.2026220e-007    +7.3824786e-008
+7.1900000e+002    +1.1830856e-007    +7.7220399e-008
+7.2000000e+002    +1.0510887e-007    +6.8065752e-008
+7.2100000e+002    +8.4498012e-008    +6.7716009e-008
+7.2200000e+002    +7.4581244e-008    +7.3383703e-008
+7.2300000e+002    +6.9893709e-008    +6.6017307e-008
+7.2400000e+002    +6.3038982e-008    +6.7980906e-008
+7.2500000e+002    +6.1379858e-008    +7.2158315e-008
+7.2600000e+002    +5.5853732e-008    +6.9063667e-008
+7.2700000e+002    +5.1250119e-008    +6.8519242e-008
+7.2800000e+002    +4.7700045e-008    +6.8909223e-008
+7.2900000e+002    +4.7424159e-008    +7.2461276e-008
+7.3000000e+002    +4.7889220e-008    +7.3473998e-008
+7.3100000e+002    +5.9296212e-008    +6.8686163e-008
+7.3200000e+002    +5.2397983e-008    +7.3362756e-008
+7.3300000e+002    +4.7054765e-008    +7.0486109e-008
+7.3400000e+002    +4.4026333e-008    +6.5293129e-008
+7.3500000e+002    +4.1171109e-008    +7.0358993e-008
+7.3600000e+002    +4.1561066e-008    +6.6113415e-008
+7.3700000e+002    +4.6340507e-008    +7.1504502e-008
+7.3800000e+002    +4.7197315e-008    +7.5028126e-008
+7.3900000e+002    +4.5954923e-008    +7.2875928e-008
+7.4000000e+002    +4.1355317e-008    +7.0642301e-008
+7.4100000e+002    +4.1396024e-008    +6.7292802e-008
+7.4200000e+002    +4.2261519e-008    +7.2256462e-008
+7.4300000e+002    +4.1544734e-008    +7.3905888e-008
+7.4400000e+002    +4.0153953e-008    +7.2910986e-008
+7.4500000e+002    +4.6453039e-008    +7.2543273e-008
+7.4600000e+002    +4.6904251e-008    +6.6097741e-008
+7.4700000e+002    +4.9606221e-008    +7.2944694e-008
+7.4800000e+002    +5.0827254e-008    +7.6964852e-008
+7.4900000e+002    +5.3270430e-008    +7.2683591e-008
+7.5000000e+002    +5.8124279e-008    +7.7836255e-008
+7.5100000e+002    +5.6737726e-008    +7.9694914e-008
+7.5200000e+002    +5.1526584e-008    +7.6621774e-008
+7.5300000e+002    +4.5544489e-008    +7.7636194e-008
+7.5400000e+002    +4.3053447e-008    +7.6194006e-008
+7.5500000e+002    +4.8408459e-008    +6.8275405e-008
+7.5600000e+002    +4.8146131e-008    +7.0822161e-008
+7.5700000e+002    +4.8015369e-008    +7.1187330e-008
+7.5800000e+002    +4.3845578e-008    +6.4309020e-008
+7.5900000e+002    +4.6729070e-008    +7.1229074e-008
+7.6000000e+002    +4.6314515e-008    +7.2213950e-008
+7.6100000e+002    +4.2493511e-008    +7.0672087e-008
+7.6200000e+002    +4.3013237e-008    +7.5081694e-008
+7.6300000e+002    +4.3565624e-008    +7.8309007e-008
+7.6400000e+002    +4.4093817e-008    +7.5565332e-008
+7.6500000e+002    +4.4844931e-008    +7.9408863e-008
+7.6600000e+002    +4.5043503e-008    +7.6889265e-008
+7.6700000e+002    +4.5494009e-008    +7.6948972e-008
+7.6800000e+002    +4.5155065e-008    +7.5843950e-008
+7.6900000e+002    +4.2115836e-008    +7.6828755e-008
+7.7000000e+002    +3.8527141e-008    +8.0122099e-008
+7.7100000e+002    +3.7657166e-008    +7.6805307e-008
+7.7200000e+002    +3.9758639e-008    +7.9320849e-008
+7.7300000e+002    +3.7041161e-008    +7.5955704e-008
+7.7400000e+002    +3.7987387e-008    +7.9992539e-008
+7.7500000e+002    +4.0998835e-008    +7.8129169e-008
+7.7600000e+002    +3.9127070e-008    +7.8185202e-008
+7.7700000e+002    +4.1798941e-008    +7.7187678e-008
+7.7800000e+002    +3.8575013e-008    +7.6491318e-008
+7.7900000e+002    +4.6160793e-008    +7.6400418e-008
+7.8000000e+002    +6.1974696e-008    +8.4763954e-008
+7.8100000e+002    +4.4655962e-008    +8.5766310e-008
+7.8200000e+002    +3.6633509e-008    +8.9078291e-008
+7.8300000e+002    +3.8294473e-008    +8.9665477e-008
+7.8400000e+002    +4.1179877e-008    +8.2341792e-008
+7.8500000e+002    +4.1619792e-008    +7.1539056e-008
+7.8600000e+002    +4.0934918e-008    +7.4019823e-008
+7.8700000e+002    +4.0285549e-008    +7.7926387e-008
+7.8800000e+002    +3.6354312e-008    +7.9872656e-008
+7.8900000e+002    +3.7821998e-008    +7.2962081e-008
+7.9000000e+002    +3.7785640e-008    +7.7616420e-008
+7.9100000e+002    +3.8431534e-008    +7.8827277e-008
+7.9200000e+002    +3.8858637e-008    +7.4163566e-008
+7.9300000e+002    +3.6757562e-008    +7.9148684e-008
+7.9400000e+002    +3.7925627e-008    +7.9175194e-008
+7.9500000e+002    +3.4822321e-008    +8.1987345e-008
+7.9600000e+002    +3.6520820e-008    +8.1645808e-008
+7.9700000e+002    +3.9411720e-008    +8.4100023e-008
+7.9800000e+002    +3.8667075e-008    +8.0758092e-008
+7.9900000e+002    +3.6706304e-008    +8.2682433e-008
#
#
# North DC Val: 0.5549351100000001 VoltsSouth DC Val: 0.5314642500000001 Volts
# SR785 Measurement - Timestamp: Aug 28 2020 - 17:07:41
# Parameter File: /home/controls/Git/cit_ctnlab/ctn_scripts/TransRINSpecShort.yml
#---------- Measurement Setup ------------
# Start Frequency (Hz): 0.000000
# Frequency Span (Hz): 102400.000000
# Frequency Resolution: 800
# Number of Averages: 100
# Averaging Mode: RMS
# Window function: Hanning
#---------- Measurement Parameters ----------
# Measurement Group:  "FFT" "FFT"
# Measurements:  "FFT 1" "FFT 2"
# View:  "Log Magnitude" "Log Magnitude"
# Unit:  "Vrms/rtHz" "Vrms/rtHz"
#---------- Input Parameters ----------
# Input Source: Analog
# Input Mode: Single ended, Single ended
# Input Grounding: Float, Float
# Input Coupling: AC, AC
# Input Range: -36.0dBVpk, -36.0dBVpk
# Auto Range: Off, Off
# Auto Range Mode: Tracking, Tracking
# Anti-Aliasing Filter: On, On
#---------- Source Parameters ----------
# Source Type: Sine
# Source Amplitude: 500.0mVpk
# Source On: 0

#---------- Measurement Data ----------
# [Freq(Hz) Display 0(Vrms/rtHz) Display 1(Vrms/rtHz) ]
+8.9600000e+002    +9.3812858e-008    +9.7276839e-008
+1.0240000e+003    +8.2128885e-008    +1.2008526e-007
+1.1520000e+003    +4.8807930e-008    +1.4443653e-007
+1.2800000e+003    +4.3568161e-008    +1.6560730e-007
+1.4080000e+003    +4.4667487e-008    +1.7910827e-007
+1.5360000e+003    +5.1486435e-008    +1.9186287e-007
+1.6640000e+003    +5.8666565e-008    +2.2124473e-007
+1.7920000e+003    +6.6243047e-008    +2.2204416e-007
+1.9200000e+003    +7.8716745e-008    +2.4963364e-007
+2.0480000e+003    +9.0792661e-008    +2.5893021e-007
+2.1760000e+003    +9.4439244e-008    +2.8315205e-007
+2.3040000e+003    +1.1248559e-007    +2.9662715e-007
+2.4320000e+003    +1.2586528e-007    +3.1173144e-007
+2.5600000e+003    +1.1557727e-007    +3.0280964e-007
+2.6880000e+003    +1.2239826e-007    +2.9008282e-007
+2.8160000e+003    +1.4315076e-007    +2.8270347e-007
+2.9440000e+003    +1.5257407e-007    +2.7589567e-007
+3.0720000e+003    +1.5921516e-007    +2.9746664e-007
+3.2000000e+003    +1.7364458e-007    +3.0225857e-007
+3.3280000e+003    +1.7642809e-007    +2.9166529e-007
+3.4560000e+003    +1.9564257e-007    +2.6266554e-007
+3.5840000e+003    +2.0839748e-007    +2.4215251e-007
+3.7120000e+003    +2.2332803e-007    +2.3443414e-007
+3.8400000e+003    +2.4342512e-007    +2.5235940e-007
+3.9680000e+003    +2.3881665e-007    +2.5091691e-007
+4.0960000e+003    +2.4531832e-007    +2.4752745e-007
+4.2240000e+003    +2.6717655e-007    +2.2600466e-007
+4.3520000e+003    +2.9676625e-007    +2.2379220e-007
+4.4800000e+003    +3.0755558e-007    +2.1251786e-007
+4.6080000e+003    +3.3645279e-007    +2.1050144e-007
+4.7360000e+003    +3.5459351e-007    +1.9564193e-007
+4.8640000e+003    +3.3583385e-007    +1.8453022e-007
+4.9920000e+003    +3.4623847e-007    +1.7794005e-007
+5.1200000e+003    +3.7253818e-007    +1.7503444e-007
+5.2480000e+003    +3.7257746e-007    +1.6791428e-007
+5.3760000e+003    +3.9362033e-007    +1.6253667e-007
+5.5040000e+003    +4.1007613e-007    +1.6367797e-007
+5.6320000e+003    +4.2602778e-007    +1.7417445e-007
+5.7600000e+003    +4.3596583e-007    +1.7595626e-007
+5.8880000e+003    +4.4630866e-007    +1.6860447e-007
+6.0160000e+003    +4.2227009e-007    +1.4949555e-007
+6.1440000e+003    +4.8538107e-007    +1.4157550e-007
+6.2720000e+003    +4.8124093e-007    +1.4489572e-007
+6.4000000e+003    +5.1180615e-007    +1.5095361e-007
+6.5280000e+003    +5.2346809e-007    +1.5110832e-007
+6.6560000e+003    +5.3822714e-007    +1.6887701e-007
+6.7840000e+003    +5.7842124e-007    +1.5679719e-007
+6.9120000e+003    +5.8695753e-007    +1.3868798e-007
+7.0400000e+003    +5.7684582e-007    +1.4149019e-007
+7.1680000e+003    +5.9622761e-007    +1.4007924e-007
+7.2960000e+003    +5.9995887e-007    +1.3321093e-007
+7.4240000e+003    +6.3458845e-007    +1.3290662e-007
+7.5520000e+003    +6.1793685e-007    +1.3499663e-007
+7.6800000e+003    +6.5760776e-007    +1.3377493e-007
+7.8080000e+003    +7.2175908e-007    +1.3730572e-007
+7.9360000e+003    +7.4403357e-007    +1.4555138e-007
+8.0640000e+003    +7.3932102e-007    +1.4569288e-007
+8.1920000e+003    +7.3676443e-007    +1.3069806e-007
+8.3200000e+003    +7.3984967e-007    +1.3542939e-007
+8.4480000e+003    +7.8050033e-007    +1.3625747e-007
+8.5760000e+003    +8.1208628e-007    +1.4859860e-007
+8.7040000e+003    +8.9883713e-007    +1.4445223e-007
+8.8320000e+003    +8.6410751e-007    +1.5408381e-007
+8.9600000e+003    +8.7255353e-007    +1.5368001e-007
+9.0880000e+003    +8.9264904e-007    +1.5601496e-007
+9.2160000e+003    +8.5416997e-007    +1.6142688e-007
+9.3440000e+003    +8.9807554e-007    +1.6795060e-007
+9.4720000e+003    +9.1097809e-007    +1.6039617e-007
+9.6000000e+003    +8.8622323e-007    +1.4838697e-007
+9.7280000e+003    +9.3604103e-007    +1.6470445e-007
+9.8560000e+003    +9.7758118e-007    +1.7552077e-007
+9.9840000e+003    +1.0394971e-006    +1.6154125e-007
+1.0112000e+004    +9.4649761e-007    +1.4325941e-007
+1.0240000e+004    +9.5125563e-007    +1.4877278e-007
+1.0368000e+004    +9.9085435e-007    +1.5885162e-007
+1.0496000e+004    +9.9131796e-007    +1.6280153e-007
+1.0624000e+004    +9.8789099e-007    +1.6947047e-007
+1.0752000e+004    +1.0371577e-006    +1.7426531e-007
+1.0880000e+004    +1.0002789e-006    +1.5459302e-007
+1.1008000e+004    +1.0921071e-006    +1.6512072e-007
+1.1136000e+004    +1.1670592e-006    +1.6642008e-007
+1.1264000e+004    +1.1494337e-006    +1.6730037e-007
+1.1392000e+004    +1.0651481e-006    +1.8433198e-007
+1.1520000e+004    +1.0304054e-006    +1.8595883e-007
+1.1648000e+004    +1.0671206e-006    +1.7302168e-007
+1.1776000e+004    +1.1681437e-006    +1.6563786e-007
+1.1904000e+004    +1.1213428e-006    +1.6810263e-007
+1.2032000e+004    +1.0162609e-006    +1.8786203e-007
+1.2160000e+004    +1.0345374e-006    +1.7697053e-007
+1.2288000e+004    +1.1257023e-006    +1.9948624e-007
+1.2416000e+004    +1.0957849e-006    +1.9763338e-007
+1.2544000e+004    +9.9759177e-007    +1.8508153e-007
+1.2672000e+004    +1.0615173e-006    +1.9931568e-007
+1.2800000e+004    +1.1661524e-006    +1.9723733e-007
+1.2928000e+004    +1.2306340e-006    +1.9488513e-007
+1.3056000e+004    +1.1120211e-006    +1.9765420e-007
+1.3184000e+004    +1.0093331e-006    +1.9201059e-007
+1.3312000e+004    +1.0461299e-006    +1.9603995e-007
+1.3440000e+004    +1.0054938e-006    +1.9882390e-007
+1.3568000e+004    +1.0075372e-006    +2.2120588e-007
+1.3696000e+004    +1.0681932e-006    +2.1801898e-007
+1.3824000e+004    +1.1499551e-006    +2.2405551e-007
+1.3952000e+004    +1.0606039e-006    +2.1060663e-007
+1.4080000e+004    +9.7297243e-007    +2.0915233e-007
+1.4208000e+004    +9.7162729e-007    +2.2962297e-007
+1.4336000e+004    +9.8713747e-007    +2.4382368e-007
+1.4464000e+004    +1.0452871e-006    +2.2303128e-007
+1.4592000e+004    +1.0770814e-006    +2.1076971e-007
+1.4720000e+004    +1.0687634e-006    +2.1258181e-007
+1.4848000e+004    +9.5923076e-007    +2.0719558e-007
+1.4976000e+004    +1.0298161e-006    +2.2118427e-007
+1.5104000e+004    +1.0189345e-006    +2.1685871e-007
+1.5232000e+004    +1.0288442e-006    +2.1832511e-007
+1.5360000e+004    +1.0939733e-006    +2.2394804e-007
+1.5488000e+004    +1.0843705e-006    +2.2226197e-007
+1.5616000e+004    +1.1070398e-006    +2.1508878e-007
+1.5744000e+004    +9.5097573e-007    +2.2367944e-007
+1.5872000e+004    +9.6404119e-007    +2.2953952e-007
+1.6000000e+004    +1.0406985e-006    +2.4064443e-007
+1.6128000e+004    +1.0721930e-006    +2.3640868e-007
+1.6256000e+004    +1.0507022e-006    +2.3554668e-007
+1.6384000e+004    +1.0466675e-006    +2.2550347e-007
+1.6512000e+004    +1.0147579e-006    +2.5995027e-007
+1.6640000e+004    +9.7986583e-007    +2.6196969e-007
+1.6768000e+004    +9.8011753e-007    +2.5405777e-007
+1.6896000e+004    +9.3849849e-007    +2.5059148e-007
+1.7024000e+004    +9.9824149e-007    +2.4557190e-007
+1.7152000e+004    +9.4280830e-007    +2.3569258e-007
+1.7280000e+004    +9.2219500e-007    +2.2945764e-007
+1.7408000e+004    +9.6310589e-007    +2.4622554e-007
+1.7536000e+004    +9.3983073e-007    +2.7831504e-007
+1.7664000e+004    +9.7378256e-007    +3.0243717e-007
+1.7792000e+004    +9.5656048e-007    +2.9189212e-007
+1.7920000e+004    +9.4510295e-007    +2.8676820e-007
+1.8048000e+004    +1.0058538e-006    +2.8188984e-007
+1.8176000e+004    +9.4453242e-007    +2.6394304e-007
+1.8304000e+004    +9.5882115e-007    +2.6617431e-007
+1.8432000e+004    +9.6773067e-007    +2.6240954e-007
+1.8560000e+004    +8.1548512e-007    +2.5734136e-007
+1.8688000e+004    +8.0963616e-007    +2.5936555e-007
+1.8816000e+004    +8.4372863e-007    +2.8732350e-007
+1.8944000e+004    +8.3172830e-007    +2.8768810e-007
+1.9072000e+004    +8.6610981e-007    +2.8116622e-007
+1.9200000e+004    +8.6670815e-007    +2.8899339e-007
+1.9328000e+004    +9.1211609e-007    +3.0469596e-007
+1.9456000e+004    +9.3740374e-007    +2.8622807e-007
+1.9584000e+004    +9.5803830e-007    +2.8994941e-007
+1.9712000e+004    +8.7917164e-007    +2.8575676e-007
+1.9840000e+004    +8.3983292e-007    +3.1234916e-007
+1.9968000e+004    +8.2634330e-007    +3.1458561e-007
+2.0096000e+004    +7.6748154e-007    +3.1810615e-007
+2.0224000e+004    +8.2647489e-007    +3.1243491e-007
+2.0352000e+004    +8.2249181e-007    +2.9597129e-007
+2.0480000e+004    +7.6899221e-007    +2.6644389e-007
+2.0608000e+004    +8.2344235e-007    +2.8267925e-007
+2.0736000e+004    +8.0424320e-007    +2.9927924e-007
+2.0864000e+004    +8.1234401e-007    +3.0073221e-007
+2.0992000e+004    +8.5425251e-007    +3.1183311e-007
+2.1120000e+004    +8.0066525e-007    +3.2042180e-007
+2.1248000e+004    +7.5955120e-007    +2.8486772e-007
+2.1376000e+004    +7.1355726e-007    +2.6730243e-007
+2.1504000e+004    +7.9586749e-007    +2.9724788e-007
+2.1632000e+004    +7.6398823e-007    +2.9814086e-007
+2.1760000e+004    +7.4378033e-007    +3.1672084e-007
+2.1888000e+004    +7.4761698e-007    +3.1956944e-007
+2.2016000e+004    +7.7165220e-007    +3.2209337e-007
+2.2144000e+004    +7.4348480e-007    +3.4208264e-007
+2.2272000e+004    +6.9214423e-007    +3.5087365e-007
+2.2400000e+004    +6.7757878e-007    +3.4195384e-007
+2.2528000e+004    +7.0955178e-007    +3.4588965e-007
+2.2656000e+004    +7.7476699e-007    +3.4542208e-007
+2.2784000e+004    +7.9388548e-007    +3.3102461e-007
+2.2912000e+004    +7.6041567e-007    +3.4764332e-007
+2.3040000e+004    +7.8747263e-007    +3.2364179e-007
+2.3168000e+004    +7.7375029e-007    +3.0063117e-007
+2.3296000e+004    +7.4401396e-007    +3.2795612e-007
+2.3424000e+004    +7.2958795e-007    +3.3357856e-007
+2.3552000e+004    +7.3460291e-007    +3.5842322e-007
+2.3680000e+004    +6.9995309e-007    +3.7684504e-007
+2.3808000e+004    +7.0785160e-007    +3.8369555e-007
+2.3936000e+004    +7.4004305e-007    +3.4620729e-007
+2.4064000e+004    +7.4867415e-007    +3.4929502e-007
+2.4192000e+004    +7.2070662e-007    +3.4683734e-007
+2.4320000e+004    +7.0506542e-007    +3.5261502e-007
+2.4448000e+004    +6.5077916e-007    +4.3218549e-007
+2.4576000e+004    +6.8728252e-007    +4.1440316e-007
+2.4704000e+004    +7.2695161e-007    +3.8013840e-007
+2.4832000e+004    +7.3122072e-007    +3.8475525e-007
+2.4960000e+004    +7.1759797e-007    +3.7402924e-007
+2.5088000e+004    +7.0163202e-007    +3.7430695e-007
+2.5216000e+004    +6.2276598e-007    +3.6083779e-007
+2.5344000e+004    +6.4121542e-007    +3.5438683e-007
+2.5472000e+004    +6.3455639e-007    +3.7777301e-007
+2.5600000e+004    +5.9974747e-007    +3.9979921e-007
+2.5728000e+004    +6.5986438e-007    +3.9673259e-007
+2.5856000e+004    +6.5018497e-007    +3.5149560e-007
+2.5984000e+004    +6.4237037e-007    +3.6826074e-007
+2.6112000e+004    +6.6745412e-007    +3.9401553e-007
+2.6240000e+004    +6.2799677e-007    +4.2869203e-007
+2.6368000e+004    +6.3608820e-007    +3.9715360e-007
+2.6496000e+004    +6.2116322e-007    +4.1819735e-007
+2.6624000e+004    +6.0117151e-007    +5.2207156e-007
+2.6752000e+004    +6.3194074e-007    +5.8875702e-007
+2.6880000e+004    +6.2261080e-007    +4.1026482e-007
+2.7008000e+004    +6.3859687e-007    +4.3443009e-007
+2.7136000e+004    +6.0898680e-007    +4.3389286e-007
+2.7264000e+004    +5.8948984e-007    +4.0402313e-007
+2.7392000e+004    +5.9190251e-007    +3.9924825e-007
+2.7520000e+004    +5.7616472e-007    +3.9194791e-007
+2.7648000e+004    +6.2690486e-007    +4.1038737e-007
+2.7776000e+004    +6.1822664e-007    +4.1646487e-007
+2.7904000e+004    +5.8090143e-007    +4.3768239e-007
+2.8032000e+004    +6.2284664e-007    +4.3563568e-007
+2.8160000e+004    +6.2676997e-007    +4.1664231e-007
+2.8288000e+004    +6.3644308e-007    +4.2136327e-007
+2.8416000e+004    +6.1908588e-007    +4.2446226e-007
+2.8544000e+004    +5.8435006e-007    +4.3967160e-007
+2.8672000e+004    +6.0282127e-007    +4.0775049e-007
+2.8800000e+004    +5.5801019e-007    +4.1622258e-007
+2.8928000e+004    +5.7670906e-007    +4.3861564e-007
+2.9056000e+004    +6.3457867e-007    +4.4969380e-007
+2.9184000e+004    +5.8692979e-007    +4.7269401e-007
+2.9312000e+004    +5.9845553e-007    +4.3908400e-007
+2.9440000e+004    +6.6444454e-007    +4.4903859e-007
+2.9568000e+004    +6.4707137e-007    +4.8817577e-007
+2.9696000e+004    +5.9892096e-007    +4.7238944e-007
+2.9824000e+004    +5.8472938e-007    +4.5694702e-007
+2.9952000e+004    +5.5036418e-007    +4.3853572e-007
+3.0080000e+004    +5.7067854e-007    +4.2013997e-007
+3.0208000e+004    +5.1585909e-007    +4.3401960e-007
+3.0336000e+004    +5.6948551e-007    +4.3362473e-007
+3.0464000e+004    +5.5027596e-007    +4.5566145e-007
+3.0592000e+004    +5.2803989e-007    +5.0260269e-007
+3.0720000e+004    +5.3143197e-007    +4.6247035e-007
+3.0848000e+004    +5.9242655e-007    +5.2716285e-007
+3.0976000e+004    +6.4509084e-007    +5.1863049e-007
+3.1104000e+004    +5.6900615e-007    +4.8646518e-007
+3.1232000e+004    +5.2755314e-007    +5.0702681e-007
+3.1360000e+004    +5.3720697e-007    +4.8789769e-007
+3.1488000e+004    +5.6692267e-007    +4.6778041e-007
+3.1616000e+004    +5.2160118e-007    +4.9810393e-007
+3.1744000e+004    +5.4161865e-007    +4.9313462e-007
+3.1872000e+004    +5.7295375e-007    +4.9832880e-007
+3.2000000e+004    +5.3717156e-007    +5.1036233e-007
+3.2128000e+004    +5.2789500e-007    +5.0634918e-007
+3.2256000e+004    +5.3855109e-007    +4.7511821e-007
+3.2384000e+004    +5.4817747e-007    +4.7800808e-007
+3.2512000e+004    +4.8735905e-007    +4.9024590e-007
+3.2640000e+004    +5.0949672e-007    +4.9880225e-007
+3.2768000e+004    +5.0556372e-007    +5.0406112e-007
+3.2896000e+004    +4.9165709e-007    +5.2458427e-007
+3.3024000e+004    +5.0821342e-007    +5.0826696e-007
+3.3152000e+004    +5.3832173e-007    +4.9244858e-007
+3.3280000e+004    +4.8564283e-007    +4.8806538e-007
+3.3408000e+004    +4.5730036e-007    +5.1843125e-007
+3.3536000e+004    +4.8494053e-007    +5.1084669e-007
+3.3664000e+004    +5.1266551e-007    +5.2104252e-007
+3.3792000e+004    +5.0552984e-007    +5.1967135e-007
+3.3920000e+004    +5.2429175e-007    +5.7916350e-007
+3.4048000e+004    +5.4660461e-007    +5.7021316e-007
+3.4176000e+004    +4.9144876e-007    +5.3636006e-007
+3.4304000e+004    +4.7132636e-007    +5.5101174e-007
+3.4432000e+004    +4.6385915e-007    +5.7706626e-007
+3.4560000e+004    +4.7891064e-007    +5.8848298e-007
+3.4688000e+004    +4.7895111e-007    +5.3315836e-007
+3.4816000e+004    +4.5876783e-007    +5.1803011e-007
+3.4944000e+004    +4.8474305e-007    +5.9550536e-007
+3.5072000e+004    +5.2147578e-007    +5.9166081e-007
+3.5200000e+004    +4.9723570e-007    +5.6992525e-007
+3.5328000e+004    +4.6413476e-007    +5.1744627e-007
+3.5456000e+004    +4.8947084e-007    +5.3734323e-007
+3.5584000e+004    +4.8202781e-007    +5.6748007e-007
+3.5712000e+004    +4.8933919e-007    +5.3899123e-007
+3.5840000e+004    +4.5600828e-007    +5.5521298e-007
+3.5968000e+004    +4.7946833e-007    +5.5035093e-007
+3.6096000e+004    +4.9267300e-007    +5.2598284e-007
+3.6224000e+004    +4.9438154e-007    +5.5904468e-007
+3.6352000e+004    +4.7293852e-007    +5.8013148e-007
+3.6480000e+004    +4.5954974e-007    +5.9657140e-007
+3.6608000e+004    +4.5875979e-007    +6.0022967e-007
+3.6736000e+004    +4.9959374e-007    +6.0679230e-007
+3.6864000e+004    +5.2069083e-007    +6.2360482e-007
+3.6992000e+004    +4.8340473e-007    +6.0191917e-007
+3.7120000e+004    +4.8989665e-007    +6.2628430e-007
+3.7248000e+004    +5.0222923e-007    +5.9870990e-007
+3.7376000e+004    +4.5906461e-007    +6.1158869e-007
+3.7504000e+004    +4.9122491e-007    +6.1036712e-007
+3.7632000e+004    +5.1974951e-007    +5.9356205e-007
+3.7760000e+004    +5.0425984e-007    +6.4283392e-007
+3.7888000e+004    +4.8044109e-007    +6.4587039e-007
+3.8016000e+004    +4.6776142e-007    +6.9338256e-007
+3.8144000e+004    +4.5365718e-007    +6.3144415e-007
+3.8272000e+004    +4.4549498e-007    +6.3095621e-007
+3.8400000e+004    +4.9149139e-007    +6.7462503e-007
+3.8528000e+004    +4.5847779e-007    +7.0040437e-007
+3.8656000e+004    +4.1024725e-007    +6.2023980e-007
+3.8784000e+004    +4.6475790e-007    +5.8913849e-007
+3.8912000e+004    +4.5781078e-007    +6.1772249e-007
+3.9040000e+004    +4.2972405e-007    +6.2473833e-007
+3.9168000e+004    +4.6032036e-007    +6.0480750e-007
+3.9296000e+004    +4.4664691e-007    +6.3259188e-007
+3.9424000e+004    +4.3404438e-007    +6.4935665e-007
+3.9552000e+004    +4.3552808e-007    +6.9941842e-007
+3.9680000e+004    +4.2029455e-007    +7.0609576e-007
+3.9808000e+004    +4.2419438e-007    +6.6005202e-007
+3.9936000e+004    +4.2481102e-007    +6.8977954e-007
+4.0064000e+004    +4.2812709e-007    +7.2818585e-007
+4.0192000e+004    +4.0852481e-007    +7.2298604e-007
+4.0320000e+004    +4.1790864e-007    +7.3672965e-007
+4.0448000e+004    +4.2025900e-007    +6.9502812e-007
+4.0576000e+004    +4.4979404e-007    +6.3692403e-007
+4.0704000e+004    +4.3532680e-007    +6.4280994e-007
+4.0832000e+004    +4.2089349e-007    +7.1849121e-007
+4.0960000e+004    +4.1512178e-007    +6.8889551e-007
+4.1088000e+004    +4.3181410e-007    +6.6509926e-007
+4.1216000e+004    +4.3613196e-007    +7.0923164e-007
+4.1344000e+004    +4.1019501e-007    +7.2095514e-007
+4.1472000e+004    +4.1395160e-007    +7.2323377e-007
+4.1600000e+004    +4.1109857e-007    +7.3757298e-007
+4.1728000e+004    +4.0875139e-007    +7.3943386e-007
+4.1856000e+004    +4.2848026e-007    +7.1987625e-007
+4.1984000e+004    +4.0170929e-007    +7.5612309e-007
+4.2112000e+004    +3.9461818e-007    +6.6653502e-007
+4.2240000e+004    +3.9026844e-007    +6.8466380e-007
+4.2368000e+004    +3.5589821e-007    +7.2838895e-007
+4.2496000e+004    +3.7708054e-007    +6.9011134e-007
+4.2624000e+004    +4.2412685e-007    +7.5991238e-007
+4.2752000e+004    +3.8568365e-007    +7.3672237e-007
+4.2880000e+004    +4.0076432e-007    +7.6529039e-007
+4.3008000e+004    +4.0062750e-007    +7.2397103e-007
+4.3136000e+004    +3.7837617e-007    +6.6786021e-007
+4.3264000e+004    +3.6348564e-007    +7.1800230e-007
+4.3392000e+004    +3.6863858e-007    +7.0982293e-007
+4.3520000e+004    +3.8343612e-007    +7.3399178e-007
+4.3648000e+004    +3.7025058e-007    +7.6470576e-007
+4.3776000e+004    +3.8919566e-007    +7.4126854e-007
+4.3904000e+004    +4.0928762e-007    +7.6812307e-007
+4.4032000e+004    +3.9677482e-007    +7.3936974e-007
+4.4160000e+004    +3.6397645e-007    +7.2461359e-007
+4.4288000e+004    +3.7599779e-007    +7.4188409e-007
+4.4416000e+004    +4.0218194e-007    +7.1050755e-007
+4.4544000e+004    +3.7975377e-007    +8.0315607e-007
+4.4672000e+004    +3.7281521e-007    +7.7776969e-007
+4.4800000e+004    +3.8854071e-007    +7.1580934e-007
+4.4928000e+004    +3.9872387e-007    +7.9576000e-007
+4.5056000e+004    +4.0832842e-007    +8.4845431e-007
+4.5184000e+004    +4.0519859e-007    +8.5076675e-007
+4.5312000e+004    +3.6548218e-007    +7.5308822e-007
+4.5440000e+004    +3.7740529e-007    +6.9438056e-007
+4.5568000e+004    +3.8663211e-007    +6.9822835e-007
+4.5696000e+004    +3.7927833e-007    +7.1700180e-007
+4.5824000e+004    +3.9622805e-007    +7.7349716e-007
+4.5952000e+004    +4.0513052e-007    +7.4554805e-007
+4.6080000e+004    +3.9463552e-007    +7.4806286e-007
+4.6208000e+004    +3.8370567e-007    +7.6607557e-007
+4.6336000e+004    +3.7474283e-007    +7.8526148e-007
+4.6464000e+004    +3.5798274e-007    +7.6328143e-007
+4.6592000e+004    +3.4790219e-007    +7.8662578e-007
+4.6720000e+004    +3.8474386e-007    +8.2930546e-007
+4.6848000e+004    +4.1643148e-007    +8.6779750e-007
+4.6976000e+004    +3.5942500e-007    +8.6270921e-007
+4.7104000e+004    +3.5361259e-007    +8.1555680e-007
+4.7232000e+004    +3.4520787e-007    +7.9088659e-007
+4.7360000e+004    +3.5498655e-007    +7.8943515e-007
+4.7488000e+004    +3.6178790e-007    +8.1178672e-007
+4.7616000e+004    +3.8081347e-007    +8.4618245e-007
+4.7744000e+004    +3.9709909e-007    +8.3494166e-007
+4.7872000e+004    +3.7704578e-007    +7.8417929e-007
+4.8000000e+004    +3.8484018e-007    +7.6476960e-007
+4.8128000e+004    +4.0673325e-007    +8.1470478e-007
+4.8256000e+004    +3.8905895e-007    +8.2654930e-007
+4.8384000e+004    +3.7487615e-007    +8.3216952e-007
+4.8512000e+004    +3.4248401e-007    +8.6490485e-007
+4.8640000e+004    +3.4030063e-007    +8.6667012e-007
+4.8768000e+004    +3.2571617e-007    +8.3161234e-007
+4.8896000e+004    +3.4475258e-007    +8.5394305e-007
+4.9024000e+004    +3.4437011e-007    +8.2624172e-007
+4.9152000e+004    +3.6147620e-007    +8.5240117e-007
+4.9280000e+004    +3.5506920e-007    +8.8795110e-007
+4.9408000e+004    +3.2500063e-007    +8.8257315e-007
+4.9536000e+004    +3.1528270e-007    +8.1051763e-007
+4.9664000e+004    +3.2652289e-007    +8.3925408e-007
+4.9792000e+004    +3.4098468e-007    +7.8838275e-007
+4.9920000e+004    +3.8833727e-007    +8.3390273e-007
+5.0048000e+004    +3.7432338e-007    +9.7545831e-007
+5.0176000e+004    +3.4809477e-007    +1.3309997e-006
+5.0304000e+004    +3.3876583e-007    +1.1171511e-006
+5.0432000e+004    +3.2014398e-007    +8.9660460e-007
+5.0560000e+004    +3.2131169e-007    +8.3399061e-007
+5.0688000e+004    +3.1546864e-007    +8.8978686e-007
+5.0816000e+004    +3.2822629e-007    +8.4967832e-007
+5.0944000e+004    +3.4143125e-007    +8.8325851e-007
+5.1072000e+004    +3.3541193e-007    +8.8905932e-007
+5.1200000e+004    +3.2199117e-007    +9.1330259e-007
+5.1328000e+004    +3.2158346e-007    +9.4396324e-007
+5.1456000e+004    +3.4251073e-007    +9.5197549e-007
+5.1584000e+004    +3.3193521e-007    +9.5950463e-007
+5.1712000e+004    +3.1310904e-007    +9.3875815e-007
+5.1840000e+004    +3.3357307e-007    +8.3902006e-007
+5.1968000e+004    +3.2549272e-007    +7.9934853e-007
+5.2096000e+004    +3.6543162e-007    +8.5114704e-007
+5.2224000e+004    +3.5303961e-007    +9.2119620e-007
+5.2352000e+004    +2.9303882e-007    +1.0755463e-006
+5.2480000e+004    +3.0876552e-007    +1.1422463e-006
+5.2608000e+004    +3.3163320e-007    +9.2309659e-007
+5.2736000e+004    +3.2632110e-007    +9.3759212e-007
+5.2864000e+004    +3.2596805e-007    +9.6831525e-007
+5.2992000e+004    +2.8188893e-007    +9.5519920e-007
+5.3120000e+004    +3.1176430e-007    +1.0013965e-006
+5.3248000e+004    +3.0630500e-007    +9.9224565e-007
+5.3376000e+004    +3.0245675e-007    +9.3670826e-007
+5.3504000e+004    +3.2400658e-007    +9.4186265e-007
+5.3632000e+004    +3.2224406e-007    +1.0045206e-006
+5.3760000e+004    +3.1714188e-007    +9.5714040e-007
+5.3888000e+004    +3.1443091e-007    +9.2167170e-007
+5.4016000e+004    +3.2468748e-007    +9.4997705e-007
+5.4144000e+004    +3.1461462e-007    +9.6464260e-007
+5.4272000e+004    +2.6836108e-007    +1.0508694e-006
+5.4400000e+004    +2.9825841e-007    +1.0533541e-006
+5.4528000e+004    +3.0307839e-007    +1.0529379e-006
+5.4656000e+004    +2.8573228e-007    +9.9850786e-007
+5.4784000e+004    +2.9449316e-007    +9.7851432e-007
+5.4912000e+004    +3.0129902e-007    +9.2970191e-007
+5.5040000e+004    +4.5934090e-007    +9.8725127e-007
+5.5168000e+004    +7.6656443e-007    +9.9184592e-007
+5.5296000e+004    +4.9298467e-007    +1.0121063e-006
+5.5424000e+004    +4.1437357e-007    +1.0580509e-006
+5.5552000e+004    +9.4745729e-007    +1.0704027e-006
+5.5680000e+004    +7.7962244e-007    +1.0799363e-006
+5.5808000e+004    +3.5233444e-007    +1.0752900e-006
+5.5936000e+004    +3.2391162e-007    +1.0602372e-006
+5.6064000e+004    +3.0300353e-007    +1.0276553e-006
+5.6192000e+004    +2.8209078e-007    +1.0042527e-006
+5.6320000e+004    +2.9031574e-007    +1.0007535e-006
+5.6448000e+004    +3.0293535e-007    +9.6055032e-007
+5.6576000e+004    +2.9614586e-007    +1.0242715e-006
+5.6704000e+004    +3.0234887e-007    +1.0288160e-006
+5.6832000e+004    +2.8818476e-007    +9.7878296e-007
+5.6960000e+004    +3.1081211e-007    +1.0692728e-006
+5.7088000e+004    +3.0952958e-007    +1.0976164e-006
+5.7216000e+004    +3.0105198e-007    +1.0241579e-006
+5.7344000e+004    +2.8029180e-007    +1.0478542e-006
+5.7472000e+004    +2.5618240e-007    +1.0145005e-006
+5.7600000e+004    +2.6217083e-007    +1.0628363e-006
+5.7728000e+004    +2.9285195e-007    +1.0417423e-006
+5.7856000e+004    +2.9963863e-007    +1.0111888e-006
+5.7984000e+004    +2.9576469e-007    +1.0136922e-006
+5.8112000e+004    +3.0615504e-007    +9.8460237e-007
+5.8240000e+004    +2.7940044e-007    +9.8834880e-007
+5.8368000e+004    +2.8193102e-007    +9.5599034e-007
+5.8496000e+004    +2.7258358e-007    +1.0460701e-006
+5.8624000e+004    +2.7688131e-007    +1.0307788e-006
+5.8752000e+004    +3.3441026e-007    +9.6174915e-007
+5.8880000e+004    +3.1007281e-007    +9.4826072e-007
+5.9008000e+004    +2.8170081e-007    +1.0346703e-006
+5.9136000e+004    +2.7013658e-007    +1.1578061e-006
+5.9264000e+004    +2.6226266e-007    +1.1526424e-006
+5.9392000e+004    +2.8040074e-007    +1.0608869e-006
+5.9520000e+004    +2.7025524e-007    +9.7780560e-007
+5.9648000e+004    +2.6451167e-007    +1.0628304e-006
+5.9776000e+004    +2.7916892e-007    +1.0781131e-006
+5.9904000e+004    +2.5401400e-007    +1.0105883e-006
+6.0032000e+004    +2.4872122e-007    +1.0972597e-006
+6.0160000e+004    +2.6875855e-007    +1.1260051e-006
+6.0288000e+004    +2.7745040e-007    +1.1578696e-006
+6.0416000e+004    +3.0350964e-007    +1.1795149e-006
+6.0544000e+004    +3.0183838e-007    +1.1510073e-006
+6.0672000e+004    +3.0444349e-007    +1.0392803e-006
+6.0800000e+004    +3.1086125e-007    +1.0877333e-006
+6.0928000e+004    +2.9177548e-007    +1.2177147e-006
+6.1056000e+004    +3.1139382e-007    +1.2486078e-006
+6.1184000e+004    +2.8639312e-007    +1.1821922e-006
+6.1312000e+004    +2.8336976e-007    +1.1621108e-006
+6.1440000e+004    +2.8959053e-007    +1.1430229e-006
+6.1568000e+004    +2.8270844e-007    +1.1417836e-006
+6.1696000e+004    +2.8366577e-007    +1.0979454e-006
+6.1824000e+004    +2.8242798e-007    +1.1231665e-006
+6.1952000e+004    +2.9128094e-007    +1.1807043e-006
+6.2080000e+004    +2.9389815e-007    +1.1785751e-006
+6.2208000e+004    +3.0185265e-007    +1.1991806e-006
+6.2336000e+004    +2.7601928e-007    +1.2075759e-006
+6.2464000e+004    +2.6986947e-007    +1.1723157e-006
+6.2592000e+004    +2.5690576e-007    +1.1975399e-006
+6.2720000e+004    +2.4530834e-007    +1.3129192e-006
+6.2848000e+004    +2.5144118e-007    +1.3083690e-006
+6.2976000e+004    +2.6782769e-007    +1.2525003e-006
+6.3104000e+004    +2.6968939e-007    +1.2149969e-006
+6.3232000e+004    +2.6890879e-007    +1.1442735e-006
+6.3360000e+004    +2.7228594e-007    +1.1666813e-006
+6.3488000e+004    +2.8025147e-007    +1.1170260e-006
+6.3616000e+004    +2.7406665e-007    +1.2469309e-006
+6.3744000e+004    +2.8748948e-007    +1.1745278e-006
+6.3872000e+004    +2.9286383e-007    +1.1883046e-006
+6.4000000e+004    +2.7071229e-007    +1.2175462e-006
+6.4128000e+004    +2.6619651e-007    +1.1866437e-006
+6.4256000e+004    +2.6293242e-007    +1.1686723e-006
+6.4384000e+004    +2.5725041e-007    +1.1793129e-006
+6.4512000e+004    +2.5512531e-007    +1.2031437e-006
+6.4640000e+004    +2.5298306e-007    +1.2606140e-006
+6.4768000e+004    +2.6349193e-007    +1.3152984e-006
+6.4896000e+004    +2.6249947e-007    +1.2549602e-006
+6.5024000e+004    +2.3615056e-007    +1.1663035e-006
+6.5152000e+004    +2.5405777e-007    +1.2911230e-006
+6.5280000e+004    +2.6431744e-007    +1.2790200e-006
+6.5408000e+004    +2.6031071e-007    +1.1717881e-006
+6.5536000e+004    +2.9356340e-007    +1.1636123e-006
+6.5664000e+004    +2.9795891e-007    +1.2786592e-006
+6.5792000e+004    +2.9478494e-007    +1.2240954e-006
+6.5920000e+004    +2.8118848e-007    +1.1050664e-006
+6.6048000e+004    +2.5502447e-007    +1.1545741e-006
+6.6176000e+004    +2.5487361e-007    +1.2260539e-006
+6.6304000e+004    +2.7338382e-007    +1.2541489e-006
+6.6432000e+004    +2.6635411e-007    +1.2691313e-006
+6.6560000e+004    +2.6101793e-007    +1.1946769e-006
+6.6688000e+004    +2.3643568e-007    +1.1392341e-006
+6.6816000e+004    +2.3553763e-007    +1.2199348e-006
+6.6944000e+004    +2.4465311e-007    +1.3326271e-006
+6.7072000e+004    +2.4199173e-007    +1.2070496e-006
+6.7200000e+004    +2.4937231e-007    +1.1541787e-006
+6.7328000e+004    +2.6301328e-007    +1.1704444e-006
+6.7456000e+004    +2.6059868e-007    +1.2162195e-006
+6.7584000e+004    +2.5246416e-007    +1.2755182e-006
+6.7712000e+004    +2.6192654e-007    +1.2332446e-006
+6.7840000e+004    +2.5133161e-007    +1.3259382e-006
+6.7968000e+004    +2.5572209e-007    +1.3533337e-006
+6.8096000e+004    +2.4397525e-007    +1.2810958e-006
+6.8224000e+004    +2.5562778e-007    +1.3663320e-006
+6.8352000e+004    +2.5433633e-007    +1.2456131e-006
+6.8480000e+004    +2.6400014e-007    +1.2004690e-006
+6.8608000e+004    +2.9749341e-007    +1.3512698e-006
+6.8736000e+004    +2.5987265e-007    +1.2379901e-006
+6.8864000e+004    +2.5187970e-007    +1.2295225e-006
+6.8992000e+004    +2.4495739e-007    +1.2233417e-006
+6.9120000e+004    +2.3479608e-007    +1.1997364e-006
+6.9248000e+004    +2.3869345e-007    +1.2215204e-006
+6.9376000e+004    +2.4428672e-007    +1.3410964e-006
+6.9504000e+004    +2.3210985e-007    +1.3552102e-006
+6.9632000e+004    +2.3999269e-007    +1.3006788e-006
+6.9760000e+004    +2.5374695e-007    +1.2562382e-006
+6.9888000e+004    +2.4907212e-007    +1.3386265e-006
+7.0016000e+004    +2.6076813e-007    +1.2682927e-006
+7.0144000e+004    +5.9016338e-007    +1.4808278e-006
+7.0272000e+004    +7.5221800e-007    +1.5598910e-006
+7.0400000e+004    +3.2265510e-007    +1.3594590e-006
+7.0528000e+004    +2.2911124e-007    +1.3878730e-006
+7.0656000e+004    +3.2829692e-007    +1.3829734e-006
+7.0784000e+004    +5.1442754e-007    +1.4373412e-006
+7.0912000e+004    +3.1402345e-007    +1.3432465e-006
+7.1040000e+004    +2.2304255e-007    +1.2766993e-006
+7.1168000e+004    +2.4357138e-007    +1.2555777e-006
+7.1296000e+004    +2.5606909e-007    +1.4537633e-006
+7.1424000e+004    +2.5885717e-007    +1.4782806e-006
+7.1552000e+004    +2.4817919e-007    +1.4587423e-006
+7.1680000e+004    +2.5067322e-007    +1.4138800e-006
+7.1808000e+004    +2.4488909e-007    +1.4499838e-006
+7.1936000e+004    +2.5544989e-007    +1.3452020e-006
+7.2064000e+004    +2.5462552e-007    +1.3573173e-006
+7.2192000e+004    +2.4422397e-007    +1.3664639e-006
+7.2320000e+004    +2.4897614e-007    +1.4304974e-006
+7.2448000e+004    +2.4483370e-007    +1.4455186e-006
+7.2576000e+004    +2.3147869e-007    +1.5162868e-006
+7.2704000e+004    +2.2245729e-007    +1.3956203e-006
+7.2832000e+004    +2.4066478e-007    +1.3155425e-006
+7.2960000e+004    +2.3774689e-007    +1.3387499e-006
+7.3088000e+004    +2.4710329e-007    +1.3191642e-006
+7.3216000e+004    +2.5431399e-007    +1.3125775e-006
+7.3344000e+004    +2.3031986e-007    +1.2329305e-006
+7.3472000e+004    +2.2949921e-007    +1.3578568e-006
+7.3600000e+004    +2.3083682e-007    +1.4359074e-006
+7.3728000e+004    +2.4281519e-007    +1.4334815e-006
+7.3856000e+004    +2.4092915e-007    +1.3041423e-006
+7.3984000e+004    +2.3181035e-007    +1.3171814e-006
+7.4112000e+004    +2.4244781e-007    +1.3795914e-006
+7.4240000e+004    +2.4537786e-007    +1.2839332e-006
+7.4368000e+004    +2.4815876e-007    +1.2670192e-006
+7.4496000e+004    +2.4239006e-007    +1.3678630e-006
+7.4624000e+004    +2.1447046e-007    +1.3465127e-006
+7.4752000e+004    +2.2255257e-007    +1.4353147e-006
+7.4880000e+004    +2.3729287e-007    +1.5090919e-006
+7.5008000e+004    +2.4601962e-007    +1.4620566e-006
+7.5136000e+004    +2.4079426e-007    +1.3514211e-006
+7.5264000e+004    +2.4603881e-007    +1.3549929e-006
+7.5392000e+004    +2.3524170e-007    +1.3975678e-006
+7.5520000e+004    +2.3741170e-007    +1.4845525e-006
+7.5648000e+004    +2.2950928e-007    +1.6231338e-006
+7.5776000e+004    +2.2322874e-007    +1.5472531e-006
+7.5904000e+004    +2.1657556e-007    +1.4827607e-006
+7.6032000e+004    +2.2943345e-007    +1.4765417e-006
+7.6160000e+004    +2.4140923e-007    +1.4300671e-006
+7.6288000e+004    +2.3308310e-007    +1.4136674e-006
+7.6416000e+004    +2.2264373e-007    +1.3853290e-006
+7.6544000e+004    +2.2865009e-007    +1.3487618e-006
+7.6672000e+004    +2.2638986e-007    +1.4888374e-006
+7.6800000e+004    +2.2106457e-007    +5.8392484e-006
+7.6928000e+004    +2.1770347e-007    +9.4472325e-006
+7.7056000e+004    +2.1290883e-007    +4.1608823e-006
+7.7184000e+004    +2.3477750e-007    +1.2979312e-006
+7.7312000e+004    +2.2575119e-007    +1.4386201e-006
+7.7440000e+004    +2.3033934e-007    +1.4440481e-006
+7.7568000e+004    +6.4576545e-007    +1.3429235e-006
+7.7696000e+004    +1.3446630e-006    +1.4373444e-006
+7.7824000e+004    +7.5501146e-007    +1.4498802e-006
+7.7952000e+004    +2.2885982e-007    +1.3955100e-006
+7.8080000e+004    +2.2518331e-007    +1.3740345e-006
+7.8208000e+004    +2.1933567e-007    +1.3917886e-006
+7.8336000e+004    +2.9664471e-007    +1.4509441e-006
+7.8464000e+004    +2.6442657e-007    +1.4658210e-006
+7.8592000e+004    +2.2942690e-007    +1.4088361e-006
+7.8720000e+004    +2.2010427e-007    +1.3001148e-006
+7.8848000e+004    +2.4038218e-007    +1.3444741e-006
+7.8976000e+004    +2.4111282e-007    +1.4648734e-006
+7.9104000e+004    +2.1437889e-007    +1.4438309e-006
+7.9232000e+004    +2.2054624e-007    +1.3971612e-006
+7.9360000e+004    +3.9178096e-007    +1.4076702e-006
+7.9488000e+004    +7.4474627e-007    +1.3862998e-006
+7.9616000e+004    +4.7413070e-007    +1.3414543e-006
+7.9744000e+004    +2.3173884e-007    +1.3233116e-006
+7.9872000e+004    +2.2272980e-007    +1.3957307e-006
+8.0000000e+004    +2.2765811e-007    +1.4511655e-006
+8.0128000e+004    +2.2570882e-007    +1.4590114e-006
+8.0256000e+004    +2.1819930e-007    +1.4494345e-006
+8.0384000e+004    +2.2715949e-007    +1.4401942e-006
+8.0512000e+004    +2.2365046e-007    +1.4327388e-006
+8.0640000e+004    +2.3288921e-007    +1.5195267e-006
+8.0768000e+004    +2.5062698e-007    +1.5556885e-006
+8.0896000e+004    +2.4544843e-007    +1.5070008e-006
+8.1024000e+004    +2.4361469e-007    +1.4886118e-006
+8.1152000e+004    +2.3986280e-007    +1.4919531e-006
+8.1280000e+004    +2.5191261e-007    +1.5140859e-006
+8.1408000e+004    +2.6447449e-007    +1.4586847e-006
+8.1536000e+004    +2.5177491e-007    +1.4116417e-006
+8.1664000e+004    +2.6587520e-007    +1.3517906e-006
+8.1792000e+004    +2.5903628e-007    +1.3260824e-006
+8.1920000e+004    +2.2826806e-007    +1.4271543e-006
+8.2048000e+004    +2.4940707e-007    +1.4519177e-006
+8.2176000e+004    +2.6266034e-007    +1.3961507e-006
+8.2304000e+004    +2.6280023e-007    +1.4850384e-006
+8.2432000e+004    +2.6156329e-007    +1.6203899e-006
+8.2560000e+004    +2.5111947e-007    +1.5709064e-006
+8.2688000e+004    +2.6160407e-007    +1.4820771e-006
+8.2816000e+004    +2.6683648e-007    +1.5051900e-006
+8.2944000e+004    +2.6005219e-007    +1.5500570e-006
+8.3072000e+004    +2.6772156e-007    +1.5070553e-006
+8.3200000e+004    +2.6691472e-007    +1.4695887e-006
+8.3328000e+004    +2.6514263e-007    +1.3301888e-006
+8.3456000e+004    +2.5319201e-007    +1.4085097e-006
+8.3584000e+004    +2.5004840e-007    +1.4701100e-006
+8.3712000e+004    +2.4995177e-007    +1.5021984e-006
+8.3840000e+004    +2.5210295e-007    +1.4493661e-006
+8.3968000e+004    +2.5716992e-007    +1.4881967e-006
+8.4096000e+004    +2.4758560e-007    +1.5633493e-006
+8.4224000e+004    +2.4288772e-007    +1.5068534e-006
+8.4352000e+004    +2.5985753e-007    +1.4127689e-006
+8.4480000e+004    +2.6687252e-007    +1.4804182e-006
+8.4608000e+004    +2.8747246e-007    +1.4731444e-006
+8.4736000e+004    +3.2663547e-007    +1.5781828e-006
+8.4864000e+004    +3.5163495e-007    +1.5363665e-006
+8.4992000e+004    +4.1555180e-007    +1.4453218e-006
+8.5120000e+004    +4.6930006e-007    +1.4231657e-006
+8.5248000e+004    +5.2315664e-007    +1.4917598e-006
+8.5376000e+004    +6.1344014e-007    +1.4868657e-006
+8.5504000e+004    +6.5647157e-007    +1.4667338e-006
+8.5632000e+004    +7.2884330e-007    +1.4698678e-006
+8.5760000e+004    +8.2764450e-007    +1.4363300e-006
+8.5888000e+004    +8.7972398e-007    +1.5271888e-006
+8.6016000e+004    +8.6520402e-007    +1.5250524e-006
+8.6144000e+004    +7.9365282e-007    +1.5327137e-006
+8.6272000e+004    +6.7952550e-007    +1.4174254e-006
+8.6400000e+004    +6.1036172e-007    +1.3518011e-006
+8.6528000e+004    +5.5193755e-007    +1.4620695e-006
+8.6656000e+004    +6.4570588e-007    +1.3531746e-006
+8.6784000e+004    +7.9240073e-007    +1.4566233e-006
+8.6912000e+004    +8.1438009e-007    +1.4729228e-006
+8.7040000e+004    +7.7792942e-007    +1.4189218e-006
+8.7168000e+004    +6.7923014e-007    +1.4201640e-006
+8.7296000e+004    +6.1921980e-007    +1.5031718e-006
+8.7424000e+004    +7.4953778e-007    +1.4361613e-006
+8.7552000e+004    +8.5028677e-007    +1.3876536e-006
+8.7680000e+004    +7.5971053e-007    +1.4134532e-006
+8.7808000e+004    +7.0055046e-007    +1.4737268e-006
+8.7936000e+004    +7.9396744e-007    +1.4134764e-006
+8.8064000e+004    +8.6861058e-007    +1.4687482e-006
+8.8192000e+004    +8.4573753e-007    +1.5343537e-006
+8.8320000e+004    +8.0367386e-007    +1.4404725e-006
+8.8448000e+004    +8.2292718e-007    +1.3907178e-006
+8.8576000e+004    +8.3362721e-007    +1.3922808e-006
+8.8704000e+004    +8.0161345e-007    +1.3720881e-006
+8.8832000e+004    +7.8980622e-007    +1.4982813e-006
+8.8960000e+004    +8.1897110e-007    +1.5187094e-006
+8.9088000e+004    +8.2985378e-007    +1.3779625e-006
+8.9216000e+004    +8.2949032e-007    +1.2475552e-006
+8.9344000e+004    +8.2060745e-007    +1.2417460e-006
+8.9472000e+004    +8.6303891e-007    +1.2911457e-006
+8.9600000e+004    +8.6828260e-007    +1.3452981e-006
+8.9728000e+004    +8.3958770e-007    +1.2656706e-006
+8.9856000e+004    +8.3112309e-007    +1.3638978e-006
+8.9984000e+004    +8.3708039e-007    +1.4461409e-006
+9.0112000e+004    +8.0366681e-007    +1.4436359e-006
+9.0240000e+004    +8.5511584e-007    +1.4218615e-006
+9.0368000e+004    +8.1201046e-007    +1.4571943e-006
+9.0496000e+004    +8.4685445e-007    +1.4059048e-006
+9.0624000e+004    +8.4212473e-007    +1.4330535e-006
+9.0752000e+004    +8.8424241e-007    +1.5462597e-006
+9.0880000e+004    +8.5451046e-007    +1.4564665e-006
+9.1008000e+004    +8.2234459e-007    +1.3922518e-006
+9.1136000e+004    +7.9264521e-007    +1.3693747e-006
+9.1264000e+004    +8.0971262e-007    +1.4849862e-006
+9.1392000e+004    +8.7870842e-007    +1.4769471e-006
+9.1520000e+004    +8.3239701e-007    +1.4375590e-006
+9.1648000e+004    +9.1075407e-007    +1.4814995e-006
+9.1776000e+004    +8.7327237e-007    +1.5314437e-006
+9.1904000e+004    +9.1388637e-007    +1.4760635e-006
+9.2032000e+004    +8.9169299e-007    +1.4736556e-006
+9.2160000e+004    +8.7025728e-007    +1.4254912e-006
+9.2288000e+004    +9.9443685e-007    +1.3642992e-006
+9.2416000e+004    +8.7403492e-007    +1.2880208e-006
+9.2544000e+004    +9.6193605e-007    +1.3380313e-006
+9.2672000e+004    +9.5153246e-007    +1.4558046e-006
+9.2800000e+004    +8.3711438e-007    +1.3783468e-006
+9.2928000e+004    +1.0162966e-006    +1.4299995e-006
+9.3056000e+004    +9.7518205e-007    +1.4491609e-006
+9.3184000e+004    +8.4540147e-007    +1.5293954e-006
+9.3312000e+004    +1.0188696e-006    +1.3864124e-006
+9.3440000e+004    +9.8697160e-007    +1.4396076e-006
+9.3568000e+004    +7.8708104e-007    +1.4628130e-006
+9.3696000e+004    +8.9046023e-007    +1.4186866e-006
+9.3824000e+004    +1.0512122e-006    +1.4279552e-006
+9.3952000e+004    +9.2487602e-007    +1.5490583e-006
+9.4080000e+004    +6.7771123e-007    +1.4484069e-006
+9.4208000e+004    +7.2950621e-007    +1.3659360e-006
+9.4336000e+004    +9.4210986e-007    +1.3664475e-006
+9.4464000e+004    +1.1592867e-006    +1.2685853e-006
+9.4592000e+004    +9.7072200e-007    +1.3829491e-006
+9.4720000e+004    +6.7675575e-007    +1.5240363e-006
+9.4848000e+004    +6.9663253e-007    +1.4981251e-006
+9.4976000e+004    +9.4523477e-007    +1.4649378e-006
+9.5104000e+004    +1.1822078e-006    +1.4176978e-006
+9.5232000e+004    +1.2961739e-006    +1.2970893e-006
+9.5360000e+004    +1.3124320e-006    +1.2827256e-006
+9.5488000e+004    +1.2320901e-006    +1.4551958e-006
+9.5616000e+004    +1.1047619e-006    +1.4042016e-006
+9.5744000e+004    +9.6701683e-007    +1.4098109e-006
+9.5872000e+004    +7.9981999e-007    +1.4144250e-006
+9.6000000e+004    +6.1466784e-007    +1.4481047e-006
+9.6128000e+004    +4.8020587e-007    +1.4909361e-006
+9.6256000e+004    +3.8936750e-007    +1.5239845e-006
+9.6384000e+004    +3.6243637e-007    +1.4080659e-006
+9.6512000e+004    +3.7235910e-007    +1.3677338e-006
+9.6640000e+004    +3.0061699e-007    +1.3795066e-006
+9.6768000e+004    +2.7771921e-007    +1.4594937e-006
+9.6896000e+004    +2.8749548e-007    +1.5374060e-006
+9.7024000e+004    +3.3299125e-007    +1.3169414e-006
+9.7152000e+004    +3.0979919e-007    +1.3896280e-006
+9.7280000e+004    +3.0822559e-007    +1.5204496e-006
+9.7408000e+004    +2.9040152e-007    +1.4756828e-006
+9.7536000e+004    +3.1103843e-007    +1.4544179e-006
+9.7664000e+004    +3.1464742e-007    +1.4443098e-006
+9.7792000e+004    +3.5115229e-007    +1.4101360e-006
+9.7920000e+004    +4.3407346e-007    +1.3986331e-006
+9.8048000e+004    +3.8676245e-007    +1.4093853e-006
+9.8176000e+004    +3.5365335e-007    +1.5015784e-006
+9.8304000e+004    +3.3766739e-007    +1.4713614e-006
+9.8432000e+004    +3.1112896e-007    +1.5186077e-006
+9.8560000e+004    +3.0050347e-007    +1.4889747e-006
+9.8688000e+004    +3.0911423e-007    +1.3882661e-006
+9.8816000e+004    +3.0049819e-007    +1.2671277e-006
+9.8944000e+004    +2.9459437e-007    +1.3593171e-006
+9.9072000e+004    +2.9808848e-007    +1.3019219e-006
+9.9200000e+004    +3.0318657e-007    +1.3697040e-006
+9.9328000e+004    +2.8812244e-007    +1.2982775e-006
+9.9456000e+004    +2.6339504e-007    +1.2310056e-006
+9.9584000e+004    +2.4669313e-007    +1.5002962e-006
+9.9712000e+004    +2.5113079e-007    +1.5799998e-006
+9.9840000e+004    +2.7402152e-007    +1.4181525e-006
+9.9968000e+004    +2.7737485e-007    +1.3733859e-006
+1.0009600e+005    +2.6512342e-007    +1.3636972e-006
+1.0022400e+005    +2.5647060e-007    +1.3679546e-006
+1.0035200e+005    +2.6618483e-007    +1.5311764e-006
+1.0048000e+005    +2.8144979e-007    +1.5598431e-006
+1.0060800e+005    +2.9106195e-007    +1.3897959e-006
+1.0073600e+005    +2.9040311e-007    +1.3892009e-006
+1.0086400e+005    +2.9252897e-007    +1.3533009e-006
+1.0099200e+005    +2.6390276e-007    +1.4585277e-006
+1.0112000e+005    +2.6764249e-007    +1.4931035e-006
+1.0124800e+005    +2.5739419e-007    +1.5196869e-006
+1.0137600e+005    +2.5843175e-007    +1.3704968e-006
+1.0150400e+005    +2.8078216e-007    +1.3531450e-006
+1.0163200e+005    +2.5868613e-007    +1.3928770e-006
+1.0176000e+005    +2.5100371e-007    +1.4006262e-006
+1.0188800e+005    +2.5867021e-007    +1.3570296e-006
+1.0201600e+005    +2.6472870e-007    +1.3497632e-006
+1.0214400e+005    +2.7343756e-007    +1.3870747e-006
+1.0227200e+005    +2.6881287e-007    +1.3162663e-006
