# AG4395A Measurement - Timestamp: Nov 04 2019 - 18:48:03
# Parameter File: FSS_TP_Spectrum_AG_1.yml
#---------- Measurement Parameters ------------
# Start Frequency (Hz): 100000.0, 100000.0
# Stop Frequency (Hz): 1000000.0, 1000000.0
# Frequency Points: 590, 590
# Measurement Format: NOISE, NOISE
# Measuremed Input: A, B
#---------- Analyzer Settings ----------
# Number of Averages: 50
# Auto Bandwidth: On, On
# IF Bandwidth: 10000.0, 10000.0
# Input Attenuators (R,A,B): 20dB 20dB 20dB 
# Units: V/rtHz, V/rtHz
#---------- Measurement Data ----------
# [Freq(Hz) Chan 1 Chan 2 ]
100000.0    0.0001908853    0.0001436988
101528.014    0.0002005339    0.0001387652
103056.027    0.0002050398    0.0001306467
104584.041    0.0002141688    0.0001280156
106112.054    0.0002194603    0.0001227346
107640.068    0.0002089644    0.0001216426
109168.081    0.0001854324    0.0001241366
110696.095    0.0001642102    0.0001250967
112224.109    0.0001558868    0.0001271025
113752.122    0.000147022    0.0001272617
115280.136    0.0001224694    0.0001239645
116808.149    9.084201e-05    0.00011827
118336.163    7.08169e-05    0.0001136626
119864.177    6.17284e-05    0.0001099209
121392.19    5.536305e-05    0.0001078764
122920.204    5.085077e-05    0.0001103879
124448.217    4.757787e-05    0.0001160326
125976.231    4.499534e-05    0.0001250362
127504.244    4.306664e-05    0.0001385707
129032.258    4.148071e-05    0.0001537502
130560.272    4.045392e-05    0.0001637644
132088.285    3.97543e-05    0.0001689568
133616.299    3.968993e-05    0.0001701552
135144.312    4.160667e-05    0.0001656575
136672.326    4.394969e-05    0.0001632358
138200.34    4.504369e-05    0.0001800172
139728.353    4.515507e-05    0.0002153458
141256.367    4.502949e-05    0.0002739996
142784.38    4.555235e-05    0.0003813311
144312.394    4.583591e-05    0.0005071974
145840.407    4.716805e-05    0.0008129977
147368.421    5.176149e-05    0.001310544
148896.435    5.632742e-05    0.001611324
150424.448    5.91924e-05    0.001670999
151952.462    6.099376e-05    0.001674716
153480.475    6.11547e-05    0.001666791
155008.489    5.860112e-05    0.001622758
156536.503    5.331671e-05    0.001364757
158064.516    4.743282e-05    0.0008749475
159592.53    4.290804e-05    0.0005311774
161120.543    3.970831e-05    0.000400673
162648.557    3.781874e-05    0.0002987427
164176.57    3.78412e-05    0.0002367819
165704.584    3.912675e-05    0.0001925702
167232.598    4.015118e-05    0.0001606089
168760.611    4.031421e-05    0.0001530901
170288.625    3.96312e-05    0.0001549363
171816.638    3.898702e-05    0.0001525288
173344.652    3.946216e-05    0.0001447159
174872.666    4.025072e-05    0.0001322665
176400.679    3.957635e-05    0.0001164055
177928.693    3.857975e-05    0.0001035104
179456.706    3.917541e-05    9.750644e-05
180984.72    4.018475e-05    9.847887e-05
182512.733    4.007893e-05    0.0001028541
184040.747    3.905658e-05    0.0001064723
185568.761    3.909222e-05    0.0001065062
187096.774    4.14589e-05    0.0001032976
188624.788    4.566552e-05    9.922255e-05
190152.801    5.015441e-05    9.347541e-05
191680.815    5.172535e-05    8.5343e-05
193208.829    5.135333e-05    7.733035e-05
194736.842    5.099543e-05    7.087649e-05
196264.856    5.342478e-05    6.589328e-05
197792.869    5.989259e-05    6.170622e-05
199320.883    6.669463e-05    5.819644e-05
200848.896    7.351296e-05    5.681574e-05
202376.91    8.21277e-05    6.09534e-05
203904.924    9.256224e-05    7.233961e-05
205432.937    0.0001039714    8.774349e-05
206960.951    0.0001130063    0.000102177
208488.964    0.000115003    0.0001118155
210016.978    0.0001105892    0.000114795
211544.992    0.0001036944    0.000112732
213073.005    9.627249e-05    0.000111954
214601.019    9.07139e-05    0.0001211098
216129.032    8.69991e-05    0.0001388816
217657.046    8.391009e-05    0.0001720018
219185.059    8.330774e-05    0.0002385468
220713.073    8.40104e-05    0.0003164608
222241.087    8.509432e-05    0.0004935408
223769.1    8.38351e-05    0.0007835292
225297.114    7.549216e-05    0.0009603135
226825.127    6.412209e-05    0.0009954453
228353.141    5.711419e-05    0.0009971464
229881.154    5.384849e-05    0.0009911208
231409.168    5.415582e-05    0.0009621082
232937.182    5.788484e-05    0.000804711
234465.195    5.973239e-05    0.0005073224
235993.209    5.615106e-05    0.0002962546
237521.222    4.938872e-05    0.000219958
239049.236    4.695817e-05    0.0001615046
240577.25    4.765913e-05    0.0001271001
242105.263    4.381841e-05    0.0001062147
243633.277    3.657454e-05    9.462258e-05
245161.29    3.303156e-05    9.660018e-05
246689.304    3.390979e-05    0.0001009296
248217.317    3.795383e-05    0.0001013291
249745.331    4.16751e-05    9.755205e-05
251273.345    4.255372e-05    9.048453e-05
252801.358    4.190055e-05    8.173376e-05
254329.372    4.142528e-05    7.287673e-05
255857.385    4.044248e-05    6.514368e-05
257385.399    3.681593e-05    6.046066e-05
258913.413    3.073098e-05    5.79118e-05
260441.426    2.643849e-05    5.614955e-05
261969.44    2.874858e-05    5.471805e-05
263497.453    4.114699e-05    5.301676e-05
265025.467    5.427856e-05    5.321654e-05
266553.48    5.932429e-05    5.572887e-05
268081.494    5.997239e-05    5.829323e-05
269609.508    5.975677e-05    6.171424e-05
271137.521    5.909398e-05    6.647706e-05
272665.535    5.793155e-05    6.95589e-05
274193.548    7.484979e-05    7.256755e-05
275721.562    0.0001246404    8.188083e-05
277249.576    0.0001654802    9.274103e-05
278777.589    0.000181801    0.0001002311
280305.603    0.0001856612    0.0001079676
281833.616    0.0001862361    0.0001173907
283361.63    0.0001840958    0.0001251755
284889.643    0.0001640585    0.0001257589
286417.657    0.0001190485    0.0001182172
287945.671    7.150627e-05    0.0001081818
289473.684    3.982657e-05    0.0001033132
291001.698    2.969158e-05    0.0001121227
292529.711    2.815107e-05    0.0001309924
294057.725    2.713614e-05    0.0001607835
295585.739    2.639548e-05    0.0002164925
297113.752    2.570375e-05    0.0002818548
298641.766    2.580488e-05    0.0004311825
300169.779    2.724928e-05    0.0006799414
301697.793    2.88923e-05    0.0008327438
303225.806    2.981996e-05    0.0008632148
304753.82    3.09047e-05    0.0008637928
306281.834    3.630464e-05    0.0008561172
307809.847    4.581057e-05    0.0008286208
309337.861    5.312375e-05    0.0006911511
310865.874    5.747373e-05    0.0004321802
312393.888    6.082804e-05    0.0002464192
313921.902    6.348728e-05    0.0001780868
315449.915    6.458573e-05    0.0001252174
316977.929    6.239928e-05    9.495066e-05
318505.942    5.913625e-05    7.793234e-05
320033.956    5.699298e-05    6.821696e-05
321561.969    5.453345e-05    6.863595e-05
323089.983    5.381273e-05    7.052194e-05
324617.997    5.702277e-05    6.991555e-05
326146.01    6.139087e-05    6.755552e-05
327674.024    6.309823e-05    6.323632e-05
329202.037    6.401377e-05    5.698206e-05
330730.051    6.808637e-05    5.144074e-05
332258.065    7.27122e-05    4.792651e-05
333786.078    7.347486e-05    4.525631e-05
335314.092    7.154232e-05    4.381009e-05
336842.105    6.983138e-05    4.415505e-05
338370.119    6.785736e-05    4.49931e-05
339898.132    6.24083e-05    4.542107e-05
341426.146    5.22828e-05    4.450293e-05
342954.16    4.300155e-05    4.280973e-05
344482.173    4.101022e-05    4.098716e-05
346010.187    4.658821e-05    3.872221e-05
347538.2    5.651409e-05    3.679962e-05
349066.214    6.867113e-05    3.622899e-05
350594.228    7.657552e-05    3.624651e-05
352122.241    7.888494e-05    3.606272e-05
353650.255    7.924815e-05    3.593896e-05
355178.268    7.650961e-05    3.5895e-05
356706.282    6.932927e-05    3.517358e-05
358234.295    5.81853e-05    3.379051e-05
359762.309    4.781115e-05    3.298924e-05
361290.323    4.569154e-05    3.322917e-05
362818.336    4.730361e-05    3.434086e-05
364346.35    4.865605e-05    3.532656e-05
365874.363    5.155697e-05    3.591425e-05
367402.377    5.719844e-05    3.638471e-05
368930.39    6.293306e-05    3.711286e-05
370458.404    6.734498e-05    3.859017e-05
371986.418    7.279206e-05    4.193711e-05
373514.431    7.952753e-05    4.58614e-05
375042.445    8.457066e-05    4.754446e-05
376570.458    8.880297e-05    4.851297e-05
378098.472    9.409084e-05    4.864722e-05
379626.486    0.0001001351    4.677876e-05
381154.499    0.0001068514    4.336511e-05
382682.513    0.0001229183    3.996666e-05
384210.526    0.0001547449    3.97365e-05
385738.54    0.0001768277    4.01084e-05
387266.553    0.0001807698    3.909873e-05
388794.567    0.0001818192    3.889829e-05
390322.581    0.0001862611    3.838468e-05
391850.594    0.00019065    3.730996e-05
393378.608    0.0001817672    3.647533e-05
394906.621    0.0001642042    3.619032e-05
396434.635    0.000163553    3.742199e-05
397962.649    0.0001733671    4.160669e-05
399490.662    0.000181586    4.829197e-05
401018.676    0.0001860196    5.390949e-05
402546.689    0.0001884815    5.747029e-05
404074.703    0.0001881954    5.911853e-05
405602.716    0.0001839717    5.89895e-05
407130.73    0.0001794406    5.692279e-05
408658.744    0.0001768961    5.228456e-05
410186.757    0.000178698    4.794806e-05
411714.771    0.0001869928    4.630835e-05
413242.784    0.0002054352    4.706873e-05
414770.798    0.0002572558    4.86967e-05
416298.812    0.00036522    4.95666e-05
417826.825    0.0004868718    5.05812e-05
419354.839    0.0006091163    5.42622e-05
420882.852    0.0007201159    5.883953e-05
422410.866    0.0008200711    6.1268e-05
423938.879    0.0009775065    6.460151e-05
425466.893    0.001441468    7.240741e-05
426994.907    0.002621819    8.3389e-05
428522.92    0.004215946    9.390197e-05
430050.934    0.005498156    0.0001010931
431578.947    0.006208081    0.0001056406
433106.961    0.00651527    0.0001073974
434634.975    0.006601135    0.0001056443
436162.988    0.006443909    0.0001010922
437691.002    0.005779203    9.420938e-05
439219.015    0.004534582    8.663936e-05
440747.029    0.003090911    8.033506e-05
442275.042    0.001841412    7.576483e-05
443803.056    0.001051895    7.275051e-05
445331.07    0.0007107978    7.105929e-05
446859.083    0.000551752    7.22659e-05
448387.097    0.0004418273    8.090173e-05
449915.11    0.0003711889    9.319889e-05
451443.124    0.0003273836    0.0001311668
452971.138    0.0002967558    0.0002050931
454499.151    0.0002657215    0.0002524068
456027.165    0.0002318998    0.0002618305
457555.178    0.0001970934    0.000261723
459083.192    0.0001642831    0.0002600493
460611.205    0.0001392503    0.000253344
462139.219    0.0001217421    0.0002129051
463667.233    0.0001124306    0.0001353266
465195.246    0.0001136111    8.1897e-05
466723.26    0.0001217066    6.536378e-05
468251.273    0.0001361121    5.629708e-05
469779.287    0.0001590668    5.658877e-05
471307.301    0.0001859206    6.193038e-05
472835.314    0.0002030554    6.667378e-05
474363.328    0.0002062912    6.994818e-05
475891.341    0.0002035738    7.230177e-05
477419.355    0.0001991272    7.394575e-05
478947.368    0.0001891244    7.449591e-05
480475.382    0.0001678866    7.325502e-05
482003.396    0.0001403118    7.227597e-05
483531.409    0.0001214998    7.266997e-05
485059.423    0.0001142918    7.292377e-05
486587.436    0.0001121828    7.319522e-05
488115.45    0.0001093245    7.183993e-05
489643.463    0.0001039155    6.872967e-05
491171.477    9.882832e-05    6.704137e-05
492699.491    9.366827e-05    6.652108e-05
494227.504    8.769572e-05    6.602628e-05
495755.518    8.125541e-05    6.366467e-05
497283.531    7.646577e-05    5.835044e-05
498811.545    7.148994e-05    5.255025e-05
500339.559    6.289603e-05    4.668667e-05
501867.572    5.446907e-05    4.232115e-05
503395.586    5.048721e-05    4.005474e-05
504923.599    4.973315e-05    3.758826e-05
506451.613    5.046853e-05    3.429114e-05
507979.626    5.096555e-05    3.139775e-05
509507.64    5.115341e-05    3.004854e-05
511035.654    5.192775e-05    3.022315e-05
512563.667    5.360051e-05    3.152116e-05
514091.681    5.582101e-05    3.278322e-05
515619.694    5.755862e-05    3.331119e-05
517147.708    5.880978e-05    3.311363e-05
518675.722    5.869245e-05    3.229686e-05
520203.735    5.632102e-05    3.167622e-05
521731.749    5.304738e-05    3.188083e-05
523259.762    4.999432e-05    3.329064e-05
524787.776    5.119186e-05    3.791215e-05
526315.789    6.152067e-05    4.39753e-05
527843.803    7.428579e-05    5.571649e-05
529371.817    8.281156e-05    7.71858e-05
530899.83    8.714155e-05    9.089725e-05
532427.844    9.04484e-05    9.292929e-05
533955.857    9.442359e-05    9.173845e-05
535483.871    9.458531e-05    8.940125e-05
537011.885    8.919565e-05    8.589183e-05
538539.898    8.344187e-05    7.266194e-05
540067.912    7.932814e-05    4.82933e-05
541595.925    7.585097e-05    3.17007e-05
543123.939    7.131961e-05    2.650993e-05
544651.952    6.634595e-05    2.366817e-05
546179.966    6.317771e-05    2.28019e-05
547707.98    6.046553e-05    2.256705e-05
549235.993    5.656811e-05    2.284126e-05
550764.007    5.209074e-05    2.355509e-05
552292.02    4.822906e-05    2.411601e-05
553820.034    4.476429e-05    2.403768e-05
555348.048    4.255393e-05    2.355763e-05
556876.061    4.281397e-05    2.375983e-05
558404.075    4.243072e-05    2.412582e-05
559932.088    4.057341e-05    2.395734e-05
561460.102    4.067496e-05    2.462005e-05
562988.115    4.149589e-05    2.576572e-05
564516.129    4.07183e-05    2.575696e-05
566044.143    3.83285e-05    2.464611e-05
567572.156    3.457336e-05    2.313591e-05
569100.17    3.229699e-05    2.209139e-05
570628.183    3.054302e-05    2.072841e-05
572156.197    2.837404e-05    1.812705e-05
573684.211    2.786704e-05    1.580573e-05
575212.224    2.799501e-05    1.49808e-05
576740.238    2.848958e-05    1.506326e-05
578268.251    3.045309e-05    1.52422e-05
579796.265    3.413551e-05    1.507044e-05
581324.278    3.841374e-05    1.508092e-05
582852.292    4.221656e-05    1.583469e-05
584380.306    4.510857e-05    1.709085e-05
585908.319    4.714141e-05    1.844852e-05
587436.333    4.810624e-05    1.980004e-05
588964.346    4.729695e-05    2.087359e-05
590492.36    4.429059e-05    2.147913e-05
592020.374    3.985079e-05    2.162093e-05
593548.387    3.46944e-05    2.149954e-05
595076.401    2.961939e-05    2.137754e-05
596604.414    2.648671e-05    2.14083e-05
598132.428    2.532042e-05    2.136366e-05
599660.441    2.483885e-05    2.084812e-05
601188.455    2.464715e-05    2.083416e-05
602716.469    2.402229e-05    2.313129e-05
604244.482    2.303258e-05    3.405993e-05
605772.496    2.291756e-05    5.308709e-05
607300.509    2.427336e-05    6.481277e-05
608828.523    2.614572e-05    6.738918e-05
610356.537    2.826932e-05    6.840365e-05
611884.55    3.133888e-05    6.907147e-05
613412.564    3.623081e-05    6.781768e-05
614940.577    4.209006e-05    5.854284e-05
616468.591    4.707817e-05    4.199277e-05
617996.604    5.224962e-05    3.220383e-05
619524.618    5.819428e-05    2.791969e-05
621052.632    6.296708e-05    2.40255e-05
622580.645    6.562489e-05    2.232715e-05
624108.659    6.660735e-05    2.170846e-05
625636.672    6.621186e-05    2.152198e-05
627164.686    6.354658e-05    2.166103e-05
628692.699    5.769192e-05    2.157679e-05
630220.713    5.024959e-05    2.110761e-05
631748.727    4.446294e-05    2.03816e-05
633276.74    4.054466e-05    1.929669e-05
634804.754    3.673342e-05    1.806702e-05
636332.767    3.42559e-05    1.686311e-05
637860.781    3.482174e-05    1.558215e-05
639388.795    3.757377e-05    1.449806e-05
640916.808    3.981197e-05    1.345017e-05
642444.822    4.001307e-05    1.236737e-05
643972.835    3.940575e-05    1.155558e-05
645500.849    3.922656e-05    1.110491e-05
647028.862    3.926435e-05    1.119562e-05
648556.876    3.928972e-05    1.171213e-05
650084.89    3.931093e-05    1.24448e-05
651612.903    3.879745e-05    1.339621e-05
653140.917    3.829996e-05    1.433708e-05
654668.93    4.018058e-05    1.50934e-05
656196.944    4.465864e-05    1.553873e-05
657724.958    4.870732e-05    1.549169e-05
659252.971    5.103791e-05    1.509421e-05
660780.985    5.243045e-05    1.481835e-05
662308.998    5.298045e-05    1.468948e-05
663837.012    5.184788e-05    1.453053e-05
665365.025    4.943727e-05    1.447523e-05
666893.039    4.644302e-05    1.451811e-05
668421.053    4.326247e-05    1.454361e-05
669949.066    4.027318e-05    1.458066e-05
671477.08    3.732858e-05    1.463173e-05
673005.093    3.492852e-05    1.481186e-05
674533.107    3.30919e-05    1.508684e-05
676061.121    3.121743e-05    1.515929e-05
677589.134    2.850605e-05    1.520882e-05
679117.148    2.548069e-05    1.53998e-05
680645.161    2.373484e-05    1.574166e-05
682173.175    2.314818e-05    1.634424e-05
683701.188    2.333588e-05    1.69274e-05
685229.202    2.390328e-05    1.746004e-05
686757.216    2.440942e-05    1.800133e-05
688285.229    2.491279e-05    1.848896e-05
689813.243    2.595741e-05    1.918949e-05
691341.256    3.169573e-05    1.979198e-05
692869.27    4.252264e-05    2.002114e-05
694397.284    4.882804e-05    2.031433e-05
695925.297    4.991834e-05    2.074051e-05
697453.311    5.074994e-05    2.112939e-05
698981.324    5.176748e-05    2.135287e-05
700509.338    5.068432e-05    2.119539e-05
702037.351    4.351608e-05    2.057681e-05
703565.365    3.309817e-05    1.963591e-05
705093.379    2.917621e-05    1.874088e-05
706621.392    3.177421e-05    1.834911e-05
708149.406    4.742743e-05    1.961814e-05
709677.419    7.134734e-05    2.248244e-05
711205.433    8.64323e-05    2.406213e-05
712733.447    9.238157e-05    2.408309e-05
714261.46    9.446788e-05    2.378692e-05
715789.474    9.441769e-05    2.357533e-05
717317.487    9.079411e-05    2.296303e-05
718845.501    7.609911e-05    2.074392e-05
720373.514    5.382271e-05    1.809411e-05
721901.528    3.803772e-05    1.695556e-05
723429.542    3.05083e-05    1.657802e-05
724957.555    2.837968e-05    1.625039e-05
726485.569    2.869698e-05    1.594364e-05
728013.582    2.847244e-05    1.5825e-05
729541.596    2.821388e-05    1.599028e-05
731069.61    2.938638e-05    1.628118e-05
732597.623    3.049499e-05    1.63941e-05
734125.637    3.023034e-05    1.64624e-05
735653.65    2.968179e-05    1.659541e-05
737181.664    2.964961e-05    1.672744e-05
738709.677    2.973587e-05    1.678412e-05
740237.691    2.979803e-05    1.69912e-05
741765.705    3.030713e-05    1.770582e-05
743293.718    3.135496e-05    1.863395e-05
744821.732    3.220739e-05    1.923089e-05
746349.745    3.274818e-05    1.958235e-05
747877.759    3.367622e-05    1.990276e-05
749405.772    3.533576e-05    2.004888e-05
750933.786    3.72564e-05    2.016989e-05
752461.8    3.920357e-05    2.080476e-05
753989.813    4.129285e-05    2.273986e-05
755517.827    4.35917e-05    2.597747e-05
757045.84    4.616765e-05    3.592083e-05
758573.854    4.887307e-05    5.428482e-05
760101.868    5.14632e-05    6.625625e-05
761629.881    5.308444e-05    6.879396e-05
763157.895    5.376641e-05    6.90681e-05
764685.908    5.463965e-05    6.910394e-05
766213.922    5.596236e-05    6.75583e-05
767741.935    5.671821e-05    5.776863e-05
769269.949    5.582282e-05    3.963999e-05
770797.963    5.29258e-05    2.781254e-05
772325.976    4.950758e-05    2.406101e-05
773853.99    4.646314e-05    2.245915e-05
775382.003    4.304243e-05    2.261182e-05
776910.017    3.912225e-05    2.267314e-05
778438.031    3.631736e-05    2.223e-05
779966.044    3.567114e-05    2.20622e-05
781494.058    3.600259e-05    2.205046e-05
783022.071    3.605233e-05    2.110456e-05
784550.085    3.586999e-05    1.954635e-05
786078.098    3.612667e-05    1.837846e-05
787606.112    3.642289e-05    1.759853e-05
789134.126    3.617492e-05    1.719224e-05
790662.139    3.586483e-05    1.68165e-05
792190.153    3.558367e-05    1.656629e-05
793718.166    3.534902e-05    1.610935e-05
795246.18    3.555622e-05    1.516399e-05
796774.194    3.611051e-05    1.453955e-05
798302.207    3.765416e-05    1.440201e-05
799830.221    4.033186e-05    1.436835e-05
801358.234    4.33257e-05    1.434283e-05
802886.248    4.5859e-05    1.442326e-05
804414.261    4.776748e-05    1.450423e-05
805942.275    4.994846e-05    1.454271e-05
807470.289    5.352579e-05    1.468374e-05
808998.302    5.837166e-05    1.479455e-05
810526.316    6.318965e-05    1.479999e-05
812054.329    6.734543e-05    1.480397e-05
813582.343    7.199684e-05    1.504117e-05
815110.357    7.701106e-05    1.56876e-05
816638.37    8.122317e-05    1.645281e-05
818166.384    8.434855e-05    1.716882e-05
819694.397    8.678641e-05    1.772388e-05
821222.411    8.902976e-05    1.796221e-05
822750.424    9.072424e-05    1.796799e-05
824278.438    9.131517e-05    1.773662e-05
825806.452    8.971762e-05    1.722804e-05
827334.465    8.603754e-05    1.669964e-05
828862.479    8.301812e-05    1.634492e-05
830390.492    8.262426e-05    1.593043e-05
831918.506    8.423215e-05    1.532947e-05
833446.52    8.529116e-05    1.489324e-05
834974.533    8.584482e-05    1.487193e-05
836502.547    8.710174e-05    1.489915e-05
838030.56    9.040492e-05    1.516276e-05
839558.574    9.625149e-05    1.606111e-05
841086.587    0.0001051013    1.702727e-05
842614.601    0.0001177326    1.777225e-05
844142.615    0.0001305898    1.831552e-05
845670.628    0.0001415533    1.863569e-05
847198.642    0.0001512587    1.86376e-05
848726.655    0.00016201    1.821517e-05
850254.669    0.0001735853    1.796809e-05
851782.683    0.0001820607    1.81465e-05
853310.696    0.0001912154    1.841727e-05
854838.71    0.0002033975    1.883319e-05
856366.723    0.0002155061    1.959612e-05
857894.737    0.0002270999    2.048724e-05
859422.75    0.0002469939    2.107032e-05
860950.764    0.0003043192    2.118765e-05
862478.778    0.0003976137    2.118035e-05
864006.791    0.0004920861    2.11768e-05
865534.805    0.0005659409    2.105435e-05
867062.818    0.0006181815    2.081438e-05
868590.832    0.0006549477    2.048936e-05
870118.846    0.0006709259    2.007513e-05
871646.859    0.00065043    1.956569e-05
873174.873    0.0005910405    1.898584e-05
874702.886    0.0005086366    1.831582e-05
876230.9    0.000425106    1.760247e-05
877758.913    0.0003515677    1.695393e-05
879286.927    0.0002848604    1.633744e-05
880814.941    0.0002305536    1.571969e-05
882342.954    0.0001967318    1.512245e-05
883870.968    0.0001782921    1.452196e-05
885398.981    0.0001663106    1.401405e-05
886926.995    0.0001577801    1.37167e-05
888455.008    0.0001514188    1.352137e-05
889983.022    0.000146463    1.347435e-05
891511.036    0.0001408815    1.370852e-05
893039.049    0.0001336628    1.404338e-05
894567.063    0.0001272392    1.449812e-05
896095.076    0.0001220796    1.517566e-05
897623.09    0.0001160108    1.597395e-05
899151.104    0.0001078578    1.683445e-05
900679.117    9.996505e-05    1.761739e-05
902207.131    9.626965e-05    1.826004e-05
903735.144    9.479699e-05    1.893514e-05
905263.158    9.285853e-05    1.999048e-05
906791.171    9.013493e-05    2.158703e-05
908319.185    8.698474e-05    2.332291e-05
909847.199    8.47144e-05    2.649043e-05
911375.212    8.20792e-05    3.292441e-05
912903.226    7.781364e-05    3.790358e-05
914431.239    7.699573e-05    4.042878e-05
915959.253    8.339318e-05    4.467686e-05
917487.267    8.839746e-05    4.833818e-05
919015.28    8.638972e-05    4.823005e-05
920543.294    8.308783e-05    4.449875e-05
922071.307    8.097732e-05    3.877743e-05
923599.321    7.809585e-05    3.525988e-05
925127.334    7.176983e-05    3.123409e-05
926655.348    6.315918e-05    2.357478e-05
928183.362    5.890691e-05    1.81841e-05
929711.375    5.673157e-05    1.702437e-05
931239.389    5.351027e-05    1.68689e-05
932767.402    5.009809e-05    1.730367e-05
934295.416    4.691574e-05    1.778679e-05
935823.43    4.398103e-05    1.812571e-05
937351.443    4.216894e-05    1.854108e-05
938879.457    4.243267e-05    1.890486e-05
940407.47    4.33534e-05    1.903664e-05
941935.484    4.343348e-05    1.890707e-05
943463.497    4.259676e-05    1.860043e-05
944991.511    4.127641e-05    1.830081e-05
946519.525    4.042514e-05    1.811132e-05
948047.538    4.083857e-05    1.800758e-05
949575.552    4.143509e-05    1.792669e-05
951103.565    4.145677e-05    1.774569e-05
952631.579    4.114857e-05    1.729295e-05
954159.593    4.088836e-05    1.659295e-05
955687.606    4.118443e-05    1.576627e-05
957215.62    4.195312e-05    1.491884e-05
958743.633    4.360077e-05    1.434486e-05
960271.647    4.677951e-05    1.408745e-05
961799.66    5.12002e-05    1.394489e-05
963327.674    5.611534e-05    1.398139e-05
964855.688    6.117117e-05    1.430146e-05
966383.701    6.67144e-05    1.486809e-05
967911.715    7.180557e-05    1.556269e-05
969439.728    7.49116e-05    1.62745e-05
970967.742    7.548969e-05    1.700192e-05
972495.756    7.277784e-05    1.782406e-05
974023.769    6.834669e-05    1.865961e-05
975551.783    6.582151e-05    1.941386e-05
977079.796    6.451391e-05    1.996291e-05
978607.81    6.26231e-05    2.025982e-05
980135.823    6.17426e-05    2.06704e-05
981663.837    6.398302e-05    2.145387e-05
983191.851    6.65789e-05    2.213913e-05
984719.864    6.432717e-05    2.212818e-05
986247.878    5.868941e-05    2.155146e-05
987775.891    5.369235e-05    2.085795e-05
989303.905    5.010432e-05    2.02623e-05
990831.919    4.483636e-05    1.959823e-05
992359.932    3.497737e-05    1.859993e-05
993887.946    2.647361e-05    1.757889e-05
995415.959    2.373739e-05    1.687483e-05
996943.973    2.322769e-05    1.636096e-05
998471.986    2.299757e-05    1.580621e-05
1000000.0    2.245217e-05    1.538501e-05
