# Comments from moku data file:% Moku:Phasemeter 
# 
# % Ch 1 - DC coupling, 50 Ohm impedance, 1 V range
# 
# % Ch 1 bandwidth = 1.0000000000e+04 (Hz)
# 
# % Acquisition rate: 1.2500000000e+05 Hz
# 
# % External 10 MHz clock
# 
# % Acquired 2020-04-28 T 22:35:35 -0700
# 
# % Time, Set frequency 1 (Hz), Frequency 1 (Hz), Phase 1 (cyc), I 1 (V), Q 1 (V)
# 
# #########################################################
# ASD calculated by mokuReadFreqNoise.py
# Frequency [Hz]         Freq ASD1 [Hz/rtHz]      Freq ASDlb1 [Hz/rtHz]    Freq ASDub1 [Hz/rtHz]    
# 
0.000000000000000000e+00 8.260971851009068700e+01 6.246294559299866478e+01 2.171797176414803232e+02
1.000000000000000056e-01 1.573426226803222505e+02 8.192679599714553262e+01 3.035684172846404181e+02
2.000000000000000111e-01 1.351386539779213649e+02 1.067950673068266951e+02 1.986024540454431246e+02
3.000000000000000444e-01 1.008900066207492330e+02 7.278727508578103311e+01 1.830701953867969394e+02
4.000000000000000222e-01 8.923512698303404989e+01 4.924214660128923526e+01 1.172764889184512356e+02
5.000000000000000000e-01 5.024387309159821768e+01 2.943201781753808177e+01 8.632176001389238706e+01
6.000000000000000888e-01 7.062480033585920580e+01 2.741053791054570254e+01 1.140070149806661419e+02
7.000000000000000666e-01 7.318838637167441163e+01 3.790809793788314863e+01 9.394988840647926054e+01
8.000000000000000444e-01 4.176588239967748706e+01 2.352943299957068035e+01 6.490420927083589220e+01
9.000000000000000222e-01 4.688378319231403424e+01 2.537209981788459245e+01 7.158573715796816828e+01
1.000000000000000000e+00 3.863861508914042986e+01 1.994216564935664948e+01 5.281715063192332593e+01
1.100000000000000089e+00 3.025668711667143995e+01 1.032814478370453948e+01 4.602665484149967767e+01
1.200000000000000178e+00 2.174820485451906649e+01 1.201136426004391744e+01 5.362384991547070712e+01
1.300000000000000044e+00 3.269355650427493032e+01 2.381612738669917562e+01 3.698960412135523512e+01
1.400000000000000133e+00 3.438388502991173112e+01 1.139544542369700686e+01 4.090972301980570336e+01
1.500000000000000000e+00 2.818220026500451070e+01 1.559679982336658455e+01 4.457148645053645453e+01
1.600000000000000089e+00 2.408362196296457824e+01 1.717389385043642136e+01 4.057406399651054585e+01
1.700000000000000178e+00 2.102868463750219874e+01 1.547819477020779466e+01 3.688760211733167438e+01
1.800000000000000044e+00 1.534984163285653835e+01 6.032067671529492969e+00 3.941758401536357326e+01
1.900000000000000133e+00 2.441266944711265552e+01 1.363794291643441348e+01 3.222492489346994660e+01
2.000000000000000000e+00 2.114592219560996611e+01 8.035112131828332949e+00 3.598626570091630583e+01
2.100000000000000089e+00 1.829748756126929266e+01 1.227668063957453803e+01 3.365760398471788761e+01
2.200000000000000178e+00 2.080517059778476252e+01 1.402888297365527670e+01 2.813685610374792034e+01
2.300000000000000266e+00 2.324769478649119492e+01 1.184593536908932521e+01 2.832953352423833593e+01
2.400000000000000355e+00 1.895527646466168648e+01 1.374757396882278115e+01 2.407200528980959575e+01
2.500000000000000000e+00 1.557632817561866112e+01 6.446057928155104477e+00 2.210145751784643409e+01
2.600000000000000089e+00 1.259818819294887859e+01 1.125172270068558511e+01 2.269988357392544387e+01
2.700000000000000178e+00 2.063309232539613447e+01 1.524891747657775198e+01 2.489195314432516071e+01
2.800000000000000266e+00 1.491629763480405124e+01 1.055585352623027440e+01 2.069455065214783218e+01
2.900000000000000355e+00 1.474388527647149694e+01 6.930967180720323029e+00 1.924556435930434262e+01
3.000000000000000000e+00 1.404642439744700866e+01 7.280123133590448603e+00 2.410565645844466331e+01
3.100000000000000089e+00 1.775192211438866607e+01 9.411180330224746982e+00 2.182549433356287949e+01
3.200000000000000178e+00 1.494987657997671882e+01 8.803452975831572047e+00 2.265570692037594469e+01
3.300000000000000266e+00 1.472874325920620642e+01 7.713626973456447544e+00 2.697692589917453176e+01
3.400000000000000355e+00 1.280017727792164983e+01 9.188624179693734462e+00 3.190991309202739501e+01
3.500000000000000000e+00 2.095842474781115072e+01 7.051486952438862588e+00 3.667811291648359173e+01
3.600000000000000089e+00 2.006662375407029586e+01 1.315652711644663952e+01 3.194802548118386554e+01
3.700000000000000178e+00 1.952162371134253149e+01 1.322870620806967423e+01 3.290113608868303174e+01
3.800000000000000266e+00 1.935923908817877148e+01 1.342219105937210699e+01 3.456783133221534143e+01
3.900000000000000355e+00 1.402935137136540256e+01 7.653081584925114811e+00 1.978652461533661011e+01
4.000000000000000000e+00 1.164228650363473072e+01 4.759354818692054678e+00 1.687524948001681935e+01
4.100000000000000533e+00 9.539979383564723747e+00 5.414033036105900365e+00 1.935966517327281267e+01
4.200000000000000178e+00 1.454484091455506345e+01 7.451898466403855892e+00 2.221109367330322826e+01
4.299999999999999822e+00 1.713176480689396186e+01 1.292804447377178256e+01 1.996025535259479611e+01
4.400000000000000355e+00 9.627609768152758818e+00 3.685088490647483894e+00 1.891504168380447126e+01
4.500000000000000000e+00 1.371399451459613594e+01 6.809086175065153235e+00 2.201918356665858312e+01
4.600000000000000533e+00 1.390214092587098627e+01 8.186477617404813500e+00 1.837970012435590661e+01
4.700000000000000178e+00 8.083935293886124640e+00 6.283872044984875060e+00 1.609261089284425594e+01
4.800000000000000711e+00 1.059954218957852667e+01 6.395370061815697227e+00 2.032716265499362152e+01
4.900000000000000355e+00 1.243160567246638948e+01 7.502639634481655939e+00 1.677086568172342851e+01
5.000000000000000000e+00 1.082502313393070992e+01 5.809815295791016077e+00 1.382018433952065806e+01
5.100000000000000533e+00 8.309734527910009660e+00 4.772139770210648280e+00 1.528473948863024212e+01
5.200000000000000178e+00 1.243623220781420002e+01 4.346888308992312488e+00 1.746027585709864027e+01
5.300000000000000711e+00 1.539122720672888889e+01 8.746623952313026251e+00 1.724876702389991223e+01
5.400000000000000355e+00 1.354209762827378682e+01 5.318422946654010275e+00 1.582101106731085416e+01
5.500000000000000000e+00 1.103132496379841854e+01 5.067168253739094297e+00 2.141355900650097155e+01
5.600000000000000533e+00 1.228457674269004585e+01 6.225059522962092196e+00 2.146970577145898318e+01
5.700000000000000178e+00 1.131428005608967702e+01 8.648559023367630161e+00 1.840287257701688617e+01
5.800000000000000711e+00 9.014305064891123820e+00 7.214958143605212371e+00 1.508566249728450792e+01
5.900000000000000355e+00 9.192921174256527550e+00 4.905872355978067922e+00 1.193641840776601448e+01
6.000000000000000000e+00 1.199683570460304871e+01 6.127683856929253103e+00 1.558256684928732838e+01
6.100000000000000533e+00 9.934202621764518071e+00 6.102667833783675277e+00 1.393484405225369471e+01
6.200000000000000178e+00 8.292497928351457048e+00 5.679272334316713078e+00 1.365191871885410890e+01
6.300000000000000711e+00 1.010355497322633944e+01 7.037727419334981249e+00 1.214286544285341307e+01
6.400000000000000355e+00 1.483074308239096162e+01 9.991500060950496476e+00 1.894446322926818382e+01
6.500000000000000000e+00 1.570870296914484143e+01 5.802409642554711589e+00 1.994638529842763575e+01
6.600000000000000533e+00 1.164487530072986132e+01 6.355915148822083971e+00 1.441384366559068653e+01
6.700000000000000178e+00 6.741487893677115650e+00 4.792061004514146738e+00 1.294909726659080995e+01
6.800000000000000711e+00 6.625521941567451556e+00 2.827228432009639914e+00 1.646780954588031420e+01
6.900000000000000355e+00 1.472360644291767962e+01 8.443982413296970080e+00 2.068429392305063175e+01
7.000000000000000000e+00 1.033087790591014610e+01 6.785612643269709032e+00 2.003606511264793610e+01
7.100000000000000533e+00 1.016545029320777793e+01 7.341167656178780199e+00 1.390139279888914281e+01
7.200000000000000178e+00 1.257179349055602380e+01 8.021672502498942592e+00 1.587744761492666434e+01
7.300000000000000711e+00 1.312072998630983633e+01 8.730135435736906757e+00 1.861395620174834420e+01
7.400000000000000355e+00 1.547109781890340052e+01 7.339284364697919116e+00 1.834930134485126274e+01
7.500000000000000000e+00 8.055925799266592691e+00 3.940477721179851400e+00 1.542185104170120979e+01
7.600000000000000533e+00 7.662931228909382497e+00 4.419321725000008527e+00 1.508087098745385113e+01
7.700000000000000178e+00 7.771621610385776258e+00 4.259144408455552977e+00 1.270769314124641802e+01
7.800000000000000711e+00 7.211504752366963089e+00 3.697570034150967633e+00 1.016971293160618828e+01
7.900000000000000355e+00 8.431259993878301273e+00 4.286048025685640361e+00 1.252782101578802632e+01
8.000000000000000000e+00 8.561726295563456546e+00 4.371765922963575690e+00 1.167886906133348290e+01
8.099999999999999645e+00 6.331568784317827436e+00 2.345310567091277942e+00 1.161169367708698452e+01
8.200000000000001066e+00 1.015572914467603205e+01 4.241714408610552489e+00 1.291829009051636667e+01
8.300000000000000711e+00 7.956526093935004873e+00 3.382782588060753159e+00 1.334126149548081131e+01
8.400000000000000355e+00 6.339620399662535100e+00 3.310907082524842782e+00 1.578694617035015213e+01
8.500000000000000000e+00 7.983003828661805024e+00 5.810981990835482947e+00 1.252193542608486787e+01
8.599999999999999645e+00 8.840886116532516326e+00 3.282399421748916080e+00 1.300410027247590783e+01
8.700000000000001066e+00 9.360623351101105882e+00 5.574946914490737981e+00 1.077217216581552073e+01
8.800000000000000711e+00 1.262870338148517391e+01 7.339014010441644587e+00 1.429739551806523856e+01
8.900000000000000355e+00 8.977037175183204099e+00 6.624241459595951120e+00 1.725036657610398549e+01
9.000000000000000000e+00 9.221430098501608441e+00 5.766306773609615632e+00 1.321989087084966386e+01
9.099999999999999645e+00 8.289908166022769365e+00 6.175438687557685213e+00 1.326916120986224357e+01
9.200000000000001066e+00 8.669376835320401042e+00 4.319144689299029061e+00 1.175958502909430869e+01
9.300000000000000711e+00 6.043997570966853417e+00 4.500957990188262592e+00 9.476062748446087980e+00
9.400000000000000355e+00 6.941035744375214200e+00 3.216502943970547701e+00 9.447978189509514735e+00
9.500000000000000000e+00 5.686944746728942235e+00 3.823443674153832461e+00 9.951763222680607868e+00
9.600000000000001421e+00 1.108043715971864351e+01 3.833206175832637896e+00 1.216122843471679893e+01
9.700000000000001066e+00 6.774137053546762210e+00 4.608855067171023556e+00 1.185351242427726604e+01
9.800000000000000711e+00 9.500008084868010627e+00 5.029210269724927684e+00 1.551979074350353471e+01
9.900000000000000355e+00 8.320826136853549215e+00 6.238793951508936786e+00 1.105215995114438776e+01
1.000000000000000000e+01 8.705803856841910715e+00 3.902215348216926838e+00 1.601167530511472137e+01
1.100000000000000000e+01 8.886842718536291486e+00 3.498936987527913711e+00 1.618695761440115888e+01
1.200000000000000000e+01 7.214161457297839419e+00 2.576517889534696959e+00 1.234865460929931835e+01
1.300000000000000000e+01 5.138939916467721858e+00 2.104548072056559249e+00 1.130375431049492185e+01
1.400000000000000000e+01 5.675144566218441433e+00 1.956939739316931881e+00 1.125134920934148219e+01
1.500000000000000000e+01 4.538273618050871150e+00 1.918555776722514317e+00 1.129202972682025141e+01
1.600000000000000000e+01 4.122188562760355168e+00 1.645445462083520383e+00 1.084645507532038877e+01
1.700000000000000000e+01 4.025730738457032665e+00 1.469776632510871650e+00 1.022744514011095873e+01
1.800000000000000000e+01 3.357197037445846632e+00 1.223024268608939424e+00 1.038606415711611319e+01
1.900000000000000000e+01 2.782334717266836233e+00 8.156637537677591254e-01 7.584813546372398463e+00
2.000000000000000000e+01 2.375074996901640478e+00 9.006851271272440229e-01 6.154368883932329837e+00
2.100000000000000000e+01 1.883724073193271620e+00 6.600110836493001676e-01 6.809432476324805528e+00
2.200000000000000000e+01 1.865291362012260423e+00 7.643422427735989677e-01 4.725437040335071615e+00
2.300000000000000000e+01 1.381369858790368665e+00 6.300254227847899013e-01 5.673224661405417812e+00
2.400000000000000000e+01 1.334508422635071190e+00 6.264497939672513116e-01 4.254396969405917162e+00
2.500000000000000000e+01 1.084217819501096081e+00 5.036153189069974001e-01 4.386073097822399625e+00
2.600000000000000000e+01 1.071856912323411404e+00 4.464990726311684477e-01 3.129336956335312614e+00
2.700000000000000000e+01 8.990379293700375696e-01 4.208332415056296738e-01 2.267960232177970603e+00
2.800000000000000000e+01 8.844429105215411147e-01 4.311056729021908729e-01 2.189924468281254200e+00
2.900000000000000000e+01 8.466892164718158309e-01 3.485641909838521624e-01 1.776420416731897989e+00
3.000000000000000000e+01 7.252298329808719579e-01 2.810983618822846530e-01 1.824636459372763753e+00
3.100000000000000000e+01 6.328812032671390364e-01 2.768182623826712097e-01 1.605349490644446542e+00
3.200000000000000000e+01 6.279644020983968788e-01 3.027977606408384648e-01 1.266171891845628394e+00
3.300000000000000000e+01 6.051969662846768960e-01 3.418371986735472823e-01 1.079279598931041084e+00
3.400000000000000000e+01 5.090793354470295462e-01 2.531671578767104025e-01 8.537248290600013556e-01
3.500000000000000000e+01 4.492285728497425468e-01 2.246206780670222669e-01 8.562083464736931493e-01
3.600000000000000000e+01 4.355200769773543423e-01 2.099413033010057439e-01 8.340653132918259827e-01
3.700000000000000000e+01 4.154908550871079242e-01 2.278503716418222302e-01 6.970300468219982060e-01
3.800000000000000000e+01 3.682721064229178554e-01 1.815468864066638044e-01 6.460891247420120775e-01
3.900000000000000000e+01 3.591348537971091881e-01 1.586717771282373790e-01 5.976426946702793064e-01
4.000000000000000000e+01 3.370893753054909903e-01 1.176576856361878365e-01 5.687923893721669177e-01
4.100000000000000000e+01 3.017725494438998068e-01 1.399084731897394518e-01 5.260180652558197334e-01
4.200000000000000000e+01 2.543444812934050336e-01 1.180904595502517002e-01 5.238732689092091555e-01
4.300000000000000000e+01 2.556470616053806433e-01 1.467122547664375110e-01 4.370692602929237003e-01
4.400000000000000000e+01 2.491927416543254226e-01 1.260576067829250468e-01 4.623420051329441005e-01
4.500000000000000000e+01 2.229679787967617510e-01 1.087582543518400280e-01 4.059393659107344843e-01
4.600000000000000000e+01 1.877725117660419829e-01 8.711944285335683491e-02 4.185158023444277564e-01
4.700000000000000000e+01 2.059428557396347503e-01 1.087719341488202068e-01 3.880205207407789736e-01
4.800000000000000000e+01 2.240717414554944942e-01 8.952407055097968969e-02 3.909040367815230232e-01
4.900000000000000000e+01 2.296701100899642412e-01 9.032069890459984429e-02 3.470632473198083101e-01
5.000000000000000000e+01 1.860098900123901555e-01 1.038182549812031036e-01 3.653990524033553511e-01
5.100000000000000000e+01 1.763497532097783871e-01 8.637448747889459044e-02 3.021838541621683083e-01
5.200000000000000000e+01 1.701868177970674023e-01 9.396091674800119420e-02 2.853211819240475400e-01
5.300000000000000000e+01 1.883983353588455090e-01 9.503770533334832127e-02 3.013025188959579936e-01
5.400000000000000000e+01 1.718393157686190775e-01 9.377840985906202298e-02 2.650160676604975118e-01
5.500000000000000000e+01 1.787758907424643051e-01 6.481923941367176423e-02 3.046916825560221920e-01
5.600000000000000000e+01 1.660405220261613746e-01 7.588632426357644345e-02 3.072321149160683329e-01
5.700000000000000000e+01 1.607410053577315312e-01 7.793916389391924993e-02 2.666899030914130497e-01
5.800000000000000000e+01 1.611392257061251554e-01 8.488754918432067642e-02 2.985304412030644894e-01
5.900000000000000000e+01 1.590865626934642452e-01 6.774579332761528072e-02 2.911814257646455628e-01
6.000000000000000000e+01 1.704320046719507986e-01 7.035900119628674121e-02 3.036344661930416300e-01
6.100000000000000000e+01 1.478081347586331362e-01 6.801894031760150061e-02 2.615867394345737229e-01
6.200000000000000000e+01 1.581994604555707340e-01 7.122950332722498279e-02 2.549910202919780655e-01
6.300000000000000000e+01 1.320317255966283465e-01 5.667233657270289576e-02 2.608396112621127472e-01
6.400000000000000000e+01 1.281092821783934577e-01 6.443478082008650965e-02 2.253974339813401562e-01
6.500000000000000000e+01 1.289473945045967185e-01 6.544406251561679655e-02 1.902622890030692404e-01
6.600000000000000000e+01 1.169790961060312440e-01 6.265483271501962048e-02 1.892981846963265880e-01
6.700000000000000000e+01 1.098313929343507217e-01 5.205151404951909727e-02 1.693326012050194174e-01
6.800000000000000000e+01 1.104775956052915786e-01 5.589273643578886175e-02 1.934166598475886845e-01
6.900000000000000000e+01 1.108119008484922258e-01 6.109071061786845031e-02 1.869442749674868343e-01
7.000000000000000000e+01 1.059472050835700563e-01 5.264574466704063926e-02 1.612557714849465196e-01
7.100000000000000000e+01 9.832573914287794092e-02 6.006809791484633843e-02 1.535166488251592520e-01
7.200000000000000000e+01 9.385586905467475927e-02 4.694843661316318306e-02 1.592856542363876582e-01
7.300000000000000000e+01 9.991010394985390397e-02 4.606409835298234251e-02 1.507951473577495427e-01
7.400000000000000000e+01 8.352732591920043748e-02 4.521486597195343432e-02 1.468424210721663847e-01
7.500000000000000000e+01 8.197603884537423002e-02 3.599482085657754182e-02 1.409166496703356253e-01
7.600000000000000000e+01 8.350689047753385996e-02 3.934541927751726564e-02 1.278028765506464270e-01
7.700000000000000000e+01 8.092232863207042548e-02 4.225249670340407854e-02 1.248943692962935503e-01
7.800000000000000000e+01 8.353515869062352883e-02 3.308076986891727439e-02 1.310037089873608840e-01
7.900000000000000000e+01 7.661914009666614955e-02 4.166324971465110855e-02 1.172425325225036480e-01
8.000000000000000000e+01 7.371680428444167543e-02 3.809843993125257289e-02 1.171639698384804446e-01
8.100000000000000000e+01 6.523332698592687606e-02 4.043744436103702961e-02 1.049133755236628801e-01
8.200000000000000000e+01 7.247419053312538495e-02 3.686149174968352676e-02 1.066539258035300447e-01
8.300000000000000000e+01 7.043383799844712967e-02 3.501166815538554744e-02 1.201177699104340607e-01
8.400000000000000000e+01 7.502108632748981376e-02 3.320731226066525599e-02 1.236901314103911187e-01
8.500000000000000000e+01 8.009860252982146933e-02 3.657953954482751069e-02 1.206747834511222167e-01
8.600000000000000000e+01 7.573882045918405026e-02 4.364373880996347266e-02 1.249291790810835578e-01
8.700000000000000000e+01 6.977158360779395219e-02 3.703470839285863403e-02 1.148172473494846746e-01
8.800000000000000000e+01 6.464803128673994592e-02 2.793914759512758361e-02 1.026429379378323153e-01
8.900000000000000000e+01 6.407451182139128898e-02 3.569042770533117220e-02 9.709408486311150999e-02
9.000000000000000000e+01 6.369976476172280189e-02 3.314003729745652188e-02 9.141844704202049809e-02
9.100000000000000000e+01 5.574690838615002642e-02 3.016790471191865483e-02 9.627794069162325108e-02
9.200000000000000000e+01 6.126105249825844479e-02 3.191764933695177137e-02 1.005273120550645022e-01
9.300000000000000000e+01 5.756571443074169625e-02 2.698768595345560350e-02 1.061813431568816718e-01
9.400000000000000000e+01 5.775987257040869627e-02 2.814551501232074801e-02 1.021007231138330723e-01
9.500000000000000000e+01 6.540945031011358157e-02 2.534137945240708817e-02 1.085991244560425145e-01
9.600000000000000000e+01 5.595682202236480773e-02 2.832912076039089885e-02 1.166252287520788689e-01
9.700000000000000000e+01 6.335026577312849461e-02 2.990683315539685583e-02 1.129074640562450910e-01
9.800000000000000000e+01 6.735396147159665448e-02 3.274558262797035851e-02 1.255084812729921617e-01
9.900000000000000000e+01 7.018252470321724446e-02 3.462046567258428992e-02 1.344317269884711397e-01
1.000000000000000000e+02 7.814271978035368382e-02 3.733350670141705879e-02 1.387862198419201887e-01
1.100000000000000000e+02 1.221735374460554413e-01 6.179632058626483015e-02 1.994468802693060983e-01
1.200000000000000000e+02 1.243396468823947665e-01 5.814870963102564128e-02 2.494369169989407997e-01
1.300000000000000000e+02 1.269765141753040616e-01 6.558534546433593404e-02 2.075903928810865773e-01
1.400000000000000000e+02 1.219054475573801699e-01 5.947291622149313006e-02 2.127425954882574133e-01
1.500000000000000000e+02 9.797545167052520987e-02 4.062857806314620901e-02 2.213358206107854942e-01
1.600000000000000000e+02 1.003859971746374619e-01 4.873114772656543525e-02 1.794973715169502770e-01
1.700000000000000000e+02 5.605983689463080871e-02 2.588700593366131605e-02 1.055440078684085486e-01
1.800000000000000000e+02 4.519031077826461684e-02 2.286495275893803136e-02 7.335509596501037233e-02
1.900000000000000000e+02 3.461453554005885364e-02 1.674311987960186779e-02 5.674598736171584251e-02
2.000000000000000000e+02 3.354403598577723050e-02 1.632408699920820383e-02 5.859436277140277899e-02
2.100000000000000000e+02 4.365546398425649427e-02 2.098979441759989475e-02 7.560811845141410248e-02
2.200000000000000000e+02 5.445898375698154936e-02 2.747903776357820890e-02 9.376819957399577798e-02
2.300000000000000000e+02 5.962538707468117288e-02 2.795122273310374217e-02 1.037342312974807446e-01
2.400000000000000000e+02 6.852739283897001099e-02 3.612100641652325056e-02 1.115558447784207458e-01
2.500000000000000000e+02 4.755374130500083368e-02 2.294974432950040374e-02 8.353694994123656015e-02
2.600000000000000000e+02 8.096691286347180994e-02 3.770328739197834067e-02 1.467627914983518633e-01
2.700000000000000000e+02 1.255611507473375077e-01 5.292444717010402061e-02 2.542308663491658072e-01
2.800000000000000000e+02 1.222273783838523503e-01 5.418584577209793751e-02 2.252753972295102047e-01
2.900000000000000000e+02 6.061208311262985399e-02 2.841225213652290998e-02 1.068035957428872806e-01
3.000000000000000000e+02 3.950760492030246096e-02 2.012990300707541078e-02 6.349732639690008895e-02
3.100000000000000000e+02 3.337075968316854241e-02 1.640819980390997163e-02 5.372526423009043456e-02
3.200000000000000000e+02 3.322586555064299674e-02 1.667678728925146500e-02 5.165860249560719208e-02
3.300000000000000000e+02 3.086899118511972004e-02 1.583597270105974522e-02 5.149741444859327194e-02
3.400000000000000000e+02 3.156304768392872995e-02 1.521093606018512207e-02 5.127268390995745606e-02
3.500000000000000000e+02 3.205620455975131261e-02 1.635603754896503004e-02 5.292060186443605513e-02
3.600000000000000000e+02 3.216948665103416122e-02 1.508346198151454265e-02 5.262718874805048103e-02
3.700000000000000000e+02 2.979289885244330860e-02 1.521297279690531426e-02 4.771643521621579676e-02
3.800000000000000000e+02 3.222885859046890900e-02 1.607514034482684581e-02 5.420224899593165113e-02
3.900000000000000000e+02 3.722641841991487094e-02 1.884326248140682017e-02 6.331089325197551687e-02
4.000000000000000000e+02 3.636544501795162948e-02 1.838341143799613470e-02 6.018371832241841551e-02
4.100000000000000000e+02 3.530803203717135935e-02 1.683256667570419765e-02 5.758114459348625397e-02
4.200000000000000000e+02 4.225850166129400953e-02 2.214981225230143111e-02 6.633265848865722847e-02
4.300000000000000000e+02 4.021007041273828159e-02 1.912060226497109064e-02 6.421397945736095902e-02
4.400000000000000000e+02 3.624891377307411233e-02 1.822428076839489527e-02 5.834775520206049448e-02
4.500000000000000000e+02 3.252071422880863788e-02 1.587011452065282061e-02 5.285091767369514554e-02
4.600000000000000000e+02 2.997676113291996430e-02 1.533917229071171499e-02 4.830950002407154165e-02
4.700000000000000000e+02 3.240920593596932631e-02 1.615285112172598625e-02 5.157389942705249003e-02
4.800000000000000000e+02 4.542943481823938368e-02 2.597677656547521877e-02 6.636381246654640687e-02
4.900000000000000000e+02 3.191629392412732164e-02 1.688245674053098777e-02 4.945624825876347719e-02
5.000000000000000000e+02 2.605506215342659818e-02 1.284859868162079033e-02 4.193572245077478028e-02
5.100000000000000000e+02 2.564405099814272976e-02 1.282849083550190172e-02 4.093561302803855328e-02
5.200000000000000000e+02 2.602023070344063743e-02 1.357691812476685515e-02 4.231082963612807502e-02
5.300000000000000000e+02 3.137219425747263951e-02 1.554769489894111158e-02 5.057448843367310515e-02
5.400000000000000000e+02 3.563806400784271661e-02 1.827066569172751051e-02 5.737191375342537425e-02
5.500000000000000000e+02 3.135078735182408871e-02 1.543010741588235826e-02 5.153417957537209659e-02
5.600000000000000000e+02 3.314012096062306234e-02 1.626086243311450352e-02 5.425118273888550335e-02
5.700000000000000000e+02 3.313862102371788187e-02 1.712550936814163927e-02 5.522015665189740352e-02
5.800000000000000000e+02 3.101729898224865264e-02 1.558130750834461030e-02 5.138172967814894770e-02
5.900000000000000000e+02 2.932511069619863145e-02 1.458515347625661228e-02 4.753946582602022047e-02
6.000000000000000000e+02 3.410190957980522436e-02 1.677599199113067804e-02 5.358195349909135319e-02
6.100000000000000000e+02 2.819173274550753824e-02 1.408493186750696576e-02 4.620517054316652938e-02
6.200000000000000000e+02 4.288452634675678915e-02 2.144023630403184624e-02 7.455299686676626625e-02
6.300000000000000000e+02 1.498817246920239876e-01 7.396565449972181128e-02 2.557710633197756711e-01
6.400000000000000000e+02 1.529666108493782095e-01 7.506260704122781624e-02 2.514431850484829534e-01
6.500000000000000000e+02 9.373237188046976143e-02 4.751145359579762167e-02 1.517869189314842993e-01
6.600000000000000000e+02 1.068496405694662754e-01 5.139687742367066853e-02 1.687521246603360670e-01
6.700000000000000000e+02 8.500492482744072265e-02 4.328484336447909614e-02 1.383837484049490751e-01
6.800000000000000000e+02 7.478044587803113485e-02 3.643892203283174286e-02 1.193626592725763880e-01
6.900000000000000000e+02 6.526121870421709714e-02 3.319067600823541464e-02 1.062302908736395407e-01
7.000000000000000000e+02 4.906533453657090788e-02 2.428910469788726767e-02 7.951387685016986229e-02
7.100000000000000000e+02 4.253134761047809576e-02 2.053203826946896696e-02 7.004034986088542025e-02
7.200000000000000000e+02 5.842385299814826377e-02 2.902243708184104945e-02 9.693145829548240056e-02
7.300000000000000000e+02 4.620901705527517833e-02 2.271295111027000352e-02 7.805478474397353761e-02
7.400000000000000000e+02 2.432028907721396627e-02 1.164205041684594766e-02 3.940627428248911351e-02
7.500000000000000000e+02 2.415631246045607874e-02 1.198157030427750812e-02 3.954449274591000790e-02
7.600000000000000000e+02 2.647044801928967461e-02 1.339118592683535836e-02 4.471772433864160817e-02
7.700000000000000000e+02 3.297628878471189212e-02 1.648567215726184573e-02 5.349721247668457608e-02
7.800000000000000000e+02 4.598379228888162945e-02 2.369374294635829756e-02 7.694107587129350723e-02
7.900000000000000000e+02 8.497095378392123532e-02 4.296658318746057748e-02 1.417178141543333492e-01
8.000000000000000000e+02 1.657821398145259972e-01 8.415231526022333430e-02 2.628970063476464003e-01
8.100000000000000000e+02 1.812447802512325290e-01 8.755692050641709911e-02 2.869621809528517531e-01
8.200000000000000000e+02 1.251078648860426967e-01 6.432036519996281454e-02 2.008425868422110128e-01
8.300000000000000000e+02 1.349260950437126128e-01 6.556561226157213429e-02 2.118435586891879441e-01
8.400000000000000000e+02 3.587394753295539696e-01 2.290478526158548911e-01 4.774774663370065508e-01
8.500000000000000000e+02 3.580613167667119900e-01 2.118526311169371401e-01 5.235446355477786362e-01
8.600000000000000000e+02 2.006745386256789943e-01 1.029008971943061457e-01 3.164630723656349787e-01
8.700000000000000000e+02 1.432699178545449870e-01 7.010355062973129547e-02 2.281266174673871328e-01
8.800000000000000000e+02 8.296261389560809218e-02 4.186710514946175021e-02 1.332666201119073468e-01
8.900000000000000000e+02 5.432596886843438916e-02 2.732269934476984699e-02 9.203050543768999392e-02
9.000000000000000000e+02 6.130273144615103892e-02 2.989778987929554363e-02 9.827817420271643678e-02
9.100000000000000000e+02 7.037980978836559653e-02 3.695302491618945168e-02 1.168175666571647647e-01
9.200000000000000000e+02 5.971522789936223319e-02 3.062419116906662728e-02 9.733084360227675647e-02
9.300000000000000000e+02 4.373278959731317223e-02 2.122900695268931798e-02 7.072604471115570557e-02
9.400000000000000000e+02 3.740796708719934527e-02 1.884716040051800934e-02 6.058760095577206406e-02
9.500000000000000000e+02 3.480319130136843436e-02 1.708456430106497850e-02 5.629351904346380220e-02
9.600000000000000000e+02 4.330019858816182288e-02 2.060688450696510771e-02 6.771462064183651763e-02
9.700000000000000000e+02 4.792670063716796686e-02 2.258682382042986880e-02 7.893467222504819969e-02
9.800000000000000000e+02 5.246543818223991379e-02 2.624643334059609950e-02 8.537702327152560389e-02
9.900000000000000000e+02 5.689642689200693354e-02 2.834301778027204302e-02 9.387305878502673340e-02
1.000000000000000000e+03 8.433051086232487559e-02 4.232967489380851100e-02 1.370868779661926773e-01
1.100000000000000000e+03 7.361563338017673708e-02 3.622436542283129918e-02 1.215914540564926039e-01
1.200000000000000000e+03 5.358244306832413151e-02 2.688806960643387242e-02 8.810471610613206106e-02
1.300000000000000000e+03 4.130580660170173057e-02 2.038781741444948420e-02 6.739657390546927029e-02
1.400000000000000000e+03 3.182267724916078289e-02 1.594833060249204945e-02 5.267687103216280031e-02
1.500000000000000000e+03 3.510943375596375232e-02 1.734631410863164691e-02 5.785561761571777345e-02
1.600000000000000000e+03 3.450896309244153720e-02 1.718696160458950059e-02 5.655826015228833381e-02
1.700000000000000000e+03 2.475411858855902647e-02 1.251548725094515750e-02 4.090720853973654758e-02
1.800000000000000000e+03 2.272740504689907057e-02 1.109600856338843582e-02 3.747211237668274242e-02
1.900000000000000000e+03 2.244562154514535834e-02 1.140931480655700547e-02 3.751744770837258519e-02
2.000000000000000000e+03 2.262836709948896560e-02 1.119784908303820929e-02 3.768478406769256578e-02
2.100000000000000000e+03 2.269852684696128248e-02 1.113474903128888749e-02 3.787818070035278012e-02
2.200000000000000000e+03 2.245275565310241375e-02 1.111184879039538512e-02 3.749194149689109856e-02
2.300000000000000000e+03 2.210784003140871951e-02 1.111770169435667005e-02 3.737786669556709268e-02
2.400000000000000000e+03 2.206609551783407161e-02 1.104398976957720289e-02 3.720009463443403608e-02
2.500000000000000000e+03 2.235648254048481706e-02 1.092965672273314877e-02 3.776300428021100997e-02
2.600000000000000000e+03 2.266642662358648100e-02 1.147212804339572435e-02 3.777371223966789066e-02
2.700000000000000000e+03 2.267905372764124350e-02 1.128048052554863311e-02 3.784469512992907209e-02
2.800000000000000000e+03 2.284236986274023121e-02 1.150818615287887807e-02 3.846473558648823288e-02
2.900000000000000000e+03 2.315306368079417254e-02 1.157279177136453195e-02 3.903570802333967971e-02
3.000000000000000000e+03 2.362746329409938159e-02 1.169689163893648798e-02 3.918073523660920571e-02
3.100000000000000000e+03 2.435378774743399491e-02 1.214018953686189783e-02 4.020279093766068734e-02
3.200000000000000000e+03 2.538471156534927858e-02 1.259205401975689240e-02 4.228561091214090573e-02
3.300000000000000000e+03 2.958869107016712935e-02 1.471890984647172308e-02 4.873235823996478061e-02
3.400000000000000000e+03 2.880230458292391479e-02 1.442584028897131443e-02 4.726349784756836425e-02
3.500000000000000000e+03 2.635504533387438009e-02 1.318391021585498153e-02 4.378270924532067648e-02
3.600000000000000000e+03 3.428304726294346960e-02 1.747309793349103441e-02 5.552360573533308280e-02
3.700000000000000000e+03 4.395468241844909668e-02 2.450605520119844560e-02 6.534776736531140717e-02
3.800000000000000000e+03 3.290857639257001310e-02 1.656010628532943868e-02 5.427267303324809222e-02
3.900000000000000000e+03 2.742232877215821513e-02 1.360155163017814917e-02 4.512314191958421983e-02
4.000000000000000000e+03 2.724799164739016843e-02 1.356856480740187103e-02 4.545461441989374213e-02
4.100000000000000000e+03 2.818896920118224569e-02 1.395687954276092664e-02 4.600573131162586510e-02
4.200000000000000000e+03 2.887908154900595270e-02 1.456576441992664915e-02 4.786490089130691211e-02
4.300000000000000000e+03 3.032686045044976492e-02 1.485694794297510307e-02 4.992102571280359474e-02
4.400000000000000000e+03 3.150523753882655820e-02 1.533678155115649790e-02 5.207040788422943184e-02
4.500000000000000000e+03 3.133268140323771517e-02 1.570968701362556591e-02 5.209585257417510828e-02
4.600000000000000000e+03 3.140798048900193817e-02 1.575847327328310302e-02 5.232928469126877508e-02
4.700000000000000000e+03 3.378876218337360099e-02 1.656151535189664264e-02 5.654413211713538862e-02
4.800000000000000000e+03 5.258454261223977771e-02 2.458199997374212534e-02 9.336848003332585966e-02
4.900000000000000000e+03 9.014638981750788815e-02 5.251861071055339419e-02 1.236480131201286303e-01
5.000000000000000000e+03 7.287393327227593975e-02 3.438818672498476781e-02 1.143748749860563491e-01
5.100000000000000000e+03 4.080534838364523187e-02 1.949127283486629461e-02 7.108811283969541928e-02
5.200000000000000000e+03 3.623812744721702228e-02 1.792495261436418200e-02 5.952823406559372421e-02
5.300000000000000000e+03 3.668111425330791014e-02 1.809548694635519650e-02 6.030947919058733675e-02
5.400000000000000000e+03 3.746811618703231594e-02 1.827146846110784192e-02 6.254036606744092786e-02
5.500000000000000000e+03 3.894378017634268080e-02 1.925342891390458000e-02 6.429856660614562125e-02
5.600000000000000000e+03 3.998801851088244069e-02 2.001245324899582692e-02 6.593106371191601034e-02
5.700000000000000000e+03 4.104995735356950504e-02 2.057518025229213357e-02 6.777108523721038502e-02
5.800000000000000000e+03 4.324517883303926474e-02 2.164473197265302101e-02 7.006288490704933036e-02
5.900000000000000000e+03 4.440072494902457673e-02 2.199577601989387288e-02 7.295011209727737811e-02
6.000000000000000000e+03 4.566155432042540846e-02 2.291441376260192064e-02 7.631944350319269654e-02
6.100000000000000000e+03 4.803621747712466528e-02 2.413364909415842072e-02 7.932580064353114691e-02
6.200000000000000000e+03 4.966243172529570538e-02 2.464160410218911232e-02 8.216009054516465460e-02
6.300000000000000000e+03 5.137432560117972252e-02 2.532483546201861474e-02 8.451932102810214009e-02
6.400000000000000000e+03 5.289966526543708747e-02 2.659193493242218223e-02 8.830158566143309073e-02
6.500000000000000000e+03 5.463577422461107086e-02 2.729152117748737810e-02 9.228543912746289823e-02
6.600000000000000000e+03 5.822306536012832046e-02 2.865360789918862741e-02 9.768125733051874482e-02
6.700000000000000000e+03 6.058150796359313556e-02 2.981360156806040634e-02 1.034830212283325557e-01
6.800000000000000000e+03 6.318436009144805243e-02 3.120878972216002342e-02 1.097862914700477865e-01
6.900000000000000000e+03 6.742765435899621129e-02 3.264260645481495415e-02 1.159901367985227971e-01
7.000000000000000000e+03 7.122577660371562369e-02 3.458778901264897981e-02 1.243337228376859005e-01
7.100000000000000000e+03 7.690813049276333524e-02 3.778152973966251993e-02 1.345150873030470651e-01
7.200000000000000000e+03 8.937234758534805257e-02 4.342287577798630699e-02 1.595252930959207005e-01
7.300000000000000000e+03 1.144571805276158316e-01 5.412085525555957594e-02 1.928891249165128052e-01
7.400000000000000000e+03 1.266072362119982919e-01 6.333599235754905354e-02 2.097248129309482179e-01
7.500000000000000000e+03 1.171174115207164745e-01 5.651977699844529246e-02 2.094497526461884807e-01
7.600000000000000000e+03 1.090834020314473823e-01 5.245896037195677680e-02 2.027810028509876017e-01
7.700000000000000000e+03 1.107554915990871941e-01 5.418753430739288446e-02 2.071242010089023589e-01
7.800000000000000000e+03 1.205602626694659979e-01 5.810172237166275760e-02 2.260958600785463457e-01
7.900000000000000000e+03 1.291537423002426521e-01 6.185773041169711356e-02 2.447979453788493021e-01
8.000000000000000000e+03 1.408554099095395418e-01 6.719777968759857445e-02 2.675790650023222583e-01
8.100000000000000000e+03 1.535104949979212707e-01 7.233564695092919994e-02 2.907964548511838832e-01
8.200000000000000000e+03 1.674469846864989619e-01 7.925261270592612317e-02 3.227060670441027068e-01
8.300000000000000000e+03 1.830707734195345382e-01 8.780659356315817510e-02 3.517530907329222689e-01
8.400000000000000000e+03 2.152311305764880445e-01 1.021639378651091612e-01 4.176238932195291964e-01
8.500000000000000000e+03 2.793042608150970163e-01 1.313461511370621060e-01 5.044265982804815307e-01
8.600000000000000000e+03 3.285516692007413586e-01 1.574103740063081402e-01 5.603133479703806819e-01
8.700000000000000000e+03 3.154627550451875595e-01 1.500419414878567115e-01 5.838560558627029495e-01
8.800000000000000000e+03 2.870305083504480770e-01 1.319680920115949840e-01 5.649376554160875363e-01
8.900000000000000000e+03 2.788474136230146283e-01 1.303313108624045980e-01 5.779371645619076903e-01
9.000000000000000000e+03 2.885480466031648539e-01 1.337141204007346318e-01 6.089333747057722457e-01
9.100000000000000000e+03 3.050138638112140921e-01 1.429815299560585617e-01 6.831058155686413613e-01
9.200000000000000000e+03 3.213988238129584785e-01 1.465662643895146444e-01 8.112943772061431691e-01
9.300000000000000000e+03 3.369834373114048987e-01 1.500906835802707784e-01 9.345975021744477029e-01
9.400000000000000000e+03 3.545895118260372070e-01 1.553340852338705724e-01 1.262790256386264742e+00
9.500000000000000000e+03 3.598197274697855774e-01 1.563897078184996736e-01 1.594865442564070257e+00
9.600000000000000000e+03 3.800386074228919719e-01 1.588662749626360837e-01 1.908413541973417837e+00
9.700000000000000000e+03 3.787157848558201367e-01 1.555934806300583728e-01 1.831530464977578987e+00
9.800000000000000000e+03 3.739012967451220137e-01 1.586766626999334684e-01 1.701418891120371590e+00
9.900000000000000000e+03 3.608985026117422223e-01 1.570031923438972576e-01 1.549082360257130420e+00
1.000000000000000000e+04 3.385714128229668773e-01 1.440067910223616909e-01 1.270491035129115875e+00
1.010000000000000000e+04 3.108155371799898314e-01 1.332206184398791182e-01 8.934082899024139435e-01
1.020000000000000000e+04 2.832349223989790721e-01 1.207732690794983132e-01 6.952562516473065335e-01
1.030000000000000000e+04 2.633138231057865486e-01 1.147663421881451318e-01 5.753861643356394939e-01
1.040000000000000000e+04 2.475169727699677857e-01 1.076616451709489219e-01 5.073934426957658061e-01
1.050000000000000000e+04 2.344429837994729260e-01 1.042148378286545107e-01 4.720087820649584431e-01
1.060000000000000000e+04 2.191974349167941649e-01 9.895375412174138574e-02 4.376665495873020006e-01
1.070000000000000000e+04 2.128736924906524108e-01 9.566366576333959482e-02 4.169320520454279366e-01
1.080000000000000000e+04 2.142265168555743671e-01 9.622651923454111911e-02 4.174025201749615444e-01
1.090000000000000000e+04 2.411163803773778980e-01 1.057906950820691333e-01 4.566825672229929967e-01
1.100000000000000000e+04 2.856560989427588959e-01 1.242229212703182123e-01 4.951267823324542738e-01
1.110000000000000000e+04 2.902568371917612633e-01 1.228283939118703511e-01 4.951431792486579164e-01
1.120000000000000000e+04 2.396950071520925207e-01 1.019395804096815128e-01 4.561137857836954912e-01
1.130000000000000000e+04 1.860227014879300145e-01 8.438734438535619442e-02 3.719910692268436070e-01
1.140000000000000000e+04 1.552545268180739457e-01 7.209606148783449797e-02 2.920518263977293083e-01
1.150000000000000000e+04 1.406591909987918720e-01 6.834088756652208219e-02 2.524132626780501987e-01
1.160000000000000000e+04 1.333635228537053130e-01 6.556469945944351507e-02 2.323445871888913383e-01
1.170000000000000000e+04 1.277406434656771506e-01 6.162241129235200565e-02 2.193481082932913218e-01
1.180000000000000000e+04 1.220244108566490848e-01 6.029840518938384131e-02 2.098991689428305329e-01
1.190000000000000000e+04 1.180980333079570260e-01 5.858557589019858236e-02 1.986432859639212789e-01
1.200000000000000000e+04 1.150751209971615646e-01 5.716481631528644303e-02 1.924159503185847164e-01
1.210000000000000000e+04 1.118175903054203224e-01 5.534272395742039635e-02 1.867150199407195399e-01
1.220000000000000000e+04 1.107835938627023120e-01 5.462283479733038433e-02 1.832098387510407989e-01
1.230000000000000000e+04 1.094033293038683269e-01 5.462494726928002198e-02 1.822322293758867340e-01
1.240000000000000000e+04 1.052867299076717666e-01 5.163737419089873409e-02 1.750180765072693601e-01
1.250000000000000000e+04 1.020709752839397688e-01 5.210859336408773385e-02 1.686938515995441978e-01
1.260000000000000000e+04 1.017130878524896281e-01 5.019178478152817174e-02 1.677915036251271530e-01
1.270000000000000000e+04 9.887352334867992310e-02 4.876520802730654330e-02 1.650618147711671313e-01
1.280000000000000000e+04 9.764375460380311789e-02 4.777053935513483895e-02 1.622406599156897555e-01
1.290000000000000000e+04 9.787638670986971434e-02 4.926195499703187042e-02 1.615502114753319396e-01
1.300000000000000000e+04 9.650955173111308572e-02 4.815040183420479097e-02 1.625261669473011816e-01
1.310000000000000000e+04 9.540755180688562098e-02 4.822718083093295582e-02 1.607272457511466635e-01
1.320000000000000000e+04 9.571062726576674839e-02 4.792641369654275507e-02 1.612039618837395327e-01
1.330000000000000000e+04 9.721261706916183021e-02 4.736580652023837656e-02 1.628383923976192971e-01
1.340000000000000000e+04 1.002371439841413525e-01 4.940638869116471127e-02 1.682851266106602517e-01
1.350000000000000000e+04 1.015641460036523225e-01 4.978554300181167735e-02 1.719866347923713623e-01
1.360000000000000000e+04 1.016850973164488831e-01 5.004910111691970864e-02 1.739449403844477438e-01
1.370000000000000000e+04 1.022999523549319445e-01 4.953151564699271453e-02 1.729772755020526909e-01
1.380000000000000000e+04 1.001996691941716283e-01 4.886977586797514733e-02 1.728063428180929006e-01
1.390000000000000000e+04 9.911569411158943632e-02 4.917700067342376663e-02 1.716527064073505859e-01
1.400000000000000000e+04 9.960485386253736806e-02 4.915376208459689561e-02 1.752124543283850588e-01
1.410000000000000000e+04 1.004679260692725173e-01 4.988479125137167819e-02 1.760288171117015410e-01
1.420000000000000000e+04 1.022746378970987718e-01 4.990651647525449347e-02 1.790928784106273208e-01
1.430000000000000000e+04 1.039655060827129884e-01 5.078649664428425137e-02 1.831191611853233148e-01
1.440000000000000000e+04 1.060523376341817037e-01 5.210544134920813697e-02 1.892127620978426572e-01
1.450000000000000000e+04 1.094895726965502553e-01 5.282503369143475708e-02 1.931559319971328237e-01
1.460000000000000000e+04 1.116692789725994145e-01 5.437736156301418294e-02 2.020913149137665010e-01
1.470000000000000000e+04 1.142791112372173318e-01 5.617091291958806881e-02 2.064717755447073866e-01
1.480000000000000000e+04 1.154391369856234140e-01 5.572985831528915607e-02 2.114669068038620980e-01
1.490000000000000000e+04 1.167826359735408132e-01 5.662721330448344803e-02 2.194768550011909625e-01
1.500000000000000000e+04 1.202260170518718863e-01 5.754456056829169996e-02 2.273767779824104329e-01
1.510000000000000000e+04 1.202858354898912047e-01 5.799615751679833286e-02 2.320649684605655960e-01
1.520000000000000000e+04 1.225422778098724796e-01 5.877619734065349377e-02 2.394666092980363981e-01
1.530000000000000000e+04 1.239279664959857807e-01 5.866279828169868732e-02 2.468880881510987779e-01
1.540000000000000000e+04 1.250345581904101222e-01 5.984009546097305426e-02 2.519592489028578686e-01
1.550000000000000000e+04 1.265115817769052187e-01 5.876985978531933802e-02 2.599052556066174247e-01
1.560000000000000000e+04 1.293241365574455959e-01 6.124886370723718609e-02 2.719801213696668718e-01
1.570000000000000000e+04 1.363236672246511960e-01 6.592607770201276696e-02 2.904098849747185906e-01
1.580000000000000000e+04 1.377716389960829402e-01 6.514160622278594714e-02 3.087903985847945676e-01
1.590000000000000000e+04 1.402374696519445296e-01 6.516505881676315504e-02 3.189281526166617420e-01
1.600000000000000000e+04 1.421524726209430212e-01 6.632390545135968818e-02 3.294696499564307990e-01
1.610000000000000000e+04 1.451875859794245771e-01 6.719440877851422245e-02 3.499359862795911602e-01
1.620000000000000000e+04 1.479025414233406666e-01 6.663344876924083560e-02 3.572631946168828843e-01
1.630000000000000000e+04 1.489831440591923573e-01 6.845619671948106888e-02 3.752288604284497175e-01
1.640000000000000000e+04 1.562398011168261991e-01 7.110852672156151022e-02 3.889916038093191308e-01
1.650000000000000000e+04 1.611352712029319734e-01 7.291769362606988214e-02 4.083470180920645842e-01
1.660000000000000000e+04 1.645569277195356728e-01 7.293634550077039702e-02 4.259897748591610078e-01
1.670000000000000000e+04 1.719961198221561238e-01 7.604685779358193176e-02 4.388587526346169332e-01
1.680000000000000000e+04 1.760601559931553040e-01 7.806981804694697324e-02 4.456352367206597442e-01
1.690000000000000000e+04 1.814984207556563645e-01 7.809944852492256562e-02 4.563366176193432988e-01
1.700000000000000000e+04 1.857523808419959122e-01 7.872653659854290942e-02 4.659309421099391280e-01
1.710000000000000000e+04 1.918842108108024525e-01 8.271313047599093693e-02 4.763553092464558048e-01
1.720000000000000000e+04 1.986110990637195706e-01 8.390244398878510257e-02 4.936861294058124128e-01
1.730000000000000000e+04 2.086427885721415243e-01 8.770467353499296348e-02 5.098580766318814295e-01
1.740000000000000000e+04 2.149618845560070102e-01 9.150050540021953394e-02 5.207579809291436046e-01
1.750000000000000000e+04 2.246174890433292048e-01 9.507775872584059429e-02 5.482524699761824882e-01
1.760000000000000000e+04 2.325171362599294800e-01 9.638892671498323905e-02 5.566447511520046243e-01
1.770000000000000000e+04 2.359424689186929713e-01 9.771363912574843047e-02 5.674355918105499219e-01
1.780000000000000000e+04 2.463637320019730348e-01 1.024136705872123743e-01 5.686972884448531218e-01
1.790000000000000000e+04 2.514511783724329708e-01 1.051859717860526289e-01 5.727473836083935010e-01
1.800000000000000000e+04 2.563597062101878876e-01 1.075324371520532812e-01 5.874406784141681381e-01
1.810000000000000000e+04 2.613051956188661706e-01 1.112833953878888948e-01 5.964852923489873948e-01
1.820000000000000000e+04 2.671031387260927037e-01 1.121206791987175710e-01 6.135481484280704834e-01
1.830000000000000000e+04 2.725609089412295849e-01 1.154074442222023655e-01 6.158231893114116673e-01
1.840000000000000000e+04 2.807407435003737017e-01 1.196412006058118205e-01 6.363311256592982801e-01
1.850000000000000000e+04 2.836915379040118590e-01 1.231330226275734879e-01 6.421740915996363430e-01
1.860000000000000000e+04 2.859413650757325898e-01 1.233244324409577264e-01 6.512556709899405272e-01
1.870000000000000000e+04 2.921250714893257050e-01 1.249685534921697594e-01 6.478334609756718487e-01
1.880000000000000000e+04 2.925938543386812918e-01 1.240784370221706262e-01 6.508750137824955706e-01
1.890000000000000000e+04 2.939615198270726371e-01 1.259429859930429052e-01 6.714143668378507179e-01
1.900000000000000000e+04 2.980265159932565799e-01 1.272918042251867665e-01 6.734378298944964092e-01
1.910000000000000000e+04 2.954687617225207896e-01 1.234509549375248927e-01 7.041858889687232503e-01
1.920000000000000000e+04 2.887263143574118063e-01 1.237741607727158855e-01 6.906540859562696477e-01
1.930000000000000000e+04 2.882756674415792308e-01 1.216700832070709282e-01 6.823077616115407196e-01
1.940000000000000000e+04 2.810203750628538777e-01 1.176505157128322210e-01 6.707380750733038521e-01
1.950000000000000000e+04 2.725000191327666688e-01 1.183135270082379259e-01 6.666057881866531698e-01
1.960000000000000000e+04 2.623570534316687075e-01 1.109989906583961627e-01 6.371661285301880584e-01
1.970000000000000000e+04 2.551254660593829660e-01 1.105686212376479627e-01 6.257128006708541079e-01
1.980000000000000000e+04 2.439186939013170408e-01 1.055503678385505545e-01 6.028241279833187471e-01
1.990000000000000000e+04 2.327609752962698786e-01 9.977319294651390558e-02 5.766126213678844925e-01
2.000000000000000000e+04 2.200847941800242735e-01 9.528110394881217360e-02 5.404433327151243471e-01
2.010000000000000000e+04 2.081251804082941137e-01 9.345856418397276155e-02 5.144753637233493437e-01
2.020000000000000000e+04 1.994246934044114627e-01 8.788064225452549283e-02 4.817007906435004649e-01
2.030000000000000000e+04 1.904402068523662617e-01 8.442709848509025172e-02 4.402962153665140876e-01
2.040000000000000000e+04 2.126837292039500116e-01 1.002504511230139644e-01 4.381958769240037466e-01
2.050000000000000000e+04 9.363793977514880407e-01 7.870024405386246702e-01 1.111372623650239699e+00
2.060000000000000000e+04 1.185367842433552310e+00 1.037308880135648037e+00 1.342303793243939225e+00
2.070000000000000000e+04 3.769539204080274430e-01 2.541122166137718685e-01 5.387653074613765192e-01
2.080000000000000000e+04 1.540456187628269913e-01 7.294546173649149590e-02 3.181033295524071658e-01
2.090000000000000000e+04 1.454436182258539711e-01 6.823971140695275772e-02 2.963295503581523382e-01
2.100000000000000000e+04 1.396593609143774728e-01 6.541513219800344781e-02 2.796074557651171411e-01
2.110000000000000000e+04 1.363786984193456342e-01 6.463906750664633050e-02 2.661280098190185739e-01
2.120000000000000000e+04 1.352809617548063059e-01 6.376911177968212774e-02 2.588475240464304661e-01
2.130000000000000000e+04 1.406963491834413160e-01 6.835702699536472249e-02 2.628423679818560621e-01
2.140000000000000000e+04 1.602912036855122513e-01 7.562583280830692534e-02 2.980591652034297878e-01
2.150000000000000000e+04 1.580709492867275467e-01 7.702947220324482536e-02 2.984180277443065910e-01
2.160000000000000000e+04 1.270336355413403950e-01 6.070490570737911012e-02 2.295389422053119577e-01
2.170000000000000000e+04 1.169928177427938809e-01 5.494937437660218915e-02 2.083941769761819274e-01
2.180000000000000000e+04 1.149130008144146620e-01 5.543431082665864484e-02 2.047999857065969098e-01
2.190000000000000000e+04 1.152417681750915746e-01 5.586970312111311232e-02 2.024040524275333430e-01
2.200000000000000000e+04 1.140872715441516444e-01 5.559416023852151861e-02 2.007447688937005481e-01
2.210000000000000000e+04 1.142932541523511147e-01 5.584518489703509114e-02 2.011872030812454915e-01
2.220000000000000000e+04 1.143122212423335199e-01 5.665575782014190681e-02 2.002129182846437705e-01
2.230000000000000000e+04 1.145286013725650698e-01 5.702925531851404939e-02 1.996899188060231867e-01
2.240000000000000000e+04 1.139222489931912274e-01 5.666578983136082159e-02 1.953935539629061413e-01
2.250000000000000000e+04 1.142735918280166491e-01 5.701345903811061433e-02 2.002616737267889357e-01
2.260000000000000000e+04 1.167286903691770739e-01 5.642847055785338295e-02 2.013543269223717624e-01
2.270000000000000000e+04 1.172240251867809335e-01 5.705003501788074444e-02 2.030940090883940063e-01
2.280000000000000000e+04 1.154248871241289193e-01 5.607025670925500777e-02 2.007164299719751133e-01
2.290000000000000000e+04 1.155822512323036316e-01 5.687437759369671358e-02 2.021048601111651855e-01
2.300000000000000000e+04 1.161047738087903486e-01 5.802424215893201009e-02 2.031246098474527306e-01
2.310000000000000000e+04 1.192992938287426169e-01 5.872475190473252366e-02 2.058552615591218993e-01
2.320000000000000000e+04 1.194856017066776438e-01 5.856142811548356586e-02 2.079656047518617379e-01
2.330000000000000000e+04 1.218632298737546832e-01 5.750196949669282576e-02 2.120001868020778835e-01
2.340000000000000000e+04 1.200044101407770070e-01 5.939106219164939915e-02 2.111721117726669539e-01
2.350000000000000000e+04 1.212802431927355179e-01 5.918433473433046960e-02 2.119496303770111167e-01
2.360000000000000000e+04 1.224770855431548400e-01 5.957697230512674913e-02 2.133128173920644521e-01
2.370000000000000000e+04 1.239202096472183934e-01 5.992286083961145815e-02 2.168053184348355256e-01
2.380000000000000000e+04 1.252803735284147291e-01 6.150326624942004106e-02 2.188540370231669419e-01
2.390000000000000000e+04 1.250516824296816765e-01 6.157931908302767543e-02 2.184709503774814876e-01
2.400000000000000000e+04 1.227491202813553728e-01 5.945020258820375714e-02 2.185516644110812035e-01
2.410000000000000000e+04 1.228730422407136452e-01 6.069306561565489949e-02 2.165212810386858144e-01
2.420000000000000000e+04 1.248989122171264010e-01 6.041935322398084979e-02 2.166484972675047360e-01
2.430000000000000000e+04 1.226176324953759250e-01 5.954755080290739105e-02 2.169605767192109014e-01
2.440000000000000000e+04 1.218258630118363300e-01 5.945059266348922539e-02 2.160748399390244601e-01
2.450000000000000000e+04 1.212249686484190847e-01 5.878489608780462089e-02 2.129982954206838808e-01
2.460000000000000000e+04 1.212965645853142233e-01 5.944425031012865596e-02 2.128004290318478708e-01
2.470000000000000000e+04 1.214363918576320117e-01 5.929402822870492168e-02 2.138771544857956397e-01
2.480000000000000000e+04 1.196787161080236084e-01 5.845923964995303201e-02 2.120240604412410856e-01
2.490000000000000000e+04 1.202456133411529127e-01 5.826066409336209256e-02 2.119729903128296788e-01
2.500000000000000000e+04 1.192873180315217191e-01 5.811095280022905013e-02 2.109799927934723207e-01
2.510000000000000000e+04 1.180069986531760429e-01 5.751520159421880107e-02 2.091458321071567594e-01
2.520000000000000000e+04 1.192242939076564590e-01 5.799213091147075588e-02 2.053997727816964658e-01
2.530000000000000000e+04 1.183993080039106027e-01 5.799182265149355892e-02 2.083768282210740619e-01
2.540000000000000000e+04 1.192167782146639488e-01 5.858364730879854487e-02 2.080130217758345001e-01
2.550000000000000000e+04 1.192059710268762729e-01 5.879163137540927703e-02 2.082461842963765075e-01
2.560000000000000000e+04 1.189293478310011337e-01 5.858031195519131096e-02 2.070460619766296140e-01
2.570000000000000000e+04 1.187893556096877440e-01 5.862347184112803172e-02 2.091714435680043505e-01
2.580000000000000000e+04 1.189725673754949975e-01 5.717991813094794318e-02 2.083243253398486816e-01
2.590000000000000000e+04 1.194903182957656185e-01 5.835593918060266727e-02 2.089827431129599733e-01
2.600000000000000000e+04 1.211285795719819619e-01 5.841769465610204687e-02 2.115704187370340827e-01
2.610000000000000000e+04 1.226233805837198959e-01 6.049308782822981206e-02 2.170020477198336128e-01
2.620000000000000000e+04 1.260707681692102566e-01 6.136742739549156528e-02 2.224747955348241601e-01
2.630000000000000000e+04 1.260094175968114183e-01 6.076903557827374736e-02 2.261582262930618425e-01
2.640000000000000000e+04 1.285382829780838398e-01 6.245020098135368319e-02 2.321297095004513367e-01
2.650000000000000000e+04 1.324317757516434990e-01 6.412691210901584615e-02 2.384514232578387460e-01
2.660000000000000000e+04 1.354225038053588348e-01 6.551566629141732101e-02 2.449378273825467689e-01
2.670000000000000000e+04 1.374832942443971195e-01 6.575442839196199429e-02 2.533426740162332269e-01
2.680000000000000000e+04 1.404073801191118853e-01 6.714454496743205159e-02 2.617213244252862281e-01
2.690000000000000000e+04 1.456482140048543095e-01 6.965271460021361938e-02 2.709367728913780193e-01
2.700000000000000000e+04 1.510818186421145071e-01 7.311051963316032853e-02 2.802675912823343607e-01
2.710000000000000000e+04 1.534996015284296189e-01 7.462064586308758685e-02 2.877784280169999875e-01
2.720000000000000000e+04 1.585211520552703424e-01 7.573413975704822165e-02 3.017398475040536376e-01
2.730000000000000000e+04 1.634328035108841559e-01 7.777657801105671009e-02 3.175686868716832700e-01
2.740000000000000000e+04 1.664945237777629428e-01 7.915902511845054890e-02 3.314045376593488523e-01
2.750000000000000000e+04 1.750649474179613307e-01 8.028844272951768390e-02 3.527104128624551915e-01
2.760000000000000000e+04 1.789736491257955253e-01 8.307911344113515228e-02 3.587227701049323647e-01
2.770000000000000000e+04 1.881449733270241231e-01 8.491741672659017248e-02 3.752723494106260382e-01
2.780000000000000000e+04 3.126062629362078016e-01 1.756553132921954974e-01 5.043459676439515649e-01
2.790000000000000000e+04 1.392797311307622188e+00 1.219601468187284876e+00 1.571619615709543005e+00
2.800000000000000000e+04 1.480916954997939738e+00 1.306889640166238209e+00 1.668171617179373012e+00
2.810000000000000000e+04 3.868022973973937462e-01 2.373945247184520435e-01 5.973547906123644058e-01
2.820000000000000000e+04 2.121873831204745542e-01 9.470166993423015378e-02 4.473615974009759744e-01
2.830000000000000000e+04 2.115735016993230411e-01 9.197877353451452964e-02 4.495285238843999553e-01
2.840000000000000000e+04 2.157974312488410151e-01 9.325296118761591813e-02 4.721304131152260219e-01
2.850000000000000000e+04 2.203334752305934063e-01 9.360555143110595167e-02 4.901682755630382138e-01
2.860000000000000000e+04 2.213622719033859765e-01 9.128073550821459714e-02 4.977121604609620054e-01
2.870000000000000000e+04 2.237215575202959050e-01 9.294516600473014256e-02 5.154556777190054673e-01
2.880000000000000000e+04 2.299111835481519595e-01 9.612501458250538589e-02 5.136423082022210096e-01
2.890000000000000000e+04 2.278940877831521494e-01 9.516147439308067502e-02 5.173893495443296908e-01
2.900000000000000000e+04 2.251468149142809017e-01 9.198363476824945872e-02 5.322955264895993244e-01
2.910000000000000000e+04 2.295807132249494398e-01 9.268406173766628731e-02 5.334257121575871619e-01
2.920000000000000000e+04 2.253014655494595120e-01 9.068321435837417566e-02 5.342807627955297178e-01
2.930000000000000000e+04 2.242880275495539033e-01 9.078883979899050882e-02 5.371684279076660573e-01
2.940000000000000000e+04 2.232870603303856449e-01 8.970326286360849610e-02 5.351081123521643779e-01
2.950000000000000000e+04 2.195829300081268698e-01 8.635438252387032942e-02 5.383084407458820220e-01
2.960000000000000000e+04 2.139916906273909014e-01 8.581560318057607217e-02 5.359252270463625845e-01
2.970000000000000000e+04 2.101082035530718595e-01 8.356900373402975646e-02 5.290455467146812918e-01
2.980000000000000000e+04 2.056573405253080411e-01 8.427611300712870013e-02 5.181259051199645915e-01
2.990000000000000000e+04 2.054188225505648446e-01 8.540755921495760128e-02 5.121831944781618517e-01
3.000000000000000000e+04 1.998649373271746965e-01 8.256688179753564338e-02 4.953683374551671736e-01
3.010000000000000000e+04 1.933194949783329786e-01 7.997046329112732221e-02 4.841123660284759045e-01
3.020000000000000000e+04 1.886812087827517137e-01 8.118830359932403817e-02 4.713494539019083551e-01
3.030000000000000000e+04 1.821158304075140844e-01 7.840541152098326472e-02 4.546279592828139093e-01
3.040000000000000000e+04 1.846567032353012838e-01 8.072204599550183990e-02 4.346563644967431639e-01
3.050000000000000000e+04 1.927656310405126694e-01 8.847629417782616745e-02 4.228971033892491849e-01
3.060000000000000000e+04 1.781730944505285907e-01 8.046127178071978137e-02 3.996006237766149272e-01
3.070000000000000000e+04 1.842707888133950367e-01 8.616753067334098626e-02 3.934624898269911131e-01
3.080000000000000000e+04 1.682635537891863931e-01 7.673284724723716810e-02 3.686170664267430230e-01
3.090000000000000000e+04 1.709836441679616348e-01 7.923083248007373180e-02 3.590572349544448039e-01
3.100000000000000000e+04 2.065363812992875026e-01 1.059755676593612528e-01 3.765136636382400703e-01
3.110000000000000000e+04 1.725953541892823462e-01 8.317779463736509060e-02 3.350996852472624687e-01
3.120000000000000000e+04 1.478536371247765324e-01 6.987020632900073358e-02 2.988101695218532416e-01
3.130000000000000000e+04 1.455511554019191522e-01 6.974414056367876646e-02 2.884181508289689333e-01
3.140000000000000000e+04 1.441912192584152153e-01 6.817280246493377660e-02 2.791804658985312382e-01
3.150000000000000000e+04 1.409162604740544777e-01 6.689328802469442226e-02 2.699798724586530696e-01
3.160000000000000000e+04 1.382528380514242150e-01 6.623773770422794471e-02 2.612077088805438985e-01
3.170000000000000000e+04 1.367835935718142160e-01 6.580376622779969542e-02 2.553458351252395064e-01
3.180000000000000000e+04 1.349939114501142456e-01 6.579639971810156973e-02 2.477598286301480601e-01
3.190000000000000000e+04 1.323021860433172825e-01 6.532047035795313095e-02 2.476085090576749248e-01
3.200000000000000000e+04 1.309313939794622406e-01 6.238860631148023667e-02 2.432641927732746567e-01
3.210000000000000000e+04 1.294003505951021871e-01 6.309846939694561951e-02 2.356335409496668476e-01
3.220000000000000000e+04 1.253649086534511792e-01 6.043878678170032381e-02 2.293932539262231451e-01
3.230000000000000000e+04 1.247486049930768420e-01 5.968107710629484003e-02 2.261257828856865770e-01
3.240000000000000000e+04 1.230070062266635095e-01 6.016296007495099823e-02 2.269648857318090629e-01
3.250000000000000000e+04 1.211640063454392929e-01 5.942203945912071655e-02 2.222909865219437064e-01
3.260000000000000000e+04 1.211870402071750230e-01 5.892683356705167436e-02 2.205311456096273326e-01
3.270000000000000000e+04 1.183292710618832067e-01 5.718715728538880522e-02 2.186630015275841665e-01
3.280000000000000000e+04 1.173318793461849557e-01 5.642558193961991209e-02 2.163235593889516195e-01
3.290000000000000000e+04 1.169471487129884607e-01 5.646857921981562195e-02 2.153297916980991267e-01
3.300000000000000000e+04 1.191253533889443106e-01 5.689363901661382422e-02 2.181397050429572937e-01
3.310000000000000000e+04 1.332543382237737217e-01 6.576368376330984922e-02 2.371807510002262587e-01
3.320000000000000000e+04 1.248354184464783023e-01 6.054369501155471706e-02 2.287826073502160495e-01
3.330000000000000000e+04 1.147925472891905690e-01 5.370655946522839147e-02 2.188316011757768242e-01
3.340000000000000000e+04 1.147023648555685338e-01 5.454421233374951578e-02 2.209502365684231640e-01
3.350000000000000000e+04 1.125614243383108448e-01 5.445414340057033037e-02 2.208167133925900416e-01
3.360000000000000000e+04 1.130971111963736120e-01 5.414023247220142027e-02 2.222420371115314541e-01
3.370000000000000000e+04 1.129233174414154967e-01 5.323508209278204895e-02 2.244303824659192037e-01
3.380000000000000000e+04 1.134001300105613314e-01 5.328748568916395756e-02 2.272699126016218540e-01
3.390000000000000000e+04 1.132227974243384394e-01 5.241793209259154596e-02 2.300666464575341907e-01
3.400000000000000000e+04 1.135928219486181667e-01 5.324196232980570043e-02 2.329498166758242617e-01
3.410000000000000000e+04 1.125420703518321408e-01 5.288084632148420949e-02 2.382750639928083725e-01
3.420000000000000000e+04 1.147486646738217902e-01 5.337316454158231444e-02 2.480593486883959364e-01
3.430000000000000000e+04 1.166267079416101610e-01 5.500568765478735384e-02 2.492893019118650189e-01
3.440000000000000000e+04 1.170674244932557173e-01 5.443912157585921452e-02 2.538562789489935412e-01
3.450000000000000000e+04 1.187766400126166189e-01 5.360632570460951291e-02 2.536743093333875820e-01
3.460000000000000000e+04 1.165284236920512695e-01 5.437921298117840557e-02 2.618083806495082877e-01
3.470000000000000000e+04 1.188026772012804461e-01 5.562223887598988226e-02 2.646259212243803893e-01
3.480000000000000000e+04 1.206812110741037197e-01 5.509884525986816911e-02 2.705674963658119547e-01
3.490000000000000000e+04 1.216642526040333516e-01 5.517258710482536577e-02 2.715208049301314763e-01
3.500000000000000000e+04 1.236879857574158942e-01 5.513218026213978495e-02 2.853229276855876462e-01
3.510000000000000000e+04 1.262934731818460832e-01 5.725036473509800827e-02 2.946515875141328400e-01
3.520000000000000000e+04 1.285509247828190704e-01 5.789622488235033476e-02 2.963397821352057870e-01
3.530000000000000000e+04 1.301477584844804303e-01 5.857015108796174985e-02 2.999226058756753188e-01
3.540000000000000000e+04 1.318647658198651706e-01 5.979234582153396260e-02 3.068708767321519648e-01
3.550000000000000000e+04 1.328924817687599236e-01 5.844912685791172485e-02 3.109200960163975291e-01
3.560000000000000000e+04 1.333362588135963700e-01 5.982679135342456461e-02 3.097751878936587100e-01
3.570000000000000000e+04 1.353431422243195070e-01 5.955819521545084594e-02 3.167451387489499393e-01
3.580000000000000000e+04 1.395581527053918192e-01 6.111966401122007064e-02 3.208211501348754435e-01
3.590000000000000000e+04 1.421510825128126654e-01 6.181921834532700527e-02 3.273572002200714204e-01
3.600000000000000000e+04 1.424151370725097732e-01 6.170498100964943999e-02 3.345868596779829618e-01
3.610000000000000000e+04 1.461554508731406354e-01 6.258561403799615952e-02 3.317347986163050044e-01
3.620000000000000000e+04 1.473516034124497942e-01 6.378897287247894954e-02 3.361658839990462333e-01
3.630000000000000000e+04 1.493210778685871987e-01 6.419267017016966337e-02 3.367164128099144893e-01
3.640000000000000000e+04 1.484395711144124996e-01 6.440617083886689131e-02 3.334023743027777487e-01
3.650000000000000000e+04 1.516158914950504755e-01 6.468698889080946868e-02 3.451223747711208434e-01
3.660000000000000000e+04 1.599145819014197167e-01 6.920588987758008459e-02 3.622012455411502962e-01
3.670000000000000000e+04 1.641690591064864924e-01 7.163570622121784304e-02 3.744992581570417145e-01
3.680000000000000000e+04 1.669165346987273035e-01 7.223967462310472432e-02 3.735349901672317952e-01
3.690000000000000000e+04 1.686420882185333259e-01 7.084833930632378207e-02 3.746580173046669682e-01
3.700000000000000000e+04 1.739400744896258122e-01 7.501655392591125016e-02 3.803674222422422924e-01
3.710000000000000000e+04 1.836494137300441198e-01 8.133795859333184386e-02 3.951489167943516012e-01
3.720000000000000000e+04 1.785763889155867479e-01 7.746932966836289625e-02 3.845081880352246850e-01
3.730000000000000000e+04 1.875392060164272623e-01 8.470826303118798861e-02 3.920154216096553568e-01
3.740000000000000000e+04 1.812064433479548542e-01 7.761297956183639546e-02 3.851826496960653046e-01
3.750000000000000000e+04 1.771349380120181838e-01 7.702287173678749876e-02 3.776531926796155014e-01
3.760000000000000000e+04 1.919678924617300997e-01 8.949088550015182886e-02 3.928282143500295698e-01
3.770000000000000000e+04 1.960025397950639070e-01 9.095976387774516725e-02 3.902887241775669369e-01
3.780000000000000000e+04 1.781487139491364502e-01 7.819918329865666040e-02 3.747835088125799352e-01
3.790000000000000000e+04 1.766333432179477136e-01 7.816974284544660201e-02 3.772927003173159322e-01
3.800000000000000000e+04 1.764584399534504244e-01 7.946710821276348202e-02 3.727971961585049288e-01
3.810000000000000000e+04 1.790374381740586773e-01 7.922335488570861339e-02 3.724648931111181338e-01
3.820000000000000000e+04 1.799259360780328110e-01 8.010004101747754401e-02 3.702415022878268736e-01
3.830000000000000000e+04 1.816977889647713729e-01 8.031550450925253881e-02 3.751007323657460923e-01
3.840000000000000000e+04 1.787739045332712717e-01 7.918335476670981810e-02 3.723792096230390536e-01
3.850000000000000000e+04 1.783503672229160841e-01 7.940226794869453819e-02 3.611448728177185652e-01
3.860000000000000000e+04 1.738013163776837566e-01 7.887694321966651212e-02 3.534842707265878903e-01
3.870000000000000000e+04 1.701221054238477304e-01 7.520214085233098422e-02 3.469187222120537206e-01
3.880000000000000000e+04 1.674121880588560485e-01 7.442850334764321285e-02 3.392791319148554807e-01
3.890000000000000000e+04 1.672346290399601976e-01 7.640996571895306011e-02 3.385731969542829511e-01
3.900000000000000000e+04 1.682123377744833004e-01 7.586578474861160881e-02 3.462638867773039086e-01
3.910000000000000000e+04 1.681421132761707904e-01 7.560828960866670945e-02 3.437820666253632029e-01
3.920000000000000000e+04 1.847146219841485082e-01 8.851412525130814002e-02 3.523089925460802796e-01
3.930000000000000000e+04 1.778860669293673702e-01 8.386110367341312322e-02 3.464312173879846579e-01
3.940000000000000000e+04 1.619117618478188303e-01 7.425332342980871247e-02 3.288966759529797224e-01
3.950000000000000000e+04 1.559748120698795371e-01 7.277747702289008580e-02 3.173832405795239953e-01
3.960000000000000000e+04 1.526072579678597885e-01 7.041299915963425415e-02 3.097980667228968366e-01
3.970000000000000000e+04 1.484723772559400912e-01 6.704962443108698766e-02 3.095727121925090919e-01
3.980000000000000000e+04 1.459545053665468051e-01 6.530475482701125767e-02 3.065844134293446710e-01
3.990000000000000000e+04 1.451033665746376822e-01 6.733928089225747760e-02 3.005769992315435735e-01
4.000000000000000000e+04 1.415886258891162763e-01 6.389654477394035581e-02 2.889627435907432540e-01
4.010000000000000000e+04 1.381987389212599449e-01 6.284643636600666106e-02 2.869976143408577984e-01
4.020000000000000000e+04 1.343151692515143214e-01 6.134491553879482806e-02 2.792051915109374227e-01
4.030000000000000000e+04 1.313244114766584092e-01 6.011205032437822587e-02 2.723525496510277866e-01
4.040000000000000000e+04 1.286260509484115910e-01 5.870646880606559398e-02 2.641119278517213287e-01
4.050000000000000000e+04 1.254103938625664993e-01 5.726323227590103537e-02 2.571617041481664145e-01
4.060000000000000000e+04 1.219158150616030806e-01 5.555109990610503090e-02 2.494156042883431124e-01
4.070000000000000000e+04 1.185302705211295632e-01 5.469782412214727746e-02 2.470988268145183075e-01
4.080000000000000000e+04 1.165221981088438857e-01 5.393841080067480337e-02 2.393117376878695080e-01
4.090000000000000000e+04 1.144564022531776581e-01 5.336430335304902933e-02 2.297196821176402670e-01
4.100000000000000000e+04 1.136105109109014216e-01 5.326635892525904276e-02 2.305728531654930302e-01
4.110000000000000000e+04 1.371893653072530639e-01 6.891563222197985561e-02 2.453660938474641617e-01
4.120000000000000000e+04 1.268550439026119858e-01 6.165219493256347827e-02 2.320329365444178116e-01
4.130000000000000000e+04 1.047868023913150065e-01 4.844509194300773008e-02 2.110857546558400633e-01
4.140000000000000000e+04 1.023579538271557621e-01 4.758450130426930547e-02 2.064577267113625603e-01
4.150000000000000000e+04 1.008199871923291108e-01 4.731800700871813953e-02 2.043585876583327299e-01
4.160000000000000000e+04 9.853990345045197941e-02 4.624255586807400620e-02 1.998539905002737760e-01
4.170000000000000000e+04 9.697245684729054183e-02 4.506875437463944006e-02 1.985308825763659468e-01
4.180000000000000000e+04 9.500489526479879987e-02 4.369056022778183834e-02 1.914785771122112512e-01
4.190000000000000000e+04 9.372624624854952735e-02 4.425452826349864088e-02 1.892719203682817763e-01
4.200000000000000000e+04 9.206035591450066613e-02 4.362070080484422435e-02 1.861362566667733032e-01
4.210000000000000000e+04 9.182558460314627080e-02 4.245620841761466036e-02 1.864905756783515889e-01
4.220000000000000000e+04 9.092440139889004791e-02 4.292581314302360701e-02 1.837063887944329066e-01
4.230000000000000000e+04 8.980165265620022874e-02 4.233314591461512233e-02 1.797279924763790782e-01
4.240000000000000000e+04 8.734976456230798825e-02 4.103023044335149527e-02 1.770873825576162186e-01
4.250000000000000000e+04 8.649406148115099113e-02 4.069048749318655150e-02 1.724231141250877619e-01
4.260000000000000000e+04 8.575293217957295766e-02 4.048607396562588223e-02 1.715743845894346642e-01
4.270000000000000000e+04 8.406338999987734983e-02 3.966090808024519410e-02 1.712160323756795333e-01
4.280000000000000000e+04 8.407938562388715675e-02 3.999281070451981418e-02 1.708547882250330829e-01
4.290000000000000000e+04 8.410605190692885258e-02 3.946784324726194948e-02 1.697151787448563931e-01
4.300000000000000000e+04 8.305663399241776379e-02 3.855589035023081201e-02 1.688585093325695452e-01
4.310000000000000000e+04 8.234270762998180393e-02 3.939319350005411613e-02 1.686548809550446892e-01
4.320000000000000000e+04 8.237465235623171733e-02 3.878802127035678449e-02 1.676767775350332113e-01
4.330000000000000000e+04 8.083628529969420773e-02 3.759600867537846169e-02 1.644874136794059194e-01
4.340000000000000000e+04 8.009239563004977303e-02 3.761698719394532264e-02 1.641601819903042991e-01
4.350000000000000000e+04 8.105438174246702709e-02 3.785250945336165324e-02 1.641546958231256403e-01
4.360000000000000000e+04 7.976976038954122772e-02 3.837131512756876417e-02 1.633840303614153555e-01
4.370000000000000000e+04 8.056924703945467225e-02 3.779698960049623219e-02 1.619464280945777102e-01
4.380000000000000000e+04 8.009718202030950696e-02 3.724863828637444557e-02 1.622512983636813788e-01
4.390000000000000000e+04 8.039211022440434506e-02 3.810988979535303439e-02 1.645334436960995128e-01
4.400000000000000000e+04 8.062288103936582351e-02 3.838725934248082838e-02 1.627219966071476731e-01
4.410000000000000000e+04 8.069579695484604964e-02 3.825774779870366737e-02 1.624741360455208283e-01
4.420000000000000000e+04 8.729203794800620420e-02 4.144943002788364222e-02 1.716499290866972949e-01
4.430000000000000000e+04 8.867594136840399599e-02 4.201960212055361188e-02 1.718939693854216744e-01
4.440000000000000000e+04 7.926462238665740734e-02 3.720015108628703382e-02 1.587440277660707999e-01
4.450000000000000000e+04 7.831413173840842679e-02 3.705809941393706231e-02 1.571679004938417445e-01
4.460000000000000000e+04 7.749346655678802931e-02 3.667242093205726194e-02 1.548350530333049702e-01
4.470000000000000000e+04 7.851007501450026071e-02 3.690543830059252878e-02 1.555331252782060358e-01
4.480000000000000000e+04 7.808761209741627018e-02 3.661608318601778517e-02 1.576548377195117201e-01
4.490000000000000000e+04 7.902975874366631459e-02 3.685322972138743020e-02 1.582458189917580471e-01
4.500000000000000000e+04 7.880645083513396210e-02 3.680035076284613599e-02 1.541421047407562361e-01
4.510000000000000000e+04 7.777641256690680238e-02 3.615981015745830390e-02 1.542054239725681730e-01
4.520000000000000000e+04 7.834538704937293874e-02 3.653996117495207641e-02 1.559917778113822928e-01
4.530000000000000000e+04 8.933710688516963150e-02 4.267668930781780279e-02 1.650075232205212294e-01
4.540000000000000000e+04 1.384110318971435161e-01 6.718358343339261851e-02 2.294170988754727913e-01
4.550000000000000000e+04 1.396551648162587533e-01 6.786568110961353761e-02 2.325733878545453437e-01
4.560000000000000000e+04 9.258607410240120295e-02 4.440605709095608866e-02 1.684657694745115841e-01
4.570000000000000000e+04 7.789753116111920728e-02 3.660301256868746245e-02 1.520989621589534380e-01
4.580000000000000000e+04 7.804337323793818226e-02 3.665577728090020637e-02 1.514709170602268618e-01
4.590000000000000000e+04 7.794723315492937954e-02 3.691480271847937672e-02 1.499627594265391661e-01
4.600000000000000000e+04 7.785935830158592641e-02 3.620127560473531542e-02 1.485776943198617583e-01
4.610000000000000000e+04 7.818554838815154617e-02 3.650892849440769833e-02 1.505534092297744764e-01
4.620000000000000000e+04 7.812543111028728837e-02 3.608688802668347934e-02 1.497560533197487831e-01
4.630000000000000000e+04 7.723345874793886845e-02 3.651683490003495430e-02 1.492830482503865186e-01
4.640000000000000000e+04 8.539802578518636278e-02 4.101901996563851044e-02 1.570247905970653945e-01
4.650000000000000000e+04 1.064564596376268851e-01 5.403730440691860426e-02 1.810551814557369854e-01
4.660000000000000000e+04 9.078313210470291550e-02 4.392547270899066492e-02 1.626247992095697925e-01
4.670000000000000000e+04 7.892777424251672114e-02 3.729394391921046076e-02 1.476513147680609817e-01
4.680000000000000000e+04 7.747632533954584844e-02 3.724531609406401406e-02 1.471622262721198615e-01
4.690000000000000000e+04 7.836161821506534841e-02 3.709853447753088534e-02 1.459026763538369131e-01
4.700000000000000000e+04 1.101206158328316836e-01 5.477331958762150788e-02 1.871851592100685913e-01
4.710000000000000000e+04 2.578690392201706816e-01 1.317072070666507055e-01 4.278564397123622576e-01
4.720000000000000000e+04 2.514808912751214098e-01 1.247095327218805810e-01 4.099266893706017267e-01
4.730000000000000000e+04 2.749421488523750012e-01 1.343811055069457916e-01 4.501416274233268067e-01
4.740000000000000000e+04 1.544283473235865956e-01 7.611704957864845467e-02 2.534887756367749656e-01
4.750000000000000000e+04 7.891682077656034244e-02 3.716373595194698981e-02 1.464203483495117863e-01
4.760000000000000000e+04 7.906957107698286968e-02 3.700973927737819663e-02 1.454639297571329315e-01
4.770000000000000000e+04 7.827038373970027219e-02 3.675749109121288771e-02 1.446582323337337050e-01
4.780000000000000000e+04 7.847508830321842099e-02 3.713758008577102560e-02 1.442121817256860894e-01
4.790000000000000000e+04 7.911392697780829375e-02 3.795700245677824380e-02 1.456176611406103938e-01
4.800000000000000000e+04 8.083252707671917392e-02 3.835524208751758812e-02 1.463823124491416272e-01
4.810000000000000000e+04 8.411800195659738244e-02 4.080057858932922138e-02 1.512264280716910381e-01
4.820000000000000000e+04 7.944030575053244447e-02 3.807714376514424737e-02 1.450927620625046821e-01
4.830000000000000000e+04 7.691699784656506889e-02 3.692725091570520091e-02 1.413965288526857766e-01
4.840000000000000000e+04 8.340708828837696542e-02 4.122764454681775853e-02 1.467542331624498153e-01
4.850000000000000000e+04 1.225678131671764926e-01 6.933415175466538238e-02 1.878894489641668164e-01
4.860000000000000000e+04 1.008594193368531622e-01 5.140221735162997518e-02 1.645083859225131562e-01
4.870000000000000000e+04 7.547106506610182231e-02 3.600998321082053005e-02 1.388158730369659088e-01
4.880000000000000000e+04 7.562758042289062510e-02 3.470761172382110654e-02 1.388684722714061681e-01
4.890000000000000000e+04 7.803545010882539934e-02 3.670200051109175077e-02 1.401609876002032629e-01
4.900000000000000000e+04 8.730883524638691218e-02 4.162830582684294567e-02 1.509179786387523370e-01
4.910000000000000000e+04 8.106670432983534291e-02 3.892819235798232469e-02 1.430476029025467000e-01
4.920000000000000000e+04 9.292062382102607432e-02 4.602181713209646530e-02 1.591786772193311272e-01
4.930000000000000000e+04 8.843192209308960161e-02 4.241846660472659014e-02 1.524084089713011736e-01
4.940000000000000000e+04 7.143603682491626861e-02 3.457479131682709289e-02 1.318290576680180293e-01
4.950000000000000000e+04 7.180885740506466608e-02 3.415905727241730361e-02 1.311351233998340471e-01
4.960000000000000000e+04 9.418591895003025627e-02 4.823353787892636912e-02 1.566378910838936989e-01
4.970000000000000000e+04 1.273408088351239142e-01 7.535146674823739454e-02 1.883387210429628700e-01
4.980000000000000000e+04 8.347334349277683863e-02 4.111284102238317584e-02 1.411473544752451237e-01
4.990000000000000000e+04 6.940980567176432969e-02 3.322415161447559578e-02 1.271185494585173881e-01
5.000000000000000000e+04 6.787832022450153435e-02 3.217689797403847085e-02 1.237164907874602898e-01
5.010000000000000000e+04 6.737312968641456790e-02 3.235733434317105556e-02 1.229391125675415308e-01
5.020000000000000000e+04 6.635389173572348032e-02 3.195596808762728863e-02 1.203623528998935543e-01
5.030000000000000000e+04 6.497419207283114395e-02 3.118151403529426449e-02 1.190723834325012748e-01
5.040000000000000000e+04 6.354933943237586758e-02 3.062381103533442714e-02 1.179285512270645958e-01
5.050000000000000000e+04 6.358572886267492563e-02 2.982477824895775342e-02 1.156947434338937014e-01
5.060000000000000000e+04 6.270349985466537601e-02 2.994992553602656218e-02 1.123295281305724952e-01
5.070000000000000000e+04 6.244983150578209408e-02 2.999767754139700052e-02 1.115333759818464276e-01
5.080000000000000000e+04 6.138120928483913052e-02 2.900223489109723246e-02 1.091878171528885139e-01
5.090000000000000000e+04 6.026187371284515842e-02 2.878184033875183165e-02 1.077891884361904667e-01
5.100000000000000000e+04 5.903804384398773225e-02 2.894793195251742224e-02 1.046772328934094665e-01
5.110000000000000000e+04 5.870056881807268756e-02 2.817718720725971571e-02 1.049132471588985621e-01
5.120000000000000000e+04 5.856019543923768333e-02 2.850089809740389765e-02 1.029746566076106401e-01
5.130000000000000000e+04 5.810479139900522755e-02 2.810165778633680334e-02 1.017283066216773807e-01
5.140000000000000000e+04 5.647428387996835525e-02 2.747613525009942950e-02 9.996547354525332774e-02
5.150000000000000000e+04 5.603449124062006431e-02 2.724936982139915947e-02 9.814649320478464889e-02
5.160000000000000000e+04 5.616789780612865823e-02 2.750726095442988101e-02 9.885792024451496574e-02
5.170000000000000000e+04 5.520006732698613805e-02 2.669842203158946312e-02 9.743375226954487101e-02
5.180000000000000000e+04 5.443504033792233993e-02 2.629434957218556787e-02 9.629852025114049585e-02
5.190000000000000000e+04 5.353685574933009922e-02 2.643345051521969052e-02 9.382552549637417083e-02
5.200000000000000000e+04 5.292734187761126419e-02 2.618488034772117196e-02 9.213024194764841968e-02
5.210000000000000000e+04 5.295064868957168741e-02 2.557610843359266889e-02 9.180646565371197720e-02
5.220000000000000000e+04 5.286873237180299973e-02 2.575561472243069472e-02 9.157629922170734682e-02
5.230000000000000000e+04 5.587278349607747302e-02 2.749616881436439675e-02 9.467396352733693787e-02
5.240000000000000000e+04 5.409319643836493774e-02 2.631532937154814830e-02 9.316463570108915460e-02
5.250000000000000000e+04 5.211903628084392504e-02 2.530268133691812235e-02 9.007207746609029175e-02
5.260000000000000000e+04 5.210249210954692733e-02 2.495734713479959635e-02 8.955010048591983962e-02
5.270000000000000000e+04 5.178572481826095031e-02 2.503970356384313881e-02 8.918771536830254199e-02
5.280000000000000000e+04 5.159224051157946384e-02 2.540083455025321860e-02 8.874258091798724324e-02
5.290000000000000000e+04 5.196721490230880869e-02 2.507475988147713983e-02 8.842767155532918477e-02
5.300000000000000000e+04 5.154202761169624641e-02 2.501498548405103189e-02 8.847322635074685027e-02
5.310000000000000000e+04 5.093351490834817363e-02 2.498301419227571055e-02 8.839923729507416506e-02
5.320000000000000000e+04 5.160169814013301770e-02 2.488209927593609469e-02 8.781153385996351424e-02
5.330000000000000000e+04 5.092664276302175108e-02 2.525022866027877566e-02 8.723393048439834208e-02
5.340000000000000000e+04 5.078595344227976316e-02 2.488728562571963440e-02 8.651966127083368652e-02
5.350000000000000000e+04 4.947329983080960697e-02 2.420617030202266290e-02 8.611547419959034166e-02
5.360000000000000000e+04 5.005064388804486564e-02 2.474483579047561527e-02 8.601636461058373428e-02
5.370000000000000000e+04 5.032169264529292446e-02 2.458369201171090382e-02 8.683451923505554337e-02
5.380000000000000000e+04 5.052643698217079704e-02 2.450538180734692165e-02 8.609994039127755183e-02
5.390000000000000000e+04 5.039410889407614641e-02 2.497207882217788305e-02 8.568445001872782019e-02
5.400000000000000000e+04 4.996826829781796792e-02 2.461871751088221677e-02 8.607613351165067928e-02
5.410000000000000000e+04 5.191768782507431151e-02 2.511332956072256928e-02 8.840766769192008601e-02
5.420000000000000000e+04 5.855098441435292039e-02 2.923650924197297024e-02 9.665413287068165549e-02
5.430000000000000000e+04 5.387159302497628033e-02 2.632117881330686346e-02 9.189465166027817322e-02
5.440000000000000000e+04 5.142922927670279254e-02 2.452051771156473284e-02 8.757296988124990689e-02
5.450000000000000000e+04 5.166069308797272691e-02 2.514005398562454280e-02 8.849442518587737061e-02
5.460000000000000000e+04 5.483143328827753959e-02 2.638825809384801047e-02 9.366818460490707043e-02
5.470000000000000000e+04 8.117623003929089198e-02 4.389836168770264863e-02 1.244123396137658683e-01
5.480000000000000000e+04 7.855230944235562507e-02 4.213855693558762189e-02 1.211644893463842271e-01
5.490000000000000000e+04 5.501175101617210988e-02 2.743846546933368519e-02 9.439959982193407706e-02
5.500000000000000000e+04 7.479865746755227918e-02 3.725052291665873622e-02 1.239282906027368569e-01
5.510000000000000000e+04 3.745080610943814503e-01 1.867640878984222486e-01 6.039740824362146432e-01
5.520000000000000000e+04 4.638314948637919377e-01 2.307207199095395733e-01 7.485207931785221591e-01
5.530000000000000000e+04 1.457053853380146924e-01 7.258092059133869345e-02 2.372333824212100317e-01
5.540000000000000000e+04 6.203199775008211292e-02 3.067974709804942648e-02 1.057991006932099409e-01
5.550000000000000000e+04 4.246461103016598293e-01 2.132225421866002224e-01 7.229148867881254326e-01
5.560000000000000000e+04 9.579356946341316403e-01 4.842904931776864652e-01 1.578346926440549858e+00
5.570000000000000000e+04 8.036855267671755287e-01 4.094453774185339845e-01 1.300674173384840815e+00
5.580000000000000000e+04 4.612630408341442667e-01 2.830065786200733902e-01 6.394033080738135144e-01
5.590000000000000000e+04 9.684787435021245949e-01 9.144336244652502277e-01 1.023214358305104987e+00
5.600000000000000000e+04 5.560672758735726307e-01 4.952980690928211471e-01 6.206446153395298593e-01
5.610000000000000000e+04 6.085819929842041509e-02 2.987682446696813751e-02 1.045752911601542517e-01
5.620000000000000000e+04 5.708896909933582758e-02 2.804499267521435441e-02 9.929013540672304572e-02
5.630000000000000000e+04 5.665646679949169762e-02 2.801163411635580747e-02 9.828972887125196622e-02
5.640000000000000000e+04 5.740040136460933251e-02 2.742540140000833057e-02 9.884164627248633039e-02
5.650000000000000000e+04 5.861695100313502049e-02 2.838259812624809031e-02 1.020913633153589656e-01
5.660000000000000000e+04 6.521815852153189930e-02 3.168461586451145479e-02 1.098119610945574864e-01
5.670000000000000000e+04 7.664898912375665840e-02 3.889973735034626262e-02 1.226316738319992161e-01
5.680000000000000000e+04 6.971252445499821759e-02 3.489432182038426644e-02 1.156119143268337784e-01
5.690000000000000000e+04 7.126434061315557733e-02 3.508779795283904074e-02 1.196202905624393076e-01
5.700000000000000000e+04 7.070799794843334041e-02 3.491751454476647865e-02 1.187530495772218531e-01
5.710000000000000000e+04 6.214425164890530207e-02 3.095692561606153831e-02 1.054673110794095980e-01
5.720000000000000000e+04 6.272936428507744355e-02 3.067011385520328204e-02 1.076859921760187216e-01
5.730000000000000000e+04 6.381594813947272238e-02 3.097587511830009535e-02 1.088411548843449123e-01
5.740000000000000000e+04 6.467645236426564082e-02 3.178989533443240395e-02 1.109851393386064727e-01
5.750000000000000000e+04 6.557264652983649245e-02 3.267341481920988527e-02 1.125710863174541193e-01
5.760000000000000000e+04 6.799168663333980678e-02 3.320483136608966268e-02 1.160527231520541991e-01
5.770000000000000000e+04 7.081264127349452819e-02 3.441028396621308161e-02 1.204529651982063077e-01
5.780000000000000000e+04 7.357277972301586033e-02 3.594571753086386184e-02 1.248812605585313679e-01
5.790000000000000000e+04 7.494330434022707099e-02 3.681739153126934588e-02 1.295658940554880456e-01
5.800000000000000000e+04 7.657005407282965748e-02 3.688378626184343062e-02 1.329107453053014753e-01
5.810000000000000000e+04 7.985269941789598092e-02 3.940480551298687628e-02 1.378724378364653835e-01
5.820000000000000000e+04 8.212364827770234077e-02 4.043047956157310580e-02 1.436498535974832513e-01
5.830000000000000000e+04 8.438685478256265082e-02 3.996780729896568657e-02 1.503747402944590195e-01
5.840000000000000000e+04 8.740787052049688033e-02 4.225043849360295145e-02 1.548176359411909953e-01
5.850000000000000000e+04 9.185534873952751200e-02 4.434663565679698022e-02 1.621142766531349644e-01
5.860000000000000000e+04 9.500935609906453749e-02 4.533239951216980895e-02 1.684191032442939329e-01
5.870000000000000000e+04 9.813638155003884256e-02 4.663605691643262635e-02 1.771379508430625249e-01
5.880000000000000000e+04 1.030245105891567786e-01 4.833166570425252717e-02 1.847612928778020192e-01
5.890000000000000000e+04 1.052466363658205589e-01 4.994691617784215165e-02 1.890275167970874026e-01
5.900000000000000000e+04 1.061597278487167728e-01 5.050670021438795343e-02 1.899200111651276612e-01
5.910000000000000000e+04 1.084966312116014409e-01 5.035326082908975903e-02 1.957082366505304427e-01
5.920000000000000000e+04 1.120313503593533683e-01 5.330423187837520643e-02 2.009652827736208569e-01
5.930000000000000000e+04 1.145109478933537539e-01 5.347656744707345727e-02 2.054421191051782336e-01
5.940000000000000000e+04 1.189105728528948719e-01 5.620563929469801073e-02 2.101286497620171168e-01
5.950000000000000000e+04 1.229831814929896322e-01 5.863406511571524898e-02 2.174310742183830358e-01
5.960000000000000000e+04 1.284781540870554017e-01 6.046768293706052816e-02 2.254123436395898405e-01
5.970000000000000000e+04 1.319406260331056346e-01 6.261345505972504277e-02 2.294811678302745295e-01
5.980000000000000000e+04 1.328310731835314340e-01 6.300759512223230718e-02 2.303878243907576950e-01
5.990000000000000000e+04 1.338330687471059599e-01 6.495512309763100400e-02 2.324647346566738604e-01
6.000000000000000000e+04 1.359521395586448522e-01 6.481867442728167505e-02 2.313589782569280828e-01
6.010000000000000000e+04 1.355524714494665550e-01 6.638871411503526054e-02 2.329382405619498941e-01
6.020000000000000000e+04 1.381760208191347983e-01 6.761524321895828749e-02 2.327574392717556007e-01
6.030000000000000000e+04 1.427422433771092236e-01 6.987212238584855628e-02 2.411751722103772921e-01
6.040000000000000000e+04 1.499242439319456999e-01 7.367647211128360019e-02 2.471358725186187377e-01
6.050000000000000000e+04 1.574193244371988321e-01 7.801054033052103043e-02 2.581228043405471295e-01
6.060000000000000000e+04 1.613379544729023618e-01 7.967264830537372500e-02 2.660052924968986932e-01
6.070000000000000000e+04 1.675348952976519201e-01 8.307723085653373474e-02 2.714822671937314191e-01
6.080000000000000000e+04 1.710929872546724795e-01 8.538379446411686891e-02 2.791753162919489717e-01
6.090000000000000000e+04 1.767104776926737286e-01 8.923787064019532422e-02 2.852456123672990618e-01
6.100000000000000000e+04 1.797807779420353691e-01 9.034699834920362216e-02 2.942012944372978112e-01
6.110000000000000000e+04 1.808009687282468858e-01 8.792020531872236921e-02 3.027444336577451711e-01
6.120000000000000000e+04 1.839642282557826525e-01 9.114039989593263058e-02 3.053766691804493671e-01
6.130000000000000000e+04 1.888369430360711532e-01 9.409712007379431031e-02 3.056320888902571142e-01
6.140000000000000000e+04 1.927455975385965747e-01 9.617171057646223264e-02 3.105556257635575523e-01
6.150000000000000000e+04 1.937927374516759116e-01 9.527315304010647301e-02 3.182960885352345559e-01
6.160000000000000000e+04 1.876540135060612013e-01 8.941253633086236607e-02 3.281839887691753721e-01
6.170000000000000000e+04 1.964415409955084790e-01 9.789342115285802615e-02 3.226049861351696912e-01
6.180000000000000000e+04 1.965695899196513441e-01 9.689227139432025904e-02 3.251161399391505613e-01
6.190000000000000000e+04 1.934832846553328212e-01 9.711252646875419281e-02 3.258799029127569247e-01
6.200000000000000000e+04 1.881034029585991474e-01 9.130758122614174299e-02 3.223491200847832250e-01
6.210000000000000000e+04 1.858621029149886417e-01 9.029716340849754108e-02 3.164353087178927160e-01
6.220000000000000000e+04 1.835469865843998849e-01 8.846629161213465098e-02 3.135474170674847350e-01
6.230000000000000000e+04 1.799985470788598441e-01 8.721469043125808229e-02 3.131019887118701162e-01
6.240000000000000000e+04 1.751199581505269165e-01 8.430866160736440185e-02 3.097427346738344522e-01
6.250000000000000000e+04 1.003282127941549640e-01 2.974009444583721254e-02 2.233449136216394404e-01
