# North DC Val: 0.84307737 VoltsSouth DC Val: 0.57141465 Volts
# SR785 Measurement - Timestamp: May 06 2020 - 22:57:45
# Parameter File: /home/controls/Git/cit_ctnlab/ctn_scripts/TransRINSpecLong.yml
#---------- Measurement Setup ------------
# Start Frequency (Hz): 0.000000
# Frequency Span (Hz): 800.000000
# Frequency Resolution: 800
# Number of Averages: 100
# Averaging Mode: RMS
# Window function: Hanning
#---------- Measurement Parameters ----------
# Measurement Group:  "FFT" "FFT"
# Measurements:  "FFT 1" "FFT 2"
# View:  "Log Magnitude" "Log Magnitude"
# Unit:  "Vrms/rtHz" "Vrms/rtHz"
#---------- Input Parameters ----------
# Input Source: Analog
# Input Mode: Single ended, Single ended
# Input Grounding: Float, Float
# Input Coupling: AC, AC
# Input Range: -36.0dBVpk, -36.0dBVpk
# Auto Range: Off, Off
# Auto Range Mode: Tracking, Tracking
# Anti-Aliasing Filter: On, On
#---------- Source Parameters ----------
# Source Type: Sine
# Source Amplitude: 500.0mVpk
# Source On: 0

#---------- Measurement Data ----------
# [Freq(Hz) Display 0(Vrms/rtHz) Display 1(Vrms/rtHz) ]
+0.0000000e+000    +1.8758974e-003    +3.3041529e-004
+1.0000000e+000    +1.2056695e-003    +2.7492258e-004
+2.0000000e+000    +5.5569538e-004    +1.5802392e-004
+3.0000000e+000    +3.8436765e-004    +9.5557261e-005
+4.0000000e+000    +2.1397065e-004    +6.4314314e-005
+5.0000000e+000    +1.3368874e-004    +4.5876834e-005
+6.0000000e+000    +9.2344024e-005    +2.9832816e-005
+7.0000000e+000    +7.2833056e-005    +2.0452086e-005
+8.0000000e+000    +6.4624779e-005    +1.6455659e-005
+9.0000000e+000    +5.4815158e-005    +1.3236415e-005
+1.0000000e+001    +4.5302953e-005    +1.0112110e-005
+1.1000000e+001    +4.2193547e-005    +7.3960846e-006
+1.2000000e+001    +3.7259793e-005    +6.0569600e-006
+1.3000000e+001    +3.4378456e-005    +5.1637703e-006
+1.4000000e+001    +3.1230014e-005    +4.5289821e-006
+1.5000000e+001    +2.6583668e-005    +4.0002269e-006
+1.6000000e+001    +2.4707833e-005    +3.4940433e-006
+1.7000000e+001    +2.2642465e-005    +2.9582282e-006
+1.8000000e+001    +2.2249784e-005    +2.5069028e-006
+1.9000000e+001    +2.0236201e-005    +2.3243374e-006
+2.0000000e+001    +1.7345630e-005    +1.9762904e-006
+2.1000000e+001    +1.7951226e-005    +1.7223623e-006
+2.2000000e+001    +1.6517311e-005    +1.5149988e-006
+2.3000000e+001    +1.4448966e-005    +1.5506340e-006
+2.4000000e+001    +1.4470574e-005    +1.2685991e-006
+2.5000000e+001    +1.1843541e-005    +1.0939228e-006
+2.6000000e+001    +1.1452351e-005    +1.0925820e-006
+2.7000000e+001    +1.1516279e-005    +9.8218698e-007
+2.8000000e+001    +1.0718481e-005    +9.3952639e-007
+2.9000000e+001    +9.3759318e-006    +8.4164128e-007
+3.0000000e+001    +8.8637607e-006    +7.8506923e-007
+3.1000000e+001    +8.0010541e-006    +7.2077626e-007
+3.2000000e+001    +7.9359006e-006    +6.2875711e-007
+3.3000000e+001    +9.1181664e-006    +6.1978778e-007
+3.4000000e+001    +7.4507420e-006    +5.9093304e-007
+3.5000000e+001    +7.0636174e-006    +5.3131703e-007
+3.6000000e+001    +7.3296337e-006    +4.2800210e-007
+3.7000000e+001    +6.4273440e-006    +4.3893795e-007
+3.8000000e+001    +6.3194907e-006    +3.9265257e-007
+3.9000000e+001    +6.3554157e-006    +3.6854146e-007
+4.0000000e+001    +6.9670441e-006    +3.6909626e-007
+4.1000000e+001    +7.1777845e-006    +3.6630615e-007
+4.2000000e+001    +6.7833430e-006    +3.4104198e-007
+4.3000000e+001    +6.1865035e-006    +3.0283789e-007
+4.4000000e+001    +5.9321674e-006    +2.8022131e-007
+4.5000000e+001    +5.6794192e-006    +2.5968555e-007
+4.6000000e+001    +4.8817096e-006    +2.2967743e-007
+4.7000000e+001    +4.3543673e-006    +2.3287693e-007
+4.8000000e+001    +3.6975659e-006    +2.1519745e-007
+4.9000000e+001    +3.2617747e-006    +1.9875864e-007
+5.0000000e+001    +3.3724536e-006    +1.7871049e-007
+5.1000000e+001    +3.0188778e-006    +1.9412018e-007
+5.2000000e+001    +2.7798553e-006    +1.8810867e-007
+5.3000000e+001    +2.8823097e-006    +1.7894571e-007
+5.4000000e+001    +2.5918421e-006    +1.6899794e-007
+5.5000000e+001    +2.2665399e-006    +1.5024392e-007
+5.6000000e+001    +2.4362139e-006    +1.3455669e-007
+5.7000000e+001    +2.7527688e-006    +1.3798535e-007
+5.8000000e+001    +2.4755136e-006    +1.3481400e-007
+5.9000000e+001    +2.3786595e-006    +1.3172031e-007
+6.0000000e+001    +2.3355242e-006    +1.5294020e-007
+6.1000000e+001    +1.9981921e-006    +1.2795158e-007
+6.2000000e+001    +1.8847584e-006    +1.1544942e-007
+6.3000000e+001    +2.0293785e-006    +1.1502303e-007
+6.4000000e+001    +2.3449361e-006    +1.0556930e-007
+6.5000000e+001    +2.0289685e-006    +9.9764549e-008
+6.6000000e+001    +1.8300647e-006    +9.3774858e-008
+6.7000000e+001    +1.7381014e-006    +8.8985722e-008
+6.8000000e+001    +1.4768092e-006    +7.6229320e-008
+6.9000000e+001    +1.4467444e-006    +8.0351505e-008
+7.0000000e+001    +1.4636660e-006    +7.5401069e-008
+7.1000000e+001    +1.5008169e-006    +7.3093332e-008
+7.2000000e+001    +1.4828453e-006    +7.7246938e-008
+7.3000000e+001    +1.3863789e-006    +8.5722156e-008
+7.4000000e+001    +1.3740828e-006    +7.7496779e-008
+7.5000000e+001    +1.1796989e-006    +6.8510822e-008
+7.6000000e+001    +1.1335744e-006    +6.6760947e-008
+7.7000000e+001    +9.7800739e-007    +6.5678954e-008
+7.8000000e+001    +9.6160443e-007    +6.2047548e-008
+7.9000000e+001    +1.0583333e-006    +6.0191780e-008
+8.0000000e+001    +1.1043957e-006    +5.8120001e-008
+8.1000000e+001    +1.0313958e-006    +5.6089284e-008
+8.2000000e+001    +9.2485067e-007    +5.6813342e-008
+8.3000000e+001    +8.8730593e-007    +5.7776873e-008
+8.4000000e+001    +8.2820895e-007    +5.4521102e-008
+8.5000000e+001    +8.2595596e-007    +5.3180376e-008
+8.6000000e+001    +8.9211113e-007    +5.4025676e-008
+8.7000000e+001    +8.7184299e-007    +5.2832291e-008
+8.8000000e+001    +8.8850993e-007    +5.4074398e-008
+8.9000000e+001    +8.3396407e-007    +5.3394395e-008
+9.0000000e+001    +7.5150479e-007    +5.3236750e-008
+9.1000000e+001    +7.0833983e-007    +5.7249473e-008
+9.2000000e+001    +5.4072143e-007    +5.3636654e-008
+9.3000000e+001    +5.3459979e-007    +5.0860301e-008
+9.4000000e+001    +5.8900918e-007    +4.6964647e-008
+9.5000000e+001    +5.8262032e-007    +4.5900617e-008
+9.6000000e+001    +6.0352858e-007    +4.6331859e-008
+9.7000000e+001    +5.8348519e-007    +4.3537508e-008
+9.8000000e+001    +5.6229936e-007    +4.2037531e-008
+9.9000000e+001    +5.5314422e-007    +4.3225334e-008
+1.0000000e+002    +4.8540346e-007    +4.4679112e-008
+1.0100000e+002    +4.1865172e-007    +4.5010133e-008
+1.0200000e+002    +3.7656298e-007    +4.4041176e-008
+1.0300000e+002    +4.1410297e-007    +4.1498051e-008
+1.0400000e+002    +4.0644173e-007    +4.4076973e-008
+1.0500000e+002    +3.8832491e-007    +4.0633019e-008
+1.0600000e+002    +3.7863134e-007    +3.8997673e-008
+1.0700000e+002    +3.9250773e-007    +4.2384055e-008
+1.0800000e+002    +3.9522655e-007    +4.3396909e-008
+1.0900000e+002    +3.5241609e-007    +4.2381078e-008
+1.1000000e+002    +3.2799068e-007    +4.1523208e-008
+1.1100000e+002    +3.0485725e-007    +4.4548763e-008
+1.1200000e+002    +3.3879076e-007    +4.0619817e-008
+1.1300000e+002    +3.2863269e-007    +3.9299373e-008
+1.1400000e+002    +2.8666744e-007    +4.2552806e-008
+1.1500000e+002    +2.9786406e-007    +4.2203464e-008
+1.1600000e+002    +3.0820294e-007    +4.1226066e-008
+1.1700000e+002    +2.7054264e-007    +4.1805411e-008
+1.1800000e+002    +2.5769450e-007    +4.3650612e-008
+1.1900000e+002    +6.8353637e-007    +4.0044984e-008
+1.2000000e+002    +1.3101039e-006    +4.0123982e-008
+1.2100000e+002    +7.1379236e-007    +3.9778769e-008
+1.2200000e+002    +2.6328775e-007    +3.8279381e-008
+1.2300000e+002    +2.5843715e-007    +3.9150574e-008
+1.2400000e+002    +2.5314142e-007    +3.9157971e-008
+1.2500000e+002    +2.4665414e-007    +4.0332196e-008
+1.2600000e+002    +2.2949745e-007    +3.7941494e-008
+1.2700000e+002    +2.3221028e-007    +3.8895646e-008
+1.2800000e+002    +2.5212373e-007    +3.8683378e-008
+1.2900000e+002    +2.2458627e-007    +3.5398863e-008
+1.3000000e+002    +2.1056431e-007    +3.4145263e-008
+1.3100000e+002    +2.1005054e-007    +3.6608419e-008
+1.3200000e+002    +2.2888042e-007    +3.5559822e-008
+1.3300000e+002    +2.1948070e-007    +3.5178477e-008
+1.3400000e+002    +2.2294707e-007    +3.4742467e-008
+1.3500000e+002    +2.2080913e-007    +3.4370530e-008
+1.3600000e+002    +2.5119891e-007    +3.7171205e-008
+1.3700000e+002    +2.5727272e-007    +3.9734331e-008
+1.3800000e+002    +2.7247734e-007    +3.5814001e-008
+1.3900000e+002    +3.5382931e-007    +3.4759218e-008
+1.4000000e+002    +4.8640857e-007    +3.5505671e-008
+1.4100000e+002    +6.2721125e-007    +3.7699444e-008
+1.4200000e+002    +9.6008637e-007    +4.1278653e-008
+1.4300000e+002    +1.4261158e-006    +3.9514365e-008
+1.4400000e+002    +1.5819509e-006    +3.6792166e-008
+1.4500000e+002    +1.4198912e-006    +3.5891194e-008
+1.4600000e+002    +1.1119771e-006    +3.4440227e-008
+1.4700000e+002    +6.9659734e-007    +3.7496097e-008
+1.4800000e+002    +4.7974265e-007    +3.9434273e-008
+1.4900000e+002    +3.4141476e-007    +3.6312823e-008
+1.5000000e+002    +2.8290219e-007    +3.6634798e-008
+1.5100000e+002    +2.2720214e-007    +3.7033150e-008
+1.5200000e+002    +2.0329466e-007    +3.5218825e-008
+1.5300000e+002    +1.8943246e-007    +3.5248807e-008
+1.5400000e+002    +1.7947345e-007    +3.3706140e-008
+1.5500000e+002    +2.0268888e-007    +3.4063145e-008
+1.5600000e+002    +2.1737409e-007    +3.1583568e-008
+1.5700000e+002    +1.7849557e-007    +3.2617031e-008
+1.5800000e+002    +1.5881604e-007    +3.7398486e-008
+1.5900000e+002    +1.7046345e-007    +3.6064531e-008
+1.6000000e+002    +1.4858702e-007    +3.2497496e-008
+1.6100000e+002    +1.3438543e-007    +3.3241150e-008
+1.6200000e+002    +1.2480457e-007    +3.6052416e-008
+1.6300000e+002    +1.1579714e-007    +3.6346531e-008
+1.6400000e+002    +1.1414978e-007    +3.4241445e-008
+1.6500000e+002    +1.1116646e-007    +3.3454395e-008
+1.6600000e+002    +1.0748851e-007    +3.4303760e-008
+1.6700000e+002    +1.0412505e-007    +3.3765478e-008
+1.6800000e+002    +9.4115457e-008    +3.4038770e-008
+1.6900000e+002    +9.6329309e-008    +3.6534736e-008
+1.7000000e+002    +9.2867253e-008    +3.5503216e-008
+1.7100000e+002    +8.5588418e-008    +3.3376065e-008
+1.7200000e+002    +9.5721390e-008    +3.4601424e-008
+1.7300000e+002    +9.7140649e-008    +3.5158823e-008
+1.7400000e+002    +9.4804832e-008    +3.2584101e-008
+1.7500000e+002    +9.8464014e-008    +3.5809478e-008
+1.7600000e+002    +9.1570939e-008    +3.5819976e-008
+1.7700000e+002    +8.0120778e-008    +3.5087790e-008
+1.7800000e+002    +7.9014882e-008    +3.6900790e-008
+1.7900000e+002    +2.5369235e-007    +5.9484336e-008
+1.8000000e+002    +5.0609964e-007    +1.0077186e-007
+1.8100000e+002    +2.7155747e-007    +6.0790789e-008
+1.8200000e+002    +7.3954837e-008    +3.6541397e-008
+1.8300000e+002    +8.2624801e-008    +3.2908726e-008
+1.8400000e+002    +7.9796479e-008    +3.5142268e-008
+1.8500000e+002    +7.5055155e-008    +3.6763495e-008
+1.8600000e+002    +7.4532871e-008    +3.7171368e-008
+1.8700000e+002    +7.3176125e-008    +3.8288963e-008
+1.8800000e+002    +8.2105899e-008    +3.5152762e-008
+1.8900000e+002    +7.9619433e-008    +3.4785522e-008
+1.9000000e+002    +7.9466162e-008    +3.2931354e-008
+1.9100000e+002    +7.9207538e-008    +3.4114759e-008
+1.9200000e+002    +7.3736167e-008    +3.5393381e-008
+1.9300000e+002    +7.7169545e-008    +3.3673366e-008
+1.9400000e+002    +7.6715466e-008    +3.3884319e-008
+1.9500000e+002    +7.5063639e-008    +3.7119776e-008
+1.9600000e+002    +7.8255113e-008    +3.6129645e-008
+1.9700000e+002    +7.4586737e-008    +3.4976512e-008
+1.9800000e+002    +7.1462672e-008    +3.4254683e-008
+1.9900000e+002    +7.2461994e-008    +3.3711320e-008
+2.0000000e+002    +6.9474588e-008    +3.3910297e-008
+2.0100000e+002    +6.3982860e-008    +3.4070776e-008
+2.0200000e+002    +7.0013293e-008    +3.4411425e-008
+2.0300000e+002    +7.0561292e-008    +3.6044895e-008
+2.0400000e+002    +6.6349465e-008    +3.6978541e-008
+2.0500000e+002    +6.8597835e-008    +3.2796944e-008
+2.0600000e+002    +6.3800819e-008    +3.4935141e-008
+2.0700000e+002    +6.4081853e-008    +3.5270485e-008
+2.0800000e+002    +7.3582910e-008    +3.5408735e-008
+2.0900000e+002    +6.8256966e-008    +3.6643446e-008
+2.1000000e+002    +6.2897179e-008    +3.7881680e-008
+2.1100000e+002    +7.4633263e-008    +3.6504584e-008
+2.1200000e+002    +7.5035793e-008    +3.6133891e-008
+2.1300000e+002    +7.5753242e-008    +3.8455845e-008
+2.1400000e+002    +8.2062819e-008    +3.7701099e-008
+2.1500000e+002    +8.2983192e-008    +3.6817141e-008
+2.1600000e+002    +8.7914948e-008    +3.4801186e-008
+2.1700000e+002    +1.4661188e-007    +3.4933105e-008
+2.1800000e+002    +1.2404841e-007    +3.5711398e-008
+2.1900000e+002    +9.8132467e-008    +3.7203911e-008
+2.2000000e+002    +1.0134296e-007    +3.9274571e-008
+2.2100000e+002    +9.6286378e-008    +3.6148496e-008
+2.2200000e+002    +9.3601017e-008    +3.5598731e-008
+2.2300000e+002    +8.9631619e-008    +3.6888032e-008
+2.2400000e+002    +8.1465558e-008    +3.8414868e-008
+2.2500000e+002    +7.6710414e-008    +3.8827800e-008
+2.2600000e+002    +7.1404635e-008    +3.8304229e-008
+2.2700000e+002    +6.8388765e-008    +3.7436532e-008
+2.2800000e+002    +6.7420594e-008    +3.7597591e-008
+2.2900000e+002    +6.7991884e-008    +3.5612295e-008
+2.3000000e+002    +6.7048319e-008    +3.8155804e-008
+2.3100000e+002    +6.4823830e-008    +3.8389235e-008
+2.3200000e+002    +6.9756709e-008    +3.5686703e-008
+2.3300000e+002    +6.9904374e-008    +3.8730299e-008
+2.3400000e+002    +6.9767125e-008    +4.1005812e-008
+2.3500000e+002    +7.8699983e-008    +4.0678593e-008
+2.3600000e+002    +8.5712365e-008    +4.2656463e-008
+2.3700000e+002    +8.4875431e-008    +4.0455802e-008
+2.3800000e+002    +8.0388830e-008    +3.5078507e-008
+2.3900000e+002    +1.5971766e-007    +3.7366473e-008
+2.4000000e+002    +3.0146015e-007    +4.2462634e-008
+2.4100000e+002    +1.7286787e-007    +4.2916156e-008
+2.4200000e+002    +8.7887052e-008    +4.1631353e-008
+2.4300000e+002    +9.2202292e-008    +3.7044860e-008
+2.4400000e+002    +9.7408403e-008    +3.7328174e-008
+2.4500000e+002    +1.0590621e-007    +3.8568789e-008
+2.4600000e+002    +1.2614863e-007    +3.9353996e-008
+2.4700000e+002    +1.3289771e-007    +3.8581156e-008
+2.4800000e+002    +1.6218067e-007    +4.2994117e-008
+2.4900000e+002    +1.7566170e-007    +4.0265515e-008
+2.5000000e+002    +1.6917841e-007    +4.0390468e-008
+2.5100000e+002    +2.1311136e-007    +4.0813209e-008
+2.5200000e+002    +2.4745137e-007    +4.3292069e-008
+2.5300000e+002    +2.4139092e-007    +4.1438678e-008
+2.5400000e+002    +2.5926789e-007    +4.1333394e-008
+2.5500000e+002    +2.9685324e-007    +4.2289461e-008
+2.5600000e+002    +2.8805474e-007    +4.0599126e-008
+2.5700000e+002    +2.7045147e-007    +4.2458531e-008
+2.5800000e+002    +3.1668259e-007    +4.5161165e-008
+2.5900000e+002    +3.6092774e-007    +4.6533028e-008
+2.6000000e+002    +4.2212685e-007    +4.6354806e-008
+2.6100000e+002    +4.7964841e-007    +4.5817487e-008
+2.6200000e+002    +5.0826247e-007    +4.3199620e-008
+2.6300000e+002    +6.4239225e-007    +4.4856947e-008
+2.6400000e+002    +8.2023001e-007    +4.4173287e-008
+2.6500000e+002    +8.0660698e-007    +4.4658414e-008
+2.6600000e+002    +9.9725992e-007    +4.6464567e-008
+2.6700000e+002    +1.1359292e-006    +4.7974265e-008
+2.6800000e+002    +1.3288940e-006    +4.3433278e-008
+2.6900000e+002    +1.6617175e-006    +4.1390660e-008
+2.7000000e+002    +2.3571665e-006    +4.6014854e-008
+2.7100000e+002    +3.6249407e-006    +5.0296979e-008
+2.7200000e+002    +4.6101027e-006    +4.6904560e-008
+2.7300000e+002    +4.8734623e-006    +4.5531788e-008
+2.7400000e+002    +4.2951133e-006    +4.5601428e-008
+2.7500000e+002    +3.5833391e-006    +4.5566594e-008
+2.7600000e+002    +2.8219674e-006    +4.4740080e-008
+2.7700000e+002    +2.6542371e-006    +4.5888520e-008
+2.7800000e+002    +2.3074965e-006    +4.4914955e-008
+2.7900000e+002    +1.7524039e-006    +5.0545271e-008
+2.8000000e+002    +1.4521903e-006    +4.8621690e-008
+2.8100000e+002    +1.4840995e-006    +4.6674511e-008
+2.8200000e+002    +1.5963683e-006    +4.6600775e-008
+2.8300000e+002    +1.0705850e-006    +4.6780148e-008
+2.8400000e+002    +8.7582652e-007    +4.8767809e-008
+2.8500000e+002    +7.4674983e-007    +4.7662507e-008
+2.8600000e+002    +6.6704604e-007    +4.9874807e-008
+2.8700000e+002    +5.9144776e-007    +5.2077144e-008
+2.8800000e+002    +5.2053076e-007    +5.0046832e-008
+2.8900000e+002    +4.9647304e-007    +5.0389122e-008
+2.9000000e+002    +4.5410670e-007    +5.1106717e-008
+2.9100000e+002    +4.1337978e-007    +4.8465790e-008
+2.9200000e+002    +3.8997459e-007    +4.9295220e-008
+2.9300000e+002    +3.4420907e-007    +4.5153826e-008
+2.9400000e+002    +2.9122563e-007    +5.0073215e-008
+2.9500000e+002    +2.5440698e-007    +5.0252211e-008
+2.9600000e+002    +2.7010486e-007    +5.4503388e-008
+2.9700000e+002    +2.7517535e-007    +5.1804260e-008
+2.9800000e+002    +2.2107622e-007    +5.3318821e-008
+2.9900000e+002    +2.2889400e-007    +5.6399660e-008
+3.0000000e+002    +2.3777979e-007    +5.7212837e-008
+3.0100000e+002    +1.9668501e-007    +5.1205006e-008
+3.0200000e+002    +1.7839231e-007    +5.0000640e-008
+3.0300000e+002    +1.6576284e-007    +4.8005880e-008
+3.0400000e+002    +1.5656305e-007    +4.8782482e-008
+3.0500000e+002    +1.3994027e-007    +5.4540862e-008
+3.0600000e+002    +1.2875047e-007    +5.6945925e-008
+3.0700000e+002    +1.1645785e-007    +5.4048222e-008
+3.0800000e+002    +1.1087440e-007    +5.2486598e-008
+3.0900000e+002    +1.2379031e-007    +5.3683138e-008
+3.1000000e+002    +1.2409596e-007    +5.2716981e-008
+3.1100000e+002    +1.1457457e-007    +5.2221260e-008
+3.1200000e+002    +1.0924621e-007    +5.5070753e-008
+3.1300000e+002    +9.7997230e-008    +5.1867719e-008
+3.1400000e+002    +9.2206342e-008    +4.8440892e-008
+3.1500000e+002    +9.5723074e-008    +5.3980081e-008
+3.1600000e+002    +9.4706103e-008    +5.7411182e-008
+3.1700000e+002    +9.0033843e-008    +5.4974457e-008
+3.1800000e+002    +8.7757556e-008    +5.2257452e-008
+3.1900000e+002    +8.1824126e-008    +5.4614087e-008
+3.2000000e+002    +7.9809098e-008    +5.4290286e-008
+3.2100000e+002    +8.3619945e-008    +5.6390064e-008
+3.2200000e+002    +8.5223647e-008    +5.4806673e-008
+3.2300000e+002    +8.8402210e-008    +6.2088091e-008
+3.2400000e+002    +8.4225420e-008    +6.1068214e-008
+3.2500000e+002    +8.4247894e-008    +5.3916640e-008
+3.2600000e+002    +8.5503039e-008    +5.5467499e-008
+3.2700000e+002    +8.3155022e-008    +5.4648279e-008
+3.2800000e+002    +8.2202774e-008    +5.3691686e-008
+3.2900000e+002    +9.3618283e-008    +6.1936127e-008
+3.3000000e+002    +9.6523799e-008    +6.6181251e-008
+3.3100000e+002    +9.4010424e-008    +6.0963437e-008
+3.3200000e+002    +8.9825207e-008    +5.8152683e-008
+3.3300000e+002    +9.1314114e-008    +5.9600573e-008
+3.3400000e+002    +1.0199665e-007    +6.2366780e-008
+3.3500000e+002    +1.0080429e-007    +6.2995390e-008
+3.3600000e+002    +1.0580881e-007    +6.3560790e-008
+3.3700000e+002    +1.0464159e-007    +5.9083181e-008
+3.3800000e+002    +1.0490191e-007    +6.0821435e-008
+3.3900000e+002    +1.0348953e-007    +6.0512100e-008
+3.4000000e+002    +9.5769010e-008    +6.0934596e-008
+3.4100000e+002    +1.0391616e-007    +5.8254230e-008
+3.4200000e+002    +1.2687677e-007    +5.9988572e-008
+3.4300000e+002    +1.3104679e-007    +6.4514751e-008
+3.4400000e+002    +1.3352135e-007    +6.1917767e-008
+3.4500000e+002    +1.7408421e-007    +6.1750278e-008
+3.4600000e+002    +1.9582137e-007    +6.5079988e-008
+3.4700000e+002    +1.9916649e-007    +6.2051903e-008
+3.4800000e+002    +2.4205551e-007    +6.0505990e-008
+3.4900000e+002    +3.3865388e-007    +6.3316584e-008
+3.5000000e+002    +3.0834474e-007    +6.7653509e-008
+3.5100000e+002    +2.8467574e-007    +6.5749731e-008
+3.5200000e+002    +3.2649027e-007    +6.6214398e-008
+3.5300000e+002    +3.2361621e-007    +6.8332398e-008
+3.5400000e+002    +2.5563506e-007    +6.3128120e-008
+3.5500000e+002    +2.0185561e-007    +6.6414117e-008
+3.5600000e+002    +2.1172832e-007    +6.5536398e-008
+3.5700000e+002    +2.0544046e-007    +6.4065247e-008
+3.5800000e+002    +1.7374317e-007    +6.4751482e-008
+3.5900000e+002    +1.6615607e-007    +6.3256550e-008
+3.6000000e+002    +1.6355293e-007    +6.5262526e-008
+3.6100000e+002    +1.3096063e-007    +6.2563416e-008
+3.6200000e+002    +1.0136421e-007    +6.1903421e-008
+3.6300000e+002    +9.9607483e-008    +6.7495698e-008
+3.6400000e+002    +9.7805142e-008    +6.9721331e-008
+3.6500000e+002    +9.9544948e-008    +7.1497361e-008
+3.6600000e+002    +8.3163151e-008    +7.4010316e-008
+3.6700000e+002    +8.3363084e-008    +7.1307092e-008
+3.6800000e+002    +8.2477605e-008    +6.7001587e-008
+3.6900000e+002    +8.6712411e-008    +6.7579641e-008
+3.7000000e+002    +8.8943324e-008    +6.8546029e-008
+3.7100000e+002    +9.9600811e-008    +7.0148488e-008
+3.7200000e+002    +1.0236688e-007    +7.2568284e-008
+3.7300000e+002    +9.6691494e-008    +6.5341183e-008
+3.7400000e+002    +9.6271265e-008    +6.9262391e-008
+3.7500000e+002    +1.0179170e-007    +7.0203349e-008
+3.7600000e+002    +9.7019672e-008    +7.1889922e-008
+3.7700000e+002    +9.5661818e-008    +7.3350115e-008
+3.7800000e+002    +8.9468010e-008    +6.9985163e-008
+3.7900000e+002    +9.9948522e-008    +7.2154592e-008
+3.8000000e+002    +9.7026806e-008    +7.3687204e-008
+3.8100000e+002    +9.6597589e-008    +7.0970998e-008
+3.8200000e+002    +1.0052808e-007    +7.5293272e-008
+3.8300000e+002    +9.1631279e-008    +8.1189100e-008
+3.8400000e+002    +9.2292531e-008    +7.9174150e-008
+3.8500000e+002    +9.2446790e-008    +7.6370981e-008
+3.8600000e+002    +1.0334509e-007    +8.0207833e-008
+3.8700000e+002    +1.1517797e-007    +8.0900350e-008
+3.8800000e+002    +1.1844789e-007    +7.4018928e-008
+3.8900000e+002    +1.1063192e-007    +7.5806902e-008
+3.9000000e+002    +1.1378740e-007    +8.0307231e-008
+3.9100000e+002    +1.0187008e-007    +8.1786673e-008
+3.9200000e+002    +9.5541424e-008    +7.2087438e-008
+3.9300000e+002    +9.5820447e-008    +7.0668207e-008
+3.9400000e+002    +8.8849141e-008    +7.5480671e-008
+3.9500000e+002    +8.3731479e-008    +7.6876177e-008
+3.9600000e+002    +7.6985899e-008    +7.1536306e-008
+3.9700000e+002    +7.5844369e-008    +6.6240503e-008
+3.9800000e+002    +7.0942868e-008    +7.0630513e-008
+3.9900000e+002    +7.7440554e-008    +7.5691553e-008
+4.0000000e+002    +8.3228095e-008    +7.7119147e-008
+4.0100000e+002    +8.0800660e-008    +7.4345785e-008
+4.0200000e+002    +8.0713320e-008    +8.3759431e-008
+4.0300000e+002    +8.8028827e-008    +8.3030308e-008
+4.0400000e+002    +9.6789854e-008    +7.7941444e-008
+4.0500000e+002    +9.8989965e-008    +8.3778559e-008
+4.0600000e+002    +9.2428927e-008    +8.6111179e-008
+4.0700000e+002    +8.8570189e-008    +7.7500353e-008
+4.0800000e+002    +8.6103427e-008    +7.2695080e-008
+4.0900000e+002    +9.0094957e-008    +8.1398319e-008
+4.1000000e+002    +8.6571333e-008    +9.0267143e-008
+4.1100000e+002    +7.9697536e-008    +8.7003372e-008
+4.1200000e+002    +8.0439683e-008    +8.3929280e-008
+4.1300000e+002    +8.2304645e-008    +8.1244657e-008
+4.1400000e+002    +7.4449773e-008    +8.2994852e-008
+4.1500000e+002    +7.1385820e-008    +7.9719854e-008
+4.1600000e+002    +7.0931655e-008    +7.8589885e-008
+4.1700000e+002    +6.9737560e-008    +7.7116773e-008
+4.1800000e+002    +7.1310303e-008    +7.8896981e-008
+4.1900000e+002    +8.1547796e-008    +8.6306358e-008
+4.2000000e+002    +1.1075662e-007    +9.1317624e-008
+4.2100000e+002    +8.3851816e-008    +8.1552905e-008
+4.2200000e+002    +6.7622466e-008    +8.9567678e-008
+4.2300000e+002    +6.8769317e-008    +8.7406470e-008
+4.2400000e+002    +6.7120574e-008    +8.2874656e-008
+4.2500000e+002    +7.1181702e-008    +8.1332303e-008
+4.2600000e+002    +7.2334572e-008    +8.8019156e-008
+4.2700000e+002    +7.6125858e-008    +8.7065011e-008
+4.2800000e+002    +7.5265007e-008    +8.0441545e-008
+4.2900000e+002    +6.7172181e-008    +8.3263927e-008
+4.3000000e+002    +6.5794069e-008    +7.8883126e-008
+4.3100000e+002    +6.5650255e-008    +8.5974953e-008
+4.3200000e+002    +6.7064072e-008    +8.3635648e-008
+4.3300000e+002    +6.2328446e-008    +8.9773444e-008
+4.3400000e+002    +7.0228097e-008    +9.0265260e-008
+4.3500000e+002    +8.0492782e-008    +9.3067833e-008
+4.3600000e+002    +8.1023558e-008    +9.1234043e-008
+4.3700000e+002    +8.8368047e-008    +8.4958685e-008
+4.3800000e+002    +1.0176331e-007    +8.2198980e-008
+4.3900000e+002    +1.0905961e-007    +7.8208387e-008
+4.4000000e+002    +1.2043623e-007    +8.3338648e-008
+4.4100000e+002    +1.3598516e-007    +9.2214741e-008
+4.4200000e+002    +1.4914600e-007    +9.2572336e-008
+4.4300000e+002    +1.6666529e-007    +8.7322348e-008
+4.4400000e+002    +1.6913290e-007    +8.4255660e-008
+4.4500000e+002    +1.5483765e-007    +9.1540180e-008
+4.4600000e+002    +1.3990125e-007    +8.6827399e-008
+4.4700000e+002    +1.2834765e-007    +8.6662915e-008
+4.4800000e+002    +1.1524173e-007    +9.6402950e-008
+4.4900000e+002    +1.1240152e-007    +1.0622611e-007
+4.5000000e+002    +9.3487529e-008    +1.0222795e-007
+4.5100000e+002    +8.1903131e-008    +9.8260337e-008
+4.5200000e+002    +8.1245460e-008    +8.9599347e-008
+4.5300000e+002    +7.7283246e-008    +9.0486736e-008
+4.5400000e+002    +7.2421670e-008    +9.8614294e-008
+4.5500000e+002    +6.9901226e-008    +9.7381566e-008
+4.5600000e+002    +6.6317931e-008    +9.9323870e-008
+4.5700000e+002    +6.6225375e-008    +9.4948277e-008
+4.5800000e+002    +6.8664669e-008    +9.3649845e-008
+4.5900000e+002    +6.8953042e-008    +9.2095043e-008
+4.6000000e+002    +6.7432588e-008    +8.9854204e-008
+4.6100000e+002    +6.4904377e-008    +9.0317407e-008
+4.6200000e+002    +6.5558417e-008    +9.1811749e-008
+4.6300000e+002    +6.4323778e-008    +9.3044328e-008
+4.6400000e+002    +6.1614017e-008    +9.6355542e-008
+4.6500000e+002    +6.6123434e-008    +9.6385484e-008
+4.6600000e+002    +6.4700316e-008    +9.3880146e-008
+4.6700000e+002    +6.4744732e-008    +1.0129668e-007
+4.6800000e+002    +6.5506825e-008    +1.0327669e-007
+4.6900000e+002    +6.2474108e-008    +9.8542749e-008
+4.7000000e+002    +6.9187600e-008    +1.0341161e-007
+4.7100000e+002    +7.3999672e-008    +1.0184021e-007
+4.7200000e+002    +7.8142207e-008    +9.6907570e-008
+4.7300000e+002    +7.1807875e-008    +9.7195063e-008
+4.7400000e+002    +7.5769542e-008    +1.0066626e-007
+4.7500000e+002    +8.4789086e-008    +1.0411008e-007
+4.7600000e+002    +9.3970279e-008    +1.0078459e-007
+4.7700000e+002    +1.0504795e-007    +9.4851274e-008
+4.7800000e+002    +1.0495145e-007    +9.2910703e-008
+4.7900000e+002    +1.4750574e-007    +9.3247031e-008
+4.8000000e+002    +2.4629205e-007    +9.8284829e-008
+4.8100000e+002    +1.7289464e-007    +9.9280584e-008
+4.8200000e+002    +9.9784373e-008    +9.9607924e-008
+4.8300000e+002    +1.2050117e-007    +1.0347896e-007
+4.8400000e+002    +1.3938363e-007    +1.0498614e-007
+4.8500000e+002    +1.4708267e-007    +1.0356557e-007
+4.8600000e+002    +1.6112763e-007    +1.0552851e-007
+4.8700000e+002    +1.7501581e-007    +1.1095209e-007
+4.8800000e+002    +1.9002405e-007    +1.2190068e-007
+4.8900000e+002    +2.0589366e-007    +1.1046418e-007
+4.9000000e+002    +2.1367954e-007    +9.6080235e-008
+4.9100000e+002    +2.2139224e-007    +1.0120641e-007
+4.9200000e+002    +2.1937734e-007    +1.0827466e-007
+4.9300000e+002    +2.2230567e-007    +1.0290238e-007
+4.9400000e+002    +2.1252509e-007    +1.0370826e-007
+4.9500000e+002    +2.2188478e-007    +1.0329008e-007
+4.9600000e+002    +2.2077616e-007    +1.1121627e-007
+4.9700000e+002    +2.0740818e-007    +1.0815798e-007
+4.9800000e+002    +1.8837281e-007    +1.0141598e-007
+4.9900000e+002    +1.8837095e-007    +1.0281813e-007
+5.0000000e+002    +1.6699592e-007    +9.7259964e-008
+5.0100000e+002    +1.6492938e-007    +1.0948228e-007
+5.0200000e+002    +1.5936311e-007    +1.0906847e-007
+5.0300000e+002    +1.6555785e-007    +1.0294136e-007
+5.0400000e+002    +1.9553069e-007    +1.0307109e-007
+5.0500000e+002    +2.3530474e-007    +1.0946617e-007
+5.0600000e+002    +2.6722614e-007    +1.2309137e-007
+5.0700000e+002    +3.0868449e-007    +1.2128737e-007
+5.0800000e+002    +3.8521179e-007    +1.1208505e-007
+5.0900000e+002    +4.0413670e-007    +1.0741018e-007
+5.1000000e+002    +4.6793915e-007    +1.0872950e-007
+5.1100000e+002    +4.5482773e-007    +1.1323864e-007
+5.1200000e+002    +3.9319789e-007    +1.0984796e-007
+5.1300000e+002    +3.0958157e-007    +1.0261456e-007
+5.1400000e+002    +2.3014316e-007    +1.1333877e-007
+5.1500000e+002    +2.0053506e-007    +1.1162034e-007
+5.1600000e+002    +1.9894968e-007    +1.0728630e-007
+5.1700000e+002    +1.8168869e-007    +1.0942220e-007
+5.1800000e+002    +1.5750807e-007    +1.0998723e-007
+5.1900000e+002    +1.4960705e-007    +1.0897331e-007
+5.2000000e+002    +1.5350142e-007    +1.1530184e-007
+5.2100000e+002    +1.5401125e-007    +1.2185319e-007
+5.2200000e+002    +1.4946124e-007    +1.2686925e-007
+5.2300000e+002    +1.3341892e-007    +1.2081024e-007
+5.2400000e+002    +1.2974340e-007    +1.1391903e-007
+5.2500000e+002    +1.3643832e-007    +1.1407724e-007
+5.2600000e+002    +1.8461837e-007    +1.1821818e-007
+5.2700000e+002    +2.7247765e-007    +1.1305602e-007
+5.2800000e+002    +4.4473600e-007    +1.1918392e-007
+5.2900000e+002    +6.1019091e-007    +1.1608432e-007
+5.3000000e+002    +7.3013524e-007    +1.1037204e-007
+5.3100000e+002    +8.6890822e-007    +1.2727260e-007
+5.3200000e+002    +1.0746762e-006    +1.1641247e-007
+5.3300000e+002    +1.1274489e-006    +1.1035823e-007
+5.3400000e+002    +1.1043411e-006    +1.1633913e-007
+5.3500000e+002    +1.1146248e-006    +1.2256999e-007
+5.3600000e+002    +1.0068394e-006    +1.2347904e-007
+5.3700000e+002    +9.7040765e-007    +1.1668401e-007
+5.3800000e+002    +9.5697430e-007    +1.2642178e-007
+5.3900000e+002    +8.5920033e-007    +1.1917842e-007
+5.4000000e+002    +8.5412682e-007    +1.2108286e-007
+5.4100000e+002    +9.9935573e-007    +1.2465776e-007
+5.4200000e+002    +1.1158370e-006    +1.3255729e-007
+5.4300000e+002    +1.2846101e-006    +1.3833804e-007
+5.4400000e+002    +1.5010559e-006    +1.2884523e-007
+5.4500000e+002    +1.9014302e-006    +1.2673421e-007
+5.4600000e+002    +2.3338298e-006    +1.3301245e-007
+5.4700000e+002    +2.5673853e-006    +1.2984829e-007
+5.4800000e+002    +2.5452489e-006    +1.2597465e-007
+5.4900000e+002    +2.1252206e-006    +1.2782198e-007
+5.5000000e+002    +1.7797033e-006    +1.2369439e-007
+5.5100000e+002    +1.3369329e-006    +1.1856096e-007
+5.5200000e+002    +1.1136058e-006    +1.1586365e-007
+5.5300000e+002    +1.0110645e-006    +1.1962520e-007
+5.5400000e+002    +7.9437115e-007    +1.2494648e-007
+5.5500000e+002    +6.2506291e-007    +1.2997509e-007
+5.5600000e+002    +5.6385790e-007    +1.2493345e-007
+5.5700000e+002    +5.5079943e-007    +1.2654176e-007
+5.5800000e+002    +5.6662395e-007    +1.3223749e-007
+5.5900000e+002    +5.4560746e-007    +1.2410726e-007
+5.6000000e+002    +4.9966997e-007    +1.3597561e-007
+5.6100000e+002    +4.7263018e-007    +1.4451759e-007
+5.6200000e+002    +4.2031070e-007    +1.3847755e-007
+5.6300000e+002    +4.0370207e-007    +1.3551328e-007
+5.6400000e+002    +3.9654444e-007    +1.3690875e-007
+5.6500000e+002    +3.7556828e-007    +1.3423619e-007
+5.6600000e+002    +3.7250874e-007    +1.2978572e-007
+5.6700000e+002    +3.4232426e-007    +1.3874600e-007
+5.6800000e+002    +3.7498279e-007    +1.3848181e-007
+5.6900000e+002    +3.6214479e-007    +1.3893153e-007
+5.7000000e+002    +4.1110081e-007    +1.3516230e-007
+5.7100000e+002    +4.8767487e-007    +1.3753188e-007
+5.7200000e+002    +5.2596727e-007    +1.4056532e-007
+5.7300000e+002    +5.8919284e-007    +1.3515131e-007
+5.7400000e+002    +6.8996434e-007    +1.2936233e-007
+5.7500000e+002    +7.2808831e-007    +1.2634810e-007
+5.7600000e+002    +8.4118119e-007    +1.4063355e-007
+5.7700000e+002    +8.9611842e-007    +1.3370841e-007
+5.7800000e+002    +8.3685615e-007    +1.2731732e-007
+5.7900000e+002    +7.4821151e-007    +1.2740304e-007
+5.8000000e+002    +6.2703356e-007    +1.3189137e-007
+5.8100000e+002    +5.2058164e-007    +1.3432745e-007
+5.8200000e+002    +4.0997350e-007    +1.4195498e-007
+5.8300000e+002    +3.5181299e-007    +1.4553173e-007
+5.8400000e+002    +3.4190654e-007    +1.2722133e-007
+5.8500000e+002    +3.2824934e-007    +1.2939756e-007
+5.8600000e+002    +3.0019316e-007    +1.3759926e-007
+5.8700000e+002    +2.6033015e-007    +1.3438955e-007
+5.8800000e+002    +2.5465906e-007    +1.2715303e-007
+5.8900000e+002    +2.3699630e-007    +1.2643594e-007
+5.9000000e+002    +1.9575947e-007    +1.4506844e-007
+5.9100000e+002    +1.5913773e-007    +1.4176932e-007
+5.9200000e+002    +1.6105069e-007    +1.3877830e-007
+5.9300000e+002    +1.6603899e-007    +1.4389582e-007
+5.9400000e+002    +1.6496470e-007    +1.3496107e-007
+5.9500000e+002    +1.6832868e-007    +1.2616775e-007
+5.9600000e+002    +1.5818588e-007    +1.3020392e-007
+5.9700000e+002    +1.2344556e-007    +1.3862800e-007
+5.9800000e+002    +1.2093911e-007    +1.5144367e-007
+5.9900000e+002    +1.3859345e-007    +1.3935914e-007
+6.0000000e+002    +1.4688514e-007    +1.3386030e-007
+6.0100000e+002    +1.7663761e-007    +1.3999927e-007
+6.0200000e+002    +2.2483941e-007    +1.4021018e-007
+6.0300000e+002    +2.6861932e-007    +1.4306309e-007
+6.0400000e+002    +2.5274707e-007    +1.3564845e-007
+6.0500000e+002    +2.7774877e-007    +1.2431387e-007
+6.0600000e+002    +2.8042447e-007    +1.3581878e-007
+6.0700000e+002    +2.0416502e-007    +1.3840777e-007
+6.0800000e+002    +1.2054484e-007    +1.4062938e-007
+6.0900000e+002    +9.2059864e-008    +1.4173523e-007
+6.1000000e+002    +8.0855507e-008    +1.3422601e-007
+6.1100000e+002    +6.9371382e-008    +1.3330852e-007
+6.1200000e+002    +6.5794652e-008    +1.4681743e-007
+6.1300000e+002    +6.7347642e-008    +1.5141391e-007
+6.1400000e+002    +7.9802085e-008    +1.5364711e-007
+6.1500000e+002    +6.5348210e-008    +1.5880627e-007
+6.1600000e+002    +5.5483945e-008    +1.5488304e-007
+6.1700000e+002    +5.8207490e-008    +1.4584909e-007
+6.1800000e+002    +5.1785438e-008    +1.4461409e-007
+6.1900000e+002    +4.8970954e-008    +1.5391608e-007
+6.2000000e+002    +5.2233588e-008    +1.4170816e-007
+6.2100000e+002    +5.0986607e-008    +1.3760771e-007
+6.2200000e+002    +5.7350132e-008    +1.4039303e-007
+6.2300000e+002    +5.4858990e-008    +1.5058049e-007
+6.2400000e+002    +5.0633087e-008    +1.5165216e-007
+6.2500000e+002    +5.4967998e-008    +1.6259182e-007
+6.2600000e+002    +5.9705563e-008    +1.4953872e-007
+6.2700000e+002    +5.3756924e-008    +1.5107548e-007
+6.2800000e+002    +5.0786642e-008    +1.6002079e-007
+6.2900000e+002    +5.3061687e-008    +1.5769807e-007
+6.3000000e+002    +5.6383687e-008    +1.6197282e-007
+6.3100000e+002    +5.4687234e-008    +1.5250089e-007
+6.3200000e+002    +6.0747688e-008    +1.6074931e-007
+6.3300000e+002    +6.5949642e-008    +1.5961002e-007
+6.3400000e+002    +6.8585784e-008    +1.5995106e-007
+6.3500000e+002    +6.9434165e-008    +1.5934982e-007
+6.3600000e+002    +7.7344453e-008    +1.6120443e-007
+6.3700000e+002    +7.8252533e-008    +1.6524496e-007
+6.3800000e+002    +7.0777311e-008    +1.6559748e-007
+6.3900000e+002    +7.8548915e-008    +1.5749458e-007
+6.4000000e+002    +8.4577557e-008    +1.5651098e-007
+6.4100000e+002    +7.7972942e-008    +1.5018637e-007
+6.4200000e+002    +8.9397801e-008    +1.6259663e-007
+6.4300000e+002    +9.6808556e-008    +1.5273883e-007
+6.4400000e+002    +1.0802886e-007    +1.6119645e-007
+6.4500000e+002    +1.4229485e-007    +1.7270435e-007
+6.4600000e+002    +1.5672782e-007    +1.6653853e-007
+6.4700000e+002    +1.6298181e-007    +1.6710413e-007
+6.4800000e+002    +1.6745750e-007    +1.5907817e-007
+6.4900000e+002    +1.8305590e-007    +1.5262148e-007
+6.5000000e+002    +1.9425194e-007    +1.5628413e-007
+6.5100000e+002    +2.3959618e-007    +1.4969561e-007
+6.5200000e+002    +2.5388516e-007    +1.5010475e-007
+6.5300000e+002    +2.0165847e-007    +1.5667912e-007
+6.5400000e+002    +1.7388803e-007    +1.6475997e-007
+6.5500000e+002    +1.4840701e-007    +1.5326970e-007
+6.5600000e+002    +1.2252788e-007    +1.5477968e-007
+6.5700000e+002    +9.8779225e-008    +1.6888016e-007
+6.5800000e+002    +8.6357353e-008    +1.7062524e-007
+6.5900000e+002    +8.4650580e-008    +1.6834311e-007
+6.6000000e+002    +7.5866438e-008    +1.5762502e-007
+6.6100000e+002    +7.0944118e-008    +1.6346388e-007
+6.6200000e+002    +6.7760780e-008    +1.5648486e-007
+6.6300000e+002    +6.8335552e-008    +1.6332037e-007
+6.6400000e+002    +7.7689400e-008    +1.5864525e-007
+6.6500000e+002    +7.8964405e-008    +1.6442348e-007
+6.6600000e+002    +8.1801311e-008    +1.6013345e-007
+6.6700000e+002    +9.2103946e-008    +1.6498535e-007
+6.6800000e+002    +9.6440957e-008    +1.6706744e-007
+6.6900000e+002    +1.0525553e-007    +1.5493458e-007
+6.7000000e+002    +1.1138638e-007    +1.6157921e-007
+6.7100000e+002    +1.0842753e-007    +1.7570741e-007
+6.7200000e+002    +1.1185626e-007    +1.7147185e-007
+6.7300000e+002    +1.0056815e-007    +1.7295235e-007
+6.7400000e+002    +9.5143321e-008    +1.7589599e-007
+6.7500000e+002    +9.4739484e-008    +1.6579123e-007
+6.7600000e+002    +8.8278640e-008    +1.5906507e-007
+6.7700000e+002    +8.1026670e-008    +1.7840172e-007
+6.7800000e+002    +8.9381807e-008    +1.8042655e-007
+6.7900000e+002    +9.8023271e-008    +1.7149351e-007
+6.8000000e+002    +1.0109812e-007    +1.7641898e-007
+6.8100000e+002    +9.4323077e-008    +1.8909269e-007
+6.8200000e+002    +1.0077618e-007    +1.6371534e-007
+6.8300000e+002    +1.0946353e-007    +1.6268056e-007
+6.8400000e+002    +1.2052763e-007    +1.6645589e-007
+6.8500000e+002    +1.4764510e-007    +1.7357215e-007
+6.8600000e+002    +1.7930483e-007    +1.8085396e-007
+6.8700000e+002    +2.1092829e-007    +1.8357841e-007
+6.8800000e+002    +2.2367526e-007    +1.9647263e-007
+6.8900000e+002    +2.4071497e-007    +1.9097784e-007
+6.9000000e+002    +2.3237020e-007    +1.6496270e-007
+6.9100000e+002    +2.1261052e-007    +1.7935230e-007
+6.9200000e+002    +2.1768125e-007    +1.8783790e-007
+6.9300000e+002    +2.2257065e-007    +1.8114689e-007
+6.9400000e+002    +2.1256244e-007    +1.7938420e-007
+6.9500000e+002    +2.0086361e-007    +1.7385003e-007
+6.9600000e+002    +2.0578518e-007    +1.7613003e-007
+6.9700000e+002    +1.9777643e-007    +1.8013539e-007
+6.9800000e+002    +1.8842846e-007    +1.8207970e-007
+6.9900000e+002    +1.9791371e-007    +2.0330002e-007
+7.0000000e+002    +1.9302456e-007    +1.8905574e-007
+7.0100000e+002    +1.9502640e-007    +1.7034671e-007
+7.0200000e+002    +2.9951789e-007    +1.9023156e-007
+7.0300000e+002    +2.7488153e-007    +1.8355604e-007
+7.0400000e+002    +2.1240776e-007    +1.8304887e-007
+7.0500000e+002    +2.1084308e-007    +1.8498665e-007
+7.0600000e+002    +2.4126322e-007    +1.8103098e-007
+7.0700000e+002    +2.3072407e-007    +1.7534933e-007
+7.0800000e+002    +2.0694527e-007    +1.7362818e-007
+7.0900000e+002    +2.1320498e-007    +1.9063823e-007
+7.1000000e+002    +2.0530426e-007    +1.8654062e-007
+7.1100000e+002    +2.2309594e-007    +1.7115661e-007
+7.1200000e+002    +2.3535227e-007    +1.7812809e-007
+7.1300000e+002    +2.3912443e-007    +1.9623225e-007
+7.1400000e+002    +2.2939794e-007    +1.7850812e-007
+7.1500000e+002    +2.2134461e-007    +1.8385677e-007
+7.1600000e+002    +1.7228011e-007    +1.8035644e-007
+7.1700000e+002    +1.4473656e-007    +1.7830224e-007
+7.1800000e+002    +1.5275812e-007    +1.8764763e-007
+7.1900000e+002    +1.4671510e-007    +2.0138100e-007
+7.2000000e+002    +1.6447892e-007    +1.8822789e-007
+7.2100000e+002    +1.4872657e-007    +1.9874052e-007
+7.2200000e+002    +1.2138969e-007    +2.0124374e-007
+7.2300000e+002    +1.0478381e-007    +1.8689775e-007
+7.2400000e+002    +9.7822863e-008    +1.7680196e-007
+7.2500000e+002    +9.5496958e-008    +1.8835958e-007
+7.2600000e+002    +9.2793357e-008    +1.8426196e-007
+7.2700000e+002    +9.2538798e-008    +1.8049471e-007
+7.2800000e+002    +8.8731760e-008    +1.9602595e-007
+7.2900000e+002    +8.3897767e-008    +2.1204518e-007
+7.3000000e+002    +8.6142954e-008    +2.0331140e-007
+7.3100000e+002    +8.3330143e-008    +1.7908881e-007
+7.3200000e+002    +7.3989838e-008    +1.7406948e-007
+7.3300000e+002    +7.7939049e-008    +1.7778225e-007
+7.3400000e+002    +7.9280710e-008    +1.9186012e-007
+7.3500000e+002    +7.7302509e-008    +2.0598071e-007
+7.3600000e+002    +7.0731943e-008    +1.9431337e-007
+7.3700000e+002    +7.0727204e-008    +1.8666478e-007
+7.3800000e+002    +7.2377389e-008    +1.9331746e-007
+7.3900000e+002    +6.8619222e-008    +1.9576785e-007
+7.4000000e+002    +5.9694550e-008    +1.8753455e-007
+7.4100000e+002    +5.3232895e-008    +1.9145884e-007
+7.4200000e+002    +5.5177459e-008    +1.8638625e-007
+7.4300000e+002    +5.9263211e-008    +1.8160094e-007
+7.4400000e+002    +5.6641497e-008    +1.9543862e-007
+7.4500000e+002    +5.6905236e-008    +2.0926556e-007
+7.4600000e+002    +6.3101581e-008    +1.9598657e-007
+7.4700000e+002    +6.9935084e-008    +2.0295812e-007
+7.4800000e+002    +6.6189536e-008    +2.0263792e-007
+7.4900000e+002    +6.0503069e-008    +1.9294342e-007
+7.5000000e+002    +6.4508797e-008    +1.7850518e-007
+7.5100000e+002    +6.6785212e-008    +1.9064431e-007
+7.5200000e+002    +5.7290976e-008    +1.8341622e-007
+7.5300000e+002    +5.5462017e-008    +2.0576348e-007
+7.5400000e+002    +5.7123270e-008    +2.0537166e-007
+7.5500000e+002    +5.4593645e-008    +2.0764514e-007
+7.5600000e+002    +5.4583694e-008    +1.9915403e-007
+7.5700000e+002    +5.4389684e-008    +1.9349925e-007
+7.5800000e+002    +5.5103172e-008    +2.0171869e-007
+7.5900000e+002    +4.9836213e-008    +1.8228553e-007
+7.6000000e+002    +5.1872618e-008    +1.8977053e-007
+7.6100000e+002    +5.2434181e-008    +1.8378189e-007
+7.6200000e+002    +5.1401766e-008    +2.0030906e-007
+7.6300000e+002    +5.4952249e-008    +2.0956217e-007
+7.6400000e+002    +5.6761341e-008    +2.0495899e-007
+7.6500000e+002    +5.2669655e-008    +1.9567565e-007
+7.6600000e+002    +5.6849469e-008    +2.0051040e-007
+7.6700000e+002    +5.6997344e-008    +2.0718376e-007
+7.6800000e+002    +5.4068700e-008    +2.1146742e-007
+7.6900000e+002    +5.2052563e-008    +2.1302807e-007
+7.7000000e+002    +5.1756846e-008    +2.0226405e-007
+7.7100000e+002    +4.9155833e-008    +2.0254539e-007
+7.7200000e+002    +4.6838789e-008    +1.9763685e-007
+7.7300000e+002    +4.5950635e-008    +1.8675989e-007
+7.7400000e+002    +4.8608985e-008    +1.9876147e-007
+7.7500000e+002    +4.7853060e-008    +2.2076331e-007
+7.7600000e+002    +4.3421931e-008    +2.0543843e-007
+7.7700000e+002    +4.2146091e-008    +1.9716241e-007
+7.7800000e+002    +4.6632714e-008    +2.0142700e-007
+7.7900000e+002    +5.3987193e-008    +1.9009626e-007
+7.8000000e+002    +5.7733118e-008    +1.7841035e-007
+7.8100000e+002    +5.3282481e-008    +2.1920374e-007
+7.8200000e+002    +5.5326449e-008    +2.1858992e-007
+7.8300000e+002    +5.3294418e-008    +2.0243223e-007
+7.8400000e+002    +5.4989428e-008    +1.9913479e-007
+7.8500000e+002    +5.4419672e-008    +1.9413552e-007
+7.8600000e+002    +5.4029947e-008    +1.9114020e-007
+7.8700000e+002    +5.3620930e-008    +2.0284205e-007
+7.8800000e+002    +5.3841216e-008    +2.1073130e-007
+7.8900000e+002    +5.6080356e-008    +1.9721503e-007
+7.9000000e+002    +5.1934848e-008    +1.9441816e-007
+7.9100000e+002    +5.2166989e-008    +2.1110135e-007
+7.9200000e+002    +5.8017800e-008    +2.2400705e-007
+7.9300000e+002    +5.5320434e-008    +2.2129844e-007
+7.9400000e+002    +5.1508316e-008    +2.1275507e-007
+7.9500000e+002    +5.1305516e-008    +2.0727590e-007
+7.9600000e+002    +5.3089657e-008    +2.0287057e-007
+7.9700000e+002    +5.0192714e-008    +2.0359845e-007
+7.9800000e+002    +5.2497835e-008    +2.1597407e-007
+7.9900000e+002    +5.5616358e-008    +2.0765722e-007
#
#
# North DC Val: 0.84307737 VoltsSouth DC Val: 0.5729127900000001 Volts
# SR785 Measurement - Timestamp: May 06 2020 - 22:56:56
# Parameter File: /home/controls/Git/cit_ctnlab/ctn_scripts/TransRINSpecShort.yml
#---------- Measurement Setup ------------
# Start Frequency (Hz): 0.000000
# Frequency Span (Hz): 102400.000000
# Frequency Resolution: 800
# Number of Averages: 100
# Averaging Mode: RMS
# Window function: Hanning
#---------- Measurement Parameters ----------
# Measurement Group:  "FFT" "FFT"
# Measurements:  "FFT 1" "FFT 2"
# View:  "Log Magnitude" "Log Magnitude"
# Unit:  "Vrms/rtHz" "Vrms/rtHz"
#---------- Input Parameters ----------
# Input Source: Analog
# Input Mode: Single ended, Single ended
# Input Grounding: Float, Float
# Input Coupling: AC, AC
# Input Range: -36.0dBVpk, -36.0dBVpk
# Auto Range: Off, Off
# Auto Range Mode: Tracking, Tracking
# Anti-Aliasing Filter: On, On
#---------- Source Parameters ----------
# Source Type: Sine
# Source Amplitude: 500.0mVpk
# Source On: 0

#---------- Measurement Data ----------
# [Freq(Hz) Display 0(Vrms/rtHz) Display 1(Vrms/rtHz) ]
+8.9600000e+002    +1.9473541e-007    +2.6159029e-007
+1.0240000e+003    +1.2916803e-007    +2.8757441e-007
+1.1520000e+003    +8.5732694e-008    +3.5279780e-007
+1.2800000e+003    +7.1364973e-008    +3.7825365e-007
+1.4080000e+003    +7.6803708e-008    +4.3251637e-007
+1.5360000e+003    +8.2580272e-008    +4.9663277e-007
+1.6640000e+003    +9.3977192e-008    +5.2188648e-007
+1.7920000e+003    +1.0891446e-007    +5.5451056e-007
+1.9200000e+003    +1.1890682e-007    +6.1413220e-007
+2.0480000e+003    +1.1839744e-007    +6.6936144e-007
+2.1760000e+003    +1.3061815e-007    +6.6340141e-007
+2.3040000e+003    +1.4198974e-007    +6.8817508e-007
+2.4320000e+003    +1.5063556e-007    +7.7849251e-007
+2.5600000e+003    +1.6795060e-007    +8.1456164e-007
+2.6880000e+003    +1.7371151e-007    +7.9590592e-007
+2.8160000e+003    +1.8939294e-007    +7.3410945e-007
+2.9440000e+003    +2.0894369e-007    +6.7425185e-007
+3.0720000e+003    +2.1358267e-007    +7.0040130e-007
+3.2000000e+003    +2.1307416e-007    +7.1113737e-007
+3.3280000e+003    +2.1781130e-007    +6.7183760e-007
+3.4560000e+003    +2.4120919e-007    +6.4102750e-007
+3.5840000e+003    +2.5434750e-007    +7.1892367e-007
+3.7120000e+003    +2.8382624e-007    +6.9890558e-007
+3.8400000e+003    +2.9499540e-007    +6.9481678e-007
+3.9680000e+003    +3.0936954e-007    +6.6923945e-007
+4.0960000e+003    +3.3306949e-007    +6.1883583e-007
+4.2240000e+003    +3.4594055e-007    +5.8983687e-007
+4.3520000e+003    +3.5563883e-007    +5.4826774e-007
+4.4800000e+003    +3.7381861e-007    +5.9253063e-007
+4.6080000e+003    +3.7033800e-007    +5.8330966e-007
+4.7360000e+003    +3.4660664e-007    +5.6768010e-007
+4.8640000e+003    +4.0526888e-007    +5.4475629e-007
+4.9920000e+003    +4.0581969e-007    +5.0648543e-007
+5.1200000e+003    +3.7582032e-007    +5.1836918e-007
+5.2480000e+003    +4.3200805e-007    +4.8816878e-007
+5.3760000e+003    +4.7967842e-007    +4.8412392e-007
+5.5040000e+003    +4.9928337e-007    +5.1352407e-007
+5.6320000e+003    +5.0601739e-007    +5.5602436e-007
+5.7600000e+003    +5.3097466e-007    +5.2342153e-007
+5.8880000e+003    +5.1079843e-007    +5.1251470e-007
+6.0160000e+003    +4.9632206e-007    +4.5805211e-007
+6.1440000e+003    +5.2045135e-007    +4.4458807e-007
+6.2720000e+003    +5.2402299e-007    +4.6291740e-007
+6.4000000e+003    +5.3358821e-007    +4.8754640e-007
+6.5280000e+003    +5.8243933e-007    +4.6405324e-007
+6.6560000e+003    +5.9842404e-007    +4.1762610e-007
+6.7840000e+003    +6.1941836e-007    +4.3093030e-007
+6.9120000e+003    +6.5198572e-007    +4.4538837e-007
+7.0400000e+003    +6.8353938e-007    +4.1449690e-007
+7.1680000e+003    +6.6946581e-007    +4.0387232e-007
+7.2960000e+003    +6.4623640e-007    +4.3073874e-007
+7.4240000e+003    +6.4250088e-007    +4.7272098e-007
+7.5520000e+003    +6.7673193e-007    +5.2166075e-007
+7.6800000e+003    +7.2229574e-007    +4.9600504e-007
+7.8080000e+003    +7.4286544e-007    +4.3238722e-007
+7.9360000e+003    +7.0866031e-007    +4.6345087e-007
+8.0640000e+003    +6.9603999e-007    +4.8412181e-007
+8.1920000e+003    +7.3958813e-007    +4.5846167e-007
+8.3200000e+003    +7.8743284e-007    +4.4593051e-007
+8.4480000e+003    +7.1338178e-007    +4.5276249e-007
+8.5760000e+003    +8.0897598e-007    +4.7014794e-007
+8.7040000e+003    +8.3392013e-007    +4.9865719e-007
+8.8320000e+003    +8.1802477e-007    +5.0636197e-007
+8.9600000e+003    +8.3567261e-007    +5.0091523e-007
+9.0880000e+003    +8.3092141e-007    +4.5723760e-007
+9.2160000e+003    +8.5250036e-007    +4.6947116e-007
+9.3440000e+003    +8.9248636e-007    +4.8972134e-007
+9.4720000e+003    +8.2103372e-007    +4.8784784e-007
+9.6000000e+003    +9.3431294e-007    +4.7383563e-007
+9.7280000e+003    +9.3905714e-007    +4.8929462e-007
+9.8560000e+003    +9.1379508e-007    +5.3597034e-007
+9.9840000e+003    +9.1360647e-007    +5.2262561e-007
+1.0112000e+004    +9.2290202e-007    +5.2564167e-007
+1.0240000e+004    +9.8839655e-007    +5.1417061e-007
+1.0368000e+004    +9.3264435e-007    +4.9549226e-007
+1.0496000e+004    +9.8361147e-007    +4.7474225e-007
+1.0624000e+004    +9.5531664e-007    +4.9659570e-007
+1.0752000e+004    +9.9992974e-007    +5.2530993e-007
+1.0880000e+004    +1.0518518e-006    +5.3982626e-007
+1.1008000e+004    +1.0810242e-006    +5.0335541e-007
+1.1136000e+004    +9.8262706e-007    +5.5859130e-007
+1.1264000e+004    +9.5317097e-007    +5.5755515e-007
+1.1392000e+004    +1.0084569e-006    +5.1853715e-007
+1.1520000e+004    +9.7891734e-007    +5.1091342e-007
+1.1648000e+004    +1.0255735e-006    +5.6544127e-007
+1.1776000e+004    +9.8825330e-007    +6.0936071e-007
+1.1904000e+004    +1.0465791e-006    +5.8809349e-007
+1.2032000e+004    +1.1197704e-006    +5.7099129e-007
+1.2160000e+004    +1.1099511e-006    +5.8662380e-007
+1.2288000e+004    +1.0287437e-006    +5.8277897e-007
+1.2416000e+004    +1.0204460e-006    +5.8000091e-007
+1.2544000e+004    +1.0385354e-006    +5.5841713e-007
+1.2672000e+004    +1.0068118e-006    +5.1717080e-007
+1.2800000e+004    +1.0430230e-006    +5.7508908e-007
+1.2928000e+004    +9.9701583e-007    +5.7331749e-007
+1.3056000e+004    +9.6598228e-007    +5.7047743e-007
+1.3184000e+004    +9.9940951e-007    +5.9472450e-007
+1.3312000e+004    +9.9900353e-007    +6.2791821e-007
+1.3440000e+004    +1.0867985e-006    +6.1637564e-007
+1.3568000e+004    +1.0115986e-006    +5.7960563e-007
+1.3696000e+004    +1.0658068e-006    +5.8651239e-007
+1.3824000e+004    +1.1235364e-006    +6.2160740e-007
+1.3952000e+004    +1.0265277e-006    +6.3589897e-007
+1.4080000e+004    +1.0172411e-006    +6.1596700e-007
+1.4208000e+004    +1.0207642e-006    +6.0139593e-007
+1.4336000e+004    +9.7507279e-007    +6.1210193e-007
+1.4464000e+004    +1.0232272e-006    +6.0776978e-007
+1.4592000e+004    +9.9793135e-007    +6.4861490e-007
+1.4720000e+004    +1.0273418e-006    +6.3482952e-007
+1.4848000e+004    +1.0738377e-006    +6.5015354e-007
+1.4976000e+004    +1.0389791e-006    +6.5688613e-007
+1.5104000e+004    +1.0212755e-006    +6.3429309e-007
+1.5232000e+004    +9.7232419e-007    +6.5682053e-007
+1.5360000e+004    +1.0394469e-006    +6.3572725e-007
+1.5488000e+004    +1.0050711e-006    +6.4662254e-007
+1.5616000e+004    +9.6614031e-007    +7.1358232e-007
+1.5744000e+004    +9.0117413e-007    +6.8329024e-007
+1.5872000e+004    +9.3070690e-007    +6.5825287e-007
+1.6000000e+004    +9.5591679e-007    +6.5649391e-007
+1.6128000e+004    +8.9151774e-007    +6.4300616e-007
+1.6256000e+004    +8.3652361e-007    +6.3626140e-007
+1.6384000e+004    +8.4774564e-007    +6.9185097e-007
+1.6512000e+004    +9.4685203e-007    +6.8300147e-007
+1.6640000e+004    +9.0540902e-007    +6.7932410e-007
+1.6768000e+004    +9.6759572e-007    +7.0853116e-007
+1.6896000e+004    +9.8952694e-007    +6.3176174e-007
+1.7024000e+004    +9.0116424e-007    +6.4832869e-007
+1.7152000e+004    +9.2121138e-007    +6.7292211e-007
+1.7280000e+004    +9.3799781e-007    +7.1977269e-007
+1.7408000e+004    +8.7562654e-007    +6.8622614e-007
+1.7536000e+004    +8.7360036e-007    +6.6736322e-007
+1.7664000e+004    +9.2288178e-007    +6.7012331e-007
+1.7792000e+004    +8.6211082e-007    +7.3864760e-007
+1.7920000e+004    +8.9762898e-007    +7.2534829e-007
+1.8048000e+004    +8.4130681e-007    +6.8519995e-007
+1.8176000e+004    +7.7625367e-007    +7.0240742e-007
+1.8304000e+004    +8.2533501e-007    +7.0690328e-007
+1.8432000e+004    +8.3062679e-007    +6.9190793e-007
+1.8560000e+004    +8.2694413e-007    +6.9402995e-007
+1.8688000e+004    +8.1413964e-007    +7.8334028e-007
+1.8816000e+004    +8.3256793e-007    +7.6020530e-007
+1.8944000e+004    +8.6790038e-007    +6.9880127e-007
+1.9072000e+004    +7.8461250e-007    +6.2050134e-007
+1.9200000e+004    +8.0643258e-007    +6.7994870e-007
+1.9328000e+004    +8.5537312e-007    +6.9734961e-007
+1.9456000e+004    +8.2349840e-007    +6.6161635e-007
+1.9584000e+004    +8.4096791e-007    +6.8028396e-007
+1.9712000e+004    +8.1005055e-007    +7.1623782e-007
+1.9840000e+004    +7.4954028e-007    +6.5081633e-007
+1.9968000e+004    +7.7692988e-007    +6.3655489e-007
+2.0096000e+004    +7.4133362e-007    +6.7112319e-007
+2.0224000e+004    +7.3992766e-007    +7.1395459e-007
+2.0352000e+004    +7.2510625e-007    +7.3881711e-007
+2.0480000e+004    +7.6441199e-007    +6.9871152e-007
+2.0608000e+004    +7.4670885e-007    +7.0597093e-007
+2.0736000e+004    +7.4812692e-007    +7.4017794e-007
+2.0864000e+004    +7.6098615e-007    +7.2917709e-007
+2.0992000e+004    +7.2974257e-007    +7.1705222e-007
+2.1120000e+004    +6.9355082e-007    +7.1812372e-007
+2.1248000e+004    +6.8478033e-007    +7.0738076e-007
+2.1376000e+004    +6.5216256e-007    +7.9169109e-007
+2.1504000e+004    +6.8778530e-007    +8.7907995e-007
+2.1632000e+004    +7.1826406e-007    +7.7969349e-007
+2.1760000e+004    +6.9609888e-007    +7.1161384e-007
+2.1888000e+004    +6.5977667e-007    +7.0086128e-007
+2.2016000e+004    +7.3736652e-007    +7.4753325e-007
+2.2144000e+004    +7.1572055e-007    +8.0117172e-007
+2.2272000e+004    +7.2934603e-007    +8.1197214e-007
+2.2400000e+004    +7.4090644e-007    +7.5965045e-007
+2.2528000e+004    +7.1307090e-007    +7.0184927e-007
+2.2656000e+004    +7.2969368e-007    +7.7887466e-007
+2.2784000e+004    +7.0204811e-007    +8.0852396e-007
+2.2912000e+004    +6.6925418e-007    +8.3294464e-007
+2.3040000e+004    +7.1878395e-007    +7.6637002e-007
+2.3168000e+004    +6.7890807e-007    +7.0139322e-007
+2.3296000e+004    +6.4057934e-007    +7.2273446e-007
+2.3424000e+004    +6.3077408e-007    +7.3472467e-007
+2.3552000e+004    +6.7769855e-007    +7.0281089e-007
+2.3680000e+004    +7.6543324e-007    +7.4228819e-007
+2.3808000e+004    +7.5668783e-007    +7.3297542e-007
+2.3936000e+004    +7.4416511e-007    +7.0783761e-007
+2.4064000e+004    +6.7126177e-007    +7.3223782e-007
+2.4192000e+004    +7.1693410e-007    +7.8545031e-007
+2.4320000e+004    +6.6284809e-007    +7.7806436e-007
+2.4448000e+004    +6.3850507e-007    +7.7051436e-007
+2.4576000e+004    +6.1220948e-007    +7.5758396e-007
+2.4704000e+004    +6.1020967e-007    +7.2672657e-007
+2.4832000e+004    +6.4298428e-007    +7.8398733e-007
+2.4960000e+004    +6.5992015e-007    +8.2688513e-007
+2.5088000e+004    +6.7881115e-007    +7.4964805e-007
+2.5216000e+004    +6.0574388e-007    +6.5889498e-007
+2.5344000e+004    +5.8646276e-007    +7.1510863e-007
+2.5472000e+004    +5.8731399e-007    +7.6555261e-007
+2.5600000e+004    +6.1171630e-007    +8.3856600e-007
+2.5728000e+004    +6.5376992e-007    +7.7169545e-007
+2.5856000e+004    +6.7402829e-007    +7.3625819e-007
+2.5984000e+004    +5.8522841e-007    +7.7621792e-007
+2.6112000e+004    +5.9079093e-007    +7.2675050e-007
+2.6240000e+004    +6.4422943e-007    +6.9108268e-007
+2.6368000e+004    +6.2114481e-007    +7.8985909e-007
+2.6496000e+004    +6.2556063e-007    +8.4168471e-007
+2.6624000e+004    +6.2865837e-007    +7.6136809e-007
+2.6752000e+004    +5.7712964e-007    +7.3179336e-007
+2.6880000e+004    +5.8312207e-007    +7.3010079e-007
+2.7008000e+004    +5.5406144e-007    +7.7190219e-007
+2.7136000e+004    +5.7149930e-007    +8.2329768e-007
+2.7264000e+004    +5.7742250e-007    +7.9735702e-007
+2.7392000e+004    +5.8472745e-007    +7.5870770e-007
+2.7520000e+004    +5.9574666e-007    +7.4590417e-007
+2.7648000e+004    +6.0250960e-007    +7.9523858e-007
+2.7776000e+004    +5.7335274e-007    +7.5302620e-007
+2.7904000e+004    +5.6182665e-007    +7.4534506e-007
+2.8032000e+004    +5.8208133e-007    +7.3007914e-007
+2.8160000e+004    +6.0713018e-007    +7.5212387e-007
+2.8288000e+004    +5.6821386e-007    +7.3055065e-007
+2.8416000e+004    +5.7350258e-007    +7.9471749e-007
+2.8544000e+004    +5.5795869e-007    +8.0336685e-007
+2.8672000e+004    +5.7415974e-007    +7.4096340e-007
+2.8800000e+004    +5.9988508e-007    +7.8387455e-007
+2.8928000e+004    +5.7290976e-007    +8.2924720e-007
+2.9056000e+004    +5.0087618e-007    +7.8636327e-007
+2.9184000e+004    +5.1901901e-007    +7.9050545e-007
+2.9312000e+004    +5.4680208e-007    +7.9134173e-007
+2.9440000e+004    +5.8382614e-007    +7.7587282e-007
+2.9568000e+004    +5.6261058e-007    +7.6273358e-007
+2.9696000e+004    +5.2937213e-007    +7.4144435e-007
+2.9824000e+004    +4.8094091e-007    +6.9397663e-007
+2.9952000e+004    +5.2464361e-007    +7.4921934e-007
+3.0080000e+004    +5.4452784e-007    +7.7812672e-007
+3.0208000e+004    +5.3242479e-007    +7.6534167e-007
+3.0336000e+004    +5.4067038e-007    +8.0056765e-007
+3.0464000e+004    +6.0448883e-007    +7.7001874e-007
+3.0592000e+004    +5.9488451e-007    +7.9652926e-007
+3.0720000e+004    +5.5340848e-007    +7.5485229e-007
+3.0848000e+004    +5.1046095e-007    +8.5452359e-007
+3.0976000e+004    +4.8166964e-007    +8.0969573e-007
+3.1104000e+004    +5.7233700e-007    +7.7043313e-007
+3.1232000e+004    +5.7345346e-007    +6.6164034e-007
+3.1360000e+004    +5.2621795e-007    +7.4406705e-007
+3.1488000e+004    +5.3552856e-007    +7.4437673e-007
+3.1616000e+004    +5.1877402e-007    +7.6505597e-007
+3.1744000e+004    +5.5355673e-007    +7.2751055e-007
+3.1872000e+004    +5.4861516e-007    +8.0169707e-007
+3.2000000e+004    +5.3214723e-007    +8.2134028e-007
+3.2128000e+004    +5.0132735e-007    +7.8971169e-007
+3.2256000e+004    +5.1698288e-007    +7.9157115e-007
+3.2384000e+004    +5.0336592e-007    +7.9443043e-007
+3.2512000e+004    +4.9102590e-007    +8.2629612e-007
+3.2640000e+004    +5.3818997e-007    +7.8773377e-007
+3.2768000e+004    +5.5693289e-007    +8.2041737e-007
+3.2896000e+004    +5.1339327e-007    +7.9625818e-007
+3.3024000e+004    +5.1855761e-007    +8.1814062e-007
+3.3152000e+004    +5.3667111e-007    +7.7127277e-007
+3.3280000e+004    +5.4605573e-007    +8.2730469e-007
+3.3408000e+004    +5.6401456e-007    +8.0922734e-007
+3.3536000e+004    +5.1824003e-007    +7.5631903e-007
+3.3664000e+004    +5.0162521e-007    +7.3223703e-007
+3.3792000e+004    +5.0361746e-007    +7.9621094e-007
+3.3920000e+004    +5.0628859e-007    +7.6912818e-007
+3.4048000e+004    +5.3308230e-007    +7.6099866e-007
+3.4176000e+004    +5.0679637e-007    +8.0993050e-007
+3.4304000e+004    +4.8291031e-007    +8.5456867e-007
+3.4432000e+004    +4.9719858e-007    +7.5032085e-007
+3.4560000e+004    +5.0028535e-007    +8.1823225e-007
+3.4688000e+004    +5.0839367e-007    +8.0538575e-007
+3.4816000e+004    +5.0166983e-007    +7.8150100e-007
+3.4944000e+004    +5.4549184e-007    +7.8865281e-007
+3.5072000e+004    +5.1053041e-007    +7.6246562e-007
+3.5200000e+004    +4.9235717e-007    +7.6795777e-007
+3.5328000e+004    +4.8714185e-007    +8.0185907e-007
+3.5456000e+004    +4.7089185e-007    +7.7225229e-007
+3.5584000e+004    +5.1379703e-007    +8.0227557e-007
+3.5712000e+004    +5.0951297e-007    +7.5170692e-007
+3.5840000e+004    +4.8675264e-007    +8.3604061e-007
+3.5968000e+004    +5.0199549e-007    +8.3151463e-007
+3.6096000e+004    +5.2255615e-007    +8.7982636e-007
+3.6224000e+004    +5.1031355e-007    +8.3210921e-007
+3.6352000e+004    +5.1110868e-007    +7.7120501e-007
+3.6480000e+004    +5.1056912e-007    +7.7452034e-007
+3.6608000e+004    +4.6551477e-007    +8.3092141e-007
+3.6736000e+004    +4.6375220e-007    +8.9724472e-007
+3.6864000e+004    +4.8375307e-007    +8.6279641e-007
+3.6992000e+004    +4.6380822e-007    +8.2761176e-007
+3.7120000e+004    +4.7006949e-007    +9.3284098e-007
+3.7248000e+004    +4.7102836e-007    +9.0765946e-007
+3.7376000e+004    +4.9193085e-007    +8.3038515e-007
+3.7504000e+004    +4.9868726e-007    +7.5787682e-007
+3.7632000e+004    +4.7910942e-007    +7.7159376e-007
+3.7760000e+004    +4.6169868e-007    +8.2673353e-007
+3.7888000e+004    +5.0490968e-007    +8.4337665e-007
+3.8016000e+004    +5.1147470e-007    +8.7627956e-007
+3.8144000e+004    +5.3416738e-007    +8.6974245e-007
+3.8272000e+004    +4.9984834e-007    +7.8897244e-007
+3.8400000e+004    +4.7323095e-007    +7.9140170e-007
+3.8528000e+004    +4.6222058e-007    +8.5385494e-007
+3.8656000e+004    +4.5571599e-007    +8.5357652e-007
+3.8784000e+004    +4.5657239e-007    +8.8596545e-007
+3.8912000e+004    +4.5972033e-007    +9.4376736e-007
+3.9040000e+004    +4.7505196e-007    +8.7848366e-007
+3.9168000e+004    +4.8413244e-007    +8.7638250e-007
+3.9296000e+004    +4.7327876e-007    +8.5725168e-007
+3.9424000e+004    +4.7258035e-007    +8.3263285e-007
+3.9552000e+004    +4.7697478e-007    +8.7451008e-007
+3.9680000e+004    +4.6916611e-007    +8.7691961e-007
+3.9808000e+004    +4.6067984e-007    +8.0406926e-007
+3.9936000e+004    +4.5756153e-007    +9.0853587e-007
+4.0064000e+004    +4.3718001e-007    +8.7970079e-007
+4.0192000e+004    +4.2678764e-007    +8.2681976e-007
+4.0320000e+004    +4.3501288e-007    +8.1798794e-007
+4.0448000e+004    +4.3599792e-007    +8.5632598e-007
+4.0576000e+004    +4.5722155e-007    +9.1364660e-007
+4.0704000e+004    +4.7192808e-007    +9.3588790e-007
+4.0832000e+004    +4.5767158e-007    +8.8039747e-007
+4.0960000e+004    +4.7061533e-007    +8.6628768e-007
+4.1088000e+004    +4.8161729e-007    +9.2072196e-007
+4.1216000e+004    +4.5083976e-007    +8.6063352e-007
+4.1344000e+004    +4.6498761e-007    +8.7008243e-007
+4.1472000e+004    +4.9423011e-007    +8.4801843e-007
+4.1600000e+004    +4.2482827e-007    +9.0045410e-007
+4.1728000e+004    +4.8172939e-007    +8.5148076e-007
+4.1856000e+004    +5.0160156e-007    +8.4706181e-007
+4.1984000e+004    +4.4038080e-007    +9.0522707e-007
+4.2112000e+004    +3.9919303e-007    +9.1944605e-007
+4.2240000e+004    +4.5303997e-007    +8.6079797e-007
+4.2368000e+004    +4.4497534e-007    +8.7047709e-007
+4.2496000e+004    +4.3137814e-007    +9.5750931e-007
+4.2624000e+004    +4.2383729e-007    +9.1661769e-007
+4.2752000e+004    +3.9944467e-007    +7.9491821e-007
+4.2880000e+004    +4.1204390e-007    +9.1022628e-007
+4.3008000e+004    +4.2203555e-007    +9.1667812e-007
+4.3136000e+004    +4.0438968e-007    +9.9010617e-007
+4.3264000e+004    +4.2043854e-007    +9.0721409e-007
+4.3392000e+004    +4.4026092e-007    +8.8167337e-007
+4.3520000e+004    +4.2197578e-007    +8.2758629e-007
+4.3648000e+004    +4.3583805e-007    +8.7080878e-007
+4.3776000e+004    +4.4395492e-007    +9.9690203e-007
+4.3904000e+004    +4.4419335e-007    +9.5718974e-007
+4.4032000e+004    +4.1940302e-007    +9.6231315e-007
+4.4160000e+004    +4.6225307e-007    +9.5274407e-007
+4.4288000e+004    +4.5010677e-007    +1.0375325e-006
+4.4416000e+004    +4.3589930e-007    +1.0057765e-006
+4.4544000e+004    +4.2183868e-007    +9.5286123e-007
+4.4672000e+004    +4.3280139e-007    +1.0492162e-006
+4.4800000e+004    +4.1951355e-007    +1.0660081e-006
+4.4928000e+004    +4.1160169e-007    +9.8507917e-007
+4.5056000e+004    +4.1672283e-007    +1.0479831e-006
+4.5184000e+004    +4.3888349e-007    +9.8764474e-007
+4.5312000e+004    +4.2609983e-007    +9.4855750e-007
+4.5440000e+004    +4.0803306e-007    +9.4193712e-007
+4.5568000e+004    +4.0525109e-007    +1.0058649e-006
+4.5696000e+004    +3.9865560e-007    +9.7595000e-007
+4.5824000e+004    +3.9132655e-007    +9.8285477e-007
+4.5952000e+004    +4.0676764e-007    +9.8382316e-007
+4.6080000e+004    +4.0121606e-007    +9.9438114e-007
+4.6208000e+004    +3.9801355e-007    +1.0274264e-006
+4.6336000e+004    +3.7975963e-007    +1.0927572e-006
+4.6464000e+004    +4.5366764e-007    +9.5575842e-007
+4.6592000e+004    +4.7659262e-007    +9.5359803e-007
+4.6720000e+004    +4.1121910e-007    +1.0387943e-006
+4.6848000e+004    +3.9896079e-007    +1.0028830e-006
+4.6976000e+004    +4.2985479e-007    +9.4663892e-007
+4.7104000e+004    +4.1689171e-007    +1.0089951e-006
+4.7232000e+004    +4.3606542e-007    +1.0419939e-006
+4.7360000e+004    +4.1827681e-007    +1.1182568e-006
+4.7488000e+004    +4.1527130e-007    +1.0965142e-006
+4.7616000e+004    +4.5395615e-007    +1.0565371e-006
+4.7744000e+004    +5.1114631e-007    +1.0254316e-006
+4.7872000e+004    +4.6457936e-007    +9.3062312e-007
+4.8000000e+004    +4.6149998e-007    +9.6711778e-007
+4.8128000e+004    +4.7880809e-007    +1.0744686e-006
+4.8256000e+004    +4.2879890e-007    +1.0497324e-006
+4.8384000e+004    +4.1616045e-007    +1.0216085e-006
+4.8512000e+004    +4.0171591e-007    +1.0185968e-006
+4.8640000e+004    +4.5330518e-007    +1.0594413e-006
+4.8768000e+004    +4.4644588e-007    +1.0148248e-006
+4.8896000e+004    +4.2718145e-007    +1.0134429e-006
+4.9024000e+004    +4.4287168e-007    +1.0721177e-006
+4.9152000e+004    +4.3981643e-007    +1.1039094e-006
+4.9280000e+004    +4.1937861e-007    +1.0151535e-006
+4.9408000e+004    +4.1164961e-007    +9.9232523e-007
+4.9536000e+004    +4.3317837e-007    +1.0805591e-006
+4.9664000e+004    +4.4708946e-007    +1.0270959e-006
+4.9792000e+004    +4.6457424e-007    +1.0689100e-006
+4.9920000e+004    +4.0663949e-007    +1.0082034e-006
+5.0048000e+004    +3.9988964e-007    +9.6177757e-007
+5.0176000e+004    +4.3642464e-007    +1.0443763e-006
+5.0304000e+004    +4.0844768e-007    +1.0836731e-006
+5.0432000e+004    +4.2072486e-007    +1.0355068e-006
+5.0560000e+004    +4.1461433e-007    +1.0344613e-006
+5.0688000e+004    +4.2288022e-007    +1.0426119e-006
+5.0816000e+004    +4.1692971e-007    +1.1157401e-006
+5.0944000e+004    +4.0187427e-007    +1.1004630e-006
+5.1072000e+004    +4.2523428e-007    +1.0649049e-006
+5.1200000e+004    +4.4279486e-007    +1.1625294e-006
+5.1328000e+004    +4.1379982e-007    +1.0838777e-006
+5.1456000e+004    +4.1397931e-007    +1.0807346e-006
+5.1584000e+004    +4.1803162e-007    +1.1840928e-006
+5.1712000e+004    +4.0522440e-007    +1.0785795e-006
+5.1840000e+004    +3.9468580e-007    +1.0614124e-006
+5.1968000e+004    +4.0094477e-007    +1.1198725e-006
+5.2096000e+004    +3.8287325e-007    +1.1573524e-006
+5.2224000e+004    +3.8503291e-007    +1.1152600e-006
+5.2352000e+004    +3.9777981e-007    +1.0711658e-006
+5.2480000e+004    +3.9893450e-007    +1.0894747e-006
+5.2608000e+004    +3.8267152e-007    +1.1425260e-006
+5.2736000e+004    +3.8621843e-007    +1.1143029e-006
+5.2864000e+004    +3.8635076e-007    +1.1560925e-006
+5.2992000e+004    +3.8262573e-007    +1.1252006e-006
+5.3120000e+004    +3.8630409e-007    +1.1408902e-006
+5.3248000e+004    +4.0843020e-007    +1.1205859e-006
+5.3376000e+004    +4.0201860e-007    +1.1879694e-006
+5.3504000e+004    +3.9930129e-007    +1.2048265e-006
+5.3632000e+004    +3.7455607e-007    +1.2073903e-006
+5.3760000e+004    +3.6806671e-007    +1.1928956e-006
+5.3888000e+004    +3.9031858e-007    +1.2663113e-006
+5.4016000e+004    +3.9800875e-007    +1.2028783e-006
+5.4144000e+004    +3.9150447e-007    +1.1834247e-006
+5.4272000e+004    +3.6526595e-007    +1.0729702e-006
+5.4400000e+004    +4.0104604e-007    +1.0841825e-006
+5.4528000e+004    +3.9989754e-007    +1.0994895e-006
+5.4656000e+004    +3.6215991e-007    +1.0181361e-006
+5.4784000e+004    +3.3583976e-007    +1.1651746e-006
+5.4912000e+004    +3.4993684e-007    +1.2293092e-006
+5.5040000e+004    +4.7014225e-007    +1.1851788e-006
+5.5168000e+004    +7.7075129e-007    +1.2103022e-006
+5.5296000e+004    +5.4059797e-007    +1.1599641e-006
+5.5424000e+004    +5.8357358e-007    +1.2052670e-006
+5.5552000e+004    +1.5075965e-006    +1.2824877e-006
+5.5680000e+004    +1.2233968e-006    +1.2237582e-006
+5.5808000e+004    +4.0684714e-007    +1.1183943e-006
+5.5936000e+004    +3.7456388e-007    +1.1283702e-006
+5.6064000e+004    +3.7055477e-007    +1.2022840e-006
+5.6192000e+004    +3.5954460e-007    +1.2737185e-006
+5.6320000e+004    +3.9516405e-007    +1.1160085e-006
+5.6448000e+004    +3.7101319e-007    +1.1547110e-006
+5.6576000e+004    +3.6294409e-007    +1.1364194e-006
+5.6704000e+004    +3.6148890e-007    +1.1929559e-006
+5.6832000e+004    +3.6839461e-007    +1.1805514e-006
+5.6960000e+004    +3.6553556e-007    +1.1491447e-006
+5.7088000e+004    +3.7506967e-007    +1.1116805e-006
+5.7216000e+004    +3.6559135e-007    +1.2089157e-006
+5.7344000e+004    +3.7266830e-007    +1.2662071e-006
+5.7472000e+004    +3.6649280e-007    +1.2274547e-006
+5.7600000e+004    +3.5980682e-007    +1.2323079e-006
+5.7728000e+004    +3.3960004e-007    +1.1908529e-006
+5.7856000e+004    +3.6038801e-007    +1.2315694e-006
+5.7984000e+004    +3.4547898e-007    +1.2722621e-006
+5.8112000e+004    +3.5356135e-007    +1.1823000e-006
+5.8240000e+004    +3.8241740e-007    +1.2257295e-006
+5.8368000e+004    +3.5514014e-007    +1.2868913e-006
+5.8496000e+004    +3.5687174e-007    +1.2566907e-006
+5.8624000e+004    +3.4703237e-007    +1.3426154e-006
+5.8752000e+004    +3.6179861e-007    +1.3076408e-006
+5.8880000e+004    +3.7744798e-007    +1.2014857e-006
+5.9008000e+004    +3.7442780e-007    +1.1991082e-006
+5.9136000e+004    +3.6298036e-007    +1.2289556e-006
+5.9264000e+004    +3.5283850e-007    +1.3211051e-006
+5.9392000e+004    +3.5302449e-007    +1.2556438e-006
+5.9520000e+004    +3.5660307e-007    +1.2464723e-006
+5.9648000e+004    +3.5973332e-007    +1.2760800e-006
+5.9776000e+004    +3.4238440e-007    +1.3213763e-006
+5.9904000e+004    +3.7115456e-007    +1.3441007e-006
+6.0032000e+004    +3.8714737e-007    +1.3604041e-006
+6.0160000e+004    +3.6719970e-007    +1.3581745e-006
+6.0288000e+004    +3.5269363e-007    +1.3740270e-006
+6.0416000e+004    +3.3743464e-007    +1.2683289e-006
+6.0544000e+004    +3.5489771e-007    +1.2927657e-006
+6.0672000e+004    +3.7498526e-007    +1.3279167e-006
+6.0800000e+004    +3.5738620e-007    +1.3504377e-006
+6.0928000e+004    +3.5998502e-007    +1.3851571e-006
+6.1056000e+004    +3.6386379e-007    +1.2080612e-006
+6.1184000e+004    +3.5538747e-007    +1.1971218e-006
+6.1312000e+004    +3.5367006e-007    +1.3148219e-006
+6.1440000e+004    +3.2483118e-007    +1.3275377e-006
+6.1568000e+004    +3.2376940e-007    +1.3166276e-006
+6.1696000e+004    +3.7926125e-007    +1.3599397e-006
+6.1824000e+004    +3.7074605e-007    +1.3560139e-006
+6.1952000e+004    +3.5337817e-007    +1.3193423e-006
+6.2080000e+004    +3.5330444e-007    +1.3937582e-006
+6.2208000e+004    +3.5745487e-007    +1.3440697e-006
+6.2336000e+004    +3.7044413e-007    +1.2468378e-006
+6.2464000e+004    +3.4275450e-007    +1.3378095e-006
+6.2592000e+004    +3.4466441e-007    +1.3766997e-006
+6.2720000e+004    +3.8557610e-007    +1.2866653e-006
+6.2848000e+004    +3.7125849e-007    +1.2117157e-006
+6.2976000e+004    +3.4910983e-007    +1.2640970e-006
+6.3104000e+004    +3.3294370e-007    +1.3742548e-006
+6.3232000e+004    +3.2869079e-007    +1.3701958e-006
+6.3360000e+004    +3.1721049e-007    +1.4195482e-006
+6.3488000e+004    +3.5050786e-007    +1.3900324e-006
+6.3616000e+004    +3.3973913e-007    +1.3862815e-006
+6.3744000e+004    +3.4244755e-007    +1.2987239e-006
+6.3872000e+004    +3.3088324e-007    +1.4402748e-006
+6.4000000e+004    +3.5262934e-007    +1.4787465e-006
+6.4128000e+004    +3.4815477e-007    +1.4169696e-006
+6.4256000e+004    +3.4169827e-007    +1.4467348e-006
+6.4384000e+004    +3.6245586e-007    +1.4417731e-006
+6.4512000e+004    +3.5971556e-007    +1.3955820e-006
+6.4640000e+004    +3.4613811e-007    +1.4475786e-006
+6.4768000e+004    +3.3877774e-007    +1.4086010e-006
+6.4896000e+004    +3.4050132e-007    +1.4066212e-006
+6.5024000e+004    +3.4153848e-007    +1.3993734e-006
+6.5152000e+004    +3.4167837e-007    +1.4169167e-006
+6.5280000e+004    +3.4791634e-007    +1.5113404e-006
+6.5408000e+004    +3.5017396e-007    +1.4858979e-006
+6.5536000e+004    +3.3701588e-007    +1.6141147e-006
+6.5664000e+004    +3.4308019e-007    +1.5654500e-006
+6.5792000e+004    +3.4055964e-007    +1.4762612e-006
+6.5920000e+004    +3.2516698e-007    +1.3977104e-006
+6.6048000e+004    +3.0864214e-007    +1.4154333e-006
+6.6176000e+004    +3.3426525e-007    +1.4865408e-006
+6.6304000e+004    +3.2962464e-007    +1.4146890e-006
+6.6432000e+004    +3.1946982e-007    +1.3737464e-006
+6.6560000e+004    +3.4644037e-007    +1.3256472e-006
+6.6688000e+004    +3.5313150e-007    +1.4180465e-006
+6.6816000e+004    +3.2822123e-007    +1.5523324e-006
+6.6944000e+004    +3.4976898e-007    +1.4848574e-006
+6.7072000e+004    +3.4064266e-007    +1.4578201e-006
+6.7200000e+004    +3.1423866e-007    +1.4287691e-006
+6.7328000e+004    +3.3858214e-007    +1.4995979e-006
+6.7456000e+004    +3.4192195e-007    +1.6256593e-006
+6.7584000e+004    +3.5940803e-007    +1.4775277e-006
+6.7712000e+004    +3.4757804e-007    +1.4977747e-006
+6.7840000e+004    +3.2409199e-007    +1.4686789e-006
+6.7968000e+004    +3.2934355e-007    +1.5187128e-006
+6.8096000e+004    +3.4239454e-007    +1.4400471e-006
+6.8224000e+004    +3.3883242e-007    +1.6074013e-006
+6.8352000e+004    +3.1915707e-007    +1.5862591e-006
+6.8480000e+004    +3.3749873e-007    +1.6036976e-006
+6.8608000e+004    +3.5186861e-007    +1.6000147e-006
+6.8736000e+004    +3.4850473e-007    +1.6157654e-006
+6.8864000e+004    +3.4134280e-007    +1.4970481e-006
+6.8992000e+004    +3.1984641e-007    +1.4309718e-006
+6.9120000e+004    +3.0821477e-007    +1.6214115e-006
+6.9248000e+004    +3.1814281e-007    +1.6147013e-006
+6.9376000e+004    +3.3411666e-007    +1.5567718e-006
+6.9504000e+004    +3.2884094e-007    +1.5419720e-006
+6.9632000e+004    +3.3891240e-007    +1.4806636e-006
+6.9760000e+004    +3.2200356e-007    +1.4018478e-006
+6.9888000e+004    +3.2324689e-007    +1.5501523e-006
+7.0016000e+004    +3.3898090e-007    +1.4626571e-006
+7.0144000e+004    +5.1157133e-007    +1.7213490e-006
+7.0272000e+004    +6.7563911e-007    +1.9080555e-006
+7.0400000e+004    +3.9358014e-007    +1.6940741e-006
+7.0528000e+004    +3.4470980e-007    +1.6953635e-006
+7.0656000e+004    +3.8422294e-007    +1.8351311e-006
+7.0784000e+004    +4.6574175e-007    +1.8906716e-006
+7.0912000e+004    +3.5437128e-007    +1.6645516e-006
+7.1040000e+004    +3.1803211e-007    +1.5549355e-006
+7.1168000e+004    +3.1558679e-007    +1.6695815e-006
+7.1296000e+004    +3.4305154e-007    +1.5840175e-006
+7.1424000e+004    +3.4116781e-007    +1.5846715e-006
+7.1552000e+004    +3.2720442e-007    +1.6218584e-006
+7.1680000e+004    +3.8487147e-007    +1.5820499e-006
+7.1808000e+004    +3.8714398e-007    +1.6262824e-006
+7.1936000e+004    +3.7046081e-007    +1.7558862e-006
+7.2064000e+004    +3.5124793e-007    +1.7906069e-006
+7.2192000e+004    +3.7244862e-007    +1.5946725e-006
+7.2320000e+004    +3.8086074e-007    +1.6341364e-006
+7.2448000e+004    +3.3757286e-007    +1.7001038e-006
+7.2576000e+004    +3.3119036e-007    +1.5137700e-006
+7.2704000e+004    +3.5242729e-007    +1.6999264e-006
+7.2832000e+004    +3.5056752e-007    +1.6827657e-006
+7.2960000e+004    +3.5645508e-007    +1.7186768e-006
+7.3088000e+004    +3.4669114e-007    +1.6433288e-006
+7.3216000e+004    +3.3626074e-007    +1.5650221e-006
+7.3344000e+004    +3.6136191e-007    +1.6644073e-006
+7.3472000e+004    +3.4535270e-007    +1.7132996e-006
+7.3600000e+004    +3.4558596e-007    +1.6932781e-006
+7.3728000e+004    +3.5654472e-007    +1.7309731e-006
+7.3856000e+004    +3.3555079e-007    +1.7220900e-006
+7.3984000e+004    +3.4390234e-007    +1.6940890e-006
+7.4112000e+004    +3.2630606e-007    +1.6971514e-006
+7.4240000e+004    +3.3883205e-007    +1.6675681e-006
+7.4368000e+004    +3.3588216e-007    +1.8096421e-006
+7.4496000e+004    +3.4773609e-007    +1.8263371e-006
+7.4624000e+004    +3.3958437e-007    +1.6939811e-006
+7.4752000e+004    +3.4088885e-007    +1.7174186e-006
+7.4880000e+004    +3.2286098e-007    +1.8104827e-006
+7.5008000e+004    +3.4863791e-007    +1.7082374e-006
+7.5136000e+004    +3.6506069e-007    +1.7574928e-006
+7.5264000e+004    +3.4301539e-007    +1.8144428e-006
+7.5392000e+004    +3.1935198e-007    +1.7685787e-006
+7.5520000e+004    +3.2906343e-007    +1.5978255e-006
+7.5648000e+004    +3.5233330e-007    +1.6866132e-006
+7.5776000e+004    +3.5133934e-007    +1.7084662e-006
+7.5904000e+004    +3.5537653e-007    +1.6638554e-006
+7.6032000e+004    +3.4670217e-007    +1.8048203e-006
+7.6160000e+004    +3.3115947e-007    +1.8397733e-006
+7.6288000e+004    +3.4595269e-007    +2.7173253e-006
+7.6416000e+004    +3.5707555e-007    +9.8930532e-006
+7.6544000e+004    +3.4806419e-007    +1.0147768e-005
+7.6672000e+004    +3.2813404e-007    +2.8336290e-006
+7.6800000e+004    +3.2999327e-007    +1.8287510e-006
+7.6928000e+004    +3.4527761e-007    +1.6981710e-006
+7.7056000e+004    +3.4006979e-007    +1.7595007e-006
+7.7184000e+004    +3.3397288e-007    +1.7102549e-006
+7.7312000e+004    +3.2779880e-007    +1.7358129e-006
+7.7440000e+004    +3.3069838e-007    +1.7741567e-006
+7.7568000e+004    +6.8493068e-007    +1.7712022e-006
+7.7696000e+004    +1.3075115e-006    +1.8284700e-006
+7.7824000e+004    +7.8538994e-007    +1.8568524e-006
+7.7952000e+004    +3.6907679e-007    +1.8239103e-006
+7.8080000e+004    +3.5879924e-007    +1.8780572e-006
+7.8208000e+004    +3.5563767e-007    +1.7772840e-006
+7.8336000e+004    +3.9015833e-007    +1.7836372e-006
+7.8464000e+004    +3.5552014e-007    +1.8186552e-006
+7.8592000e+004    +3.5862163e-007    +1.6758607e-006
+7.8720000e+004    +3.5011092e-007    +1.8699196e-006
+7.8848000e+004    +3.4035182e-007    +1.8906965e-006
+7.8976000e+004    +3.3351813e-007    +1.7495797e-006
+7.9104000e+004    +3.4323881e-007    +1.8142197e-006
+7.9232000e+004    +3.7341374e-007    +1.8217909e-006
+7.9360000e+004    +3.8823495e-007    +1.8156604e-006
+7.9488000e+004    +4.5836404e-007    +1.9962756e-006
+7.9616000e+004    +3.9255946e-007    +1.8641797e-006
+7.9744000e+004    +3.5518579e-007    +1.7724589e-006
+7.9872000e+004    +3.3420545e-007    +1.9028085e-006
+8.0000000e+004    +3.3644207e-007    +1.9282334e-006
+8.0128000e+004    +3.4317361e-007    +1.8602520e-006
+8.0256000e+004    +3.5655373e-007    +1.8036455e-006
+8.0384000e+004    +3.5445143e-007    +1.7842327e-006
+8.0512000e+004    +3.4024009e-007    +1.8530519e-006
+8.0640000e+004    +3.5114729e-007    +1.9781073e-006
+8.0768000e+004    +4.0149058e-007    +1.8772429e-006
+8.0896000e+004    +3.9281429e-007    +1.8972469e-006
+8.1024000e+004    +3.7911639e-007    +1.9965628e-006
+8.1152000e+004    +3.4495213e-007    +1.9771260e-006
+8.1280000e+004    +3.5535001e-007    +1.9072785e-006
+8.1408000e+004    +3.5902426e-007    +1.9517206e-006
+8.1536000e+004    +3.7189412e-007    +2.0135712e-006
+8.1664000e+004    +3.5594158e-007    +1.8292772e-006
+8.1792000e+004    +3.4185663e-007    +1.9198171e-006
+8.1920000e+004    +3.6154844e-007    +1.8531658e-006
+8.2048000e+004    +3.8202126e-007    +1.8318699e-006
+8.2176000e+004    +3.5935238e-007    +1.7783634e-006
+8.2304000e+004    +3.4754638e-007    +1.7105065e-006
+8.2432000e+004    +3.6458641e-007    +1.7452687e-006
+8.2560000e+004    +3.7984177e-007    +1.7438819e-006
+8.2688000e+004    +3.9588929e-007    +1.7735821e-006
+8.2816000e+004    +3.9681274e-007    +1.7139600e-006
+8.2944000e+004    +3.7668661e-007    +1.8967512e-006
+8.3072000e+004    +3.4903434e-007    +1.8615228e-006
+8.3200000e+004    +3.6876935e-007    +1.7820909e-006
+8.3328000e+004    +3.6299750e-007    +1.9148574e-006
+8.3456000e+004    +3.6567405e-007    +1.9068492e-006
+8.3584000e+004    +3.6438192e-007    +1.9437311e-006
+8.3712000e+004    +3.5602795e-007    +2.0190992e-006
+8.3840000e+004    +3.5574780e-007    +2.0315520e-006
+8.3968000e+004    +3.7070942e-007    +1.9242257e-006
+8.4096000e+004    +3.7192271e-007    +1.7475467e-006
+8.4224000e+004    +3.5930503e-007    +1.7552693e-006
+8.4352000e+004    +3.5428840e-007    +1.8214889e-006
+8.4480000e+004    +3.7029125e-007    +1.9448328e-006
+8.4608000e+004    +3.5590210e-007    +1.9736644e-006
+8.4736000e+004    +3.5426780e-007    +1.9250137e-006
+8.4864000e+004    +3.5832684e-007    +1.8198737e-006
+8.4992000e+004    +3.7962039e-007    +2.0567743e-006
+8.5120000e+004    +3.5748823e-007    +2.0975369e-006
+8.5248000e+004    +3.7971500e-007    +2.0024881e-006
+8.5376000e+004    +3.5781653e-007    +1.8851640e-006
+8.5504000e+004    +3.6511841e-007    +1.8185294e-006
+8.5632000e+004    +3.8157816e-007    +1.8486584e-006
+8.5760000e+004    +3.5305706e-007    +1.8211949e-006
+8.5888000e+004    +3.3599613e-007    +1.9234080e-006
+8.6016000e+004    +3.4710021e-007    +1.8015595e-006
+8.6144000e+004    +3.5314002e-007    +1.8623447e-006
+8.6272000e+004    +3.6221357e-007    +1.8218249e-006
+8.6400000e+004    +3.5146203e-007    +1.9080387e-006
+8.6528000e+004    +3.4580498e-007    +1.8706219e-006
+8.6656000e+004    +3.4583005e-007    +1.9689330e-006
+8.6784000e+004    +3.2240544e-007    +1.9159111e-006
+8.6912000e+004    +3.3931005e-007    +1.8918656e-006
+8.7040000e+004    +3.7720147e-007    +1.9457705e-006
+8.7168000e+004    +3.4875774e-007    +1.9003762e-006
+8.7296000e+004    +3.6403802e-007    +1.8184655e-006
+8.7424000e+004    +3.5933741e-007    +1.8237162e-006
+8.7552000e+004    +3.3484673e-007    +1.8000884e-006
+8.7680000e+004    +3.4317023e-007    +1.6876284e-006
+8.7808000e+004    +4.3290214e-007    +1.6648660e-006
+8.7936000e+004    +5.1293068e-007    +1.8507767e-006
+8.8064000e+004    +3.4445065e-007    +1.9195115e-006
+8.8192000e+004    +3.2335089e-007    +1.6984209e-006
+8.8320000e+004    +3.2609083e-007    +1.6333399e-006
+8.8448000e+004    +3.3512774e-007    +1.9421441e-006
+8.8576000e+004    +3.4132029e-007    +1.9827585e-006
+8.8704000e+004    +3.0765150e-007    +1.9149059e-006
+8.8832000e+004    +3.0927038e-007    +1.9601132e-006
+8.8960000e+004    +3.3061997e-007    +1.8773749e-006
+8.9088000e+004    +3.2607363e-007    +1.9732613e-006
+8.9216000e+004    +3.3875466e-007    +1.9901674e-006
+8.9344000e+004    +3.3676324e-007    +1.8790205e-006
+8.9472000e+004    +3.2160958e-007    +1.8678081e-006
+8.9600000e+004    +3.2697994e-007    +1.8724754e-006
+8.9728000e+004    +3.2437890e-007    +1.8346718e-006
+8.9856000e+004    +3.0822898e-007    +1.8473557e-006
+8.9984000e+004    +3.0435791e-007    +1.7956667e-006
+9.0112000e+004    +3.1858431e-007    +1.7647885e-006
+9.0240000e+004    +3.0825268e-007    +1.9060412e-006
+9.0368000e+004    +3.2153051e-007    +1.8519577e-006
+9.0496000e+004    +3.2985417e-007    +1.8546763e-006
+9.0624000e+004    +3.3049039e-007    +1.9498509e-006
+9.0752000e+004    +3.2457058e-007    +1.9122060e-006
+9.0880000e+004    +3.0669369e-007    +1.9193956e-006
+9.1008000e+004    +3.0730041e-007    +1.9685633e-006
+9.1136000e+004    +3.1703641e-007    +2.1156868e-006
+9.1264000e+004    +3.2076534e-007    +2.1556896e-006
+9.1392000e+004    +3.2612124e-007    +2.1520641e-006
+9.1520000e+004    +3.0746375e-007    +2.0783673e-006
+9.1648000e+004    +3.0593225e-007    +2.1023443e-006
+9.1776000e+004    +3.3412400e-007    +1.9608774e-006
+9.1904000e+004    +3.3086690e-007    +2.0058328e-006
+9.2032000e+004    +3.3164559e-007    +2.0467362e-006
+9.2160000e+004    +3.2300920e-007    +2.0708574e-006
+9.2288000e+004    +3.0319524e-007    +1.9241452e-006
+9.2416000e+004    +3.4047403e-007    +1.8721115e-006
+9.2544000e+004    +3.6351560e-007    +2.0373107e-006
+9.2672000e+004    +3.3509903e-007    +1.9098832e-006
+9.2800000e+004    +3.1843604e-007    +1.7646180e-006
+9.2928000e+004    +3.2501885e-007    +1.8614370e-006
+9.3056000e+004    +3.0583720e-007    +1.8112581e-006
+9.3184000e+004    +3.0467990e-007    +1.7936707e-006
+9.3312000e+004    +3.0546201e-007    +1.8386284e-006
+9.3440000e+004    +3.0547443e-007    +1.9766094e-006
+9.3568000e+004    +3.0828247e-007    +2.1056408e-006
+9.3696000e+004    +3.1061799e-007    +1.9802217e-006
+9.3824000e+004    +3.1360204e-007    +1.7383915e-006
+9.3952000e+004    +3.0606631e-007    +1.8451564e-006
+9.4080000e+004    +2.9133724e-007    +1.8926073e-006
+9.4208000e+004    +2.9077927e-007    +1.9583665e-006
+9.4336000e+004    +3.6513885e-007    +1.8337294e-006
+9.4464000e+004    +9.1292662e-007    +1.8700325e-006
+9.4592000e+004    +8.1100541e-007    +1.8662522e-006
+9.4720000e+004    +3.4788883e-007    +1.7887559e-006
+9.4848000e+004    +3.8121215e-007    +1.8053356e-006
+9.4976000e+004    +3.3407227e-007    +2.0734396e-006
+9.5104000e+004    +3.1657308e-007    +2.2550619e-006
+9.5232000e+004    +3.0093665e-007    +2.1140916e-006
+9.5360000e+004    +2.8332713e-007    +1.9491724e-006
+9.5488000e+004    +2.8319928e-007    +1.7552616e-006
+9.5616000e+004    +2.7340303e-007    +1.8142496e-006
+9.5744000e+004    +2.5984127e-007    +1.9366971e-006
+9.5872000e+004    +2.8473264e-007    +1.9689417e-006
+9.6000000e+004    +3.0045300e-007    +1.7808976e-006
+9.6128000e+004    +2.9078245e-007    +1.9313777e-006
+9.6256000e+004    +2.9851887e-007    +1.8570582e-006
+9.6384000e+004    +2.8999176e-007    +1.8521996e-006
+9.6512000e+004    +3.1276167e-007    +1.9732418e-006
+9.6640000e+004    +3.3411078e-007    +1.9550364e-006
+9.6768000e+004    +3.1905793e-007    +1.9791937e-006
+9.6896000e+004    +3.2496246e-007    +1.9429822e-006
+9.7024000e+004    +3.0450599e-007    +1.8047291e-006
+9.7152000e+004    +2.9489016e-007    +1.8313149e-006
+9.7280000e+004    +3.0959586e-007    +1.7031903e-006
+9.7408000e+004    +3.2424182e-007    +1.8911304e-006
+9.7536000e+004    +3.1841225e-007    +1.9654988e-006
+9.7664000e+004    +3.3953665e-007    +1.8802546e-006
+9.7792000e+004    +4.3538799e-007    +1.8447411e-006
+9.7920000e+004    +5.8348007e-007    +1.8458068e-006
+9.8048000e+004    +6.7851158e-007    +1.8132101e-006
+9.8176000e+004    +8.2943478e-007    +1.8267843e-006
+9.8304000e+004    +9.8707017e-007    +1.7762461e-006
+9.8432000e+004    +1.2247582e-006    +1.8074002e-006
+9.8560000e+004    +1.4673991e-006    +1.8536889e-006
+9.8688000e+004    +1.5391574e-006    +1.8730984e-006
+9.8816000e+004    +1.4891856e-006    +1.7851772e-006
+9.8944000e+004    +1.2658887e-006    +1.8078051e-006
+9.9072000e+004    +1.0276418e-006    +1.8119921e-006
+9.9200000e+004    +1.0640692e-006    +1.7881766e-006
+9.9328000e+004    +1.2803970e-006    +1.7782951e-006
+9.9456000e+004    +1.3081735e-006    +1.9253582e-006
+9.9584000e+004    +1.0530269e-006    +1.8676851e-006
+9.9712000e+004    +9.7639474e-007    +1.9693134e-006
+9.9840000e+004    +1.2030882e-006    +1.8803041e-006
+9.9968000e+004    +1.1909000e-006    +1.8177927e-006
+1.0009600e+005    +1.1162217e-006    +1.8232977e-006
+1.0022400e+005    +1.3401146e-006    +1.8490095e-006
+1.0035200e+005    +1.3529281e-006    +1.8377201e-006
+1.0048000e+005    +1.3832255e-006    +1.7615265e-006
+1.0060800e+005    +1.5315900e-006    +1.8952087e-006
+1.0073600e+005    +1.4168451e-006    +1.8453387e-006
+1.0086400e+005    +1.4692224e-006    +1.6930662e-006
+1.0099200e+005    +1.3930040e-006    +1.6124053e-006
+1.0112000e+005    +1.4245946e-006    +1.8332825e-006
+1.0124800e+005    +1.3691928e-006    +1.9326526e-006
+1.0137600e+005    +1.3646858e-006    +1.7860692e-006
+1.0150400e+005    +1.3349293e-006    +1.7337462e-006
+1.0163200e+005    +1.4478758e-006    +1.6908351e-006
+1.0176000e+005    +1.3611212e-006    +1.7194619e-006
+1.0188800e+005    +1.4493725e-006    +1.8460358e-006
+1.0201600e+005    +1.2482966e-006    +1.8375849e-006
+1.0214400e+005    +1.4273611e-006    +1.8747403e-006
+1.0227200e+005    +1.3147006e-006    +1.8365502e-006
