# North DC Val: 0.72772059 VoltsSouth DC Val: 0.6193551300000001 Volts
# SR785 Measurement - Timestamp: Apr 28 2020 - 17:07:32
# Parameter File: /home/controls/Git/cit_ctnlab/ctn_scripts/TransRINSpecLong.yml
#---------- Measurement Setup ------------
# Start Frequency (Hz): 0.000000
# Frequency Span (Hz): 800.000000
# Frequency Resolution: 800
# Number of Averages: 100
# Averaging Mode: RMS
# Window function: Hanning
#---------- Measurement Parameters ----------
# Measurement Group:  "FFT" "FFT"
# Measurements:  "FFT 1" "FFT 2"
# View:  "Log Magnitude" "Log Magnitude"
# Unit:  "Vrms/rtHz" "Vrms/rtHz"
#---------- Input Parameters ----------
# Input Source: Analog
# Input Mode: Single ended, Single ended
# Input Grounding: Float, Float
# Input Coupling: AC, AC
# Input Range: -36.0dBVpk, -36.0dBVpk
# Auto Range: Off, Off
# Auto Range Mode: Tracking, Tracking
# Anti-Aliasing Filter: On, On
#---------- Source Parameters ----------
# Source Type: Sine
# Source Amplitude: 500.0mVpk
# Source On: 0

#---------- Measurement Data ----------
# [Freq(Hz) Display 0(Vrms/rtHz) Display 1(Vrms/rtHz) ]
+0.0000000e+000    +1.6148024e-003    +2.7243441e-004
+1.0000000e+000    +1.1490545e-003    +2.4716760e-004
+2.0000000e+000    +5.6442467e-004    +1.5501906e-004
+3.0000000e+000    +3.4610715e-004    +7.8963974e-005
+4.0000000e+000    +1.7435076e-004    +5.0078492e-005
+5.0000000e+000    +1.0431821e-004    +3.5684785e-005
+6.0000000e+000    +8.1591861e-005    +2.3746617e-005
+7.0000000e+000    +5.9211961e-005    +1.7050801e-005
+8.0000000e+000    +5.1886287e-005    +1.3225099e-005
+9.0000000e+000    +4.4385644e-005    +1.0190061e-005
+1.0000000e+001    +3.6022859e-005    +8.4977810e-006
+1.1000000e+001    +3.3883352e-005    +7.2828416e-006
+1.2000000e+001    +3.1032720e-005    +5.4052020e-006
+1.3000000e+001    +2.7799986e-005    +4.3228088e-006
+1.4000000e+001    +2.5989406e-005    +3.7234640e-006
+1.5000000e+001    +2.2277187e-005    +3.4050281e-006
+1.6000000e+001    +2.1068596e-005    +2.7706255e-006
+1.7000000e+001    +1.8789668e-005    +2.5670415e-006
+1.8000000e+001    +1.6871021e-005    +2.4318924e-006
+1.9000000e+001    +1.5070073e-005    +1.8884144e-006
+2.0000000e+001    +1.5401396e-005    +1.7712916e-006
+2.1000000e+001    +1.3265615e-005    +1.6138169e-006
+2.2000000e+001    +1.1677757e-005    +1.3048040e-006
+2.3000000e+001    +1.0915401e-005    +1.1456777e-006
+2.4000000e+001    +1.0165511e-005    +1.0614765e-006
+2.5000000e+001    +1.0385958e-005    +9.6676422e-007
+2.6000000e+001    +9.7247257e-006    +8.3991409e-007
+2.7000000e+001    +7.6831793e-006    +7.8768710e-007
+2.8000000e+001    +7.7876521e-006    +6.8767957e-007
+2.9000000e+001    +7.4785917e-006    +6.5793637e-007
+3.0000000e+001    +6.9265966e-006    +5.6153863e-007
+3.1000000e+001    +7.4022505e-006    +5.5182363e-007
+3.2000000e+001    +7.5984231e-006    +4.8318827e-007
+3.3000000e+001    +6.6602879e-006    +4.6224292e-007
+3.4000000e+001    +6.1874407e-006    +4.3861277e-007
+3.5000000e+001    +5.5364549e-006    +4.0093775e-007
+3.6000000e+001    +4.7137760e-006    +3.5585211e-007
+3.7000000e+001    +4.6930163e-006    +3.6099829e-007
+3.8000000e+001    +4.9811924e-006    +3.2145178e-007
+3.9000000e+001    +4.7351891e-006    +3.0891607e-007
+4.0000000e+001    +4.2904753e-006    +2.8374333e-007
+4.1000000e+001    +3.9897832e-006    +2.4954952e-007
+4.2000000e+001    +3.9428037e-006    +2.3699292e-007
+4.3000000e+001    +3.4844084e-006    +2.2275377e-007
+4.4000000e+001    +3.1282864e-006    +2.2133609e-007
+4.5000000e+001    +2.5586307e-006    +2.1146765e-007
+4.6000000e+001    +2.7752412e-006    +2.0996822e-007
+4.7000000e+001    +3.1471550e-006    +1.9028023e-007
+4.8000000e+001    +3.0293800e-006    +1.7180504e-007
+4.9000000e+001    +2.7274552e-006    +1.5933092e-007
+5.0000000e+001    +2.4074061e-006    +1.6319723e-007
+5.1000000e+001    +2.2404690e-006    +1.5408500e-007
+5.2000000e+001    +1.9355682e-006    +1.3262949e-007
+5.3000000e+001    +1.7564704e-006    +1.3451002e-007
+5.4000000e+001    +1.9738832e-006    +1.2958864e-007
+5.5000000e+001    +2.0644804e-006    +1.2747468e-007
+5.6000000e+001    +2.1531182e-006    +1.3038846e-007
+5.7000000e+001    +2.0261857e-006    +1.1479253e-007
+5.8000000e+001    +1.7749536e-006    +1.0714786e-007
+5.9000000e+001    +1.5764804e-006    +1.0670527e-007
+6.0000000e+001    +1.5479379e-006    +1.3411568e-007
+6.1000000e+001    +1.4432302e-006    +1.1277633e-007
+6.2000000e+001    +1.2611387e-006    +9.2032373e-008
+6.3000000e+001    +1.2119845e-006    +9.4241713e-008
+6.4000000e+001    +1.1862072e-006    +8.9412723e-008
+6.5000000e+001    +1.1614883e-006    +8.3408224e-008
+6.6000000e+001    +1.1924740e-006    +8.3550745e-008
+6.7000000e+001    +1.0134563e-006    +8.5159201e-008
+6.8000000e+001    +1.0272357e-006    +7.4618349e-008
+6.9000000e+001    +9.9254646e-007    +7.8232866e-008
+7.0000000e+001    +1.0241264e-006    +7.3678628e-008
+7.1000000e+001    +9.8913915e-007    +6.8737158e-008
+7.2000000e+001    +9.5950145e-007    +6.6624892e-008
+7.3000000e+001    +8.8358445e-007    +6.6210106e-008
+7.4000000e+001    +7.8580570e-007    +6.7427479e-008
+7.5000000e+001    +7.2305909e-007    +5.9318612e-008
+7.6000000e+001    +6.7629372e-007    +6.0243487e-008
+7.7000000e+001    +6.6022380e-007    +5.7388178e-008
+7.8000000e+001    +6.8752786e-007    +6.1363686e-008
+7.9000000e+001    +6.9455672e-007    +6.1380796e-008
+8.0000000e+001    +6.1671409e-007    +6.0774710e-008
+8.1000000e+001    +6.2547957e-007    +5.6226600e-008
+8.2000000e+001    +5.3195561e-007    +5.5301975e-008
+8.3000000e+001    +5.1071208e-007    +5.6565181e-008
+8.4000000e+001    +5.5057092e-007    +5.4708014e-008
+8.5000000e+001    +5.6453501e-007    +5.8514615e-008
+8.6000000e+001    +5.7033151e-007    +5.8380369e-008
+8.7000000e+001    +4.4809741e-007    +5.5809167e-008
+8.8000000e+001    +4.0243813e-007    +5.1189886e-008
+8.9000000e+001    +4.1956929e-007    +4.8760526e-008
+9.0000000e+001    +4.2252285e-007    +5.0272355e-008
+9.1000000e+001    +4.3666239e-007    +5.3772215e-008
+9.2000000e+001    +4.8044319e-007    +4.9680786e-008
+9.3000000e+001    +4.2977314e-007    +4.8855110e-008
+9.4000000e+001    +3.6909302e-007    +4.6478597e-008
+9.5000000e+001    +3.0735339e-007    +4.7460205e-008
+9.6000000e+001    +3.1060571e-007    +5.0219448e-008
+9.7000000e+001    +3.1143415e-007    +4.9132737e-008
+9.8000000e+001    +2.8087589e-007    +4.5666166e-008
+9.9000000e+001    +2.9930752e-007    +4.3570839e-008
+1.0000000e+002    +3.2233180e-007    +4.8903896e-008
+1.0100000e+002    +2.8230272e-007    +4.6163937e-008
+1.0200000e+002    +2.6795595e-007    +4.2560888e-008
+1.0300000e+002    +2.7830617e-007    +4.1631445e-008
+1.0400000e+002    +2.6698683e-007    +4.4697021e-008
+1.0500000e+002    +2.5582628e-007    +4.6898791e-008
+1.0600000e+002    +2.8296805e-007    +4.6035574e-008
+1.0700000e+002    +2.8354310e-007    +4.2213518e-008
+1.0800000e+002    +2.3651253e-007    +4.3937092e-008
+1.0900000e+002    +2.2567710e-007    +4.2504475e-008
+1.1000000e+002    +2.1584439e-007    +3.8336751e-008
+1.1100000e+002    +2.1020374e-007    +4.0171813e-008
+1.1200000e+002    +2.0166443e-007    +4.0563616e-008
+1.1300000e+002    +2.1358994e-007    +4.2655714e-008
+1.1400000e+002    +2.0648658e-007    +4.2293639e-008
+1.1500000e+002    +2.0516364e-007    +4.2957264e-008
+1.1600000e+002    +1.7650986e-007    +4.4491134e-008
+1.1700000e+002    +1.9142331e-007    +4.3486054e-008
+1.1800000e+002    +1.7300762e-007    +4.1576403e-008
+1.1900000e+002    +5.9641354e-007    +4.1448551e-008
+1.2000000e+002    +1.2248416e-006    +4.2189889e-008
+1.2100000e+002    +6.6685124e-007    +3.7664442e-008
+1.2200000e+002    +1.9844616e-007    +4.0865896e-008
+1.2300000e+002    +1.9678697e-007    +4.0177412e-008
+1.2400000e+002    +1.6889332e-007    +4.0503402e-008
+1.2500000e+002    +1.4218740e-007    +3.8981149e-008
+1.2600000e+002    +1.6171374e-007    +4.0053074e-008
+1.2700000e+002    +1.7226215e-007    +4.1256179e-008
+1.2800000e+002    +1.5802809e-007    +4.1883425e-008
+1.2900000e+002    +1.5108161e-007    +3.8814203e-008
+1.3000000e+002    +1.5331025e-007    +3.9957715e-008
+1.3100000e+002    +1.3823995e-007    +4.0386787e-008
+1.3200000e+002    +1.4630410e-007    +3.7285698e-008
+1.3300000e+002    +1.5737980e-007    +3.3889382e-008
+1.3400000e+002    +1.7424483e-007    +3.8517328e-008
+1.3500000e+002    +1.7386988e-007    +3.9454932e-008
+1.3600000e+002    +2.0013627e-007    +3.8653408e-008
+1.3700000e+002    +2.3188900e-007    +3.8753566e-008
+1.3800000e+002    +3.0032567e-007    +3.4423099e-008
+1.3900000e+002    +3.5385301e-007    +3.6750258e-008
+1.4000000e+002    +4.9044831e-007    +3.7343835e-008
+1.4100000e+002    +7.0961102e-007    +3.6708521e-008
+1.4200000e+002    +1.0279872e-006    +3.7132942e-008
+1.4300000e+002    +1.5068799e-006    +3.7774896e-008
+1.4400000e+002    +1.4351115e-006    +4.0685741e-008
+1.4500000e+002    +1.0493071e-006    +3.6892487e-008
+1.4600000e+002    +6.5522937e-007    +3.5384677e-008
+1.4700000e+002    +4.8853661e-007    +3.9456317e-008
+1.4800000e+002    +3.9320219e-007    +3.8868535e-008
+1.4900000e+002    +2.8139200e-007    +3.8162884e-008
+1.5000000e+002    +2.1114748e-007    +3.9796678e-008
+1.5100000e+002    +2.0264437e-007    +3.6788290e-008
+1.5200000e+002    +1.7731129e-007    +3.7307768e-008
+1.5300000e+002    +1.3877587e-007    +4.0207464e-008
+1.5400000e+002    +1.5286869e-007    +3.6483229e-008
+1.5500000e+002    +1.6919326e-007    +3.7138406e-008
+1.5600000e+002    +1.6041361e-007    +3.8891546e-008
+1.5700000e+002    +1.5973660e-007    +4.0046348e-008
+1.5800000e+002    +1.7257298e-007    +3.7203460e-008
+1.5900000e+002    +1.5191330e-007    +3.5328817e-008
+1.6000000e+002    +1.2299382e-007    +3.3971823e-008
+1.6100000e+002    +1.1971927e-007    +3.5859209e-008
+1.6200000e+002    +1.1232947e-007    +3.8316678e-008
+1.6300000e+002    +9.5177064e-008    +3.4996066e-008
+1.6400000e+002    +9.6887888e-008    +3.4435310e-008
+1.6500000e+002    +1.0304937e-007    +3.5535624e-008
+1.6600000e+002    +1.0507725e-007    +3.6167670e-008
+1.6700000e+002    +9.8259470e-008    +3.5761545e-008
+1.6800000e+002    +9.9735630e-008    +3.2908222e-008
+1.6900000e+002    +8.6788518e-008    +3.4250657e-008
+1.7000000e+002    +8.9514877e-008    +3.7144481e-008
+1.7100000e+002    +8.1966824e-008    +3.3618175e-008
+1.7200000e+002    +7.9402845e-008    +3.2586282e-008
+1.7300000e+002    +7.7480614e-008    +3.5446895e-008
+1.7400000e+002    +7.8011304e-008    +3.7001730e-008
+1.7500000e+002    +7.9806384e-008    +3.6972047e-008
+1.7600000e+002    +8.2673985e-008    +3.7522248e-008
+1.7700000e+002    +7.5281292e-008    +3.2820395e-008
+1.7800000e+002    +7.0744449e-008    +3.3422307e-008
+1.7900000e+002    +2.5422156e-007    +6.2981215e-008
+1.8000000e+002    +5.1987166e-007    +1.0824114e-007
+1.8100000e+002    +2.8770074e-007    +6.5740707e-008
+1.8200000e+002    +7.4126447e-008    +3.7877644e-008
+1.8300000e+002    +7.3166483e-008    +3.4638674e-008
+1.8400000e+002    +7.1228058e-008    +3.1814562e-008
+1.8500000e+002    +7.1670428e-008    +3.4691009e-008
+1.8600000e+002    +7.6205389e-008    +3.5726458e-008
+1.8700000e+002    +7.6361168e-008    +3.6413635e-008
+1.8800000e+002    +7.2096071e-008    +3.4304968e-008
+1.8900000e+002    +7.2712567e-008    +3.5448451e-008
+1.9000000e+002    +7.4074620e-008    +3.2858868e-008
+1.9100000e+002    +7.0688543e-008    +3.4185774e-008
+1.9200000e+002    +7.4457290e-008    +3.6254065e-008
+1.9300000e+002    +8.4863501e-008    +3.8136580e-008
+1.9400000e+002    +8.2445737e-008    +3.6077836e-008
+1.9500000e+002    +7.5745419e-008    +3.3036340e-008
+1.9600000e+002    +6.8717164e-008    +3.4218033e-008
+1.9700000e+002    +7.8337472e-008    +3.4457511e-008
+1.9800000e+002    +8.1105618e-008    +3.5265877e-008
+1.9900000e+002    +7.8159459e-008    +3.5929872e-008
+2.0000000e+002    +7.7183103e-008    +3.4290920e-008
+2.0100000e+002    +6.9776775e-008    +3.3838329e-008
+2.0200000e+002    +6.8354609e-008    +3.2673018e-008
+2.0300000e+002    +6.5238673e-008    +3.3888600e-008
+2.0400000e+002    +6.8691890e-008    +3.5295628e-008
+2.0500000e+002    +6.8838439e-008    +3.6565798e-008
+2.0600000e+002    +6.4186771e-008    +3.5391633e-008
+2.0700000e+002    +6.4240567e-008    +3.5719790e-008
+2.0800000e+002    +6.2606290e-008    +3.4247464e-008
+2.0900000e+002    +6.4888347e-008    +3.2361338e-008
+2.1000000e+002    +6.8820910e-008    +3.1447165e-008
+2.1100000e+002    +6.4353657e-008    +2.8993158e-008
+2.1200000e+002    +6.3387120e-008    +3.1602575e-008
+2.1300000e+002    +6.7389806e-008    +3.5063451e-008
+2.1400000e+002    +7.6516180e-008    +3.7795679e-008
+2.1500000e+002    +8.3398426e-008    +3.6373358e-008
+2.1600000e+002    +7.7357107e-008    +3.3536516e-008
+2.1700000e+002    +9.3873446e-008    +3.5033704e-008
+2.1800000e+002    +8.8910717e-008    +3.6915299e-008
+2.1900000e+002    +8.0061689e-008    +3.5811404e-008
+2.2000000e+002    +9.5034217e-008    +3.5022282e-008
+2.2100000e+002    +9.8569153e-008    +3.5856846e-008
+2.2200000e+002    +9.7224088e-008    +3.6703725e-008
+2.2300000e+002    +8.3037605e-008    +3.7488316e-008
+2.2400000e+002    +6.9090817e-008    +3.7164348e-008
+2.2500000e+002    +7.3178697e-008    +3.4580879e-008
+2.2600000e+002    +7.1536306e-008    +3.3811666e-008
+2.2700000e+002    +7.1604674e-008    +3.4548012e-008
+2.2800000e+002    +6.3624469e-008    +3.6386659e-008
+2.2900000e+002    +6.7236670e-008    +3.7109590e-008
+2.3000000e+002    +7.3322255e-008    +3.5727322e-008
+2.3100000e+002    +7.4498836e-008    +3.3451602e-008
+2.3200000e+002    +6.9809801e-008    +3.5902072e-008
+2.3300000e+002    +7.0949177e-008    +3.5303263e-008
+2.3400000e+002    +6.9651243e-008    +3.6438831e-008
+2.3500000e+002    +7.5763637e-008    +3.4542740e-008
+2.3600000e+002    +8.0334218e-008    +3.6881470e-008
+2.3700000e+002    +8.4160341e-008    +3.6423433e-008
+2.3800000e+002    +7.8174992e-008    +3.3061234e-008
+2.3900000e+002    +1.2520755e-007    +3.4760742e-008
+2.4000000e+002    +2.3914913e-007    +3.7901817e-008
+2.4100000e+002    +1.4389329e-007    +3.7069150e-008
+2.4200000e+002    +7.9077545e-008    +3.3922809e-008
+2.4300000e+002    +9.0955595e-008    +3.6157186e-008
+2.4400000e+002    +9.1193982e-008    +3.7984801e-008
+2.4500000e+002    +8.5965134e-008    +3.6867664e-008
+2.4600000e+002    +8.7486640e-008    +3.7029164e-008
+2.4700000e+002    +9.7381566e-008    +3.5872244e-008
+2.4800000e+002    +9.9299115e-008    +3.7259710e-008
+2.4900000e+002    +1.0510252e-007    +3.5976097e-008
+2.5000000e+002    +1.1820741e-007    +3.5410057e-008
+2.5100000e+002    +1.2276502e-007    +3.7012782e-008
+2.5200000e+002    +1.3170614e-007    +3.6187053e-008
+2.5300000e+002    +1.7192599e-007    +3.6874102e-008
+2.5400000e+002    +2.1017557e-007    +3.6102048e-008
+2.5500000e+002    +2.3677677e-007    +3.4541905e-008
+2.5600000e+002    +2.4889306e-007    +3.5768611e-008
+2.5700000e+002    +2.6249168e-007    +3.5603577e-008
+2.5800000e+002    +2.7527869e-007    +3.5252949e-008
+2.5900000e+002    +2.7299990e-007    +3.2721555e-008
+2.6000000e+002    +3.3911527e-007    +3.4750670e-008
+2.6100000e+002    +4.2198459e-007    +3.4764142e-008
+2.6200000e+002    +4.9337291e-007    +3.3812743e-008
+2.6300000e+002    +5.3179502e-007    +3.6301024e-008
+2.6400000e+002    +6.3597577e-007    +3.8743099e-008
+2.6500000e+002    +7.0896306e-007    +3.8108912e-008
+2.6600000e+002    +8.7135300e-007    +3.7331041e-008
+2.6700000e+002    +1.0551101e-006    +3.4593675e-008
+2.6800000e+002    +1.1925133e-006    +3.7249034e-008
+2.6900000e+002    +1.5355907e-006    +4.0524931e-008
+2.7000000e+002    +2.3187399e-006    +4.1547562e-008
+2.7100000e+002    +3.3366537e-006    +3.7641207e-008
+2.7200000e+002    +3.3357599e-006    +3.8954667e-008
+2.7300000e+002    +2.7455396e-006    +4.1017792e-008
+2.7400000e+002    +2.2963759e-006    +4.0758216e-008
+2.7500000e+002    +1.8588984e-006    +3.7437765e-008
+2.7600000e+002    +1.7302643e-006    +3.7335838e-008
+2.7700000e+002    +1.6543248e-006    +3.7227121e-008
+2.7800000e+002    +1.4132033e-006    +3.7776971e-008
+2.7900000e+002    +1.2321158e-006    +4.0866478e-008
+2.8000000e+002    +1.0202141e-006    +4.0079250e-008
+2.8100000e+002    +9.9341867e-007    +3.9622282e-008
+2.8200000e+002    +1.0951715e-006    +4.0129798e-008
+2.8300000e+002    +8.2861101e-007    +4.0358064e-008
+2.8400000e+002    +6.4467588e-007    +3.7591072e-008
+2.8500000e+002    +5.7910114e-007    +4.0101874e-008
+2.8600000e+002    +4.7731004e-007    +4.2179003e-008
+2.8700000e+002    +3.6860095e-007    +3.7381778e-008
+2.8800000e+002    +3.6343735e-007    +3.9665288e-008
+2.8900000e+002    +3.4732284e-007    +3.9709995e-008
+2.9000000e+002    +3.1399517e-007    +3.9784361e-008
+2.9100000e+002    +2.9181359e-007    +4.0352749e-008
+2.9200000e+002    +2.6077501e-007    +3.5682667e-008
+2.9300000e+002    +2.2007914e-007    +3.3580253e-008
+2.9400000e+002    +1.9467961e-007    +3.6504986e-008
+2.9500000e+002    +1.7553792e-007    +3.8684274e-008
+2.9600000e+002    +1.7242697e-007    +3.8116948e-008
+2.9700000e+002    +1.6790378e-007    +3.9150446e-008
+2.9800000e+002    +1.5908567e-007    +4.0468461e-008
+2.9900000e+002    +1.6610937e-007    +4.3042245e-008
+3.0000000e+002    +1.9245130e-007    +4.6694606e-008
+3.0100000e+002    +1.4831564e-007    +4.1819689e-008
+3.0200000e+002    +1.2485187e-007    +3.7633566e-008
+3.0300000e+002    +1.2002792e-007    +3.7656836e-008
+3.0400000e+002    +1.0335905e-007    +4.0141611e-008
+3.0500000e+002    +1.0736950e-007    +4.1457383e-008
+3.0600000e+002    +1.0903889e-007    +4.2054612e-008
+3.0700000e+002    +9.5010328e-008    +4.3101643e-008
+3.0800000e+002    +8.5461650e-008    +4.1802934e-008
+3.0900000e+002    +9.0059842e-008    +4.0803979e-008
+3.1000000e+002    +9.7084673e-008    +3.7620715e-008
+3.1100000e+002    +9.8496777e-008    +3.9559730e-008
+3.1200000e+002    +8.8944404e-008    +4.0207688e-008
+3.1300000e+002    +8.7506812e-008    +3.8640593e-008
+3.1400000e+002    +9.1637922e-008    +4.0009429e-008
+3.1500000e+002    +8.9611348e-008    +4.3385715e-008
+3.1600000e+002    +8.7698410e-008    +3.9797161e-008
+3.1700000e+002    +8.2150983e-008    +4.0001961e-008
+3.1800000e+002    +8.8427058e-008    +4.0579163e-008
+3.1900000e+002    +8.9565809e-008    +4.1860758e-008
+3.2000000e+002    +8.1036369e-008    +4.0226144e-008
+3.2100000e+002    +7.9831096e-008    +4.2354749e-008
+3.2200000e+002    +7.8637100e-008    +3.7959161e-008
+3.2300000e+002    +7.6293119e-008    +4.1197968e-008
+3.2400000e+002    +7.2902260e-008    +4.1821572e-008
+3.2500000e+002    +7.3195004e-008    +4.4338837e-008
+3.2600000e+002    +7.5505788e-008    +4.3742197e-008
+3.2700000e+002    +7.7595459e-008    +4.3180322e-008
+3.2800000e+002    +7.7909704e-008    +4.1528953e-008
+3.2900000e+002    +8.0787800e-008    +4.1836589e-008
+3.3000000e+002    +8.2686519e-008    +4.5548489e-008
+3.3100000e+002    +8.1419948e-008    +4.6823722e-008
+3.3200000e+002    +8.1993647e-008    +4.3342578e-008
+3.3300000e+002    +7.8662232e-008    +3.8459774e-008
+3.3400000e+002    +8.7386795e-008    +3.6947576e-008
+3.3500000e+002    +9.1863576e-008    +3.8864481e-008
+3.3600000e+002    +7.5959960e-008    +3.9522870e-008
+3.3700000e+002    +7.6320603e-008    +4.4396028e-008
+3.3800000e+002    +8.2788532e-008    +4.5207400e-008
+3.3900000e+002    +8.6171809e-008    +4.2411195e-008
+3.4000000e+002    +8.8887582e-008    +4.3995939e-008
+3.4100000e+002    +9.0567646e-008    +4.1486661e-008
+3.4200000e+002    +1.0729644e-007    +4.3967738e-008
+3.4300000e+002    +1.1924439e-007    +4.2266809e-008
+3.4400000e+002    +1.2031357e-007    +4.2839936e-008
+3.4500000e+002    +1.2850192e-007    +4.2570562e-008
+3.4600000e+002    +1.4413901e-007    +4.4314358e-008
+3.4700000e+002    +1.5755356e-007    +4.5843247e-008
+3.4800000e+002    +2.0107986e-007    +4.4853945e-008
+3.4900000e+002    +2.9718458e-007    +4.5586511e-008
+3.5000000e+002    +2.7583116e-007    +4.6538599e-008
+3.5100000e+002    +2.6686257e-007    +4.5263821e-008
+3.5200000e+002    +2.8849692e-007    +4.2204761e-008
+3.5300000e+002    +2.6951503e-007    +4.2453824e-008
+3.5400000e+002    +2.1237720e-007    +4.2889777e-008
+3.5500000e+002    +1.7821847e-007    +4.3170459e-008
+3.5600000e+002    +1.4814914e-007    +4.2269779e-008
+3.5700000e+002    +1.3254449e-007    +4.3527852e-008
+3.5800000e+002    +1.2973514e-007    +4.4997186e-008
+3.5900000e+002    +1.3372778e-007    +4.3907001e-008
+3.6000000e+002    +1.1521756e-007    +4.6898791e-008
+3.6100000e+002    +9.1105811e-008    +4.6811849e-008
+3.6200000e+002    +8.1790979e-008    +4.6209475e-008
+3.6300000e+002    +7.5002845e-008    +4.5151594e-008
+3.6400000e+002    +6.8295122e-008    +4.6574382e-008
+3.6500000e+002    +7.0329719e-008    +4.8221043e-008
+3.6600000e+002    +6.9867468e-008    +4.9312110e-008
+3.6700000e+002    +6.5559277e-008    +4.7658006e-008
+3.6800000e+002    +6.8078982e-008    +4.8249166e-008
+3.6900000e+002    +7.2611002e-008    +4.7078483e-008
+3.7000000e+002    +7.4496789e-008    +4.5951946e-008
+3.7100000e+002    +7.7212341e-008    +5.0807056e-008
+3.7200000e+002    +7.5484401e-008    +4.9431637e-008
+3.7300000e+002    +7.4332725e-008    +4.5390081e-008
+3.7400000e+002    +7.3501916e-008    +4.9304585e-008
+3.7500000e+002    +7.3685904e-008    +5.0418617e-008
+3.7600000e+002    +7.8647204e-008    +5.0929764e-008
+3.7700000e+002    +7.2369687e-008    +5.0244985e-008
+3.7800000e+002    +7.8062200e-008    +4.6948095e-008
+3.7900000e+002    +8.5155271e-008    +4.9367582e-008
+3.8000000e+002    +8.0536545e-008    +4.9293760e-008
+3.8100000e+002    +7.8196194e-008    +5.1743662e-008
+3.8200000e+002    +7.5863106e-008    +5.1054275e-008
+3.8300000e+002    +7.7333581e-008    +4.7052595e-008
+3.8400000e+002    +8.0774846e-008    +4.8285308e-008
+3.8500000e+002    +7.4996422e-008    +4.8214954e-008
+3.8600000e+002    +8.3208725e-008    +4.4978218e-008
+3.8700000e+002    +9.8073542e-008    +5.0740717e-008
+3.8800000e+002    +1.0988209e-007    +5.1023065e-008
+3.8900000e+002    +9.9400452e-008    +5.1345527e-008
+3.9000000e+002    +9.5597144e-008    +4.8994508e-008
+3.9100000e+002    +9.4759152e-008    +4.8607760e-008
+3.9200000e+002    +8.5122274e-008    +4.8861441e-008
+3.9300000e+002    +8.2089038e-008    +5.3509012e-008
+3.9400000e+002    +7.9984808e-008    +4.8546688e-008
+3.9500000e+002    +7.1907522e-008    +5.0343719e-008
+3.9600000e+002    +7.0177300e-008    +5.4675706e-008
+3.9700000e+002    +6.4345961e-008    +5.3539043e-008
+3.9800000e+002    +6.2106096e-008    +4.8356878e-008
+3.9900000e+002    +6.1911649e-008    +4.9220368e-008
+4.0000000e+002    +6.7237849e-008    +4.9599247e-008
+4.0100000e+002    +6.4601508e-008    +5.1508938e-008
+4.0200000e+002    +6.6396687e-008    +5.1054446e-008
+4.0300000e+002    +7.4925723e-008    +5.2160402e-008
+4.0400000e+002    +7.9871597e-008    +5.2635201e-008
+4.0500000e+002    +8.0468482e-008    +5.5593404e-008
+4.0600000e+002    +7.8424129e-008    +5.3155272e-008
+4.0700000e+002    +7.7585490e-008    +5.1698631e-008
+4.0800000e+002    +8.0390684e-008    +5.3197368e-008
+4.0900000e+002    +8.0442334e-008    +5.0819946e-008
+4.1000000e+002    +7.3316457e-008    +4.7418744e-008
+4.1100000e+002    +6.9128831e-008    +5.1771849e-008
+4.1200000e+002    +7.1655165e-008    +5.1846769e-008
+4.1300000e+002    +7.2454355e-008    +5.3035940e-008
+4.1400000e+002    +6.8021528e-008    +5.0998196e-008
+4.1500000e+002    +6.6928060e-008    +5.0622468e-008
+4.1600000e+002    +6.6983048e-008    +5.0010907e-008
+4.1700000e+002    +6.7314893e-008    +4.9711069e-008
+4.1800000e+002    +6.8654195e-008    +5.1650066e-008
+4.1900000e+002    +7.2282653e-008    +5.5437482e-008
+4.2000000e+002    +9.6514469e-008    +5.9636903e-008
+4.2100000e+002    +6.9630445e-008    +5.2623182e-008
+4.2200000e+002    +6.1998378e-008    +4.9072895e-008
+4.2300000e+002    +6.1236676e-008    +5.5847721e-008
+4.2400000e+002    +6.0128698e-008    +5.4877724e-008
+4.2500000e+002    +6.3094859e-008    +5.3363451e-008
+4.2600000e+002    +5.8093971e-008    +5.4734510e-008
+4.2700000e+002    +5.5067549e-008    +5.5909688e-008
+4.2800000e+002    +5.1926865e-008    +5.5237891e-008
+4.2900000e+002    +5.8976955e-008    +5.6556608e-008
+4.3000000e+002    +6.1100408e-008    +5.7418937e-008
+4.3100000e+002    +5.8792047e-008    +5.9839444e-008
+4.3200000e+002    +6.4981528e-008    +5.5671769e-008
+4.3300000e+002    +6.3377094e-008    +5.7694908e-008
+4.3400000e+002    +7.6761722e-008    +6.1475426e-008
+4.3500000e+002    +7.6652320e-008    +6.0342785e-008
+4.3600000e+002    +7.5658150e-008    +5.7144533e-008
+4.3700000e+002    +8.6358114e-008    +5.6383811e-008
+4.3800000e+002    +8.0610945e-008    +5.1844378e-008
+4.3900000e+002    +9.9135931e-008    +5.3966804e-008
+4.4000000e+002    +1.1298331e-007    +5.7179619e-008
+4.4100000e+002    +1.2218021e-007    +5.3992292e-008
+4.4200000e+002    +1.4615992e-007    +5.1744969e-008
+4.4300000e+002    +1.5194766e-007    +5.3256745e-008
+4.4400000e+002    +1.4818883e-007    +5.4708973e-008
+4.4500000e+002    +1.3656570e-007    +5.2678562e-008
+4.4600000e+002    +1.2296994e-007    +5.2799759e-008
+4.4700000e+002    +1.1375992e-007    +5.4461395e-008
+4.4800000e+002    +9.6643099e-008    +5.3909954e-008
+4.4900000e+002    +8.2111669e-008    +6.0952800e-008
+4.5000000e+002    +7.3483442e-008    +5.8658514e-008
+4.5100000e+002    +7.2012050e-008    +5.8787077e-008
+4.5200000e+002    +6.6928649e-008    +6.0039710e-008
+4.5300000e+002    +6.8531961e-008    +6.1710558e-008
+4.5400000e+002    +6.5348424e-008    +5.7147481e-008
+4.5500000e+002    +6.7740324e-008    +5.8824462e-008
+4.5600000e+002    +6.4883075e-008    +6.3336053e-008
+4.5700000e+002    +5.8754878e-008    +5.9875397e-008
+4.5800000e+002    +6.0485263e-008    +6.2266345e-008
+4.5900000e+002    +6.0164098e-008    +6.2473219e-008
+4.6000000e+002    +5.6179022e-008    +6.0267432e-008
+4.6100000e+002    +5.6049394e-008    +5.9956967e-008
+4.6200000e+002    +5.3248794e-008    +5.8287881e-008
+4.6300000e+002    +5.4430071e-008    +5.8367291e-008
+4.6400000e+002    +5.3914274e-008    +6.2417406e-008
+4.6500000e+002    +5.5536297e-008    +6.2968972e-008
+4.6600000e+002    +5.5977068e-008    +5.8512370e-008
+4.6700000e+002    +5.4167039e-008    +6.0885178e-008
+4.6800000e+002    +5.1580926e-008    +6.1931772e-008
+4.6900000e+002    +5.9803583e-008    +6.0059023e-008
+4.7000000e+002    +6.5480727e-008    +5.7572208e-008
+4.7100000e+002    +7.2493584e-008    +6.0399522e-008
+4.7200000e+002    +7.5976224e-008    +6.1743293e-008
+4.7300000e+002    +7.2467408e-008    +5.9522492e-008
+4.7400000e+002    +7.2781496e-008    +5.4464621e-008
+4.7500000e+002    +8.0194710e-008    +6.0518680e-008
+4.7600000e+002    +8.9208761e-008    +5.8947951e-008
+4.7700000e+002    +9.4983832e-008    +6.0174010e-008
+4.7800000e+002    +9.2720846e-008    +6.0426650e-008
+4.7900000e+002    +1.3024595e-007    +6.6305333e-008
+4.8000000e+002    +2.2241309e-007    +6.8963942e-008
+4.8100000e+002    +1.5871163e-007    +6.0902629e-008
+4.8200000e+002    +1.1459004e-007    +6.0833123e-008
+4.8300000e+002    +1.0912692e-007    +5.9606329e-008
+4.8400000e+002    +1.1149270e-007    +6.2628914e-008
+4.8500000e+002    +1.2710362e-007    +6.3724023e-008
+4.8600000e+002    +1.4053275e-007    +6.0199319e-008
+4.8700000e+002    +1.3387483e-007    +6.2655118e-008
+4.8800000e+002    +1.3470984e-007    +6.2528322e-008
+4.8900000e+002    +1.4629381e-007    +6.1768382e-008
+4.9000000e+002    +1.5550380e-007    +6.0611846e-008
+4.9100000e+002    +1.6362550e-007    +6.6100206e-008
+4.9200000e+002    +1.8964680e-007    +6.6221737e-008
+4.9300000e+002    +1.8729853e-007    +6.4123519e-008
+4.9400000e+002    +1.7570953e-007    +6.8985756e-008
+4.9500000e+002    +1.5864384e-007    +6.6900661e-008
+4.9600000e+002    +1.4279333e-007    +6.4764997e-008
+4.9700000e+002    +1.3465822e-007    +6.6625113e-008
+4.9800000e+002    +1.3438130e-007    +6.4711756e-008
+4.9900000e+002    +1.3647727e-007    +6.8522858e-008
+5.0000000e+002    +1.2845409e-007    +6.7832609e-008
+5.0100000e+002    +1.1356524e-007    +6.3917703e-008
+5.0200000e+002    +1.1248164e-007    +6.2213793e-008
+5.0300000e+002    +1.1816680e-007    +6.6701524e-008
+5.0400000e+002    +1.3018719e-007    +6.8264235e-008
+5.0500000e+002    +1.7226158e-007    +6.3275792e-008
+5.0600000e+002    +2.0538272e-007    +6.6472111e-008
+5.0700000e+002    +2.3998874e-007    +6.6177179e-008
+5.0800000e+002    +2.7631128e-007    +6.2460394e-008
+5.0900000e+002    +2.6449277e-007    +6.1847715e-008
+5.1000000e+002    +2.6005534e-007    +6.3870907e-008
+5.1100000e+002    +2.5184428e-007    +7.2435185e-008
+5.1200000e+002    +2.2761536e-007    +6.7242354e-008
+5.1300000e+002    +1.7793418e-007    +6.9781223e-008
+5.1400000e+002    +1.4100183e-007    +6.7028147e-008
+5.1500000e+002    +1.3174244e-007    +6.3923665e-008
+5.1600000e+002    +1.3399161e-007    +6.6460871e-008
+5.1700000e+002    +1.4541880e-007    +6.9043267e-008
+5.1800000e+002    +1.5317833e-007    +6.6840528e-008
+5.1900000e+002    +1.6076466e-007    +7.5185305e-008
+5.2000000e+002    +1.6188712e-007    +7.3750741e-008
+5.2100000e+002    +1.6425892e-007    +6.9824523e-008
+5.2200000e+002    +1.8994896e-007    +7.0133545e-008
+5.2300000e+002    +2.4688526e-007    +6.5639952e-008
+5.2400000e+002    +3.3485594e-007    +6.9733275e-008
+5.2500000e+002    +3.8449724e-007    +7.2614270e-008
+5.2600000e+002    +5.0929259e-007    +7.2592911e-008
+5.2700000e+002    +6.3359283e-007    +6.3047771e-008
+5.2800000e+002    +8.4487624e-007    +6.5591827e-008
+5.2900000e+002    +1.1293506e-006    +6.9649793e-008
+5.3000000e+002    +1.1674667e-006    +7.1198194e-008
+5.3100000e+002    +1.1113156e-006    +7.1990549e-008
+5.3200000e+002    +1.2185238e-006    +7.7353029e-008
+5.3300000e+002    +1.2346603e-006    +7.4532380e-008
+5.3400000e+002    +1.1378228e-006    +7.1385195e-008
+5.3500000e+002    +1.1468620e-006    +6.8781247e-008
+5.3600000e+002    +1.0266449e-006    +7.2308524e-008
+5.3700000e+002    +9.8704641e-007    +6.9130124e-008
+5.3800000e+002    +8.9786357e-007    +6.9926791e-008
+5.3900000e+002    +7.9504997e-007    +7.1008721e-008
+5.4000000e+002    +7.2566849e-007    +6.8595725e-008
+5.4100000e+002    +7.8879833e-007    +7.3360184e-008
+5.4200000e+002    +8.8183606e-007    +7.4577564e-008
+5.4300000e+002    +1.1693628e-006    +7.3271309e-008
+5.4400000e+002    +1.5474282e-006    +7.5680411e-008
+5.4500000e+002    +2.0048442e-006    +7.7665014e-008
+5.4600000e+002    +2.4430094e-006    +7.5465671e-008
+5.4700000e+002    +2.4440235e-006    +7.2121566e-008
+5.4800000e+002    +2.0924833e-006    +7.3692867e-008
+5.4900000e+002    +1.6766301e-006    +7.1579045e-008
+5.5000000e+002    +1.3026039e-006    +7.3341177e-008
+5.5100000e+002    +1.0128000e-006    +6.7827848e-008
+5.5200000e+002    +8.7604002e-007    +7.0862995e-008
+5.5300000e+002    +9.4794319e-007    +7.0399174e-008
+5.5400000e+002    +6.6390129e-007    +7.1696086e-008
+5.5500000e+002    +4.9733723e-007    +7.5028126e-008
+5.5600000e+002    +4.5797418e-007    +7.4860594e-008
+5.5700000e+002    +4.0167004e-007    +7.8309604e-008
+5.5800000e+002    +3.9006625e-007    +7.9069295e-008
+5.5900000e+002    +3.9608713e-007    +7.6116663e-008
+5.6000000e+002    +4.1820380e-007    +7.7567606e-008
+5.6100000e+002    +3.7493874e-007    +7.2869767e-008
+5.6200000e+002    +3.0752250e-007    +7.4459088e-008
+5.6300000e+002    +2.9072564e-007    +8.2284679e-008
+5.6400000e+002    +2.7422951e-007    +8.4033566e-008
+5.6500000e+002    +2.8307838e-007    +7.8632006e-008
+5.6600000e+002    +3.0809196e-007    +7.1274762e-008
+5.6700000e+002    +3.1368333e-007    +8.2518461e-008
+5.6800000e+002    +3.0583789e-007    +8.4527336e-008
+5.6900000e+002    +3.1014022e-007    +7.8201346e-008
+5.7000000e+002    +3.7576791e-007    +7.8567801e-008
+5.7100000e+002    +4.2700654e-007    +8.1082916e-008
+5.7200000e+002    +4.7481470e-007    +7.7187934e-008
+5.7300000e+002    +5.0269705e-007    +7.5861692e-008
+5.7400000e+002    +5.7485295e-007    +8.1571258e-008
+5.7500000e+002    +6.3868947e-007    +7.7254150e-008
+5.7600000e+002    +6.7053617e-007    +7.8120337e-008
+5.7700000e+002    +6.8856508e-007    +8.7759581e-008
+5.7800000e+002    +5.7539603e-007    +8.3965411e-008
+5.7900000e+002    +4.8681250e-007    +7.7407151e-008
+5.8000000e+002    +4.1773157e-007    +7.6005506e-008
+5.8100000e+002    +4.0182178e-007    +7.6827320e-008
+5.8200000e+002    +3.5331453e-007    +8.7229587e-008
+5.8300000e+002    +2.9616243e-007    +8.5517222e-008
+5.8400000e+002    +2.5379626e-007    +8.4253259e-008
+5.8500000e+002    +2.2843405e-007    +7.9993939e-008
+5.8600000e+002    +2.3350934e-007    +8.4175127e-008
+5.8700000e+002    +2.0304459e-007    +7.7257454e-008
+5.8800000e+002    +1.7925976e-007    +7.8389007e-008
+5.8900000e+002    +1.6741889e-007    +8.5687994e-008
+5.9000000e+002    +1.5056015e-007    +8.6187420e-008
+5.9100000e+002    +1.2176866e-007    +8.4703480e-008
+5.9200000e+002    +1.1389326e-007    +8.6226038e-008
+5.9300000e+002    +1.1793349e-007    +7.9901952e-008
+5.9400000e+002    +1.2451194e-007    +7.8851087e-008
+5.9500000e+002    +1.2735507e-007    +7.9849151e-008
+5.9600000e+002    +1.1056417e-007    +7.8332825e-008
+5.9700000e+002    +1.0883473e-007    +8.3119062e-008
+5.9800000e+002    +1.1222296e-007    +8.2398230e-008
+5.9900000e+002    +1.0729761e-007    +8.1271331e-008
+6.0000000e+002    +1.1174848e-007    +7.9842316e-008
+6.0100000e+002    +1.2227092e-007    +7.8542961e-008
+6.0200000e+002    +1.3285671e-007    +8.7353989e-008
+6.0300000e+002    +1.8451624e-007    +9.1535554e-008
+6.0400000e+002    +1.9852833e-007    +8.5467654e-008
+6.0500000e+002    +2.3543835e-007    +8.5299192e-008
+6.0600000e+002    +3.1744602e-007    +8.6440835e-008
+6.0700000e+002    +2.3338836e-007    +8.5766310e-008
+6.0800000e+002    +1.1692486e-007    +8.1106599e-008
+6.0900000e+002    +7.6289183e-008    +8.0365794e-008
+6.1000000e+002    +6.7688056e-008    +8.7695810e-008
+6.1100000e+002    +6.0190395e-008    +8.4143799e-008
+6.1200000e+002    +5.9273820e-008    +7.6552908e-008
+6.1300000e+002    +6.2533744e-008    +7.6746808e-008
+6.1400000e+002    +6.2526262e-008    +8.4533461e-008
+6.1500000e+002    +4.9426863e-008    +9.1320530e-008
+6.1600000e+002    +4.8180400e-008    +9.2024287e-008
+6.1700000e+002    +4.8030767e-008    +8.4455721e-008
+6.1800000e+002    +4.9226692e-008    +8.9613707e-008
+6.1900000e+002    +4.9968808e-008    +8.5623576e-008
+6.2000000e+002    +5.0325262e-008    +8.3599566e-008
+6.2100000e+002    +4.9212751e-008    +8.6105509e-008
+6.2200000e+002    +4.6064546e-008    +8.5914280e-008
+6.2300000e+002    +4.7481681e-008    +1.0198971e-007
+6.2400000e+002    +5.1308728e-008    +9.8168350e-008
+6.2500000e+002    +5.6077095e-008    +8.9265491e-008
+6.2600000e+002    +5.5176429e-008    +8.9450722e-008
+6.2700000e+002    +4.6041134e-008    +8.8842313e-008
+6.2800000e+002    +4.7521109e-008    +8.6783466e-008
+6.2900000e+002    +4.6750007e-008    +9.4203330e-008
+6.3000000e+002    +4.5796966e-008    +9.1729831e-008
+6.3100000e+002    +5.0382482e-008    +8.6835890e-008
+6.3200000e+002    +5.1731337e-008    +9.1882740e-008
+6.3300000e+002    +5.6862142e-008    +9.7471741e-008
+6.3400000e+002    +6.8508641e-008    +9.1622930e-008
+6.3500000e+002    +6.6329072e-008    +8.6531514e-008
+6.3600000e+002    +6.4381787e-008    +8.9644217e-008
+6.3700000e+002    +6.1632420e-008    +8.9396231e-008
+6.3800000e+002    +6.5320307e-008    +8.8326722e-008
+6.3900000e+002    +6.5863460e-008    +8.2604302e-008
+6.4000000e+002    +7.0561988e-008    +8.6299252e-008
+6.4100000e+002    +7.2734444e-008    +8.7579963e-008
+6.4200000e+002    +7.3659621e-008    +9.0427740e-008
+6.4300000e+002    +7.7709878e-008    +9.0886012e-008
+6.4400000e+002    +8.3977852e-008    +9.6239347e-008
+6.4500000e+002    +1.0449647e-007    +9.7735580e-008
+6.4600000e+002    +1.3773696e-007    +9.4939310e-008
+6.4700000e+002    +1.5193199e-007    +8.8572520e-008
+6.4800000e+002    +1.4001127e-007    +9.0771728e-008
+6.4900000e+002    +1.5162452e-007    +8.8294925e-008
+6.5000000e+002    +1.4334312e-007    +9.1045614e-008
+6.5100000e+002    +1.4380895e-007    +9.0802331e-008
+6.5200000e+002    +1.3447354e-007    +9.3003578e-008
+6.5300000e+002    +1.1124265e-007    +9.1420951e-008
+6.5400000e+002    +1.0036310e-007    +8.8232412e-008
+6.5500000e+002    +8.6965365e-008    +9.2755059e-008
+6.5600000e+002    +7.6018445e-008    +9.7219505e-008
+6.5700000e+002    +7.4114567e-008    +9.4469421e-008
+6.5800000e+002    +7.0824804e-008    +9.0672117e-008
+6.5900000e+002    +6.2680577e-008    +9.3932833e-008
+6.6000000e+002    +6.8301198e-008    +9.1308799e-008
+6.6100000e+002    +6.2499701e-008    +8.7965930e-008
+6.6200000e+002    +5.9500014e-008    +8.9008680e-008
+6.6300000e+002    +5.9001628e-008    +9.8388156e-008
+6.6400000e+002    +6.5977233e-008    +9.5930979e-008
+6.6500000e+002    +6.9515863e-008    +9.1491849e-008
+6.6600000e+002    +7.9661056e-008    +9.4680836e-008
+6.6700000e+002    +8.1373749e-008    +9.3832227e-008
+6.6800000e+002    +8.2370008e-008    +8.7003279e-008
+6.6900000e+002    +9.1316522e-008    +8.9207191e-008
+6.7000000e+002    +9.3612016e-008    +8.8183988e-008
+6.7100000e+002    +9.1806911e-008    +9.9462355e-008
+6.7200000e+002    +8.4255753e-008    +9.8837162e-008
+6.7300000e+002    +8.1720245e-008    +9.9371100e-008
+6.7400000e+002    +7.9468954e-008    +9.7030963e-008
+6.7500000e+002    +7.2033643e-008    +8.8400462e-008
+6.7600000e+002    +7.8651524e-008    +8.9877098e-008
+6.7700000e+002    +8.6833886e-008    +8.6232383e-008
+6.7800000e+002    +8.5466439e-008    +8.8017224e-008
+6.7900000e+002    +7.9818740e-008    +1.0205871e-007
+6.8000000e+002    +8.6442448e-008    +9.7415572e-008
+6.8100000e+002    +8.9847006e-008    +1.0113710e-007
+6.8200000e+002    +8.9007706e-008    +1.0447066e-007
+6.8300000e+002    +9.7214695e-008    +9.7456656e-008
+6.8400000e+002    +1.2014461e-007    +9.6043109e-008
+6.8500000e+002    +1.3903514e-007    +9.7181612e-008
+6.8600000e+002    +1.4603448e-007    +9.9481142e-008
+6.8700000e+002    +1.9094870e-007    +9.9570308e-008
+6.8800000e+002    +2.0907564e-007    +9.5949623e-008
+6.8900000e+002    +2.0527541e-007    +9.3087145e-008
+6.9000000e+002    +1.8400743e-007    +1.0183250e-007
+6.9100000e+002    +1.6678720e-007    +1.0234216e-007
+6.9200000e+002    +1.6462164e-007    +1.0466917e-007
+6.9300000e+002    +1.6740860e-007    +9.9277749e-008
+6.9400000e+002    +1.5050016e-007    +9.8650034e-008
+6.9500000e+002    +1.4853727e-007    +1.0252323e-007
+6.9600000e+002    +1.6380075e-007    +1.0555330e-007
+6.9700000e+002    +1.7649009e-007    +1.0265356e-007
+6.9800000e+002    +1.6157814e-007    +9.5970904e-008
+6.9900000e+002    +1.6386065e-007    +9.9599170e-008
+7.0000000e+002    +1.6539833e-007    +1.0089874e-007
+7.0100000e+002    +1.6370385e-007    +1.0090705e-007
+7.0200000e+002    +2.3951964e-007    +1.0152471e-007
+7.0300000e+002    +2.6069972e-007    +9.8405977e-008
+7.0400000e+002    +1.8805375e-007    +9.5632103e-008
+7.0500000e+002    +2.0107898e-007    +9.3603795e-008
+7.0600000e+002    +1.8663239e-007    +9.4549634e-008
+7.0700000e+002    +1.8427107e-007    +1.0054784e-007
+7.0800000e+002    +1.7220540e-007    +1.0747435e-007
+7.0900000e+002    +1.7902944e-007    +1.0875851e-007
+7.1000000e+002    +1.6840301e-007    +1.0505914e-007
+7.1100000e+002    +1.5942979e-007    +9.5561461e-008
+7.1200000e+002    +1.6404120e-007    +1.0193262e-007
+7.1300000e+002    +1.6736688e-007    +1.0573356e-007
+7.1400000e+002    +1.7132902e-007    +1.0982227e-007
+7.1500000e+002    +1.4258386e-007    +1.0796435e-007
+7.1600000e+002    +1.1953054e-007    +9.9852215e-008
+7.1700000e+002    +1.0366398e-007    +1.0091392e-007
+7.1800000e+002    +1.0479911e-007    +9.9860763e-008
+7.1900000e+002    +1.0540344e-007    +9.9609892e-008
+7.2000000e+002    +1.2261697e-007    +1.1121517e-007
+7.2100000e+002    +1.1163088e-007    +1.0510055e-007
+7.2200000e+002    +9.8709513e-008    +9.5324317e-008
+7.2300000e+002    +8.7456577e-008    +9.8809927e-008
+7.2400000e+002    +8.0123769e-008    +1.0255228e-007
+7.2500000e+002    +7.6373581e-008    +1.0465814e-007
+7.2600000e+002    +7.3970426e-008    +1.1135398e-007
+7.2700000e+002    +7.4264037e-008    +1.0712022e-007
+7.2800000e+002    +7.1016203e-008    +1.0300038e-007
+7.2900000e+002    +7.1529158e-008    +9.7935811e-008
+7.3000000e+002    +6.8959025e-008    +1.0328123e-007
+7.3100000e+002    +6.4557334e-008    +1.0870885e-007
+7.3200000e+002    +6.2716580e-008    +1.0796103e-007
+7.3300000e+002    +6.1808613e-008    +1.1005935e-007
+7.3400000e+002    +6.0783783e-008    +1.1610165e-007
+7.3500000e+002    +6.3591571e-008    +1.1219118e-007
+7.3600000e+002    +6.2947059e-008    +1.0621118e-007
+7.3700000e+002    +5.9523863e-008    +9.5724758e-008
+7.3800000e+002    +6.3734937e-008    +1.1176688e-007
+7.3900000e+002    +6.4471131e-008    +1.1968747e-007
+7.4000000e+002    +6.1390097e-008    +1.2079008e-007
+7.4100000e+002    +5.8321810e-008    +1.1484762e-007
+7.4200000e+002    +5.1194831e-008    +1.0882732e-007
+7.4300000e+002    +5.2526378e-008    +1.1254551e-007
+7.4400000e+002    +5.1240271e-008    +1.0729502e-007
+7.4500000e+002    +5.2291028e-008    +1.0653037e-007
+7.4600000e+002    +5.8559479e-008    +1.0929480e-007
+7.4700000e+002    +5.5668469e-008    +1.1732596e-007
+7.4800000e+002    +5.9896962e-008    +1.0955010e-007
+7.4900000e+002    +6.1232910e-008    +1.1647550e-007
+7.5000000e+002    +6.2338849e-008    +1.1849628e-007
+7.5100000e+002    +6.1621392e-008    +1.1067396e-007
+7.5200000e+002    +5.1432306e-008    +1.0858646e-007
+7.5300000e+002    +4.9034277e-008    +1.1641477e-007
+7.5400000e+002    +5.1727021e-008    +1.1010745e-007
+7.5500000e+002    +5.2709861e-008    +1.1365205e-007
+7.5600000e+002    +5.5300031e-008    +1.1486541e-007
+7.5700000e+002    +5.1470607e-008    +1.1635663e-007
+7.5800000e+002    +4.7499356e-008    +1.1459042e-007
+7.5900000e+002    +4.6517908e-008    +1.0949658e-007
+7.6000000e+002    +4.3890179e-008    +1.0606668e-007
+7.6100000e+002    +4.6217998e-008    +1.0563144e-007
+7.6200000e+002    +4.7171358e-008    +1.1213428e-007
+7.6300000e+002    +4.4765287e-008    +1.1207200e-007
+7.6400000e+002    +4.7470213e-008    +1.0611572e-007
+7.6500000e+002    +5.0575359e-008    +1.1272384e-007
+7.6600000e+002    +5.2981232e-008    +1.1471592e-007
+7.6700000e+002    +5.4784532e-008    +1.0486725e-007
+7.6800000e+002    +5.5547947e-008    +1.0067178e-007
+7.6900000e+002    +4.7628870e-008    +1.1002503e-007
+7.7000000e+002    +4.6841002e-008    +1.0987485e-007
+7.7100000e+002    +4.5202139e-008    +1.1419014e-007
+7.7200000e+002    +4.3485720e-008    +1.1252018e-007
+7.7300000e+002    +4.4608427e-008    +1.2184316e-007
+7.7400000e+002    +4.4489571e-008    +1.2317371e-007
+7.7500000e+002    +4.4595843e-008    +1.1724496e-007
+7.7600000e+002    +4.2827285e-008    +1.2003385e-007
+7.7700000e+002    +4.6535892e-008    +1.1675142e-007
+7.7800000e+002    +4.6068440e-008    +1.1148916e-007
+7.7900000e+002    +4.9734325e-008    +1.0558136e-007
+7.8000000e+002    +5.9226263e-008    +1.2063593e-007
+7.8100000e+002    +5.6681312e-008    +1.2248174e-007
+7.8200000e+002    +4.8781409e-008    +1.2190149e-007
+7.8300000e+002    +4.5630980e-008    +1.2147382e-007
+7.8400000e+002    +4.8322537e-008    +1.2001315e-007
+7.8500000e+002    +5.1418642e-008    +1.2442339e-007
+7.8600000e+002    +5.4179647e-008    +1.2475388e-007
+7.8700000e+002    +5.2886556e-008    +1.2284079e-007
+7.8800000e+002    +4.9197460e-008    +1.2432071e-007
+7.8900000e+002    +4.5235204e-008    +1.2051983e-007
+7.9000000e+002    +4.5271278e-008    +1.1497745e-007
+7.9100000e+002    +4.2583697e-008    +1.1197361e-007
+7.9200000e+002    +4.5160867e-008    +1.0946017e-007
+7.9300000e+002    +4.8860528e-008    +1.0832674e-007
+7.9400000e+002    +4.8467705e-008    +1.1013744e-007
+7.9500000e+002    +4.8928868e-008    +1.1090605e-007
+7.9600000e+002    +4.7308291e-008    +1.2730837e-007
+7.9700000e+002    +4.8097469e-008    +1.1884456e-007
+7.9800000e+002    +5.1853942e-008    +1.1080819e-007
+7.9900000e+002    +5.2348760e-008    +1.2390970e-007
#
#
# North DC Val: 0.72821997 VoltsSouth DC Val: 0.6203538900000001 Volts
# SR785 Measurement - Timestamp: Apr 28 2020 - 17:06:43
# Parameter File: /home/controls/Git/cit_ctnlab/ctn_scripts/TransRINSpecShort.yml
#---------- Measurement Setup ------------
# Start Frequency (Hz): 0.000000
# Frequency Span (Hz): 102400.000000
# Frequency Resolution: 800
# Number of Averages: 100
# Averaging Mode: RMS
# Window function: Hanning
#---------- Measurement Parameters ----------
# Measurement Group:  "FFT" "FFT"
# Measurements:  "FFT 1" "FFT 2"
# View:  "Log Magnitude" "Log Magnitude"
# Unit:  "Vrms/rtHz" "Vrms/rtHz"
#---------- Input Parameters ----------
# Input Source: Analog
# Input Mode: Single ended, Single ended
# Input Grounding: Float, Float
# Input Coupling: AC, AC
# Input Range: -36.0dBVpk, -36.0dBVpk
# Auto Range: Off, Off
# Auto Range Mode: Tracking, Tracking
# Anti-Aliasing Filter: On, On
#---------- Source Parameters ----------
# Source Type: Sine
# Source Amplitude: 500.0mVpk
# Source On: 0

#---------- Measurement Data ----------
# [Freq(Hz) Display 0(Vrms/rtHz) Display 1(Vrms/rtHz) ]
+8.9600000e+002    +1.8980116e-007    +1.2996281e-007
+1.0240000e+003    +1.1180199e-007    +1.5563344e-007
+1.1520000e+003    +7.1629600e-008    +1.7037644e-007
+1.2800000e+003    +4.7896688e-008    +2.0204298e-007
+1.4080000e+003    +4.1784578e-008    +2.2595107e-007
+1.5360000e+003    +4.4726328e-008    +2.2498759e-007
+1.6640000e+003    +4.6233072e-008    +2.4597830e-007
+1.7920000e+003    +4.8001400e-008    +2.3358986e-007
+1.9200000e+003    +5.3761468e-008    +2.4390457e-007
+2.0480000e+003    +5.5597919e-008    +2.3564705e-007
+2.1760000e+003    +5.7444979e-008    +2.4361043e-007
+2.3040000e+003    +6.0980106e-008    +2.4920726e-007
+2.4320000e+003    +6.2525849e-008    +2.4294798e-007
+2.5600000e+003    +6.6949227e-008    +2.5383332e-007
+2.6880000e+003    +6.8520677e-008    +2.3315862e-007
+2.8160000e+003    +7.2212607e-008    +2.2665598e-007
+2.9440000e+003    +8.0050000e-008    +2.4523052e-007
+3.0720000e+003    +7.9230759e-008    +2.5533464e-007
+3.2000000e+003    +8.2025075e-008    +2.5088138e-007
+3.3280000e+003    +9.3195652e-008    +2.3176530e-007
+3.4560000e+003    +1.0053757e-007    +2.2251714e-007
+3.5840000e+003    +9.4957350e-008    +2.3062402e-007
+3.7120000e+003    +9.6365383e-008    +2.3240744e-007
+3.8400000e+003    +1.0354340e-007    +2.2790620e-007
+3.9680000e+003    +1.0766841e-007    +2.2968601e-007
+4.0960000e+003    +1.1482808e-007    +2.1754457e-007
+4.2240000e+003    +1.2348298e-007    +2.1841286e-007
+4.3520000e+003    +1.1733369e-007    +2.0824493e-007
+4.4800000e+003    +1.2448433e-007    +2.1029884e-007
+4.6080000e+003    +1.3772456e-007    +2.2836383e-007
+4.7360000e+003    +1.3322014e-007    +2.2118135e-007
+4.8640000e+003    +1.3768978e-007    +2.0365725e-007
+4.9920000e+003    +1.4960852e-007    +1.9609850e-007
+5.1200000e+003    +1.5648280e-007    +2.0047275e-007
+5.2480000e+003    +1.5377317e-007    +2.1894661e-007
+5.3760000e+003    +1.5237033e-007    +2.1920663e-007
+5.5040000e+003    +1.8192583e-007    +2.2242871e-007
+5.6320000e+003    +2.0342193e-007    +2.2138057e-007
+5.7600000e+003    +1.7809798e-007    +2.2460748e-007
+5.8880000e+003    +1.8172300e-007    +2.2579954e-007
+6.0160000e+003    +2.0132286e-007    +2.1359861e-007
+6.1440000e+003    +2.0464260e-007    +2.0713509e-007
+6.2720000e+003    +2.0286366e-007    +2.3309667e-007
+6.4000000e+003    +2.1155311e-007    +2.3514151e-007
+6.5280000e+003    +2.0718171e-007    +2.1298739e-007
+6.6560000e+003    +2.2360406e-007    +2.3151325e-007
+6.7840000e+003    +2.3705901e-007    +2.3284062e-007
+6.9120000e+003    +2.3087890e-007    +2.2913815e-007
+7.0400000e+003    +2.3147869e-007    +2.4737395e-007
+7.1680000e+003    +2.1252463e-007    +2.3977697e-007
+7.2960000e+003    +2.2529360e-007    +2.3683398e-007
+7.4240000e+003    +2.4175165e-007    +2.2462696e-007
+7.5520000e+003    +2.5651397e-007    +2.2590839e-007
+7.6800000e+003    +2.5154336e-007    +2.2593520e-007
+7.8080000e+003    +2.6792887e-007    +2.3677651e-007
+7.9360000e+003    +2.8188677e-007    +2.4347403e-007
+8.0640000e+003    +2.8915525e-007    +2.4518988e-007
+8.1920000e+003    +2.8187006e-007    +2.5617791e-007
+8.3200000e+003    +2.6331003e-007    +2.7542049e-007
+8.4480000e+003    +2.6996759e-007    +2.9472636e-007
+8.5760000e+003    +2.8515626e-007    +3.0461567e-007
+8.7040000e+003    +2.9540249e-007    +2.9631138e-007
+8.8320000e+003    +3.0777551e-007    +2.8048603e-007
+8.9600000e+003    +3.2280144e-007    +2.6637048e-007
+9.0880000e+003    +3.4051291e-007    +2.9830065e-007
+9.2160000e+003    +3.3159498e-007    +3.0879738e-007
+9.3440000e+003    +3.2200109e-007    +3.2197138e-007
+9.4720000e+003    +3.5690388e-007    +3.2903995e-007
+9.6000000e+003    +3.4082112e-007    +3.4105807e-007
+9.7280000e+003    +3.2951755e-007    +3.6195595e-007
+9.8560000e+003    +3.3811182e-007    +3.4902513e-007
+9.9840000e+003    +3.5062911e-007    +3.3069549e-007
+1.0112000e+004    +3.6219609e-007    +3.2773653e-007
+1.0240000e+004    +3.2849309e-007    +3.3348994e-007
+1.0368000e+004    +3.1890767e-007    +3.4453046e-007
+1.0496000e+004    +3.1767544e-007    +3.5846023e-007
+1.0624000e+004    +3.4281359e-007    +3.7588677e-007
+1.0752000e+004    +3.7997816e-007    +3.8333300e-007
+1.0880000e+004    +3.8132350e-007    +3.7831302e-007
+1.1008000e+004    +3.5559080e-007    +4.0156993e-007
+1.1136000e+004    +3.7234764e-007    +4.0725249e-007
+1.1264000e+004    +3.5868581e-007    +4.4882762e-007
+1.1392000e+004    +3.5282068e-007    +4.0933614e-007
+1.1520000e+004    +3.7324239e-007    +4.3601946e-007
+1.1648000e+004    +3.8621377e-007    +4.4282112e-007
+1.1776000e+004    +3.7242040e-007    +4.5256022e-007
+1.1904000e+004    +3.9734158e-007    +4.3874954e-007
+1.2032000e+004    +3.8307846e-007    +4.2338056e-007
+1.2160000e+004    +4.0392553e-007    +4.2107746e-007
+1.2288000e+004    +3.8229817e-007    +4.6096926e-007
+1.2416000e+004    +3.8541188e-007    +4.4720926e-007
+1.2544000e+004    +4.0748196e-007    +4.4321607e-007
+1.2672000e+004    +4.1713986e-007    +4.9562556e-007
+1.2800000e+004    +4.0772719e-007    +4.8841008e-007
+1.2928000e+004    +4.0389361e-007    +4.8798927e-007
+1.3056000e+004    +4.2175947e-007    +4.7295617e-007
+1.3184000e+004    +4.1212354e-007    +4.6326059e-007
+1.3312000e+004    +3.9781347e-007    +4.7711569e-007
+1.3440000e+004    +4.0206010e-007    +4.7605448e-007
+1.3568000e+004    +3.9263014e-007    +4.5536387e-007
+1.3696000e+004    +4.3910811e-007    +4.6379040e-007
+1.3824000e+004    +4.3851307e-007    +4.9104261e-007
+1.3952000e+004    +3.8604969e-007    +4.7315925e-007
+1.4080000e+004    +3.9977462e-007    +4.1984393e-007
+1.4208000e+004    +3.8087077e-007    +4.3931161e-007
+1.4336000e+004    +3.8872079e-007    +4.9527199e-007
+1.4464000e+004    +3.8089041e-007    +5.3230383e-007
+1.4592000e+004    +3.8738125e-007    +4.5507099e-007
+1.4720000e+004    +3.8463912e-007    +4.5131225e-007
+1.4848000e+004    +3.8109499e-007    +4.8736069e-007
+1.4976000e+004    +3.8802401e-007    +4.9140721e-007
+1.5104000e+004    +3.5339059e-007    +5.1275333e-007
+1.5232000e+004    +3.4974977e-007    +5.2207957e-007
+1.5360000e+004    +3.7072002e-007    +4.9905918e-007
+1.5488000e+004    +3.4905386e-007    +5.2273350e-007
+1.5616000e+004    +3.4135553e-007    +5.3006539e-007
+1.5744000e+004    +3.7021155e-007    +5.1464502e-007
+1.5872000e+004    +3.6433912e-007    +5.1149379e-007
+1.6000000e+004    +3.5516317e-007    +5.0274838e-007
+1.6128000e+004    +3.6410518e-007    +4.7407863e-007
+1.6256000e+004    +3.8165231e-007    +4.6552091e-007
+1.6384000e+004    +3.7966831e-007    +4.7163022e-007
+1.6512000e+004    +3.8156350e-007    +4.7593167e-007
+1.6640000e+004    +3.5610029e-007    +5.1162692e-007
+1.6768000e+004    +3.3433574e-007    +5.2938668e-007
+1.6896000e+004    +3.3673660e-007    +5.2488440e-007
+1.7024000e+004    +3.2942674e-007    +4.8641073e-007
+1.7152000e+004    +3.3711765e-007    +4.9331010e-007
+1.7280000e+004    +3.3151380e-007    +5.2929425e-007
+1.7408000e+004    +3.1069473e-007    +5.0942009e-007
+1.7536000e+004    +3.0678393e-007    +5.1552502e-007
+1.7664000e+004    +3.1484268e-007    +5.3242013e-007
+1.7792000e+004    +3.3097226e-007    +5.4119482e-007
+1.7920000e+004    +3.2214959e-007    +5.4236307e-007
+1.8048000e+004    +3.2183283e-007    +5.4363477e-007
+1.8176000e+004    +3.3014331e-007    +5.4442501e-007
+1.8304000e+004    +3.0777312e-007    +5.4691196e-007
+1.8432000e+004    +2.9770908e-007    +5.3748073e-007
+1.8560000e+004    +2.9912420e-007    +5.2385388e-007
+1.8688000e+004    +3.0379402e-007    +5.6762150e-007
+1.8816000e+004    +2.9263529e-007    +5.4529545e-007
+1.8944000e+004    +3.0556399e-007    +5.5551908e-007
+1.9072000e+004    +3.0997069e-007    +5.3915932e-007
+1.9200000e+004    +3.1691354e-007    +5.5946776e-007
+1.9328000e+004    +3.2085481e-007    +5.7039415e-007
+1.9456000e+004    +3.0375600e-007    +5.4611507e-007
+1.9584000e+004    +3.0251954e-007    +5.6042995e-007
+1.9712000e+004    +2.9759730e-007    +5.2740484e-007
+1.9840000e+004    +2.7497148e-007    +5.1168644e-007
+1.9968000e+004    +2.8233495e-007    +5.8430641e-007
+2.0096000e+004    +2.8469825e-007    +5.3786329e-007
+2.0224000e+004    +3.0819211e-007    +5.7492110e-007
+2.0352000e+004    +3.1513318e-007    +5.1981914e-007
+2.0480000e+004    +2.9459665e-007    +5.5332890e-007
+2.0608000e+004    +2.8093109e-007    +5.7770848e-007
+2.0736000e+004    +2.4843357e-007    +5.4510571e-007
+2.0864000e+004    +2.7313990e-007    +5.5559047e-007
+2.0992000e+004    +2.7718306e-007    +5.9471864e-007
+2.1120000e+004    +2.8887507e-007    +5.7935364e-007
+2.1248000e+004    +2.7702666e-007    +5.8880744e-007
+2.1376000e+004    +2.5509169e-007    +6.4053711e-007
+2.1504000e+004    +2.5403352e-007    +6.6003321e-007
+2.1632000e+004    +2.6372288e-007    +5.9867767e-007
+2.1760000e+004    +2.5221232e-007    +5.8243035e-007
+2.1888000e+004    +2.6471824e-007    +5.5400062e-007
+2.2016000e+004    +2.6895930e-007    +6.1973060e-007
+2.2144000e+004    +2.5013847e-007    +5.8757718e-007
+2.2272000e+004    +2.5631408e-007    +5.9780342e-007
+2.2400000e+004    +2.8015981e-007    +5.8955914e-007
+2.2528000e+004    +2.6694110e-007    +5.9014263e-007
+2.2656000e+004    +2.6301501e-007    +6.0669169e-007
+2.2784000e+004    +2.7069149e-007    +5.8490082e-007
+2.2912000e+004    +2.6171497e-007    +5.7498744e-007
+2.3040000e+004    +2.5904311e-007    +5.8272076e-007
+2.3168000e+004    +2.5619337e-007    +5.8394215e-007
+2.3296000e+004    +2.6038276e-007    +5.6898176e-007
+2.3424000e+004    +2.5765121e-007    +5.4562781e-007
+2.3552000e+004    +2.5961941e-007    +5.7631786e-007
+2.3680000e+004    +2.6444428e-007    +5.5514352e-007
+2.3808000e+004    +2.5577319e-007    +5.8932352e-007
+2.3936000e+004    +2.9772085e-007    +6.4259120e-007
+2.4064000e+004    +2.9991608e-007    +6.4534157e-007
+2.4192000e+004    +2.7734805e-007    +6.3994736e-007
+2.4320000e+004    +2.5171298e-007    +6.1515397e-007
+2.4448000e+004    +2.5985582e-007    +6.0428380e-007
+2.4576000e+004    +2.4926771e-007    +6.1092027e-007
+2.4704000e+004    +2.6524540e-007    +6.2096615e-007
+2.4832000e+004    +2.5841871e-007    +6.3554160e-007
+2.4960000e+004    +2.5047211e-007    +6.5291124e-007
+2.5088000e+004    +2.5450839e-007    +6.3153010e-007
+2.5216000e+004    +2.4052369e-007    +6.6602001e-007
+2.5344000e+004    +2.4404946e-007    +6.5867727e-007
+2.5472000e+004    +2.5319147e-007    +6.1677304e-007
+2.5600000e+004    +2.3436594e-007    +6.5754426e-007
+2.5728000e+004    +2.5205730e-007    +6.6288084e-007
+2.5856000e+004    +2.6672078e-007    +6.0171101e-007
+2.5984000e+004    +2.3644347e-007    +6.1557148e-007
+2.6112000e+004    +2.3123813e-007    +6.0717150e-007
+2.6240000e+004    +2.3798115e-007    +6.2691174e-007
+2.6368000e+004    +2.3566309e-007    +6.8170311e-007
+2.6496000e+004    +2.3037197e-007    +6.6801204e-007
+2.6624000e+004    +2.3420054e-007    +5.7316328e-007
+2.6752000e+004    +2.4628258e-007    +5.8529457e-007
+2.6880000e+004    +2.2797552e-007    +6.1749802e-007
+2.7008000e+004    +2.3562583e-007    +6.5673396e-007
+2.7136000e+004    +2.2606621e-007    +6.4136685e-007
+2.7264000e+004    +2.2328611e-007    +6.6927623e-007
+2.7392000e+004    +2.5473290e-007    +6.0793928e-007
+2.7520000e+004    +2.3835143e-007    +6.3685968e-007
+2.7648000e+004    +2.3494925e-007    +6.7325539e-007
+2.7776000e+004    +2.5405555e-007    +6.2794646e-007
+2.7904000e+004    +2.5460062e-007    +6.0751756e-007
+2.8032000e+004    +2.2534581e-007    +6.0329205e-007
+2.8160000e+004    +2.1589251e-007    +6.4185150e-007
+2.8288000e+004    +2.2920332e-007    +7.0203504e-007
+2.8416000e+004    +2.4777026e-007    +6.4652812e-007
+2.8544000e+004    +2.4095030e-007    +6.5483886e-007
+2.8672000e+004    +2.3146623e-007    +6.8760335e-007
+2.8800000e+004    +2.3863842e-007    +6.8003231e-007
+2.8928000e+004    +2.3527348e-007    +6.6434023e-007
+2.9056000e+004    +2.3049847e-007    +6.5809678e-007
+2.9184000e+004    +2.2124716e-007    +6.3840622e-007
+2.9312000e+004    +2.1273614e-007    +6.1720863e-007
+2.9440000e+004    +2.1416126e-007    +6.9189730e-007
+2.9568000e+004    +2.2579755e-007    +6.5629717e-007
+2.9696000e+004    +2.2594685e-007    +6.4326883e-007
+2.9824000e+004    +2.2964717e-007    +6.4075380e-007
+2.9952000e+004    +2.3630281e-007    +6.6622846e-007
+3.0080000e+004    +2.3385391e-007    +6.9513879e-007
+3.0208000e+004    +2.3590903e-007    +7.3173391e-007
+3.0336000e+004    +2.4053716e-007    +6.8635126e-007
+3.0464000e+004    +2.4581578e-007    +6.3465950e-007
+3.0592000e+004    +2.3660526e-007    +6.2398152e-007
+3.0720000e+004    +2.5329740e-007    +6.3323819e-007
+3.0848000e+004    +2.4053850e-007    +7.1554928e-007
+3.0976000e+004    +2.2365194e-007    +6.7390471e-007
+3.1104000e+004    +2.1670805e-007    +6.1597922e-007
+3.1232000e+004    +2.2596075e-007    +6.7534836e-007
+3.1360000e+004    +2.2639507e-007    +6.8082943e-007
+3.1488000e+004    +2.2507653e-007    +6.5151124e-007
+3.1616000e+004    +2.1877504e-007    +6.4240425e-007
+3.1744000e+004    +2.1620421e-007    +6.0006693e-007
+3.1872000e+004    +2.1520334e-007    +6.8839194e-007
+3.2000000e+004    +2.4173625e-007    +7.4221651e-007
+3.2128000e+004    +2.4418725e-007    +7.0493229e-007
+3.2256000e+004    +2.4264568e-007    +7.0849848e-007
+3.2384000e+004    +2.3378486e-007    +6.9601481e-007
+3.2512000e+004    +2.5311473e-007    +7.2687658e-007
+3.2640000e+004    +2.7524212e-007    +7.3478355e-007
+3.2768000e+004    +2.4113240e-007    +6.6374383e-007
+3.2896000e+004    +2.2627405e-007    +7.1869084e-007
+3.3024000e+004    +2.5141910e-007    +6.8193594e-007
+3.3152000e+004    +2.4236692e-007    +7.0428399e-007
+3.3280000e+004    +2.4416391e-007    +6.7781315e-007
+3.3408000e+004    +2.5698475e-007    +6.7956654e-007
+3.3536000e+004    +2.3666787e-007    +6.9508462e-007
+3.3664000e+004    +2.2803461e-007    +6.2883856e-007
+3.3792000e+004    +2.2817386e-007    +6.9586730e-007
+3.3920000e+004    +2.4178723e-007    +7.6072718e-007
+3.4048000e+004    +2.4752254e-007    +7.8301525e-007
+3.4176000e+004    +2.4883622e-007    +7.8389951e-007
+3.4304000e+004    +2.4366312e-007    +7.4952624e-007
+3.4432000e+004    +2.1916163e-007    +7.6252923e-007
+3.4560000e+004    +2.1067601e-007    +7.7198524e-007
+3.4688000e+004    +2.0975831e-007    +7.3362435e-007
+3.4816000e+004    +2.1847787e-007    +7.2408710e-007
+3.4944000e+004    +2.4021622e-007    +7.5961208e-007
+3.5072000e+004    +2.4014162e-007    +7.4364806e-007
+3.5200000e+004    +2.2281272e-007    +7.0977541e-007
+3.5328000e+004    +2.2385879e-007    +6.7380188e-007
+3.5456000e+004    +2.3902206e-007    +7.5537957e-007
+3.5584000e+004    +2.5171133e-007    +8.1026934e-007
+3.5712000e+004    +2.4827131e-007    +8.0721389e-007
+3.5840000e+004    +2.4139729e-007    +7.7190981e-007
+3.5968000e+004    +2.4381646e-007    +7.3164875e-007
+3.6096000e+004    +2.4591674e-007    +7.8152505e-007
+3.6224000e+004    +2.4795560e-007    +7.2554104e-007
+3.6352000e+004    +2.6084086e-007    +7.5972804e-007
+3.6480000e+004    +2.7105582e-007    +7.8218864e-007
+3.6608000e+004    +2.5080647e-007    +7.7966865e-007
+3.6736000e+004    +2.4644706e-007    +7.8766629e-007
+3.6864000e+004    +2.4266646e-007    +8.2686608e-007
+3.6992000e+004    +2.4938188e-007    +8.0162755e-007
+3.7120000e+004    +2.3002519e-007    +7.7825490e-007
+3.7248000e+004    +2.3345653e-007    +8.0082697e-007
+3.7376000e+004    +2.4854432e-007    +7.7272387e-007
+3.7504000e+004    +2.4140286e-007    +7.7990239e-007
+3.7632000e+004    +2.4392892e-007    +7.6923965e-007
+3.7760000e+004    +2.6643835e-007    +7.9409557e-007
+3.7888000e+004    +2.7744397e-007    +7.6193089e-007
+3.8016000e+004    +2.6430467e-007    +7.7445486e-007
+3.8144000e+004    +2.6861812e-007    +7.5963794e-007
+3.8272000e+004    +2.7298310e-007    +8.0764738e-007
+3.8400000e+004    +2.5365364e-007    +7.7800797e-007
+3.8528000e+004    +2.4512366e-007    +7.5543846e-007
+3.8656000e+004    +2.3984384e-007    +7.5248397e-007
+3.8784000e+004    +2.3072432e-007    +7.9806119e-007
+3.8912000e+004    +2.4751441e-007    +8.2147375e-007
+3.9040000e+004    +2.5590549e-007    +7.5149319e-007
+3.9168000e+004    +2.6609686e-007    +7.5230059e-007
+3.9296000e+004    +2.6239053e-007    +7.6059439e-007
+3.9424000e+004    +2.3702908e-007    +7.9979014e-007
+3.9552000e+004    +2.4631206e-007    +8.0474052e-007
+3.9680000e+004    +2.4123673e-007    +8.5822353e-007
+3.9808000e+004    +2.6500933e-007    +8.0299293e-007
+3.9936000e+004    +2.5929037e-007    +7.9167455e-007
+4.0064000e+004    +2.3748130e-007    +8.2587798e-007
+4.0192000e+004    +2.5754741e-007    +8.4073707e-007
+4.0320000e+004    +2.5636081e-007    +8.9584688e-007
+4.0448000e+004    +2.4671291e-007    +7.9304129e-007
+4.0576000e+004    +2.4976165e-007    +7.8436011e-007
+4.0704000e+004    +2.3717486e-007    +8.4377865e-007
+4.0832000e+004    +2.2792847e-007    +8.9565907e-007
+4.0960000e+004    +2.4076917e-007    +8.4691209e-007
+4.1088000e+004    +2.4205681e-007    +8.3762006e-007
+4.1216000e+004    +2.3039827e-007    +8.4960180e-007
+4.1344000e+004    +2.3239137e-007    +7.9374257e-007
+4.1472000e+004    +2.3336709e-007    +8.4114151e-007
+4.1600000e+004    +2.3614226e-007    +8.3260909e-007
+4.1728000e+004    +2.4312035e-007    +8.3564510e-007
+4.1856000e+004    +2.4674867e-007    +8.5664101e-007
+4.1984000e+004    +2.4280504e-007    +8.6570952e-007
+4.2112000e+004    +2.2615062e-007    +8.8738193e-007
+4.2240000e+004    +2.2257798e-007    +8.5725543e-007
+4.2368000e+004    +2.3809066e-007    +8.2440488e-007
+4.2496000e+004    +2.4149645e-007    +8.0677353e-007
+4.2624000e+004    +2.2698246e-007    +8.5143211e-007
+4.2752000e+004    +2.1916331e-007    +8.8188733e-007
+4.2880000e+004    +2.4973178e-007    +9.4035096e-007
+4.3008000e+004    +2.3532850e-007    +8.9545057e-007
+4.3136000e+004    +2.2539530e-007    +8.5195205e-007
+4.3264000e+004    +2.2518331e-007    +8.3886715e-007
+4.3392000e+004    +2.3167676e-007    +7.9807347e-007
+4.3520000e+004    +2.3091084e-007    +8.5623196e-007
+4.3648000e+004    +2.3477338e-007    +9.7603254e-007
+4.3776000e+004    +2.4083130e-007    +9.8900443e-007
+4.3904000e+004    +2.2212537e-007    +9.5353209e-007
+4.4032000e+004    +2.2132515e-007    +8.6356499e-007
+4.4160000e+004    +2.2591311e-007    +8.8605589e-007
+4.4288000e+004    +2.2129527e-007    +8.8141013e-007
+4.4416000e+004    +2.4410522e-007    +8.0278312e-007
+4.4544000e+004    +2.3834096e-007    +8.2277268e-007
+4.4672000e+004    +2.2819088e-007    +9.0472633e-007
+4.4800000e+004    +2.4233790e-007    +8.9613314e-007
+4.4928000e+004    +2.4161312e-007    +9.1875881e-007
+4.5056000e+004    +2.3446607e-007    +9.5373207e-007
+4.5184000e+004    +2.3940342e-007    +9.8512135e-007
+4.5312000e+004    +2.3413961e-007    +9.1373084e-007
+4.5440000e+004    +2.3792734e-007    +8.9531295e-007
+4.5568000e+004    +2.3768372e-007    +9.0151161e-007
+4.5696000e+004    +2.4404170e-007    +9.4978930e-007
+4.5824000e+004    +2.4359838e-007    +8.9257452e-007
+4.5952000e+004    +2.3944733e-007    +9.8634655e-007
+4.6080000e+004    +2.2702508e-007    +9.5013769e-007
+4.6208000e+004    +2.3747661e-007    +9.2859403e-007
+4.6336000e+004    +2.4599774e-007    +8.6805193e-007
+4.6464000e+004    +2.5641626e-007    +9.0696608e-007
+4.6592000e+004    +2.4180767e-007    +9.7460293e-007
+4.6720000e+004    +2.3773958e-007    +1.0459978e-006
+4.6848000e+004    +2.3142024e-007    +9.8511271e-007
+4.6976000e+004    +2.4402590e-007    +9.4876896e-007
+4.7104000e+004    +2.5427434e-007    +9.8999749e-007
+4.7232000e+004    +2.5391137e-007    +1.0173281e-006
+4.7360000e+004    +2.4638265e-007    +1.0162263e-006
+4.7488000e+004    +2.5630732e-007    +8.9834674e-007
+4.7616000e+004    +2.5646440e-007    +8.7036148e-007
+4.7744000e+004    +2.7212994e-007    +8.2873748e-007
+4.7872000e+004    +2.7221779e-007    +9.4134572e-007
+4.8000000e+004    +2.8742195e-007    +9.5305586e-007
+4.8128000e+004    +2.7479192e-007    +9.7388727e-007
+4.8256000e+004    +2.4705773e-007    +1.0205972e-006
+4.8384000e+004    +2.4624310e-007    +1.0342659e-006
+4.8512000e+004    +2.5293946e-007    +9.8705391e-007
+4.8640000e+004    +2.4746575e-007    +9.6009478e-007
+4.8768000e+004    +2.5770723e-007    +1.0257356e-006
+4.8896000e+004    +2.5684935e-007    +1.0607052e-006
+4.9024000e+004    +2.6233494e-007    +1.0206936e-006
+4.9152000e+004    +2.7067099e-007    +9.8869396e-007
+4.9280000e+004    +2.6694755e-007    +1.0816178e-006
+4.9408000e+004    +2.6199788e-007    +1.0617563e-006
+4.9536000e+004    +2.6118218e-007    +9.8298210e-007
+4.9664000e+004    +2.6618716e-007    +9.5656571e-007
+4.9792000e+004    +2.7715171e-007    +1.0095957e-006
+4.9920000e+004    +2.8199727e-007    +1.0227319e-006
+5.0048000e+004    +2.7645694e-007    +1.0760659e-006
+5.0176000e+004    +2.8277455e-007    +1.0775130e-006
+5.0304000e+004    +2.8116870e-007    +1.0359844e-006
+5.0432000e+004    +2.8163524e-007    +1.0412665e-006
+5.0560000e+004    +2.7108976e-007    +1.0659800e-006
+5.0688000e+004    +2.7005592e-007    +1.1022236e-006
+5.0816000e+004    +2.6738402e-007    +1.1167538e-006
+5.0944000e+004    +2.5886797e-007    +1.0093142e-006
+5.1072000e+004    +2.4517237e-007    +9.6992085e-007
+5.1200000e+004    +2.4394606e-007    +9.6676422e-007
+5.1328000e+004    +2.3346627e-007    +9.0129782e-007
+5.1456000e+004    +2.3715326e-007    +1.1719013e-006
+5.1584000e+004    +2.4340002e-007    +1.2665060e-006
+5.1712000e+004    +2.3174444e-007    +1.1429024e-006
+5.1840000e+004    +2.3399159e-007    +1.0035152e-006
+5.1968000e+004    +2.3244776e-007    +9.8445855e-007
+5.2096000e+004    +2.2851984e-007    +1.0759738e-006
+5.2224000e+004    +2.3908925e-007    +1.0687927e-006
+5.2352000e+004    +2.4216448e-007    +1.0715574e-006
+5.2480000e+004    +2.5528306e-007    +1.0768472e-006
+5.2608000e+004    +2.4662950e-007    +1.1341159e-006
+5.2736000e+004    +2.2773285e-007    +1.1893593e-006
+5.2864000e+004    +2.3080641e-007    +1.1626047e-006
+5.2992000e+004    +2.3950122e-007    +1.0614148e-006
+5.3120000e+004    +2.3019447e-007    +1.0284331e-006
+5.3248000e+004    +2.3264641e-007    +1.0901089e-006
+5.3376000e+004    +2.3096131e-007    +1.0493854e-006
+5.3504000e+004    +2.3122035e-007    +1.1499411e-006
+5.3632000e+004    +2.4167574e-007    +1.2649523e-006
+5.3760000e+004    +2.2348698e-007    +1.1754477e-006
+5.3888000e+004    +2.2675157e-007    +1.0867113e-006
+5.4016000e+004    +2.3049670e-007    +1.1051999e-006
+5.4144000e+004    +2.2442013e-007    +1.1042283e-006
+5.4272000e+004    +2.4020517e-007    +1.0601219e-006
+5.4400000e+004    +2.3481257e-007    +1.1115828e-006
+5.4528000e+004    +2.2729870e-007    +1.1817913e-006
+5.4656000e+004    +2.2696950e-007    +1.1091410e-006
+5.4784000e+004    +2.2625493e-007    +1.1957569e-006
+5.4912000e+004    +2.2415664e-007    +1.2251711e-006
+5.5040000e+004    +2.9714087e-007    +1.1249363e-006
+5.5168000e+004    +4.6625544e-007    +1.0742622e-006
+5.5296000e+004    +3.1365028e-007    +1.1451031e-006
+5.5424000e+004    +2.3841477e-007    +1.1664213e-006
+5.5552000e+004    +3.8723240e-007    +1.1286564e-006
+5.5680000e+004    +3.3546644e-007    +1.1005935e-006
+5.5808000e+004    +2.2544133e-007    +1.0798818e-006
+5.5936000e+004    +2.2182583e-007    +1.1449207e-006
+5.6064000e+004    +2.1208616e-007    +1.1166275e-006
+5.6192000e+004    +2.1717609e-007    +1.1590831e-006
+5.6320000e+004    +2.1913252e-007    +1.1781649e-006
+5.6448000e+004    +2.1863913e-007    +1.2579123e-006
+5.6576000e+004    +2.2143843e-007    +1.2458593e-006
+5.6704000e+004    +2.1905747e-007    +1.1293469e-006
+5.6832000e+004    +2.1641820e-007    +1.1925971e-006
+5.6960000e+004    +2.1528464e-007    +1.2069966e-006
+5.7088000e+004    +2.1467896e-007    +1.1950181e-006
+5.7216000e+004    +2.1017188e-007    +1.1870607e-006
+5.7344000e+004    +2.1973339e-007    +1.3250592e-006
+5.7472000e+004    +2.1833519e-007    +1.2565155e-006
+5.7600000e+004    +2.1272938e-007    +1.2112688e-006
+5.7728000e+004    +2.0875748e-007    +1.2120696e-006
+5.7856000e+004    +2.2042617e-007    +1.2964742e-006
+5.7984000e+004    +2.2890933e-007    +1.3063507e-006
+5.8112000e+004    +2.2599002e-007    +1.2412893e-006
+5.8240000e+004    +2.2457691e-007    +1.2328140e-006
+5.8368000e+004    +2.2768160e-007    +1.3124450e-006
+5.8496000e+004    +2.2423073e-007    +1.2547563e-006
+5.8624000e+004    +2.3217306e-007    +1.1765387e-006
+5.8752000e+004    +2.5151931e-007    +1.2605407e-006
+5.8880000e+004    +2.2680211e-007    +1.3254696e-006
+5.9008000e+004    +2.1140242e-007    +1.2422423e-006
+5.9136000e+004    +2.2289885e-007    +1.2662891e-006
+5.9264000e+004    +2.2047264e-007    +1.2305408e-006
+5.9392000e+004    +2.0899600e-007    +1.2910763e-006
+5.9520000e+004    +2.0592260e-007    +1.2910550e-006
+5.9648000e+004    +2.1511570e-007    +1.2413916e-006
+5.9776000e+004    +2.2558915e-007    +1.1710550e-006
+5.9904000e+004    +2.1883847e-007    +1.3182607e-006
+6.0032000e+004    +2.3294982e-007    +1.3751966e-006
+6.0160000e+004    +2.1622249e-007    +1.3656855e-006
+6.0288000e+004    +2.2163034e-007    +1.3022092e-006
+6.0416000e+004    +2.2612976e-007    +1.3161983e-006
+6.0544000e+004    +2.1869123e-007    +1.3101126e-006
+6.0672000e+004    +2.1842918e-007    +1.3198611e-006
+6.0800000e+004    +2.2171723e-007    +1.4006001e-006
+6.0928000e+004    +2.2295097e-007    +1.3276135e-006
+6.1056000e+004    +2.2691545e-007    +1.3789675e-006
+6.1184000e+004    +2.2418494e-007    +1.4074554e-006
+6.1312000e+004    +2.2251616e-007    +1.3082181e-006
+6.1440000e+004    +2.1854385e-007    +1.2777258e-006
+6.1568000e+004    +2.3065517e-007    +1.2982919e-006
+6.1696000e+004    +2.2409364e-007    +1.4279583e-006
+6.1824000e+004    +2.2128020e-007    +1.3585816e-006
+6.1952000e+004    +2.1400261e-007    +1.3697401e-006
+6.2080000e+004    +2.1870827e-007    +1.3404884e-006
+6.2208000e+004    +2.1225598e-007    +1.4130916e-006
+6.2336000e+004    +2.2865638e-007    +1.4527038e-006
+6.2464000e+004    +2.2250224e-007    +1.3759064e-006
+6.2592000e+004    +2.2117284e-007    +1.4008415e-006
+6.2720000e+004    +2.1536952e-007    +1.2025467e-006
+6.2848000e+004    +2.1084747e-007    +1.2637265e-006
+6.2976000e+004    +2.1308516e-007    +1.3148912e-006
+6.3104000e+004    +2.2224441e-007    +1.3829643e-006
+6.3232000e+004    +2.2804161e-007    +1.2818598e-006
+6.3360000e+004    +2.2134047e-007    +1.4211779e-006
+6.3488000e+004    +2.1906973e-007    +1.5835392e-006
+6.3616000e+004    +2.2051913e-007    +1.5236833e-006
+6.3744000e+004    +2.2480140e-007    +1.4709625e-006
+6.3872000e+004    +2.1927693e-007    +1.5184427e-006
+6.4000000e+004    +2.1533641e-007    +1.5333500e-006
+6.4128000e+004    +2.1813344e-007    +1.4693160e-006
+6.4256000e+004    +2.2352870e-007    +1.4787742e-006
+6.4384000e+004    +2.1637281e-007    +1.4465792e-006
+6.4512000e+004    +2.2542747e-007    +1.3017990e-006
+6.4640000e+004    +2.2686238e-007    +1.2836964e-006
+6.4768000e+004    +2.1770131e-007    +1.3919537e-006
+6.4896000e+004    +2.1491292e-007    +1.4971138e-006
+6.5024000e+004    +2.1098087e-007    +1.3841978e-006
+6.5152000e+004    +2.2285553e-007    +1.4911441e-006
+6.5280000e+004    +2.2872065e-007    +1.5749079e-006
+6.5408000e+004    +2.3231586e-007    +1.5313495e-006
+6.5536000e+004    +2.2039568e-007    +1.3906933e-006
+6.5664000e+004    +2.1400801e-007    +1.5084261e-006
+6.5792000e+004    +2.2245656e-007    +1.5070685e-006
+6.5920000e+004    +2.3063365e-007    +1.4094286e-006
+6.6048000e+004    +2.2455669e-007    +1.4443668e-006
+6.6176000e+004    +2.2797452e-007    +1.4595850e-006
+6.6304000e+004    +2.2490262e-007    +1.4448395e-006
+6.6432000e+004    +2.1638112e-007    +1.4103389e-006
+6.6560000e+004    +2.1854072e-007    +1.3046937e-006
+6.6688000e+004    +2.1968515e-007    +1.3827274e-006
+6.6816000e+004    +2.1876663e-007    +1.4207363e-006
+6.6944000e+004    +2.1769272e-007    +1.4682258e-006
+6.7072000e+004    +2.2404247e-007    +1.4705748e-006
+6.7200000e+004    +2.2931584e-007    +1.5789108e-006
+6.7328000e+004    +2.3158901e-007    +1.5214298e-006
+6.7456000e+004    +2.3331098e-007    +1.4855569e-006
+6.7584000e+004    +2.2255892e-007    +1.5112624e-006
+6.7712000e+004    +2.1728248e-007    +1.5282103e-006
+6.7840000e+004    +2.2071146e-007    +1.5203577e-006
+6.7968000e+004    +2.1838122e-007    +1.5210975e-006
+6.8096000e+004    +2.2356600e-007    +1.5338585e-006
+6.8224000e+004    +2.2419060e-007    +1.5132914e-006
+6.8352000e+004    +2.2444699e-007    +1.3939067e-006
+6.8480000e+004    +2.3235259e-007    +1.5162568e-006
+6.8608000e+004    +2.4637862e-007    +1.5575413e-006
+6.8736000e+004    +2.2522980e-007    +1.4234001e-006
+6.8864000e+004    +2.1543030e-007    +1.3861369e-006
+6.8992000e+004    +2.1363121e-007    +1.5034458e-006
+6.9120000e+004    +2.1981712e-007    +1.5443796e-006
+6.9248000e+004    +2.2052178e-007    +1.5338820e-006
+6.9376000e+004    +2.2547896e-007    +1.6702488e-006
+6.9504000e+004    +2.2927833e-007    +1.7261278e-006
+6.9632000e+004    +2.2067583e-007    +1.6446375e-006
+6.9760000e+004    +2.2565281e-007    +1.5899120e-006
+6.9888000e+004    +2.2981945e-007    +1.5988047e-006
+7.0016000e+004    +2.2778087e-007    +1.6207262e-006
+7.0144000e+004    +5.9326101e-007    +1.6852305e-006
+7.0272000e+004    +9.5634937e-007    +1.8628170e-006
+7.0400000e+004    +4.5396112e-007    +1.6490693e-006
+7.0528000e+004    +2.3273047e-007    +1.5673005e-006
+7.0656000e+004    +3.1654943e-007    +1.7206347e-006
+7.0784000e+004    +4.6892509e-007    +1.6251114e-006
+7.0912000e+004    +2.9665449e-007    +1.6541632e-006
+7.1040000e+004    +2.2995675e-007    +1.7305132e-006
+7.1168000e+004    +2.2175132e-007    +1.6009566e-006
+7.1296000e+004    +2.2755040e-007    +1.5417604e-006
+7.1424000e+004    +2.2269019e-007    +1.5576763e-006
+7.1552000e+004    +2.2890681e-007    +1.6298432e-006
+7.1680000e+004    +2.4731392e-007    +1.6973676e-006
+7.1808000e+004    +2.4390883e-007    +1.8242989e-006
+7.1936000e+004    +2.3199215e-007    +1.7497565e-006
+7.2064000e+004    +2.4333750e-007    +1.6922447e-006
+7.2192000e+004    +2.4753342e-007    +1.6367275e-006
+7.2320000e+004    +2.4787772e-007    +1.6603443e-006
+7.2448000e+004    +2.3013432e-007    +1.6699885e-006
+7.2576000e+004    +2.2501723e-007    +1.6358921e-006
+7.2704000e+004    +2.3304881e-007    +1.6512181e-006
+7.2832000e+004    +2.3460100e-007    +1.7086295e-006
+7.2960000e+004    +2.2663060e-007    +1.5965577e-006
+7.3088000e+004    +2.2224319e-007    +1.5996335e-006
+7.3216000e+004    +2.3167065e-007    +1.7565687e-006
+7.3344000e+004    +2.3697912e-007    +1.8774984e-006
+7.3472000e+004    +2.3343526e-007    +1.6330566e-006
+7.3600000e+004    +2.3315862e-007    +1.6186046e-006
+7.3728000e+004    +2.3469761e-007    +1.7230414e-006
+7.3856000e+004    +2.3875663e-007    +1.7723052e-006
+7.3984000e+004    +2.3449722e-007    +1.7716086e-006
+7.4112000e+004    +2.3916147e-007    +1.7563585e-006
+7.4240000e+004    +2.3571123e-007    +1.6528234e-006
+7.4368000e+004    +2.3986203e-007    +1.7622809e-006
+7.4496000e+004    +2.3936610e-007    +1.8213289e-006
+7.4624000e+004    +2.4333534e-007    +1.7425708e-006
+7.4752000e+004    +2.5526708e-007    +1.7012092e-006
+7.4880000e+004    +2.4378033e-007    +1.7638683e-006
+7.5008000e+004    +2.4441550e-007    +1.7544215e-006
+7.5136000e+004    +2.4335003e-007    +1.7371246e-006
+7.5264000e+004    +2.3363782e-007    +1.7448031e-006
+7.5392000e+004    +2.4319647e-007    +1.6156023e-006
+7.5520000e+004    +2.4338797e-007    +1.6185033e-006
+7.5648000e+004    +2.4221367e-007    +1.7225325e-006
+7.5776000e+004    +2.4632587e-007    +1.8558475e-006
+7.5904000e+004    +2.4252716e-007    +1.8490867e-006
+7.6032000e+004    +2.3985993e-007    +1.7362703e-006
+7.6160000e+004    +2.4511209e-007    +1.7420945e-006
+7.6288000e+004    +2.4658129e-007    +2.2060703e-006
+7.6416000e+004    +2.3448125e-007    +8.9452888e-006
+7.6544000e+004    +2.4342219e-007    +1.0727617e-005
+7.6672000e+004    +2.4934135e-007    +3.3505085e-006
+7.6800000e+004    +2.4983709e-007    +1.7615265e-006
+7.6928000e+004    +2.4841339e-007    +1.7873836e-006
+7.7056000e+004    +2.5083318e-007    +1.7336340e-006
+7.7184000e+004    +2.5687697e-007    +1.6957861e-006
+7.7312000e+004    +2.4634019e-007    +1.7806044e-006
+7.7440000e+004    +2.4628420e-007    +1.7717662e-006
+7.7568000e+004    +2.7937497e-007    +1.9227430e-006
+7.7696000e+004    +3.8191138e-007    +2.0155464e-006
+7.7824000e+004    +3.0800200e-007    +1.9372330e-006
+7.7952000e+004    +2.5119340e-007    +1.7296318e-006
+7.8080000e+004    +2.5544875e-007    +1.8630973e-006
+7.8208000e+004    +2.5740721e-007    +1.9355937e-006
+7.8336000e+004    +2.9118661e-007    +1.6867484e-006
+7.8464000e+004    +2.7006007e-007    +1.7574754e-006
+7.8592000e+004    +2.4124625e-007    +1.7741372e-006
+7.8720000e+004    +2.4706912e-007    +1.8716408e-006
+7.8848000e+004    +2.5507546e-007    +1.8062020e-006
+7.8976000e+004    +2.5537054e-007    +1.6219616e-006
+7.9104000e+004    +2.5277924e-007    +1.7699676e-006
+7.9232000e+004    +2.4660162e-007    +1.8781170e-006
+7.9360000e+004    +2.5558455e-007    +1.8707000e-006
+7.9488000e+004    +2.8824996e-007    +1.7802917e-006
+7.9616000e+004    +2.4497379e-007    +1.8538537e-006
+7.9744000e+004    +2.5645906e-007    +1.7810561e-006
+7.9872000e+004    +2.5616356e-007    +1.7659321e-006
+8.0000000e+004    +2.6328544e-007    +1.7692294e-006
+8.0128000e+004    +2.6415003e-007    +1.7798441e-006
+8.0256000e+004    +2.5878100e-007    +1.9850959e-006
+8.0384000e+004    +2.5192531e-007    +1.9673232e-006
+8.0512000e+004    +2.4967557e-007    +1.8635637e-006
+8.0640000e+004    +2.5760284e-007    +1.8423425e-006
+8.0768000e+004    +2.7433941e-007    +1.8831718e-006
+8.0896000e+004    +2.7157267e-007    +1.9578097e-006
+8.1024000e+004    +2.6167302e-007    +1.8081862e-006
+8.1152000e+004    +2.5941111e-007    +1.7555315e-006
+8.1280000e+004    +2.6938397e-007    +1.9065394e-006
+8.1408000e+004    +2.5649820e-007    +1.9312738e-006
+8.1536000e+004    +2.6570450e-007    +1.8646056e-006
+8.1664000e+004    +2.7995284e-007    +1.8134808e-006
+8.1792000e+004    +2.7072153e-007    +1.6906829e-006
+8.1920000e+004    +2.7032112e-007    +1.8181760e-006
+8.2048000e+004    +2.7289769e-007    +1.7933299e-006
+8.2176000e+004    +2.5644104e-007    +1.8620277e-006
+8.2304000e+004    +2.7130594e-007    +1.9254132e-006
+8.2432000e+004    +2.7791197e-007    +1.8792824e-006
+8.2560000e+004    +2.7295584e-007    +1.8364696e-006
+8.2688000e+004    +2.6621552e-007    +1.8998901e-006
+8.2816000e+004    +2.6958281e-007    +1.9328925e-006
+8.2944000e+004    +2.7767530e-007    +1.9986310e-006
+8.3072000e+004    +2.6052089e-007    +1.9934500e-006
+8.3200000e+004    +2.5859694e-007    +1.9969289e-006
+8.3328000e+004    +2.5350440e-007    +1.9705117e-006
+8.3456000e+004    +2.5250520e-007    +1.8303018e-006
+8.3584000e+004    +2.6688338e-007    +1.6647544e-006
+8.3712000e+004    +2.7160846e-007    +1.6171711e-006
+8.3840000e+004    +2.6245019e-007    +1.7872109e-006
+8.3968000e+004    +2.6774185e-007    +2.0141042e-006
+8.4096000e+004    +2.6897729e-007    +2.0529817e-006
+8.4224000e+004    +2.7229490e-007    +1.7985633e-006
+8.4352000e+004    +2.7619058e-007    +1.7325456e-006
+8.4480000e+004    +2.6667715e-007    +2.1124372e-006
+8.4608000e+004    +2.5164002e-007    +2.1265255e-006
+8.4736000e+004    +2.4588974e-007    +2.0676471e-006
+8.4864000e+004    +2.6016815e-007    +2.0243467e-006
+8.4992000e+004    +2.7271858e-007    +1.8744172e-006
+8.5120000e+004    +2.6596396e-007    +1.8209610e-006
+8.5248000e+004    +2.5612081e-007    +1.9875145e-006
+8.5376000e+004    +2.6495900e-007    +2.0358279e-006
+8.5504000e+004    +2.5401761e-007    +1.8841831e-006
+8.5632000e+004    +2.6274716e-007    +1.7669697e-006
+8.5760000e+004    +2.5508413e-007    +1.8483763e-006
+8.5888000e+004    +2.6619037e-007    +1.9191343e-006
+8.6016000e+004    +2.5900954e-007    +1.7871010e-006
+8.6144000e+004    +2.4190246e-007    +1.9307988e-006
+8.6272000e+004    +2.4165186e-007    +1.9912604e-006
+8.6400000e+004    +2.4951115e-007    +1.9460738e-006
+8.6528000e+004    +2.5776441e-007    +1.9426986e-006
+8.6656000e+004    +2.6149840e-007    +1.9839649e-006
+8.6784000e+004    +2.7870004e-007    +1.8779521e-006
+8.6912000e+004    +2.8632522e-007    +1.9618335e-006
+8.7040000e+004    +2.6892533e-007    +1.8451888e-006
+8.7168000e+004    +2.5981959e-007    +1.9130018e-006
+8.7296000e+004    +2.5784593e-007    +2.0743096e-006
+8.7424000e+004    +2.5648242e-007    +1.9335123e-006
+8.7552000e+004    +2.5875119e-007    +1.8490421e-006
+8.7680000e+004    +2.5449779e-007    +1.8802360e-006
+8.7808000e+004    +2.6516912e-007    +1.8439857e-006
+8.7936000e+004    +2.7369677e-007    +1.9004096e-006
+8.8064000e+004    +2.5007063e-007    +1.9560348e-006
+8.8192000e+004    +2.5876253e-007    +1.9641159e-006
+8.8320000e+004    +2.5223585e-007    +1.8051790e-006
+8.8448000e+004    +2.5348965e-007    +1.9686195e-006
+8.8576000e+004    +2.4804979e-007    +1.8713408e-006
+8.8704000e+004    +2.4942761e-007    +1.6193050e-006
+8.8832000e+004    +2.4996413e-007    +1.7822160e-006
+8.8960000e+004    +2.4827131e-007    +1.8218329e-006
+8.9088000e+004    +2.4406529e-007    +2.0338910e-006
+8.9216000e+004    +2.4991226e-007    +2.0777150e-006
+8.9344000e+004    +2.5049548e-007    +1.9860768e-006
+8.9472000e+004    +2.3937741e-007    +2.0177829e-006
+8.9600000e+004    +2.3761119e-007    +1.9872787e-006
+8.9728000e+004    +2.4167255e-007    +2.0251248e-006
+8.9856000e+004    +2.4581792e-007    +1.8957727e-006
+8.9984000e+004    +2.4756170e-007    +1.8731046e-006
+9.0112000e+004    +2.5001464e-007    +1.9363079e-006
+9.0240000e+004    +2.4316495e-007    +1.9611593e-006
+9.0368000e+004    +2.3482133e-007    +2.0857581e-006
+9.0496000e+004    +2.2387526e-007    +1.9168642e-006
+9.0624000e+004    +2.4574965e-007    +1.9376159e-006
+9.0752000e+004    +2.3282503e-007    +1.7886066e-006
+9.0880000e+004    +2.2463288e-007    +1.8406259e-006
+9.1008000e+004    +2.3741535e-007    +1.9758261e-006
+9.1136000e+004    +2.3049670e-007    +1.9226418e-006
+9.1264000e+004    +2.4485090e-007    +1.8620932e-006
+9.1392000e+004    +2.5253459e-007    +2.0139757e-006
+9.1520000e+004    +2.5586084e-007    +1.9495533e-006
+9.1648000e+004    +2.4895701e-007    +1.7823471e-006
+9.1776000e+004    +2.4478021e-007    +2.0210377e-006
+9.1904000e+004    +2.6351998e-007    +1.9508338e-006
+9.2032000e+004    +2.4807323e-007    +1.8245053e-006
+9.2160000e+004    +2.4261266e-007    +1.9369268e-006
+9.2288000e+004    +2.4195214e-007    +1.9615859e-006
+9.2416000e+004    +2.4728243e-007    +1.9142899e-006
+9.2544000e+004    +2.4945609e-007    +1.9597021e-006
+9.2672000e+004    +2.3297974e-007    +1.8745407e-006
+9.2800000e+004    +2.3308438e-007    +1.7370578e-006
+9.2928000e+004    +2.3767382e-007    +1.8431032e-006
+9.3056000e+004    +2.4855524e-007    +1.8088077e-006
+9.3184000e+004    +2.3667957e-007    +1.8390564e-006
+9.3312000e+004    +2.3022733e-007    +2.0109751e-006
+9.3440000e+004    +2.2424599e-007    +1.8869905e-006
+9.3568000e+004    +2.1840376e-007    +1.8676872e-006
+9.3696000e+004    +2.0312331e-007    +1.8300586e-006
+9.3824000e+004    +2.1038014e-007    +1.8884061e-006
+9.3952000e+004    +2.0650154e-007    +1.9312165e-006
+9.4080000e+004    +2.1547454e-007    +1.9747242e-006
+9.4208000e+004    +2.1136668e-007    +1.9189131e-006
+9.4336000e+004    +2.2939064e-007    +1.9782030e-006
+9.4464000e+004    +3.0914748e-007    +1.9493286e-006
+9.4592000e+004    +2.9517878e-007    +1.9683430e-006
+9.4720000e+004    +2.2468542e-007    +2.0009429e-006
+9.4848000e+004    +2.2034027e-007    +1.9444997e-006
+9.4976000e+004    +2.2083871e-007    +1.8812292e-006
+9.5104000e+004    +2.2926071e-007    +2.0548016e-006
+9.5232000e+004    +2.0789882e-007    +1.9980760e-006
+9.5360000e+004    +2.0689869e-007    +1.9646400e-006
+9.5488000e+004    +2.2550545e-007    +1.9335355e-006
+9.5616000e+004    +2.2402746e-007    +1.8941207e-006
+9.5744000e+004    +2.1826304e-007    +1.9784832e-006
+9.5872000e+004    +2.1026098e-007    +1.9761037e-006
+9.6000000e+004    +2.0812035e-007    +1.7501561e-006
+9.6128000e+004    +2.0666553e-007    +1.7701232e-006
+9.6256000e+004    +2.1809056e-007    +1.9364334e-006
+9.6384000e+004    +2.3716289e-007    +1.8880723e-006
+9.6512000e+004    +2.3202908e-007    +1.8484616e-006
+9.6640000e+004    +2.4923406e-007    +1.8157302e-006
+9.6768000e+004    +2.3990839e-007    +1.9580375e-006
+9.6896000e+004    +2.1892185e-007    +2.0175612e-006
+9.7024000e+004    +2.1977151e-007    +1.9252168e-006
+9.7152000e+004    +2.1812697e-007    +1.8313370e-006
+9.7280000e+004    +2.1416621e-007    +1.7349555e-006
+9.7408000e+004    +2.3113938e-007    +1.7552385e-006
+9.7536000e+004    +2.4694165e-007    +2.0076748e-006
+9.7664000e+004    +2.3296772e-007    +1.9866243e-006
+9.7792000e+004    +2.4723275e-007    +2.0430653e-006
+9.7920000e+004    +3.0785694e-007    +2.0530968e-006
+9.8048000e+004    +3.3774376e-007    +1.8945304e-006
+9.8176000e+004    +3.4452745e-007    +1.9719791e-006
+9.8304000e+004    +3.5346469e-007    +1.9069602e-006
+9.8432000e+004    +4.7477562e-007    +1.8874525e-006
+9.8560000e+004    +5.2832814e-007    +1.9227261e-006
+9.8688000e+004    +5.6317486e-007    +1.8825103e-006
+9.8816000e+004    +5.9700648e-007    +1.6962032e-006
+9.8944000e+004    +5.3513361e-007    +1.6902077e-006
+9.9072000e+004    +4.4515124e-007    +1.7855222e-006
+9.9200000e+004    +3.8783065e-007    +1.7006899e-006
+9.9328000e+004    +4.4215065e-007    +1.7925918e-006
+9.9456000e+004    +5.1395051e-007    +2.0118409e-006
+9.9584000e+004    +4.7483138e-007    +1.9549013e-006
+9.9712000e+004    +4.0072604e-007    +1.6267752e-006
+9.9840000e+004    +4.5876078e-007    +1.6708137e-006
+9.9968000e+004    +4.8110991e-007    +1.7980361e-006
+1.0009600e+005    +4.4641109e-007    +1.9490119e-006
+1.0022400e+005    +4.9853344e-007    +2.0035370e-006
+1.0035200e+005    +5.5138213e-007    +2.0264260e-006
+1.0048000e+005    +5.2273691e-007    +1.8508885e-006
+1.0060800e+005    +5.2774834e-007    +1.7342203e-006
+1.0073600e+005    +5.2194144e-007    +1.8900282e-006
+1.0086400e+005    +5.0714596e-007    +1.9655376e-006
+1.0099200e+005    +5.4435628e-007    +1.7992032e-006
+1.0112000e+005    +4.9581826e-007    +1.6822522e-006
+1.0124800e+005    +5.2558107e-007    +1.6949801e-006
+1.0137600e+005    +5.0198940e-007    +1.8140883e-006
+1.0150400e+005    +4.9765788e-007    +1.8553667e-006
+1.0163200e+005    +5.0582742e-007    +1.7812301e-006
+1.0176000e+005    +4.9926143e-007    +1.7174940e-006
+1.0188800e+005    +4.8147768e-007    +1.8149948e-006
+1.0201600e+005    +4.8300899e-007    +1.7833534e-006
+1.0214400e+005    +5.2441436e-007    +1.7242431e-006
+1.0227200e+005    +4.9790054e-007    +1.7738762e-006
