# North DC Val: 0.79913193 VoltsSouth DC Val: 0.58240101 Volts
# SR785 Measurement - Timestamp: May 08 2020 - 13:38:08
# Parameter File: /home/controls/Git/cit_ctnlab/ctn_scripts/TransRINSpecLong.yml
#---------- Measurement Setup ------------
# Start Frequency (Hz): 0.000000
# Frequency Span (Hz): 800.000000
# Frequency Resolution: 800
# Number of Averages: 100
# Averaging Mode: RMS
# Window function: Hanning
#---------- Measurement Parameters ----------
# Measurement Group:  "FFT" "FFT"
# Measurements:  "FFT 1" "FFT 2"
# View:  "Log Magnitude" "Log Magnitude"
# Unit:  "Vrms/rtHz" "Vrms/rtHz"
#---------- Input Parameters ----------
# Input Source: Analog
# Input Mode: Single ended, Single ended
# Input Grounding: Float, Float
# Input Coupling: AC, AC
# Input Range: -36.0dBVpk, -36.0dBVpk
# Auto Range: Off, Off
# Auto Range Mode: Tracking, Tracking
# Anti-Aliasing Filter: On, On
#---------- Source Parameters ----------
# Source Type: Sine
# Source Amplitude: 500.0mVpk
# Source On: 0

#---------- Measurement Data ----------
# [Freq(Hz) Display 0(Vrms/rtHz) Display 1(Vrms/rtHz) ]
+0.0000000e+000    +1.3896074e-003    +3.0466184e-004
+1.0000000e+000    +1.0591563e-003    +2.7133719e-004
+2.0000000e+000    +5.5051589e-004    +1.8457531e-004
+3.0000000e+000    +3.7822250e-004    +1.0900358e-004
+4.0000000e+000    +1.9666742e-004    +6.3345789e-005
+5.0000000e+000    +1.0311931e-004    +4.0110903e-005
+6.0000000e+000    +8.1959442e-005    +2.9029567e-005
+7.0000000e+000    +6.5591536e-005    +2.0688189e-005
+8.0000000e+000    +5.1408875e-005    +1.4755386e-005
+9.0000000e+000    +4.5094966e-005    +1.1866762e-005
+1.0000000e+001    +4.1432399e-005    +9.7707152e-006
+1.1000000e+001    +3.6252430e-005    +8.5490183e-006
+1.2000000e+001    +3.0274748e-005    +6.6782427e-006
+1.3000000e+001    +2.8791468e-005    +4.7383301e-006
+1.4000000e+001    +2.5681240e-005    +4.2103770e-006
+1.5000000e+001    +2.1296446e-005    +3.9692122e-006
+1.6000000e+001    +1.8620154e-005    +3.3020965e-006
+1.7000000e+001    +1.6652646e-005    +2.6432122e-006
+1.8000000e+001    +1.7788321e-005    +2.2974250e-006
+1.9000000e+001    +1.6748178e-005    +2.2326822e-006
+2.0000000e+001    +1.3503770e-005    +1.9649917e-006
+2.1000000e+001    +1.2258116e-005    +1.6655663e-006
+2.2000000e+001    +1.1607642e-005    +1.5106652e-006
+2.3000000e+001    +1.0550070e-005    +1.3779231e-006
+2.4000000e+001    +1.0148359e-005    +1.2484404e-006
+2.5000000e+001    +9.7047268e-006    +1.0994534e-006
+2.6000000e+001    +8.5913525e-006    +9.0336448e-007
+2.7000000e+001    +7.8388493e-006    +7.8037010e-007
+2.8000000e+001    +7.4364561e-006    +6.9850057e-007
+2.9000000e+001    +6.6115886e-006    +6.5613648e-007
+3.0000000e+001    +5.8010028e-006    +7.0133700e-007
+3.1000000e+001    +5.8680353e-006    +6.5620640e-007
+3.2000000e+001    +5.7567850e-006    +5.8861934e-007
+3.3000000e+001    +4.9695514e-006    +5.0539444e-007
+3.4000000e+001    +4.8394695e-006    +5.0621969e-007
+3.5000000e+001    +4.5144852e-006    +4.5176438e-007
+3.6000000e+001    +3.9954643e-006    +4.3028683e-007
+3.7000000e+001    +4.1560520e-006    +4.2178448e-007
+3.8000000e+001    +3.8969938e-006    +3.7564416e-007
+3.9000000e+001    +3.4043292e-006    +3.6331448e-007
+4.0000000e+001    +3.8128458e-006    +3.4052374e-007
+4.1000000e+001    +3.6297317e-006    +3.2871532e-007
+4.2000000e+001    +3.2808650e-006    +3.0010153e-007
+4.3000000e+001    +3.3614854e-006    +2.7224857e-007
+4.4000000e+001    +2.9223490e-006    +2.4349970e-007
+4.5000000e+001    +3.3486770e-006    +2.4261237e-007
+4.6000000e+001    +2.6935884e-006    +2.2745823e-007
+4.7000000e+001    +2.6509169e-006    +2.1471362e-007
+4.8000000e+001    +2.7615267e-006    +2.1843397e-007
+4.9000000e+001    +2.3623147e-006    +2.1500095e-007
+5.0000000e+001    +2.3793125e-006    +1.8932266e-007
+5.1000000e+001    +2.0776602e-006    +1.7641626e-007
+5.2000000e+001    +1.9486802e-006    +1.7127880e-007
+5.3000000e+001    +2.0205896e-006    +1.8366288e-007
+5.4000000e+001    +1.9656995e-006    +1.6605485e-007
+5.5000000e+001    +1.8095546e-006    +1.5337069e-007
+5.6000000e+001    +1.8040378e-006    +1.5571651e-007
+5.7000000e+001    +1.9372010e-006    +1.3785936e-007
+5.8000000e+001    +1.7622848e-006    +1.3917825e-007
+5.9000000e+001    +1.5826979e-006    +1.3904415e-007
+6.0000000e+001    +1.5070306e-006    +1.4949670e-007
+6.1000000e+001    +1.9275560e-006    +1.3600099e-007
+6.2000000e+001    +1.5656769e-006    +1.1543586e-007
+6.3000000e+001    +1.3670207e-006    +1.1510515e-007
+6.4000000e+001    +1.2885399e-006    +1.1890408e-007
+6.5000000e+001    +1.1799333e-006    +1.1592613e-007
+6.6000000e+001    +1.2446411e-006    +1.1060884e-007
+6.7000000e+001    +1.0553117e-006    +1.0780586e-007
+6.8000000e+001    +1.2645523e-006    +1.0395690e-007
+6.9000000e+001    +1.2106492e-006    +9.0120480e-008
+7.0000000e+001    +9.5146453e-007    +9.7115482e-008
+7.1000000e+001    +8.7666160e-007    +9.4960789e-008
+7.2000000e+001    +6.8290547e-007    +8.9606722e-008
+7.3000000e+001    +7.8737838e-007    +9.5541111e-008
+7.4000000e+001    +7.4925555e-007    +8.9536606e-008
+7.5000000e+001    +7.3351885e-007    +8.5434159e-008
+7.6000000e+001    +6.1324346e-007    +8.0903547e-008
+7.7000000e+001    +6.1140270e-007    +7.7476784e-008
+7.8000000e+001    +5.1793910e-007    +7.4999299e-008
+7.9000000e+001    +6.2228889e-007    +8.3064592e-008
+8.0000000e+001    +6.1242258e-007    +7.8259923e-008
+8.1000000e+001    +6.0985400e-007    +7.6512656e-008
+8.2000000e+001    +5.5121870e-007    +7.3749121e-008
+8.3000000e+001    +4.4101031e-007    +6.8590751e-008
+8.4000000e+001    +4.1734373e-007    +6.6029990e-008
+8.5000000e+001    +3.8740038e-007    +6.9228868e-008
+8.6000000e+001    +4.5182787e-007    +6.4875238e-008
+8.7000000e+001    +4.8158819e-007    +6.1710764e-008
+8.8000000e+001    +4.2697511e-007    +6.8317775e-008
+8.9000000e+001    +4.2353122e-007    +6.8358140e-008
+9.0000000e+001    +4.2982882e-007    +6.8785859e-008
+9.1000000e+001    +4.7406459e-007    +7.2019091e-008
+9.2000000e+001    +3.8274547e-007    +6.8182736e-008
+9.3000000e+001    +3.8935039e-007    +6.3605540e-008
+9.4000000e+001    +3.5915241e-007    +6.6159096e-008
+9.5000000e+001    +3.9976058e-007    +6.3647803e-008
+9.6000000e+001    +3.9157197e-007    +6.5475042e-008
+9.7000000e+001    +3.4455695e-007    +6.4483089e-008
+9.8000000e+001    +4.2179190e-007    +5.9788285e-008
+9.9000000e+001    +4.9652976e-007    +6.0293182e-008
+1.0000000e+002    +3.9154702e-007    +5.8767782e-008
+1.0100000e+002    +2.8570813e-007    +5.7636214e-008
+1.0200000e+002    +3.5046708e-007    +6.0121110e-008
+1.0300000e+002    +3.0204160e-007    +5.6440360e-008
+1.0400000e+002    +2.7657930e-007    +5.8132574e-008
+1.0500000e+002    +2.5675658e-007    +5.8841838e-008
+1.0600000e+002    +2.4773925e-007    +5.8330521e-008
+1.0700000e+002    +2.9403759e-007    +5.1759518e-008
+1.0800000e+002    +2.1831097e-007    +5.1387151e-008
+1.0900000e+002    +1.8856960e-007    +5.1765142e-008
+1.1000000e+002    +2.2736459e-007    +5.4076239e-008
+1.1100000e+002    +1.9164034e-007    +5.4695700e-008
+1.1200000e+002    +1.5497285e-007    +5.5021797e-008
+1.1300000e+002    +1.6633477e-007    +5.2819299e-008
+1.1400000e+002    +1.8008673e-007    +5.3962125e-008
+1.1500000e+002    +1.8532249e-007    +4.8340368e-008
+1.1600000e+002    +1.7319806e-007    +5.3887405e-008
+1.1700000e+002    +1.6383258e-007    +5.6389322e-008
+1.1800000e+002    +1.7217837e-007    +5.6917795e-008
+1.1900000e+002    +6.5491651e-007    +5.4134873e-008
+1.2000000e+002    +1.4030735e-006    +5.1309911e-008
+1.2100000e+002    +7.6367542e-007    +5.1022280e-008
+1.2200000e+002    +1.6233922e-007    +5.0400907e-008
+1.2300000e+002    +1.4492070e-007    +5.3466845e-008
+1.2400000e+002    +1.2928693e-007    +5.1617409e-008
+1.2500000e+002    +1.3900355e-007    +5.4039202e-008
+1.2600000e+002    +1.5444695e-007    +5.3634004e-008
+1.2700000e+002    +1.5342829e-007    +5.1457327e-008
+1.2800000e+002    +1.5148392e-007    +5.0058812e-008
+1.2900000e+002    +1.5317615e-007    +4.8304077e-008
+1.3000000e+002    +1.4711304e-007    +5.0520303e-008
+1.3100000e+002    +1.3062517e-007    +4.9463942e-008
+1.3200000e+002    +1.5338433e-007    +4.9345907e-008
+1.3300000e+002    +1.5819283e-007    +5.0462482e-008
+1.3400000e+002    +1.5548638e-007    +5.3153233e-008
+1.3500000e+002    +1.7818854e-007    +5.2234967e-008
+1.3600000e+002    +1.8513092e-007    +4.8788909e-008
+1.3700000e+002    +2.1565299e-007    +4.7358700e-008
+1.3800000e+002    +3.0896018e-007    +4.7621235e-008
+1.3900000e+002    +3.5919854e-007    +4.5785953e-008
+1.4000000e+002    +4.4959901e-007    +4.4999855e-008
+1.4100000e+002    +6.2212627e-007    +4.4733007e-008
+1.4200000e+002    +9.1162246e-007    +4.5860112e-008
+1.4300000e+002    +1.4798851e-006    +4.7094460e-008
+1.4400000e+002    +1.7160294e-006    +4.8732858e-008
+1.4500000e+002    +1.4210203e-006    +4.7439315e-008
+1.4600000e+002    +9.6925874e-007    +4.5215792e-008
+1.4700000e+002    +6.0892398e-007    +4.3765162e-008
+1.4800000e+002    +4.5853670e-007    +4.5491014e-008
+1.4900000e+002    +3.3632168e-007    +4.3116128e-008
+1.5000000e+002    +2.4793599e-007    +4.4190315e-008
+1.5100000e+002    +2.3371095e-007    +4.6630717e-008
+1.5200000e+002    +1.8148373e-007    +4.9887785e-008
+1.5300000e+002    +1.6259895e-007    +4.5420741e-008
+1.5400000e+002    +1.7961852e-007    +4.3772562e-008
+1.5500000e+002    +2.1062327e-007    +4.3998451e-008
+1.5600000e+002    +2.0760183e-007    +4.0931909e-008
+1.5700000e+002    +1.9504482e-007    +4.2553552e-008
+1.5800000e+002    +1.8048321e-007    +4.3735092e-008
+1.5900000e+002    +1.6484285e-007    +4.4082686e-008
+1.6000000e+002    +1.3901607e-007    +4.3465050e-008
+1.6100000e+002    +1.3217202e-007    +4.1555452e-008
+1.6200000e+002    +1.2341981e-007    +4.2922565e-008
+1.6300000e+002    +1.1250931e-007    +4.6600981e-008
+1.6400000e+002    +1.0421140e-007    +4.4333824e-008
+1.6500000e+002    +1.0933164e-007    +4.1499415e-008
+1.6600000e+002    +1.0800644e-007    +4.2275811e-008
+1.6700000e+002    +1.0235621e-007    +4.3533205e-008
+1.6800000e+002    +8.8123208e-008    +4.4784901e-008
+1.6900000e+002    +8.0615543e-008    +4.4225164e-008
+1.7000000e+002    +7.8557193e-008    +4.3016357e-008
+1.7100000e+002    +7.9431707e-008    +4.1956607e-008
+1.7200000e+002    +7.0620196e-008    +4.1781689e-008
+1.7300000e+002    +6.7047800e-008    +4.3485194e-008
+1.7400000e+002    +7.5235761e-008    +4.1286857e-008
+1.7500000e+002    +7.2065440e-008    +4.1474728e-008
+1.7600000e+002    +7.6676137e-008    +4.3432660e-008
+1.7700000e+002    +7.3937059e-008    +4.2020041e-008
+1.7800000e+002    +7.5257326e-008    +4.1522252e-008
+1.7900000e+002    +2.3797122e-007    +5.7915265e-008
+1.8000000e+002    +5.0394652e-007    +1.0228959e-007
+1.8100000e+002    +2.8583364e-007    +6.8586758e-008
+1.8200000e+002    +8.0624574e-008    +4.2948066e-008
+1.8300000e+002    +7.8312361e-008    +4.4250665e-008
+1.8400000e+002    +7.4610490e-008    +4.4654147e-008
+1.8500000e+002    +7.1183422e-008    +4.1981906e-008
+1.8600000e+002    +6.7889012e-008    +4.1847798e-008
+1.8700000e+002    +7.3761754e-008    +4.2260034e-008
+1.8800000e+002    +6.7140697e-008    +4.5304841e-008
+1.8900000e+002    +6.9501667e-008    +4.3694005e-008
+1.9000000e+002    +6.9177652e-008    +4.4989331e-008
+1.9100000e+002    +7.5262115e-008    +4.4687354e-008
+1.9200000e+002    +7.2964802e-008    +4.3591605e-008
+1.9300000e+002    +7.3027238e-008    +4.0937437e-008
+1.9400000e+002    +8.1222808e-008    +4.1328718e-008
+1.9500000e+002    +7.3115324e-008    +4.0742648e-008
+1.9600000e+002    +6.8738892e-008    +4.3582418e-008
+1.9700000e+002    +7.5421440e-008    +4.3248360e-008
+1.9800000e+002    +7.5317338e-008    +4.1958081e-008
+1.9900000e+002    +6.7206926e-008    +4.2435694e-008
+2.0000000e+002    +6.9866317e-008    +4.3571173e-008
+2.0100000e+002    +6.6614504e-008    +4.2751317e-008
+2.0200000e+002    +6.6518979e-008    +4.4354469e-008
+2.0300000e+002    +7.1301848e-008    +4.3733891e-008
+2.0400000e+002    +6.8324972e-008    +4.4308713e-008
+2.0500000e+002    +6.7313344e-008    +4.4195893e-008
+2.0600000e+002    +6.7375382e-008    +4.3902613e-008
+2.0700000e+002    +6.5008500e-008    +4.4922007e-008
+2.0800000e+002    +7.0682724e-008    +4.5099821e-008
+2.0900000e+002    +7.2743546e-008    +4.7209856e-008
+2.1000000e+002    +7.0824029e-008    +4.3256765e-008
+2.1100000e+002    +7.1561679e-008    +4.2308038e-008
+2.1200000e+002    +8.0316930e-008    +4.2906166e-008
+2.1300000e+002    +6.8920876e-008    +4.0041908e-008
+2.1400000e+002    +7.0373979e-008    +3.9622325e-008
+2.1500000e+002    +8.3740304e-008    +4.2482455e-008
+2.1600000e+002    +9.3621573e-008    +4.2537341e-008
+2.1700000e+002    +1.2874440e-007    +3.8563158e-008
+2.1800000e+002    +1.1152392e-007    +4.1940993e-008
+2.1900000e+002    +8.3501959e-008    +4.1937078e-008
+2.2000000e+002    +9.8750924e-008    +4.2234891e-008
+2.2100000e+002    +1.0230756e-007    +4.4809987e-008
+2.2200000e+002    +9.4002267e-008    +4.7480583e-008
+2.2300000e+002    +8.5522103e-008    +4.3812857e-008
+2.2400000e+002    +8.3178676e-008    +4.0634713e-008
+2.2500000e+002    +7.3687929e-008    +4.3540375e-008
+2.2600000e+002    +6.9136952e-008    +4.1184311e-008
+2.2700000e+002    +6.7550559e-008    +4.1716874e-008
+2.2800000e+002    +6.9605150e-008    +4.0966167e-008
+2.2900000e+002    +7.1946381e-008    +4.3624308e-008
+2.3000000e+002    +7.1431216e-008    +4.2091706e-008
+2.3100000e+002    +6.7762343e-008    +4.4416065e-008
+2.3200000e+002    +6.7534984e-008    +4.5241961e-008
+2.3300000e+002    +7.1959334e-008    +4.3415831e-008
+2.3400000e+002    +7.3897290e-008    +4.5251252e-008
+2.3500000e+002    +7.4945468e-008    +4.7423743e-008
+2.3600000e+002    +7.3642639e-008    +4.7366864e-008
+2.3700000e+002    +7.3878873e-008    +4.8414680e-008
+2.3800000e+002    +7.2573627e-008    +4.6524754e-008
+2.3900000e+002    +1.3191526e-007    +4.7241123e-008
+2.4000000e+002    +2.7772012e-007    +4.5867264e-008
+2.4100000e+002    +1.7118461e-007    +4.2347356e-008
+2.4200000e+002    +7.8896981e-008    +4.4509797e-008
+2.4300000e+002    +8.3435332e-008    +4.3315698e-008
+2.4400000e+002    +7.9881865e-008    +4.3731873e-008
+2.4500000e+002    +7.9435459e-008    +4.7026926e-008
+2.4600000e+002    +8.8938641e-008    +4.9520075e-008
+2.4700000e+002    +1.0959822e-007    +4.7855320e-008
+2.4800000e+002    +1.1470043e-007    +4.5321510e-008
+2.4900000e+002    +1.2169488e-007    +4.3229512e-008
+2.5000000e+002    +1.3086161e-007    +4.3860698e-008
+2.5100000e+002    +1.4045717e-007    +4.7385850e-008
+2.5200000e+002    +1.5826649e-007    +4.6308362e-008
+2.5300000e+002    +1.9235877e-007    +4.6459007e-008
+2.5400000e+002    +2.2335426e-007    +4.5925869e-008
+2.5500000e+002    +2.7398150e-007    +4.6726250e-008
+2.5600000e+002    +2.9648388e-007    +5.1728950e-008
+2.5700000e+002    +2.7147905e-007    +5.0367827e-008
+2.5800000e+002    +3.6534939e-007    +4.8760850e-008
+2.5900000e+002    +4.3554911e-007    +4.5948870e-008
+2.6000000e+002    +4.5999096e-007    +4.4731827e-008
+2.6100000e+002    +4.4412653e-007    +4.5719744e-008
+2.6200000e+002    +5.0566859e-007    +4.9067022e-008
+2.6300000e+002    +6.3478075e-007    +4.6868575e-008
+2.6400000e+002    +7.4881967e-007    +4.9657118e-008
+2.6500000e+002    +8.3063225e-007    +4.8424781e-008
+2.6600000e+002    +8.5776384e-007    +4.7053007e-008
+2.6700000e+002    +8.5019531e-007    +5.0552540e-008
+2.6800000e+002    +9.1439125e-007    +5.0882644e-008
+2.6900000e+002    +1.0868271e-006    +5.0472398e-008
+2.7000000e+002    +1.7310053e-006    +4.9160796e-008
+2.7100000e+002    +3.0040285e-006    +5.0258723e-008
+2.7200000e+002    +4.4041176e-006    +4.9161770e-008
+2.7300000e+002    +4.1490489e-006    +4.7252328e-008
+2.7400000e+002    +3.1604936e-006    +4.8622116e-008
+2.7500000e+002    +2.6059440e-006    +4.9127234e-008
+2.7600000e+002    +2.1659316e-006    +5.0680139e-008
+2.7700000e+002    +1.9053927e-006    +5.4211363e-008
+2.7800000e+002    +1.7780432e-006    +5.2389872e-008
+2.7900000e+002    +1.3602444e-006    +4.8355499e-008
+2.8000000e+002    +1.2240739e-006    +5.0794842e-008
+2.8100000e+002    +1.2971562e-006    +5.1284847e-008
+2.8200000e+002    +1.3398763e-006    +5.5114185e-008
+2.8300000e+002    +8.9696397e-007    +5.5081276e-008
+2.8400000e+002    +7.1866162e-007    +5.0753478e-008
+2.8500000e+002    +6.8595574e-007    +4.8800054e-008
+2.8600000e+002    +5.8991458e-007    +5.1597070e-008
+2.8700000e+002    +5.4322845e-007    +5.1945229e-008
+2.8800000e+002    +5.0970266e-007    +5.2566531e-008
+2.8900000e+002    +4.6768335e-007    +4.9403155e-008
+2.9000000e+002    +4.0109492e-007    +5.3137533e-008
+2.9100000e+002    +3.6734485e-007    +5.1958462e-008
+2.9200000e+002    +3.2020901e-007    +4.9476164e-008
+2.9300000e+002    +2.7131040e-007    +5.0624802e-008
+2.9400000e+002    +2.4537624e-007    +5.3327252e-008
+2.9500000e+002    +2.4665442e-007    +5.2658670e-008
+2.9600000e+002    +2.3407047e-007    +4.9376258e-008
+2.9700000e+002    +2.0956126e-007    +5.3856827e-008
+2.9800000e+002    +1.8684193e-007    +5.5283639e-008
+2.9900000e+002    +2.0498801e-007    +5.5379871e-008
+3.0000000e+002    +2.0813201e-007    +5.8579737e-008
+3.0100000e+002    +1.5855470e-007    +5.8577804e-008
+3.0200000e+002    +1.3702154e-007    +5.5347531e-008
+3.0300000e+002    +1.3629607e-007    +5.2185896e-008
+3.0400000e+002    +1.2987195e-007    +5.4558289e-008
+3.0500000e+002    +1.1855849e-007    +5.7967878e-008
+3.0600000e+002    +1.1696210e-007    +5.4088176e-008
+3.0700000e+002    +1.1296631e-007    +5.6604694e-008
+3.0800000e+002    +1.0674581e-007    +5.5062230e-008
+3.0900000e+002    +1.1579370e-007    +4.8003404e-008
+3.1000000e+002    +1.0992457e-007    +4.9443528e-008
+3.1100000e+002    +1.0130691e-007    +5.1006708e-008
+3.1200000e+002    +9.5932450e-008    +5.4326659e-008
+3.1300000e+002    +8.6549569e-008    +5.6066629e-008
+3.1400000e+002    +8.8685105e-008    +5.8578383e-008
+3.1500000e+002    +8.9277840e-008    +5.8978507e-008
+3.1600000e+002    +8.9862297e-008    +5.7180998e-008
+3.1700000e+002    +8.9225509e-008    +5.5059811e-008
+3.1800000e+002    +8.3855866e-008    +5.2808918e-008
+3.1900000e+002    +8.1339266e-008    +5.4099520e-008
+3.2000000e+002    +9.1041613e-008    +5.4813231e-008
+3.2100000e+002    +8.7774801e-008    +5.5603351e-008
+3.2200000e+002    +8.1133052e-008    +5.5474199e-008
+3.2300000e+002    +8.5491777e-008    +5.8964456e-008
+3.2400000e+002    +7.7305650e-008    +5.9875724e-008
+3.2500000e+002    +7.4938718e-008    +6.2103503e-008
+3.2600000e+002    +7.5686728e-008    +6.0046958e-008
+3.2700000e+002    +7.8324739e-008    +5.4759152e-008
+3.2800000e+002    +7.6196265e-008    +5.8216184e-008
+3.2900000e+002    +9.4499299e-008    +5.7463335e-008
+3.3000000e+002    +1.0082311e-007    +5.8500163e-008
+3.3100000e+002    +9.9274480e-008    +6.1171022e-008
+3.3200000e+002    +9.6708483e-008    +5.6361404e-008
+3.3300000e+002    +1.0263170e-007    +5.4956232e-008
+3.3400000e+002    +9.6740770e-008    +6.2422345e-008
+3.3500000e+002    +1.0442708e-007    +6.0472850e-008
+3.3600000e+002    +1.0100337e-007    +6.2236268e-008
+3.3700000e+002    +1.0263135e-007    +6.9880819e-008
+3.3800000e+002    +1.1591951e-007    +7.3168408e-008
+3.3900000e+002    +1.0835517e-007    +6.5330781e-008
+3.4000000e+002    +1.0965744e-007    +6.5574184e-008
+3.4100000e+002    +1.0910117e-007    +6.0523661e-008
+3.4200000e+002    +1.2673782e-007    +6.2139719e-008
+3.4300000e+002    +1.3277972e-007    +6.4129644e-008
+3.4400000e+002    +1.3958471e-007    +6.8483146e-008
+3.4500000e+002    +1.6638627e-007    +6.7709983e-008
+3.4600000e+002    +1.6997193e-007    +6.6566543e-008
+3.4700000e+002    +1.7285667e-007    +6.5746697e-008
+3.4800000e+002    +1.9596139e-007    +6.1849342e-008
+3.4900000e+002    +2.8386549e-007    +6.0172226e-008
+3.5000000e+002    +2.5982331e-007    +5.7541371e-008
+3.5100000e+002    +2.5404299e-007    +6.0480218e-008
+3.5200000e+002    +3.1348500e-007    +6.4495204e-008
+3.5300000e+002    +2.8615676e-007    +6.5116154e-008
+3.5400000e+002    +2.3890058e-007    +6.2729939e-008
+3.5500000e+002    +1.8391593e-007    +6.1428260e-008
+3.5600000e+002    +1.7609948e-007    +6.3446166e-008
+3.5700000e+002    +1.6658369e-007    +6.2924187e-008
+3.5800000e+002    +1.6031730e-007    +6.7801714e-008
+3.5900000e+002    +1.5736356e-007    +6.7435622e-008
+3.6000000e+002    +1.5792540e-007    +6.8145390e-008
+3.6100000e+002    +1.4606655e-007    +7.0481775e-008
+3.6200000e+002    +1.3040234e-007    +6.8520301e-008
+3.6300000e+002    +1.2844183e-007    +6.8554989e-008
+3.6400000e+002    +1.1507053e-007    +6.8139556e-008
+3.6500000e+002    +1.0557255e-007    +6.6833557e-008
+3.6600000e+002    +9.1546809e-008    +6.8258167e-008
+3.6700000e+002    +8.8265359e-008    +6.4960552e-008
+3.6800000e+002    +8.8500194e-008    +6.5292774e-008
+3.6900000e+002    +8.2109416e-008    +6.5845526e-008
+3.7000000e+002    +8.8984940e-008    +6.2702462e-008
+3.7100000e+002    +8.7356582e-008    +6.3627681e-008
+3.7200000e+002    +8.8799986e-008    +6.9518762e-008
+3.7300000e+002    +8.8477655e-008    +7.2680798e-008
+3.7400000e+002    +8.9050424e-008    +7.9392471e-008
+3.7500000e+002    +9.4301022e-008    +7.7618978e-008
+3.7600000e+002    +9.7606360e-008    +6.9225521e-008
+3.7700000e+002    +9.8011434e-008    +7.0927527e-008
+3.7800000e+002    +1.0128233e-007    +7.1213201e-008
+3.7900000e+002    +9.5345143e-008    +6.7816750e-008
+3.8000000e+002    +8.5194365e-008    +7.4920536e-008
+3.8100000e+002    +9.0602057e-008    +7.2696757e-008
+3.8200000e+002    +8.6045780e-008    +7.1497517e-008
+3.8300000e+002    +8.8688417e-008    +6.9507394e-008
+3.8400000e+002    +9.5268966e-008    +7.3820090e-008
+3.8500000e+002    +9.3008381e-008    +7.7114656e-008
+3.8600000e+002    +8.6500933e-008    +7.3174917e-008
+3.8700000e+002    +1.1169364e-007    +7.5171023e-008
+3.8800000e+002    +1.2435497e-007    +7.4603363e-008
+3.8900000e+002    +1.1535553e-007    +6.9813716e-008
+3.9000000e+002    +1.0082466e-007    +7.0949334e-008
+3.9100000e+002    +9.9581243e-008    +7.1670904e-008
+3.9200000e+002    +9.3134581e-008    +7.0436826e-008
+3.9300000e+002    +9.1941679e-008    +7.6856594e-008
+3.9400000e+002    +8.4559268e-008    +7.6056516e-008
+3.9500000e+002    +7.8299287e-008    +7.3609570e-008
+3.9600000e+002    +7.4803246e-008    +7.1941010e-008
+3.9700000e+002    +6.9701201e-008    +7.2783173e-008
+3.9800000e+002    +6.9476641e-008    +7.7879172e-008
+3.9900000e+002    +6.9243463e-008    +7.8857056e-008
+4.0000000e+002    +7.4851393e-008    +8.2739369e-008
+4.0100000e+002    +7.4888298e-008    +8.1831047e-008
+4.0200000e+002    +7.7227945e-008    +7.8196024e-008
+4.0300000e+002    +8.5623476e-008    +7.7006192e-008
+4.0400000e+002    +8.1667146e-008    +7.5404380e-008
+4.0500000e+002    +8.4101963e-008    +7.3442543e-008
+4.0600000e+002    +8.1650114e-008    +7.5757647e-008
+4.0700000e+002    +8.4800725e-008    +7.7590776e-008
+4.0800000e+002    +8.4864340e-008    +8.2894680e-008
+4.0900000e+002    +8.6826446e-008    +7.8551757e-008
+4.1000000e+002    +8.6405727e-008    +7.2727175e-008
+4.1100000e+002    +8.2084448e-008    +7.4589764e-008
+4.1200000e+002    +7.5644607e-008    +7.9545337e-008
+4.1300000e+002    +8.2097152e-008    +8.0838461e-008
+4.1400000e+002    +8.2278085e-008    +8.1561680e-008
+4.1500000e+002    +7.8323190e-008    +8.6278121e-008
+4.1600000e+002    +7.8659205e-008    +8.5679623e-008
+4.1700000e+002    +7.3983827e-008    +7.9210146e-008
+4.1800000e+002    +7.6158798e-008    +8.1065288e-008
+4.1900000e+002    +8.3653006e-008    +8.7570925e-008
+4.2000000e+002    +1.1245843e-007    +9.4383061e-008
+4.2100000e+002    +9.6255938e-008    +8.7879144e-008
+4.2200000e+002    +7.2947017e-008    +7.8704993e-008
+4.2300000e+002    +7.1051225e-008    +8.0452850e-008
+4.2400000e+002    +7.1173574e-008    +8.1610409e-008
+4.2500000e+002    +6.5732408e-008    +7.6840820e-008
+4.2600000e+002    +6.3217115e-008    +8.6792710e-008
+4.2700000e+002    +7.0836236e-008    +8.6509196e-008
+4.2800000e+002    +6.8527974e-008    +8.8524786e-008
+4.2900000e+002    +5.9002602e-008    +8.5383618e-008
+4.3000000e+002    +6.0950860e-008    +8.4843379e-008
+4.3100000e+002    +6.0244474e-008    +8.3144066e-008
+4.3200000e+002    +7.0585472e-008    +8.2724746e-008
+4.3300000e+002    +7.3979038e-008    +8.7085660e-008
+4.3400000e+002    +7.6358489e-008    +8.7928363e-008
+4.3500000e+002    +7.0215293e-008    +7.4071615e-008
+4.3600000e+002    +6.8113600e-008    +8.7145061e-008
+4.3700000e+002    +8.3234767e-008    +8.4918959e-008
+4.3800000e+002    +1.0100881e-007    +8.4435968e-008
+4.3900000e+002    +1.1678616e-007    +8.2757722e-008
+4.4000000e+002    +1.2246009e-007    +8.4683400e-008
+4.4100000e+002    +1.4547373e-007    +9.0203635e-008
+4.4200000e+002    +1.7097366e-007    +9.5036718e-008
+4.4300000e+002    +1.7826173e-007    +8.6471587e-008
+4.4400000e+002    +1.5932061e-007    +8.5903807e-008
+4.4500000e+002    +1.4625945e-007    +8.7717673e-008
+4.4600000e+002    +1.3187820e-007    +8.1535440e-008
+4.4700000e+002    +1.1487663e-007    +8.2204402e-008
+4.4800000e+002    +1.0562495e-007    +8.6413124e-008
+4.4900000e+002    +9.7427872e-008    +8.7754181e-008
+4.5000000e+002    +9.3187872e-008    +8.6744883e-008
+4.5100000e+002    +8.1318731e-008    +9.0678192e-008
+4.5200000e+002    +7.5596120e-008    +8.8990113e-008
+4.5300000e+002    +7.8860694e-008    +8.7141515e-008
+4.5400000e+002    +7.5723051e-008    +8.7161425e-008
+4.5500000e+002    +6.7094120e-008    +8.3903942e-008
+4.5600000e+002    +6.5517547e-008    +8.6074884e-008
+4.5700000e+002    +6.2507247e-008    +9.0172342e-008
+4.5800000e+002    +5.8770556e-008    +9.3298134e-008
+4.5900000e+002    +6.5851673e-008    +9.1733860e-008
+4.6000000e+002    +6.7470801e-008    +9.5536073e-008
+4.6100000e+002    +6.3634175e-008    +9.1110216e-008
+4.6200000e+002    +6.1055680e-008    +8.8533341e-008
+4.6300000e+002    +5.6102898e-008    +9.1842395e-008
+4.6400000e+002    +6.2401377e-008    +9.1088808e-008
+4.6500000e+002    +6.2701567e-008    +8.9735309e-008
+4.6600000e+002    +5.8615701e-008    +9.1291959e-008
+4.6700000e+002    +6.3208020e-008    +9.8918690e-008
+4.6800000e+002    +6.0345961e-008    +1.0192635e-007
+4.6900000e+002    +5.9287682e-008    +9.9436257e-008
+4.7000000e+002    +6.2439547e-008    +9.4112352e-008
+4.7100000e+002    +6.5085494e-008    +9.3432114e-008
+4.7200000e+002    +6.6415716e-008    +9.3505186e-008
+4.7300000e+002    +7.7441918e-008    +9.0868852e-008
+4.7400000e+002    +8.5447390e-008    +9.0056780e-008
+4.7500000e+002    +9.6151474e-008    +9.3298851e-008
+4.7600000e+002    +1.0213876e-007    +1.0473412e-007
+4.7700000e+002    +9.8411491e-008    +9.9812532e-008
+4.7800000e+002    +1.0284975e-007    +9.9720410e-008
+4.7900000e+002    +1.2316126e-007    +1.0003042e-007
+4.8000000e+002    +2.3996898e-007    +1.0096091e-007
+4.8100000e+002    +1.9005306e-007    +9.9307400e-008
+4.8200000e+002    +1.1682105e-007    +1.0474217e-007
+4.8300000e+002    +1.2972517e-007    +1.0077983e-007
+4.8400000e+002    +1.3297712e-007    +9.3289941e-008
+4.8500000e+002    +1.3872788e-007    +9.2625200e-008
+4.8600000e+002    +1.5427968e-007    +9.2340677e-008
+4.8700000e+002    +1.6054470e-007    +9.5785104e-008
+4.8800000e+002    +1.6025798e-007    +9.0352813e-008
+4.8900000e+002    +1.7393920e-007    +8.8682967e-008
+4.9000000e+002    +1.8568258e-007    +9.9887629e-008
+4.9100000e+002    +2.0019165e-007    +1.0766463e-007
+4.9200000e+002    +2.0734511e-007    +1.1456665e-007
+4.9300000e+002    +2.1501370e-007    +1.0597542e-007
+4.9400000e+002    +2.0564785e-007    +9.1158945e-008
+4.9500000e+002    +1.8469846e-007    +9.1321738e-008
+4.9600000e+002    +1.6442313e-007    +9.8851373e-008
+4.9700000e+002    +1.6417724e-007    +1.0866243e-007
+4.9800000e+002    +1.6058031e-007    +1.0678402e-007
+4.9900000e+002    +1.5430051e-007    +1.0319145e-007
+5.0000000e+002    +1.6078778e-007    +1.0285991e-007
+5.0100000e+002    +1.4038548e-007    +1.0225399e-007
+5.0200000e+002    +1.2567224e-007    +1.0320902e-007
+5.0300000e+002    +1.4731380e-007    +1.0554067e-007
+5.0400000e+002    +1.7019789e-007    +1.1076197e-007
+5.0500000e+002    +1.9837363e-007    +1.0331038e-007
+5.0600000e+002    +2.1785004e-007    +1.1056841e-007
+5.0700000e+002    +2.6624650e-007    +1.0594005e-007
+5.0800000e+002    +3.0937227e-007    +1.0861341e-007
+5.0900000e+002    +3.1182901e-007    +1.1816926e-007
+5.1000000e+002    +3.4963381e-007    +1.0667294e-007
+5.1100000e+002    +3.3785540e-007    +1.0426256e-007
+5.1200000e+002    +2.8485928e-007    +1.0252987e-007
+5.1300000e+002    +2.3273506e-007    +1.0487128e-007
+5.1400000e+002    +1.9533350e-007    +1.0582693e-007
+5.1500000e+002    +1.4682678e-007    +9.8854414e-008
+5.1600000e+002    +1.3661010e-007    +1.0500159e-007
+5.1700000e+002    +1.3141839e-007    +1.0660209e-007
+5.1800000e+002    +1.1800136e-007    +1.0089586e-007
+5.1900000e+002    +1.1857098e-007    +1.0751200e-007
+5.2000000e+002    +1.2383965e-007    +1.0992360e-007
+5.2100000e+002    +1.2250958e-007    +1.1226080e-007
+5.2200000e+002    +1.3974527e-007    +1.1472638e-007
+5.2300000e+002    +1.6360663e-007    +1.1555062e-007
+5.2400000e+002    +2.2307488e-007    +1.0543840e-007
+5.2500000e+002    +3.2630678e-007    +1.0475804e-007
+5.2600000e+002    +4.5853517e-007    +1.0957969e-007
+5.2700000e+002    +6.0228405e-007    +1.1495372e-007
+5.2800000e+002    +8.6102580e-007    +1.2068800e-007
+5.2900000e+002    +1.0701877e-006    +1.2149316e-007
+5.3000000e+002    +1.2975066e-006    +1.1995309e-007
+5.3100000e+002    +1.4422069e-006    +1.1755225e-007
+5.3200000e+002    +1.3584041e-006    +1.1753676e-007
+5.3300000e+002    +1.2690157e-006    +1.2019026e-007
+5.3400000e+002    +1.1846350e-006    +1.2288760e-007
+5.3500000e+002    +1.1279825e-006    +1.1660487e-007
+5.3600000e+002    +1.0131837e-006    +1.1330630e-007
+5.3700000e+002    +1.0285585e-006    +1.2108671e-007
+5.3800000e+002    +9.8435476e-007    +1.2457389e-007
+5.3900000e+002    +8.7840749e-007    +1.1180321e-007
+5.4000000e+002    +8.2935099e-007    +1.1726362e-007
+5.4100000e+002    +7.5271043e-007    +1.1628779e-007
+5.4200000e+002    +8.3219874e-007    +1.1768320e-007
+5.4300000e+002    +1.0895872e-006    +1.1513612e-007
+5.4400000e+002    +1.5783024e-006    +1.2235834e-007
+5.4500000e+002    +2.2728148e-006    +1.1805099e-007
+5.4600000e+002    +3.0796377e-006    +1.1374668e-007
+5.4700000e+002    +3.0861909e-006    +1.1981962e-007
+5.4800000e+002    +2.8143866e-006    +1.1323131e-007
+5.4900000e+002    +2.5519087e-006    +1.1573409e-007
+5.5000000e+002    +2.0763443e-006    +1.1775869e-007
+5.5100000e+002    +1.4895290e-006    +1.1566969e-007
+5.5200000e+002    +1.2108898e-006    +1.1158713e-007
+5.5300000e+002    +1.1799993e-006    +1.1205096e-007
+5.5400000e+002    +9.3181222e-007    +1.2193884e-007
+5.5500000e+002    +7.6558536e-007    +1.3711771e-007
+5.5600000e+002    +6.7862931e-007    +1.2084712e-007
+5.5700000e+002    +5.6435465e-007    +1.1877151e-007
+5.5800000e+002    +5.1244263e-007    +1.2564313e-007
+5.5900000e+002    +5.4026623e-007    +1.2662404e-007
+5.6000000e+002    +5.3906285e-007    +1.1942311e-007
+5.6100000e+002    +4.6567632e-007    +1.1694951e-007
+5.6200000e+002    +3.8076499e-007    +1.2157815e-007
+5.6300000e+002    +4.0703659e-007    +1.1585512e-007
+5.6400000e+002    +4.1572338e-007    +1.2514597e-007
+5.6500000e+002    +3.3911789e-007    +1.1561864e-007
+5.6600000e+002    +3.6286798e-007    +1.2058230e-007
+5.6700000e+002    +4.0761037e-007    +1.1998193e-007
+5.6800000e+002    +3.8685843e-007    +1.3128917e-007
+5.6900000e+002    +3.6772096e-007    +1.2744641e-007
+5.7000000e+002    +3.8362140e-007    +1.1792106e-007
+5.7100000e+002    +4.5368856e-007    +1.2240108e-007
+5.7200000e+002    +5.1796184e-007    +1.1146039e-007
+5.7300000e+002    +5.8843773e-007    +1.2147127e-007
+5.7400000e+002    +7.1549033e-007    +1.3105499e-007
+5.7500000e+002    +7.7483423e-007    +1.3562894e-007
+5.7600000e+002    +8.2250716e-007    +1.3935639e-007
+5.7700000e+002    +8.4932481e-007    +1.2651314e-007
+5.7800000e+002    +8.6136146e-007    +1.1245423e-007
+5.7900000e+002    +7.3099432e-007    +1.2238065e-007
+5.8000000e+002    +5.9729695e-007    +1.3028485e-007
+5.8100000e+002    +4.6015109e-007    +1.2523917e-007
+5.8200000e+002    +4.0902751e-007    +1.3377684e-007
+5.8300000e+002    +3.4991339e-007    +1.2766601e-007
+5.8400000e+002    +3.1457489e-007    +1.3126885e-007
+5.8500000e+002    +2.9546996e-007    +1.2624312e-007
+5.8600000e+002    +3.0156741e-007    +1.2786955e-007
+5.8700000e+002    +2.6170346e-007    +1.1449207e-007
+5.8800000e+002    +2.3482262e-007    +1.1633849e-007
+5.8900000e+002    +2.0377132e-007    +1.3054746e-007
+5.9000000e+002    +1.9659412e-007    +1.4023189e-007
+5.9100000e+002    +1.6518545e-007    +1.3442379e-007
+5.9200000e+002    +1.6570516e-007    +1.3011744e-007
+5.9300000e+002    +1.6923060e-007    +1.2648800e-007
+5.9400000e+002    +1.6487579e-007    +1.1338333e-007
+5.9500000e+002    +1.6483578e-007    +1.1830441e-007
+5.9600000e+002    +1.4622412e-007    +1.3426420e-007
+5.9700000e+002    +1.3015102e-007    +1.4243037e-007
+5.9800000e+002    +1.3293507e-007    +1.3933651e-007
+5.9900000e+002    +1.4001111e-007    +1.4009923e-007
+6.0000000e+002    +1.3644056e-007    +1.3543088e-007
+6.0100000e+002    +1.4271089e-007    +1.2858547e-007
+6.0200000e+002    +1.9809502e-007    +1.3116008e-007
+6.0300000e+002    +2.6514496e-007    +1.3691447e-007
+6.0400000e+002    +3.7852701e-007    +1.2938833e-007
+6.0500000e+002    +3.7098957e-007    +1.3295988e-007
+6.0600000e+002    +2.0343577e-007    +1.3579090e-007
+6.0700000e+002    +1.2807976e-007    +1.2086012e-007
+6.0800000e+002    +8.6453838e-008    +1.3320786e-007
+6.0900000e+002    +7.7099166e-008    +1.4366375e-007
+6.1000000e+002    +6.9220654e-008    +1.4124231e-007
+6.1100000e+002    +6.4827816e-008    +1.3399705e-007
+6.1200000e+002    +5.8156960e-008    +1.4056640e-007
+6.1300000e+002    +6.7114975e-008    +1.4638604e-007
+6.1400000e+002    +7.0748484e-008    +1.3666920e-007
+6.1500000e+002    +5.6252720e-008    +1.3074225e-007
+6.1600000e+002    +5.2002179e-008    +1.4458885e-007
+6.1700000e+002    +5.1265314e-008    +1.4695790e-007
+6.1800000e+002    +5.0168030e-008    +1.3452390e-007
+6.1900000e+002    +5.0316586e-008    +1.2050845e-007
+6.2000000e+002    +5.0606129e-008    +1.2383381e-007
+6.2100000e+002    +5.0568417e-008    +1.2091998e-007
+6.2200000e+002    +5.3649082e-008    +1.4050853e-007
+6.2300000e+002    +5.2900550e-008    +1.4150852e-007
+6.2400000e+002    +4.8067115e-008    +1.3294019e-007
+6.2500000e+002    +5.2590721e-008    +1.3326974e-007
+6.2600000e+002    +5.7726400e-008    +1.4082855e-007
+6.2700000e+002    +5.7174972e-008    +1.3888135e-007
+6.2800000e+002    +5.2072341e-008    +1.3046952e-007
+6.2900000e+002    +5.3713382e-008    +1.3875865e-007
+6.3000000e+002    +5.8761973e-008    +1.4496430e-007
+6.3100000e+002    +6.0918744e-008    +1.4842739e-007
+6.3200000e+002    +5.9155425e-008    +1.5041294e-007
+6.3300000e+002    +6.0540145e-008    +1.4127984e-007
+6.3400000e+002    +8.0750020e-008    +1.3468514e-007
+6.3500000e+002    +8.4122647e-008    +1.4050529e-007
+6.3600000e+002    +7.1629522e-008    +1.3942082e-007
+6.3700000e+002    +6.4788111e-008    +1.4102613e-007
+6.3800000e+002    +7.3482717e-008    +1.5321635e-007
+6.3900000e+002    +8.2211436e-008    +1.4434647e-007
+6.4000000e+002    +7.9702616e-008    +1.4186773e-007
+6.4100000e+002    +7.9073722e-008    +1.4632563e-007
+6.4200000e+002    +9.1246868e-008    +1.4946387e-007
+6.4300000e+002    +9.2594291e-008    +1.5117122e-007
+6.4400000e+002    +1.2015227e-007    +1.5199522e-007
+6.4500000e+002    +1.8281006e-007    +1.4874763e-007
+6.4600000e+002    +1.5570335e-007    +1.5248247e-007
+6.4700000e+002    +1.4727804e-007    +1.5155345e-007
+6.4800000e+002    +1.7048367e-007    +1.4256398e-007
+6.4900000e+002    +1.8713305e-007    +1.4597197e-007
+6.5000000e+002    +1.9328988e-007    +1.4661929e-007
+6.5100000e+002    +2.3022480e-007    +1.4765449e-007
+6.5200000e+002    +2.1436429e-007    +1.5236415e-007
+6.5300000e+002    +1.6131065e-007    +1.4326774e-007
+6.5400000e+002    +1.4337176e-007    +1.5101278e-007
+6.5500000e+002    +1.2508937e-007    +1.4236814e-007
+6.5600000e+002    +9.9695015e-008    +1.4645357e-007
+6.5700000e+002    +8.3370594e-008    +1.6547826e-007
+6.5800000e+002    +7.3689790e-008    +1.5840992e-007
+6.5900000e+002    +7.1931368e-008    +1.4710045e-007
+6.6000000e+002    +6.7149692e-008    +1.3072604e-007
+6.6100000e+002    +6.6187354e-008    +1.4434220e-007
+6.6200000e+002    +7.0338757e-008    +1.5454602e-007
+6.6300000e+002    +7.4659489e-008    +1.5965068e-007
+6.6400000e+002    +7.4952133e-008    +1.5522080e-007
+6.6500000e+002    +8.2072638e-008    +1.5648210e-007
+6.6600000e+002    +9.0528872e-008    +1.4556160e-007
+6.6700000e+002    +9.6259107e-008    +1.4262395e-007
+6.6800000e+002    +9.8084421e-008    +1.4696872e-007
+6.6900000e+002    +1.0872329e-007    +1.5516628e-007
+6.7000000e+002    +1.1506876e-007    +1.5414456e-007
+6.7100000e+002    +1.0073171e-007    +1.4608018e-007
+6.7200000e+002    +9.6107563e-008    +1.4633012e-007
+6.7300000e+002    +9.2895299e-008    +1.4309278e-007
+6.7400000e+002    +8.2235452e-008    +1.5264328e-007
+6.7500000e+002    +8.3123894e-008    +1.6550933e-007
+6.7600000e+002    +8.8742190e-008    +1.5836940e-007
+6.7700000e+002    +8.3081652e-008    +1.5552463e-007
+6.7800000e+002    +8.3743245e-008    +1.5781031e-007
+6.7900000e+002    +8.1244302e-008    +1.5977186e-007
+6.8000000e+002    +9.2044907e-008    +1.6529286e-007
+6.8100000e+002    +9.7707790e-008    +1.6640107e-007
+6.8200000e+002    +1.0079034e-007    +1.5445646e-007
+6.8300000e+002    +1.1758608e-007    +1.5407704e-007
+6.8400000e+002    +1.2624353e-007    +1.5590109e-007
+6.8500000e+002    +1.3733391e-007    +1.5927915e-007
+6.8600000e+002    +1.6181782e-007    +1.5266976e-007
+6.8700000e+002    +1.9498209e-007    +1.5903397e-007
+6.8800000e+002    +2.1849058e-007    +1.5135755e-007
+6.8900000e+002    +2.3950832e-007    +1.6257147e-007
+6.9000000e+002    +2.3505453e-007    +1.7033175e-007
+6.9100000e+002    +2.1023143e-007    +1.6044814e-007
+6.9200000e+002    +2.1726959e-007    +1.5210557e-007
+6.9300000e+002    +2.1699256e-007    +1.5639073e-007
+6.9400000e+002    +2.0063901e-007    +1.5723991e-007
+6.9500000e+002    +1.9403771e-007    +1.6493716e-007
+6.9600000e+002    +2.0052448e-007    +1.7128519e-007
+6.9700000e+002    +1.9458345e-007    +1.6860503e-007
+6.9800000e+002    +1.7333599e-007    +1.5200958e-007
+6.9900000e+002    +1.8705438e-007    +1.4578809e-007
+7.0000000e+002    +1.9065540e-007    +1.5144899e-007
+7.0100000e+002    +1.9214957e-007    +1.4747854e-007
+7.0200000e+002    +2.5304527e-007    +1.5205281e-007
+7.0300000e+002    +3.0264346e-007    +1.4072221e-007
+7.0400000e+002    +2.1264110e-007    +1.6219973e-007
+7.0500000e+002    +2.1574323e-007    +1.5999778e-007
+7.0600000e+002    +2.2550347e-007    +1.5431118e-007
+7.0700000e+002    +2.2499054e-007    +1.6406084e-007
+7.0800000e+002    +2.3060858e-007    +1.7554466e-007
+7.0900000e+002    +2.1353014e-007    +1.6312252e-007
+7.1000000e+002    +1.8544237e-007    +1.5749320e-007
+7.1100000e+002    +1.9314732e-007    +1.5896258e-007
+7.1200000e+002    +2.1454089e-007    +1.7435411e-007
+7.1300000e+002    +2.1740011e-007    +1.5425985e-007
+7.1400000e+002    +2.1766380e-007    +1.6588974e-007
+7.1500000e+002    +2.0309878e-007    +1.6806331e-007
+7.1600000e+002    +1.7197470e-007    +1.6952612e-007
+7.1700000e+002    +1.4573000e-007    +1.7088396e-007
+7.1800000e+002    +1.4360540e-007    +1.6316551e-007
+7.1900000e+002    +1.3904919e-007    +1.5988610e-007
+7.2000000e+002    +1.4824741e-007    +1.5970573e-007
+7.2100000e+002    +1.4435186e-007    +1.3868768e-007
+7.2200000e+002    +1.2363247e-007    +1.7200587e-007
+7.2300000e+002    +1.0765257e-007    +1.6130127e-007
+7.2400000e+002    +8.9042011e-008    +1.7025677e-007
+7.2500000e+002    +8.9719251e-008    +1.6939252e-007
+7.2600000e+002    +8.1788379e-008    +1.6686725e-007
+7.2700000e+002    +8.3471434e-008    +1.6959500e-007
+7.2800000e+002    +7.6344989e-008    +1.6429355e-007
+7.2900000e+002    +7.3720464e-008    +1.6355976e-007
+7.3000000e+002    +7.5039665e-008    +1.6771824e-007
+7.3100000e+002    +7.7970803e-008    +1.6993665e-007
+7.3200000e+002    +7.8985046e-008    +1.5370212e-007
+7.3300000e+002    +7.3453350e-008    +1.5424902e-007
+7.3400000e+002    +7.0728447e-008    +1.6858615e-007
+7.3500000e+002    +6.7116524e-008    +1.8103555e-007
+7.3600000e+002    +6.9448809e-008    +1.8224250e-007
+7.3700000e+002    +7.4515604e-008    +1.8313450e-007
+7.3800000e+002    +7.5995075e-008    +1.8196839e-007
+7.3900000e+002    +7.2571950e-008    +1.7391265e-007
+7.4000000e+002    +6.4031916e-008    +1.7522500e-007
+7.4100000e+002    +6.4278382e-008    +1.7486330e-007
+7.4200000e+002    +6.2604300e-008    +1.8277453e-007
+7.4300000e+002    +5.7688322e-008    +1.9039392e-007
+7.4400000e+002    +5.4835866e-008    +1.7842464e-007
+7.4500000e+002    +5.3765426e-008    +1.9234187e-007
+7.4600000e+002    +5.7291793e-008    +1.8357801e-007
+7.4700000e+002    +6.9611794e-008    +1.7965817e-007
+7.4800000e+002    +6.2975339e-008    +1.6981375e-007
+7.4900000e+002    +5.5884524e-008    +1.8042299e-007
+7.5000000e+002    +6.2885789e-008    +1.7844168e-007
+7.5100000e+002    +6.2465332e-008    +1.7567191e-007
+7.5200000e+002    +6.0708814e-008    +1.6109367e-007
+7.5300000e+002    +5.8973782e-008    +1.7536935e-007
+7.5400000e+002    +5.5715553e-008    +1.9415833e-007
+7.5500000e+002    +5.5970986e-008    +1.9257600e-007
+7.5600000e+002    +5.5274597e-008    +1.8665658e-007
+7.5700000e+002    +5.7681795e-008    +1.8288875e-007
+7.5800000e+002    +5.6118978e-008    +1.7187560e-007
+7.5900000e+002    +5.1956523e-008    +1.7541711e-007
+7.6000000e+002    +5.3403365e-008    +1.6158666e-007
+7.6100000e+002    +5.0075961e-008    +1.6723554e-007
+7.6200000e+002    +4.8959123e-008    +1.8573233e-007
+7.6300000e+002    +5.3196551e-008    +1.8747053e-007
+7.6400000e+002    +5.4416923e-008    +1.8204972e-007
+7.6500000e+002    +6.5022277e-008    +1.8442651e-007
+7.6600000e+002    +6.6637405e-008    +1.7509423e-007
+7.6700000e+002    +5.5288496e-008    +1.6366502e-007
+7.6800000e+002    +5.3530929e-008    +1.6241250e-007
+7.6900000e+002    +5.1337242e-008    +1.5787685e-007
+7.7000000e+002    +4.8603276e-008    +1.8108008e-007
+7.7100000e+002    +4.6998021e-008    +1.7605868e-007
+7.7200000e+002    +4.6077648e-008    +1.8084563e-007
+7.7300000e+002    +4.6177977e-008    +1.6853488e-007
+7.7400000e+002    +4.5893710e-008    +1.8359796e-007
+7.7500000e+002    +4.6382912e-008    +1.9281974e-007
+7.7600000e+002    +5.1086687e-008    +1.8464920e-007
+7.7700000e+002    +5.0016894e-008    +1.7662830e-007
+7.7800000e+002    +5.1191797e-008    +1.8094653e-007
+7.7900000e+002    +5.3890837e-008    +1.9106110e-007
+7.8000000e+002    +5.8788302e-008    +1.8835337e-007
+7.8100000e+002    +5.6864327e-008    +1.8834200e-007
+7.8200000e+002    +4.8734996e-008    +1.9324001e-007
+7.8300000e+002    +4.8440945e-008    +1.9434944e-007
+7.8400000e+002    +5.1615142e-008    +1.9238136e-007
+7.8500000e+002    +5.5804755e-008    +1.8921169e-007
+7.8600000e+002    +5.6874441e-008    +1.7224380e-007
+7.8700000e+002    +5.5102507e-008    +1.7818031e-007
+7.8800000e+002    +5.0582578e-008    +1.8747527e-007
+7.8900000e+002    +5.0593297e-008    +1.7274739e-007
+7.9000000e+002    +5.5394707e-008    +1.6249473e-007
+7.9100000e+002    +5.3992707e-008    +1.8586412e-007
+7.9200000e+002    +5.4010730e-008    +1.8934220e-007
+7.9300000e+002    +5.4011679e-008    +1.9175673e-007
+7.9400000e+002    +5.6719912e-008    +1.9086507e-007
+7.9500000e+002    +5.1425982e-008    +1.8938691e-007
+7.9600000e+002    +5.1826106e-008    +2.0370445e-007
+7.9700000e+002    +5.6004794e-008    +1.9371437e-007
+7.9800000e+002    +5.4481728e-008    +1.9605996e-007
+7.9900000e+002    +5.9388796e-008    +1.9036925e-007
#
#
# North DC Val: 0.80362635 VoltsSouth DC Val: 0.5819016300000001 Volts
# SR785 Measurement - Timestamp: May 08 2020 - 13:37:18
# Parameter File: /home/controls/Git/cit_ctnlab/ctn_scripts/TransRINSpecShort.yml
#---------- Measurement Setup ------------
# Start Frequency (Hz): 0.000000
# Frequency Span (Hz): 102400.000000
# Frequency Resolution: 800
# Number of Averages: 100
# Averaging Mode: RMS
# Window function: Hanning
#---------- Measurement Parameters ----------
# Measurement Group:  "FFT" "FFT"
# Measurements:  "FFT 1" "FFT 2"
# View:  "Log Magnitude" "Log Magnitude"
# Unit:  "Vrms/rtHz" "Vrms/rtHz"
#---------- Input Parameters ----------
# Input Source: Analog
# Input Mode: Single ended, Single ended
# Input Grounding: Float, Float
# Input Coupling: AC, AC
# Input Range: -36.0dBVpk, -36.0dBVpk
# Auto Range: Off, Off
# Auto Range Mode: Tracking, Tracking
# Anti-Aliasing Filter: On, On
#---------- Source Parameters ----------
# Source Type: Sine
# Source Amplitude: 500.0mVpk
# Source On: 0

#---------- Measurement Data ----------
# [Freq(Hz) Display 0(Vrms/rtHz) Display 1(Vrms/rtHz) ]
+8.9600000e+002    +1.8851061e-007    +2.3050454e-007
+1.0240000e+003    +1.3882098e-007    +2.6188974e-007
+1.1520000e+003    +9.4745310e-008    +2.8421945e-007
+1.2800000e+003    +6.2937460e-008    +3.1928570e-007
+1.4080000e+003    +6.1188089e-008    +3.6727550e-007
+1.5360000e+003    +7.0701894e-008    +3.6422193e-007
+1.6640000e+003    +7.4323424e-008    +4.0912181e-007
+1.7920000e+003    +8.6121297e-008    +4.5703334e-007
+1.9200000e+003    +1.0468469e-007    +4.9957401e-007
+2.0480000e+003    +1.0742752e-007    +5.1596277e-007
+2.1760000e+003    +1.1800395e-007    +5.9807525e-007
+2.3040000e+003    +1.3066749e-007    +6.4328225e-007
+2.4320000e+003    +1.2840742e-007    +6.3475147e-007
+2.5600000e+003    +1.4916174e-007    +6.4839418e-007
+2.6880000e+003    +1.5866894e-007    +6.6956949e-007
+2.8160000e+003    +1.7641104e-007    +7.1113584e-007
+2.9440000e+003    +1.8926654e-007    +8.2905785e-007
+3.0720000e+003    +1.9341088e-007    +9.4514138e-007
+3.2000000e+003    +2.1134510e-007    +1.0194022e-006
+3.3280000e+003    +2.0510419e-007    +1.0135409e-006
+3.4560000e+003    +2.0855725e-007    +9.5863697e-007
+3.5840000e+003    +2.4228603e-007    +9.8307271e-007
+3.7120000e+003    +2.5311112e-007    +1.1131925e-006
+3.8400000e+003    +2.5300668e-007    +1.3500212e-006
+3.9680000e+003    +2.7194415e-007    +1.4304314e-006
+4.0960000e+003    +2.8199386e-007    +1.5582494e-006
+4.2240000e+003    +2.9109265e-007    +1.6240162e-006
+4.3520000e+003    +2.9750126e-007    +1.6629587e-006
+4.4800000e+003    +3.4869916e-007    +1.5703442e-006
+4.6080000e+003    +3.5036973e-007    +1.8719451e-006
+4.7360000e+003    +3.2556744e-007    +2.2223076e-006
+4.8640000e+003    +3.2706217e-007    +2.3969617e-006
+4.9920000e+003    +3.3624229e-007    +2.6320392e-006
+5.1200000e+003    +3.5980167e-007    +3.0464344e-006
+5.2480000e+003    +3.8348875e-007    +3.0042461e-006
+5.3760000e+003    +3.9444751e-007    +3.0589363e-006
+5.5040000e+003    +4.0178429e-007    +3.4607997e-006
+5.6320000e+003    +4.2185488e-007    +3.1968596e-006
+5.7600000e+003    +4.3846637e-007    +3.2463722e-006
+5.8880000e+003    +4.9091165e-007    +2.4536707e-006
+6.0160000e+003    +4.7807686e-007    +2.3045343e-006
+6.1440000e+003    +4.9318822e-007    +1.5927792e-006
+6.2720000e+003    +4.7703031e-007    +1.4902685e-006
+6.4000000e+003    +4.9972869e-007    +1.4986219e-006
+6.5280000e+003    +5.3234470e-007    +1.4296511e-006
+6.6560000e+003    +5.2101848e-007    +1.3201350e-006
+6.7840000e+003    +5.4856758e-007    +1.2295912e-006
+6.9120000e+003    +5.6020906e-007    +1.1039762e-006
+7.0400000e+003    +5.8466964e-007    +9.9771557e-007
+7.1680000e+003    +5.7907192e-007    +9.8159728e-007
+7.2960000e+003    +5.8545527e-007    +1.0015571e-006
+7.4240000e+003    +6.0115894e-007    +9.3494918e-007
+7.5520000e+003    +6.3119319e-007    +8.6888247e-007
+7.6800000e+003    +6.3690447e-007    +8.3228736e-007
+7.8080000e+003    +6.2136650e-007    +7.9469129e-007
+7.9360000e+003    +6.9396822e-007    +8.1156480e-007
+8.0640000e+003    +6.6655554e-007    +8.1702751e-007
+8.1920000e+003    +6.4466388e-007    +7.5503300e-007
+8.3200000e+003    +6.7334338e-007    +7.3203603e-007
+8.4480000e+003    +7.0053738e-007    +7.3670782e-007
+8.5760000e+003    +7.2336718e-007    +7.7806692e-007
+8.7040000e+003    +7.2325361e-007    +7.1187952e-007
+8.8320000e+003    +7.0030364e-007    +6.7716081e-007
+8.9600000e+003    +6.9618523e-007    +7.4063314e-007
+9.0880000e+003    +7.5863773e-007    +7.1793846e-007
+9.2160000e+003    +7.4747334e-007    +6.9347846e-007
+9.3440000e+003    +7.3449075e-007    +6.6781109e-007
+9.4720000e+003    +7.7538908e-007    +6.5478713e-007
+9.6000000e+003    +8.5569815e-007    +6.3933425e-007
+9.7280000e+003    +8.7809985e-007    +6.2918457e-007
+9.8560000e+003    +8.5775253e-007    +6.8949180e-007
+9.9840000e+003    +8.5405742e-007    +6.9951824e-007
+1.0112000e+004    +8.9585870e-007    +6.7938748e-007
+1.0240000e+004    +8.9351192e-007    +6.9396521e-007
+1.0368000e+004    +8.7218092e-007    +6.8784874e-007
+1.0496000e+004    +8.5861279e-007    +7.4070800e-007
+1.0624000e+004    +8.7476076e-007    +8.1694947e-007
+1.0752000e+004    +8.7454561e-007    +8.3022195e-007
+1.0880000e+004    +8.6273292e-007    +8.2074621e-007
+1.1008000e+004    +8.3884964e-007    +8.4965404e-007
+1.1136000e+004    +8.7771139e-007    +7.6022286e-007
+1.1264000e+004    +8.9249221e-007    +7.2891453e-007
+1.1392000e+004    +9.2982242e-007    +7.5864273e-007
+1.1520000e+004    +9.5286225e-007    +7.1697974e-007
+1.1648000e+004    +8.8846798e-007    +7.4895780e-007
+1.1776000e+004    +8.5220279e-007    +7.1694984e-007
+1.1904000e+004    +9.2479786e-007    +6.7411492e-007
+1.2032000e+004    +9.5180201e-007    +6.9230691e-007
+1.2160000e+004    +8.9346878e-007    +6.5122805e-007
+1.2288000e+004    +9.6033511e-007    +6.4297512e-007
+1.2416000e+004    +9.8142812e-007    +6.7810572e-007
+1.2544000e+004    +9.3359205e-007    +6.3482673e-007
+1.2672000e+004    +8.1412981e-007    +6.0823038e-007
+1.2800000e+004    +8.9345303e-007    +5.7806824e-007
+1.2928000e+004    +9.4555656e-007    +5.8828465e-007
+1.3056000e+004    +8.5672752e-007    +5.4263052e-007
+1.3184000e+004    +8.9543977e-007    +5.6107211e-007
+1.3312000e+004    +9.8264115e-007    +6.0320394e-007
+1.3440000e+004    +1.0358422e-006    +5.9345581e-007
+1.3568000e+004    +9.7514021e-007    +5.4862181e-007
+1.3696000e+004    +9.5878113e-007    +5.6006519e-007
+1.3824000e+004    +9.5271474e-007    +5.5623076e-007
+1.3952000e+004    +9.2194801e-007    +5.7092859e-007
+1.4080000e+004    +9.0224040e-007    +5.7000847e-007
+1.4208000e+004    +9.0141560e-007    +5.5877962e-007
+1.4336000e+004    +9.8468558e-007    +5.7143592e-007
+1.4464000e+004    +9.4111010e-007    +5.5052737e-007
+1.4592000e+004    +9.1967524e-007    +5.5922703e-007
+1.4720000e+004    +8.9425782e-007    +5.8480128e-007
+1.4848000e+004    +9.2698252e-007    +5.3618402e-007
+1.4976000e+004    +9.3074982e-007    +5.3753445e-007
+1.5104000e+004    +9.5569021e-007    +5.5800587e-007
+1.5232000e+004    +9.2846352e-007    +5.8286025e-007
+1.5360000e+004    +8.6672912e-007    +6.6072346e-007
+1.5488000e+004    +8.5349404e-007    +6.3203788e-007
+1.5616000e+004    +8.4824939e-007    +5.4012804e-007
+1.5744000e+004    +8.5220279e-007    +5.7737111e-007
+1.5872000e+004    +8.4456832e-007    +6.1461384e-007
+1.6000000e+004    +8.8522353e-007    +6.2829747e-007
+1.6128000e+004    +9.0956991e-007    +6.3317418e-007
+1.6256000e+004    +8.0619708e-007    +5.7090415e-007
+1.6384000e+004    +8.3428097e-007    +5.7672867e-007
+1.6512000e+004    +8.1361060e-007    +5.3427999e-007
+1.6640000e+004    +7.9382619e-007    +5.4992324e-007
+1.6768000e+004    +8.0575813e-007    +6.0162841e-007
+1.6896000e+004    +8.5719330e-007    +5.7403616e-007
+1.7024000e+004    +8.6018105e-007    +5.7307585e-007
+1.7152000e+004    +7.9957766e-007    +6.1377295e-007
+1.7280000e+004    +7.9453253e-007    +5.7168819e-007
+1.7408000e+004    +8.3650156e-007    +5.4590049e-007
+1.7536000e+004    +8.1230741e-007    +5.8977861e-007
+1.7664000e+004    +8.3430109e-007    +6.4063556e-007
+1.7792000e+004    +7.9524204e-007    +6.4210877e-007
+1.7920000e+004    +7.3842864e-007    +6.5956232e-007
+1.8048000e+004    +7.2952867e-007    +6.6023756e-007
+1.8176000e+004    +7.4994853e-007    +6.6542651e-007
+1.8304000e+004    +7.9400229e-007    +6.2870879e-007
+1.8432000e+004    +7.6674036e-007    +6.0320195e-007
+1.8560000e+004    +7.6220448e-007    +6.3265304e-007
+1.8688000e+004    +8.1025070e-007    +6.6035506e-007
+1.8816000e+004    +7.5513742e-007    +6.1797556e-007
+1.8944000e+004    +7.5000867e-007    +6.3024794e-007
+1.9072000e+004    +7.9027808e-007    +6.3085508e-007
+1.9200000e+004    +7.9176499e-007    +6.2732556e-007
+1.9328000e+004    +7.7998203e-007    +7.2417851e-007
+1.9456000e+004    +7.2695963e-007    +6.9129209e-007
+1.9584000e+004    +6.7323396e-007    +6.1380797e-007
+1.9712000e+004    +7.0914604e-007    +6.0440254e-007
+1.9840000e+004    +7.1262713e-007    +5.8424547e-007
+1.9968000e+004    +7.3267131e-007    +6.3928439e-007
+2.0096000e+004    +7.4952379e-007    +6.5846103e-007
+2.0224000e+004    +7.3086676e-007    +6.3472498e-007
+2.0352000e+004    +6.9373209e-007    +6.1899073e-007
+2.0480000e+004    +6.9039476e-007    +6.5834610e-007
+2.0608000e+004    +7.2204756e-007    +6.8422338e-007
+2.0736000e+004    +6.8934571e-007    +6.3500801e-007
+2.0864000e+004    +6.7590770e-007    +6.1339500e-007
+2.0992000e+004    +6.4963695e-007    +6.3079693e-007
+2.1120000e+004    +6.7050524e-007    +5.9383518e-007
+2.1248000e+004    +7.1642813e-007    +6.3392827e-007
+2.1376000e+004    +7.3500792e-007    +6.6887071e-007
+2.1504000e+004    +7.0468309e-007    +7.0077050e-007
+2.1632000e+004    +6.1550122e-007    +6.6919318e-007
+2.1760000e+004    +5.9228023e-007    +7.0269977e-007
+2.1888000e+004    +5.8918442e-007    +6.7392028e-007
+2.2016000e+004    +6.0814222e-007    +6.1151485e-007
+2.2144000e+004    +5.8475632e-007    +6.2059058e-007
+2.2272000e+004    +5.9569629e-007    +6.1678998e-007
+2.2400000e+004    +5.8576069e-007    +6.5901651e-007
+2.2528000e+004    +5.6732557e-007    +6.9078754e-007
+2.2656000e+004    +6.1108392e-007    +6.9491142e-007
+2.2784000e+004    +6.6097522e-007    +6.8834134e-007
+2.2912000e+004    +6.5946529e-007    +7.3765318e-007
+2.3040000e+004    +6.2165515e-007    +6.9789263e-007
+2.3168000e+004    +5.8728818e-007    +6.7370127e-007
+2.3296000e+004    +6.1758413e-007    +6.4545497e-007
+2.3424000e+004    +5.5453796e-007    +6.7923906e-007
+2.3552000e+004    +5.3417733e-007    +7.2083958e-007
+2.3680000e+004    +6.1114031e-007    +7.5724216e-007
+2.3808000e+004    +7.3502645e-007    +7.2680081e-007
+2.3936000e+004    +6.7645112e-007    +7.6233084e-007
+2.4064000e+004    +6.0471257e-007    +7.4785345e-007
+2.4192000e+004    +6.3780089e-007    +7.1797626e-007
+2.4320000e+004    +5.9808900e-007    +7.1570639e-007
+2.4448000e+004    +6.1178281e-007    +7.0026056e-007
+2.4576000e+004    +6.0916869e-007    +6.5468072e-007
+2.4704000e+004    +6.3871539e-007    +6.8376227e-007
+2.4832000e+004    +6.0879626e-007    +7.1341782e-007
+2.4960000e+004    +5.9661460e-007    +6.5670656e-007
+2.5088000e+004    +5.7465672e-007    +7.1345306e-007
+2.5216000e+004    +5.5934737e-007    +7.0301542e-007
+2.5344000e+004    +5.6837172e-007    +6.5981726e-007
+2.5472000e+004    +5.5658325e-007    +6.9127998e-007
+2.5600000e+004    +5.9446796e-007    +7.1186076e-007
+2.5728000e+004    +6.0142696e-007    +7.1967867e-007
+2.5856000e+004    +5.7683064e-007    +6.4870676e-007
+2.5984000e+004    +5.7141210e-007    +7.0092671e-007
+2.6112000e+004    +5.6223331e-007    +6.8252018e-007
+2.6240000e+004    +5.7774082e-007    +7.4688762e-007
+2.6368000e+004    +5.4975845e-007    +7.3515963e-007
+2.6496000e+004    +5.9014263e-007    +7.4322770e-007
+2.6624000e+004    +5.9998189e-007    +7.4746515e-007
+2.6752000e+004    +5.4119835e-007    +7.8600590e-007
+2.6880000e+004    +5.5259909e-007    +8.0013177e-007
+2.7008000e+004    +5.5242134e-007    +7.1770518e-007
+2.7136000e+004    +5.7610907e-007    +7.5436679e-007
+2.7264000e+004    +5.7970806e-007    +7.8025954e-007
+2.7392000e+004    +5.1916146e-007    +7.3537439e-007
+2.7520000e+004    +5.1529133e-007    +6.7922196e-007
+2.7648000e+004    +5.3688740e-007    +6.9705408e-007
+2.7776000e+004    +5.4572251e-007    +7.3144395e-007
+2.7904000e+004    +5.9577934e-007    +7.5564174e-007
+2.8032000e+004    +5.6646599e-007    +7.6008928e-007
+2.8160000e+004    +5.2340829e-007    +7.4862817e-007
+2.8288000e+004    +5.2601519e-007    +7.7299541e-007
+2.8416000e+004    +5.2435161e-007    +7.3948257e-007
+2.8544000e+004    +4.8987300e-007    +7.0586321e-007
+2.8672000e+004    +5.1826731e-007    +7.9127136e-007
+2.8800000e+004    +4.9649213e-007    +8.3311846e-007
+2.8928000e+004    +4.9987244e-007    +7.6261296e-007
+2.9056000e+004    +4.9645723e-007    +7.7141078e-007
+2.9184000e+004    +4.9577091e-007    +7.6799319e-007
+2.9312000e+004    +4.6672668e-007    +7.3333524e-007
+2.9440000e+004    +4.7631849e-007    +7.2771110e-007
+2.9568000e+004    +4.8920595e-007    +7.3607066e-007
+2.9696000e+004    +5.0870744e-007    +7.3441498e-007
+2.9824000e+004    +5.1015331e-007    +8.0095361e-007
+2.9952000e+004    +5.1403572e-007    +7.4214722e-007
+3.0080000e+004    +4.9414928e-007    +7.3795616e-007
+3.0208000e+004    +4.6468648e-007    +8.1378749e-007
+3.0336000e+004    +4.8402984e-007    +7.7078175e-007
+3.0464000e+004    +4.8101958e-007    +7.5880854e-007
+3.0592000e+004    +4.6089892e-007    +7.2425087e-007
+3.0720000e+004    +4.8328218e-007    +7.3879357e-007
+3.0848000e+004    +4.6918879e-007    +7.4891261e-007
+3.0976000e+004    +4.9021304e-007    +7.8199372e-007
+3.1104000e+004    +4.6429582e-007    +8.0253903e-007
+3.1232000e+004    +4.3233737e-007    +8.4390280e-007
+3.1360000e+004    +4.5882777e-007    +8.4073525e-007
+3.1488000e+004    +4.5598526e-007    +8.0446750e-007
+3.1616000e+004    +4.4349110e-007    +7.4638427e-007
+3.1744000e+004    +4.8478563e-007    +6.8567709e-007
+3.1872000e+004    +5.2598057e-007    +7.9950655e-007
+3.2000000e+004    +5.0389065e-007    +8.2602037e-007
+3.2128000e+004    +4.8207016e-007    +7.9547436e-007
+3.2256000e+004    +4.6449571e-007    +7.7500778e-007
+3.2384000e+004    +4.8218715e-007    +8.3701696e-007
+3.2512000e+004    +4.7183428e-007    +8.2745186e-007
+3.2640000e+004    +4.8075611e-007    +8.2022279e-007
+3.2768000e+004    +4.7282222e-007    +8.7221349e-007
+3.2896000e+004    +4.8123883e-007    +8.9004874e-007
+3.3024000e+004    +4.8287427e-007    +8.3765684e-007
+3.3152000e+004    +4.5719744e-007    +7.9274270e-007
+3.3280000e+004    +4.8370526e-007    +8.5551403e-007
+3.3408000e+004    +5.3286811e-007    +9.0853985e-007
+3.3536000e+004    +4.8264002e-007    +8.1258571e-007
+3.3664000e+004    +4.7581358e-007    +7.2422466e-007
+3.3792000e+004    +4.6778555e-007    +7.6383475e-007
+3.3920000e+004    +4.4146137e-007    +7.5090099e-007
+3.4048000e+004    +4.3419308e-007    +7.9889492e-007
+3.4176000e+004    +4.3280232e-007    +7.9128091e-007
+3.4304000e+004    +4.5275999e-007    +7.8826412e-007
+3.4432000e+004    +4.3964357e-007    +8.1305694e-007
+3.4560000e+004    +4.1454285e-007    +8.5753123e-007
+3.4688000e+004    +4.3269020e-007    +9.3108099e-007
+3.4816000e+004    +4.5722155e-007    +8.5347250e-007
+3.4944000e+004    +4.6380924e-007    +8.1189012e-007
+3.5072000e+004    +4.5716331e-007    +7.8833165e-007
+3.5200000e+004    +4.5058690e-007    +8.4565301e-007
+3.5328000e+004    +4.4642482e-007    +8.5770824e-007
+3.5456000e+004    +4.7239828e-007    +7.7313035e-007
+3.5584000e+004    +4.7120164e-007    +7.5543932e-007
+3.5712000e+004    +4.2843371e-007    +7.9776243e-007
+3.5840000e+004    +4.2046716e-007    +7.3387895e-007
+3.5968000e+004    +4.3956007e-007    +8.2354364e-007
+3.6096000e+004    +4.1916593e-007    +9.0032063e-007
+3.6224000e+004    +4.1794857e-007    +8.3381940e-007
+3.6352000e+004    +4.1245806e-007    +8.5621315e-007
+3.6480000e+004    +4.2614849e-007    +8.1340073e-007
+3.6608000e+004    +4.5821861e-007    +8.2197903e-007
+3.6736000e+004    +4.2659227e-007    +8.7013979e-007
+3.6864000e+004    +4.1353957e-007    +8.7742330e-007
+3.6992000e+004    +3.9398611e-007    +8.8021091e-007
+3.7120000e+004    +4.1424303e-007    +8.9318138e-007
+3.7248000e+004    +4.2875274e-007    +8.9614497e-007
+3.7376000e+004    +4.3370900e-007    +8.8388714e-007
+3.7504000e+004    +4.2076874e-007    +8.4306095e-007
+3.7632000e+004    +4.1857911e-007    +9.1093710e-007
+3.7760000e+004    +4.4362554e-007    +9.1708080e-007
+3.7888000e+004    +4.5122951e-007    +8.3091231e-007
+3.8016000e+004    +4.5713873e-007    +8.2606391e-007
+3.8144000e+004    +4.7128083e-007    +8.3249301e-007
+3.8272000e+004    +4.4315769e-007    +9.0342991e-007
+3.8400000e+004    +4.1305856e-007    +8.8639939e-007
+3.8528000e+004    +4.0603138e-007    +9.2129835e-007
+3.8656000e+004    +4.0811372e-007    +9.5449047e-007
+3.8784000e+004    +3.9943063e-007    +8.6621725e-007
+3.8912000e+004    +4.3162072e-007    +7.9061050e-007
+3.9040000e+004    +4.1303406e-007    +8.5831306e-007
+3.9168000e+004    +4.6671846e-007    +9.1691868e-007
+3.9296000e+004    +4.7305849e-007    +8.8886219e-007
+3.9424000e+004    +4.2374981e-007    +8.4213860e-007
+3.9552000e+004    +3.9720200e-007    +8.3121341e-007
+3.9680000e+004    +3.7370165e-007    +8.2613735e-007
+3.9808000e+004    +3.7110527e-007    +9.3198003e-007
+3.9936000e+004    +4.2587391e-007    +8.9635063e-007
+4.0064000e+004    +4.1057575e-007    +8.7909154e-007
+4.0192000e+004    +3.9341077e-007    +9.0492301e-007
+4.0320000e+004    +3.8498220e-007    +8.2747727e-007
+4.0448000e+004    +3.8988898e-007    +8.6173509e-007
+4.0576000e+004    +3.7710913e-007    +9.2120530e-007
+4.0704000e+004    +4.1038828e-007    +9.1436311e-007
+4.0832000e+004    +4.1130716e-007    +9.5720134e-007
+4.0960000e+004    +4.2893356e-007    +9.2105461e-007
+4.1088000e+004    +4.2795040e-007    +9.6669737e-007
+4.1216000e+004    +3.7579929e-007    +9.5959422e-007
+4.1344000e+004    +3.8919481e-007    +9.8030694e-007
+4.1472000e+004    +4.0957397e-007    +9.2648901e-007
+4.1600000e+004    +3.7162880e-007    +8.6286269e-007
+4.1728000e+004    +3.9479977e-007    +8.1702217e-007
+4.1856000e+004    +4.2274743e-007    +8.5368902e-007
+4.1984000e+004    +4.0807652e-007    +9.2073714e-007
+4.2112000e+004    +3.6634796e-007    +9.0260698e-007
+4.2240000e+004    +3.8389234e-007    +9.6842473e-007
+4.2368000e+004    +3.8383038e-007    +9.6388032e-007
+4.2496000e+004    +3.6071737e-007    +9.1822636e-007
+4.2624000e+004    +3.9557733e-007    +8.5947488e-007
+4.2752000e+004    +3.8315920e-007    +8.9636836e-007
+4.2880000e+004    +3.3195343e-007    +9.1772341e-007
+4.3008000e+004    +3.5359318e-007    +9.5263630e-007
+4.3136000e+004    +4.1241142e-007    +1.0014536e-006
+4.3264000e+004    +4.0212851e-007    +1.0175717e-006
+4.3392000e+004    +3.6813947e-007    +1.0422697e-006
+4.3520000e+004    +3.7855401e-007    +1.0311149e-006
+4.3648000e+004    +3.8938373e-007    +9.6258680e-007
+4.3776000e+004    +3.7689512e-007    +1.0029325e-006
+4.3904000e+004    +3.8588357e-007    +9.9962892e-007
+4.4032000e+004    +3.8306121e-007    +9.7367024e-007
+4.4160000e+004    +3.8416303e-007    +9.8769897e-007
+4.4288000e+004    +4.1866781e-007    +9.7411612e-007
+4.4416000e+004    +4.0463129e-007    +9.9934698e-007
+4.4544000e+004    +4.0427827e-007    +1.0197717e-006
+4.4672000e+004    +3.8029120e-007    +9.5280370e-007
+4.4800000e+004    +4.0290280e-007    +9.4903459e-007
+4.4928000e+004    +4.3145724e-007    +9.7824795e-007
+4.5056000e+004    +4.2285376e-007    +1.0327907e-006
+4.5184000e+004    +4.1173683e-007    +9.8897510e-007
+4.5312000e+004    +3.8947738e-007    +1.0761759e-006
+4.5440000e+004    +3.9454324e-007    +1.0256861e-006
+4.5568000e+004    +3.9991687e-007    +9.1954195e-007
+4.5696000e+004    +4.1314064e-007    +9.5867699e-007
+4.5824000e+004    +4.2008878e-007    +9.4704751e-007
+4.5952000e+004    +4.0460199e-007    +9.4825657e-007
+4.6080000e+004    +3.9683846e-007    +1.0466171e-006
+4.6208000e+004    +3.8876047e-007    +1.0274692e-006
+4.6336000e+004    +3.5686941e-007    +9.7822431e-007
+4.6464000e+004    +3.8339780e-007    +1.0344659e-006
+4.6592000e+004    +3.6574471e-007    +1.0369187e-006
+4.6720000e+004    +3.4696913e-007    +9.9755891e-007
+4.6848000e+004    +3.8705684e-007    +1.0708130e-006
+4.6976000e+004    +3.6268315e-007    +1.1005077e-006
+4.7104000e+004    +3.7351705e-007    +9.7094050e-007
+4.7232000e+004    +4.0488641e-007    +1.0201502e-006
+4.7360000e+004    +3.8249090e-007    +1.0195221e-006
+4.7488000e+004    +3.7803110e-007    +1.0469089e-006
+4.7616000e+004    +4.0171591e-007    +1.0543412e-006
+4.7744000e+004    +4.3490306e-007    +1.0251524e-006
+4.7872000e+004    +4.0098001e-007    +1.0309338e-006
+4.8000000e+004    +4.3754639e-007    +1.1164313e-006
+4.8128000e+004    +4.3032463e-007    +1.0093530e-006
+4.8256000e+004    +3.8485118e-007    +9.9045621e-007
+4.8384000e+004    +3.5218824e-007    +1.0499895e-006
+4.8512000e+004    +3.9136307e-007    +1.0979334e-006
+4.8640000e+004    +4.1868850e-007    +1.0725827e-006
+4.8768000e+004    +4.2216254e-007    +1.0682542e-006
+4.8896000e+004    +3.8043362e-007    +1.0469837e-006
+4.9024000e+004    +4.0448649e-007    +1.0792974e-006
+4.9152000e+004    +3.9095121e-007    +1.0215995e-006
+4.9280000e+004    +3.9371844e-007    +1.0691260e-006
+4.9408000e+004    +3.7782817e-007    +1.0075681e-006
+4.9536000e+004    +3.7380343e-007    +1.0720883e-006
+4.9664000e+004    +3.9383389e-007    +1.1925682e-006
+4.9792000e+004    +3.8964805e-007    +1.0996042e-006
+4.9920000e+004    +3.9653617e-007    +1.0729573e-006
+5.0048000e+004    +4.0274446e-007    +1.1025371e-006
+5.0176000e+004    +3.8745526e-007    +1.0858216e-006
+5.0304000e+004    +3.8522109e-007    +1.1281857e-006
+5.0432000e+004    +3.6846177e-007    +1.1164509e-006
+5.0560000e+004    +4.0984793e-007    +1.0627570e-006
+5.0688000e+004    +3.9109545e-007    +1.1110545e-006
+5.0816000e+004    +3.8865164e-007    +1.1038101e-006
+5.0944000e+004    +3.6743401e-007    +1.1684760e-006
+5.1072000e+004    +3.8136832e-007    +1.1776322e-006
+5.1200000e+004    +3.8782170e-007    +1.1423969e-006
+5.1328000e+004    +3.6980489e-007    +1.1724303e-006
+5.1456000e+004    +3.9650047e-007    +1.2108379e-006
+5.1584000e+004    +3.7509602e-007    +1.2568714e-006
+5.1712000e+004    +3.8657481e-007    +1.1779063e-006
+5.1840000e+004    +3.8739273e-007    +1.1585551e-006
+5.1968000e+004    +3.6932164e-007    +1.1040295e-006
+5.2096000e+004    +3.6767938e-007    +1.1624171e-006
+5.2224000e+004    +3.7544089e-007    +1.1831297e-006
+5.2352000e+004    +3.5723005e-007    +1.1453407e-006
+5.2480000e+004    +3.4406588e-007    +1.1486086e-006
+5.2608000e+004    +3.7021766e-007    +1.0967539e-006
+5.2736000e+004    +3.6035317e-007    +1.2176760e-006
+5.2864000e+004    +3.5802165e-007    +1.1661882e-006
+5.2992000e+004    +3.4512109e-007    +1.0339855e-006
+5.3120000e+004    +3.6043627e-007    +1.0727995e-006
+5.3248000e+004    +3.4788692e-007    +1.1230617e-006
+5.3376000e+004    +3.3817642e-007    +1.1044066e-006
+5.3504000e+004    +3.4925935e-007    +1.1693744e-006
+5.3632000e+004    +3.4638828e-007    +1.3234264e-006
+5.3760000e+004    +3.4253819e-007    +1.3422897e-006
+5.3888000e+004    +3.5323114e-007    +1.2464969e-006
+5.4016000e+004    +3.6384102e-007    +1.1552042e-006
+5.4144000e+004    +3.2292797e-007    +1.1512145e-006
+5.4272000e+004    +3.4653434e-007    +1.2637431e-006
+5.4400000e+004    +3.5762446e-007    +1.1811790e-006
+5.4528000e+004    +3.8032920e-007    +1.2546103e-006
+5.4656000e+004    +3.6901358e-007    +1.3113171e-006
+5.4784000e+004    +3.2512162e-007    +1.1713790e-006
+5.4912000e+004    +3.3072342e-007    +1.1718100e-006
+5.5040000e+004    +4.7602887e-007    +1.1518517e-006
+5.5168000e+004    +7.1996953e-007    +1.1957372e-006
+5.5296000e+004    +4.5165032e-007    +1.2430187e-006
+5.5424000e+004    +4.1350006e-007    +1.2537029e-006
+5.5552000e+004    +9.0220669e-007    +1.2175061e-006
+5.5680000e+004    +7.4559222e-007    +1.3376200e-006
+5.5808000e+004    +3.5955722e-007    +1.2993371e-006
+5.5936000e+004    +3.6359302e-007    +1.2508443e-006
+5.6064000e+004    +3.5735951e-007    +1.2091069e-006
+5.6192000e+004    +3.6007395e-007    +1.1621822e-006
+5.6320000e+004    +3.4268226e-007    +1.2777959e-006
+5.6448000e+004    +3.4729158e-007    +1.3181913e-006
+5.6576000e+004    +3.2800509e-007    +1.1469314e-006
+5.6704000e+004    +3.2198764e-007    +1.1821858e-006
+5.6832000e+004    +3.2634117e-007    +1.2690324e-006
+5.6960000e+004    +3.0756033e-007    +1.2059594e-006
+5.7088000e+004    +3.1182765e-007    +1.1916848e-006
+5.7216000e+004    +3.4682782e-007    +1.2647856e-006
+5.7344000e+004    +3.4863638e-007    +1.4289825e-006
+5.7472000e+004    +3.1032278e-007    +1.2779138e-006
+5.7600000e+004    +3.0435592e-007    +1.3349995e-006
+5.7728000e+004    +3.2330757e-007    +1.2646815e-006
+5.7856000e+004    +3.2795683e-007    +1.2858053e-006
+5.7984000e+004    +3.3743243e-007    +1.3696498e-006
+5.8112000e+004    +3.3980069e-007    +1.3733859e-006
+5.8240000e+004    +3.2469640e-007    +1.3258539e-006
+5.8368000e+004    +3.4335451e-007    +1.1601501e-006
+5.8496000e+004    +3.5482913e-007    +1.2633880e-006
+5.8624000e+004    +3.5034279e-007    +1.3411170e-006
+5.8752000e+004    +3.4959083e-007    +1.3697506e-006
+5.8880000e+004    +3.3350750e-007    +1.2742472e-006
+5.9008000e+004    +3.2109023e-007    +1.2431578e-006
+5.9136000e+004    +3.5411458e-007    +1.2647496e-006
+5.9264000e+004    +3.4425898e-007    +1.3396129e-006
+5.9392000e+004    +3.2653617e-007    +1.4081958e-006
+5.9520000e+004    +3.3565948e-007    +1.3356491e-006
+5.9648000e+004    +3.2804471e-007    +1.2618908e-006
+5.9776000e+004    +3.2511019e-007    +1.2928764e-006
+5.9904000e+004    +3.0506450e-007    +1.2736220e-006
+6.0032000e+004    +3.2152062e-007    +1.3232985e-006
+6.0160000e+004    +3.3695335e-007    +1.3759518e-006
+6.0288000e+004    +3.0326981e-007    +1.3088545e-006
+6.0416000e+004    +3.1964385e-007    +1.2788739e-006
+6.0544000e+004    +3.3599983e-007    +1.2919696e-006
+6.0672000e+004    +3.1796961e-007    +1.2958081e-006
+6.0800000e+004    +3.2681268e-007    +1.2261212e-006
+6.0928000e+004    +3.3735128e-007    +1.3693927e-006
+6.1056000e+004    +3.2111771e-007    +1.3318109e-006
+6.1184000e+004    +3.2052242e-007    +1.3392026e-006
+6.1312000e+004    +3.2448150e-007    +1.3734734e-006
+6.1440000e+004    +3.1642017e-007    +1.4462061e-006
+6.1568000e+004    +3.4298074e-007    +1.5343385e-006
+6.1696000e+004    +3.5245401e-007    +1.5113006e-006
+6.1824000e+004    +3.2838850e-007    +1.3305583e-006
+6.1952000e+004    +3.3489712e-007    +1.2480211e-006
+6.2080000e+004    +3.2623871e-007    +1.4478805e-006
+6.2208000e+004    +3.1983024e-007    +1.4582010e-006
+6.2336000e+004    +3.1379562e-007    +1.5169179e-006
+6.2464000e+004    +3.4934908e-007    +1.4415421e-006
+6.2592000e+004    +3.3766480e-007    +1.3354760e-006
+6.2720000e+004    +3.0166245e-007    +1.3634756e-006
+6.2848000e+004    +3.0337804e-007    +1.4165853e-006
+6.2976000e+004    +3.0376333e-007    +1.4566025e-006
+6.3104000e+004    +2.9218998e-007    +1.4087803e-006
+6.3232000e+004    +3.2334984e-007    +1.4262081e-006
+6.3360000e+004    +3.1067086e-007    +1.4158918e-006
+6.3488000e+004    +2.9974589e-007    +1.3779171e-006
+6.3616000e+004    +3.1081007e-007    +1.5278664e-006
+6.3744000e+004    +3.2523479e-007    +1.4944303e-006
+6.3872000e+004    +3.2396497e-007    +1.4005816e-006
+6.4000000e+004    +3.1265830e-007    +1.3687599e-006
+6.4128000e+004    +3.2222883e-007    +1.2622829e-006
+6.4256000e+004    +3.4536066e-007    +1.3725161e-006
+6.4384000e+004    +3.2411796e-007    +1.4416449e-006
+6.4512000e+004    +3.1190606e-007    +1.4448522e-006
+6.4640000e+004    +2.9521865e-007    +1.4890188e-006
+6.4768000e+004    +2.9916293e-007    +1.4155328e-006
+6.4896000e+004    +3.1611043e-007    +1.3366511e-006
+6.5024000e+004    +3.2011235e-007    +1.4398211e-006
+6.5152000e+004    +3.2413467e-007    +1.5142455e-006
+6.5280000e+004    +3.2229960e-007    +1.5577191e-006
+6.5408000e+004    +3.2112126e-007    +1.5881325e-006
+6.5536000e+004    +3.1566336e-007    +1.4916320e-006
+6.5664000e+004    +3.2530230e-007    +1.5170228e-006
+6.5792000e+004    +3.3331642e-007    +1.5396729e-006
+6.5920000e+004    +3.3159426e-007    +1.4481890e-006
+6.6048000e+004    +3.1278947e-007    +1.3851541e-006
+6.6176000e+004    +3.2089426e-007    +1.4954512e-006
+6.6304000e+004    +3.2031838e-007    +1.4703844e-006
+6.6432000e+004    +2.8853430e-007    +1.5304503e-006
+6.6560000e+004    +3.0234952e-007    +1.4369562e-006
+6.6688000e+004    +3.2193745e-007    +1.6216179e-006
+6.6816000e+004    +3.2954830e-007    +1.5447459e-006
+6.6944000e+004    +3.1204408e-007    +1.4038455e-006
+6.7072000e+004    +3.1587589e-007    +1.4275633e-006
+6.7200000e+004    +3.1574379e-007    +1.5611298e-006
+6.7328000e+004    +3.1276647e-007    +1.5352957e-006
+6.7456000e+004    +3.1348054e-007    +1.5297178e-006
+6.7584000e+004    +3.1623784e-007    +1.5242103e-006
+6.7712000e+004    +3.1922332e-007    +1.5749320e-006
+6.7840000e+004    +3.0835389e-007    +1.5383616e-006
+6.7968000e+004    +3.0211325e-007    +1.4857005e-006
+6.8096000e+004    +2.9915770e-007    +1.4857723e-006
+6.8224000e+004    +3.1329540e-007    +1.4826842e-006
+6.8352000e+004    +3.2430947e-007    +1.4937873e-006
+6.8480000e+004    +3.1757432e-007    +1.5370481e-006
+6.8608000e+004    +3.1608127e-007    +1.5073896e-006
+6.8736000e+004    +3.1456489e-007    +1.5213998e-006
+6.8864000e+004    +3.2985636e-007    +1.7060801e-006
+6.8992000e+004    +3.0355230e-007    +1.6187148e-006
+6.9120000e+004    +3.1948699e-007    +1.5745412e-006
+6.9248000e+004    +3.2309467e-007    +1.6111347e-006
+6.9376000e+004    +3.0510805e-007    +1.7453683e-006
+6.9504000e+004    +3.0427606e-007    +1.7660814e-006
+6.9632000e+004    +3.0763124e-007    +1.6030392e-006
+6.9760000e+004    +3.0822559e-007    +1.5778553e-006
+6.9888000e+004    +3.0474212e-007    +1.7197697e-006
+7.0016000e+004    +3.2191801e-007    +1.6373207e-006
+7.0144000e+004    +4.5809588e-007    +1.6600362e-006
+7.0272000e+004    +6.4589307e-007    +1.7838174e-006
+7.0400000e+004    +4.1739688e-007    +1.6000463e-006
+7.0528000e+004    +3.0706363e-007    +1.6996801e-006
+7.0656000e+004    +3.7661880e-007    +1.7140070e-006
+7.0784000e+004    +4.8919577e-007    +1.7432847e-006
+7.0912000e+004    +3.7672589e-007    +1.7521327e-006
+7.1040000e+004    +3.1632223e-007    +1.7683963e-006
+7.1168000e+004    +3.1566441e-007    +1.5788692e-006
+7.1296000e+004    +3.2569042e-007    +1.6430528e-006
+7.1424000e+004    +3.1064903e-007    +1.6920701e-006
+7.1552000e+004    +3.1383075e-007    +1.5701925e-006
+7.1680000e+004    +3.5557403e-007    +1.5915800e-006
+7.1808000e+004    +3.4944884e-007    +1.7733485e-006
+7.1936000e+004    +3.2041510e-007    +1.6932038e-006
+7.2064000e+004    +3.2284007e-007    +1.6247974e-006
+7.2192000e+004    +3.4207966e-007    +1.5434728e-006
+7.2320000e+004    +3.5010402e-007    +1.7407293e-006
+7.2448000e+004    +3.1219935e-007    +1.6790581e-006
+7.2576000e+004    +2.8688407e-007    +1.6514066e-006
+7.2704000e+004    +3.1660471e-007    +1.5451106e-006
+7.2832000e+004    +3.1739654e-007    +1.6176630e-006
+7.2960000e+004    +3.1353491e-007    +1.7075137e-006
+7.3088000e+004    +3.3148834e-007    +1.8067276e-006
+7.3216000e+004    +3.1462187e-007    +1.7428252e-006
+7.3344000e+004    +3.0506183e-007    +1.8035545e-006
+7.3472000e+004    +3.2382627e-007    +1.7872011e-006
+7.3600000e+004    +3.3105368e-007    +1.8339226e-006
+7.3728000e+004    +3.4091991e-007    +1.8340978e-006
+7.3856000e+004    +3.2232899e-007    +1.7836060e-006
+7.3984000e+004    +3.2463365e-007    +1.8271394e-006
+7.4112000e+004    +3.2181410e-007    +1.7563951e-006
+7.4240000e+004    +3.2188302e-007    +1.6576867e-006
+7.4368000e+004    +3.2958374e-007    +1.8536807e-006
+7.4496000e+004    +3.2702877e-007    +1.7662423e-006
+7.4624000e+004    +3.2585496e-007    +1.7234406e-006
+7.4752000e+004    +3.5225904e-007    +1.7618728e-006
+7.4880000e+004    +3.4696112e-007    +1.8911387e-006
+7.5008000e+004    +3.4179732e-007    +1.8665412e-006
+7.5136000e+004    +3.2543591e-007    +1.7294856e-006
+7.5264000e+004    +3.1525880e-007    +1.7117898e-006
+7.5392000e+004    +3.1965260e-007    +1.7519576e-006
+7.5520000e+004    +3.2179997e-007    +1.8432307e-006
+7.5648000e+004    +3.2825764e-007    +1.7978367e-006
+7.5776000e+004    +3.4152421e-007    +1.8488431e-006
+7.5904000e+004    +3.2958485e-007    +1.9092354e-006
+7.6032000e+004    +3.2088477e-007    +1.8332582e-006
+7.6160000e+004    +3.4187838e-007    +1.7202400e-006
+7.6288000e+004    +3.3456854e-007    +2.4952265e-006
+7.6416000e+004    +3.2140201e-007    +9.9807166e-006
+7.6544000e+004    +3.2434008e-007    +1.0214728e-005
+7.6672000e+004    +3.1065926e-007    +2.7522399e-006
+7.6800000e+004    +3.1069575e-007    +1.8486868e-006
+7.6928000e+004    +3.1524254e-007    +1.8405269e-006
+7.7056000e+004    +3.1693406e-007    +1.8268104e-006
+7.7184000e+004    +3.2692466e-007    +1.8758377e-006
+7.7312000e+004    +3.2012008e-007    +1.6462598e-006
+7.7440000e+004    +3.0833323e-007    +1.7864243e-006
+7.7568000e+004    +6.4079103e-007    +1.9533843e-006
+7.7696000e+004    +1.2037369e-006    +1.9992192e-006
+7.7824000e+004    +6.8731725e-007    +1.9289153e-006
+7.7952000e+004    +3.3650710e-007    +2.0157236e-006
+7.8080000e+004    +3.1766322e-007    +1.8837798e-006
+7.8208000e+004    +3.3537879e-007    +1.7920644e-006
+7.8336000e+004    +3.4997296e-007    +1.8726234e-006
+7.8464000e+004    +3.1919913e-007    +1.8831967e-006
+7.8592000e+004    +3.3044685e-007    +1.8956104e-006
+7.8720000e+004    +3.1922332e-007    +1.8504271e-006
+7.8848000e+004    +3.2409412e-007    +1.7674373e-006
+7.8976000e+004    +3.2625161e-007    +1.7113274e-006
+7.9104000e+004    +3.2955373e-007    +1.7340052e-006
+7.9232000e+004    +3.3170605e-007    +1.7463517e-006
+7.9360000e+004    +3.5746783e-007    +1.8941353e-006
+7.9488000e+004    +4.1057260e-007    +2.0157943e-006
+7.9616000e+004    +3.5591071e-007    +1.8832214e-006
+7.9744000e+004    +3.3541045e-007    +1.9338370e-006
+7.9872000e+004    +3.3124564e-007    +2.0295722e-006
+8.0000000e+004    +3.2156544e-007    +1.9791980e-006
+8.0128000e+004    +3.1777660e-007    +2.0468374e-006
+8.0256000e+004    +3.2021993e-007    +1.8923350e-006
+8.0384000e+004    +3.3957988e-007    +1.8148572e-006
+8.0512000e+004    +3.4589004e-007    +1.9509216e-006
+8.0640000e+004    +3.5101621e-007    +1.9664722e-006
+8.0768000e+004    +3.7209998e-007    +1.8937631e-006
+8.0896000e+004    +3.6483669e-007    +1.8803495e-006
+8.1024000e+004    +3.4460385e-007    +1.9303411e-006
+8.1152000e+004    +3.6586843e-007    +1.9027417e-006
+8.1280000e+004    +3.5157203e-007    +1.8345168e-006
+8.1408000e+004    +3.3358441e-007    +1.7659282e-006
+8.1536000e+004    +3.5224278e-007    +1.7167437e-006
+8.1664000e+004    +3.5815691e-007    +1.8174635e-006
+8.1792000e+004    +3.3509315e-007    +1.7271800e-006
+8.1920000e+004    +3.1160656e-007    +1.7407599e-006
+8.2048000e+004    +3.2396497e-007    +1.9107054e-006
+8.2176000e+004    +3.3280446e-007    +2.0298264e-006
+8.2304000e+004    +3.5448255e-007    +1.9151539e-006
+8.2432000e+004    +3.4487033e-007    +1.9373670e-006
+8.2560000e+004    +3.3505563e-007    +1.9656952e-006
+8.2688000e+004    +3.2800617e-007    +1.7997426e-006
+8.2816000e+004    +3.3164085e-007    +1.8199316e-006
+8.2944000e+004    +3.3436694e-007    +1.9554036e-006
+8.3072000e+004    +3.2599451e-007    +2.0530224e-006
+8.3200000e+004    +3.2419339e-007    +1.9152212e-006
+8.3328000e+004    +3.2656018e-007    +1.7439087e-006
+8.3456000e+004    +3.2958664e-007    +1.8433703e-006
+8.3584000e+004    +3.4676270e-007    +1.9651038e-006
+8.3712000e+004    +3.6768259e-007    +1.9404133e-006
+8.3840000e+004    +3.4515026e-007    +1.8841005e-006
+8.3968000e+004    +3.1652999e-007    +2.1050214e-006
+8.4096000e+004    +3.2472849e-007    +1.9895012e-006
+8.4224000e+004    +3.3494308e-007    +1.7922493e-006
+8.4352000e+004    +3.5144930e-007    +2.1280694e-006
+8.4480000e+004    +3.4610048e-007    +2.0178848e-006
+8.4608000e+004    +3.3523446e-007    +1.8649638e-006
+8.4736000e+004    +3.2818485e-007    +2.0983041e-006
+8.4864000e+004    +3.0457454e-007    +2.0932164e-006
+8.4992000e+004    +3.1381148e-007    +1.9383415e-006
+8.5120000e+004    +3.3956312e-007    +1.8646690e-006
+8.5248000e+004    +3.3174501e-007    +1.6884234e-006
+8.5376000e+004    +3.0404698e-007    +1.8835606e-006
+8.5504000e+004    +3.0323551e-007    +1.9433705e-006
+8.5632000e+004    +3.0282462e-007    +1.8357216e-006
+8.5760000e+004    +3.3099116e-007    +1.8458676e-006
+8.5888000e+004    +3.3200519e-007    +1.9114188e-006
+8.6016000e+004    +3.2086677e-007    +1.8560513e-006
+8.6144000e+004    +3.1946138e-007    +1.9435861e-006
+8.6272000e+004    +3.1787468e-007    +1.9012215e-006
+8.6400000e+004    +3.3713246e-007    +1.7950891e-006
+8.6528000e+004    +3.2683818e-007    +1.9840672e-006
+8.6656000e+004    +3.4814141e-007    +2.0706277e-006
+8.6784000e+004    +3.8968270e-007    +1.9882107e-006
+8.6912000e+004    +3.4817083e-007    +1.8795611e-006
+8.7040000e+004    +3.0730715e-007    +1.9451211e-006
+8.7168000e+004    +3.2319295e-007    +2.0018704e-006
+8.7296000e+004    +3.2431623e-007    +2.0262569e-006
+8.7424000e+004    +3.2300954e-007    +1.8516466e-006
+8.7552000e+004    +3.2314080e-007    +1.8768637e-006
+8.7680000e+004    +3.3221997e-007    +1.8132638e-006
+8.7808000e+004    +4.1930173e-007    +1.8912716e-006
+8.7936000e+004    +4.6856536e-007    +1.9405561e-006
+8.8064000e+004    +3.4143162e-007    +2.0162790e-006
+8.8192000e+004    +3.1554313e-007    +1.8654881e-006
+8.8320000e+004    +3.0393483e-007    +1.7478767e-006
+8.8448000e+004    +2.9910743e-007    +1.7816682e-006
+8.8576000e+004    +3.1468994e-007    +1.7831986e-006
+8.8704000e+004    +3.0827366e-007    +1.7746281e-006
+8.8832000e+004    +3.0504407e-007    +1.8375123e-006
+8.8960000e+004    +3.1495816e-007    +1.7943698e-006
+8.9088000e+004    +2.9504724e-007    +2.0487732e-006
+8.9216000e+004    +2.9007009e-007    +2.0038913e-006
+8.9344000e+004    +3.0563680e-007    +1.8478305e-006
+8.9472000e+004    +2.8942841e-007    +1.8987953e-006
+8.9600000e+004    +2.8109864e-007    +1.9667507e-006
+8.9728000e+004    +2.9248079e-007    +1.8713265e-006
+8.9856000e+004    +2.9344514e-007    +2.0281243e-006
+8.9984000e+004    +2.7695032e-007    +2.1766475e-006
+9.0112000e+004    +2.9403952e-007    +2.0378161e-006
+9.0240000e+004    +2.9392851e-007    +1.9202346e-006
+9.0368000e+004    +3.1068075e-007    +1.8237301e-006
+9.0496000e+004    +3.0391880e-007    +1.8288233e-006
+9.0624000e+004    +2.9498506e-007    +1.8736188e-006
+9.0752000e+004    +3.1366267e-007    +2.0163234e-006
+9.0880000e+004    +3.0887944e-007    +1.9402344e-006
+9.1008000e+004    +3.0498683e-007    +1.9653132e-006
+9.1136000e+004    +2.8330814e-007    +2.0436059e-006
+9.1264000e+004    +2.8479923e-007    +1.9399170e-006
+9.1392000e+004    +2.8391193e-007    +2.1031108e-006
+9.1520000e+004    +2.7763627e-007    +2.0517625e-006
+9.1648000e+004    +2.7995316e-007    +1.8777851e-006
+9.1776000e+004    +2.7652737e-007    +1.8673201e-006
+9.1904000e+004    +2.7087225e-007    +1.9099252e-006
+9.2032000e+004    +3.0351663e-007    +1.9207848e-006
+9.2160000e+004    +2.9527928e-007    +2.0203211e-006
+9.2288000e+004    +3.0192425e-007    +1.9385329e-006
+9.2416000e+004    +3.0335806e-007    +1.8477473e-006
+9.2544000e+004    +2.9314018e-007    +1.7166381e-006
+9.2672000e+004    +2.9826364e-007    +1.9152506e-006
+9.2800000e+004    +2.7520042e-007    +2.0351197e-006
+9.2928000e+004    +2.8532006e-007    +1.9631586e-006
+9.3056000e+004    +2.9104055e-007    +1.9508809e-006
+9.3184000e+004    +2.8712546e-007    +1.8887296e-006
+9.3312000e+004    +2.8328481e-007    +1.9956312e-006
+9.3440000e+004    +2.6850373e-007    +1.9475701e-006
+9.3568000e+004    +2.7414370e-007    +1.8623119e-006
+9.3696000e+004    +2.9366430e-007    +1.9598506e-006
+9.3824000e+004    +2.9918365e-007    +2.0434263e-006
+9.3952000e+004    +2.5768912e-007    +1.7758639e-006
+9.4080000e+004    +2.5602944e-007    +1.7214435e-006
+9.4208000e+004    +2.6724786e-007    +1.8472280e-006
+9.4336000e+004    +3.2270503e-007    +1.9700315e-006
+9.4464000e+004    +7.0025902e-007    +2.0107236e-006
+9.4592000e+004    +6.1290558e-007    +1.9747763e-006
+9.4720000e+004    +3.2138121e-007    +1.9307522e-006
+9.4848000e+004    +3.7054218e-007    +1.8250762e-006
+9.4976000e+004    +3.0953976e-007    +1.9210634e-006
+9.5104000e+004    +2.7844129e-007    +2.0345856e-006
+9.5232000e+004    +2.7047136e-007    +1.9391291e-006
+9.5360000e+004    +2.5550963e-007    +1.9183633e-006
+9.5488000e+004    +2.5479667e-007    +1.9201418e-006
+9.5616000e+004    +2.7093503e-007    +1.8111467e-006
+9.5744000e+004    +2.8292860e-007    +1.8486888e-006
+9.5872000e+004    +2.5391194e-007    +2.0400996e-006
+9.6000000e+004    +2.5505304e-007    +2.0092273e-006
+9.6128000e+004    +2.6495317e-007    +1.7747313e-006
+9.6256000e+004    +2.7300709e-007    +1.7317030e-006
+9.6384000e+004    +2.7662364e-007    +1.7040544e-006
+9.6512000e+004    +2.9377074e-007    +1.8029091e-006
+9.6640000e+004    +2.9877395e-007    +1.8445730e-006
+9.6768000e+004    +3.0111448e-007    +1.8697143e-006
+9.6896000e+004    +3.2354339e-007    +1.9833485e-006
+9.7024000e+004    +3.0031512e-007    +1.9568770e-006
+9.7152000e+004    +2.8808668e-007    +1.8624163e-006
+9.7280000e+004    +2.5640810e-007    +1.9305041e-006
+9.7408000e+004    +2.6858865e-007    +1.9129409e-006
+9.7536000e+004    +3.0530745e-007    +1.9019146e-006
+9.7664000e+004    +3.3244766e-007    +1.9400725e-006
+9.7792000e+004    +3.7572502e-007    +1.9161278e-006
+9.7920000e+004    +4.9380702e-007    +1.8057896e-006
+9.8048000e+004    +5.6723150e-007    +1.9244621e-006
+9.8176000e+004    +6.2060286e-007    +2.0100106e-006
+9.8304000e+004    +8.0773697e-007    +1.8786181e-006
+9.8432000e+004    +1.0051473e-006    +1.9009940e-006
+9.8560000e+004    +1.2094296e-006    +1.8281648e-006
+9.8688000e+004    +1.3564785e-006    +1.8934844e-006
+9.8816000e+004    +1.4714761e-006    +1.9070104e-006
+9.8944000e+004    +1.3991199e-006    +1.9090112e-006
+9.9072000e+004    +1.1368900e-006    +1.9189890e-006
+9.9200000e+004    +9.1378502e-007    +1.7999165e-006
+9.9328000e+004    +1.0553186e-006    +1.8978532e-006
+9.9456000e+004    +1.2082297e-006    +1.8559840e-006
+9.9584000e+004    +1.1148572e-006    +1.8040080e-006
+9.9712000e+004    +9.5192428e-007    +1.8419825e-006
+9.9840000e+004    +1.0692797e-006    +1.8830270e-006
+9.9968000e+004    +1.1001537e-006    +1.9092627e-006
+1.0009600e+005    +9.4703194e-007    +1.8644254e-006
+1.0022400e+005    +1.1092457e-006    +1.7996379e-006
+1.0035200e+005    +1.0820632e-006    +1.8944763e-006
+1.0048000e+005    +1.0051263e-006    +1.8730840e-006
+1.0060800e+005    +1.2512687e-006    +1.7824176e-006
+1.0073600e+005    +1.1664315e-006    +1.6916670e-006
+1.0086400e+005    +1.3206264e-006    +1.6259395e-006
+1.0099200e+005    +1.2858815e-006    +1.7775961e-006
+1.0112000e+005    +1.3533768e-006    +1.8894036e-006
+1.0124800e+005    +1.3639053e-006    +1.7994522e-006
+1.0137600e+005    +1.3719466e-006    +1.8492289e-006
+1.0150400e+005    +1.3520341e-006    +1.7714860e-006
+1.0163200e+005    +1.3810569e-006    +1.6900834e-006
+1.0176000e+005    +1.2102877e-006    +1.8463601e-006
+1.0188800e+005    +1.3657110e-006    +1.8327793e-006
+1.0201600e+005    +1.1795162e-006    +1.8221730e-006
+1.0214400e+005    +1.2747915e-006    +1.6304033e-006
+1.0227200e+005    +1.3215548e-006    +1.5820343e-006
