# AG4395A Measurement - Timestamp: Sep 01 2017 - 16:43:07
# Parameter File: SPAG4395Atemplate_1kHzStop.yml
#---------- Measurement Parameters ------------
# Start Frequency (Hz): 0.0
# Stop Frequency (Hz): 1000.0
# Frequency Points: 801
# Measurement Format: NOISE
# Measuremed Input: R
#---------- Analyzer Settings ----------
# Number of Averages: 16
# Auto Bandwidth: On
# IF Bandwidth: 1.0
# Input Attenuators (R,A,B): 0dB 20dB 20dB 
# Units: V/rtHz
#---------- Measurement Data ----------
# [Freq(Hz) Chan 1 ]
0.0    0.004030278
1.25    0.001782938
2.5    0.001713843
3.75    0.002137616
5.0    0.002327861
6.25    0.002739115
7.5    0.002610412
8.75    0.002532854
10.0    0.002680548
11.25    0.002383124
12.5    0.002232263
13.75    0.00217479
15.0    0.001540408
16.25    0.001339072
17.5    0.001568087
18.75    0.001243869
20.0    0.001202936
21.25    0.001339107
22.5    0.001171069
23.75    0.001086366
25.0    0.0009203521
26.25    0.001282801
27.5    0.0008392304
28.75    0.0006883799
30.0    0.0008431547
31.25    0.0005694884
32.5    0.0004272025
33.75    0.0007596709
35.0    0.0006588309
36.25    0.0004957687
37.5    0.0005577761
38.75    0.0005313723
40.0    0.0006947442
41.25    0.0004636272
42.5    0.0004287827
43.75    0.0004569226
45.0    0.0004445404
46.25    0.0005613315
47.5    0.0004531122
48.75    0.0004899981
50.0    0.0003788723
51.25    0.0004469984
52.5    0.0003909673
53.75    0.0004172921
55.0    0.0004050613
56.25    0.000317273
57.5    0.0004330147
58.75    0.0003848103
60.0    0.0005822444
61.25    0.0003601147
62.5    0.0003163923
63.75    0.0003725718
65.0    0.000360763
66.25    0.000433503
67.5    0.0004151176
68.75    0.0003889237
70.0    0.0004004236
71.25    0.0002856189
72.5    0.0003479359
73.75    0.000410785
75.0    0.0004619674
76.25    0.0004087812
77.5    0.0003225395
78.75    0.0003633713
80.0    0.0004466151
81.25    0.0002487389
82.5    0.0003187752
83.75    0.0003528361
85.0    0.0004367041
86.25    0.0004723726
87.5    0.0003831623
88.75    0.0004590785
90.0    0.0004314091
91.25    0.0003320921
92.5    0.0003767024
93.75    0.0004310091
95.0    0.0003942447
96.25    0.000375296
97.5    0.0003439574
98.75    0.0003936265
100.0    0.0003721713
101.25    0.0003882234
102.5    0.0002930061
103.75    0.0003463007
105.0    0.0003419814
106.25    0.0003026489
107.5    0.000418863
108.75    0.0003719432
110.0    0.0004523944
111.25    0.0003811283
112.5    0.0005013475
113.75    0.0003564926
115.0    0.0002449776
116.25    0.0003545573
117.5    0.0005049808
118.75    0.0004150389
120.0    0.0004694571
121.25    0.0004804777
122.5    0.0003503955
123.75    0.000306517
125.0    0.0003043355
126.25    0.0004200239
127.5    0.0004252825
128.75    0.0002271014
130.0    0.0003013993
131.25    0.0002998627
132.5    0.0005698468
133.75    0.000263623
135.0    0.0003310553
136.25    0.0003487205
137.5    0.0003944304
138.75    0.0003295351
140.0    0.0003394931
141.25    0.0003073517
142.5    0.0004757332
143.75    0.0003024824
145.0    0.0003838447
146.25    0.000262615
147.5    0.0004692029
148.75    0.0003116301
150.0    0.0003470565
151.25    0.0003456384
152.5    0.0002904907
153.75    0.0003906158
155.0    0.0002421769
156.25    0.0003286229
157.5    0.0004220822
158.75    0.0002401355
160.0    0.000327924
161.25    0.0003015006
162.5    0.0004159842
163.75    0.0003909249
165.0    0.0003853133
166.25    0.0004421947
167.5    0.0003142506
168.75    0.0004432008
170.0    0.000262683
171.25    0.0002997738
172.5    0.0004130855
173.75    0.0002888291
175.0    0.0003716431
176.25    0.0003383494
177.5    0.0002351368
178.75    0.0003944045
180.0    0.0004206098
181.25    0.000383872
182.5    0.0004741042
183.75    0.0004613307
185.0    0.0002076925
186.25    0.0004814173
187.5    0.0001736707
188.75    0.0002440685
190.0    0.0004791239
191.25    0.0003041723
192.5    0.0001777745
193.75    0.0003055959
195.0    0.000246969
196.25    0.000200007
197.5    0.0001662151
198.75    0.0003493768
200.0    0.0003497339
201.25    0.0001611688
202.5    0.0002780588
203.75    0.0002518905
205.0    0.0002797823
206.25    0.000226757
207.5    0.0003313814
208.75    0.0002196152
210.0    0.0003503826
211.25    0.0002380011
212.5    0.0002322454
213.75    0.0002709521
215.0    0.0003860473
216.25    0.0003275282
217.5    0.0002993516
218.75    0.0003320624
220.0    0.0001853041
221.25    0.0002026474
222.5    0.0004442969
223.75    0.000314982
225.0    0.0002218578
226.25    0.0002923001
227.5    0.0003906994
228.75    0.0002716904
230.0    0.0003216104
231.25    0.0002649176
232.5    0.0004979519
233.75    0.0002613006
235.0    0.0002362721
236.25    0.0003524962
237.5    0.0003004948
238.75    0.0003767658
240.0    0.0003028831
241.25    0.0002251492
242.5    0.0002708652
243.75    0.0003652244
245.0    0.0002676637
246.25    0.0003426453
247.5    0.0003073466
248.75    0.000262473
250.0    0.0003236641
251.25    0.0002798409
252.5    0.0005497861
253.75    0.0002843089
255.0    7.958081e-05
256.25    0.0002811008
257.5    0.0002232544
258.75    0.0004513418
260.0    0.000427576
261.25    0.0002496004
262.5    0.0003894096
263.75    0.0001560524
265.0    0.0001592734
266.25    0.0002494613
267.5    0.0004129315
268.75    0.0002596622
270.0    0.0004654587
271.25    0.0003008274
272.5    0.0003280416
273.75    0.0001729163
275.0    0.000379424
276.25    0.0001916425
277.5    0.0003221954
278.75    0.0002212313
280.0    0.0002545952
281.25    0.0003956649
282.5    0.0004317906
283.75    0.0001373745
285.0    0.0002209674
286.25    0.000139031
287.5    0.0002581246
288.75    0.0001528095
290.0    0.0002944672
291.25    0.0001876482
292.5    0.0003625318
293.75    0.0002328595
295.0    0.0003186698
296.25    0.0002869009
297.5    0.0001986259
298.75    0.0003291612
300.0    0.0001964011
301.25    0.0002985591
302.5    0.0001944727
303.75    0.0003923804
305.0    0.0002501153
306.25    0.0002603802
307.5    0.0001040003
308.75    0.000135126
310.0    0.0002260076
311.25    0.0002870139
312.5    0.0003056403
313.75    0.0001616811
315.0    0.0002928927
316.25    0.0002197322
317.5    0.0001874334
318.75    0.0003375276
320.0    0.0003851847
321.25    0.0001736937
322.5    0.0002026797
323.75    0.00038191
325.0    0.0001224137
326.25    0.0002605695
327.5    0.000185639
328.75    0.0001781229
330.0    0.0002149427
331.25    0.000252053
332.5    0.000255206
333.75    0.0001788875
335.0    0.0002219542
336.25    0.0001118415
337.5    0.0002534878
338.75    0.0002894195
340.0    0.0004030532
341.25    0.0003141167
342.5    0.0003631971
343.75    0.0001779654
345.0    0.0001875264
346.25    0.0002857626
347.5    0.0002997437
348.75    0.0002336565
350.0    0.0001900178
351.25    0.0002379927
352.5    0.0002465199
353.75    0.0001430875
355.0    0.0002238962
356.25    0.0001841375
357.5    0.0002181318
358.75    0.0002079096
360.0    0.0002891019
361.25    0.0003322279
362.5    0.0003294814
363.75    0.0003110158
365.0    0.0002556781
366.25    0.0001165368
367.5    0.0002648483
368.75    0.0003171177
370.0    0.0002112379
371.25    0.00017281
372.5    0.0001632325
373.75    0.0002963317
375.0    0.0002701502
376.25    0.0003245797
377.5    0.0003264004
378.75    0.000332197
380.0    0.0003731958
381.25    0.0002483944
382.5    0.0003080449
383.75    0.0002882061
385.0    0.0002413293
386.25    0.0002130334
387.5    0.0001100044
388.75    0.0003330303
390.0    0.0002210183
391.25    0.0002784226
392.5    0.0003472015
393.75    0.0001825908
395.0    0.0001831475
396.25    0.0002810909
397.5    0.0002717587
398.75    0.000192164
400.0    0.0003883
401.25    0.0002289007
402.5    0.0002047423
403.75    0.0001683564
405.0    0.0001924386
406.25    0.0003486825
407.5    0.0002006349
408.75    0.0001766999
410.0    0.0002228154
411.25    0.0003517357
412.5    0.0001428345
413.75    0.0001835522
415.0    0.0001481994
416.25    0.0002478181
417.5    0.0002917588
418.75    0.0003185082
420.0    0.000254776
421.25    0.0002738787
422.5    0.000305589
423.75    0.0001795727
425.0    0.0002267691
426.25    0.0001809007
427.5    0.0001085617
428.75    0.0002086308
430.0    0.0003204708
431.25    0.0002159824
432.5    0.0003342088
433.75    0.000276834
435.0    0.0001955029
436.25    0.0002866242
437.5    0.000352287
438.75    0.0001756528
440.0    0.0003187108
441.25    0.0004173812
442.5    0.0002637377
443.75    0.0003641162
445.0    0.0003095663
446.25    0.0001434475
447.5    0.000231239
448.75    0.0002379599
450.0    0.0001468068
451.25    0.0003068451
452.5    0.0003873618
453.75    0.0002223134
455.0    0.0001488415
456.25    0.0003084344
457.5    0.0003222308
458.75    0.0003232177
460.0    0.0001432811
461.25    0.0003808533
462.5    0.0003428317
463.75    0.0004644783
465.0    0.0001872272
466.25    0.0003304555
467.5    0.0002837963
468.75    0.0003063458
470.0    0.0004354486
471.25    0.0002818021
472.5    0.0001433327
473.75    0.0001601538
475.0    0.0002720728
476.25    0.0002324352
477.5    8.372074e-05
478.75    0.0001510161
480.0    0.0003368653
481.25    0.0003076326
482.5    0.0002206957
483.75    0.0003097303
485.0    0.0002084398
486.25    0.0001308117
487.5    0.000254107
488.75    0.0002193204
490.0    0.0003622472
491.25    0.0004403219
492.5    0.0003166064
493.75    0.0002418136
495.0    0.0002511917
496.25    0.0002016176
497.5    0.0001242009
498.75    0.0002404466
500.0    0.0003674772
501.25    0.0001223312
502.5    0.0001646839
503.75    0.000124713
505.0    0.0002110098
506.25    0.0002897088
507.5    0.000310383
508.75    0.0002413389
510.0    0.0002882444
511.25    0.0002301755
512.5    0.0001485749
513.75    0.0004369953
515.0    0.000461359
516.25    0.0003071246
517.5    0.0001787219
518.75    0.0002600678
520.0    9.605757e-05
521.25    0.000309095
522.5    0.0001526942
523.75    0.0001376806
525.0    0.0003440418
526.25    0.000479911
527.5    0.0003936056
528.75    0.0004523547
530.0    0.0002524574
531.25    0.000354424
532.5    0.0002084065
533.75    0.0001820968
535.0    0.0001625744
536.25    0.000379299
537.5    0.0002157478
538.75    0.0001579519
540.0    0.0003712206
541.25    0.0002923886
542.5    0.000163911
543.75    0.0002990644
545.0    0.0003733821
546.25    0.0002212033
547.5    0.0001858766
548.75    0.0003327626
550.0    0.0002184451
551.25    0.0003897049
552.5    0.0001785436
553.75    0.000257642
555.0    0.0004214264
556.25    0.0001984591
557.5    0.0001991484
558.75    0.0004029634
560.0    0.0003267473
561.25    7.029196e-05
562.5    6.62176e-05
563.75    5.794259e-05
565.0    5.707024e-05
566.25    7.810324e-05
567.5    6.295405e-05
568.75    6.20089e-05
570.0    7.690676e-05
571.25    7.9741e-05
572.5    7.07775e-05
573.75    6.009177e-05
575.0    5.507823e-05
576.25    6.360156e-05
577.5    5.950967e-05
578.75    5.772226e-05
580.0    7.174088e-05
581.25    7.843214e-05
582.5    6.538426e-05
583.75    7.133063e-05
585.0    5.366628e-05
586.25    6.02446e-05
587.5    6.045299e-05
588.75    5.036985e-05
590.0    7.286736e-05
591.25    6.959078e-05
592.5    6.543062e-05
593.75    7.63069e-05
595.0    7.214355e-05
596.25    5.937504e-05
597.5    6.344279e-05
598.75    5.947157e-05
600.0    5.112483e-05
601.25    7.861738e-05
602.5    6.740146e-05
603.75    6.075315e-05
605.0    5.905302e-05
606.25    5.894792e-05
607.5    6.783733e-05
608.75    7.020694e-05
610.0    6.272475e-05
611.25    6.254249e-05
612.5    7.663947e-05
613.75    7.885806e-05
615.0    7.648148e-05
616.25    5.918475e-05
617.5    7.337301e-05
618.75    6.765704e-05
620.0    6.68092e-05
621.25    6.230033e-05
622.5    6.685546e-05
623.75    6.237336e-05
625.0    5.54354e-05
626.25    7.407959e-05
627.5    5.878182e-05
628.75    5.518891e-05
630.0    8.32217e-05
631.25    5.670992e-05
632.5    6.156958e-05
633.75    6.622636e-05
635.0    7.064534e-05
636.25    0.0001749072
637.5    0.0001445196
638.75    0.0001132276
640.0    7.696922e-05
641.25    6.776559e-05
642.5    6.37757e-05
643.75    5.89085e-05
645.0    6.840197e-05
646.25    6.791402e-05
647.5    7.091168e-05
648.75    5.885334e-05
650.0    7.70695e-05
651.25    6.262994e-05
652.5    6.714213e-05
653.75    6.507759e-05
655.0    7.688512e-05
656.25    7.571444e-05
657.5    7.590684e-05
658.75    4.726826e-05
660.0    5.483482e-05
661.25    6.988846e-05
662.5    5.660815e-05
663.75    7.057476e-05
665.0    7.674911e-05
666.25    5.8642e-05
667.5    4.504478e-05
668.75    7.550324e-05
670.0    5.384874e-05
671.25    6.377926e-05
672.5    6.79168e-05
673.75    5.371309e-05
675.0    6.343989e-05
676.25    6.543533e-05
677.5    7.34178e-05
678.75    5.540905e-05
680.0    6.664192e-05
681.25    6.867234e-05
682.5    6.674429e-05
683.75    6.484387e-05
685.0    8.688858e-05
686.25    6.458542e-05
687.5    6.35005e-05
688.75    6.08559e-05
690.0    6.956985e-05
691.25    6.874347e-05
692.5    6.661492e-05
693.75    5.844387e-05
695.0    6.275233e-05
696.25    7.245319e-05
697.5    7.788843e-05
698.75    7.380308e-05
700.0    6.087177e-05
701.25    7.1968e-05
702.5    6.695426e-05
703.75    9.303415e-05
705.0    6.276836e-05
706.25    6.497874e-05
707.5    7.618372e-05
708.75    6.87931e-05
710.0    6.970738e-05
711.25    5.000269e-05
712.5    7.587483e-05
713.75    6.877079e-05
715.0    6.492694e-05
716.25    5.829596e-05
717.5    7.550877e-05
718.75    6.150477e-05
720.0    7.791779e-05
721.25    6.92351e-05
722.5    8.197803e-05
723.75    6.454872e-05
725.0    6.525128e-05
726.25    6.389365e-05
727.5    6.27677e-05
728.75    7.147904e-05
730.0    6.118505e-05
731.25    8.426725e-05
732.5    5.666517e-05
733.75    6.015081e-05
735.0    6.980679e-05
736.25    6.034906e-05
737.5    6.041718e-05
738.75    8.13478e-05
740.0    6.559529e-05
741.25    8.40775e-05
742.5    6.559053e-05
743.75    6.33473e-05
745.0    7.006666e-05
746.25    5.362128e-05
747.5    5.92179e-05
748.75    5.78106e-05
750.0    6.286821e-05
751.25    7.273512e-05
752.5    5.913635e-05
753.75    5.418621e-05
755.0    6.075262e-05
756.25    8.218473e-05
757.5    5.97674e-05
758.75    6.015495e-05
760.0    6.744481e-05
761.25    6.672082e-05
762.5    6.834797e-05
763.75    7.488413e-05
765.0    5.84715e-05
766.25    7.002723e-05
767.5    7.160581e-05
768.75    7.083745e-05
770.0    6.484958e-05
771.25    7.621163e-05
772.5    6.573238e-05
773.75    5.135733e-05
775.0    5.276262e-05
776.25    7.275146e-05
777.5    6.291577e-05
778.75    7.079521e-05
780.0    6.603682e-05
781.25    6.717576e-05
782.5    5.783334e-05
783.75    7.406603e-05
785.0    6.839845e-05
786.25    6.030854e-05
787.5    6.29851e-05
788.75    6.872112e-05
790.0    5.627474e-05
791.25    6.941473e-05
792.5    6.261709e-05
793.75    6.401452e-05
795.0    6.501187e-05
796.25    6.319551e-05
797.5    5.995985e-05
798.75    6.655184e-05
800.0    6.836972e-05
801.25    5.601861e-05
802.5    6.23117e-05
803.75    6.499782e-05
805.0    8.184052e-05
806.25    7.395854e-05
807.5    6.535789e-05
808.75    5.990636e-05
810.0    6.938221e-05
811.25    7.430431e-05
812.5    7.198754e-05
813.75    6.444569e-05
815.0    6.748211e-05
816.25    6.235907e-05
817.5    5.983657e-05
818.75    5.835897e-05
820.0    6.677055e-05
821.25    6.439147e-05
822.5    5.246036e-05
823.75    7.8046e-05
825.0    6.036469e-05
826.25    5.73965e-05
827.5    7.09942e-05
828.75    6.352617e-05
830.0    6.660098e-05
831.25    7.948979e-05
832.5    5.153112e-05
833.75    6.405872e-05
835.0    5.612972e-05
836.25    6.02347e-05
837.5    7.044181e-05
838.75    6.659289e-05
840.0    6.454235e-05
841.25    5.94351e-05
842.5    7.234547e-05
843.75    5.04465e-05
845.0    6.25692e-05
846.25    5.174574e-05
847.5    6.355879e-05
848.75    7.729771e-05
850.0    6.744797e-05
851.25    6.860934e-05
852.5    5.487329e-05
853.75    6.851908e-05
855.0    6.945344e-05
856.25    7.95088e-05
857.5    6.008909e-05
858.75    6.423942e-05
860.0    5.635041e-05
861.25    7.846965e-05
862.5    5.694315e-05
863.75    5.536177e-05
865.0    5.539257e-05
866.25    6.371289e-05
867.5    5.138018e-05
868.75    4.818726e-05
870.0    5.728863e-05
871.25    5.765742e-05
872.5    4.866839e-05
873.75    4.936721e-05
875.0    6.359405e-05
876.25    7.305834e-05
877.5    6.069898e-05
878.75    6.081836e-05
880.0    7.063974e-05
881.25    6.344158e-05
882.5    5.192812e-05
883.75    4.864978e-05
885.0    5.587835e-05
886.25    6.45124e-05
887.5    7.512041e-05
888.75    7.21725e-05
890.0    4.744806e-05
891.25    7.047242e-05
892.5    5.945055e-05
893.75    6.878204e-05
895.0    5.732682e-05
896.25    6.955118e-05
897.5    5.440688e-05
898.75    6.243205e-05
900.0    7.324838e-05
901.25    5.665735e-05
902.5    6.407244e-05
903.75    6.591286e-05
905.0    5.093324e-05
906.25    6.588859e-05
907.5    4.862227e-05
908.75    5.707716e-05
910.0    6.761457e-05
911.25    5.283779e-05
912.5    5.230387e-05
913.75    6.595608e-05
915.0    5.232897e-05
916.25    7.3323e-05
917.5    5.305627e-05
918.75    7.224284e-05
920.0    7.174562e-05
921.25    5.710059e-05
922.5    6.20198e-05
923.75    5.337094e-05
925.0    6.120525e-05
926.25    6.323554e-05
927.5    6.54826e-05
928.75    4.876146e-05
930.0    5.712863e-05
931.25    4.585495e-05
932.5    5.461079e-05
933.75    5.730191e-05
935.0    5.985744e-05
936.25    6.203586e-05
937.5    6.448417e-05
938.75    5.337586e-05
940.0    5.096602e-05
941.25    5.96893e-05
942.5    6.016187e-05
943.75    5.76136e-05
945.0    4.829217e-05
946.25    6.074269e-05
947.5    6.543926e-05
948.75    4.958278e-05
950.0    6.704688e-05
951.25    7.18849e-05
952.5    7.329183e-05
953.75    4.988329e-05
955.0    5.494152e-05
956.25    5.04718e-05
957.5    5.498625e-05
958.75    5.438666e-05
960.0    5.667335e-05
961.25    6.249301e-05
962.5    4.694422e-05
963.75    7.022167e-05
965.0    5.868894e-05
966.25    5.54402e-05
967.5    5.597317e-05
968.75    4.652183e-05
970.0    5.828154e-05
971.25    5.092223e-05
972.5    5.932675e-05
973.75    5.836646e-05
975.0    4.80115e-05
976.25    5.348708e-05
977.5    6.848481e-05
978.75    4.598009e-05
980.0    5.963907e-05
981.25    5.275962e-05
982.5    5.67263e-05
983.75    4.450686e-05
985.0    6.519044e-05
986.25    4.519253e-05
987.5    6.069827e-05
988.75    7.401524e-05
990.0    6.151477e-05
991.25    6.19362e-05
992.5    6.536764e-05
993.75    5.289339e-05
995.0    6.112995e-05
996.25    4.697188e-05
997.5    5.645298e-05
998.75    6.284954e-05
1000.0    4.743266e-05
