# DC Val: 0.55143945
# SR785 Measurement - Timestamp: Mar 06 2020 - 18:24:39
# Parameter File: TransSpec1_S.yml
#---------- Measurement Setup ------------
# Start Frequency (Hz): 0.000000
# Frequency Span (Hz): 800.000000
# Frequency Resolution: 800
# Number of Averages: 2
# Averaging Mode: None
# Window function: Hanning
#---------- Measurement Parameters ----------
# Measurement Group:  "FFT" "FFT"
# Measurements:  "FFT 1" "FFT 2"
# View:  "Log Magnitude" "Log Magnitude"
# Unit:  "Vrms/rtHz" "dBVpk"
#---------- Input Parameters ----------
# Input Source: Analog
# Input Mode: Single ended, Single ended
# Input Grounding: Float, Float
# Input Coupling: AC, AC
# Input Range: -24.0dBVpk, -34.0dBVpk
# Auto Range: Off, Off
# Auto Range Mode: Tracking, Tracking
# Anti-Aliasing Filter: On, On
#---------- Source Parameters ----------
# Source Type: Sine
# Source Amplitude: 500.0mVpk
# Source On: 0

#---------- Measurement Data ----------
# [Freq(Hz) Display 0(Vrms/rtHz) Display 1(dBVpk) ]
+0.0000000e+000    +2.4743180e-004
+1.0000000e+000    +1.1018043e-003
+2.0000000e+000    +1.8000143e-003
+3.0000000e+000    +1.3895289e-003
+4.0000000e+000    +7.3599635e-004
+5.0000000e+000    +5.1499181e-004
+6.0000000e+000    +5.0386466e-004
+7.0000000e+000    +8.4770938e-005
+8.0000000e+000    +2.9021091e-004
+9.0000000e+000    +3.7317682e-004
+1.0000000e+001    +4.5401021e-004
+1.1000000e+001    +5.2696379e-004
+1.2000000e+001    +4.0298200e-004
+1.3000000e+001    +3.2198481e-004
+1.4000000e+001    +1.8445426e-004
+1.5000000e+001    +5.0795399e-005
+1.6000000e+001    +1.1416445e-004
+1.7000000e+001    +1.1089059e-004
+1.8000000e+001    +3.5025972e-005
+1.9000000e+001    +6.6706212e-005
+2.0000000e+001    +8.3508283e-005
+2.1000000e+001    +1.1914852e-004
+2.2000000e+001    +7.7015829e-005
+2.3000000e+001    +5.5157710e-005
+2.4000000e+001    +6.8725385e-005
+2.5000000e+001    +7.3069583e-005
+2.6000000e+001    +6.3709471e-005
+2.7000000e+001    +6.2977684e-005
+2.8000000e+001    +6.9788577e-005
+2.9000000e+001    +5.3754564e-005
+3.0000000e+001    +4.2419622e-005
+3.1000000e+001    +4.8164373e-005
+3.2000000e+001    +3.8585520e-005
+3.3000000e+001    +1.8828618e-005
+3.4000000e+001    +1.7812066e-005
+3.5000000e+001    +2.7151184e-005
+3.6000000e+001    +3.0929754e-005
+3.7000000e+001    +3.5004905e-005
+3.8000000e+001    +3.7884176e-005
+3.9000000e+001    +3.5552406e-005
+4.0000000e+001    +2.3933510e-005
+4.1000000e+001    +1.7269524e-005
+4.2000000e+001    +1.6903525e-005
+4.3000000e+001    +1.9498422e-005
+4.4000000e+001    +1.1107093e-005
+4.5000000e+001    +2.8221409e-006
+4.6000000e+001    +8.7892649e-006
+4.7000000e+001    +1.3220831e-005
+4.8000000e+001    +1.1252266e-005
+4.9000000e+001    +1.1895487e-005
+5.0000000e+001    +1.0821702e-005
+5.1000000e+001    +8.9021978e-006
+5.2000000e+001    +9.8071932e-006
+5.3000000e+001    +1.1734567e-005
+5.4000000e+001    +1.1117439e-005
+5.5000000e+001    +9.5489722e-006
+5.6000000e+001    +5.5201090e-006
+5.7000000e+001    +1.2319048e-006
+5.8000000e+001    +2.4824760e-006
+5.9000000e+001    +5.5328392e-006
+6.0000000e+001    +7.7852501e-006
+6.1000000e+001    +5.6517501e-006
+6.2000000e+001    +2.7066831e-006
+6.3000000e+001    +1.8406340e-006
+6.4000000e+001    +2.1476312e-006
+6.5000000e+001    +1.0285235e-006
+6.6000000e+001    +3.3462586e-006
+6.7000000e+001    +4.0499267e-006
+6.8000000e+001    +2.2194349e-006
+6.9000000e+001    +4.6024354e-007
+7.0000000e+001    +1.9333361e-006
+7.1000000e+001    +2.0062228e-006
+7.2000000e+001    +2.6726750e-006
+7.3000000e+001    +1.9069121e-006
+7.4000000e+001    +9.5873907e-007
+7.5000000e+001    +1.7252619e-006
+7.6000000e+001    +2.7754606e-006
+7.7000000e+001    +3.0765016e-006
+7.8000000e+001    +2.4541773e-006
+7.9000000e+001    +1.3330149e-006
+8.0000000e+001    +1.0313765e-006
+8.1000000e+001    +1.6319705e-006
+8.2000000e+001    +1.3896249e-006
+8.3000000e+001    +1.3762645e-006
+8.4000000e+001    +7.9891947e-007
+8.5000000e+001    +1.4800736e-006
+8.6000000e+001    +1.2214962e-006
+8.7000000e+001    +6.5132815e-007
+8.8000000e+001    +3.6873047e-007
+8.9000000e+001    +2.9172423e-007
+9.0000000e+001    +9.6730787e-007
+9.1000000e+001    +1.3915350e-006
+9.2000000e+001    +1.0345374e-006
+9.3000000e+001    +1.1873735e-006
+9.4000000e+001    +1.2159671e-006
+9.5000000e+001    +6.2114208e-007
+9.6000000e+001    +6.4328088e-007
+9.7000000e+001    +2.0764423e-006
+9.8000000e+001    +2.0539173e-006
+9.9000000e+001    +1.3884674e-006
+1.0000000e+002    +1.8993603e-006
+1.0100000e+002    +6.5112368e-007
+1.0200000e+002    +1.4412683e-007
+1.0300000e+002    +5.2356978e-007
+1.0400000e+002    +6.4266459e-007
+1.0500000e+002    +4.9262161e-007
+1.0600000e+002    +1.1270837e-006
+1.0700000e+002    +4.1101552e-007
+1.0800000e+002    +1.3329827e-006
+1.0900000e+002    +9.4397359e-007
+1.1000000e+002    +2.7617844e-007
+1.1100000e+002    +5.2162636e-007
+1.1200000e+002    +5.2320320e-007
+1.1300000e+002    +6.9556251e-007
+1.1400000e+002    +1.0579139e-006
+1.1500000e+002    +5.8885917e-007
+1.1600000e+002    +9.7212353e-007
+1.1700000e+002    +1.1157304e-006
+1.1800000e+002    +6.9363153e-007
+1.1900000e+002    +3.0375868e-006
+1.2000000e+002    +6.0705884e-006
+1.2100000e+002    +2.3390348e-006
+1.2200000e+002    +1.0866112e-006
+1.2300000e+002    +9.2898460e-007
+1.2400000e+002    +1.1397058e-006
+1.2500000e+002    +5.4155265e-007
+1.2600000e+002    +2.0087684e-007
+1.2700000e+002    +4.5268146e-007
+1.2800000e+002    +1.7275137e-007
+1.2900000e+002    +5.0741551e-007
+1.3000000e+002    +1.3323257e-006
+1.3100000e+002    +1.6666950e-006
+1.3200000e+002    +7.6728099e-007
+1.3300000e+002    +8.8747350e-007
+1.3400000e+002    +5.3427999e-007
+1.3500000e+002    +7.2858967e-007
+1.3600000e+002    +1.3207454e-006
+1.3700000e+002    +8.6943402e-007
+1.3800000e+002    +4.6370639e-007
+1.3900000e+002    +7.2994209e-007
+1.4000000e+002    +1.0311320e-006
+1.4100000e+002    +1.0468985e-006
+1.4200000e+002    +1.9577989e-007
+1.4300000e+002    +5.1357989e-007
+1.4400000e+002    +1.0841919e-006
+1.4500000e+002    +8.5925501e-007
+1.4600000e+002    +7.0161735e-007
+1.4700000e+002    +5.2393671e-007
+1.4800000e+002    +3.6538469e-007
+1.4900000e+002    +1.0518460e-006
+1.5000000e+002    +9.5443704e-007
+1.5100000e+002    +3.2644368e-007
+1.5200000e+002    +1.2176238e-007
+1.5300000e+002    +2.0073706e-007
+1.5400000e+002    +1.9795175e-007
+1.5500000e+002    +4.0396901e-007
+1.5600000e+002    +5.6802924e-007
+1.5700000e+002    +5.6490700e-007
+1.5800000e+002    +1.3655776e-007
+1.5900000e+002    +8.7249316e-007
+1.6000000e+002    +1.3448741e-006
+1.6100000e+002    +1.1167207e-006
+1.6200000e+002    +1.1640966e-007
+1.6300000e+002    +8.9200535e-007
+1.6400000e+002    +9.1756419e-007
+1.6500000e+002    +1.0991480e-006
+1.6600000e+002    +9.3286968e-007
+1.6700000e+002    +8.0834468e-007
+1.6800000e+002    +8.2998412e-007
+1.6900000e+002    +3.3060437e-007
+1.7000000e+002    +2.2437013e-007
+1.7100000e+002    +4.2703277e-007
+1.7200000e+002    +5.9188625e-007
+1.7300000e+002    +8.4349517e-007
+1.7400000e+002    +1.0606889e-006
+1.7500000e+002    +7.7046275e-007
+1.7600000e+002    +2.3157300e-007
+1.7700000e+002    +2.9960012e-007
+1.7800000e+002    +4.7947515e-007
+1.7900000e+002    +1.5045506e-006
+1.8000000e+002    +2.6674713e-006
+1.8100000e+002    +1.7463747e-006
+1.8200000e+002    +7.2779659e-007
+1.8300000e+002    +8.0393158e-007
+1.8400000e+002    +8.3809107e-007
+1.8500000e+002    +2.1824771e-007
+1.8600000e+002    +1.9017371e-007
+1.8700000e+002    +3.2019670e-007
+1.8800000e+002    +4.7996394e-007
+1.8900000e+002    +7.5439164e-007
+1.9000000e+002    +3.8222598e-007
+1.9100000e+002    +2.6675534e-007
+1.9200000e+002    +7.6878371e-007
+1.9300000e+002    +6.2231004e-007
+1.9400000e+002    +2.3099173e-007
+1.9500000e+002    +1.5732314e-007
+1.9600000e+002    +4.8655227e-007
+1.9700000e+002    +6.0894871e-007
+1.9800000e+002    +3.9735465e-007
+1.9900000e+002    +1.7780334e-007
+2.0000000e+002    +1.6298951e-007
+2.0100000e+002    +4.0694812e-007
+2.0200000e+002    +1.7497047e-007
+2.0300000e+002    +2.3757154e-007
+2.0400000e+002    +6.4915565e-007
+2.0500000e+002    +8.9075650e-007
+2.0600000e+002    +7.3016093e-007
+2.0700000e+002    +4.2555422e-007
+2.0800000e+002    +2.9796252e-007
+2.0900000e+002    +3.8890860e-007
+2.1000000e+002    +3.6941734e-007
+2.1100000e+002    +5.7554263e-007
+2.1200000e+002    +9.1621723e-007
+2.1300000e+002    +5.3712085e-007
+2.1400000e+002    +6.8598808e-007
+2.1500000e+002    +4.2373213e-007
+2.1600000e+002    +5.4357685e-007
+2.1700000e+002    +1.6806479e-007
+2.1800000e+002    +5.9714154e-007
+2.1900000e+002    +5.9860076e-007
+2.2000000e+002    +3.5394547e-007
+2.2100000e+002    +3.8087202e-007
+2.2200000e+002    +4.9353110e-007
+2.2300000e+002    +4.0510739e-007
+2.2400000e+002    +1.8237161e-007
+2.2500000e+002    +2.8298575e-007
+2.2600000e+002    +5.1699368e-007
+2.2700000e+002    +7.6775461e-007
+2.2800000e+002    +5.8641450e-007
+2.2900000e+002    +4.3423029e-007
+2.3000000e+002    +4.9802958e-007
+2.3100000e+002    +2.9325187e-007
+2.3200000e+002    +2.0634107e-007
+2.3300000e+002    +2.4039434e-007
+2.3400000e+002    +2.2649603e-007
+2.3500000e+002    +1.2856034e-007
+2.3600000e+002    +2.4461391e-007
+2.3700000e+002    +4.8272693e-007
+2.3800000e+002    +1.0507806e-007
+2.3900000e+002    +2.0834716e-006
+2.4000000e+002    +3.6571862e-006
+2.4100000e+002    +1.3132507e-006
+2.4200000e+002    +4.2021148e-007
+2.4300000e+002    +2.6056378e-008
+2.4400000e+002    +3.7622326e-007
+2.4500000e+002    +6.3661992e-007
+2.4600000e+002    +7.1418037e-007
+2.4700000e+002    +4.2089627e-007
+2.4800000e+002    +1.6946359e-007
+2.4900000e+002    +5.3252245e-007
+2.5000000e+002    +7.0379002e-007
+2.5100000e+002    +5.5056427e-007
+2.5200000e+002    +6.9290003e-008
+2.5300000e+002    +3.6689863e-007
+2.5400000e+002    +7.8681751e-008
+2.5500000e+002    +7.2838253e-007
+2.5600000e+002    +5.4368729e-007
+2.5700000e+002    +5.7025510e-008
+2.5800000e+002    +2.6396535e-007
+2.5900000e+002    +3.4517490e-007
+2.6000000e+002    +9.5262060e-008
+2.6100000e+002    +4.0219827e-008
+2.6200000e+002    +2.7969264e-007
+2.6300000e+002    +5.7752834e-007
+2.6400000e+002    +5.3892376e-007
+2.6500000e+002    +2.3970196e-007
+2.6600000e+002    +2.7596201e-007
+2.6700000e+002    +3.9789603e-007
+2.6800000e+002    +5.6706210e-007
+2.6900000e+002    +4.4372345e-007
+2.7000000e+002    +1.7305474e-007
+2.7100000e+002    +3.4411386e-007
+2.7200000e+002    +4.2932746e-007
+2.7300000e+002    +4.2445993e-007
+2.7400000e+002    +2.2599970e-007
+2.7500000e+002    +6.4620730e-007
+2.7600000e+002    +7.9539313e-007
+2.7700000e+002    +3.8306584e-007
+2.7800000e+002    +3.3325642e-007
+2.7900000e+002    +2.9589719e-007
+2.8000000e+002    +4.7963522e-007
+2.8100000e+002    +7.5816064e-007
+2.8200000e+002    +7.3143832e-007
+2.8300000e+002    +8.0136971e-007
+2.8400000e+002    +6.0037729e-007
+2.8500000e+002    +1.9149583e-007
+2.8600000e+002    +6.5647299e-007
+2.8700000e+002    +6.0373003e-007
+2.8800000e+002    +5.5865752e-007
+2.8900000e+002    +5.5323227e-007
+2.9000000e+002    +4.9474210e-007
+2.9100000e+002    +6.2285557e-007
+2.9200000e+002    +4.3023724e-007
+2.9300000e+002    +3.0744957e-007
+2.9400000e+002    +1.8084880e-007
+2.9500000e+002    +4.1488164e-007
+2.9600000e+002    +8.7625074e-007
+2.9700000e+002    +7.7178015e-007
+2.9800000e+002    +1.2735549e-007
+2.9900000e+002    +6.1249250e-007
+3.0000000e+002    +6.2639435e-007
+3.0100000e+002    +2.9082173e-007
+3.0200000e+002    +6.0083363e-007
+3.0300000e+002    +1.1294919e-006
+3.0400000e+002    +6.6990702e-007
+3.0500000e+002    +1.2514968e-007
+3.0600000e+002    +3.8927558e-007
+3.0700000e+002    +1.7176430e-007
+3.0800000e+002    +2.2912683e-007
+3.0900000e+002    +5.0251663e-007
+3.1000000e+002    +8.9768514e-007
+3.1100000e+002    +5.1131190e-007
+3.1200000e+002    +5.3764597e-007
+3.1300000e+002    +4.7256583e-007
+3.1400000e+002    +5.0662447e-007
+3.1500000e+002    +4.1015358e-007
+3.1600000e+002    +2.7179550e-007
+3.1700000e+002    +1.7054769e-007
+3.1800000e+002    +1.7480302e-007
+3.1900000e+002    +5.0806665e-007
+3.2000000e+002    +3.8015008e-007
+3.2100000e+002    +2.6381556e-007
+3.2200000e+002    +5.2062279e-007
+3.2300000e+002    +9.0728082e-007
+3.2400000e+002    +9.4015581e-007
+3.2500000e+002    +6.1386459e-007
+3.2600000e+002    +3.8811223e-007
+3.2700000e+002    +2.6944076e-007
+3.2800000e+002    +4.5395015e-007
+3.2900000e+002    +6.2439892e-007
+3.3000000e+002    +5.2522688e-007
+3.3100000e+002    +1.8252165e-007
+3.3200000e+002    +3.4810776e-007
+3.3300000e+002    +4.3470826e-007
+3.3400000e+002    +1.3651294e-007
+3.3500000e+002    +1.3715912e-007
+3.3600000e+002    +3.6051702e-007
+3.3700000e+002    +5.4445132e-007
+3.3800000e+002    +5.5372817e-007
+3.3900000e+002    +5.6591330e-007
+3.4000000e+002    +3.2704207e-007
+3.4100000e+002    +4.3806986e-007
+3.4200000e+002    +3.1995879e-007
+3.4300000e+002    +3.3871228e-007
+3.4400000e+002    +7.6239530e-007
+3.4500000e+002    +4.9302525e-007
+3.4600000e+002    +5.4668203e-007
+3.4700000e+002    +3.1086671e-007
+3.4800000e+002    +2.0264460e-007
+3.4900000e+002    +4.2346798e-007
+3.5000000e+002    +6.6209090e-008
+3.5100000e+002    +2.5025000e-007
+3.5200000e+002    +1.8180522e-007
+3.5300000e+002    +1.2486872e-007
+3.5400000e+002    +4.8361602e-007
+3.5500000e+002    +2.0554312e-007
+3.5600000e+002    +4.4773398e-007
+3.5700000e+002    +6.6068861e-007
+3.5800000e+002    +5.2924719e-007
+3.5900000e+002    +9.5176023e-007
+3.6000000e+002    +2.0679104e-006
+3.6100000e+002    +6.4784336e-007
+3.6200000e+002    +7.1546833e-007
+3.6300000e+002    +2.7579966e-007
+3.6400000e+002    +2.8454014e-007
+3.6500000e+002    +5.7564500e-007
+3.6600000e+002    +6.6592202e-007
+3.6700000e+002    +4.8913239e-007
+3.6800000e+002    +4.2800303e-007
+3.6900000e+002    +4.0039663e-007
+3.7000000e+002    +7.1092114e-007
+3.7100000e+002    +3.8188327e-007
+3.7200000e+002    +3.8873998e-007
+3.7300000e+002    +5.0868454e-007
+3.7400000e+002    +5.3301147e-007
+3.7500000e+002    +7.6501397e-007
+3.7600000e+002    +4.6079975e-007
+3.7700000e+002    +5.5173278e-008
+3.7800000e+002    +1.3913990e-007
+3.7900000e+002    +1.4310456e-007
+3.8000000e+002    +1.9879705e-007
+3.8100000e+002    +3.5952721e-007
+3.8200000e+002    +4.0979663e-007
+3.8300000e+002    +2.5700507e-007
+3.8400000e+002    +7.3809389e-007
+3.8500000e+002    +4.4356514e-007
+3.8600000e+002    +2.3374636e-007
+3.8700000e+002    +6.1175524e-007
+3.8800000e+002    +7.0606552e-007
+3.8900000e+002    +3.3696554e-007
+3.9000000e+002    +8.8946351e-008
+3.9100000e+002    +6.3830527e-007
+3.9200000e+002    +8.2372537e-007
+3.9300000e+002    +1.6639029e-007
+3.9400000e+002    +3.9088681e-007
+3.9500000e+002    +5.5536481e-007
+3.9600000e+002    +7.7523504e-007
+3.9700000e+002    +8.3133938e-007
+3.9800000e+002    +5.5434015e-007
+3.9900000e+002    +1.4370335e-007
+4.0000000e+002    +4.2391130e-007
+4.0100000e+002    +5.7651977e-007
+4.0200000e+002    +3.5614525e-007
+4.0300000e+002    +2.4912026e-007
+4.0400000e+002    +4.9675165e-008
+4.0500000e+002    +2.6350438e-007
+4.0600000e+002    +5.1796809e-007
+4.0700000e+002    +6.2117005e-007
+4.0800000e+002    +3.7382108e-007
+4.0900000e+002    +2.4813480e-007
+4.1000000e+002    +4.3775495e-007
+4.1100000e+002    +8.9771868e-007
+4.1200000e+002    +1.0502799e-006
+4.1300000e+002    +8.8509330e-007
+4.1400000e+002    +9.4541224e-007
+4.1500000e+002    +7.2099789e-007
+4.1600000e+002    +5.1913185e-007
+4.1700000e+002    +4.7306159e-007
+4.1800000e+002    +2.2003663e-007
+4.1900000e+002    +1.5373857e-007
+4.2000000e+002    +3.1900012e-007
+4.2100000e+002    +4.0216605e-007
+4.2200000e+002    +1.1228902e-007
+4.2300000e+002    +6.7574518e-007
+4.2400000e+002    +8.0255927e-007
+4.2500000e+002    +4.1657279e-007
+4.2600000e+002    +4.1433992e-007
+4.2700000e+002    +5.9731269e-007
+4.2800000e+002    +3.6195516e-007
+4.2900000e+002    +1.1312493e-007
+4.3000000e+002    +4.5540787e-007
+4.3100000e+002    +6.0084682e-007
+4.3200000e+002    +2.3949440e-007
+4.3300000e+002    +3.5139257e-007
+4.3400000e+002    +6.0998326e-007
+4.3500000e+002    +4.1128141e-007
+4.3600000e+002    +3.4602638e-007
+4.3700000e+002    +1.4419314e-007
+4.3800000e+002    +3.5617614e-007
+4.3900000e+002    +6.0136692e-008
+4.4000000e+002    +2.2377647e-007
+4.4100000e+002    +5.6476807e-007
+4.4200000e+002    +7.7340292e-007
+4.4300000e+002    +8.1486223e-007
+4.4400000e+002    +6.3820789e-007
+4.4500000e+002    +4.3056235e-007
+4.4600000e+002    +2.4226821e-007
+4.4700000e+002    +4.5039499e-007
+4.4800000e+002    +5.3179616e-007
+4.4900000e+002    +6.9378082e-008
+4.5000000e+002    +5.6364001e-007
+4.5100000e+002    +6.7631152e-007
+4.5200000e+002    +7.1426433e-007
+4.5300000e+002    +4.9608673e-007
+4.5400000e+002    +9.0183926e-007
+4.5500000e+002    +7.5258481e-007
+4.5600000e+002    +5.2409143e-007
+4.5700000e+002    +5.1854340e-007
+4.5800000e+002    +4.8950415e-007
+4.5900000e+002    +3.4221827e-007
+4.6000000e+002    +2.6485720e-008
+4.6100000e+002    +2.9240982e-007
+4.6200000e+002    +3.5956828e-007
+4.6300000e+002    +6.5490428e-007
+4.6400000e+002    +1.0797680e-006
+4.6500000e+002    +1.2750940e-006
+4.6600000e+002    +9.4704751e-007
+4.6700000e+002    +5.2402703e-007
+4.6800000e+002    +4.6008239e-007
+4.6900000e+002    +7.0693818e-007
+4.7000000e+002    +5.7985255e-007
+4.7100000e+002    +1.5049883e-007
+4.7200000e+002    +6.5303669e-007
+4.7300000e+002    +1.0239364e-006
+4.7400000e+002    +1.1046114e-006
+4.7500000e+002    +8.0338890e-007
+4.7600000e+002    +5.6529171e-007
+4.7700000e+002    +6.0569931e-007
+4.7800000e+002    +4.6822694e-007
+4.7900000e+002    +4.3662931e-007
+4.8000000e+002    +7.4122539e-007
+4.8100000e+002    +2.7473430e-007
+4.8200000e+002    +3.7993854e-007
+4.8300000e+002    +3.1853393e-008
+4.8400000e+002    +4.3633889e-007
+4.8500000e+002    +6.2498600e-007
+4.8600000e+002    +6.4753476e-007
+4.8700000e+002    +1.6736008e-007
+4.8800000e+002    +2.4866853e-007
+4.8900000e+002    +2.7763383e-007
+4.9000000e+002    +4.8149514e-007
+4.9100000e+002    +4.9938916e-007
+4.9200000e+002    +5.7641529e-007
+4.9300000e+002    +1.1527109e-007
+4.9400000e+002    +3.3107330e-007
+4.9500000e+002    +4.5948315e-008
+4.9600000e+002    +5.2359280e-007
+4.9700000e+002    +7.4834543e-007
+4.9800000e+002    +7.6806913e-007
+4.9900000e+002    +5.0818716e-007
+5.0000000e+002    +4.5000201e-007
+5.0100000e+002    +4.9163066e-007
+5.0200000e+002    +4.0465619e-007
+5.0300000e+002    +4.9767647e-007
+5.0400000e+002    +6.8925340e-007
+5.0500000e+002    +7.3290300e-007
+5.0600000e+002    +4.8022906e-007
+5.0700000e+002    +4.0949573e-007
+5.0800000e+002    +3.4393369e-007
+5.0900000e+002    +4.1242185e-007
+5.1000000e+002    +6.6038405e-007
+5.1100000e+002    +4.8293100e-007
+5.1200000e+002    +4.0954248e-007
+5.1300000e+002    +3.7308712e-007
+5.1400000e+002    +1.7195809e-007
+5.1500000e+002    +4.8071286e-007
+5.1600000e+002    +6.2117005e-007
+5.1700000e+002    +8.3287426e-007
+5.1800000e+002    +4.9828992e-007
+5.1900000e+002    +2.2008253e-007
+5.2000000e+002    +3.6579934e-007
+5.2100000e+002    +8.4922128e-008
+5.2200000e+002    +5.0617632e-007
+5.2300000e+002    +3.7170798e-007
+5.2400000e+002    +7.3878789e-007
+5.2500000e+002    +6.4799423e-007
+5.2600000e+002    +1.2675355e-007
+5.2700000e+002    +5.1549051e-007
+5.2800000e+002    +1.4052489e-007
+5.2900000e+002    +1.0800323e-007
+5.3000000e+002    +3.0306509e-007
+5.3100000e+002    +2.4377951e-007
+5.3200000e+002    +5.0389895e-007
+5.3300000e+002    +5.6359670e-007
+5.3400000e+002    +4.2428240e-007
+5.3500000e+002    +1.4909411e-007
+5.3600000e+002    +8.9147858e-007
+5.3700000e+002    +9.5353732e-007
+5.3800000e+002    +6.4729522e-007
+5.3900000e+002    +8.5578552e-007
+5.4000000e+002    +8.6895210e-007
+5.4100000e+002    +7.3383865e-007
+5.4200000e+002    +6.5507544e-007
+5.4300000e+002    +5.3187324e-007
+5.4400000e+002    +2.6998774e-007
+5.4500000e+002    +1.9828086e-007
+5.4600000e+002    +1.4944681e-007
+5.4700000e+002    +4.0765468e-007
+5.4800000e+002    +7.1788486e-007
+5.4900000e+002    +6.0233100e-007
+5.5000000e+002    +1.3470436e-007
+5.5100000e+002    +4.3113192e-007
+5.5200000e+002    +3.6614207e-007
+5.5300000e+002    +2.0980714e-007
+5.5400000e+002    +9.8593404e-008
+5.5500000e+002    +4.2277483e-007
+5.5600000e+002    +9.0326529e-007
+5.5700000e+002    +3.9925965e-007
+5.5800000e+002    +9.0726093e-007
+5.5900000e+002    +5.3474008e-007
+5.6000000e+002    +3.0498111e-007
+5.6100000e+002    +3.2385293e-007
+5.6200000e+002    +3.0694028e-007
+5.6300000e+002    +4.7140398e-007
+5.6400000e+002    +4.0464730e-007
+5.6500000e+002    +5.0973563e-007
+5.6600000e+002    +7.4395433e-007
+5.6700000e+002    +6.5720212e-007
+5.6800000e+002    +8.2168577e-007
+5.6900000e+002    +9.7523662e-007
+5.7000000e+002    +6.1504926e-007
+5.7100000e+002    +8.1415038e-008
+5.7200000e+002    +4.4491378e-007
+5.7300000e+002    +1.6603443e-007
+5.7400000e+002    +3.8059613e-007
+5.7500000e+002    +6.0441982e-007
+5.7600000e+002    +1.8436761e-007
+5.7700000e+002    +1.7044174e-007
+5.7800000e+002    +3.5465698e-007
+5.7900000e+002    +5.2411389e-007
+5.8000000e+002    +3.9594798e-007
+5.8100000e+002    +4.4164170e-007
+5.8200000e+002    +4.3141270e-007
+5.8300000e+002    +2.9077322e-007
+5.8400000e+002    +1.8268103e-007
+5.8500000e+002    +4.7663605e-007
+5.8600000e+002    +3.7660266e-007
+5.8700000e+002    +4.4258925e-007
+5.8800000e+002    +8.1031828e-007
+5.8900000e+002    +2.2065355e-007
+5.9000000e+002    +3.4348798e-007
+5.9100000e+002    +3.3654257e-007
+5.9200000e+002    +3.5889815e-007
+5.9300000e+002    +8.1882092e-007
+5.9400000e+002    +8.1889823e-007
+5.9500000e+002    +5.6265628e-007
+5.9600000e+002    +5.4743464e-007
+5.9700000e+002    +4.3480850e-007
+5.9800000e+002    +5.5349722e-007
+5.9900000e+002    +2.6831748e-007
+6.0000000e+002    +8.6760315e-007
+6.0100000e+002    +4.5043058e-007
+6.0200000e+002    +1.4072005e-007
+6.0300000e+002    +1.7515653e-007
+6.0400000e+002    +4.2948116e-007
+6.0500000e+002    +8.5670968e-007
+6.0600000e+002    +1.0230441e-006
+6.0700000e+002    +9.9114379e-007
+6.0800000e+002    +6.5807222e-007
+6.0900000e+002    +6.8440295e-007
+6.1000000e+002    +8.4414279e-007
+6.1100000e+002    +6.3059747e-007
+6.1200000e+002    +3.6877663e-007
+6.1300000e+002    +1.8310837e-007
+6.1400000e+002    +3.9957584e-007
+6.1500000e+002    +8.7059942e-007
+6.1600000e+002    +6.3832630e-007
+6.1700000e+002    +5.2967619e-007
+6.1800000e+002    +7.3219201e-007
+6.1900000e+002    +4.6733379e-007
+6.2000000e+002    +3.3937229e-007
+6.2100000e+002    +7.2604070e-007
+6.2200000e+002    +7.5072296e-007
+6.2300000e+002    +6.5950002e-007
+6.2400000e+002    +4.5015372e-007
+6.2500000e+002    +9.0084967e-008
+6.2600000e+002    +1.4529400e-007
+6.2700000e+002    +4.1173459e-007
+6.2800000e+002    +5.7536317e-007
+6.2900000e+002    +3.0425068e-007
+6.3000000e+002    +3.7113827e-007
+6.3100000e+002    +6.9232283e-007
+6.3200000e+002    +7.9101073e-007
+6.3300000e+002    +7.0130619e-007
+6.3400000e+002    +8.9153338e-007
+6.3500000e+002    +5.7937081e-007
+6.3600000e+002    +6.7331746e-007
+6.3700000e+002    +9.2619911e-007
+6.3800000e+002    +6.3163969e-007
+6.3900000e+002    +2.9680012e-007
+6.4000000e+002    +8.0105826e-007
+6.4100000e+002    +8.9866046e-007
+6.4200000e+002    +3.5986528e-007
+6.4300000e+002    +1.8057935e-007
+6.4400000e+002    +4.6069755e-007
+6.4500000e+002    +5.2510978e-007
+6.4600000e+002    +3.9738956e-007
+6.4700000e+002    +7.2525751e-007
+6.4800000e+002    +5.8567002e-007
+6.4900000e+002    +2.5797306e-007
+6.5000000e+002    +8.6809102e-008
+6.5100000e+002    +3.6467929e-007
+6.5200000e+002    +4.7444158e-007
+6.5300000e+002    +2.4043075e-007
+6.5400000e+002    +3.2641501e-007
+6.5500000e+002    +5.1269478e-007
+6.5600000e+002    +4.5910897e-007
+6.5700000e+002    +6.6300601e-007
+6.5800000e+002    +6.7840358e-007
+6.5900000e+002    +3.5782594e-007
+6.6000000e+002    +4.3387047e-007
+6.6100000e+002    +3.3931789e-007
+6.6200000e+002    +2.7918455e-007
+6.6300000e+002    +2.3001786e-007
+6.6400000e+002    +3.5475355e-007
+6.6500000e+002    +4.6147616e-007
+6.6600000e+002    +4.7074815e-007
+6.6700000e+002    +4.6852881e-007
+6.6800000e+002    +4.2737707e-007
+6.6900000e+002    +2.9183252e-007
+6.7000000e+002    +6.8395076e-007
+6.7100000e+002    +7.2748981e-007
+6.7200000e+002    +3.7841647e-007
+6.7300000e+002    +2.9110734e-007
+6.7400000e+002    +4.9893976e-007
+6.7500000e+002    +3.6547897e-007
+6.7600000e+002    +4.6847893e-007
+6.7700000e+002    +6.3369231e-007
+6.7800000e+002    +2.3992681e-007
+6.7900000e+002    +2.5310612e-007
+6.8000000e+002    +2.9404438e-007
+6.8100000e+002    +3.6021711e-007
+6.8200000e+002    +9.8768487e-007
+6.8300000e+002    +8.5133865e-007
+6.8400000e+002    +5.0961592e-007
+6.8500000e+002    +8.3935822e-007
+6.8600000e+002    +6.9953512e-007
+6.8700000e+002    +8.7323974e-007
+6.8800000e+002    +7.3514269e-007
+6.8900000e+002    +4.5594522e-008
+6.9000000e+002    +2.6087753e-007
+6.9100000e+002    +4.6060651e-007
+6.9200000e+002    +5.6839173e-007
+6.9300000e+002    +3.2384938e-007
+6.9400000e+002    +2.6951977e-007
+6.9500000e+002    +1.3560064e-007
+6.9600000e+002    +4.8040152e-007
+6.9700000e+002    +7.5870105e-007
+6.9800000e+002    +8.5968912e-007
+6.9900000e+002    +6.3979769e-007
+7.0000000e+002    +7.9535295e-007
+7.0100000e+002    +1.2902289e-006
+7.0200000e+002    +1.4333147e-006
+7.0300000e+002    +9.1664691e-007
+7.0400000e+002    +4.8603971e-007
+7.0500000e+002    +5.4946213e-007
+7.0600000e+002    +7.2729489e-007
+7.0700000e+002    +5.6476995e-007
+7.0800000e+002    +3.8277364e-007
+7.0900000e+002    +5.3841097e-007
+7.1000000e+002    +5.7273303e-007
+7.1100000e+002    +1.7828776e-007
+7.1200000e+002    +4.7609629e-007
+7.1300000e+002    +7.8402519e-007
+7.1400000e+002    +5.1815920e-007
+7.1500000e+002    +3.7508162e-008
+7.1600000e+002    +1.5489937e-007
+7.1700000e+002    +4.4858129e-007
+7.1800000e+002    +4.1557553e-007
+7.1900000e+002    +8.9277449e-008
+7.2000000e+002    +6.0220208e-007
+7.2100000e+002    +8.1715046e-007
+7.2200000e+002    +6.7441840e-007
+7.2300000e+002    +4.5317677e-007
+7.2400000e+002    +6.6437451e-007
+7.2500000e+002    +9.8099929e-007
+7.2600000e+002    +9.6681629e-007
+7.2700000e+002    +5.6112941e-007
+7.2800000e+002    +1.8514920e-007
+7.2900000e+002    +5.7271541e-007
+7.3000000e+002    +6.9792634e-007
+7.3100000e+002    +1.1303679e-006
+7.3200000e+002    +1.1511742e-006
+7.3300000e+002    +7.7773041e-007
+7.3400000e+002    +7.6987340e-007
+7.3500000e+002    +2.9109966e-008
+7.3600000e+002    +5.3140627e-007
+7.3700000e+002    +7.0416797e-007
+7.3800000e+002    +4.0995144e-007
+7.3900000e+002    +4.3887772e-007
+7.4000000e+002    +3.1487863e-007
+7.4100000e+002    +1.7593713e-007
+7.4200000e+002    +3.2649314e-007
+7.4300000e+002    +4.2757043e-007
+7.4400000e+002    +8.7796877e-008
+7.4500000e+002    +5.2830029e-007
+7.4600000e+002    +6.8071881e-007
+7.4700000e+002    +8.0774493e-007
+7.4800000e+002    +1.0797680e-006
+7.4900000e+002    +8.5044923e-007
+7.5000000e+002    +2.7966314e-007
+7.5100000e+002    +5.4120193e-008
+7.5200000e+002    +6.0429505e-007
+7.5300000e+002    +7.9865373e-007
+7.5400000e+002    +8.4103715e-007
+7.5500000e+002    +2.8324158e-007
+7.5600000e+002    +9.6242729e-007
+7.5700000e+002    +6.3284756e-007
+7.5800000e+002    +2.0964204e-007
+7.5900000e+002    +3.0579153e-007
+7.6000000e+002    +4.8676014e-007
+7.6100000e+002    +5.6369635e-007
+7.6200000e+002    +9.3210383e-007
+7.6300000e+002    +6.9297005e-007
+7.6400000e+002    +5.3963606e-007
+7.6500000e+002    +5.5169158e-007
+7.6600000e+002    +4.2198550e-007
+7.6700000e+002    +2.3418511e-007
+7.6800000e+002    +2.3351267e-007
+7.6900000e+002    +3.4771278e-007
+7.7000000e+002    +2.8342919e-007
+7.7100000e+002    +2.2475945e-007
+7.7200000e+002    +1.3980558e-007
+7.7300000e+002    +2.9007234e-007
+7.7400000e+002    +4.5255126e-007
+7.7500000e+002    +1.0478565e-007
+7.7600000e+002    +5.6166624e-007
+7.7700000e+002    +7.4213989e-007
+7.7800000e+002    +5.3887999e-007
+7.7900000e+002    +5.3151598e-007
+7.8000000e+002    +1.1321800e-006
+7.8100000e+002    +4.7058330e-007
+7.8200000e+002    +5.7178676e-007
+7.8300000e+002    +2.1550458e-007
+7.8400000e+002    +5.8787657e-007
+7.8500000e+002    +7.0854674e-007
+7.8600000e+002    +7.7431122e-007
+7.8700000e+002    +3.7978714e-007
+7.8800000e+002    +1.1844451e-006
+7.8900000e+002    +9.3685532e-007
+7.9000000e+002    +4.2386429e-007
+7.9100000e+002    +2.6004307e-007
+7.9200000e+002    +3.9197931e-007
+7.9300000e+002    +3.1177080e-007
+7.9400000e+002    +1.4887949e-007
+7.9500000e+002    +3.6045051e-007
+7.9600000e+002    +4.4449826e-007
+7.9700000e+002    +2.1627068e-007
+7.9800000e+002    +4.2960093e-007
+7.9900000e+002    +6.4593212e-007
#
#
# SR785 Measurement - Timestamp: Mar 06 2020 - 18:25:08
# Parameter File: TransSpec2_S.yml
#---------- Measurement Setup ------------
# Start Frequency (Hz): 0.000000
# Frequency Span (Hz): 102400.000000
# Frequency Resolution: 800
# Number of Averages: 2
# Averaging Mode: None
# Window function: Hanning
#---------- Measurement Parameters ----------
# Measurement Group:  "FFT" "FFT"
# Measurements:  "FFT 1" "FFT 2"
# View:  "Log Magnitude" "Log Magnitude"
# Unit:  "Vrms/rtHz" "dBVpk"
#---------- Input Parameters ----------
# Input Source: Analog
# Input Mode: Single ended, Single ended
# Input Grounding: Float, Float
# Input Coupling: AC, AC
# Input Range: -24.0dBVpk, -34.0dBVpk
# Auto Range: Off, Off
# Auto Range Mode: Tracking, Tracking
# Anti-Aliasing Filter: On, On
#---------- Source Parameters ----------
# Source Type: Sine
# Source Amplitude: 500.0mVpk
# Source On: 0

#---------- Measurement Data ----------
# [Freq(Hz) Display 0(Vrms/rtHz) Display 1(dBVpk) ]
+8.9600000e+002    +2.5977311e-006
+1.0240000e+003    +1.8210890e-006
+1.1520000e+003    +1.5999076e-006
+1.2800000e+003    +5.7212964e-007
+1.4080000e+003    +2.6248244e-007
+1.5360000e+003    +3.2995233e-006
+1.6640000e+003    +3.8751268e-006
+1.7920000e+003    +2.8630698e-006
+1.9200000e+003    +1.3379182e-006
+2.0480000e+003    +1.0519765e-006
+2.1760000e+003    +8.8186704e-007
+2.3040000e+003    +1.1844216e-006
+2.4320000e+003    +1.3980159e-006
+2.5600000e+003    +6.2281521e-007
+2.6880000e+003    +2.7255694e-006
+2.8160000e+003    +2.6519649e-006
+2.9440000e+003    +7.1767522e-007
+3.0720000e+003    +6.7130009e-007
+3.2000000e+003    +1.8022400e-006
+3.3280000e+003    +9.0837329e-007
+3.4560000e+003    +4.1921058e-007
+3.5840000e+003    +1.0394937e-006
+3.7120000e+003    +1.6729266e-006
+3.8400000e+003    +3.9037859e-006
+3.9680000e+003    +2.7958333e-006
+4.0960000e+003    +2.2980985e-006
+4.2240000e+003    +4.9640489e-006
+4.3520000e+003    +6.2173913e-006
+4.4800000e+003    +4.0067107e-006
+4.6080000e+003    +2.2571601e-006
+4.7360000e+003    +2.3187831e-006
+4.8640000e+003    +2.1191577e-006
+4.9920000e+003    +1.8579046e-006
+5.1200000e+003    +1.3552162e-007
+5.2480000e+003    +2.1540452e-006
+5.3760000e+003    +2.3087484e-006
+5.5040000e+003    +8.0142161e-007
+5.6320000e+003    +4.3450595e-007
+5.7600000e+003    +1.4610553e-006
+5.8880000e+003    +1.1335196e-006
+6.0160000e+003    +2.2830091e-006
+6.1440000e+003    +2.2539282e-006
+6.2720000e+003    +3.1131860e-006
+6.4000000e+003    +7.6123098e-007
+6.5280000e+003    +4.3258192e-006
+6.6560000e+003    +7.0850083e-006
+6.7840000e+003    +7.6635997e-006
+6.9120000e+003    +2.2776737e-006
+7.0400000e+003    +5.4318070e-006
+7.1680000e+003    +5.8305804e-006
+7.2960000e+003    +3.6794793e-006
+7.4240000e+003    +7.9242336e-006
+7.5520000e+003    +8.2416509e-006
+7.6800000e+003    +1.3631014e-005
+7.8080000e+003    +6.8361214e-006
+7.9360000e+003    +8.3869490e-006
+8.0640000e+003    +7.9360134e-006
+8.1920000e+003    +1.3279765e-005
+8.3200000e+003    +5.4504526e-006
+8.4480000e+003    +3.7080956e-006
+8.5760000e+003    +8.7818762e-006
+8.7040000e+003    +9.3231165e-006
+8.8320000e+003    +5.5631322e-006
+8.9600000e+003    +1.8036377e-006
+9.0880000e+003    +1.1210437e-006
+9.2160000e+003    +4.0875902e-006
+9.3440000e+003    +4.5524739e-006
+9.4720000e+003    +4.3664850e-006
+9.6000000e+003    +5.0744507e-006
+9.7280000e+003    +3.4402847e-006
+9.8560000e+003    +4.8938487e-006
+9.9840000e+003    +6.6652260e-006
+1.0112000e+004    +7.6450096e-006
+1.0240000e+004    +4.7040612e-006
+1.0368000e+004    +3.5520488e-006
+1.0496000e+004    +4.7302524e-006
+1.0624000e+004    +4.4154863e-006
+1.0752000e+004    +3.8278245e-007
+1.0880000e+004    +2.6022985e-006
+1.1008000e+004    +3.9894853e-006
+1.1136000e+004    +1.6992864e-006
+1.1264000e+004    +1.2442257e-006
+1.1392000e+004    +3.1972315e-006
+1.1520000e+004    +4.7382678e-006
+1.1648000e+004    +3.7178186e-006
+1.1776000e+004    +1.8374922e-006
+1.1904000e+004    +3.2074352e-006
+1.2032000e+004    +5.1672127e-006
+1.2160000e+004    +3.0488136e-006
+1.2288000e+004    +1.4337223e-006
+1.2416000e+004    +1.4178519e-006
+1.2544000e+004    +3.0537349e-006
+1.2672000e+004    +3.4865245e-006
+1.2800000e+004    +4.0734908e-006
+1.2928000e+004    +2.1161352e-006
+1.3056000e+004    +2.1338108e-006
+1.3184000e+004    +2.3471591e-006
+1.3312000e+004    +2.2066540e-006
+1.3440000e+004    +1.2770219e-006
+1.3568000e+004    +3.8176086e-006
+1.3696000e+004    +4.3612285e-006
+1.3824000e+004    +4.0406794e-006
+1.3952000e+004    +5.6582388e-007
+1.4080000e+004    +2.1738604e-006
+1.4208000e+004    +3.4883242e-006
+1.4336000e+004    +5.2070109e-006
+1.4464000e+004    +6.2060217e-006
+1.4592000e+004    +4.9034438e-006
+1.4720000e+004    +2.4726260e-006
+1.4848000e+004    +4.3137816e-006
+1.4976000e+004    +6.5534955e-006
+1.5104000e+004    +6.5894992e-006
+1.5232000e+004    +3.2992336e-006
+1.5360000e+004    +1.6221326e-006
+1.5488000e+004    +3.7085069e-006
+1.5616000e+004    +5.1843294e-006
+1.5744000e+004    +2.8658249e-006
+1.5872000e+004    +3.6868717e-006
+1.6000000e+004    +6.6876788e-007
+1.6128000e+004    +1.8571826e-006
+1.6256000e+004    +4.0119271e-006
+1.6384000e+004    +3.9167085e-006
+1.6512000e+004    +3.6880983e-006
+1.6640000e+004    +5.1154152e-006
+1.6768000e+004    +5.3172666e-006
+1.6896000e+004    +3.4156249e-006
+1.7024000e+004    +1.2339732e-006
+1.7152000e+004    +1.7860928e-006
+1.7280000e+004    +4.1745370e-006
+1.7408000e+004    +3.5592634e-006
+1.7536000e+004    +1.9994980e-006
+1.7664000e+004    +9.4680422e-007
+1.7792000e+004    +4.1097264e-006
+1.7920000e+004    +3.3323117e-006
+1.8048000e+004    +1.3944073e-006
+1.8176000e+004    +2.6768248e-006
+1.8304000e+004    +3.7071227e-006
+1.8432000e+004    +4.8099159e-006
+1.8560000e+004    +2.3915647e-006
+1.8688000e+004    +1.0163078e-006
+1.8816000e+004    +1.7940350e-006
+1.8944000e+004    +1.6184482e-006
+1.9072000e+004    +1.5978080e-006
+1.9200000e+004    +5.0860303e-006
+1.9328000e+004    +6.4540536e-006
+1.9456000e+004    +5.4419852e-006
+1.9584000e+004    +1.8511262e-006
+1.9712000e+004    +1.1322472e-006
+1.9840000e+004    +1.1470044e-006
+1.9968000e+004    +5.6602703e-006
+2.0096000e+004    +4.3871391e-006
+2.0224000e+004    +7.8059287e-007
+2.0352000e+004    +2.9247599e-006
+2.0480000e+004    +4.8368615e-006
+2.0608000e+004    +4.2163815e-006
+2.0736000e+004    +5.0658941e-006
+2.0864000e+004    +4.1496228e-006
+2.0992000e+004    +1.0577478e-006
+2.1120000e+004    +2.4043604e-006
+2.1248000e+004    +2.9053131e-006
+2.1376000e+004    +2.3871469e-006
+2.1504000e+004    +3.6185145e-007
+2.1632000e+004    +3.3301353e-006
+2.1760000e+004    +3.9208949e-006
+2.1888000e+004    +2.2037680e-006
+2.2016000e+004    +5.5142146e-007
+2.2144000e+004    +1.3726803e-006
+2.2272000e+004    +3.2748330e-006
+2.2400000e+004    +1.0836493e-006
+2.2528000e+004    +2.8883796e-006
+2.2656000e+004    +3.2155874e-006
+2.2784000e+004    +1.8919736e-006
+2.2912000e+004    +1.7324390e-006
+2.3040000e+004    +2.9618584e-006
+2.3168000e+004    +4.5794400e-006
+2.3296000e+004    +4.9129608e-006
+2.3424000e+004    +3.0019578e-006
+2.3552000e+004    +3.2167879e-006
+2.3680000e+004    +2.2975460e-006
+2.3808000e+004    +4.5133206e-006
+2.3936000e+004    +2.4741496e-006
+2.4064000e+004    +3.7710747e-006
+2.4192000e+004    +4.3240811e-006
+2.4320000e+004    +3.5332114e-006
+2.4448000e+004    +4.9295277e-006
+2.4576000e+004    +5.2714031e-006
+2.4704000e+004    +2.8904701e-006
+2.4832000e+004    +2.8190129e-006
+2.4960000e+004    +3.0835151e-006
+2.5088000e+004    +3.8652684e-006
+2.5216000e+004    +2.0836453e-006
+2.5344000e+004    +2.5703696e-006
+2.5472000e+004    +3.7471239e-006
+2.5600000e+004    +5.5064465e-006
+2.5728000e+004    +2.1581477e-006
+2.5856000e+004    +5.7417360e-006
+2.5984000e+004    +7.5094804e-006
+2.6112000e+004    +2.8632930e-006
+2.6240000e+004    +3.8174912e-006
+2.6368000e+004    +6.4632582e-006
+2.6496000e+004    +7.1103900e-006
+2.6624000e+004    +5.5632540e-006
+2.6752000e+004    +3.3431334e-006
+2.6880000e+004    +1.4166460e-006
+2.7008000e+004    +6.1055212e-006
+2.7136000e+004    +4.7422545e-006
+2.7264000e+004    +6.3291354e-006
+2.7392000e+004    +4.3151695e-006
+2.7520000e+004    +2.3456444e-006
+2.7648000e+004    +1.9695601e-006
+2.7776000e+004    +2.9205880e-006
+2.7904000e+004    +2.3346217e-006
+2.8032000e+004    +1.7826897e-006
+2.8160000e+004    +2.2461143e-006
+2.8288000e+004    +3.0625254e-006
+2.8416000e+004    +3.9865645e-006
+2.8544000e+004    +3.1047750e-006
+2.8672000e+004    +2.9096034e-006
+2.8800000e+004    +9.7716054e-007
+2.8928000e+004    +2.3973064e-006
+2.9056000e+004    +1.5199055e-006
+2.9184000e+004    +3.3269121e-006
+2.9312000e+004    +1.0612982e-006
+2.9440000e+004    +1.3557102e-006
+2.9568000e+004    +5.5863420e-006
+2.9696000e+004    +6.0064699e-006
+2.9824000e+004    +1.8330932e-006
+2.9952000e+004    +1.8257778e-006
+3.0080000e+004    +7.1937848e-006
+3.0208000e+004    +9.9869430e-006
+3.0336000e+004    +9.0011108e-006
+3.0464000e+004    +4.8340530e-006
+3.0592000e+004    +5.1583702e-006
+3.0720000e+004    +5.3728954e-006
+3.0848000e+004    +7.8408029e-006
+3.0976000e+004    +7.7109744e-006
+3.1104000e+004    +4.3963296e-006
+3.1232000e+004    +2.9261796e-006
+3.1360000e+004    +3.4782277e-006
+3.1488000e+004    +4.5378720e-006
+3.1616000e+004    +5.4057182e-006
+3.1744000e+004    +7.8116900e-006
+3.1872000e+004    +7.5564835e-006
+3.2000000e+004    +3.0741480e-006
+3.2128000e+004    +4.8416859e-006
+3.2256000e+004    +6.6398802e-006
+3.2384000e+004    +5.0793838e-006
+3.2512000e+004    +3.2114522e-006
+3.2640000e+004    +3.4622858e-006
+3.2768000e+004    +3.9817878e-006
+3.2896000e+004    +2.9139258e-006
+3.3024000e+004    +7.3024748e-006
+3.3152000e+004    +8.5052116e-006
+3.3280000e+004    +7.5276994e-006
+3.3408000e+004    +4.4504864e-006
+3.3536000e+004    +4.6292095e-007
+3.3664000e+004    +2.3493506e-006
+3.3792000e+004    +1.9581278e-006
+3.3920000e+004    +4.8750354e-007
+3.4048000e+004    +3.3841563e-006
+3.4176000e+004    +2.7570579e-006
+3.4304000e+004    +2.4879389e-006
+3.4432000e+004    +2.8035888e-006
+3.4560000e+004    +1.6728255e-006
+3.4688000e+004    +4.5455863e-006
+3.4816000e+004    +4.3801842e-006
+3.4944000e+004    +3.8203216e-006
+3.5072000e+004    +4.2225201e-006
+3.5200000e+004    +3.2827963e-006
+3.5328000e+004    +4.9224745e-006
+3.5456000e+004    +5.8866844e-006
+3.5584000e+004    +2.7665553e-006
+3.5712000e+004    +1.0640891e-006
+3.5840000e+004    +3.9784098e-007
+3.5968000e+004    +3.0548852e-006
+3.6096000e+004    +2.4370324e-006
+3.6224000e+004    +2.0232246e-006
+3.6352000e+004    +2.6635644e-006
+3.6480000e+004    +2.6243865e-006
+3.6608000e+004    +4.9497680e-006
+3.6736000e+004    +7.1457648e-006
+3.6864000e+004    +6.1125570e-006
+3.6992000e+004    +4.5635038e-006
+3.7120000e+004    +7.4849581e-006
+3.7248000e+004    +2.6227101e-006
+3.7376000e+004    +4.5396359e-006
+3.7504000e+004    +6.4627402e-006
+3.7632000e+004    +5.6950489e-006
+3.7760000e+004    +5.3533518e-006
+3.7888000e+004    +6.5275499e-006
+3.8016000e+004    +5.7533789e-006
+3.8144000e+004    +4.7037720e-006
+3.8272000e+004    +4.1823732e-006
+3.8400000e+004    +4.2325091e-006
+3.8528000e+004    +1.3076939e-006
+3.8656000e+004    +2.3989653e-006
+3.8784000e+004    +6.9760690e-006
+3.8912000e+004    +2.7625063e-006
+3.9040000e+004    +3.8163598e-006
+3.9168000e+004    +4.1592334e-006
+3.9296000e+004    +4.5435204e-006
+3.9424000e+004    +3.3100932e-006
+3.9552000e+004    +1.5059686e-006
+3.9680000e+004    +2.7993995e-006
+3.9808000e+004    +2.8114709e-006
+3.9936000e+004    +2.4163196e-006
+4.0064000e+004    +5.2676596e-006
+4.0192000e+004    +4.3640548e-006
+4.0320000e+004    +2.3413832e-006
+4.0448000e+004    +4.3217838e-006
+4.0576000e+004    +3.6261547e-006
+4.0704000e+004    +2.5995371e-006
+4.0832000e+004    +4.5821662e-006
+4.0960000e+004    +6.4986166e-006
+4.1088000e+004    +5.7071989e-006
+4.1216000e+004    +4.6356181e-006
+4.1344000e+004    +2.3692839e-006
+4.1472000e+004    +3.1513284e-006
+4.1600000e+004    +8.8110437e-006
+4.1728000e+004    +3.4561594e-006
+4.1856000e+004    +2.3903572e-006
+4.1984000e+004    +7.9482306e-006
+4.2112000e+004    +3.8463490e-006
+4.2240000e+004    +3.1755617e-006
+4.2368000e+004    +2.6311639e-006
+4.2496000e+004    +3.8850062e-006
+4.2624000e+004    +3.8095400e-006
+4.2752000e+004    +6.2794093e-006
+4.2880000e+004    +5.3882968e-006
+4.3008000e+004    +5.1197699e-006
+4.3136000e+004    +5.4682009e-006
+4.3264000e+004    +2.2304844e-006
+4.3392000e+004    +4.4233470e-006
+4.3520000e+004    +7.4117984e-006
+4.3648000e+004    +5.1119173e-006
+4.3776000e+004    +2.0120706e-006
+4.3904000e+004    +6.2689110e-006
+4.4032000e+004    +5.7926013e-006
+4.4160000e+004    +7.4380487e-006
+4.4288000e+004    +2.9927564e-006
+4.4416000e+004    +5.6852964e-006
+4.4544000e+004    +1.2053518e-005
+4.4672000e+004    +1.0706566e-005
+4.4800000e+004    +1.0762396e-005
+4.4928000e+004    +5.8438663e-006
+4.5056000e+004    +4.2129759e-006
+4.5184000e+004    +2.8863917e-006
+4.5312000e+004    +5.5969140e-006
+4.5440000e+004    +3.0263748e-006
+4.5568000e+004    +2.5624120e-006
+4.5696000e+004    +2.4630342e-006
+4.5824000e+004    +2.1497569e-006
+4.5952000e+004    +3.6359502e-006
+4.6080000e+004    +2.7784852e-006
+4.6208000e+004    +1.1311078e-005
+4.6336000e+004    +1.0323225e-005
+4.6464000e+004    +5.7569555e-006
+4.6592000e+004    +1.2970650e-005
+4.6720000e+004    +6.9075568e-006
+4.6848000e+004    +1.2923285e-006
+4.6976000e+004    +8.4058111e-006
+4.7104000e+004    +1.0754931e-005
+4.7232000e+004    +4.3193359e-006
+4.7360000e+004    +3.3628364e-006
+4.7488000e+004    +9.1110614e-006
+4.7616000e+004    +8.3133573e-006
+4.7744000e+004    +5.4494112e-006
+4.7872000e+004    +2.6820112e-006
+4.8000000e+004    +2.6356570e-006
+4.8128000e+004    +6.5871559e-006
+4.8256000e+004    +6.8406566e-006
+4.8384000e+004    +3.7023026e-006
+4.8512000e+004    +1.2361429e-006
+4.8640000e+004    +6.9951134e-006
+4.8768000e+004    +5.0554149e-006
+4.8896000e+004    +6.1384840e-006
+4.9024000e+004    +2.4925184e-006
+4.9152000e+004    +2.9526370e-006
+4.9280000e+004    +1.0407499e-006
+4.9408000e+004    +2.0795612e-006
+4.9536000e+004    +2.5969468e-006
+4.9664000e+004    +4.7783756e-006
+4.9792000e+004    +1.0081669e-005
+4.9920000e+004    +1.0130513e-005
+5.0048000e+004    +7.1745380e-006
+5.0176000e+004    +4.4688973e-006
+5.0304000e+004    +5.4350285e-006
+5.0432000e+004    +7.0179071e-006
+5.0560000e+004    +4.6853861e-006
+5.0688000e+004    +4.3512850e-006
+5.0816000e+004    +3.1160553e-006
+5.0944000e+004    +1.1738420e-006
+5.1072000e+004    +1.4840017e-006
+5.1200000e+004    +3.5245787e-006
+5.1328000e+004    +7.5054495e-006
+5.1456000e+004    +6.4090855e-006
+5.1584000e+004    +1.4548172e-006
+5.1712000e+004    +4.9376313e-006
+5.1840000e+004    +6.5976078e-006
+5.1968000e+004    +6.9444154e-006
+5.2096000e+004    +1.3800399e-005
+5.2224000e+004    +1.0159106e-005
+5.2352000e+004    +3.0056649e-006
+5.2480000e+004    +4.2345869e-006
+5.2608000e+004    +3.4058396e-006
+5.2736000e+004    +4.1579506e-006
+5.2864000e+004    +6.5223630e-006
+5.2992000e+004    +8.7993167e-006
+5.3120000e+004    +1.0343159e-005
+5.3248000e+004    +7.6520637e-006
+5.3376000e+004    +4.5883485e-006
+5.3504000e+004    +4.9386285e-006
+5.3632000e+004    +4.6937685e-006
+5.3760000e+004    +2.2848824e-006
+5.3888000e+004    +3.5560447e-006
+5.4016000e+004    +8.3824752e-006
+5.4144000e+004    +9.7357515e-006
+5.4272000e+004    +1.0299235e-005
+5.4400000e+004    +7.1862219e-006
+5.4528000e+004    +5.7267580e-006
+5.4656000e+004    +1.3320288e-005
+5.4784000e+004    +8.9429905e-006
+5.4912000e+004    +6.3288921e-006
+5.5040000e+004    +1.0645589e-005
+5.5168000e+004    +1.1187984e-005
+5.5296000e+004    +1.2168165e-005
+5.5424000e+004    +6.9284451e-006
+5.5552000e+004    +5.9714544e-006
+5.5680000e+004    +9.0480580e-006
+5.5808000e+004    +1.1242337e-006
+5.5936000e+004    +1.3933131e-005
+5.6064000e+004    +1.1259025e-005
+5.6192000e+004    +8.2497263e-006
+5.6320000e+004    +9.6126032e-006
+5.6448000e+004    +6.8683748e-006
+5.6576000e+004    +4.7078070e-006
+5.6704000e+004    +7.4989916e-006
+5.6832000e+004    +9.5780788e-006
+5.6960000e+004    +1.0228813e-005
+5.7088000e+004    +5.8801861e-006
+5.7216000e+004    +2.6462408e-006
+5.7344000e+004    +8.3140421e-006
+5.7472000e+004    +6.3743614e-006
+5.7600000e+004    +1.0729113e-005
+5.7728000e+004    +1.7162669e-005
+5.7856000e+004    +9.3632370e-006
+5.7984000e+004    +4.2166084e-006
+5.8112000e+004    +5.7176667e-006
+5.8240000e+004    +7.3966771e-006
+5.8368000e+004    +4.8270786e-006
+5.8496000e+004    +8.4523999e-006
+5.8624000e+004    +1.4493343e-005
+5.8752000e+004    +1.0806682e-005
+5.8880000e+004    +9.3026456e-006
+5.9008000e+004    +1.3901316e-005
+5.9136000e+004    +8.6547288e-006
+5.9264000e+004    +1.3917260e-005
+5.9392000e+004    +1.1685106e-005
+5.9520000e+004    +1.1951270e-005
+5.9648000e+004    +6.8902109e-006
+5.9776000e+004    +8.1246080e-006
+5.9904000e+004    +1.0528847e-005
+6.0032000e+004    +8.9925461e-006
+6.0160000e+004    +3.1336319e-006
+6.0288000e+004    +4.8614161e-006
+6.0416000e+004    +1.1251647e-005
+6.0544000e+004    +5.9452864e-006
+6.0672000e+004    +5.2325145e-006
+6.0800000e+004    +4.6527412e-006
+6.0928000e+004    +1.0377330e-005
+6.1056000e+004    +1.5680820e-005
+6.1184000e+004    +7.8690309e-006
+6.1312000e+004    +7.3722485e-006
+6.1440000e+004    +3.8481398e-006
+6.1568000e+004    +1.5520494e-005
+6.1696000e+004    +1.5115329e-005
+6.1824000e+004    +1.1422563e-005
+6.1952000e+004    +1.2102371e-005
+6.2080000e+004    +1.5371612e-005
+6.2208000e+004    +1.9139978e-005
+6.2336000e+004    +1.1908529e-005
+6.2464000e+004    +2.7038911e-006
+6.2592000e+004    +3.5124215e-006
+6.2720000e+004    +6.5812060e-006
+6.2848000e+004    +3.7842478e-006
+6.2976000e+004    +6.4704509e-006
+6.3104000e+004    +1.3269490e-005
+6.3232000e+004    +1.7834180e-005
+6.3360000e+004    +1.7279937e-005
+6.3488000e+004    +1.0386084e-005
+6.3616000e+004    +9.9403833e-006
+6.3744000e+004    +9.3826147e-006
+6.3872000e+004    +6.0480947e-006
+6.4000000e+004    +4.4039434e-006
+6.4128000e+004    +6.0086991e-006
+6.4256000e+004    +1.2710488e-005
+6.4384000e+004    +2.4384217e-005
+6.4512000e+004    +1.5659829e-005
+6.4640000e+004    +1.0876436e-005
+6.4768000e+004    +1.8245273e-005
+6.4896000e+004    +1.0505625e-005
+6.5024000e+004    +4.7856265e-006
+6.5152000e+004    +5.8090272e-006
+6.5280000e+004    +9.1367465e-006
+6.5408000e+004    +2.4508625e-005
+6.5536000e+004    +2.2689850e-005
+6.5664000e+004    +1.0712481e-005
+6.5792000e+004    +3.1390969e-006
+6.5920000e+004    +4.1094604e-006
+6.6048000e+004    +6.5066488e-006
+6.6176000e+004    +1.0441630e-005
+6.6304000e+004    +1.4944287e-005
+6.6432000e+004    +5.6846347e-006
+6.6560000e+004    +6.0218754e-006
+6.6688000e+004    +7.4129784e-006
+6.6816000e+004    +4.1168078e-006
+6.6944000e+004    +8.2526067e-006
+6.7072000e+004    +6.4277183e-006
+6.7200000e+004    +8.4927260e-006
+6.7328000e+004    +9.0570429e-006
+6.7456000e+004    +1.4890237e-005
+6.7584000e+004    +5.2505156e-006
+6.7712000e+004    +8.0107584e-006
+6.7840000e+004    +1.4547021e-005
+6.7968000e+004    +8.4024341e-006
+6.8096000e+004    +4.9597834e-006
+6.8224000e+004    +3.7892787e-006
+6.8352000e+004    +3.3108131e-006
+6.8480000e+004    +3.5163996e-006
+6.8608000e+004    +1.1793439e-006
+6.8736000e+004    +3.1816483e-006
+6.8864000e+004    +4.1662447e-006
+6.8992000e+004    +2.2364973e-006
+6.9120000e+004    +6.4785550e-006
+6.9248000e+004    +1.8111747e-005
+6.9376000e+004    +2.3415427e-005
+6.9504000e+004    +1.6825126e-005
+6.9632000e+004    +8.0525133e-006
+6.9760000e+004    +1.6754228e-005
+6.9888000e+004    +1.2400021e-005
+7.0016000e+004    +9.6518816e-006
+7.0144000e+004    +2.3751625e-005
+7.0272000e+004    +1.4016508e-005
+7.0400000e+004    +4.4380722e-006
+7.0528000e+004    +7.7459772e-006
+7.0656000e+004    +1.6778473e-005
+7.0784000e+004    +1.4229360e-005
+7.0912000e+004    +4.2200404e-006
+7.1040000e+004    +8.7039398e-006
+7.1168000e+004    +2.9663627e-006
+7.1296000e+004    +1.0750103e-005
+7.1424000e+004    +9.6294734e-006
+7.1552000e+004    +6.3914545e-006
+7.1680000e+004    +1.6470174e-005
+7.1808000e+004    +1.0676562e-005
+7.1936000e+004    +5.3887761e-006
+7.2064000e+004    +1.0506029e-005
+7.2192000e+004    +1.3668226e-005
+7.2320000e+004    +8.2462211e-006
+7.2448000e+004    +7.6158376e-006
+7.2576000e+004    +3.6055503e-006
+7.2704000e+004    +1.1397396e-005
+7.2832000e+004    +1.5045968e-005
+7.2960000e+004    +8.2849820e-006
+7.3088000e+004    +5.9448425e-006
+7.3216000e+004    +2.7246388e-006
+7.3344000e+004    +1.0226791e-005
+7.3472000e+004    +1.2440441e-005
+7.3600000e+004    +1.1800862e-005
+7.3728000e+004    +8.2335464e-006
+7.3856000e+004    +1.8788946e-006
+7.3984000e+004    +3.9768988e-006
+7.4112000e+004    +8.7623821e-006
+7.4240000e+004    +9.3445760e-006
+7.4368000e+004    +5.3742110e-006
+7.4496000e+004    +7.3523952e-006
+7.4624000e+004    +6.2199651e-006
+7.4752000e+004    +5.2959131e-006
+7.4880000e+004    +9.7392476e-006
+7.5008000e+004    +1.0542242e-005
+7.5136000e+004    +1.7004491e-005
+7.5264000e+004    +1.7072531e-005
+7.5392000e+004    +1.1343601e-005
+7.5520000e+004    +1.3040664e-005
+7.5648000e+004    +1.5892698e-005
+7.5776000e+004    +8.1744474e-006
+7.5904000e+004    +6.3816865e-006
+7.6032000e+004    +9.1118618e-006
+7.6160000e+004    +2.1440501e-005
+7.6288000e+004    +4.2350515e-005
+7.6416000e+004    +1.8705685e-005
+7.6544000e+004    +3.2535195e-007
+7.6672000e+004    +5.1820475e-006
+7.6800000e+004    +6.6908005e-006
+7.6928000e+004    +4.4936360e-006
+7.7056000e+004    +9.1068614e-006
+7.7184000e+004    +1.3788554e-005
+7.7312000e+004    +4.2470656e-006
+7.7440000e+004    +1.5455604e-005
+7.7568000e+004    +1.2883164e-005
+7.7696000e+004    +9.2182754e-006
+7.7824000e+004    +1.2923626e-005
+7.7952000e+004    +1.4390766e-005
+7.8080000e+004    +1.2657206e-005
+7.8208000e+004    +1.3656420e-005
+7.8336000e+004    +2.3841896e-005
+7.8464000e+004    +2.5455731e-005
+7.8592000e+004    +1.8134868e-005
+7.8720000e+004    +1.0921659e-005
+7.8848000e+004    +1.6753695e-005
+7.8976000e+004    +1.7017153e-005
+7.9104000e+004    +2.1697755e-005
+7.9232000e+004    +2.4071524e-005
+7.9360000e+004    +1.7787110e-005
+7.9488000e+004    +1.1199205e-005
+7.9616000e+004    +1.3591187e-005
+7.9744000e+004    +1.5496333e-005
+7.9872000e+004    +1.0140462e-005
+8.0000000e+004    +9.1116617e-006
+8.0128000e+004    +2.4493909e-005
+8.0256000e+004    +2.2748045e-005
+8.0384000e+004    +2.0009409e-005
+8.0512000e+004    +2.7032647e-005
+8.0640000e+004    +1.7766986e-005
+8.0768000e+004    +1.3460472e-005
+8.0896000e+004    +2.4328379e-005
+8.1024000e+004    +2.6271686e-005
+8.1152000e+004    +2.7754941e-005
+8.1280000e+004    +2.6705924e-005
+8.1408000e+004    +1.7149106e-005
+8.1536000e+004    +8.8704874e-006
+8.1664000e+004    +1.1070228e-005
+8.1792000e+004    +8.8614252e-006
+8.1920000e+004    +3.5415189e-006
+8.2048000e+004    +7.2377234e-006
+8.2176000e+004    +1.5911834e-005
+8.2304000e+004    +1.6549933e-005
+8.2432000e+004    +1.8267463e-005
+8.2560000e+004    +2.5780770e-005
+8.2688000e+004    +1.8753230e-005
+8.2816000e+004    +1.1475057e-005
+8.2944000e+004    +9.0346666e-006
+8.3072000e+004    +6.2924396e-006
+8.3200000e+004    +8.2696870e-006
+8.3328000e+004    +5.7601865e-006
+8.3456000e+004    +6.7257197e-006
+8.3584000e+004    +1.8512990e-005
+8.3712000e+004    +1.7832261e-005
+8.3840000e+004    +1.5166665e-005
+8.3968000e+004    +1.8619276e-005
+8.4096000e+004    +1.5308166e-005
+8.4224000e+004    +1.2165507e-005
+8.4352000e+004    +1.8267943e-005
+8.4480000e+004    +1.4265433e-005
+8.4608000e+004    +1.7616116e-005
+8.4736000e+004    +2.7206241e-005
+8.4864000e+004    +2.7127615e-005
+8.4992000e+004    +1.9710182e-005
+8.5120000e+004    +1.3409477e-005
+8.5248000e+004    +1.6899554e-005
+8.5376000e+004    +1.6621811e-005
+8.5504000e+004    +1.1715630e-005
+8.5632000e+004    +2.0565869e-006
+8.5760000e+004    +2.8030379e-006
+8.5888000e+004    +1.1653971e-005
+8.6016000e+004    +1.1315003e-005
+8.6144000e+004    +9.3530234e-006
+8.6272000e+004    +1.6054575e-005
+8.6400000e+004    +1.5186594e-005
+8.6528000e+004    +9.4693623e-006
+8.6656000e+004    +2.4173625e-005
+8.6784000e+004    +2.2732065e-005
+8.6912000e+004    +1.0572648e-005
+8.7040000e+004    +1.6637056e-005
+8.7168000e+004    +1.3936511e-005
+8.7296000e+004    +1.1743679e-005
+8.7424000e+004    +2.4013740e-005
+8.7552000e+004    +1.6472524e-005
+8.7680000e+004    +8.2967708e-006
+8.7808000e+004    +3.0862079e-006
+8.7936000e+004    +1.0753372e-005
+8.8064000e+004    +3.7670522e-006
+8.8192000e+004    +1.8728126e-005
+8.8320000e+004    +1.2484651e-005
+8.8448000e+004    +1.5829204e-005
+8.8576000e+004    +1.1050700e-005
+8.8704000e+004    +2.4296452e-005
+8.8832000e+004    +2.5740099e-005
+8.8960000e+004    +1.3140021e-005
+8.9088000e+004    +1.5554580e-005
+8.9216000e+004    +7.6945926e-006
+8.9344000e+004    +1.1998510e-005
+8.9472000e+004    +1.4156742e-005
+8.9600000e+004    +1.0547974e-005
+8.9728000e+004    +1.4088268e-005
+8.9856000e+004    +7.9574775e-006
+8.9984000e+004    +2.2109127e-005
+9.0112000e+004    +8.8722800e-006
+9.0240000e+004    +1.3541586e-005
+9.0368000e+004    +2.8702460e-005
+9.0496000e+004    +2.6703960e-005
+9.0624000e+004    +1.1707220e-005
+9.0752000e+004    +1.1070459e-005
+9.0880000e+004    +9.9993190e-007
+9.1008000e+004    +1.4309529e-005
+9.1136000e+004    +2.8266499e-005
+9.1264000e+004    +2.7285934e-005
+9.1392000e+004    +8.9044552e-006
+9.1520000e+004    +1.6148557e-005
+9.1648000e+004    +2.2106215e-005
+9.1776000e+004    +1.6956408e-005
+9.1904000e+004    +1.8006083e-005
+9.2032000e+004    +1.4081000e-005
+9.2160000e+004    +3.0379802e-005
+9.2288000e+004    +2.6211297e-005
+9.2416000e+004    +1.0007051e-005
+9.2544000e+004    +1.1098572e-005
+9.2672000e+004    +7.9598285e-006
+9.2800000e+004    +2.1305452e-005
+9.2928000e+004    +3.6762769e-005
+9.3056000e+004    +2.4366873e-005
+9.3184000e+004    +1.5155844e-005
+9.3312000e+004    +1.3967808e-005
+9.3440000e+004    +1.2304084e-005
+9.3568000e+004    +9.9604640e-006
+9.3696000e+004    +2.1690228e-005
+9.3824000e+004    +9.2378204e-006
+9.3952000e+004    +2.7794340e-005
+9.4080000e+004    +4.6016572e-005
+9.4208000e+004    +2.2916205e-005
+9.4336000e+004    +3.8501599e-005
+9.4464000e+004    +3.5829577e-005
+9.4592000e+004    +1.2656094e-005
+9.4720000e+004    +4.8863321e-006
+9.4848000e+004    +8.2965153e-006
+9.4976000e+004    +2.7622847e-005
+9.5104000e+004    +5.7022444e-005
+9.5232000e+004    +5.0268602e-005
+9.5360000e+004    +1.1365854e-005
+9.5488000e+004    +1.6628637e-006
+9.5616000e+004    +5.0591743e-006
+9.5744000e+004    +6.1490141e-006
+9.5872000e+004    +1.4260766e-005
+9.6000000e+004    +3.3527973e-005
+9.6128000e+004    +5.0210187e-005
+9.6256000e+004    +3.4345103e-005
+9.6384000e+004    +6.4520982e-006
+9.6512000e+004    +1.2729622e-005
+9.6640000e+004    +2.5954929e-005
+9.6768000e+004    +2.2812324e-005
+9.6896000e+004    +9.4369898e-006
+9.7024000e+004    +8.0004220e-006
+9.7152000e+004    +7.9271922e-006
+9.7280000e+004    +1.0105950e-005
+9.7408000e+004    +1.7869499e-005
+9.7536000e+004    +1.2070907e-005
+9.7664000e+004    +2.1313499e-006
+9.7792000e+004    +4.0715994e-007
+9.7920000e+004    +1.0681310e-006
+9.8048000e+004    +1.1024620e-005
+9.8176000e+004    +1.1890760e-005
+9.8304000e+004    +1.1792507e-005
+9.8432000e+004    +2.7387565e-005
+9.8560000e+004    +2.2578515e-005
+9.8688000e+004    +9.6414169e-006
+9.8816000e+004    +2.4513711e-005
+9.8944000e+004    +2.4234589e-006
+9.9072000e+004    +1.1478824e-005
+9.9200000e+004    +1.2589639e-005
+9.9328000e+004    +1.9230280e-005
+9.9456000e+004    +2.0897305e-005
+9.9584000e+004    +1.1198455e-005
+9.9712000e+004    +2.9478819e-005
+9.9840000e+004    +2.5731904e-005
+9.9968000e+004    +3.2311917e-005
+1.0009600e+005    +2.5966901e-005
+1.0022400e+005    +3.0926629e-005
+1.0035200e+005    +3.6193451e-005
+1.0048000e+005    +6.4337551e-006
+1.0060800e+005    +4.2619857e-005
+1.0073600e+005    +3.7583188e-005
+1.0086400e+005    +4.2083204e-005
+1.0099200e+005    +3.8687711e-005
+1.0112000e+005    +2.2996837e-005
+1.0124800e+005    +6.7897663e-006
+1.0137600e+005    +1.2111065e-005
+1.0150400e+005    +8.5512802e-006
+1.0163200e+005    +1.9918136e-005
+1.0176000e+005    +1.5517036e-005
+1.0188800e+005    +1.2454121e-005
+1.0201600e+005    +3.9621282e-005
+1.0214400e+005    +2.6142605e-005
+1.0227200e+005    +5.9911363e-006
