# DC Val: 0.70974291
# SR785 Measurement - Timestamp: Mar 05 2020 - 23:09:15
# Parameter File: TransSpec1.yml
#---------- Measurement Setup ------------
# Start Frequency (Hz): 0.000000
# Frequency Span (Hz): 800.000000
# Frequency Resolution: 800
# Number of Averages: 2
# Averaging Mode: None
# Window function: Hanning
#---------- Measurement Parameters ----------
# Measurement Group:  "FFT" "FFT"
# Measurements:  "FFT 1" "FFT 2"
# View:  "Log Magnitude" "Log Magnitude"
# Unit:  "Vrms/rtHz" "dBVpk"
#---------- Input Parameters ----------
# Input Source: Analog
# Input Mode: Single ended, Single ended
# Input Grounding: Float, Float
# Input Coupling: AC, AC
# Input Range: -36.0dBVpk, -34.0dBVpk
# Auto Range: Off, Off
# Auto Range Mode: Tracking, Tracking
# Anti-Aliasing Filter: On, On
#---------- Source Parameters ----------
# Source Type: Sine
# Source Amplitude: 500.0mVpk
# Source On: 0

#---------- Measurement Data ----------
# [Freq(Hz) Display 0(Vrms/rtHz) Display 1(dBVpk) ]
+0.0000000e+000    +1.1999867e-003
+1.0000000e+000    +1.3037400e-003
+2.0000000e+000    +8.7640225e-004
+3.0000000e+000    +2.7318174e-004
+4.0000000e+000    +3.2581901e-004
+5.0000000e+000    +3.1940686e-004
+6.0000000e+000    +1.9146240e-004
+7.0000000e+000    +7.4578871e-005
+8.0000000e+000    +7.2959432e-005
+9.0000000e+000    +9.2169699e-005
+1.0000000e+001    +8.1832659e-005
+1.1000000e+001    +6.0092598e-006
+1.2000000e+001    +5.0335762e-005
+1.3000000e+001    +2.6695750e-005
+1.4000000e+001    +5.7485107e-005
+1.5000000e+001    +3.4279252e-005
+1.6000000e+001    +1.3935241e-005
+1.7000000e+001    +1.4173445e-005
+1.8000000e+001    +6.9571988e-006
+1.9000000e+001    +1.7269827e-005
+2.0000000e+001    +8.2889674e-006
+2.1000000e+001    +1.7754019e-005
+2.2000000e+001    +1.2563664e-005
+2.3000000e+001    +1.0451885e-005
+2.4000000e+001    +9.0977364e-006
+2.5000000e+001    +1.5485975e-005
+2.6000000e+001    +1.1384914e-005
+2.7000000e+001    +1.1053018e-005
+2.8000000e+001    +1.1781908e-005
+2.9000000e+001    +5.6342474e-006
+3.0000000e+001    +9.9303807e-006
+3.1000000e+001    +6.9613325e-006
+3.2000000e+001    +9.7795155e-006
+3.3000000e+001    +4.4316889e-006
+3.4000000e+001    +1.2477210e-005
+3.5000000e+001    +1.2938917e-005
+3.6000000e+001    +6.2285212e-006
+3.7000000e+001    +7.1181698e-006
+3.8000000e+001    +4.4440017e-006
+3.9000000e+001    +9.1455086e-006
+4.0000000e+001    +1.4823961e-005
+4.1000000e+001    +7.1428235e-006
+4.2000000e+001    +4.2513761e-006
+4.3000000e+001    +2.4475469e-006
+4.4000000e+001    +4.6642854e-006
+4.5000000e+001    +1.7323667e-006
+4.6000000e+001    +5.1142583e-006
+4.7000000e+001    +1.1848275e-005
+4.8000000e+001    +1.2320563e-005
+4.9000000e+001    +6.9439811e-006
+5.0000000e+001    +8.3919413e-006
+5.1000000e+001    +5.3785498e-006
+5.2000000e+001    +2.5413115e-006
+5.3000000e+001    +1.9847078e-006
+5.4000000e+001    +7.9214760e-006
+5.5000000e+001    +2.6649452e-006
+5.6000000e+001    +8.1847220e-006
+5.7000000e+001    +5.1345414e-006
+5.8000000e+001    +4.0137024e-006
+5.9000000e+001    +4.3852224e-006
+6.0000000e+001    +4.6571208e-006
+6.1000000e+001    +3.9783181e-006
+6.2000000e+001    +2.2756415e-006
+6.3000000e+001    +2.1585436e-006
+6.4000000e+001    +3.0034118e-006
+6.5000000e+001    +4.5835195e-006
+6.6000000e+001    +5.2971054e-006
+6.7000000e+001    +7.0195565e-006
+6.8000000e+001    +4.2589168e-006
+6.9000000e+001    +3.3286037e-006
+7.0000000e+001    +3.1041616e-006
+7.1000000e+001    +1.9076429e-006
+7.2000000e+001    +1.0043993e-006
+7.3000000e+001    +2.1303299e-006
+7.4000000e+001    +3.7108366e-006
+7.5000000e+001    +3.1368986e-006
+7.6000000e+001    +3.1504740e-006
+7.7000000e+001    +3.6034330e-006
+7.8000000e+001    +4.2118891e-006
+7.9000000e+001    +4.2607130e-006
+8.0000000e+001    +3.5040666e-006
+8.1000000e+001    +2.2832824e-006
+8.2000000e+001    +2.9475939e-006
+8.3000000e+001    +4.4468961e-006
+8.4000000e+001    +5.2653872e-006
+8.5000000e+001    +3.7771454e-006
+8.6000000e+001    +3.4691845e-006
+8.7000000e+001    +2.8995896e-006
+8.8000000e+001    +2.5788725e-006
+8.9000000e+001    +2.0075513e-006
+9.0000000e+001    +1.9521151e-006
+9.1000000e+001    +1.2426448e-006
+9.2000000e+001    +2.6139878e-006
+9.3000000e+001    +3.5935277e-006
+9.4000000e+001    +2.7343156e-006
+9.5000000e+001    +2.6103626e-006
+9.6000000e+001    +3.3274125e-006
+9.7000000e+001    +3.8953854e-006
+9.8000000e+001    +3.4137688e-006
+9.9000000e+001    +2.8536076e-006
+1.0000000e+002    +1.8967762e-006
+1.0100000e+002    +1.5827432e-006
+1.0200000e+002    +1.5250590e-006
+1.0300000e+002    +1.9098266e-006
+1.0400000e+002    +1.6528015e-006
+1.0500000e+002    +1.7499813e-006
+1.0600000e+002    +1.4886118e-006
+1.0700000e+002    +1.3073997e-006
+1.0800000e+002    +8.6514990e-007
+1.0900000e+002    +8.1971052e-008
+1.1000000e+002    +6.1087599e-007
+1.1100000e+002    +1.6864354e-006
+1.1200000e+002    +2.2697848e-006
+1.1300000e+002    +2.1044598e-006
+1.1400000e+002    +1.3093160e-006
+1.1500000e+002    +1.5392875e-006
+1.1600000e+002    +1.8377141e-006
+1.1700000e+002    +2.0120617e-006
+1.1800000e+002    +1.8462629e-006
+1.1900000e+002    +5.3147045e-007
+1.2000000e+002    +1.2653121e-006
+1.2100000e+002    +2.2719266e-006
+1.2200000e+002    +2.1576075e-006
+1.2300000e+002    +9.2193380e-007
+1.2400000e+002    +4.6546674e-007
+1.2500000e+002    +6.6922991e-007
+1.2600000e+002    +1.0416976e-006
+1.2700000e+002    +1.1735842e-006
+1.2800000e+002    +1.6446537e-006
+1.2900000e+002    +1.7757352e-006
+1.3000000e+002    +1.8916122e-006
+1.3100000e+002    +1.3824982e-006
+1.3200000e+002    +1.1612154e-006
+1.3300000e+002    +7.6450516e-007
+1.3400000e+002    +5.0376951e-007
+1.3500000e+002    +7.2975297e-007
+1.3600000e+002    +4.8004352e-007
+1.3700000e+002    +7.8173446e-007
+1.3800000e+002    +9.8265184e-007
+1.3900000e+002    +1.9249842e-006
+1.4000000e+002    +2.0496370e-006
+1.4100000e+002    +9.2667926e-007
+1.4200000e+002    +5.7591114e-007
+1.4300000e+002    +3.7538030e-007
+1.4400000e+002    +7.8839918e-007
+1.4500000e+002    +9.5639666e-007
+1.4600000e+002    +1.0496656e-006
+1.4700000e+002    +7.6318508e-007
+1.4800000e+002    +4.7137294e-007
+1.4900000e+002    +5.5828224e-007
+1.5000000e+002    +4.3232455e-007
+1.5100000e+002    +2.1028153e-007
+1.5200000e+002    +2.0954469e-007
+1.5300000e+002    +1.5273363e-007
+1.5400000e+002    +7.9450461e-007
+1.5500000e+002    +9.7043005e-007
+1.5600000e+002    +7.9388462e-007
+1.5700000e+002    +5.8168837e-007
+1.5800000e+002    +1.6230928e-007
+1.5900000e+002    +7.4672363e-007
+1.6000000e+002    +5.7615398e-007
+1.6100000e+002    +3.8337549e-007
+1.6200000e+002    +6.0367967e-007
+1.6300000e+002    +7.3504418e-007
+1.6400000e+002    +5.9484597e-007
+1.6500000e+002    +5.9032601e-007
+1.6600000e+002    +8.0260861e-007
+1.6700000e+002    +6.0722482e-007
+1.6800000e+002    +3.3912383e-007
+1.6900000e+002    +3.3874687e-007
+1.7000000e+002    +4.2536689e-007
+1.7100000e+002    +3.9243534e-007
+1.7200000e+002    +4.5381560e-007
+1.7300000e+002    +5.1700675e-007
+1.7400000e+002    +1.1058589e-006
+1.7500000e+002    +1.0072451e-006
+1.7600000e+002    +5.7766346e-007
+1.7700000e+002    +4.3982513e-007
+1.7800000e+002    +5.2083664e-007
+1.7900000e+002    +7.5546586e-007
+1.8000000e+002    +5.9455016e-007
+1.8100000e+002    +3.3355511e-007
+1.8200000e+002    +2.1861224e-007
+1.8300000e+002    +1.8290643e-007
+1.8400000e+002    +4.4725886e-007
+1.8500000e+002    +4.5826692e-007
+1.8600000e+002    +3.7434640e-007
+1.8700000e+002    +2.9800015e-007
+1.8800000e+002    +4.4194391e-007
+1.8900000e+002    +4.7868826e-007
+1.9000000e+002    +9.1142033e-007
+1.9100000e+002    +5.8728756e-007
+1.9200000e+002    +3.4557192e-007
+1.9300000e+002    +7.4154451e-007
+1.9400000e+002    +6.5918221e-007
+1.9500000e+002    +3.6539350e-007
+1.9600000e+002    +1.2962920e-007
+1.9700000e+002    +3.0192490e-007
+1.9800000e+002    +5.1304050e-007
+1.9900000e+002    +3.1347125e-007
+2.0000000e+002    +2.0107875e-007
+2.0100000e+002    +4.2658010e-007
+2.0200000e+002    +6.7121164e-007
+2.0300000e+002    +6.9593148e-007
+2.0400000e+002    +2.0869584e-007
+2.0500000e+002    +2.8522922e-007
+2.0600000e+002    +3.9208220e-007
+2.0700000e+002    +4.3953403e-007
+2.0800000e+002    +4.3883048e-007
+2.0900000e+002    +1.6251471e-007
+2.1000000e+002    +2.3468860e-007
+2.1100000e+002    +3.8302335e-007
+2.1200000e+002    +1.1722334e-007
+2.1300000e+002    +4.8344828e-007
+2.1400000e+002    +4.7692714e-007
+2.1500000e+002    +3.6764666e-007
+2.1600000e+002    +4.4087091e-007
+2.1700000e+002    +1.3887525e-007
+2.1800000e+002    +3.6519978e-007
+2.1900000e+002    +2.1665095e-007
+2.2000000e+002    +2.1104319e-007
+2.2100000e+002    +2.4280212e-007
+2.2200000e+002    +3.0789548e-007
+2.2300000e+002    +1.7717214e-007
+2.2400000e+002    +1.2704321e-007
+2.2500000e+002    +1.9898616e-007
+2.2600000e+002    +3.2941807e-007
+2.2700000e+002    +3.3624525e-007
+2.2800000e+002    +4.0342292e-007
+2.2900000e+002    +2.6678873e-007
+2.3000000e+002    +6.4968617e-008
+2.3100000e+002    +1.6071895e-007
+2.3200000e+002    +2.0082767e-007
+2.3300000e+002    +2.1092227e-007
+2.3400000e+002    +1.2648398e-007
+2.3500000e+002    +2.6813194e-007
+2.3600000e+002    +1.3618762e-007
+2.3700000e+002    +4.4151759e-007
+2.3800000e+002    +4.4103598e-007
+2.3900000e+002    +4.8089072e-007
+2.4000000e+002    +7.1869323e-007
+2.4100000e+002    +3.0426335e-007
+2.4200000e+002    +2.2111385e-007
+2.4300000e+002    +2.7609627e-007
+2.4400000e+002    +2.1690634e-007
+2.4500000e+002    +7.2478230e-008
+2.4600000e+002    +5.3765721e-008
+2.4700000e+002    +3.1258898e-007
+2.4800000e+002    +2.7599594e-007
+2.4900000e+002    +2.1964703e-007
+2.5000000e+002    +3.7761293e-007
+2.5100000e+002    +4.1454834e-007
+2.5200000e+002    +3.4460234e-007
+2.5300000e+002    +3.3566761e-007
+2.5400000e+002    +2.4017010e-007
+2.5500000e+002    +1.3362138e-007
+2.5600000e+002    +1.8332945e-007
+2.5700000e+002    +8.4767116e-008
+2.5800000e+002    +2.0852131e-007
+2.5900000e+002    +1.0076180e-007
+2.6000000e+002    +2.2551610e-007
+2.6100000e+002    +3.9113797e-007
+2.6200000e+002    +4.2134383e-007
+2.6300000e+002    +1.4925052e-007
+2.6400000e+002    +1.2121974e-007
+2.6500000e+002    +2.1813008e-007
+2.6600000e+002    +3.7864547e-007
+2.6700000e+002    +4.5864647e-007
+2.6800000e+002    +3.3063810e-007
+2.6900000e+002    +3.0681626e-008
+2.7000000e+002    +1.3798731e-007
+2.7100000e+002    +1.6486547e-008
+2.7200000e+002    +2.0081180e-007
+2.7300000e+002    +1.4784170e-007
+2.7400000e+002    +1.1419554e-007
+2.7500000e+002    +9.6405806e-008
+2.7600000e+002    +3.1493983e-007
+2.7700000e+002    +1.6073642e-007
+2.7800000e+002    +1.2233873e-007
+2.7900000e+002    +2.5528166e-007
+2.8000000e+002    +2.5086320e-007
+2.8100000e+002    +1.6385400e-007
+2.8200000e+002    +6.4704366e-008
+2.8300000e+002    +2.7750888e-008
+2.8400000e+002    +6.3316726e-008
+2.8500000e+002    +1.9958547e-007
+2.8600000e+002    +1.7242942e-007
+2.8700000e+002    +4.6512902e-008
+2.8800000e+002    +1.8733493e-007
+2.8900000e+002    +2.5127864e-007
+2.9000000e+002    +5.0088721e-007
+2.9100000e+002    +3.4735564e-007
+2.9200000e+002    +2.8931152e-007
+2.9300000e+002    +1.7897382e-007
+2.9400000e+002    +3.4589422e-007
+2.9500000e+002    +3.7848503e-007
+2.9600000e+002    +5.0320676e-008
+2.9700000e+002    +1.0607495e-007
+2.9800000e+002    +2.0739861e-007
+2.9900000e+002    +2.8534919e-007
+3.0000000e+002    +1.6007105e-007
+3.0100000e+002    +6.0390569e-008
+3.0200000e+002    +3.9616019e-008
+3.0300000e+002    +5.6368460e-008
+3.0400000e+002    +1.4158421e-007
+3.0500000e+002    +1.0032586e-007
+3.0600000e+002    +2.3102446e-007
+3.0700000e+002    +7.3315569e-008
+3.0800000e+002    +2.4444128e-007
+3.0900000e+002    +3.1041887e-007
+3.1000000e+002    +2.0336320e-007
+3.1100000e+002    +1.4271558e-007
+3.1200000e+002    +2.7858684e-007
+3.1300000e+002    +1.9890599e-007
+3.1400000e+002    +2.2362762e-007
+3.1500000e+002    +2.9611169e-007
+3.1600000e+002    +4.2009893e-007
+3.1700000e+002    +3.5363590e-007
+3.1800000e+002    +1.7005163e-007
+3.1900000e+002    +9.1287653e-008
+3.2000000e+002    +4.8695043e-008
+3.2100000e+002    +2.4903494e-007
+3.2200000e+002    +2.7003753e-007
+3.2300000e+002    +2.3422343e-008
+3.2400000e+002    +1.3696739e-007
+3.2500000e+002    +2.9059640e-007
+3.2600000e+002    +3.3908660e-007
+3.2700000e+002    +1.9981417e-007
+3.2800000e+002    +2.0402452e-007
+3.2900000e+002    +2.8163649e-007
+3.3000000e+002    +2.2562234e-007
+3.3100000e+002    +2.7504004e-007
+3.3200000e+002    +3.1471583e-007
+3.3300000e+002    +2.1800366e-007
+3.3400000e+002    +1.0504241e-007
+3.3500000e+002    +8.9482455e-008
+3.3600000e+002    +2.7406003e-007
+3.3700000e+002    +1.7948094e-007
+3.3800000e+002    +3.2476663e-007
+3.3900000e+002    +2.0071349e-007
+3.4000000e+002    +1.5691568e-007
+3.4100000e+002    +1.6943865e-007
+3.4200000e+002    +2.3751885e-007
+3.4300000e+002    +3.8382026e-007
+3.4400000e+002    +1.0205446e-007
+3.4500000e+002    +2.8657587e-007
+3.4600000e+002    +2.9964323e-007
+3.4700000e+002    +1.8318296e-007
+3.4800000e+002    +2.8161051e-007
+3.4900000e+002    +2.0383622e-007
+3.5000000e+002    +1.5057471e-007
+3.5100000e+002    +1.7623623e-007
+3.5200000e+002    +2.2546658e-007
+3.5300000e+002    +7.8575219e-008
+3.5400000e+002    +1.5058528e-007
+3.5500000e+002    +1.9623850e-007
+3.5600000e+002    +3.8221759e-007
+3.5700000e+002    +3.5827765e-007
+3.5800000e+002    +1.1132525e-007
+3.5900000e+002    +4.0314353e-007
+3.6000000e+002    +4.9121303e-007
+3.6100000e+002    +2.6072462e-007
+3.6200000e+002    +2.3300097e-007
+3.6300000e+002    +1.4104999e-007
+3.6400000e+002    +1.2041825e-007
+3.6500000e+002    +3.0312165e-007
+3.6600000e+002    +4.4485662e-007
+3.6700000e+002    +2.9290788e-007
+3.6800000e+002    +2.2314934e-007
+3.6900000e+002    +9.8066657e-008
+3.7000000e+002    +1.0560118e-007
+3.7100000e+002    +9.5960580e-008
+3.7200000e+002    +2.7600413e-007
+3.7300000e+002    +3.4000183e-007
+3.7400000e+002    +1.7045971e-007
+3.7500000e+002    +1.7997407e-007
+3.7600000e+002    +2.0919987e-007
+3.7700000e+002    +5.0110117e-008
+3.7800000e+002    +1.8470109e-007
+3.7900000e+002    +2.7690990e-007
+3.8000000e+002    +2.0932187e-007
+3.8100000e+002    +1.5975203e-007
+3.8200000e+002    +8.7314582e-008
+3.8300000e+002    +9.7416965e-008
+3.8400000e+002    +1.9517678e-007
+3.8500000e+002    +9.1348205e-008
+3.8600000e+002    +1.0080495e-007
+3.8700000e+002    +2.6600486e-007
+3.8800000e+002    +2.1340358e-007
+3.8900000e+002    +1.4972142e-007
+3.9000000e+002    +9.8896535e-008
+3.9100000e+002    +1.4411670e-007
+3.9200000e+002    +1.7756729e-007
+3.9300000e+002    +2.1155545e-007
+3.9400000e+002    +3.5333045e-007
+3.9500000e+002    +3.2237818e-007
+3.9600000e+002    +9.8191528e-008
+3.9700000e+002    +1.5306267e-007
+3.9800000e+002    +3.9458266e-007
+3.9900000e+002    +3.1523425e-007
+4.0000000e+002    +2.4593024e-007
+4.0100000e+002    +2.5790737e-007
+4.0200000e+002    +4.1304766e-008
+4.0300000e+002    +7.3514023e-008
+4.0400000e+002    +1.0921299e-007
+4.0500000e+002    +1.8369697e-007
+4.0600000e+002    +6.7241835e-008
+4.0700000e+002    +1.8182340e-007
+4.0800000e+002    +2.7677433e-007
+4.0900000e+002    +1.6723041e-007
+4.1000000e+002    +2.9479855e-007
+4.1100000e+002    +3.2140096e-007
+4.1200000e+002    +3.1927169e-007
+4.1300000e+002    +2.0448897e-007
+4.1400000e+002    +8.5291980e-008
+4.1500000e+002    +9.0984656e-008
+4.1600000e+002    +5.2840122e-008
+4.1700000e+002    +1.1239066e-007
+4.1800000e+002    +2.4664791e-007
+4.1900000e+002    +3.0719414e-007
+4.2000000e+002    +1.9278798e-007
+4.2100000e+002    +1.9865087e-007
+4.2200000e+002    +2.8079265e-007
+4.2300000e+002    +2.0579671e-007
+4.2400000e+002    +1.2416288e-007
+4.2500000e+002    +1.8694679e-007
+4.2600000e+002    +3.1485408e-007
+4.2700000e+002    +1.9808240e-007
+4.2800000e+002    +1.5958811e-007
+4.2900000e+002    +2.0486472e-007
+4.3000000e+002    +8.0825686e-008
+4.3100000e+002    +1.7655637e-007
+4.3200000e+002    +1.6291078e-007
+4.3300000e+002    +1.7421173e-007
+4.3400000e+002    +1.4941710e-007
+4.3500000e+002    +1.3509019e-007
+4.3600000e+002    +2.2628574e-007
+4.3700000e+002    +1.8216669e-007
+4.3800000e+002    +2.3355011e-007
+4.3900000e+002    +1.9084096e-007
+4.4000000e+002    +1.6072053e-007
+4.4100000e+002    +1.1718486e-007
+4.4200000e+002    +5.9280719e-008
+4.4300000e+002    +1.6624622e-008
+4.4400000e+002    +9.9542213e-008
+4.4500000e+002    +2.1561441e-008
+4.4600000e+002    +1.9020315e-007
+4.4700000e+002    +2.8767326e-007
+4.4800000e+002    +1.8595394e-007
+4.4900000e+002    +8.7496538e-008
+4.5000000e+002    +1.1247226e-007
+4.5100000e+002    +7.1928845e-008
+4.5200000e+002    +1.3824375e-007
+4.5300000e+002    +1.3504555e-007
+4.5400000e+002    +1.6078532e-007
+4.5500000e+002    +9.6025396e-008
+4.5600000e+002    +8.0576257e-008
+4.5700000e+002    +8.4720504e-008
+4.5800000e+002    +1.8486564e-007
+4.5900000e+002    +3.8214878e-007
+4.6000000e+002    +1.9378840e-007
+4.6100000e+002    +1.0573588e-007
+4.6200000e+002    +1.2295818e-007
+4.6300000e+002    +1.5804024e-007
+4.6400000e+002    +1.7448376e-007
+4.6500000e+002    +2.5082187e-007
+4.6600000e+002    +2.1918208e-007
+4.6700000e+002    +4.6201002e-008
+4.6800000e+002    +7.6395303e-008
+4.6900000e+002    +7.7119402e-008
+4.7000000e+002    +1.8106496e-007
+4.7100000e+002    +3.5106709e-007
+4.7200000e+002    +2.4288397e-007
+4.7300000e+002    +1.1455280e-007
+4.7400000e+002    +1.8033961e-007
+4.7500000e+002    +1.7890368e-007
+4.7600000e+002    +1.0635998e-007
+4.7700000e+002    +1.3995056e-007
+4.7800000e+002    +1.0608706e-007
+4.7900000e+002    +2.7189250e-007
+4.8000000e+002    +2.7438460e-007
+4.8100000e+002    +2.1007891e-007
+4.8200000e+002    +1.3771337e-007
+4.8300000e+002    +2.2595354e-007
+4.8400000e+002    +1.9388288e-007
+4.8500000e+002    +2.6257786e-007
+4.8600000e+002    +1.1743770e-007
+4.8700000e+002    +3.1378286e-007
+4.8800000e+002    +3.2546342e-007
+4.8900000e+002    +1.3164093e-007
+4.9000000e+002    +2.6084746e-007
+4.9100000e+002    +3.8135701e-007
+4.9200000e+002    +2.1096466e-007
+4.9300000e+002    +7.7781152e-008
+4.9400000e+002    +3.0234620e-008
+4.9500000e+002    +6.3515301e-008
+4.9600000e+002    +1.7458360e-007
+4.9700000e+002    +2.4220304e-007
+4.9800000e+002    +2.6013387e-007
+4.9900000e+002    +4.4215987e-008
+5.0000000e+002    +8.6008185e-008
+5.0100000e+002    +1.8319564e-007
+5.0200000e+002    +3.2068647e-007
+5.0300000e+002    +1.5375883e-007
+5.0400000e+002    +2.1402940e-007
+5.0500000e+002    +1.9211181e-007
+5.0600000e+002    +2.3541146e-007
+5.0700000e+002    +3.3756990e-007
+5.0800000e+002    +1.7300648e-007
+5.0900000e+002    +1.7174676e-008
+5.1000000e+002    +1.3163819e-007
+5.1100000e+002    +2.0237957e-007
+5.1200000e+002    +1.7039497e-007
+5.1300000e+002    +1.5555656e-007
+5.1400000e+002    +4.8926882e-008
+5.1500000e+002    +2.3595928e-007
+5.1600000e+002    +4.2341219e-007
+5.1700000e+002    +3.1233066e-007
+5.1800000e+002    +1.7083968e-007
+5.1900000e+002    +9.9772762e-008
+5.2000000e+002    +3.9115857e-008
+5.2100000e+002    +1.8217848e-007
+5.2200000e+002    +6.2609111e-008
+5.2300000e+002    +1.8036317e-007
+5.2400000e+002    +1.1797442e-007
+5.2500000e+002    +1.1411733e-007
+5.2600000e+002    +1.7757722e-007
+5.2700000e+002    +2.1416997e-007
+5.2800000e+002    +3.0777855e-007
+5.2900000e+002    +8.7541217e-008
+5.3000000e+002    +1.2621609e-007
+5.3100000e+002    +1.0042636e-007
+5.3200000e+002    +1.5510359e-007
+5.3300000e+002    +2.2527976e-007
+5.3400000e+002    +4.0394238e-007
+5.3500000e+002    +4.0881739e-007
+5.3600000e+002    +2.3384801e-007
+5.3700000e+002    +1.6433739e-007
+5.3800000e+002    +1.0934257e-007
+5.3900000e+002    +1.1209551e-007
+5.4000000e+002    +1.6873818e-007
+5.4100000e+002    +1.8063230e-007
+5.4200000e+002    +2.0734078e-007
+5.4300000e+002    +3.2307162e-007
+5.4400000e+002    +1.2247125e-007
+5.4500000e+002    +7.2554982e-008
+5.4600000e+002    +1.5497695e-007
+5.4700000e+002    +4.4142743e-007
+5.4800000e+002    +6.2648445e-007
+5.4900000e+002    +3.8840338e-007
+5.5000000e+002    +1.1515104e-007
+5.5100000e+002    +3.7380590e-007
+5.5200000e+002    +2.7522429e-007
+5.5300000e+002    +1.8556560e-007
+5.5400000e+002    +2.2790695e-007
+5.5500000e+002    +1.8385839e-007
+5.5600000e+002    +1.8060632e-007
+5.5700000e+002    +1.2786606e-007
+5.5800000e+002    +1.2556893e-007
+5.5900000e+002    +2.1414739e-007
+5.6000000e+002    +2.5512168e-007
+5.6100000e+002    +3.1508546e-007
+5.6200000e+002    +2.8331127e-007
+5.6300000e+002    +1.4501620e-007
+5.6400000e+002    +6.1782899e-008
+5.6500000e+002    +1.3783620e-007
+5.6600000e+002    +2.7114541e-007
+5.6700000e+002    +2.9378620e-007
+5.6800000e+002    +2.6071118e-007
+5.6900000e+002    +1.1044393e-007
+5.7000000e+002    +2.5010797e-007
+5.7100000e+002    +8.3048725e-008
+5.7200000e+002    +2.8126843e-007
+5.7300000e+002    +3.5781613e-007
+5.7400000e+002    +2.3081199e-007
+5.7500000e+002    +1.5450479e-007
+5.7600000e+002    +1.4661188e-007
+5.7700000e+002    +2.5318758e-007
+5.7800000e+002    +9.3132741e-008
+5.7900000e+002    +1.1329324e-007
+5.8000000e+002    +1.3753083e-007
+5.8100000e+002    +1.9189636e-007
+5.8200000e+002    +2.2063658e-007
+5.8300000e+002    +8.4527983e-008
+5.8400000e+002    +1.4504853e-007
+5.8500000e+002    +1.3480941e-008
+5.8600000e+002    +4.5438750e-008
+5.8700000e+002    +1.7111302e-007
+5.8800000e+002    +1.0934677e-007
+5.8900000e+002    +1.5678651e-007
+5.9000000e+002    +2.4341205e-007
+5.9100000e+002    +1.6128143e-007
+5.9200000e+002    +1.2283013e-007
+5.9300000e+002    +1.4669867e-007
+5.9400000e+002    +2.3569983e-007
+5.9500000e+002    +3.1029347e-007
+5.9600000e+002    +2.5579118e-007
+5.9700000e+002    +1.0993568e-007
+5.9800000e+002    +3.2636984e-007
+5.9900000e+002    +1.3890865e-007
+6.0000000e+002    +1.0092888e-007
+6.0100000e+002    +4.4418993e-008
+6.0200000e+002    +1.4340482e-007
+6.0300000e+002    +1.8653631e-007
+6.0400000e+002    +1.9673685e-007
+6.0500000e+002    +1.9291122e-007
+6.0600000e+002    +3.3823138e-008
+6.0700000e+002    +1.3853655e-007
+6.0800000e+002    +4.0447940e-008
+6.0900000e+002    +3.2634512e-007
+6.1000000e+002    +4.2653747e-007
+6.1100000e+002    +3.1114055e-007
+6.1200000e+002    +7.8270752e-008
+6.1300000e+002    +2.7319868e-007
+6.1400000e+002    +1.6752480e-007
+6.1500000e+002    +2.4248322e-007
+6.1600000e+002    +3.3002590e-007
+6.1700000e+002    +2.2079095e-007
+6.1800000e+002    +1.5383617e-007
+6.1900000e+002    +1.8295141e-007
+6.2000000e+002    +3.9605364e-008
+6.2100000e+002    +5.2951687e-008
+6.2200000e+002    +1.1543636e-007
+6.2300000e+002    +3.3043344e-007
+6.2400000e+002    +3.2510877e-007
+6.2500000e+002    +3.3953068e-008
+6.2600000e+002    +1.3156088e-007
+6.2700000e+002    +1.7897872e-007
+6.2800000e+002    +3.1074933e-007
+6.2900000e+002    +4.5190379e-007
+6.3000000e+002    +2.7090886e-007
+6.3100000e+002    +1.7860280e-007
+6.3200000e+002    +2.0707368e-007
+6.3300000e+002    +9.4684786e-008
+6.3400000e+002    +2.9496820e-007
+6.3500000e+002    +2.4573671e-007
+6.3600000e+002    +1.2507866e-007
+6.3700000e+002    +8.3017454e-008
+6.3800000e+002    +1.6067942e-007
+6.3900000e+002    +2.2649255e-007
+6.4000000e+002    +2.1510176e-007
+6.4100000e+002    +9.4352494e-008
+6.4200000e+002    +2.6849960e-007
+6.4300000e+002    +3.0677586e-007
+6.4400000e+002    +2.4302776e-007
+6.4500000e+002    +2.1066212e-007
+6.4600000e+002    +1.9443480e-007
+6.4700000e+002    +2.5122537e-007
+6.4800000e+002    +3.0069984e-007
+6.4900000e+002    +1.7883239e-007
+6.5000000e+002    +1.0744721e-007
+6.5100000e+002    +1.4332643e-007
+6.5200000e+002    +2.1907358e-007
+6.5300000e+002    +2.9327410e-007
+6.5400000e+002    +3.8804276e-007
+6.5500000e+002    +2.4702138e-007
+6.5600000e+002    +4.1862872e-008
+6.5700000e+002    +1.4686337e-007
+6.5800000e+002    +1.3093101e-007
+6.5900000e+002    +1.7436885e-007
+6.6000000e+002    +2.3916644e-007
+6.6100000e+002    +2.4285464e-007
+6.6200000e+002    +2.1341951e-007
+6.6300000e+002    +2.3017172e-007
+6.6400000e+002    +2.5576534e-007
+6.6500000e+002    +2.6324122e-007
+6.6600000e+002    +1.4696258e-007
+6.6700000e+002    +6.6288663e-008
+6.6800000e+002    +5.4908160e-008
+6.6900000e+002    +4.7172449e-008
+6.7000000e+002    +1.5307427e-007
+6.7100000e+002    +2.2531067e-007
+6.7200000e+002    +6.4456408e-008
+6.7300000e+002    +3.8416684e-007
+6.7400000e+002    +3.4578864e-007
+6.7500000e+002    +9.0856282e-008
+6.7600000e+002    +1.4026269e-007
+6.7700000e+002    +2.1055760e-007
+6.7800000e+002    +1.1985790e-007
+6.7900000e+002    +5.2863683e-008
+6.8000000e+002    +1.2980908e-007
+6.8100000e+002    +2.1688538e-007
+6.8200000e+002    +2.3215547e-007
+6.8300000e+002    +5.5674644e-008
+6.8400000e+002    +8.5062851e-008
+6.8500000e+002    +3.2649204e-008
+6.8600000e+002    +9.0796746e-008
+6.8700000e+002    +8.2803986e-008
+6.8800000e+002    +1.6066497e-007
+6.8900000e+002    +1.2664157e-007
+6.9000000e+002    +7.4243985e-008
+6.9100000e+002    +2.6386800e-008
+6.9200000e+002    +1.9527624e-007
+6.9300000e+002    +2.5149777e-007
+6.9400000e+002    +2.3114218e-007
+6.9500000e+002    +2.9432118e-007
+6.9600000e+002    +2.3376150e-007
+6.9700000e+002    +1.7296659e-007
+6.9800000e+002    +4.2023824e-008
+6.9900000e+002    +9.4282285e-008
+7.0000000e+002    +9.8614294e-008
+7.0100000e+002    +7.2766234e-008
+7.0200000e+002    +1.4536261e-007
+7.0300000e+002    +2.6404797e-007
+7.0400000e+002    +1.9015889e-007
+7.0500000e+002    +1.4655313e-007
+7.0600000e+002    +2.7527446e-007
+7.0700000e+002    +2.7375958e-007
+7.0800000e+002    +6.7531278e-009
+7.0900000e+002    +2.2806590e-007
+7.1000000e+002    +2.3560644e-007
+7.1100000e+002    +1.5322443e-007
+7.1200000e+002    +1.3382459e-007
+7.1300000e+002    +1.4668531e-007
+7.1400000e+002    +1.3601293e-007
+7.1500000e+002    +8.5513747e-008
+7.1600000e+002    +1.6305592e-007
+7.1700000e+002    +1.9083802e-007
+7.1800000e+002    +1.8582556e-007
+7.1900000e+002    +2.6094142e-007
+7.2000000e+002    +2.7009537e-007
+7.2100000e+002    +1.4669948e-007
+7.2200000e+002    +2.1663502e-007
+7.2300000e+002    +3.1049831e-007
+7.2400000e+002    +9.6862998e-008
+7.2500000e+002    +3.0824455e-007
+7.2600000e+002    +2.4517453e-007
+7.2700000e+002    +1.4620936e-007
+7.2800000e+002    +3.3239253e-008
+7.2900000e+002    +7.8890743e-008
+7.3000000e+002    +1.2601130e-007
+7.3100000e+002    +1.7278893e-007
+7.3200000e+002    +1.0364486e-007
+7.3300000e+002    +1.4194033e-007
+7.3400000e+002    +6.8592783e-008
+7.3500000e+002    +1.5324242e-007
+7.3600000e+002    +1.6283693e-007
+7.3700000e+002    +2.6384481e-007
+7.3800000e+002    +3.1913081e-007
+7.3900000e+002    +2.1305522e-007
+7.4000000e+002    +1.3448846e-007
+7.4100000e+002    +1.7153984e-007
+7.4200000e+002    +2.6066823e-007
+7.4300000e+002    +3.0923982e-007
+7.4400000e+002    +8.2621177e-008
+7.4500000e+002    +2.4701976e-007
+7.4600000e+002    +2.4247817e-007
+7.4700000e+002    +2.9785295e-007
+7.4800000e+002    +3.1878409e-007
+7.4900000e+002    +1.9869863e-007
+7.5000000e+002    +2.4357030e-007
+7.5100000e+002    +3.2198270e-007
+7.5200000e+002    +1.8726398e-007
+7.5300000e+002    +8.2098595e-008
+7.5400000e+002    +5.5333921e-008
+7.5500000e+002    +1.2846891e-007
+7.5600000e+002    +1.4103435e-007
+7.5700000e+002    +1.1423705e-007
+7.5800000e+002    +5.4601319e-008
+7.5900000e+002    +1.8293775e-007
+7.6000000e+002    +2.3494229e-007
+7.6100000e+002    +9.2666198e-008
+7.6200000e+002    +7.1615368e-008
+7.6300000e+002    +5.5928108e-008
+7.6400000e+002    +2.1175367e-007
+7.6500000e+002    +3.4703314e-007
+7.6600000e+002    +3.1039298e-007
+7.6700000e+002    +2.2957910e-007
+7.6800000e+002    +2.4210999e-007
+7.6900000e+002    +2.3039270e-007
+7.7000000e+002    +8.9813078e-008
+7.7100000e+002    +9.9510416e-008
+7.7200000e+002    +1.1604991e-007
+7.7300000e+002    +2.2433318e-007
+7.7400000e+002    +3.9051876e-008
+7.7500000e+002    +2.3105490e-007
+7.7600000e+002    +1.9680145e-007
+7.7700000e+002    +1.4858652e-007
+7.7800000e+002    +9.1912810e-008
+7.7900000e+002    +1.7428061e-007
+7.8000000e+002    +2.7278745e-007
+7.8100000e+002    +3.1364888e-007
+7.8200000e+002    +1.3394292e-007
+7.8300000e+002    +1.1910621e-007
+7.8400000e+002    +1.7203458e-007
+7.8500000e+002    +1.7933004e-007
+7.8600000e+002    +1.0580730e-007
+7.8700000e+002    +5.5099907e-008
+7.8800000e+002    +1.0491793e-007
+7.8900000e+002    +1.4963678e-007
+7.9000000e+002    +2.4947937e-007
+7.9100000e+002    +1.8587841e-007
+7.9200000e+002    +1.8080414e-007
+7.9300000e+002    +1.6310121e-007
+7.9400000e+002    +1.8790782e-007
+7.9500000e+002    +5.5819154e-008
+7.9600000e+002    +6.1413495e-008
+7.9700000e+002    +1.5342341e-007
+7.9800000e+002    +3.0894049e-007
+7.9900000e+002    +2.5607133e-007
#
#
# SR785 Measurement - Timestamp: Mar 05 2020 - 23:09:43
# Parameter File: TransSpec2.yml
#---------- Measurement Setup ------------
# Start Frequency (Hz): 0.000000
# Frequency Span (Hz): 102400.000000
# Frequency Resolution: 800
# Number of Averages: 2
# Averaging Mode: None
# Window function: Hanning
#---------- Measurement Parameters ----------
# Measurement Group:  "FFT" "FFT"
# Measurements:  "FFT 1" "FFT 2"
# View:  "Log Magnitude" "Log Magnitude"
# Unit:  "Vrms/rtHz" "dBVpk"
#---------- Input Parameters ----------
# Input Source: Analog
# Input Mode: Single ended, Single ended
# Input Grounding: Float, Float
# Input Coupling: AC, AC
# Input Range: -36.0dBVpk, -34.0dBVpk
# Auto Range: Off, Off
# Auto Range Mode: Tracking, Tracking
# Anti-Aliasing Filter: On, On
#---------- Source Parameters ----------
# Source Type: Sine
# Source Amplitude: 500.0mVpk
# Source On: 0

#---------- Measurement Data ----------
# [Freq(Hz) Display 0(Vrms/rtHz) Display 1(dBVpk) ]
+8.9600000e+002    +1.2822187e-007
+1.0240000e+003    +1.7817602e-007
+1.1520000e+003    +2.2323904e-007
+1.2800000e+003    +1.7974578e-007
+1.4080000e+003    +1.1056295e-007
+1.5360000e+003    +2.4127064e-007
+1.6640000e+003    +2.2042980e-007
+1.7920000e+003    +2.5581559e-007
+1.9200000e+003    +2.6186675e-007
+2.0480000e+003    +1.5713083e-007
+2.1760000e+003    +1.2347701e-007
+2.3040000e+003    +1.5356481e-007
+2.4320000e+003    +3.6223625e-007
+2.5600000e+003    +6.8406268e-007
+2.6880000e+003    +5.6473584e-007
+2.8160000e+003    +3.2826810e-007
+2.9440000e+003    +4.8224854e-007
+3.0720000e+003    +1.0639980e-007
+3.2000000e+003    +3.0987539e-007
+3.3280000e+003    +4.0478773e-007
+3.4560000e+003    +8.5974483e-007
+3.5840000e+003    +3.0064504e-007
+3.7120000e+003    +3.1456452e-007
+3.8400000e+003    +4.3501717e-007
+3.9680000e+003    +1.0260950e-006
+4.0960000e+003    +1.2049575e-006
+4.2240000e+003    +2.6147083e-007
+4.3520000e+003    +1.2954711e-006
+4.4800000e+003    +1.4567896e-006
+4.6080000e+003    +8.6735167e-007
+4.7360000e+003    +1.7911968e-007
+4.8640000e+003    +8.8181957e-007
+4.9920000e+003    +9.1341491e-007
+5.1200000e+003    +1.4224580e-006
+5.2480000e+003    +7.9811639e-007
+5.3760000e+003    +2.1389549e-007
+5.5040000e+003    +6.2344259e-007
+5.6320000e+003    +1.5002929e-006
+5.7600000e+003    +2.5646300e-006
+5.8880000e+003    +3.1607713e-006
+6.0160000e+003    +2.0838468e-006
+6.1440000e+003    +8.7374423e-007
+6.2720000e+003    +9.8765884e-007
+6.4000000e+003    +1.7767513e-006
+6.5280000e+003    +1.6650561e-006
+6.6560000e+003    +2.7331481e-007
+6.7840000e+003    +2.5201773e-006
+6.9120000e+003    +3.5603734e-006
+7.0400000e+003    +1.9796305e-006
+7.1680000e+003    +1.9833312e-006
+7.2960000e+003    +1.7924519e-006
+7.4240000e+003    +1.1501457e-006
+7.5520000e+003    +1.9763879e-006
+7.6800000e+003    +3.7143463e-006
+7.8080000e+003    +4.2150300e-006
+7.9360000e+003    +2.6994387e-006
+8.0640000e+003    +1.1498352e-006
+8.1920000e+003    +2.8361471e-006
+8.3200000e+003    +3.3686899e-006
+8.4480000e+003    +1.6811887e-006
+8.5760000e+003    +9.3709298e-007
+8.7040000e+003    +9.1825257e-007
+8.8320000e+003    +1.1224009e-006
+8.9600000e+003    +8.9432262e-007
+9.0880000e+003    +2.3738380e-006
+9.2160000e+003    +4.6343052e-006
+9.3440000e+003    +5.2563182e-006
+9.4720000e+003    +3.4694056e-006
+9.6000000e+003    +5.7906873e-006
+9.7280000e+003    +2.9840121e-006
+9.8560000e+003    +4.0807384e-007
+9.9840000e+003    +1.4872641e-006
+1.0112000e+004    +6.1621863e-006
+1.0240000e+004    +7.8090152e-006
+1.0368000e+004    +4.1071958e-006
+1.0496000e+004    +2.2925190e-006
+1.0624000e+004    +2.0098714e-006
+1.0752000e+004    +4.8240213e-007
+1.0880000e+004    +2.1634264e-006
+1.1008000e+004    +4.0209275e-006
+1.1136000e+004    +4.5297033e-006
+1.1264000e+004    +4.5789525e-006
+1.1392000e+004    +2.8450140e-006
+1.1520000e+004    +3.8926191e-006
+1.1648000e+004    +4.3970826e-006
+1.1776000e+004    +2.9175817e-006
+1.1904000e+004    +1.6252970e-006
+1.2032000e+004    +6.2022550e-006
+1.2160000e+004    +5.6536805e-006
+1.2288000e+004    +2.6302569e-006
+1.2416000e+004    +3.0311967e-006
+1.2544000e+004    +2.7885919e-006
+1.2672000e+004    +4.8867828e-006
+1.2800000e+004    +3.6143495e-006
+1.2928000e+004    +3.0878214e-006
+1.3056000e+004    +1.0737386e-006
+1.3184000e+004    +2.8311101e-006
+1.3312000e+004    +2.4691508e-006
+1.3440000e+004    +3.7287539e-006
+1.3568000e+004    +3.3182953e-006
+1.3696000e+004    +4.3776649e-006
+1.3824000e+004    +4.3764103e-006
+1.3952000e+004    +1.0337800e-006
+1.4080000e+004    +2.6736113e-006
+1.4208000e+004    +3.2877019e-006
+1.4336000e+004    +1.0323089e-006
+1.4464000e+004    +1.4221082e-006
+1.4592000e+004    +6.8745612e-006
+1.4720000e+004    +6.5138252e-006
+1.4848000e+004    +2.4270723e-006
+1.4976000e+004    +1.7139920e-006
+1.5104000e+004    +1.2997751e-006
+1.5232000e+004    +2.3894938e-006
+1.5360000e+004    +1.4391335e-007
+1.5488000e+004    +3.7198845e-006
+1.5616000e+004    +4.5258057e-006
+1.5744000e+004    +3.5713908e-006
+1.5872000e+004    +1.6290702e-006
+1.6000000e+004    +2.2904333e-006
+1.6128000e+004    +4.9872233e-006
+1.6256000e+004    +1.2066680e-006
+1.6384000e+004    +3.5335954e-006
+1.6512000e+004    +1.8827542e-006
+1.6640000e+004    +4.1642279e-006
+1.6768000e+004    +4.6214550e-006
+1.6896000e+004    +1.2396522e-006
+1.7024000e+004    +1.5408855e-006
+1.7152000e+004    +1.1841695e-006
+1.7280000e+004    +6.8425572e-007
+1.7408000e+004    +2.0155730e-006
+1.7536000e+004    +1.5992208e-006
+1.7664000e+004    +2.1373280e-006
+1.7792000e+004    +3.8975159e-006
+1.7920000e+004    +4.1984254e-006
+1.8048000e+004    +1.7184560e-006
+1.8176000e+004    +5.1468123e-007
+1.8304000e+004    +2.0645552e-006
+1.8432000e+004    +2.8479142e-006
+1.8560000e+004    +3.9597580e-006
+1.8688000e+004    +1.3401765e-006
+1.8816000e+004    +5.9653862e-006
+1.8944000e+004    +4.2882052e-006
+1.9072000e+004    +2.2506294e-006
+1.9200000e+004    +3.4499189e-006
+1.9328000e+004    +8.1913566e-007
+1.9456000e+004    +1.9353301e-006
+1.9584000e+004    +3.2389810e-006
+1.9712000e+004    +4.6801365e-006
+1.9840000e+004    +4.3355858e-006
+1.9968000e+004    +3.3868996e-006
+2.0096000e+004    +2.3757780e-006
+2.0224000e+004    +1.4738773e-006
+2.0352000e+004    +3.0615772e-006
+2.0480000e+004    +1.6304732e-006
+2.0608000e+004    +8.6100215e-007
+2.0736000e+004    +2.0889781e-006
+2.0864000e+004    +2.6221833e-006
+2.0992000e+004    +2.4632504e-006
+2.1120000e+004    +1.7589020e-006
+2.1248000e+004    +5.8031048e-007
+2.1376000e+004    +1.7801743e-006
+2.1504000e+004    +2.6768689e-006
+2.1632000e+004    +4.6600059e-007
+2.1760000e+004    +7.5834208e-007
+2.1888000e+004    +2.7121271e-006
+2.2016000e+004    +3.4974362e-006
+2.2144000e+004    +1.3491173e-006
+2.2272000e+004    +2.6645969e-006
+2.2400000e+004    +2.0249493e-006
+2.2528000e+004    +9.3666199e-007
+2.2656000e+004    +2.2317679e-006
+2.2784000e+004    +2.2575641e-006
+2.2912000e+004    +4.3521115e-007
+2.3040000e+004    +1.9178410e-006
+2.3168000e+004    +1.3816712e-006
+2.3296000e+004    +3.1658699e-006
+2.3424000e+004    +2.1736528e-006
+2.3552000e+004    +1.1667389e-006
+2.3680000e+004    +2.2539307e-006
+2.3808000e+004    +2.6468597e-006
+2.3936000e+004    +3.2853745e-006
+2.4064000e+004    +1.4232860e-006
+2.4192000e+004    +2.3378973e-006
+2.4320000e+004    +4.3046734e-006
+2.4448000e+004    +3.5505984e-006
+2.4576000e+004    +1.2699510e-006
+2.4704000e+004    +1.5183359e-006
+2.4832000e+004    +1.1109922e-006
+2.4960000e+004    +2.2385732e-006
+2.5088000e+004    +1.3840155e-006
+2.5216000e+004    +5.6610599e-008
+2.5344000e+004    +8.4086633e-007
+2.5472000e+004    +1.1001210e-006
+2.5600000e+004    +2.0656776e-006
+2.5728000e+004    +3.4906000e-006
+2.5856000e+004    +2.2015890e-006
+2.5984000e+004    +1.0273462e-006
+2.6112000e+004    +9.1382014e-007
+2.6240000e+004    +1.9809677e-006
+2.6368000e+004    +3.4308921e-006
+2.6496000e+004    +2.7145402e-006
+2.6624000e+004    +4.2685933e-006
+2.6752000e+004    +5.4427619e-006
+2.6880000e+004    +5.5157770e-006
+2.7008000e+004    +3.7005957e-006
+2.7136000e+004    +3.9919038e-007
+2.7264000e+004    +7.5655157e-007
+2.7392000e+004    +2.4388366e-006
+2.7520000e+004    +3.1717846e-006
+2.7648000e+004    +3.5941237e-006
+2.7776000e+004    +3.3561344e-006
+2.7904000e+004    +1.9637753e-006
+2.8032000e+004    +2.0661516e-006
+2.8160000e+004    +4.3138571e-006
+2.8288000e+004    +3.6589454e-006
+2.8416000e+004    +4.1909138e-006
+2.8544000e+004    +3.7480620e-006
+2.8672000e+004    +2.5949287e-006
+2.8800000e+004    +3.0933152e-006
+2.8928000e+004    +1.6517729e-006
+2.9056000e+004    +2.3109421e-006
+2.9184000e+004    +1.8144468e-006
+2.9312000e+004    +5.6355896e-007
+2.9440000e+004    +1.5382063e-006
+2.9568000e+004    +1.6334996e-006
+2.9696000e+004    +2.1507485e-006
+2.9824000e+004    +3.2737114e-006
+2.9952000e+004    +3.2370718e-007
+3.0080000e+004    +3.2003504e-006
+3.0208000e+004    +1.6929806e-006
+3.0336000e+004    +2.0624345e-006
+3.0464000e+004    +2.9481182e-006
+3.0592000e+004    +9.4996454e-007
+3.0720000e+004    +1.4117518e-006
+3.0848000e+004    +2.1078522e-007
+3.0976000e+004    +3.6615938e-007
+3.1104000e+004    +8.9245401e-007
+3.1232000e+004    +1.1125584e-006
+3.1360000e+004    +1.7066346e-006
+3.1488000e+004    +1.7522424e-006
+3.1616000e+004    +2.4240017e-006
+3.1744000e+004    +4.3487057e-006
+3.1872000e+004    +2.5700817e-006
+3.2000000e+004    +8.8971262e-007
+3.2128000e+004    +2.0450941e-006
+3.2256000e+004    +1.0079167e-006
+3.2384000e+004    +1.9517636e-006
+3.2512000e+004    +2.7376320e-006
+3.2640000e+004    +2.1118944e-006
+3.2768000e+004    +2.1092760e-006
+3.2896000e+004    +1.2285819e-006
+3.3024000e+004    +9.7816633e-007
+3.3152000e+004    +1.0050060e-006
+3.3280000e+004    +1.1775080e-006
+3.3408000e+004    +6.4654017e-007
+3.3536000e+004    +1.6392273e-006
+3.3664000e+004    +3.2270327e-006
+3.3792000e+004    +1.3310055e-006
+3.3920000e+004    +9.5617827e-007
+3.4048000e+004    +2.2525032e-006
+3.4176000e+004    +3.0506183e-006
+3.4304000e+004    +3.0964004e-006
+3.4432000e+004    +2.8421352e-006
+3.4560000e+004    +1.5875310e-006
+3.4688000e+004    +9.2264673e-007
+3.4816000e+004    +9.0580272e-007
+3.4944000e+004    +8.0751619e-007
+3.5072000e+004    +1.9816964e-006
+3.5200000e+004    +2.6545488e-006
+3.5328000e+004    +1.4720935e-006
+3.5456000e+004    +1.4039025e-006
+3.5584000e+004    +3.0197562e-006
+3.5712000e+004    +1.5678082e-006
+3.5840000e+004    +4.0177855e-007
+3.5968000e+004    +1.2256918e-007
+3.6096000e+004    +3.6769512e-007
+3.6224000e+004    +8.0584044e-007
+3.6352000e+004    +1.6148166e-006
+3.6480000e+004    +1.9318422e-006
+3.6608000e+004    +1.4863906e-007
+3.6736000e+004    +1.3156319e-006
+3.6864000e+004    +2.2690472e-006
+3.6992000e+004    +1.9725119e-006
+3.7120000e+004    +1.5244011e-006
+3.7248000e+004    +1.2241720e-006
+3.7376000e+004    +2.2336114e-006
+3.7504000e+004    +5.1246741e-007
+3.7632000e+004    +2.3741143e-006
+3.7760000e+004    +1.3146082e-006
+3.7888000e+004    +1.1866684e-006
+3.8016000e+004    +2.0033127e-007
+3.8144000e+004    +7.8294130e-007
+3.8272000e+004    +3.1389900e-006
+3.8400000e+004    +3.8084149e-006
+3.8528000e+004    +7.3908893e-007
+3.8656000e+004    +4.7794251e-006
+3.8784000e+004    +3.4921256e-006
+3.8912000e+004    +1.4835521e-006
+3.9040000e+004    +9.3095218e-007
+3.9168000e+004    +7.6965699e-007
+3.9296000e+004    +1.5083747e-006
+3.9424000e+004    +1.6014594e-006
+3.9552000e+004    +2.4266888e-006
+3.9680000e+004    +1.5255447e-006
+3.9808000e+004    +2.1774172e-006
+3.9936000e+004    +1.1978240e-006
+4.0064000e+004    +2.0802440e-006
+4.0192000e+004    +2.3142836e-006
+4.0320000e+004    +2.6532115e-007
+4.0448000e+004    +1.8390018e-006
+4.0576000e+004    +1.3747664e-006
+4.0704000e+004    +1.2031555e-006
+4.0832000e+004    +1.7887480e-006
+4.0960000e+004    +2.1654964e-006
+4.1088000e+004    +2.6500700e-006
+4.1216000e+004    +3.0294432e-006
+4.1344000e+004    +1.4616185e-006
+4.1472000e+004    +1.8446884e-006
+4.1600000e+004    +3.3843942e-006
+4.1728000e+004    +2.1958144e-006
+4.1856000e+004    +1.3124478e-006
+4.1984000e+004    +2.9524556e-006
+4.2112000e+004    +1.3497040e-006
+4.2240000e+004    +1.2866893e-006
+4.2368000e+004    +1.3472610e-006
+4.2496000e+004    +2.2386666e-006
+4.2624000e+004    +1.9262211e-006
+4.2752000e+004    +1.1862542e-006
+4.2880000e+004    +1.4311823e-006
+4.3008000e+004    +1.6949596e-006
+4.3136000e+004    +1.7930307e-006
+4.3264000e+004    +1.3630729e-006
+4.3392000e+004    +3.6312505e-007
+4.3520000e+004    +1.2817810e-006
+4.3648000e+004    +5.3997451e-007
+4.3776000e+004    +1.0850398e-006
+4.3904000e+004    +5.0651937e-007
+4.4032000e+004    +5.6721404e-007
+4.4160000e+004    +1.4631711e-006
+4.4288000e+004    +1.3955820e-006
+4.4416000e+004    +8.5067336e-007
+4.4544000e+004    +3.0353497e-006
+4.4672000e+004    +2.9228079e-006
+4.4800000e+004    +7.1518480e-007
+4.4928000e+004    +1.0807915e-006
+4.5056000e+004    +5.6905799e-007
+4.5184000e+004    +8.4345538e-007
+4.5312000e+004    +6.7529498e-007
+4.5440000e+004    +8.0684083e-007
+4.5568000e+004    +9.1344094e-007
+4.5696000e+004    +6.8212989e-007
+4.5824000e+004    +1.5846420e-006
+4.5952000e+004    +1.0161125e-006
+4.6080000e+004    +7.6954376e-007
+4.6208000e+004    +1.7154040e-006
+4.6336000e+004    +8.0235134e-007
+4.6464000e+004    +1.5317229e-006
+4.6592000e+004    +3.3356355e-006
+4.6720000e+004    +2.0853986e-006
+4.6848000e+004    +9.1920884e-007
+4.6976000e+004    +2.0932280e-006
+4.7104000e+004    +1.1592294e-006
+4.7232000e+004    +1.3271487e-006
+4.7360000e+004    +2.1333235e-006
+4.7488000e+004    +2.0834898e-006
+4.7616000e+004    +2.1045037e-006
+4.7744000e+004    +1.7437804e-006
+4.7872000e+004    +1.0232767e-006
+4.8000000e+004    +1.2177414e-006
+4.8128000e+004    +1.2998993e-006
+4.8256000e+004    +1.9222850e-006
+4.8384000e+004    +2.2791946e-006
+4.8512000e+004    +1.8099620e-006
+4.8640000e+004    +1.2096552e-006
+4.8768000e+004    +2.3579561e-007
+4.8896000e+004    +2.2738955e-006
+4.9024000e+004    +2.8656423e-006
+4.9152000e+004    +9.2315639e-007
+4.9280000e+004    +1.0326082e-006
+4.9408000e+004    +1.0130112e-006
+4.9536000e+004    +5.3105163e-007
+4.9664000e+004    +1.1902686e-006
+4.9792000e+004    +2.0596533e-006
+4.9920000e+004    +1.2885088e-006
+5.0048000e+004    +1.0600241e-006
+5.0176000e+004    +1.4928642e-006
+5.0304000e+004    +1.7217932e-006
+5.0432000e+004    +1.6373800e-006
+5.0560000e+004    +1.9040709e-006
+5.0688000e+004    +9.7521524e-007
+5.0816000e+004    +5.7972841e-007
+5.0944000e+004    +1.4551127e-006
+5.1072000e+004    +1.5287742e-006
+5.1200000e+004    +8.8247140e-007
+5.1328000e+004    +2.4979622e-006
+5.1456000e+004    +2.8468637e-006
+5.1584000e+004    +1.8724404e-006
+5.1712000e+004    +1.5687053e-006
+5.1840000e+004    +6.1296680e-007
+5.1968000e+004    +1.2545923e-006
+5.2096000e+004    +8.0817074e-007
+5.2224000e+004    +8.5821694e-007
+5.2352000e+004    +6.7835367e-007
+5.2480000e+004    +1.0809637e-006
+5.2608000e+004    +1.8560085e-006
+5.2736000e+004    +8.0545652e-007
+5.2864000e+004    +1.2969056e-006
+5.2992000e+004    +1.8950942e-006
+5.3120000e+004    +3.2840472e-007
+5.3248000e+004    +3.0592655e-006
+5.3376000e+004    +3.3347162e-006
+5.3504000e+004    +1.2766111e-006
+5.3632000e+004    +3.0679774e-007
+5.3760000e+004    +1.0136243e-006
+5.3888000e+004    +2.8733456e-007
+5.4016000e+004    +7.9241636e-007
+5.4144000e+004    +4.6468443e-007
+5.4272000e+004    +8.1474053e-007
+5.4400000e+004    +1.6276399e-006
+5.4528000e+004    +2.1957158e-006
+5.4656000e+004    +1.4262552e-006
+5.4784000e+004    +2.0462148e-006
+5.4912000e+004    +2.4938845e-006
+5.5040000e+004    +4.0695613e-006
+5.5168000e+004    +2.9303849e-006
+5.5296000e+004    +1.0817532e-006
+5.5424000e+004    +2.4780861e-006
+5.5552000e+004    +8.2875749e-006
+5.5680000e+004    +6.9721714e-006
+5.5808000e+004    +1.6579215e-006
+5.5936000e+004    +1.2776950e-006
+5.6064000e+004    +3.9069030e-007
+5.6192000e+004    +8.9755702e-007
+5.6320000e+004    +1.4427977e-006
+5.6448000e+004    +9.2782966e-007
+5.6576000e+004    +3.0304645e-007
+5.6704000e+004    +4.5368307e-007
+5.6832000e+004    +1.2481690e-006
+5.6960000e+004    +8.9998952e-007
+5.7088000e+004    +1.5712980e-006
+5.7216000e+004    +2.3051264e-006
+5.7344000e+004    +1.3793369e-006
+5.7472000e+004    +4.1067270e-007
+5.7600000e+004    +1.7646548e-007
+5.7728000e+004    +9.3608725e-007
+5.7856000e+004    +1.3133689e-006
+5.7984000e+004    +7.7998544e-007
+5.8112000e+004    +4.0030520e-007
+5.8240000e+004    +8.3155390e-007
+5.8368000e+004    +1.8029882e-006
+5.8496000e+004    +1.9846796e-006
+5.8624000e+004    +1.1086089e-006
+5.8752000e+004    +1.3772758e-006
+5.8880000e+004    +1.3161839e-006
+5.9008000e+004    +7.9655109e-007
+5.9136000e+004    +5.7643808e-007
+5.9264000e+004    +1.8363405e-006
+5.9392000e+004    +1.2157482e-006
+5.9520000e+004    +1.0966623e-006
+5.9648000e+004    +1.6845497e-006
+5.9776000e+004    +1.2257888e-006
+5.9904000e+004    +6.4756887e-007
+6.0032000e+004    +1.3255205e-006
+6.0160000e+004    +1.2847440e-006
+6.0288000e+004    +9.4889810e-007
+6.0416000e+004    +7.7316605e-007
+6.0544000e+004    +3.2224901e-007
+6.0672000e+004    +6.7459837e-007
+6.0800000e+004    +9.7171801e-007
+6.0928000e+004    +1.3446380e-006
+6.1056000e+004    +2.2930753e-006
+6.1184000e+004    +1.2059753e-006
+6.1312000e+004    +1.1628268e-006
+6.1440000e+004    +1.6849917e-006
+6.1568000e+004    +1.1417711e-006
+6.1696000e+004    +1.6980144e-006
+6.1824000e+004    +2.3475404e-006
+6.1952000e+004    +2.6756081e-006
+6.2080000e+004    +2.8763852e-006
+6.2208000e+004    +1.5941019e-006
+6.2336000e+004    +1.0956177e-006
+6.2464000e+004    +8.5787400e-007
+6.2592000e+004    +2.0763785e-006
+6.2720000e+004    +2.4399642e-006
+6.2848000e+004    +9.0474816e-007
+6.2976000e+004    +7.5992659e-007
+6.3104000e+004    +7.7841639e-007
+6.3232000e+004    +1.5371072e-007
+6.3360000e+004    +1.0585471e-006
+6.3488000e+004    +2.5957011e-006
+6.3616000e+004    +2.0196292e-006
+6.3744000e+004    +1.0452470e-006
+6.3872000e+004    +1.6322016e-006
+6.4000000e+004    +2.1739152e-006
+6.4128000e+004    +1.3618882e-006
+6.4256000e+004    +8.0870512e-007
+6.4384000e+004    +6.7437253e-007
+6.4512000e+004    +6.8521575e-007
+6.4640000e+004    +1.4525507e-007
+6.4768000e+004    +1.0479393e-006
+6.4896000e+004    +1.0990670e-006
+6.5024000e+004    +2.8484334e-007
+6.5152000e+004    +6.4731296e-007
+6.5280000e+004    +4.6612902e-007
+6.5408000e+004    +7.2519060e-007
+6.5536000e+004    +1.2937937e-006
+6.5664000e+004    +6.3531206e-007
+6.5792000e+004    +5.5912386e-007
+6.5920000e+004    +1.2975223e-006
+6.6048000e+004    +6.5026779e-007
+6.6176000e+004    +1.8440971e-006
+6.6304000e+004    +1.8452172e-006
+6.6432000e+004    +1.5395816e-006
+6.6560000e+004    +1.2953431e-006
+6.6688000e+004    +7.2399803e-007
+6.6816000e+004    +1.8714826e-006
+6.6944000e+004    +1.4666099e-006
+6.7072000e+004    +2.1974618e-006
+6.7200000e+004    +1.5027791e-006
+6.7328000e+004    +3.8783278e-007
+6.7456000e+004    +1.7597829e-006
+6.7584000e+004    +1.3850856e-006
+6.7712000e+004    +5.6852400e-007
+6.7840000e+004    +1.5458115e-006
+6.7968000e+004    +3.6714124e-007
+6.8096000e+004    +2.9927564e-006
+6.8224000e+004    +3.0674587e-006
+6.8352000e+004    +1.3765955e-006
+6.8480000e+004    +9.2607405e-007
+6.8608000e+004    +8.2189689e-007
+6.8736000e+004    +3.9926402e-007
+6.8864000e+004    +1.1510667e-006
+6.8992000e+004    +6.9025003e-007
+6.9120000e+004    +1.8901983e-006
+6.9248000e+004    +3.3812446e-006
+6.9376000e+004    +3.5992496e-006
+6.9504000e+004    +1.8959017e-006
+6.9632000e+004    +5.8567969e-007
+6.9760000e+004    +2.3201532e-007
+6.9888000e+004    +1.0661510e-006
+7.0016000e+004    +9.7117299e-007
+7.0144000e+004    +2.8138056e-006
+7.0272000e+004    +4.8117595e-006
+7.0400000e+004    +1.8307057e-006
+7.0528000e+004    +4.3102165e-007
+7.0656000e+004    +2.0267107e-006
+7.0784000e+004    +2.3557773e-006
+7.0912000e+004    +1.1874752e-006
+7.1040000e+004    +6.2573378e-007
+7.1168000e+004    +5.7160099e-007
+7.1296000e+004    +1.3042253e-006
+7.1424000e+004    +1.7247107e-006
+7.1552000e+004    +2.2917236e-006
+7.1680000e+004    +3.0832173e-006
+7.1808000e+004    +2.5751688e-006
+7.1936000e+004    +2.2130183e-007
+7.2064000e+004    +1.6279760e-006
+7.2192000e+004    +9.8994963e-007
+7.2320000e+004    +1.8884724e-006
+7.2448000e+004    +8.9954005e-007
+7.2576000e+004    +1.3073293e-007
+7.2704000e+004    +2.6067968e-007
+7.2832000e+004    +9.8124497e-007
+7.2960000e+004    +1.5844610e-006
+7.3088000e+004    +9.9696217e-007
+7.3216000e+004    +6.4201504e-007
+7.3344000e+004    +9.1164748e-007
+7.3472000e+004    +1.6376155e-006
+7.3600000e+004    +1.5272005e-006
+7.3728000e+004    +9.6471877e-007
+7.3856000e+004    +1.1121053e-006
+7.3984000e+004    +6.6587450e-007
+7.4112000e+004    +5.7604456e-007
+7.4240000e+004    +6.4877514e-007
+7.4368000e+004    +7.9590944e-007
+7.4496000e+004    +1.0564165e-006
+7.4624000e+004    +1.1184520e-006
+7.4752000e+004    +7.5118140e-007
+7.4880000e+004    +1.3713036e-006
+7.5008000e+004    +1.6887257e-006
+7.5136000e+004    +1.5514821e-006
+7.5264000e+004    +1.0956358e-006
+7.5392000e+004    +3.4151674e-007
+7.5520000e+004    +3.6303058e-007
+7.5648000e+004    +4.9837638e-007
+7.5776000e+004    +1.7981249e-006
+7.5904000e+004    +1.7845402e-006
+7.6032000e+004    +1.4230001e-006
+7.6160000e+004    +1.5649139e-006
+7.6288000e+004    +1.2242782e-006
+7.6416000e+004    +8.1320962e-007
+7.6544000e+004    +7.4314528e-007
+7.6672000e+004    +1.6145241e-006
+7.6800000e+004    +1.6602094e-006
+7.6928000e+004    +1.0263011e-006
+7.7056000e+004    +1.7354527e-006
+7.7184000e+004    +7.7995037e-007
+7.7312000e+004    +1.1190970e-006
+7.7440000e+004    +1.0164651e-006
+7.7568000e+004    +4.3178566e-006
+7.7696000e+004    +7.4772452e-006
+7.7824000e+004    +4.4422700e-006
+7.7952000e+004    +1.4169228e-006
+7.8080000e+004    +4.6189487e-007
+7.8208000e+004    +4.4734580e-007
+7.8336000e+004    +5.5925096e-007
+7.8464000e+004    +1.4854264e-006
+7.8592000e+004    +1.6859467e-006
+7.8720000e+004    +5.8045833e-007
+7.8848000e+004    +7.2299235e-007
+7.8976000e+004    +7.1936660e-007
+7.9104000e+004    +2.1009043e-006
+7.9232000e+004    +2.2948384e-006
+7.9360000e+004    +1.1027174e-006
+7.9488000e+004    +5.8241119e-007
+7.9616000e+004    +1.8861019e-006
+7.9744000e+004    +1.5712600e-006
+7.9872000e+004    +1.2038784e-007
+8.0000000e+004    +3.1084485e-007
+8.0128000e+004    +1.4663941e-006
+8.0256000e+004    +1.3278964e-006
+8.0384000e+004    +1.3438809e-006
+8.0512000e+004    +2.4687197e-006
+8.0640000e+004    +2.9787288e-006
+8.0768000e+004    +1.7235692e-006
+8.0896000e+004    +1.4205710e-006
+8.1024000e+004    +7.0534185e-007
+8.1152000e+004    +2.6525066e-007
+8.1280000e+004    +8.2944479e-007
+8.1408000e+004    +2.4969202e-006
+8.1536000e+004    +1.0669987e-006
+8.1664000e+004    +2.3812152e-006
+8.1792000e+004    +3.0440069e-006
+8.1920000e+004    +1.8942392e-006
+8.2048000e+004    +2.9837534e-007
+8.2176000e+004    +5.8492071e-007
+8.2304000e+004    +1.0873093e-006
+8.2432000e+004    +1.3400440e-006
+8.2560000e+004    +1.6380794e-006
+8.2688000e+004    +1.5016032e-006
+8.2816000e+004    +8.9203570e-007
+8.2944000e+004    +8.9501810e-007
+8.3072000e+004    +1.1206278e-006
+8.3200000e+004    +1.6259895e-006
+8.3328000e+004    +1.2118727e-006
+8.3456000e+004    +1.8345510e-006
+8.3584000e+004    +2.4083631e-006
+8.3712000e+004    +2.0611260e-006
+8.3840000e+004    +1.6416841e-006
+8.3968000e+004    +1.4060514e-006
+8.4096000e+004    +2.3365963e-006
+8.4224000e+004    +2.8449890e-006
+8.4352000e+004    +4.6367227e-006
+8.4480000e+004    +3.5014668e-006
+8.4608000e+004    +7.8836541e-007
+8.4736000e+004    +4.9749946e-007
+8.4864000e+004    +9.1614180e-007
+8.4992000e+004    +2.6726134e-006
+8.5120000e+004    +1.7472665e-006
+8.5248000e+004    +8.2181930e-007
+8.5376000e+004    +9.4805148e-007
+8.5504000e+004    +9.2583412e-007
+8.5632000e+004    +1.3376068e-006
+8.5760000e+004    +1.4034587e-006
+8.5888000e+004    +1.1436041e-006
+8.6016000e+004    +1.4935561e-006
+8.6144000e+004    +1.9873398e-006
+8.6272000e+004    +1.2938747e-006
+8.6400000e+004    +1.0721164e-006
+8.6528000e+004    +2.0970213e-006
+8.6656000e+004    +1.6881398e-006
+8.6784000e+004    +1.8749955e-007
+8.6912000e+004    +8.8632640e-007
+8.7040000e+004    +1.0518587e-006
+8.7168000e+004    +2.2204295e-006
+8.7296000e+004    +1.2763713e-006
+8.7424000e+004    +1.0689453e-006
+8.7552000e+004    +5.8090848e-007
+8.7680000e+004    +1.1817743e-006
+8.7808000e+004    +2.3090984e-006
+8.7936000e+004    +2.2306997e-006
+8.8064000e+004    +6.3057257e-007
+8.8192000e+004    +8.3161962e-007
+8.8320000e+004    +1.1819574e-006
+8.8448000e+004    +1.2329358e-006
+8.8576000e+004    +9.7214058e-007
+8.8704000e+004    +9.5482278e-007
+8.8832000e+004    +2.2861143e-006
+8.8960000e+004    +1.4952017e-006
+8.9088000e+004    +1.0354329e-006
+8.9216000e+004    +2.2068552e-006
+8.9344000e+004    +2.8570216e-006
+8.9472000e+004    +2.8064007e-006
+8.9600000e+004    +2.5403463e-006
+8.9728000e+004    +1.2396414e-006
+8.9856000e+004    +1.1400049e-006
+8.9984000e+004    +3.0354329e-006
+9.0112000e+004    +4.1942649e-006
+9.0240000e+004    +4.2419206e-006
+9.0368000e+004    +1.9734259e-006
+9.0496000e+004    +1.7688351e-006
+9.0624000e+004    +3.9225656e-006
+9.0752000e+004    +2.6114892e-006
+9.0880000e+004    +1.5492982e-006
+9.1008000e+004    +3.7993602e-006
+9.1136000e+004    +3.4452744e-006
+9.1264000e+004    +1.3111717e-006
+9.1392000e+004    +1.2836908e-006
+9.1520000e+004    +1.3461920e-006
+9.1648000e+004    +1.0869082e-006
+9.1776000e+004    +1.4280587e-006
+9.1904000e+004    +1.9658269e-006
+9.2032000e+004    +7.3173231e-007
+9.2160000e+004    +1.2191381e-006
+9.2288000e+004    +8.5987227e-007
+9.2416000e+004    +3.3776342e-007
+9.2544000e+004    +9.1265599e-007
+9.2672000e+004    +1.2955279e-006
+9.2800000e+004    +7.4861583e-007
+9.2928000e+004    +1.0870981e-007
+9.3056000e+004    +2.5242730e-006
+9.3184000e+004    +2.3789312e-006
+9.3312000e+004    +4.5378371e-007
+9.3440000e+004    +1.5436609e-006
+9.3568000e+004    +1.6778712e-006
+9.3696000e+004    +1.9878396e-006
+9.3824000e+004    +6.6880682e-007
+9.3952000e+004    +2.1945780e-006
+9.4080000e+004    +1.8393431e-006
+9.4208000e+004    +1.2264214e-006
+9.4336000e+004    +2.4427089e-007
+9.4464000e+004    +1.6537673e-006
+9.4592000e+004    +2.3982752e-006
+9.4720000e+004    +2.7344088e-006
+9.4848000e+004    +3.7227037e-006
+9.4976000e+004    +2.0148186e-006
+9.5104000e+004    +1.7680177e-006
+9.5232000e+004    +7.6257862e-007
+9.5360000e+004    +1.8265256e-006
+9.5488000e+004    +1.4626219e-006
+9.5616000e+004    +8.8375714e-007
+9.5744000e+004    +1.3833105e-006
+9.5872000e+004    +1.7337596e-006
+9.6000000e+004    +3.0934000e-006
+9.6128000e+004    +3.9187562e-006
+9.6256000e+004    +3.6660147e-006
+9.6384000e+004    +2.0365994e-006
+9.6512000e+004    +2.0979010e-006
+9.6640000e+004    +1.5385069e-006
+9.6768000e+004    +2.4634614e-006
+9.6896000e+004    +1.6725041e-006
+9.7024000e+004    +2.4527174e-007
+9.7152000e+004    +1.9933188e-006
+9.7280000e+004    +2.7832086e-006
+9.7408000e+004    +8.3829445e-007
+9.7536000e+004    +1.5822496e-006
+9.7664000e+004    +1.2083875e-006
+9.7792000e+004    +1.5638730e-006
+9.7920000e+004    +1.6729431e-006
+9.8048000e+004    +6.8321822e-007
+9.8176000e+004    +9.9986164e-007
+9.8304000e+004    +1.4052381e-006
+9.8432000e+004    +1.8351553e-006
+9.8560000e+004    +2.9691421e-006
+9.8688000e+004    +2.2134752e-006
+9.8816000e+004    +1.0871935e-006
+9.8944000e+004    +2.8714564e-006
+9.9072000e+004    +3.9013948e-006
+9.9200000e+004    +3.1648376e-006
+9.9328000e+004    +2.2887741e-006
+9.9456000e+004    +2.4572671e-006
+9.9584000e+004    +2.4419769e-006
+9.9712000e+004    +1.2322673e-006
+9.9840000e+004    +1.8757327e-006
+9.9968000e+004    +1.6634353e-006
+1.0009600e+005    +2.7967881e-006
+1.0022400e+005    +4.4900312e-006
+1.0035200e+005    +3.2737510e-006
+1.0048000e+005    +1.7506501e-006
+1.0060800e+005    +1.6136610e-006
+1.0073600e+005    +8.1247157e-007
+1.0086400e+005    +2.5242618e-006
+1.0099200e+005    +8.3106374e-007
+1.0112000e+005    +4.2606989e-006
+1.0124800e+005    +2.5831998e-006
+1.0137600e+005    +1.7831243e-006
+1.0150400e+005    +3.8012672e-006
+1.0163200e+005    +2.2601855e-006
+1.0176000e+005    +7.8209587e-007
+1.0188800e+005    +9.2141465e-007
+1.0201600e+005    +2.3301043e-006
+1.0214400e+005    +3.7138732e-006
+1.0227200e+005    +4.2841207e-006
