# DC Val: 0.6992559300000001
# SR785 Measurement - Timestamp: Mar 06 2020 - 01:37:24
# Parameter File: TransSpec1.yml
#---------- Measurement Setup ------------
# Start Frequency (Hz): 0.000000
# Frequency Span (Hz): 800.000000
# Frequency Resolution: 800
# Number of Averages: 2
# Averaging Mode: None
# Window function: Hanning
#---------- Measurement Parameters ----------
# Measurement Group:  "FFT" "FFT"
# Measurements:  "FFT 1" "FFT 2"
# View:  "Log Magnitude" "Log Magnitude"
# Unit:  "Vrms/rtHz" "dBVpk"
#---------- Input Parameters ----------
# Input Source: Analog
# Input Mode: Single ended, Single ended
# Input Grounding: Float, Float
# Input Coupling: AC, AC
# Input Range: -36.0dBVpk, -34.0dBVpk
# Auto Range: Off, Off
# Auto Range Mode: Tracking, Tracking
# Anti-Aliasing Filter: On, On
#---------- Source Parameters ----------
# Source Type: Sine
# Source Amplitude: 500.0mVpk
# Source On: 0

#---------- Measurement Data ----------
# [Freq(Hz) Display 0(Vrms/rtHz) Display 1(dBVpk) ]
+0.0000000e+000    +1.3469453e-003
+1.0000000e+000    +1.8560278e-004
+2.0000000e+000    +9.3163271e-004
+3.0000000e+000    +3.9535502e-004
+4.0000000e+000    +7.4280921e-005
+5.0000000e+000    +1.5664584e-004
+6.0000000e+000    +1.0595960e-004
+7.0000000e+000    +6.8791596e-005
+8.0000000e+000    +4.5107099e-005
+9.0000000e+000    +1.4190184e-005
+1.0000000e+001    +2.6737993e-005
+1.1000000e+001    +5.6150162e-005
+1.2000000e+001    +4.7873818e-005
+1.3000000e+001    +3.5320747e-005
+1.4000000e+001    +1.6435435e-005
+1.5000000e+001    +2.4880699e-006
+1.6000000e+001    +1.8526065e-005
+1.7000000e+001    +2.9074606e-006
+1.8000000e+001    +2.8231852e-005
+1.9000000e+001    +1.4330079e-005
+2.0000000e+001    +2.4375277e-005
+2.1000000e+001    +1.9843179e-005
+2.2000000e+001    +2.2092991e-005
+2.3000000e+001    +1.5482983e-005
+2.4000000e+001    +1.4488411e-005
+2.5000000e+001    +1.1460275e-005
+2.6000000e+001    +1.9372521e-006
+2.7000000e+001    +9.4312618e-006
+2.8000000e+001    +7.4359500e-006
+2.9000000e+001    +5.7017683e-006
+3.0000000e+001    +2.2297961e-006
+3.1000000e+001    +1.2107315e-005
+3.2000000e+001    +1.4853237e-005
+3.3000000e+001    +7.9338270e-006
+3.4000000e+001    +5.3504900e-006
+3.5000000e+001    +3.9890383e-006
+3.6000000e+001    +2.5031457e-006
+3.7000000e+001    +1.1079116e-005
+3.8000000e+001    +1.4400614e-005
+3.9000000e+001    +5.6009039e-006
+4.0000000e+001    +7.4244717e-006
+4.1000000e+001    +1.0607681e-005
+4.2000000e+001    +5.8212095e-006
+4.3000000e+001    +1.5240163e-006
+4.4000000e+001    +5.7977936e-006
+4.5000000e+001    +3.7099771e-006
+4.6000000e+001    +2.1792875e-006
+4.7000000e+001    +5.2105970e-006
+4.8000000e+001    +6.6847792e-006
+4.9000000e+001    +6.3983284e-006
+5.0000000e+001    +4.5345600e-006
+5.1000000e+001    +4.0042432e-006
+5.2000000e+001    +3.3547344e-006
+5.3000000e+001    +4.0234227e-006
+5.4000000e+001    +3.2483690e-006
+5.5000000e+001    +5.2170540e-006
+5.6000000e+001    +6.1827891e-006
+5.7000000e+001    +5.2751202e-006
+5.8000000e+001    +1.2631425e-006
+5.9000000e+001    +3.3680983e-006
+6.0000000e+001    +4.6594073e-006
+6.1000000e+001    +7.2920834e-006
+6.2000000e+001    +6.6106086e-006
+6.3000000e+001    +2.8119525e-006
+6.4000000e+001    +4.0194004e-006
+6.5000000e+001    +3.0015624e-006
+6.6000000e+001    +3.0413712e-006
+6.7000000e+001    +4.1964900e-006
+6.8000000e+001    +5.5631685e-006
+6.9000000e+001    +4.9098658e-006
+7.0000000e+001    +3.0432818e-006
+7.1000000e+001    +3.2286489e-006
+7.2000000e+001    +1.6495401e-006
+7.3000000e+001    +2.9907887e-006
+7.4000000e+001    +2.8706968e-006
+7.5000000e+001    +4.0850464e-006
+7.6000000e+001    +1.9947615e-006
+7.7000000e+001    +2.6437490e-006
+7.8000000e+001    +3.1198347e-006
+7.9000000e+001    +1.9414106e-006
+8.0000000e+001    +1.2359786e-006
+8.1000000e+001    +2.0365972e-006
+8.2000000e+001    +1.4404203e-006
+8.3000000e+001    +1.9387523e-006
+8.4000000e+001    +4.0783329e-006
+8.5000000e+001    +5.0646431e-006
+8.6000000e+001    +2.3536468e-006
+8.7000000e+001    +2.3526236e-006
+8.8000000e+001    +4.2174838e-006
+8.9000000e+001    +2.7207825e-006
+9.0000000e+001    +1.1442936e-006
+9.1000000e+001    +1.9269867e-006
+9.2000000e+001    +1.3161925e-006
+9.3000000e+001    +1.9651191e-006
+9.4000000e+001    +2.9364528e-006
+9.5000000e+001    +1.3933268e-006
+9.6000000e+001    +1.8592821e-006
+9.7000000e+001    +2.7968895e-006
+9.8000000e+001    +1.5569086e-006
+9.9000000e+001    +1.1918889e-006
+1.0000000e+002    +8.7844506e-007
+1.0100000e+002    +1.5426883e-006
+1.0200000e+002    +1.6637331e-006
+1.0300000e+002    +4.0549367e-007
+1.0400000e+002    +1.6638189e-006
+1.0500000e+002    +1.5382468e-006
+1.0600000e+002    +9.8313649e-007
+1.0700000e+002    +1.6086655e-006
+1.0800000e+002    +1.0190207e-006
+1.0900000e+002    +1.4458361e-006
+1.1000000e+002    +8.7543714e-007
+1.1100000e+002    +5.5118363e-007
+1.1200000e+002    +7.7606023e-007
+1.1300000e+002    +4.1775266e-007
+1.1400000e+002    +9.5669282e-007
+1.1500000e+002    +6.6710390e-007
+1.1600000e+002    +1.2338079e-006
+1.1700000e+002    +1.5204947e-006
+1.1800000e+002    +8.9059125e-007
+1.1900000e+002    +1.6132553e-006
+1.2000000e+002    +4.1462526e-006
+1.2100000e+002    +3.6217223e-006
+1.2200000e+002    +1.6051156e-006
+1.2300000e+002    +1.1816732e-006
+1.2400000e+002    +1.5981642e-006
+1.2500000e+002    +9.6862254e-007
+1.2600000e+002    +1.8529563e-007
+1.2700000e+002    +5.3090531e-007
+1.2800000e+002    +6.4523817e-007
+1.2900000e+002    +1.2912194e-006
+1.3000000e+002    +1.1952726e-006
+1.3100000e+002    +5.1602166e-007
+1.3200000e+002    +1.3611661e-006
+1.3300000e+002    +1.3154327e-006
+1.3400000e+002    +6.5833018e-007
+1.3500000e+002    +7.9704364e-007
+1.3600000e+002    +5.1230649e-007
+1.3700000e+002    +1.2135024e-006
+1.3800000e+002    +1.3912951e-006
+1.3900000e+002    +8.7993652e-007
+1.4000000e+002    +1.9958438e-007
+1.4100000e+002    +9.0636581e-007
+1.4200000e+002    +5.1170275e-007
+1.4300000e+002    +4.0277851e-007
+1.4400000e+002    +8.0807314e-007
+1.4500000e+002    +8.9341870e-007
+1.4600000e+002    +7.0776065e-007
+1.4700000e+002    +7.8804089e-007
+1.4800000e+002    +9.4305784e-007
+1.4900000e+002    +7.2129166e-007
+1.5000000e+002    +8.6881663e-008
+1.5100000e+002    +2.2974754e-007
+1.5200000e+002    +2.1782277e-007
+1.5300000e+002    +3.3158443e-007
+1.5400000e+002    +4.6560933e-007
+1.5500000e+002    +2.1704142e-007
+1.5600000e+002    +4.2154096e-007
+1.5700000e+002    +1.6016810e-007
+1.5800000e+002    +4.0334498e-007
+1.5900000e+002    +5.9507266e-007
+1.6000000e+002    +7.0350728e-007
+1.6100000e+002    +8.6691375e-007
+1.6200000e+002    +3.7132617e-007
+1.6300000e+002    +4.7352148e-007
+1.6400000e+002    +4.2226685e-007
+1.6500000e+002    +2.6233292e-007
+1.6600000e+002    +2.9088466e-007
+1.6700000e+002    +1.5525541e-007
+1.6800000e+002    +7.8559259e-007
+1.6900000e+002    +4.7680408e-007
+1.7000000e+002    +3.0227253e-007
+1.7100000e+002    +1.4032892e-007
+1.7200000e+002    +2.6631812e-007
+1.7300000e+002    +1.9744468e-007
+1.7400000e+002    +4.9321096e-007
+1.7500000e+002    +5.6796250e-007
+1.7600000e+002    +3.5543897e-007
+1.7700000e+002    +4.6183757e-007
+1.7800000e+002    +2.3530733e-007
+1.7900000e+002    +7.8037692e-007
+1.8000000e+002    +7.1326588e-007
+1.8100000e+002    +3.0411439e-007
+1.8200000e+002    +6.2978380e-008
+1.8300000e+002    +2.2091049e-007
+1.8400000e+002    +3.5589352e-007
+1.8500000e+002    +2.6730098e-007
+1.8600000e+002    +1.6983351e-007
+1.8700000e+002    +3.8081933e-007
+1.8800000e+002    +1.9826344e-007
+1.8900000e+002    +4.7000137e-007
+1.9000000e+002    +6.8582847e-007
+1.9100000e+002    +2.7448405e-007
+1.9200000e+002    +5.0153272e-007
+1.9300000e+002    +2.7562348e-007
+1.9400000e+002    +1.7415321e-007
+1.9500000e+002    +2.7164333e-007
+1.9600000e+002    +3.6453758e-007
+1.9700000e+002    +2.0798763e-007
+1.9800000e+002    +4.5954118e-007
+1.9900000e+002    +3.8850231e-007
+2.0000000e+002    +3.1939123e-007
+2.0100000e+002    +6.3662759e-007
+2.0200000e+002    +1.7583092e-007
+2.0300000e+002    +4.3047254e-007
+2.0400000e+002    +4.2786394e-007
+2.0500000e+002    +2.7373193e-007
+2.0600000e+002    +3.8596917e-007
+2.0700000e+002    +3.5786837e-007
+2.0800000e+002    +1.5957831e-007
+2.0900000e+002    +5.9791239e-007
+2.1000000e+002    +5.5109223e-007
+2.1100000e+002    +1.5148608e-007
+2.1200000e+002    +2.2481868e-007
+2.1300000e+002    +2.5461767e-007
+2.1400000e+002    +2.7546375e-007
+2.1500000e+002    +1.5895577e-007
+2.1600000e+002    +4.4508039e-007
+2.1700000e+002    +2.1344435e-007
+2.1800000e+002    +2.6899590e-007
+2.1900000e+002    +2.9265328e-007
+2.2000000e+002    +2.5161074e-007
+2.2100000e+002    +3.0912508e-007
+2.2200000e+002    +1.4125223e-007
+2.2300000e+002    +2.6056523e-007
+2.2400000e+002    +2.0376349e-007
+2.2500000e+002    +7.1509533e-008
+2.2600000e+002    +9.4778187e-008
+2.2700000e+002    +2.6173967e-007
+2.2800000e+002    +3.0377836e-007
+2.2900000e+002    +4.2726917e-008
+2.3000000e+002    +1.7784083e-007
+2.3100000e+002    +3.0848665e-007
+2.3200000e+002    +3.8594672e-007
+2.3300000e+002    +1.0074465e-007
+2.3400000e+002    +1.9823145e-007
+2.3500000e+002    +1.7026069e-007
+2.3600000e+002    +2.7906657e-007
+2.3700000e+002    +2.1961689e-007
+2.3800000e+002    +2.3258741e-007
+2.3900000e+002    +1.4181866e-007
+2.4000000e+002    +9.7838544e-008
+2.4100000e+002    +2.6055693e-007
+2.4200000e+002    +5.6369697e-007
+2.4300000e+002    +6.1791718e-007
+2.4400000e+002    +1.4151659e-007
+2.4500000e+002    +2.8398833e-007
+2.4600000e+002    +1.3959651e-007
+2.4700000e+002    +1.7825801e-007
+2.4800000e+002    +4.9672929e-007
+2.4900000e+002    +2.7421805e-007
+2.5000000e+002    +1.1092578e-007
+2.5100000e+002    +6.8302924e-008
+2.5200000e+002    +9.7594253e-008
+2.5300000e+002    +1.1135569e-007
+2.5400000e+002    +1.1253946e-007
+2.5500000e+002    +1.0189155e-007
+2.5600000e+002    +2.0090464e-007
+2.5700000e+002    +1.8203693e-007
+2.5800000e+002    +1.1311922e-007
+2.5900000e+002    +1.0780586e-007
+2.6000000e+002    +2.7073520e-007
+2.6100000e+002    +5.2447081e-007
+2.6200000e+002    +4.0443499e-007
+2.6300000e+002    +1.9594633e-008
+2.6400000e+002    +3.4768109e-007
+2.6500000e+002    +2.4863496e-007
+2.6600000e+002    +5.1759969e-007
+2.6700000e+002    +6.0648455e-007
+2.6800000e+002    +3.1740316e-007
+2.6900000e+002    +1.3503977e-007
+2.7000000e+002    +1.1607617e-007
+2.7100000e+002    +1.0679680e-007
+2.7200000e+002    +3.6023687e-007
+2.7300000e+002    +4.0258311e-007
+2.7400000e+002    +2.1207825e-007
+2.7500000e+002    +1.2485665e-007
+2.7600000e+002    +8.6135671e-008
+2.7700000e+002    +6.5809822e-008
+2.7800000e+002    +1.4467000e-007
+2.7900000e+002    +6.1032225e-008
+2.8000000e+002    +1.4083304e-007
+2.8100000e+002    +1.4761640e-007
+2.8200000e+002    +9.1144635e-008
+2.8300000e+002    +9.1108014e-008
+2.8400000e+002    +1.2582093e-007
+2.8500000e+002    +1.3218914e-007
+2.8600000e+002    +2.0009870e-007
+2.8700000e+002    +2.7299748e-007
+2.8800000e+002    +1.5236783e-008
+2.8900000e+002    +2.7300078e-007
+2.9000000e+002    +2.4375677e-007
+2.9100000e+002    +1.8549450e-007
+2.9200000e+002    +1.5529444e-007
+2.9300000e+002    +5.9543016e-008
+2.9400000e+002    +9.2031364e-008
+2.9500000e+002    +2.1814181e-007
+2.9600000e+002    +2.1049705e-007
+2.9700000e+002    +2.5633321e-007
+2.9800000e+002    +7.4553576e-008
+2.9900000e+002    +7.5384762e-008
+3.0000000e+002    +2.2691221e-007
+3.0100000e+002    +9.1431595e-008
+3.0200000e+002    +1.8353286e-007
+3.0300000e+002    +1.5695133e-007
+3.0400000e+002    +7.4894793e-008
+3.0500000e+002    +8.5769322e-008
+3.0600000e+002    +8.1011279e-008
+3.0700000e+002    +1.7429497e-007
+3.0800000e+002    +2.9701039e-007
+3.0900000e+002    +3.3273687e-007
+3.1000000e+002    +1.8068407e-007
+3.1100000e+002    +1.5489614e-007
+3.1200000e+002    +1.6667444e-007
+3.1300000e+002    +1.4005924e-007
+3.1400000e+002    +7.9988055e-008
+3.1500000e+002    +3.4693790e-007
+3.1600000e+002    +3.8101425e-007
+3.1700000e+002    +3.4377285e-007
+3.1800000e+002    +2.9535710e-007
+3.1900000e+002    +1.7242506e-007
+3.2000000e+002    +8.9223356e-008
+3.2100000e+002    +2.4101089e-007
+3.2200000e+002    +4.4755015e-007
+3.2300000e+002    +2.4938626e-007
+3.2400000e+002    +8.9755112e-008
+3.2500000e+002    +1.1141280e-007
+3.2600000e+002    +4.5688782e-007
+3.2700000e+002    +3.2967822e-007
+3.2800000e+002    +2.3362935e-007
+3.2900000e+002    +3.0232198e-007
+3.3000000e+002    +2.8223423e-007
+3.3100000e+002    +1.2008157e-007
+3.3200000e+002    +9.5915915e-008
+3.3300000e+002    +2.6175061e-007
+3.3400000e+002    +2.7724880e-007
+3.3500000e+002    +6.6680876e-008
+3.3600000e+002    +1.3888348e-007
+3.3700000e+002    +9.2183257e-008
+3.3800000e+002    +1.7121168e-007
+3.3900000e+002    +3.2526802e-007
+3.4000000e+002    +2.8795102e-007
+3.4100000e+002    +1.3920561e-007
+3.4200000e+002    +3.0426403e-007
+3.4300000e+002    +2.4997510e-007
+3.4400000e+002    +2.1677278e-007
+3.4500000e+002    +2.9209505e-007
+3.4600000e+002    +2.0773773e-007
+3.4700000e+002    +1.7015118e-007
+3.4800000e+002    +5.3634005e-007
+3.4900000e+002    +5.9737170e-007
+3.5000000e+002    +1.4400740e-007
+3.5100000e+002    +4.7897214e-007
+3.5200000e+002    +7.3191552e-007
+3.5300000e+002    +4.8625054e-007
+3.5400000e+002    +2.3401086e-007
+3.5500000e+002    +5.1585738e-007
+3.5600000e+002    +3.6146508e-007
+3.5700000e+002    +1.8822168e-007
+3.5800000e+002    +3.2940937e-007
+3.5900000e+002    +2.6749825e-007
+3.6000000e+002    +2.8868735e-007
+3.6100000e+002    +2.3216414e-007
+3.6200000e+002    +1.9214325e-007
+3.6300000e+002    +2.2499647e-007
+3.6400000e+002    +8.0776978e-008
+3.6500000e+002    +1.4674474e-007
+3.6600000e+002    +1.6180395e-007
+3.6700000e+002    +3.0272687e-007
+3.6800000e+002    +1.8983513e-007
+3.6900000e+002    +1.1801574e-007
+3.7000000e+002    +1.9498530e-007
+3.7100000e+002    +2.3129704e-007
+3.7200000e+002    +1.3003047e-007
+3.7300000e+002    +4.3567777e-008
+3.7400000e+002    +6.5301947e-008
+3.7500000e+002    +1.4481334e-007
+3.7600000e+002    +1.0404334e-007
+3.7700000e+002    +1.4357514e-007
+3.7800000e+002    +7.8511746e-008
+3.7900000e+002    +3.1600840e-007
+3.8000000e+002    +3.0322718e-007
+3.8100000e+002    +2.7535819e-007
+3.8200000e+002    +7.3044077e-008
+3.8300000e+002    +2.4279385e-007
+3.8400000e+002    +1.6920329e-007
+3.8500000e+002    +9.7131263e-008
+3.8600000e+002    +1.7555334e-007
+3.8700000e+002    +2.6868184e-008
+3.8800000e+002    +1.8056409e-007
+3.8900000e+002    +1.8214109e-007
+3.9000000e+002    +9.9839390e-008
+3.9100000e+002    +8.0311196e-008
+3.9200000e+002    +3.8305572e-008
+3.9300000e+002    +1.6966820e-007
+3.9400000e+002    +3.1317950e-007
+3.9500000e+002    +2.9649266e-007
+3.9600000e+002    +1.5892087e-007
+3.9700000e+002    +5.9852781e-008
+3.9800000e+002    +1.3100953e-007
+3.9900000e+002    +2.6217629e-007
+4.0000000e+002    +2.4803973e-007
+4.0100000e+002    +5.8373573e-008
+4.0200000e+002    +1.5723057e-007
+4.0300000e+002    +2.0613818e-008
+4.0400000e+002    +1.3096164e-007
+4.0500000e+002    +2.1646406e-007
+4.0600000e+002    +2.5713209e-007
+4.0700000e+002    +2.5148674e-007
+4.0800000e+002    +1.8700941e-007
+4.0900000e+002    +2.8031303e-007
+4.1000000e+002    +1.9067110e-007
+4.1100000e+002    +1.3575796e-007
+4.1200000e+002    +7.0569584e-008
+4.1300000e+002    +2.4754348e-008
+4.1400000e+002    +9.2730211e-008
+4.1500000e+002    +2.0469992e-007
+4.1600000e+002    +9.7787641e-008
+4.1700000e+002    +7.9457962e-008
+4.1800000e+002    +1.2891201e-007
+4.1900000e+002    +1.2704740e-007
+4.2000000e+002    +4.0349514e-007
+4.2100000e+002    +3.2337539e-007
+4.2200000e+002    +1.1820365e-007
+4.2300000e+002    +1.2093086e-007
+4.2400000e+002    +2.4274881e-008
+4.2500000e+002    +2.0893062e-007
+4.2600000e+002    +1.0765032e-007
+4.2700000e+002    +5.8929313e-008
+4.2800000e+002    +9.2039649e-008
+4.2900000e+002    +1.1064298e-007
+4.3000000e+002    +1.8398258e-007
+4.3100000e+002    +8.4402693e-008
+4.3200000e+002    +6.8850909e-008
+4.3300000e+002    +5.6039855e-008
+4.3400000e+002    +1.3933160e-007
+4.3500000e+002    +1.4100509e-007
+4.3600000e+002    +8.3937294e-008
+4.3700000e+002    +1.6722343e-007
+4.3800000e+002    +1.4703714e-007
+4.3900000e+002    +9.2867154e-008
+4.4000000e+002    +1.6546173e-007
+4.4100000e+002    +1.6082980e-007
+4.4200000e+002    +1.4290076e-007
+4.4300000e+002    +7.2006358e-008
+4.4400000e+002    +3.1056342e-007
+4.4500000e+002    +4.0421568e-007
+4.4600000e+002    +3.0101035e-007
+4.4700000e+002    +6.0338543e-008
+4.4800000e+002    +1.4650729e-007
+4.4900000e+002    +8.0714386e-008
+4.5000000e+002    +2.5225164e-008
+4.5100000e+002    +3.1898017e-007
+4.5200000e+002    +1.8454602e-007
+4.5300000e+002    +1.4298190e-007
+4.5400000e+002    +3.1641878e-007
+4.5500000e+002    +2.4809037e-007
+4.5600000e+002    +1.5227550e-007
+4.5700000e+002    +1.7198698e-007
+4.5800000e+002    +2.3729859e-007
+4.5900000e+002    +2.2469283e-007
+4.6000000e+002    +1.2062918e-007
+4.6100000e+002    +2.1955590e-007
+4.6200000e+002    +3.3363534e-007
+4.6300000e+002    +5.9457566e-008
+4.6400000e+002    +2.8405631e-007
+4.6500000e+002    +2.2331871e-007
+4.6600000e+002    +2.3027182e-007
+4.6700000e+002    +1.7359062e-007
+4.6800000e+002    +4.7090221e-008
+4.6900000e+002    +2.0673656e-007
+4.7000000e+002    +2.6719064e-007
+4.7100000e+002    +1.9502212e-007
+4.7200000e+002    +2.1159330e-007
+4.7300000e+002    +2.2554853e-007
+4.7400000e+002    +1.5656872e-007
+4.7500000e+002    +2.1310341e-007
+4.7600000e+002    +2.1205543e-007
+4.7700000e+002    +1.4801061e-007
+4.7800000e+002    +1.8252587e-007
+4.7900000e+002    +5.8363192e-008
+4.8000000e+002    +9.9077823e-008
+4.8100000e+002    +2.8602861e-007
+4.8200000e+002    +2.7564315e-007
+4.8300000e+002    +2.4965036e-007
+4.8400000e+002    +3.4423817e-007
+4.8500000e+002    +3.2070619e-007
+4.8600000e+002    +1.3912447e-007
+4.8700000e+002    +2.2782689e-007
+4.8800000e+002    +1.7552867e-007
+4.8900000e+002    +1.8542711e-007
+4.9000000e+002    +2.2687956e-007
+4.9100000e+002    +2.6148089e-007
+4.9200000e+002    +2.0577615e-007
+4.9300000e+002    +2.5114679e-007
+4.9400000e+002    +2.5012170e-007
+4.9500000e+002    +6.5720641e-008
+4.9600000e+002    +1.0696039e-007
+4.9700000e+002    +9.2387531e-008
+4.9800000e+002    +6.9148037e-008
+4.9900000e+002    +1.8846859e-007
+5.0000000e+002    +3.0431750e-007
+5.0100000e+002    +4.3720399e-007
+5.0200000e+002    +3.4674062e-007
+5.0300000e+002    +2.8292206e-007
+5.0400000e+002    +1.1005971e-007
+5.0500000e+002    +2.3918457e-007
+5.0600000e+002    +2.8429218e-007
+5.0700000e+002    +3.0544592e-007
+5.0800000e+002    +2.8289691e-007
+5.0900000e+002    +2.6495667e-007
+5.1000000e+002    +2.2798903e-007
+5.1100000e+002    +2.4109136e-007
+5.1200000e+002    +3.0285753e-007
+5.1300000e+002    +3.7888501e-007
+5.1400000e+002    +2.1600609e-007
+5.1500000e+002    +3.0936479e-007
+5.1600000e+002    +2.3442102e-007
+5.1700000e+002    +1.1911968e-007
+5.1800000e+002    +1.0807678e-007
+5.1900000e+002    +7.6084163e-008
+5.2000000e+002    +7.7545039e-008
+5.2100000e+002    +1.2696972e-007
+5.2200000e+002    +1.1735894e-007
+5.2300000e+002    +1.3268762e-007
+5.2400000e+002    +1.2524838e-007
+5.2500000e+002    +1.2871995e-007
+5.2600000e+002    +5.1088932e-008
+5.2700000e+002    +1.1399973e-007
+5.2800000e+002    +1.5424123e-007
+5.2900000e+002    +1.6808158e-007
+5.3000000e+002    +1.4565146e-007
+5.3100000e+002    +9.2944781e-008
+5.3200000e+002    +1.6818275e-007
+5.3300000e+002    +2.3615470e-007
+5.3400000e+002    +2.1145767e-007
+5.3500000e+002    +1.6457375e-007
+5.3600000e+002    +2.4101672e-008
+5.3700000e+002    +1.6195148e-007
+5.3800000e+002    +2.7435479e-007
+5.3900000e+002    +3.8860941e-007
+5.4000000e+002    +4.0673859e-007
+5.4100000e+002    +3.1550260e-007
+5.4200000e+002    +2.1179459e-007
+5.4300000e+002    +1.3821021e-007
+5.4400000e+002    +1.7219860e-007
+5.4500000e+002    +1.0706355e-007
+5.4600000e+002    +1.9758347e-007
+5.4700000e+002    +1.3305409e-007
+5.4800000e+002    +6.8760485e-008
+5.4900000e+002    +7.5529336e-008
+5.5000000e+002    +1.7348184e-007
+5.5100000e+002    +3.9258575e-007
+5.5200000e+002    +4.2890295e-007
+5.5300000e+002    +3.4748990e-007
+5.5400000e+002    +2.4428164e-007
+5.5500000e+002    +2.0081465e-007
+5.5600000e+002    +6.1939865e-008
+5.5700000e+002    +4.0715815e-008
+5.5800000e+002    +1.7486906e-007
+5.5900000e+002    +1.3328422e-007
+5.6000000e+002    +1.1361362e-007
+5.6100000e+002    +1.3330720e-007
+5.6200000e+002    +8.2740549e-008
+5.6300000e+002    +1.3052181e-007
+5.6400000e+002    +2.0655233e-007
+5.6500000e+002    +1.8815618e-007
+5.6600000e+002    +2.2185895e-007
+5.6700000e+002    +1.8073844e-007
+5.6800000e+002    +3.4753036e-008
+5.6900000e+002    +6.3123132e-008
+5.7000000e+002    +3.4194070e-008
+5.7100000e+002    +1.4211950e-007
+5.7200000e+002    +3.2858830e-007
+5.7300000e+002    +7.4757757e-008
+5.7400000e+002    +1.8116022e-007
+5.7500000e+002    +3.0792253e-007
+5.7600000e+002    +2.3927097e-007
+5.7700000e+002    +2.2317556e-007
+5.7800000e+002    +3.1267513e-007
+5.7900000e+002    +2.4328833e-007
+5.8000000e+002    +1.8192902e-007
+5.8100000e+002    +1.2398510e-007
+5.8200000e+002    +1.8043349e-007
+5.8300000e+002    +2.2568577e-007
+5.8400000e+002    +1.7061268e-007
+5.8500000e+002    +7.1467461e-008
+5.8600000e+002    +7.4610320e-008
+5.8700000e+002    +1.1439130e-007
+5.8800000e+002    +3.1646778e-008
+5.8900000e+002    +2.0449437e-007
+5.9000000e+002    +2.4506176e-007
+5.9100000e+002    +2.5032693e-007
+5.9200000e+002    +2.0783492e-007
+5.9300000e+002    +1.2952108e-007
+5.9400000e+002    +3.0753668e-008
+5.9500000e+002    +1.6131509e-007
+5.9600000e+002    +9.9332269e-008
+5.9700000e+002    +1.1315003e-007
+5.9800000e+002    +2.1831049e-008
+5.9900000e+002    +7.3274769e-008
+6.0000000e+002    +1.3309865e-007
+6.0100000e+002    +8.5284768e-008
+6.0200000e+002    +1.4213667e-007
+6.0300000e+002    +8.6216005e-008
+6.0400000e+002    +2.1842150e-007
+6.0500000e+002    +2.0307313e-007
+6.0600000e+002    +1.1071395e-007
+6.0700000e+002    +1.9958789e-007
+6.0800000e+002    +9.9428398e-008
+6.0900000e+002    +3.1490768e-007
+6.1000000e+002    +1.9566943e-007
+6.1100000e+002    +1.2623397e-007
+6.1200000e+002    +1.6028667e-007
+6.1300000e+002    +1.5332995e-007
+6.1400000e+002    +1.9948426e-007
+6.1500000e+002    +2.8879450e-007
+6.1600000e+002    +3.4888834e-007
+6.1700000e+002    +5.5242257e-008
+6.1800000e+002    +3.1529862e-007
+6.1900000e+002    +2.2328757e-007
+6.2000000e+002    +1.2737058e-007
+6.2100000e+002    +1.0562251e-007
+6.2200000e+002    +3.2082346e-007
+6.2300000e+002    +4.5821710e-007
+6.2400000e+002    +3.0233988e-007
+6.2500000e+002    +1.1408313e-007
+6.2600000e+002    +8.2499348e-008
+6.2700000e+002    +2.8905114e-007
+6.2800000e+002    +2.8864267e-007
+6.2900000e+002    +8.3165254e-008
+6.3000000e+002    +2.1715893e-007
+6.3100000e+002    +2.3347089e-007
+6.3200000e+002    +2.4104637e-007
+6.3300000e+002    +2.5330408e-007
+6.3400000e+002    +6.5808521e-008
+6.3500000e+002    +1.7563200e-007
+6.3600000e+002    +9.0251980e-008
+6.3700000e+002    +2.9020740e-007
+6.3800000e+002    +2.5389130e-007
+6.3900000e+002    +4.4992692e-008
+6.4000000e+002    +2.6413060e-008
+6.4100000e+002    +2.3650449e-008
+6.4200000e+002    +1.5020038e-007
+6.4300000e+002    +7.0978167e-008
+6.4400000e+002    +1.1796250e-007
+6.4500000e+002    +2.4758887e-007
+6.4600000e+002    +2.2325987e-007
+6.4700000e+002    +8.6117609e-008
+6.4800000e+002    +2.4918262e-007
+6.4900000e+002    +3.0799220e-007
+6.5000000e+002    +1.0995547e-007
+6.5100000e+002    +1.5988329e-007
+6.5200000e+002    +2.3148937e-007
+6.5300000e+002    +7.9180239e-008
+6.5400000e+002    +2.7842844e-007
+6.5500000e+002    +4.1716871e-007
+6.5600000e+002    +2.1882380e-007
+6.5700000e+002    +1.5304788e-007
+6.5800000e+002    +5.5632910e-008
+6.5900000e+002    +1.9634022e-007
+6.6000000e+002    +2.0646050e-007
+6.6100000e+002    +1.5461018e-007
+6.6200000e+002    +2.9587025e-007
+6.6300000e+002    +3.4589118e-007
+6.6400000e+002    +2.4139464e-007
+6.6500000e+002    +1.2410835e-007
+6.6600000e+002    +1.4962198e-007
+6.6700000e+002    +1.5663475e-007
+6.6800000e+002    +1.8407856e-007
+6.6900000e+002    +4.2058677e-008
+6.7000000e+002    +2.0331117e-007
+6.7100000e+002    +7.8077029e-008
+6.7200000e+002    +2.5929893e-007
+6.7300000e+002    +3.8894493e-007
+6.7400000e+002    +3.8696166e-007
+6.7500000e+002    +3.1361100e-007
+6.7600000e+002    +1.7067714e-007
+6.7700000e+002    +1.0972356e-008
+6.7800000e+002    +2.2956044e-007
+6.7900000e+002    +2.2067195e-007
+6.8000000e+002    +1.4624676e-007
+6.8100000e+002    +2.0349833e-007
+6.8200000e+002    +2.7579239e-007
+6.8300000e+002    +2.4621338e-007
+6.8400000e+002    +1.7512883e-007
+6.8500000e+002    +2.1667070e-007
+6.8600000e+002    +2.8815850e-007
+6.8700000e+002    +1.6176274e-007
+6.8800000e+002    +3.7132372e-007
+6.8900000e+002    +3.0241094e-007
+6.9000000e+002    +1.5516883e-007
+6.9100000e+002    +3.7009980e-007
+6.9200000e+002    +3.6854794e-007
+6.9300000e+002    +3.3159790e-007
+6.9400000e+002    +2.4319485e-007
+6.9500000e+002    +1.5884638e-007
+6.9600000e+002    +1.5284687e-007
+6.9700000e+002    +9.4925973e-008
+6.9800000e+002    +9.1341690e-008
+6.9900000e+002    +2.2128094e-007
+7.0000000e+002    +2.0599813e-007
+7.0100000e+002    +1.3191888e-007
+7.0200000e+002    +1.6261342e-007
+7.0300000e+002    +3.9602929e-007
+7.0400000e+002    +4.0741932e-007
+7.0500000e+002    +2.1637447e-007
+7.0600000e+002    +6.6665798e-008
+7.0700000e+002    +1.3944747e-007
+7.0800000e+002    +2.1928415e-008
+7.0900000e+002    +3.3577857e-007
+7.1000000e+002    +3.8930295e-007
+7.1100000e+002    +2.9320262e-007
+7.1200000e+002    +2.5997539e-007
+7.1300000e+002    +1.4176464e-007
+7.1400000e+002    +2.1708335e-007
+7.1500000e+002    +7.4899646e-008
+7.1600000e+002    +1.5632138e-007
+7.1700000e+002    +2.7614570e-007
+7.1800000e+002    +1.8963951e-007
+7.1900000e+002    +9.8574674e-008
+7.2000000e+002    +1.2671040e-007
+7.2100000e+002    +2.0170563e-007
+7.2200000e+002    +8.0279015e-008
+7.2300000e+002    +1.3277550e-007
+7.2400000e+002    +1.7347059e-008
+7.2500000e+002    +1.4881641e-007
+7.2600000e+002    +2.4525934e-007
+7.2700000e+002    +1.3369622e-007
+7.2800000e+002    +2.1291631e-007
+7.2900000e+002    +2.7837373e-007
+7.3000000e+002    +2.5841075e-007
+7.3100000e+002    +2.0687507e-007
+7.3200000e+002    +2.2604685e-007
+7.3300000e+002    +9.4450854e-008
+7.3400000e+002    +3.5386427e-007
+7.3500000e+002    +3.1118634e-007
+7.3600000e+002    +2.0509609e-007
+7.3700000e+002    +1.3809326e-007
+7.3800000e+002    +3.0752892e-007
+7.3900000e+002    +2.8047373e-007
+7.4000000e+002    +9.4103569e-008
+7.4100000e+002    +4.6306990e-008
+7.4200000e+002    +3.9053376e-008
+7.4300000e+002    +7.7958475e-008
+7.4400000e+002    +1.6295175e-007
+7.4500000e+002    +2.6502707e-007
+7.4600000e+002    +1.4771838e-007
+7.4700000e+002    +2.6338694e-007
+7.4800000e+002    +2.7005652e-007
+7.4900000e+002    +7.6570643e-008
+7.5000000e+002    +1.2492384e-007
+7.5100000e+002    +2.5103236e-007
+7.5200000e+002    +4.5253685e-007
+7.5300000e+002    +3.7831802e-007
+7.5400000e+002    +2.0742753e-007
+7.5500000e+002    +1.7442342e-007
+7.5600000e+002    +2.1370394e-007
+7.5700000e+002    +1.1054838e-007
+7.5800000e+002    +1.0268128e-007
+7.5900000e+002    +1.3156306e-007
+7.6000000e+002    +2.1351185e-007
+7.6100000e+002    +1.5495414e-007
+7.6200000e+002    +1.5714394e-007
+7.6300000e+002    +7.7307014e-008
+7.6400000e+002    +8.9825996e-008
+7.6500000e+002    +1.3394026e-007
+7.6600000e+002    +2.7676884e-007
+7.6700000e+002    +2.0678173e-007
+7.6800000e+002    +1.8090421e-007
+7.6900000e+002    +2.4825169e-007
+7.7000000e+002    +1.9126050e-007
+7.7100000e+002    +1.0761168e-007
+7.7200000e+002    +1.6217034e-007
+7.7300000e+002    +1.8381479e-007
+7.7400000e+002    +7.5701941e-008
+7.7500000e+002    +4.7744109e-008
+7.7600000e+002    +1.6258396e-007
+7.7700000e+002    +3.1288187e-007
+7.7800000e+002    +1.4255271e-007
+7.7900000e+002    +1.6403490e-007
+7.8000000e+002    +1.6681852e-007
+7.8100000e+002    +2.1094056e-007
+7.8200000e+002    +9.5245014e-008
+7.8300000e+002    +9.3500461e-008
+7.8400000e+002    +2.6398942e-007
+7.8500000e+002    +2.6553039e-007
+7.8600000e+002    +2.0443241e-007
+7.8700000e+002    +1.0449739e-007
+7.8800000e+002    +1.7607512e-007
+7.8900000e+002    +1.0650231e-007
+7.9000000e+002    +2.0858154e-007
+7.9100000e+002    +2.1504627e-007
+7.9200000e+002    +2.6556478e-007
+7.9300000e+002    +9.4225157e-008
+7.9400000e+002    +1.1450113e-008
+7.9500000e+002    +6.5997014e-008
+7.9600000e+002    +4.3957407e-008
+7.9700000e+002    +1.2524137e-007
+7.9800000e+002    +2.9934168e-007
+7.9900000e+002    +4.1749590e-007
#
#
# SR785 Measurement - Timestamp: Mar 06 2020 - 01:37:52
# Parameter File: TransSpec2.yml
#---------- Measurement Setup ------------
# Start Frequency (Hz): 0.000000
# Frequency Span (Hz): 102400.000000
# Frequency Resolution: 800
# Number of Averages: 2
# Averaging Mode: None
# Window function: Hanning
#---------- Measurement Parameters ----------
# Measurement Group:  "FFT" "FFT"
# Measurements:  "FFT 1" "FFT 2"
# View:  "Log Magnitude" "Log Magnitude"
# Unit:  "Vrms/rtHz" "dBVpk"
#---------- Input Parameters ----------
# Input Source: Analog
# Input Mode: Single ended, Single ended
# Input Grounding: Float, Float
# Input Coupling: AC, AC
# Input Range: -36.0dBVpk, -34.0dBVpk
# Auto Range: Off, Off
# Auto Range Mode: Tracking, Tracking
# Anti-Aliasing Filter: On, On
#---------- Source Parameters ----------
# Source Type: Sine
# Source Amplitude: 500.0mVpk
# Source On: 0

#---------- Measurement Data ----------
# [Freq(Hz) Display 0(Vrms/rtHz) Display 1(dBVpk) ]
+8.9600000e+002    +8.5822826e-008
+1.0240000e+003    +2.4143890e-007
+1.1520000e+003    +2.2538515e-007
+1.2800000e+003    +1.7945354e-007
+1.4080000e+003    +1.1012644e-007
+1.5360000e+003    +3.5663753e-008
+1.6640000e+003    +2.3885417e-007
+1.7920000e+003    +3.8927431e-007
+1.9200000e+003    +2.3843938e-007
+2.0480000e+003    +9.3533629e-008
+2.1760000e+003    +1.0463332e-007
+2.3040000e+003    +4.0048457e-007
+2.4320000e+003    +7.7666033e-007
+2.5600000e+003    +6.3758665e-007
+2.6880000e+003    +2.5125959e-007
+2.8160000e+003    +4.0710540e-007
+2.9440000e+003    +6.2628362e-007
+3.0720000e+003    +3.0231865e-007
+3.2000000e+003    +3.4690322e-007
+3.3280000e+003    +6.3610287e-007
+3.4560000e+003    +5.2894222e-007
+3.5840000e+003    +5.7719808e-007
+3.7120000e+003    +5.7266135e-007
+3.8400000e+003    +7.4919961e-007
+3.9680000e+003    +1.0738908e-006
+4.0960000e+003    +1.2749483e-006
+4.2240000e+003    +9.4028900e-007
+4.3520000e+003    +7.3438434e-007
+4.4800000e+003    +1.3640057e-006
+4.6080000e+003    +6.8784271e-007
+4.7360000e+003    +9.8960402e-007
+4.8640000e+003    +1.2881820e-006
+4.9920000e+003    +1.3960341e-006
+5.1200000e+003    +1.2903308e-006
+5.2480000e+003    +8.5918242e-007
+5.3760000e+003    +1.3586771e-006
+5.5040000e+003    +2.0175901e-006
+5.6320000e+003    +1.3564397e-006
+5.7600000e+003    +1.0065244e-006
+5.8880000e+003    +1.7748289e-006
+6.0160000e+003    +2.9525659e-006
+6.1440000e+003    +4.5552841e-007
+6.2720000e+003    +1.2874398e-006
+6.4000000e+003    +5.1007214e-007
+6.5280000e+003    +1.0680993e-006
+6.6560000e+003    +1.3082727e-006
+6.7840000e+003    +7.5011326e-007
+6.9120000e+003    +7.5573217e-007
+7.0400000e+003    +1.3187428e-006
+7.1680000e+003    +1.5546232e-007
+7.2960000e+003    +6.9066391e-007
+7.4240000e+003    +1.2306772e-006
+7.5520000e+003    +2.1869098e-006
+7.6800000e+003    +1.6011342e-006
+7.8080000e+003    +2.0468935e-006
+7.9360000e+003    +2.0174859e-006
+8.0640000e+003    +1.9654103e-006
+8.1920000e+003    +1.9616009e-006
+8.3200000e+003    +2.2469726e-006
+8.4480000e+003    +2.2239014e-006
+8.5760000e+003    +1.2568024e-006
+8.7040000e+003    +1.3247349e-006
+8.8320000e+003    +1.4487711e-006
+8.9600000e+003    +5.8351147e-006
+9.0880000e+003    +5.4523739e-006
+9.2160000e+003    +3.0150816e-006
+9.3440000e+003    +4.5918205e-006
+9.4720000e+003    +3.4323541e-006
+9.6000000e+003    +1.8522993e-006
+9.7280000e+003    +2.8365364e-006
+9.8560000e+003    +1.7236336e-007
+9.9840000e+003    +9.8465318e-007
+1.0112000e+004    +1.7098080e-006
+1.0240000e+004    +4.2872684e-006
+1.0368000e+004    +3.5805076e-006
+1.0496000e+004    +1.4112791e-006
+1.0624000e+004    +1.9232182e-006
+1.0752000e+004    +8.4353314e-007
+1.0880000e+004    +5.0204731e-006
+1.1008000e+004    +5.9963550e-006
+1.1136000e+004    +4.0217046e-006
+1.1264000e+004    +3.9720503e-006
+1.1392000e+004    +5.5280725e-006
+1.1520000e+004    +4.3985892e-006
+1.1648000e+004    +6.0914194e-006
+1.1776000e+004    +6.7237333e-006
+1.1904000e+004    +3.9742054e-006
+1.2032000e+004    +2.8907273e-006
+1.2160000e+004    +4.7458175e-006
+1.2288000e+004    +4.1069929e-006
+1.2416000e+004    +2.5519730e-006
+1.2544000e+004    +2.8158947e-006
+1.2672000e+004    +2.3751495e-006
+1.2800000e+004    +2.6991481e-006
+1.2928000e+004    +2.2550248e-006
+1.3056000e+004    +1.4052318e-006
+1.3184000e+004    +2.6956002e-006
+1.3312000e+004    +2.0916473e-006
+1.3440000e+004    +1.0507471e-006
+1.3568000e+004    +1.5388753e-006
+1.3696000e+004    +3.1759942e-006
+1.3824000e+004    +3.2292196e-006
+1.3952000e+004    +3.3283261e-006
+1.4080000e+004    +5.6360104e-006
+1.4208000e+004    +7.9036226e-006
+1.4336000e+004    +7.3739402e-006
+1.4464000e+004    +5.9029426e-006
+1.4592000e+004    +4.2446600e-006
+1.4720000e+004    +3.6199690e-006
+1.4848000e+004    +5.4529187e-006
+1.4976000e+004    +4.9403911e-006
+1.5104000e+004    +2.6943633e-006
+1.5232000e+004    +2.2515289e-006
+1.5360000e+004    +3.4881864e-006
+1.5488000e+004    +2.3667462e-006
+1.5616000e+004    +2.8673733e-006
+1.5744000e+004    +5.9368717e-006
+1.5872000e+004    +4.2169095e-006
+1.6000000e+004    +3.2694297e-006
+1.6128000e+004    +6.2677341e-006
+1.6256000e+004    +5.6917920e-006
+1.6384000e+004    +2.1723429e-006
+1.6512000e+004    +2.4308806e-006
+1.6640000e+004    +1.6292258e-006
+1.6768000e+004    +4.5736515e-006
+1.6896000e+004    +4.2365491e-006
+1.7024000e+004    +4.1563940e-006
+1.7152000e+004    +3.0871229e-006
+1.7280000e+004    +4.0557334e-006
+1.7408000e+004    +4.1153394e-006
+1.7536000e+004    +1.3098306e-006
+1.7664000e+004    +2.9848738e-006
+1.7792000e+004    +4.0350310e-006
+1.7920000e+004    +2.3853731e-006
+1.8048000e+004    +1.3186632e-006
+1.8176000e+004    +5.8818586e-007
+1.8304000e+004    +4.5224183e-006
+1.8432000e+004    +5.7308462e-006
+1.8560000e+004    +3.7019652e-006
+1.8688000e+004    +2.9315563e-006
+1.8816000e+004    +3.8035050e-006
+1.8944000e+004    +3.1570012e-006
+1.9072000e+004    +1.6352204e-006
+1.9200000e+004    +1.0071192e-006
+1.9328000e+004    +1.5855417e-006
+1.9456000e+004    +1.0757670e-006
+1.9584000e+004    +1.0955875e-006
+1.9712000e+004    +2.4889634e-006
+1.9840000e+004    +1.9609915e-006
+1.9968000e+004    +1.7009962e-006
+2.0096000e+004    +2.2522138e-006
+2.0224000e+004    +2.5895297e-006
+2.0352000e+004    +3.5440785e-006
+2.0480000e+004    +2.1916621e-006
+2.0608000e+004    +1.2473992e-006
+2.0736000e+004    +3.3116348e-007
+2.0864000e+004    +1.7970947e-006
+2.0992000e+004    +2.1082201e-006
+2.1120000e+004    +3.0298058e-006
+2.1248000e+004    +3.2095911e-006
+2.1376000e+004    +7.0385727e-007
+2.1504000e+004    +2.3210755e-006
+2.1632000e+004    +3.5779649e-006
+2.1760000e+004    +3.3973652e-006
+2.1888000e+004    +1.7569217e-006
+2.2016000e+004    +1.7366802e-006
+2.2144000e+004    +3.0847004e-006
+2.2272000e+004    +1.6927335e-006
+2.2400000e+004    +1.2320238e-006
+2.2528000e+004    +2.8434649e-006
+2.2656000e+004    +4.3840091e-006
+2.2784000e+004    +1.8426703e-006
+2.2912000e+004    +2.8236502e-006
+2.3040000e+004    +2.7041731e-006
+2.3168000e+004    +1.1069973e-006
+2.3296000e+004    +1.9813506e-006
+2.3424000e+004    +1.3091405e-006
+2.3552000e+004    +3.9473431e-007
+2.3680000e+004    +1.5501643e-006
+2.3808000e+004    +1.8638052e-006
+2.3936000e+004    +8.5364496e-007
+2.4064000e+004    +2.0703117e-006
+2.4192000e+004    +3.4606134e-007
+2.4320000e+004    +2.2249271e-006
+2.4448000e+004    +1.4913799e-006
+2.4576000e+004    +1.3261771e-006
+2.4704000e+004    +2.0271070e-006
+2.4832000e+004    +9.3093075e-007
+2.4960000e+004    +1.1241102e-006
+2.5088000e+004    +1.0833257e-006
+2.5216000e+004    +2.5033353e-006
+2.5344000e+004    +2.3432092e-006
+2.5472000e+004    +2.8830377e-006
+2.5600000e+004    +1.7053459e-006
+2.5728000e+004    +1.1514787e-006
+2.5856000e+004    +2.3970617e-006
+2.5984000e+004    +1.6077754e-006
+2.6112000e+004    +2.8311597e-006
+2.6240000e+004    +2.6785181e-006
+2.6368000e+004    +2.7533945e-006
+2.6496000e+004    +3.5016089e-006
+2.6624000e+004    +1.5878675e-006
+2.6752000e+004    +1.4908969e-006
+2.6880000e+004    +2.5728289e-006
+2.7008000e+004    +1.7581355e-006
+2.7136000e+004    +1.4225143e-006
+2.7264000e+004    +2.4018011e-006
+2.7392000e+004    +1.9541694e-006
+2.7520000e+004    +7.2193262e-007
+2.7648000e+004    +3.6537706e-006
+2.7776000e+004    +3.8241196e-006
+2.7904000e+004    +3.7512320e-006
+2.8032000e+004    +3.3681501e-006
+2.8160000e+004    +8.9643430e-007
+2.8288000e+004    +3.3335266e-006
+2.8416000e+004    +3.2002379e-006
+2.8544000e+004    +1.9942536e-006
+2.8672000e+004    +4.6777373e-006
+2.8800000e+004    +2.3772861e-006
+2.8928000e+004    +6.2967871e-007
+2.9056000e+004    +1.0453836e-006
+2.9184000e+004    +2.0506006e-006
+2.9312000e+004    +1.6545010e-006
+2.9440000e+004    +2.1143376e-006
+2.9568000e+004    +1.5440796e-006
+2.9696000e+004    +4.4023676e-007
+2.9824000e+004    +1.7622713e-006
+2.9952000e+004    +3.4502864e-006
+3.0080000e+004    +2.6259690e-006
+3.0208000e+004    +6.0885776e-007
+3.0336000e+004    +1.0761770e-006
+3.0464000e+004    +1.5767470e-006
+3.0592000e+004    +2.0875359e-006
+3.0720000e+004    +2.5391166e-006
+3.0848000e+004    +1.6461098e-006
+3.0976000e+004    +1.8552282e-006
+3.1104000e+004    +2.0116377e-006
+3.1232000e+004    +1.0722907e-006
+3.1360000e+004    +1.4276511e-006
+3.1488000e+004    +2.9007297e-006
+3.1616000e+004    +1.2652148e-006
+3.1744000e+004    +1.0240735e-006
+3.1872000e+004    +5.2098932e-007
+3.2000000e+004    +7.5823971e-007
+3.2128000e+004    +1.4277765e-006
+3.2256000e+004    +1.8043190e-006
+3.2384000e+004    +1.4348988e-006
+3.2512000e+004    +6.7179479e-007
+3.2640000e+004    +1.4792499e-006
+3.2768000e+004    +8.1203189e-007
+3.2896000e+004    +8.1471904e-007
+3.3024000e+004    +1.9701895e-006
+3.3152000e+004    +3.2064352e-006
+3.3280000e+004    +3.4110751e-006
+3.3408000e+004    +1.9616375e-006
+3.3536000e+004    +6.8228644e-007
+3.3664000e+004    +8.2867376e-007
+3.3792000e+004    +1.0150777e-006
+3.3920000e+004    +1.5844506e-006
+3.4048000e+004    +1.0658360e-006
+3.4176000e+004    +2.7325568e-006
+3.4304000e+004    +3.4972979e-006
+3.4432000e+004    +2.9481894e-006
+3.4560000e+004    +2.3083048e-006
+3.4688000e+004    +1.4711918e-006
+3.4816000e+004    +1.3351813e-006
+3.4944000e+004    +3.3841266e-006
+3.5072000e+004    +3.0713716e-006
+3.5200000e+004    +2.0851285e-006
+3.5328000e+004    +1.7339556e-006
+3.5456000e+004    +1.0526593e-006
+3.5584000e+004    +1.2567804e-006
+3.5712000e+004    +1.5646561e-006
+3.5840000e+004    +2.4167098e-006
+3.5968000e+004    +1.1593377e-006
+3.6096000e+004    +2.5094530e-006
+3.6224000e+004    +2.4752037e-006
+3.6352000e+004    +1.5845445e-006
+3.6480000e+004    +2.8702932e-006
+3.6608000e+004    +3.3724907e-006
+3.6736000e+004    +2.8832908e-006
+3.6864000e+004    +1.2044932e-006
+3.6992000e+004    +2.3844332e-006
+3.7120000e+004    +3.0033591e-006
+3.7248000e+004    +2.3125158e-006
+3.7376000e+004    +1.1882772e-006
+3.7504000e+004    +5.0606741e-007
+3.7632000e+004    +2.4233232e-006
+3.7760000e+004    +2.4414114e-006
+3.7888000e+004    +1.8741949e-006
+3.8016000e+004    +2.4495148e-006
+3.8144000e+004    +2.8039490e-006
+3.8272000e+004    +3.2553598e-006
+3.8400000e+004    +1.1381451e-006
+3.8528000e+004    +2.2785291e-006
+3.8656000e+004    +2.4370888e-006
+3.8784000e+004    +6.1487776e-007
+3.8912000e+004    +1.1502051e-006
+3.9040000e+004    +1.5719208e-006
+3.9168000e+004    +4.9531224e-007
+3.9296000e+004    +9.4210571e-007
+3.9424000e+004    +6.0985735e-007
+3.9552000e+004    +6.2230868e-007
+3.9680000e+004    +4.5651174e-007
+3.9808000e+004    +1.0296533e-006
+3.9936000e+004    +9.6323913e-007
+4.0064000e+004    +2.9092457e-006
+4.0192000e+004    +1.2871260e-006
+4.0320000e+004    +1.2160032e-006
+4.0448000e+004    +2.3913415e-006
+4.0576000e+004    +2.5623416e-007
+4.0704000e+004    +1.6808287e-006
+4.0832000e+004    +1.7528985e-006
+4.0960000e+004    +1.4328946e-006
+4.1088000e+004    +7.9740954e-007
+4.1216000e+004    +1.7908015e-006
+4.1344000e+004    +2.0519383e-006
+4.1472000e+004    +1.2335424e-006
+4.1600000e+004    +6.7623728e-007
+4.1728000e+004    +1.0681240e-006
+4.1856000e+004    +2.3212360e-006
+4.1984000e+004    +1.7528176e-006
+4.2112000e+004    +5.2984257e-007
+4.2240000e+004    +1.7069944e-007
+4.2368000e+004    +3.9074393e-007
+4.2496000e+004    +1.0029667e-006
+4.2624000e+004    +2.1403080e-008
+4.2752000e+004    +9.3415497e-007
+4.2880000e+004    +1.0617423e-006
+4.3008000e+004    +1.4950671e-006
+4.3136000e+004    +7.4892984e-007
+4.3264000e+004    +1.1672810e-006
+4.3392000e+004    +4.9315952e-007
+4.3520000e+004    +1.4056300e-006
+4.3648000e+004    +2.7500198e-006
+4.3776000e+004    +2.5960858e-006
+4.3904000e+004    +9.2305606e-007
+4.4032000e+004    +1.3309748e-006
+4.4160000e+004    +3.1867702e-007
+4.4288000e+004    +2.5000750e-006
+4.4416000e+004    +2.8057691e-006
+4.4544000e+004    +2.4040542e-006
+4.4672000e+004    +3.2699647e-006
+4.4800000e+004    +3.1456489e-006
+4.4928000e+004    +1.6592745e-006
+4.5056000e+004    +1.0796554e-006
+4.5184000e+004    +4.8472174e-007
+4.5312000e+004    +1.8548901e-006
+4.5440000e+004    +2.4567573e-006
+4.5568000e+004    +8.7023341e-007
+4.5696000e+004    +2.3513403e-006
+4.5824000e+004    +1.4898791e-006
+4.5952000e+004    +1.1672643e-006
+4.6080000e+004    +3.3837550e-006
+4.6208000e+004    +3.0683616e-006
+4.6336000e+004    +9.0700991e-007
+4.6464000e+004    +1.8029605e-006
+4.6592000e+004    +2.1729918e-006
+4.6720000e+004    +1.2366465e-006
+4.6848000e+004    +2.2671845e-006
+4.6976000e+004    +3.1409620e-006
+4.7104000e+004    +1.4271997e-006
+4.7232000e+004    +2.5723259e-006
+4.7360000e+004    +1.0192590e-006
+4.7488000e+004    +7.1270540e-007
+4.7616000e+004    +9.5352686e-007
+4.7744000e+004    +1.9245340e-006
+4.7872000e+004    +1.5741696e-006
+4.8000000e+004    +6.2219800e-007
+4.8128000e+004    +6.9091425e-007
+4.8256000e+004    +1.2582384e-006
+4.8384000e+004    +4.3984636e-007
+4.8512000e+004    +1.2763350e-006
+4.8640000e+004    +1.2251079e-006
+4.8768000e+004    +1.0352112e-006
+4.8896000e+004    +1.1209870e-006
+4.9024000e+004    +2.1793282e-006
+4.9152000e+004    +2.9210210e-006
+4.9280000e+004    +2.9489179e-006
+4.9408000e+004    +2.0474756e-006
+4.9536000e+004    +1.1710177e-006
+4.9664000e+004    +7.6052339e-007
+4.9792000e+004    +6.2334607e-007
+4.9920000e+004    +2.0414709e-006
+5.0048000e+004    +2.3501013e-006
+5.0176000e+004    +8.3362721e-007
+5.0304000e+004    +4.4758406e-007
+5.0432000e+004    +2.2363351e-006
+5.0560000e+004    +3.1306538e-006
+5.0688000e+004    +2.0058812e-006
+5.0816000e+004    +1.7526810e-006
+5.0944000e+004    +1.4724636e-006
+5.1072000e+004    +1.2072722e-006
+5.1200000e+004    +1.8589841e-006
+5.1328000e+004    +4.2335034e-007
+5.1456000e+004    +1.4393753e-006
+5.1584000e+004    +1.5537664e-006
+5.1712000e+004    +9.3160457e-007
+5.1840000e+004    +1.7608111e-006
+5.1968000e+004    +2.3061491e-006
+5.2096000e+004    +1.9883744e-006
+5.2224000e+004    +1.2765354e-006
+5.2352000e+004    +7.0279390e-007
+5.2480000e+004    +1.3895578e-006
+5.2608000e+004    +4.1156915e-007
+5.2736000e+004    +3.5447829e-007
+5.2864000e+004    +8.5504541e-007
+5.2992000e+004    +1.4133088e-006
+5.3120000e+004    +1.9590741e-006
+5.3248000e+004    +1.0333998e-006
+5.3376000e+004    +1.7216136e-006
+5.3504000e+004    +1.2772742e-006
+5.3632000e+004    +1.8126328e-006
+5.3760000e+004    +3.1745717e-006
+5.3888000e+004    +2.6023042e-006
+5.4016000e+004    +2.4062936e-006
+5.4144000e+004    +2.5636812e-006
+5.4272000e+004    +5.1331438e-007
+5.4400000e+004    +2.3318523e-006
+5.4528000e+004    +2.9623789e-006
+5.4656000e+004    +1.8663957e-006
+5.4784000e+004    +1.4887279e-006
+5.4912000e+004    +1.3087123e-006
+5.5040000e+004    +1.9000215e-006
+5.5168000e+004    +1.6649427e-006
+5.5296000e+004    +8.0967442e-007
+5.5424000e+004    +8.9574360e-007
+5.5552000e+004    +5.7245197e-006
+5.5680000e+004    +5.6796439e-006
+5.5808000e+004    +1.4391715e-006
+5.5936000e+004    +1.6994020e-006
+5.6064000e+004    +1.8043348e-006
+5.6192000e+004    +1.4919711e-006
+5.6320000e+004    +1.3408918e-006
+5.6448000e+004    +9.8458293e-007
+5.6576000e+004    +1.1857736e-006
+5.6704000e+004    +1.1592307e-006
+5.6832000e+004    +1.4669255e-006
+5.6960000e+004    +7.0632450e-007
+5.7088000e+004    +1.2064348e-006
+5.7216000e+004    +8.9537588e-007
+5.7344000e+004    +7.6113906e-007
+5.7472000e+004    +7.1643836e-007
+5.7600000e+004    +6.3005285e-007
+5.7728000e+004    +1.3582237e-006
+5.7856000e+004    +4.6178485e-007
+5.7984000e+004    +5.6618120e-007
+5.8112000e+004    +1.4612831e-006
+5.8240000e+004    +1.3253299e-006
+5.8368000e+004    +9.4156280e-007
+5.8496000e+004    +1.0363939e-006
+5.8624000e+004    +9.6608721e-007
+5.8752000e+004    +8.4739202e-007
+5.8880000e+004    +5.4036832e-007
+5.9008000e+004    +7.0421748e-007
+5.9136000e+004    +6.3376262e-007
+5.9264000e+004    +1.4223315e-006
+5.9392000e+004    +1.4667000e-006
+5.9520000e+004    +8.2468824e-007
+5.9648000e+004    +1.2644232e-006
+5.9776000e+004    +9.6053020e-007
+5.9904000e+004    +6.1435884e-007
+6.0032000e+004    +6.5747133e-007
+6.0160000e+004    +1.0838861e-006
+6.0288000e+004    +1.8506568e-006
+6.0416000e+004    +8.8294826e-007
+6.0544000e+004    +1.3764610e-006
+6.0672000e+004    +1.1703584e-006
+6.0800000e+004    +1.7035138e-006
+6.0928000e+004    +2.6403029e-006
+6.1056000e+004    +1.4301000e-006
+6.1184000e+004    +8.0160731e-007
+6.1312000e+004    +1.1130325e-006
+6.1440000e+004    +2.9609480e-006
+6.1568000e+004    +1.5367613e-006
+6.1696000e+004    +1.1994414e-006
+6.1824000e+004    +1.6664570e-006
+6.1952000e+004    +1.5105209e-006
+6.2080000e+004    +1.5118732e-006
+6.2208000e+004    +5.6408390e-007
+6.2336000e+004    +9.8845737e-007
+6.2464000e+004    +9.7532654e-007
+6.2592000e+004    +1.0303296e-006
+6.2720000e+004    +2.3895122e-006
+6.2848000e+004    +1.5889732e-006
+6.2976000e+004    +5.5523981e-007
+6.3104000e+004    +1.5418213e-006
+6.3232000e+004    +9.1692272e-007
+6.3360000e+004    +5.4504227e-007
+6.3488000e+004    +1.4383215e-006
+6.3616000e+004    +2.7326980e-006
+6.3744000e+004    +2.0348739e-006
+6.3872000e+004    +9.6256883e-007
+6.4000000e+004    +1.8002071e-006
+6.4128000e+004    +1.0818636e-006
+6.4256000e+004    +4.3601611e-007
+6.4384000e+004    +9.0794254e-007
+6.4512000e+004    +2.2331675e-007
+6.4640000e+004    +9.4460398e-007
+6.4768000e+004    +1.2824722e-006
+6.4896000e+004    +5.5979837e-007
+6.5024000e+004    +7.8285103e-007
+6.5152000e+004    +2.0980874e-006
+6.5280000e+004    +1.7665080e-006
+6.5408000e+004    +1.4323865e-006
+6.5536000e+004    +1.5989049e-006
+6.5664000e+004    +5.0516695e-007
+6.5792000e+004    +7.2594662e-007
+6.5920000e+004    +1.2426530e-006
+6.6048000e+004    +1.5197336e-006
+6.6176000e+004    +5.6044104e-007
+6.6304000e+004    +4.8014317e-007
+6.6432000e+004    +8.0209679e-007
+6.6560000e+004    +5.0247138e-007
+6.6688000e+004    +5.3359935e-007
+6.6816000e+004    +1.0781509e-006
+6.6944000e+004    +5.3624996e-007
+6.7072000e+004    +1.5281398e-006
+6.7200000e+004    +1.4286327e-006
+6.7328000e+004    +1.1606953e-006
+6.7456000e+004    +2.1942142e-006
+6.7584000e+004    +1.1508620e-006
+6.7712000e+004    +1.9798392e-006
+6.7840000e+004    +1.7174073e-006
+6.7968000e+004    +1.4977221e-006
+6.8096000e+004    +1.5862782e-006
+6.8224000e+004    +1.2305637e-006
+6.8352000e+004    +1.7969131e-006
+6.8480000e+004    +7.9024164e-007
+6.8608000e+004    +8.6089722e-007
+6.8736000e+004    +8.1037967e-007
+6.8864000e+004    +1.1075334e-006
+6.8992000e+004    +1.2920732e-006
+6.9120000e+004    +1.6561949e-006
+6.9248000e+004    +2.4395222e-006
+6.9376000e+004    +1.9464819e-006
+6.9504000e+004    +8.4270187e-007
+6.9632000e+004    +1.1679693e-006
+6.9760000e+004    +2.4031490e-006
+6.9888000e+004    +8.2288562e-007
+7.0016000e+004    +2.1451663e-006
+7.0144000e+004    +5.5830924e-006
+7.0272000e+004    +7.8675967e-006
+7.0400000e+004    +5.5261794e-006
+7.0528000e+004    +2.3720977e-006
+7.0656000e+004    +9.7131158e-007
+7.0784000e+004    +1.8235460e-006
+7.0912000e+004    +2.4631884e-006
+7.1040000e+004    +1.1287358e-006
+7.1168000e+004    +1.1267632e-006
+7.1296000e+004    +1.5290411e-006
+7.1424000e+004    +8.7740693e-007
+7.1552000e+004    +1.1804646e-006
+7.1680000e+004    +5.1956863e-007
+7.1808000e+004    +1.0649868e-006
+7.1936000e+004    +7.3381528e-007
+7.2064000e+004    +6.8125343e-007
+7.2192000e+004    +7.9412172e-007
+7.2320000e+004    +1.8720848e-006
+7.2448000e+004    +7.5210238e-007
+7.2576000e+004    +1.4037391e-006
+7.2704000e+004    +3.0177111e-007
+7.2832000e+004    +7.4942420e-007
+7.2960000e+004    +1.1037786e-006
+7.3088000e+004    +1.4355243e-006
+7.3216000e+004    +1.8793794e-006
+7.3344000e+004    +1.3874601e-006
+7.3472000e+004    +1.9516543e-007
+7.3600000e+004    +7.2341163e-007
+7.3728000e+004    +1.2811212e-006
+7.3856000e+004    +1.3779216e-006
+7.3984000e+004    +7.2808831e-007
+7.4112000e+004    +1.3992459e-006
+7.4240000e+004    +2.0623779e-006
+7.4368000e+004    +1.8564222e-007
+7.4496000e+004    +9.7814052e-007
+7.4624000e+004    +1.3908141e-006
+7.4752000e+004    +2.0983525e-006
+7.4880000e+004    +6.1050116e-007
+7.5008000e+004    +1.1224341e-006
+7.5136000e+004    +2.7508713e-006
+7.5264000e+004    +2.3477751e-006
+7.5392000e+004    +8.5545389e-007
+7.5520000e+004    +6.7705969e-007
+7.5648000e+004    +1.1634884e-006
+7.5776000e+004    +1.5182193e-006
+7.5904000e+004    +1.8627476e-006
+7.6032000e+004    +3.4410931e-007
+7.6160000e+004    +8.2097336e-007
+7.6288000e+004    +1.0759644e-006
+7.6416000e+004    +1.0284285e-006
+7.6544000e+004    +9.9987597e-007
+7.6672000e+004    +6.6609897e-007
+7.6800000e+004    +4.4952597e-007
+7.6928000e+004    +6.5165506e-007
+7.7056000e+004    +9.4571953e-007
+7.7184000e+004    +3.0094262e-007
+7.7312000e+004    +9.9430144e-007
+7.7440000e+004    +1.1112106e-006
+7.7568000e+004    +3.8196463e-006
+7.7696000e+004    +5.6270078e-006
+7.7824000e+004    +2.9563871e-006
+7.7952000e+004    +1.8266579e-006
+7.8080000e+004    +2.2898876e-006
+7.8208000e+004    +2.1095700e-006
+7.8336000e+004    +2.3384903e-006
+7.8464000e+004    +2.4436426e-006
+7.8592000e+004    +4.9317089e-007
+7.8720000e+004    +2.7108945e-006
+7.8848000e+004    +3.4875354e-006
+7.8976000e+004    +3.3885772e-006
+7.9104000e+004    +2.1048018e-006
+7.9232000e+004    +5.9643713e-007
+7.9360000e+004    +6.9181147e-007
+7.9488000e+004    +2.0284851e-006
+7.9616000e+004    +6.4939093e-007
+7.9744000e+004    +1.7112447e-006
+7.9872000e+004    +9.1043017e-007
+8.0000000e+004    +1.0976139e-006
+8.0128000e+004    +8.9652190e-007
+8.0256000e+004    +6.9806509e-007
+8.0384000e+004    +1.5873985e-006
+8.0512000e+004    +1.6514592e-006
+8.0640000e+004    +2.3948860e-007
+8.0768000e+004    +1.5137933e-006
+8.0896000e+004    +8.6616114e-007
+8.1024000e+004    +1.1908242e-006
+8.1152000e+004    +1.2331592e-006
+8.1280000e+004    +1.6733969e-006
+8.1408000e+004    +1.1173756e-006
+8.1536000e+004    +3.7251530e-007
+8.1664000e+004    +1.5703183e-006
+8.1792000e+004    +2.5779666e-006
+8.1920000e+004    +2.1033786e-006
+8.2048000e+004    +2.7593717e-006
+8.2176000e+004    +3.0801145e-006
+8.2304000e+004    +1.1039107e-006
+8.2432000e+004    +2.2633344e-006
+8.2560000e+004    +1.6497212e-006
+8.2688000e+004    +1.2192907e-006
+8.2816000e+004    +2.6972255e-006
+8.2944000e+004    +1.7770868e-006
+8.3072000e+004    +1.1568162e-006
+8.3200000e+004    +1.0857073e-006
+8.3328000e+004    +1.7027452e-006
+8.3456000e+004    +1.5010014e-006
+8.3584000e+004    +2.1723142e-007
+8.3712000e+004    +1.7089053e-006
+8.3840000e+004    +1.2227616e-006
+8.3968000e+004    +1.9489455e-006
+8.4096000e+004    +8.2541567e-007
+8.4224000e+004    +1.5295298e-006
+8.4352000e+004    +1.3328715e-006
+8.4480000e+004    +6.2901324e-007
+8.4608000e+004    +1.5693601e-006
+8.4736000e+004    +3.2690996e-006
+8.4864000e+004    +1.7490804e-006
+8.4992000e+004    +1.5518604e-006
+8.5120000e+004    +3.5837641e-006
+8.5248000e+004    +3.3912681e-006
+8.5376000e+004    +1.2166923e-006
+8.5504000e+004    +1.1779024e-006
+8.5632000e+004    +1.0884954e-006
+8.5760000e+004    +1.7514883e-006
+8.5888000e+004    +8.3533411e-007
+8.6016000e+004    +1.2976135e-006
+8.6144000e+004    +2.0911123e-006
+8.6272000e+004    +1.6907868e-006
+8.6400000e+004    +1.5398690e-006
+8.6528000e+004    +9.3595878e-007
+8.6656000e+004    +7.1133417e-007
+8.6784000e+004    +1.1357172e-006
+8.6912000e+004    +1.4354345e-006
+8.7040000e+004    +2.4809283e-006
+8.7168000e+004    +2.1458329e-006
+8.7296000e+004    +4.3528712e-007
+8.7424000e+004    +1.5001316e-006
+8.7552000e+004    +7.9925201e-007
+8.7680000e+004    +1.1125584e-006
+8.7808000e+004    +2.9788532e-006
+8.7936000e+004    +4.1341791e-006
+8.8064000e+004    +1.2990462e-006
+8.8192000e+004    +1.6831797e-006
+8.8320000e+004    +2.2095512e-006
+8.8448000e+004    +1.5000327e-006
+8.8576000e+004    +5.3411105e-007
+8.8704000e+004    +1.8202813e-006
+8.8832000e+004    +1.0132171e-006
+8.8960000e+004    +9.5182503e-007
+8.9088000e+004    +1.3538300e-006
+8.9216000e+004    +4.0061079e-007
+8.9344000e+004    +1.3854020e-006
+8.9472000e+004    +3.6029858e-006
+8.9600000e+004    +3.6684830e-006
+8.9728000e+004    +1.8645236e-006
+8.9856000e+004    +1.1681861e-006
+8.9984000e+004    +7.2557373e-007
+9.0112000e+004    +1.4404409e-006
+9.0240000e+004    +3.3283371e-007
+9.0368000e+004    +6.8475998e-007
+9.0496000e+004    +5.6014881e-007
+9.0624000e+004    +2.7617449e-007
+9.0752000e+004    +9.6850761e-007
+9.0880000e+004    +1.3179351e-006
+9.1008000e+004    +9.8617113e-007
+9.1136000e+004    +6.6758605e-007
+9.1264000e+004    +4.7664025e-007
+9.1392000e+004    +1.4322355e-006
+9.1520000e+004    +1.3883500e-006
+9.1648000e+004    +1.0521925e-006
+9.1776000e+004    +5.8038125e-007
+9.1904000e+004    +2.5602437e-006
+9.2032000e+004    +1.8001734e-006
+9.2160000e+004    +8.9818695e-007
+9.2288000e+004    +1.2185278e-006
+9.2416000e+004    +1.4673395e-006
+9.2544000e+004    +1.2378216e-006
+9.2672000e+004    +1.7470728e-006
+9.2800000e+004    +1.4602487e-006
+9.2928000e+004    +3.4687579e-007
+9.3056000e+004    +1.9240206e-006
+9.3184000e+004    +1.9263182e-006
+9.3312000e+004    +3.4764712e-006
+9.3440000e+004    +1.9333615e-006
+9.3568000e+004    +1.1067384e-006
+9.3696000e+004    +2.1443537e-007
+9.3824000e+004    +1.8536949e-006
+9.3952000e+004    +1.6761993e-006
+9.4080000e+004    +1.8203873e-006
+9.4208000e+004    +9.6576480e-007
+9.4336000e+004    +2.7686701e-006
+9.4464000e+004    +5.7889583e-006
+9.4592000e+004    +4.5145894e-006
+9.4720000e+004    +1.6639742e-006
+9.4848000e+004    +8.2377875e-007
+9.4976000e+004    +9.1090908e-007
+9.5104000e+004    +7.3975787e-007
+9.5232000e+004    +1.6730405e-006
+9.5360000e+004    +1.4720337e-007
+9.5488000e+004    +2.4048593e-006
+9.5616000e+004    +6.3916718e-007
+9.5744000e+004    +2.8382933e-006
+9.5872000e+004    +3.3043923e-006
+9.6000000e+004    +2.2477154e-006
+9.6128000e+004    +1.8194980e-006
+9.6256000e+004    +1.8799223e-006
+9.6384000e+004    +2.2168122e-006
+9.6512000e+004    +2.3577074e-006
+9.6640000e+004    +2.2111967e-006
+9.6768000e+004    +1.9424660e-006
+9.6896000e+004    +2.3782366e-006
+9.7024000e+004    +3.6463484e-006
+9.7152000e+004    +2.8080312e-006
+9.7280000e+004    +8.3049548e-007
+9.7408000e+004    +1.5564933e-006
+9.7536000e+004    +2.5255788e-006
+9.7664000e+004    +2.7877838e-006
+9.7792000e+004    +1.8203692e-006
+9.7920000e+004    +5.2551411e-007
+9.8048000e+004    +8.5127323e-007
+9.8176000e+004    +1.0825041e-006
+9.8304000e+004    +8.9593840e-007
+9.8432000e+004    +1.9072429e-006
+9.8560000e+004    +1.3488699e-006
+9.8688000e+004    +1.3499412e-006
+9.8816000e+004    +9.4032515e-007
+9.8944000e+004    +2.2680460e-006
+9.9072000e+004    +2.4427304e-006
+9.9200000e+004    +9.6634710e-007
+9.9328000e+004    +8.7875571e-007
+9.9456000e+004    +2.5747277e-006
+9.9584000e+004    +3.1361203e-006
+9.9712000e+004    +1.1630387e-006
+9.9840000e+004    +2.4218416e-006
+9.9968000e+004    +3.0489273e-006
+1.0009600e+005    +1.1267398e-006
+1.0022400e+005    +3.0809331e-006
+1.0035200e+005    +3.0666372e-006
+1.0048000e+005    +2.9022906e-006
+1.0060800e+005    +2.1253279e-006
+1.0073600e+005    +1.1946927e-006
+1.0086400e+005    +1.6693523e-006
+1.0099200e+005    +9.0881821e-007
+1.0112000e+005    +8.1636665e-007
+1.0124800e+005    +9.4811082e-007
+1.0137600e+005    +1.7604921e-006
+1.0150400e+005    +2.5607443e-007
+1.0163200e+005    +2.2088236e-006
+1.0176000e+005    +1.7267477e-006
+1.0188800e+005    +1.3312978e-006
+1.0201600e+005    +2.5611519e-006
+1.0214400e+005    +1.8918428e-006
+1.0227200e+005    +8.8156497e-007
