# DC Val: 0.7127391900000001
# SR785 Measurement - Timestamp: Mar 05 2020 - 22:47:43
# Parameter File: TransSpec1.yml
#---------- Measurement Setup ------------
# Start Frequency (Hz): 0.000000
# Frequency Span (Hz): 800.000000
# Frequency Resolution: 800
# Number of Averages: 2
# Averaging Mode: None
# Window function: Hanning
#---------- Measurement Parameters ----------
# Measurement Group:  "FFT" "FFT"
# Measurements:  "FFT 1" "FFT 2"
# View:  "Log Magnitude" "Log Magnitude"
# Unit:  "Vrms/rtHz" "dBVpk"
#---------- Input Parameters ----------
# Input Source: Analog
# Input Mode: Single ended, Single ended
# Input Grounding: Float, Float
# Input Coupling: AC, AC
# Input Range: -36.0dBVpk, -34.0dBVpk
# Auto Range: Off, Off
# Auto Range Mode: Tracking, Tracking
# Anti-Aliasing Filter: On, On
#---------- Source Parameters ----------
# Source Type: Sine
# Source Amplitude: 500.0mVpk
# Source On: 0

#---------- Measurement Data ----------
# [Freq(Hz) Display 0(Vrms/rtHz) Display 1(dBVpk) ]
+0.0000000e+000    +1.6942414e-003
+1.0000000e+000    +2.1379488e-003
+2.0000000e+000    +9.3046273e-004
+3.0000000e+000    +1.9829327e-005
+4.0000000e+000    +1.7483364e-004
+5.0000000e+000    +1.8429878e-004
+6.0000000e+000    +1.1234995e-004
+7.0000000e+000    +3.0744992e-005
+8.0000000e+000    +7.8162542e-005
+9.0000000e+000    +5.7067602e-005
+1.0000000e+001    +4.6918671e-005
+1.1000000e+001    +1.8583616e-005
+1.2000000e+001    +3.2667671e-005
+1.3000000e+001    +3.3697703e-005
+1.4000000e+001    +8.2151433e-005
+1.5000000e+001    +5.2124335e-005
+1.6000000e+001    +1.0401284e-005
+1.7000000e+001    +2.6546859e-005
+1.8000000e+001    +1.3948375e-005
+1.9000000e+001    +1.5813031e-005
+2.0000000e+001    +2.6830598e-005
+2.1000000e+001    +1.9899424e-005
+2.2000000e+001    +2.6541613e-006
+2.3000000e+001    +1.5705391e-005
+2.4000000e+001    +1.2728447e-005
+2.5000000e+001    +1.9287902e-006
+2.6000000e+001    +1.8045132e-005
+2.7000000e+001    +2.4856288e-005
+2.8000000e+001    +2.7497179e-006
+2.9000000e+001    +1.9383649e-005
+3.0000000e+001    +1.4412381e-005
+3.1000000e+001    +7.9150941e-006
+3.2000000e+001    +6.4848814e-006
+3.3000000e+001    +3.6737229e-006
+3.4000000e+001    +2.0031191e-006
+3.5000000e+001    +3.2554456e-006
+3.6000000e+001    +6.8461268e-006
+3.7000000e+001    +8.8471825e-006
+3.8000000e+001    +5.5417095e-006
+3.9000000e+001    +4.2206752e-006
+4.0000000e+001    +5.5385890e-006
+4.1000000e+001    +1.4112435e-006
+4.2000000e+001    +4.4738117e-006
+4.3000000e+001    +6.5546037e-006
+4.4000000e+001    +5.5469750e-006
+4.5000000e+001    +4.1811427e-006
+4.6000000e+001    +1.8426135e-006
+4.7000000e+001    +8.1484159e-006
+4.8000000e+001    +7.0256474e-006
+4.9000000e+001    +2.4448100e-006
+5.0000000e+001    +1.6509352e-006
+5.1000000e+001    +7.8884597e-007
+5.2000000e+001    +1.4368095e-006
+5.3000000e+001    +2.6650796e-006
+5.4000000e+001    +7.9084575e-006
+5.5000000e+001    +5.4272468e-006
+5.6000000e+001    +1.2402608e-006
+5.7000000e+001    +3.6764184e-006
+5.8000000e+001    +3.4711277e-006
+5.9000000e+001    +2.2224172e-006
+6.0000000e+001    +5.8911974e-007
+6.1000000e+001    +2.6318862e-006
+6.2000000e+001    +3.4885081e-006
+6.3000000e+001    +1.4503324e-006
+6.4000000e+001    +9.2216663e-007
+6.5000000e+001    +2.1258600e-007
+6.6000000e+001    +1.6382629e-006
+6.7000000e+001    +1.5232919e-006
+6.8000000e+001    +9.2624896e-007
+6.9000000e+001    +1.0535207e-006
+7.0000000e+001    +1.0639209e-006
+7.1000000e+001    +3.8066298e-007
+7.2000000e+001    +5.8314509e-007
+7.3000000e+001    +6.3937847e-007
+7.4000000e+001    +1.6652755e-006
+7.5000000e+001    +1.6048637e-006
+7.6000000e+001    +9.7934412e-007
+7.7000000e+001    +6.7921820e-007
+7.8000000e+001    +1.1828687e-006
+7.9000000e+001    +8.2551628e-007
+8.0000000e+001    +6.8487128e-007
+8.1000000e+001    +1.8830270e-006
+8.2000000e+001    +1.5314959e-006
+8.3000000e+001    +6.0881632e-007
+8.4000000e+001    +1.0245381e-006
+8.5000000e+001    +6.4888275e-007
+8.6000000e+001    +1.4761202e-006
+8.7000000e+001    +5.7683695e-007
+8.8000000e+001    +1.3651653e-007
+8.9000000e+001    +3.7417340e-007
+9.0000000e+001    +4.4164946e-007
+9.1000000e+001    +1.1059743e-006
+9.2000000e+001    +1.7083350e-007
+9.3000000e+001    +4.4001879e-007
+9.4000000e+001    +5.8838218e-008
+9.5000000e+001    +4.6856638e-007
+9.6000000e+001    +6.8912931e-007
+9.7000000e+001    +8.8964225e-007
+9.8000000e+001    +1.2567210e-006
+9.9000000e+001    +1.4165480e-006
+1.0000000e+002    +1.3525612e-006
+1.0100000e+002    +9.6214410e-007
+1.0200000e+002    +7.5852779e-007
+1.0300000e+002    +5.2929715e-007
+1.0400000e+002    +1.1932258e-006
+1.0500000e+002    +8.2897589e-007
+1.0600000e+002    +1.0249735e-006
+1.0700000e+002    +3.3915586e-007
+1.0800000e+002    +7.6215173e-007
+1.0900000e+002    +5.5323289e-007
+1.1000000e+002    +7.3417067e-007
+1.1100000e+002    +1.2232906e-006
+1.1200000e+002    +1.0978490e-006
+1.1300000e+002    +6.3089044e-007
+1.1400000e+002    +1.3722735e-007
+1.1500000e+002    +5.9684982e-007
+1.1600000e+002    +8.3906241e-007
+1.1700000e+002    +1.0682178e-007
+1.1800000e+002    +2.3988335e-007
+1.1900000e+002    +2.1140961e-006
+1.2000000e+002    +3.2143448e-006
+1.2100000e+002    +1.0183508e-006
+1.2200000e+002    +6.1901522e-007
+1.2300000e+002    +1.4753815e-007
+1.2400000e+002    +2.5956555e-007
+1.2500000e+002    +2.8073993e-007
+1.2600000e+002    +1.7867244e-007
+1.2700000e+002    +4.1787698e-007
+1.2800000e+002    +5.0313162e-007
+1.2900000e+002    +2.7134317e-007
+1.3000000e+002    +1.1709920e-007
+1.3100000e+002    +3.4218783e-007
+1.3200000e+002    +5.5280481e-007
+1.3300000e+002    +9.7574753e-007
+1.3400000e+002    +3.3286074e-007
+1.3500000e+002    +3.6487273e-007
+1.3600000e+002    +2.6080650e-007
+1.3700000e+002    +3.3381303e-007
+1.3800000e+002    +1.4040721e-007
+1.3900000e+002    +4.5995611e-007
+1.4000000e+002    +5.9825385e-007
+1.4100000e+002    +7.2889935e-007
+1.4200000e+002    +7.2572988e-007
+1.4300000e+002    +5.0183013e-007
+1.4400000e+002    +4.4453682e-007
+1.4500000e+002    +6.8036093e-007
+1.4600000e+002    +3.5383979e-007
+1.4700000e+002    +5.5492535e-007
+1.4800000e+002    +5.9712909e-007
+1.4900000e+002    +6.2180055e-007
+1.5000000e+002    +6.5768648e-007
+1.5100000e+002    +6.1526475e-007
+1.5200000e+002    +2.4946732e-007
+1.5300000e+002    +3.4014747e-007
+1.5400000e+002    +3.8083354e-007
+1.5500000e+002    +5.1952873e-007
+1.5600000e+002    +3.7975502e-007
+1.5700000e+002    +1.9380052e-007
+1.5800000e+002    +4.2370655e-007
+1.5900000e+002    +5.0187316e-007
+1.6000000e+002    +3.1307363e-007
+1.6100000e+002    +2.4401811e-007
+1.6200000e+002    +2.3420260e-007
+1.6300000e+002    +3.5408112e-007
+1.6400000e+002    +4.4901492e-007
+1.6500000e+002    +2.0018308e-007
+1.6600000e+002    +2.9592709e-007
+1.6700000e+002    +4.3429228e-007
+1.6800000e+002    +4.5481124e-007
+1.6900000e+002    +3.5122093e-007
+1.7000000e+002    +2.7064721e-007
+1.7100000e+002    +3.0957341e-007
+1.7200000e+002    +2.4227805e-007
+1.7300000e+002    +2.3013584e-007
+1.7400000e+002    +2.9271146e-007
+1.7500000e+002    +2.9918627e-007
+1.7600000e+002    +1.5659383e-007
+1.7700000e+002    +1.3979989e-007
+1.7800000e+002    +2.7629673e-007
+1.7900000e+002    +2.6148058e-007
+1.8000000e+002    +6.4763856e-007
+1.8100000e+002    +2.9860377e-007
+1.8200000e+002    +3.9139229e-007
+1.8300000e+002    +4.0130504e-007
+1.8400000e+002    +1.1288101e-007
+1.8500000e+002    +2.0535612e-007
+1.8600000e+002    +3.3614853e-007
+1.8700000e+002    +1.3491157e-007
+1.8800000e+002    +1.8852840e-007
+1.8900000e+002    +1.1859247e-007
+1.9000000e+002    +3.1252378e-007
+1.9100000e+002    +2.8807150e-007
+1.9200000e+002    +2.2811724e-007
+1.9300000e+002    +2.0455096e-007
+1.9400000e+002    +1.2705772e-007
+1.9500000e+002    +1.8828824e-007
+1.9600000e+002    +1.1058602e-007
+1.9700000e+002    +3.7699073e-007
+1.9800000e+002    +2.4410360e-007
+1.9900000e+002    +9.1976716e-008
+2.0000000e+002    +4.0966750e-008
+2.0100000e+002    +1.8036575e-007
+2.0200000e+002    +1.9818270e-007
+2.0300000e+002    +2.2583649e-007
+2.0400000e+002    +2.8385210e-007
+2.0500000e+002    +2.7250366e-007
+2.0600000e+002    +1.7102774e-007
+2.0700000e+002    +2.0286544e-007
+2.0800000e+002    +1.1373132e-007
+2.0900000e+002    +1.6054470e-007
+2.1000000e+002    +1.6803970e-007
+2.1100000e+002    +1.4703488e-007
+2.1200000e+002    +1.4106082e-007
+2.1300000e+002    +4.8950202e-008
+2.1400000e+002    +1.1393467e-007
+2.1500000e+002    +1.0955431e-007
+2.1600000e+002    +2.5212069e-007
+2.1700000e+002    +2.0527450e-007
+2.1800000e+002    +3.2626738e-007
+2.1900000e+002    +1.9274459e-007
+2.2000000e+002    +1.2197674e-007
+2.2100000e+002    +1.3992029e-007
+2.2200000e+002    +8.7272028e-008
+2.2300000e+002    +1.3379842e-007
+2.2400000e+002    +2.9505111e-007
+2.2500000e+002    +4.2056459e-007
+2.2600000e+002    +2.4852142e-007
+2.2700000e+002    +1.1751728e-007
+2.2800000e+002    +6.3890127e-008
+2.2900000e+002    +1.2093896e-007
+2.3000000e+002    +2.4424463e-007
+2.3100000e+002    +4.2376564e-007
+2.3200000e+002    +4.9170677e-007
+2.3300000e+002    +2.9729750e-007
+2.3400000e+002    +8.6421188e-008
+2.3500000e+002    +1.7728773e-007
+2.3600000e+002    +1.6007229e-007
+2.3700000e+002    +2.5938863e-007
+2.3800000e+002    +2.2793648e-007
+2.3900000e+002    +1.1393092e-007
+2.4000000e+002    +2.0102755e-007
+2.4100000e+002    +1.1168469e-007
+2.4200000e+002    +2.0248602e-007
+2.4300000e+002    +4.7933673e-007
+2.4400000e+002    +4.0711302e-007
+2.4500000e+002    +1.0996115e-007
+2.4600000e+002    +2.3188544e-007
+2.4700000e+002    +2.8791561e-007
+2.4800000e+002    +1.5733177e-007
+2.4900000e+002    +1.5186144e-007
+2.5000000e+002    +3.1269505e-007
+2.5100000e+002    +2.8022131e-007
+2.5200000e+002    +2.2688280e-007
+2.5300000e+002    +1.2638111e-007
+2.5400000e+002    +8.2342972e-008
+2.5500000e+002    +1.6386424e-007
+2.5600000e+002    +1.6126550e-007
+2.5700000e+002    +2.2682701e-007
+2.5800000e+002    +1.3158126e-007
+2.5900000e+002    +1.8401390e-007
+2.6000000e+002    +3.5789785e-007
+2.6100000e+002    +2.5589341e-007
+2.6200000e+002    +1.6533151e-007
+2.6300000e+002    +1.2656149e-007
+2.6400000e+002    +1.7549668e-007
+2.6500000e+002    +2.1552943e-007
+2.6600000e+002    +5.5817134e-007
+2.6700000e+002    +6.4465610e-007
+2.6800000e+002    +3.2186392e-007
+2.6900000e+002    +6.9380746e-008
+2.7000000e+002    +1.7949414e-007
+2.7100000e+002    +1.2984215e-007
+2.7200000e+002    +1.9681615e-007
+2.7300000e+002    +4.7294009e-008
+2.7400000e+002    +2.8624788e-007
+2.7500000e+002    +2.0731460e-007
+2.7600000e+002    +1.4425252e-007
+2.7700000e+002    +9.7984213e-008
+2.7800000e+002    +1.5687226e-007
+2.7900000e+002    +2.1657128e-007
+2.8000000e+002    +3.6061044e-007
+2.8100000e+002    +4.0807697e-007
+2.8200000e+002    +2.3364474e-007
+2.8300000e+002    +1.5554016e-007
+2.8400000e+002    +7.2730607e-008
+2.8500000e+002    +3.4465987e-007
+2.8600000e+002    +2.5643905e-007
+2.8700000e+002    +9.4664308e-008
+2.8800000e+002    +1.2665491e-007
+2.8900000e+002    +1.0129212e-007
+2.9000000e+002    +2.4924967e-007
+2.9100000e+002    +1.1580298e-007
+2.9200000e+002    +9.8705833e-008
+2.9300000e+002    +3.8501346e-007
+2.9400000e+002    +3.4456752e-007
+2.9500000e+002    +2.0185384e-007
+2.9600000e+002    +2.5123006e-007
+2.9700000e+002    +2.9761756e-007
+2.9800000e+002    +1.5368592e-007
+2.9900000e+002    +1.2758082e-007
+3.0000000e+002    +1.1338918e-007
+3.0100000e+002    +2.0763967e-007
+3.0200000e+002    +3.8663467e-007
+3.0300000e+002    +1.8616149e-007
+3.0400000e+002    +5.8413963e-008
+3.0500000e+002    +1.1524894e-007
+3.0600000e+002    +3.1337868e-007
+3.0700000e+002    +2.7081933e-007
+3.0800000e+002    +1.4837997e-007
+3.0900000e+002    +2.1893652e-007
+3.1000000e+002    +1.3585547e-007
+3.1100000e+002    +2.9059606e-007
+3.1200000e+002    +2.5593866e-007
+3.1300000e+002    +1.0229801e-007
+3.1400000e+002    +5.2793556e-008
+3.1500000e+002    +1.5383227e-007
+3.1600000e+002    +1.3388292e-007
+3.1700000e+002    +9.9775171e-008
+3.1800000e+002    +2.6047911e-007
+3.1900000e+002    +3.0642508e-007
+3.2000000e+002    +3.0641499e-007
+3.2100000e+002    +2.6132074e-007
+3.2200000e+002    +2.3828026e-007
+3.2300000e+002    +2.5058048e-007
+3.2400000e+002    +2.2616874e-007
+3.2500000e+002    +2.0227337e-007
+3.2600000e+002    +2.4985519e-007
+3.2700000e+002    +1.6339840e-007
+3.2800000e+002    +8.8846996e-008
+3.2900000e+002    +7.9508233e-008
+3.3000000e+002    +2.6557936e-007
+3.3100000e+002    +2.2649205e-007
+3.3200000e+002    +5.1702489e-008
+3.3300000e+002    +2.8642930e-007
+3.3400000e+002    +3.7603289e-007
+3.3500000e+002    +3.8209842e-007
+3.3600000e+002    +2.0318978e-007
+3.3700000e+002    +8.9880750e-008
+3.3800000e+002    +1.5932673e-007
+3.3900000e+002    +1.9114609e-007
+3.4000000e+002    +1.4828584e-007
+3.4100000e+002    +3.7237012e-007
+3.4200000e+002    +4.2886762e-007
+3.4300000e+002    +1.3521543e-007
+3.4400000e+002    +2.7928328e-007
+3.4500000e+002    +4.4546269e-008
+3.4600000e+002    +1.1940605e-007
+3.4700000e+002    +2.4889744e-007
+3.4800000e+002    +2.6773009e-007
+3.4900000e+002    +3.1733867e-007
+3.5000000e+002    +2.1854312e-007
+3.5100000e+002    +7.8550812e-008
+3.5200000e+002    +1.6359316e-007
+3.5300000e+002    +1.8803496e-007
+3.5400000e+002    +1.4652015e-007
+3.5500000e+002    +1.2988151e-007
+3.5600000e+002    +1.1265814e-007
+3.5700000e+002    +2.5990062e-007
+3.5800000e+002    +2.2165297e-007
+3.5900000e+002    +3.3093158e-008
+3.6000000e+002    +6.3196431e-008
+3.6100000e+002    +9.3836967e-008
+3.6200000e+002    +1.1767183e-007
+3.6300000e+002    +1.9356341e-007
+3.6400000e+002    +2.9837796e-007
+3.6500000e+002    +1.8936424e-007
+3.6600000e+002    +1.7703506e-007
+3.6700000e+002    +1.1088158e-007
+3.6800000e+002    +2.2450270e-007
+3.6900000e+002    +4.5158089e-007
+3.7000000e+002    +3.8328503e-007
+3.7100000e+002    +3.1724881e-007
+3.7200000e+002    +1.6768969e-007
+3.7300000e+002    +9.0005578e-008
+3.7400000e+002    +1.5242405e-007
+3.7500000e+002    +6.6595199e-008
+3.7600000e+002    +6.8586985e-008
+3.7700000e+002    +2.1240263e-007
+3.7800000e+002    +1.5323974e-007
+3.7900000e+002    +2.1135855e-007
+3.8000000e+002    +1.9700532e-007
+3.8100000e+002    +5.9269265e-008
+3.8200000e+002    +1.7984962e-007
+3.8300000e+002    +1.8129772e-007
+3.8400000e+002    +1.1126830e-007
+3.8500000e+002    +9.3097569e-008
+3.8600000e+002    +2.6478799e-007
+3.8700000e+002    +2.0675336e-007
+3.8800000e+002    +2.6060241e-007
+3.8900000e+002    +2.8181805e-007
+3.9000000e+002    +3.0868992e-007
+3.9100000e+002    +2.9393334e-007
+3.9200000e+002    +2.1235972e-007
+3.9300000e+002    +4.2411752e-008
+3.9400000e+002    +8.3025931e-008
+3.9500000e+002    +4.9480782e-008
+3.9600000e+002    +4.6900130e-008
+3.9700000e+002    +1.9815310e-007
+3.9800000e+002    +2.7567765e-008
+3.9900000e+002    +1.7393556e-007
+4.0000000e+002    +2.1145024e-007
+4.0100000e+002    +1.5142670e-007
+4.0200000e+002    +1.0987497e-007
+4.0300000e+002    +1.8169249e-007
+4.0400000e+002    +2.9348348e-007
+4.0500000e+002    +2.5993830e-007
+4.0600000e+002    +6.8950925e-008
+4.0700000e+002    +1.9389248e-007
+4.0800000e+002    +1.2433081e-007
+4.0900000e+002    +8.8461533e-008
+4.1000000e+002    +1.8235139e-007
+4.1100000e+002    +1.7133183e-007
+4.1200000e+002    +4.4608282e-008
+4.1300000e+002    +1.5823140e-007
+4.1400000e+002    +1.9150697e-007
+4.1500000e+002    +1.7722137e-007
+4.1600000e+002    +1.3754760e-007
+4.1700000e+002    +7.0806536e-008
+4.1800000e+002    +2.6101793e-007
+4.1900000e+002    +4.8322011e-007
+4.2000000e+002    +5.1011079e-007
+4.2100000e+002    +5.0692830e-007
+4.2200000e+002    +3.1266552e-007
+4.2300000e+002    +1.8154212e-007
+4.2400000e+002    +2.8262960e-007
+4.2500000e+002    +2.6675858e-007
+4.2600000e+002    +2.1891897e-007
+4.2700000e+002    +1.3634157e-007
+4.2800000e+002    +1.5170329e-007
+4.2900000e+002    +2.8151157e-007
+4.3000000e+002    +2.3390322e-007
+4.3100000e+002    +2.1136529e-007
+4.3200000e+002    +3.7927501e-007
+4.3300000e+002    +3.1097014e-007
+4.3400000e+002    +4.6442839e-008
+4.3500000e+002    +1.1912348e-007
+4.3600000e+002    +1.9709726e-007
+4.3700000e+002    +3.0011373e-007
+4.3800000e+002    +3.5451563e-007
+4.3900000e+002    +2.4656126e-007
+4.4000000e+002    +1.5690723e-007
+4.4100000e+002    +1.3695205e-007
+4.4200000e+002    +1.3156898e-007
+4.4300000e+002    +1.8095049e-007
+4.4400000e+002    +7.3711234e-008
+4.4500000e+002    +1.2672780e-007
+4.4600000e+002    +1.3946017e-007
+4.4700000e+002    +9.1252474e-008
+4.4800000e+002    +9.2492783e-008
+4.4900000e+002    +7.3835814e-008
+4.5000000e+002    +9.5331856e-008
+4.5100000e+002    +2.7008201e-007
+4.5200000e+002    +5.2070794e-007
+4.5300000e+002    +4.1884343e-007
+4.5400000e+002    +2.9569196e-007
+4.5500000e+002    +2.4128204e-007
+4.5600000e+002    +1.0292950e-007
+4.5700000e+002    +1.0156753e-008
+4.5800000e+002    +5.8358832e-008
+4.5900000e+002    +7.3346733e-008
+4.6000000e+002    +1.3053528e-007
+4.6100000e+002    +1.6653102e-007
+4.6200000e+002    +2.5847490e-007
+4.6300000e+002    +3.3772969e-007
+4.6400000e+002    +1.9537339e-007
+4.6500000e+002    +1.2477074e-007
+4.6600000e+002    +2.6544410e-007
+4.6700000e+002    +2.2309938e-007
+4.6800000e+002    +7.1424552e-008
+4.6900000e+002    +1.6398808e-007
+4.7000000e+002    +2.3609249e-007
+4.7100000e+002    +2.0932923e-007
+4.7200000e+002    +2.3700463e-007
+4.7300000e+002    +2.6549219e-007
+4.7400000e+002    +2.7437014e-007
+4.7500000e+002    +1.5064366e-007
+4.7600000e+002    +3.7534896e-008
+4.7700000e+002    +1.2592500e-007
+4.7800000e+002    +3.8956975e-007
+4.7900000e+002    +2.7128507e-007
+4.8000000e+002    +1.8226011e-007
+4.8100000e+002    +3.0557405e-007
+4.8200000e+002    +6.7688575e-008
+4.8300000e+002    +8.9136698e-008
+4.8400000e+002    +6.7375822e-008
+4.8500000e+002    +3.7655262e-008
+4.8600000e+002    +2.5306168e-008
+4.8700000e+002    +6.7886333e-008
+4.8800000e+002    +1.0331843e-007
+4.8900000e+002    +1.3724708e-007
+4.9000000e+002    +1.5426070e-007
+4.9100000e+002    +1.3240557e-007
+4.9200000e+002    +1.4894881e-007
+4.9300000e+002    +3.8887319e-007
+4.9400000e+002    +4.1574711e-007
+4.9500000e+002    +2.3323568e-007
+4.9600000e+002    +7.6770064e-008
+4.9700000e+002    +1.5645084e-007
+4.9800000e+002    +3.2498886e-007
+4.9900000e+002    +3.9759121e-007
+5.0000000e+002    +4.3293304e-007
+5.0100000e+002    +4.0937076e-007
+5.0200000e+002    +2.6822852e-007
+5.0300000e+002    +1.5637065e-007
+5.0400000e+002    +1.7455217e-007
+5.0500000e+002    +2.2883495e-007
+5.0600000e+002    +1.0651891e-007
+5.0700000e+002    +1.4154037e-007
+5.0800000e+002    +9.1918565e-008
+5.0900000e+002    +1.1208148e-007
+5.1000000e+002    +7.3615233e-008
+5.1100000e+002    +1.6987975e-007
+5.1200000e+002    +1.8101329e-007
+5.1300000e+002    +9.2863480e-008
+5.1400000e+002    +2.3368631e-007
+5.1500000e+002    +1.7482836e-007
+5.1600000e+002    +1.7169039e-007
+5.1700000e+002    +3.6179705e-007
+5.1800000e+002    +2.3299714e-007
+5.1900000e+002    +9.4173650e-008
+5.2000000e+002    +1.0386837e-007
+5.2100000e+002    +1.6064415e-007
+5.2200000e+002    +4.7292605e-008
+5.2300000e+002    +2.6065277e-007
+5.2400000e+002    +2.1202284e-007
+5.2500000e+002    +1.7899328e-007
+5.2600000e+002    +3.7544871e-007
+5.2700000e+002    +3.8232506e-007
+5.2800000e+002    +4.1623264e-007
+5.2900000e+002    +1.7733873e-007
+5.3000000e+002    +1.1193390e-007
+5.3100000e+002    +8.5037172e-008
+5.3200000e+002    +2.2032550e-007
+5.3300000e+002    +2.1878344e-007
+5.3400000e+002    +1.3471235e-007
+5.3500000e+002    +1.1294560e-007
+5.3600000e+002    +2.9040757e-007
+5.3700000e+002    +3.0694972e-007
+5.3800000e+002    +3.4672007e-007
+5.3900000e+002    +3.0461536e-007
+5.4000000e+002    +1.8529238e-007
+5.4100000e+002    +1.1416708e-007
+5.4200000e+002    +1.4437738e-007
+5.4300000e+002    +1.5249000e-007
+5.4400000e+002    +1.0713975e-007
+5.4500000e+002    +1.1684055e-007
+5.4600000e+002    +1.1974558e-007
+5.4700000e+002    +1.9133043e-007
+5.4800000e+002    +2.4521921e-007
+5.4900000e+002    +2.4680938e-007
+5.5000000e+002    +3.0889572e-007
+5.5100000e+002    +1.8958497e-007
+5.5200000e+002    +5.6665634e-008
+5.5300000e+002    +5.2929309e-008
+5.5400000e+002    +7.0313270e-008
+5.5500000e+002    +8.3687361e-008
+5.5600000e+002    +1.7565610e-007
+5.5700000e+002    +3.1870394e-007
+5.5800000e+002    +1.8279701e-007
+5.5900000e+002    +4.2976229e-008
+5.6000000e+002    +1.9752534e-007
+5.6100000e+002    +4.6545549e-007
+5.6200000e+002    +4.9773166e-007
+5.6300000e+002    +1.4321223e-007
+5.6400000e+002    +2.1433793e-007
+5.6500000e+002    +4.6539569e-008
+5.6600000e+002    +1.9135186e-007
+5.6700000e+002    +2.7104304e-007
+5.6800000e+002    +2.3625637e-007
+5.6900000e+002    +2.0903042e-007
+5.7000000e+002    +2.1775296e-007
+5.7100000e+002    +1.8737381e-007
+5.7200000e+002    +8.3882568e-008
+5.7300000e+002    +2.8748886e-007
+5.7400000e+002    +2.7084045e-007
+5.7500000e+002    +1.5648898e-007
+5.7600000e+002    +2.2120831e-007
+5.7700000e+002    +1.9581965e-007
+5.7800000e+002    +5.3322744e-008
+5.7900000e+002    +1.3462319e-007
+5.8000000e+002    +2.8570375e-007
+5.8100000e+002    +3.6667393e-007
+5.8200000e+002    +4.1344379e-007
+5.8300000e+002    +3.6358423e-007
+5.8400000e+002    +2.0376237e-007
+5.8500000e+002    +3.3193811e-007
+5.8600000e+002    +3.8079801e-007
+5.8700000e+002    +2.0686825e-007
+5.8800000e+002    +2.8568209e-007
+5.8900000e+002    +3.0165285e-007
+5.9000000e+002    +1.1995665e-007
+5.9100000e+002    +1.8059740e-007
+5.9200000e+002    +2.8009336e-007
+5.9300000e+002    +5.0206769e-008
+5.9400000e+002    +2.0894186e-007
+5.9500000e+002    +9.9091203e-008
+5.9600000e+002    +6.7266576e-008
+5.9700000e+002    +1.0065587e-007
+5.9800000e+002    +1.0024944e-007
+5.9900000e+002    +1.9961594e-007
+6.0000000e+002    +9.4293668e-008
+6.0100000e+002    +1.9900496e-007
+6.0200000e+002    +4.5551789e-007
+6.0300000e+002    +2.9570819e-007
+6.0400000e+002    +2.4705773e-007
+6.0500000e+002    +1.4459884e-007
+6.0600000e+002    +1.4570520e-007
+6.0700000e+002    +3.8817614e-008
+6.0800000e+002    +1.5178360e-007
+6.0900000e+002    +4.8118494e-008
+6.1000000e+002    +6.5359551e-008
+6.1100000e+002    +1.8008950e-007
+6.1200000e+002    +1.1893319e-007
+6.1300000e+002    +7.4985714e-008
+6.1400000e+002    +1.6560767e-007
+6.1500000e+002    +1.4035959e-007
+6.1600000e+002    +2.2129527e-007
+6.1700000e+002    +3.3306949e-007
+6.1800000e+002    +3.7577783e-007
+6.1900000e+002    +3.3109839e-007
+6.2000000e+002    +3.6700703e-007
+6.2100000e+002    +2.5281255e-007
+6.2200000e+002    +1.6414372e-008
+6.2300000e+002    +2.4526283e-008
+6.2400000e+002    +6.8918830e-008
+6.2500000e+002    +1.7420620e-008
+6.2600000e+002    +9.2415128e-008
+6.2700000e+002    +1.3356050e-007
+6.2800000e+002    +1.0016945e-007
+6.2900000e+002    +6.7442357e-008
+6.3000000e+002    +5.6772809e-008
+6.3100000e+002    +1.4957254e-007
+6.3200000e+002    +1.3925651e-007
+6.3300000e+002    +1.1642167e-007
+6.3400000e+002    +1.7305683e-007
+6.3500000e+002    +1.2615375e-007
+6.3600000e+002    +2.3111757e-007
+6.3700000e+002    +2.1060917e-007
+6.3800000e+002    +2.2862599e-007
+6.3900000e+002    +2.2661742e-007
+6.4000000e+002    +1.3103657e-007
+6.4100000e+002    +2.8825880e-007
+6.4200000e+002    +1.2371314e-007
+6.4300000e+002    +1.3122691e-007
+6.4400000e+002    +1.3392497e-007
+6.4500000e+002    +6.6727310e-008
+6.4600000e+002    +9.2415029e-008
+6.4700000e+002    +1.1162916e-007
+6.4800000e+002    +2.8128912e-007
+6.4900000e+002    +2.6646964e-007
+6.5000000e+002    +1.0445082e-007
+6.5100000e+002    +1.7208671e-007
+6.5200000e+002    +2.2649478e-007
+6.5300000e+002    +1.3138060e-007
+6.5400000e+002    +3.1406861e-007
+6.5500000e+002    +3.0791611e-007
+6.5600000e+002    +9.9429599e-008
+6.5700000e+002    +4.4053170e-008
+6.5800000e+002    +1.3002291e-007
+6.5900000e+002    +8.8097572e-008
+6.6000000e+002    +2.3819290e-007
+6.6100000e+002    +2.1219448e-007
+6.6200000e+002    +1.4214261e-007
+6.6300000e+002    +3.3631686e-008
+6.6400000e+002    +3.3471146e-008
+6.6500000e+002    +2.0885652e-008
+6.6600000e+002    +1.3635744e-007
+6.6700000e+002    +1.1869942e-007
+6.6800000e+002    +8.0906482e-008
+6.6900000e+002    +1.4177351e-007
+6.7000000e+002    +1.2940154e-007
+6.7100000e+002    +6.1590342e-008
+6.7200000e+002    +1.0987679e-007
+6.7300000e+002    +5.9661922e-008
+6.7400000e+002    +1.8407492e-007
+6.7500000e+002    +2.8051161e-007
+6.7600000e+002    +2.1752953e-007
+6.7700000e+002    +1.1086576e-007
+6.7800000e+002    +7.8035207e-008
+6.7900000e+002    +9.4909090e-008
+6.8000000e+002    +1.8529258e-007
+6.8100000e+002    +2.5187222e-007
+6.8200000e+002    +2.2569618e-007
+6.8300000e+002    +1.4026021e-007
+6.8400000e+002    +1.6480286e-007
+6.8500000e+002    +2.7216996e-007
+6.8600000e+002    +2.7455397e-007
+6.8700000e+002    +2.1939925e-007
+6.8800000e+002    +2.5183766e-007
+6.8900000e+002    +2.6203816e-007
+6.9000000e+002    +1.8482444e-007
+6.9100000e+002    +1.4365745e-007
+6.9200000e+002    +2.9876085e-007
+6.9300000e+002    +2.2680584e-007
+6.9400000e+002    +2.3701165e-007
+6.9500000e+002    +2.9036835e-007
+6.9600000e+002    +5.1319997e-008
+6.9700000e+002    +3.1692849e-007
+6.9800000e+002    +2.7079881e-007
+6.9900000e+002    +1.9437226e-007
+7.0000000e+002    +2.2638588e-007
+7.0100000e+002    +2.7700082e-007
+7.0200000e+002    +3.3623195e-007
+7.0300000e+002    +2.4696226e-007
+7.0400000e+002    +1.1747652e-007
+7.0500000e+002    +2.9601418e-007
+7.0600000e+002    +2.9119172e-007
+7.0700000e+002    +2.2438984e-007
+7.0800000e+002    +5.9647967e-008
+7.0900000e+002    +1.2177547e-007
+7.1000000e+002    +1.0858682e-007
+7.1100000e+002    +6.4051036e-008
+7.1200000e+002    +2.4938024e-007
+7.1300000e+002    +3.6603558e-007
+7.1400000e+002    +4.0075861e-007
+7.1500000e+002    +3.5036550e-007
+7.1600000e+002    +1.1318482e-007
+7.1700000e+002    +9.8003795e-008
+7.1800000e+002    +7.2059350e-008
+7.1900000e+002    +3.8892825e-008
+7.2000000e+002    +8.2076781e-008
+7.2100000e+002    +2.6521716e-008
+7.2200000e+002    +5.6852276e-008
+7.2300000e+002    +3.8026446e-008
+7.2400000e+002    +2.8238828e-008
+7.2500000e+002    +1.5525336e-007
+7.2600000e+002    +4.8803912e-008
+7.2700000e+002    +2.0928579e-007
+7.2800000e+002    +2.9421585e-007
+7.2900000e+002    +3.6217023e-007
+7.3000000e+002    +1.9569285e-007
+7.3100000e+002    +1.9311338e-007
+7.3200000e+002    +2.5404020e-007
+7.3300000e+002    +1.5856061e-007
+7.3400000e+002    +9.1024624e-008
+7.3500000e+002    +1.3599980e-007
+7.3600000e+002    +2.0518301e-007
+7.3700000e+002    +3.6070233e-007
+7.3800000e+002    +3.5992494e-007
+7.3900000e+002    +2.2097016e-007
+7.4000000e+002    +8.7383441e-008
+7.4100000e+002    +1.7024742e-007
+7.4200000e+002    +2.2030616e-007
+7.4300000e+002    +2.2458480e-007
+7.4400000e+002    +1.7493743e-007
+7.4500000e+002    +1.2714382e-007
+7.4600000e+002    +1.3190557e-007
+7.4700000e+002    +6.8458789e-008
+7.4800000e+002    +2.9718262e-008
+7.4900000e+002    +4.5095710e-008
+7.5000000e+002    +1.2583544e-007
+7.5100000e+002    +1.3427717e-007
+7.5200000e+002    +4.1628429e-008
+7.5300000e+002    +1.0086718e-007
+7.5400000e+002    +1.4991848e-007
+7.5500000e+002    +2.1958363e-007
+7.5600000e+002    +1.0792394e-007
+7.5700000e+002    +7.1139432e-008
+7.5800000e+002    +2.6927250e-007
+7.5900000e+002    +2.6583200e-007
+7.6000000e+002    +1.9530368e-007
+7.6100000e+002    +3.8468008e-007
+7.6200000e+002    +4.0011187e-007
+7.6300000e+002    +1.8994437e-007
+7.6400000e+002    +7.5295837e-008
+7.6500000e+002    +8.1040639e-008
+7.6600000e+002    +1.7219634e-007
+7.6700000e+002    +2.4539159e-007
+7.6800000e+002    +2.0875085e-007
+7.6900000e+002    +7.0428399e-008
+7.7000000e+002    +2.8660608e-007
+7.7100000e+002    +3.1325860e-007
+7.7200000e+002    +1.4057767e-007
+7.7300000e+002    +1.6894748e-007
+7.7400000e+002    +1.3305028e-007
+7.7500000e+002    +2.0760388e-007
+7.7600000e+002    +2.6914037e-007
+7.7700000e+002    +1.0229768e-007
+7.7800000e+002    +1.8117096e-007
+7.7900000e+002    +1.1176296e-007
+7.8000000e+002    +2.1351889e-007
+7.8100000e+002    +3.2052699e-007
+7.8200000e+002    +2.2673737e-007
+7.8300000e+002    +1.3880498e-007
+7.8400000e+002    +7.4005115e-008
+7.8500000e+002    +2.8365830e-007
+7.8600000e+002    +3.1673648e-007
+7.8700000e+002    +1.0748367e-007
+7.8800000e+002    +1.1083192e-007
+7.8900000e+002    +1.0458864e-007
+7.9000000e+002    +7.7866176e-008
+7.9100000e+002    +1.7217630e-007
+7.9200000e+002    +2.7103559e-007
+7.9300000e+002    +2.9175754e-007
+7.9400000e+002    +1.5263657e-007
+7.9500000e+002    +1.8012588e-007
+7.9600000e+002    +3.1350291e-007
+7.9700000e+002    +1.9594634e-007
+7.9800000e+002    +1.9214388e-008
+7.9900000e+002    +7.6659219e-008
#
#
# SR785 Measurement - Timestamp: Mar 05 2020 - 22:48:11
# Parameter File: TransSpec2.yml
#---------- Measurement Setup ------------
# Start Frequency (Hz): 0.000000
# Frequency Span (Hz): 102400.000000
# Frequency Resolution: 800
# Number of Averages: 2
# Averaging Mode: None
# Window function: Hanning
#---------- Measurement Parameters ----------
# Measurement Group:  "FFT" "FFT"
# Measurements:  "FFT 1" "FFT 2"
# View:  "Log Magnitude" "Log Magnitude"
# Unit:  "Vrms/rtHz" "dBVpk"
#---------- Input Parameters ----------
# Input Source: Analog
# Input Mode: Single ended, Single ended
# Input Grounding: Float, Float
# Input Coupling: AC, AC
# Input Range: -36.0dBVpk, -34.0dBVpk
# Auto Range: Off, Off
# Auto Range Mode: Tracking, Tracking
# Anti-Aliasing Filter: On, On
#---------- Source Parameters ----------
# Source Type: Sine
# Source Amplitude: 500.0mVpk
# Source On: 0

#---------- Measurement Data ----------
# [Freq(Hz) Display 0(Vrms/rtHz) Display 1(dBVpk) ]
+8.9600000e+002    +2.3052353e-007
+1.0240000e+003    +1.5376912e-007
+1.1520000e+003    +1.7838136e-007
+1.2800000e+003    +4.6452172e-008
+1.4080000e+003    +1.7021060e-007
+1.5360000e+003    +1.8393027e-007
+1.6640000e+003    +2.2602650e-007
+1.7920000e+003    +4.1766782e-007
+1.9200000e+003    +5.1491577e-007
+2.0480000e+003    +3.5394859e-007
+2.1760000e+003    +3.9726391e-008
+2.3040000e+003    +3.5304697e-007
+2.4320000e+003    +1.4063525e-007
+2.5600000e+003    +3.0306907e-007
+2.6880000e+003    +4.4030782e-007
+2.8160000e+003    +1.3487619e-007
+2.9440000e+003    +4.8586469e-007
+3.0720000e+003    +6.2149002e-007
+3.2000000e+003    +4.2669018e-007
+3.3280000e+003    +3.3286292e-007
+3.4560000e+003    +6.6095566e-007
+3.5840000e+003    +8.8884167e-007
+3.7120000e+003    +6.9785051e-007
+3.8400000e+003    +3.3872232e-007
+3.9680000e+003    +1.4290296e-006
+4.0960000e+003    +1.3148450e-006
+4.2240000e+003    +1.6820989e-007
+4.3520000e+003    +8.1090661e-007
+4.4800000e+003    +3.6086513e-007
+4.6080000e+003    +4.2406725e-007
+4.7360000e+003    +4.0048062e-007
+4.8640000e+003    +6.7972996e-007
+4.9920000e+003    +8.8260225e-007
+5.1200000e+003    +1.5771989e-006
+5.2480000e+003    +2.2457616e-006
+5.3760000e+003    +2.8498284e-006
+5.5040000e+003    +3.5378075e-006
+5.6320000e+003    +3.0868180e-006
+5.7600000e+003    +4.9193574e-007
+5.8880000e+003    +1.5851709e-006
+6.0160000e+003    +7.4811953e-007
+6.1440000e+003    +5.4612167e-007
+6.2720000e+003    +9.9046611e-007
+6.4000000e+003    +1.2186242e-006
+6.5280000e+003    +2.2979320e-006
+6.6560000e+003    +8.1141957e-007
+6.7840000e+003    +4.9900552e-007
+6.9120000e+003    +1.3443855e-006
+7.0400000e+003    +2.7848591e-006
+7.1680000e+003    +2.0680195e-006
+7.2960000e+003    +9.2414621e-007
+7.4240000e+003    +7.5036286e-007
+7.5520000e+003    +9.3126300e-007
+7.6800000e+003    +1.5806314e-006
+7.8080000e+003    +6.7609994e-007
+7.9360000e+003    +1.4080845e-006
+8.0640000e+003    +3.1017289e-006
+8.1920000e+003    +2.8562940e-006
+8.3200000e+003    +1.2499012e-006
+8.4480000e+003    +5.4449436e-007
+8.5760000e+003    +1.4861557e-006
+8.7040000e+003    +2.0979378e-006
+8.8320000e+003    +2.2247025e-006
+8.9600000e+003    +3.1179648e-006
+9.0880000e+003    +9.5915595e-007
+9.2160000e+003    +3.1556287e-006
+9.3440000e+003    +4.1644475e-006
+9.4720000e+003    +2.7294564e-006
+9.6000000e+003    +4.5719543e-007
+9.7280000e+003    +1.5851571e-006
+9.8560000e+003    +3.3817867e-006
+9.9840000e+003    +4.8412712e-006
+1.0112000e+004    +2.6934879e-006
+1.0240000e+004    +2.1491103e-006
+1.0368000e+004    +3.2999546e-006
+1.0496000e+004    +4.1469402e-006
+1.0624000e+004    +3.5638777e-006
+1.0752000e+004    +3.0639480e-006
+1.0880000e+004    +4.5485717e-006
+1.1008000e+004    +6.5190909e-007
+1.1136000e+004    +3.2010005e-006
+1.1264000e+004    +3.6154488e-006
+1.1392000e+004    +2.7500198e-006
+1.1520000e+004    +1.4799891e-006
+1.1648000e+004    +1.4268018e-006
+1.1776000e+004    +2.5595580e-006
+1.1904000e+004    +3.6463884e-006
+1.2032000e+004    +3.3053213e-006
+1.2160000e+004    +9.7461043e-007
+1.2288000e+004    +3.7795016e-006
+1.2416000e+004    +2.7259794e-006
+1.2544000e+004    +1.6153273e-006
+1.2672000e+004    +1.2555253e-006
+1.2800000e+004    +2.5803370e-006
+1.2928000e+004    +2.3328409e-006
+1.3056000e+004    +2.6420951e-006
+1.3184000e+004    +3.8475018e-006
+1.3312000e+004    +5.0712201e-006
+1.3440000e+004    +3.8192393e-006
+1.3568000e+004    +3.3894219e-006
+1.3696000e+004    +3.6505987e-006
+1.3824000e+004    +2.7022529e-006
+1.3952000e+004    +2.5057361e-006
+1.4080000e+004    +3.4283014e-006
+1.4208000e+004    +2.0657205e-006
+1.4336000e+004    +1.4754268e-006
+1.4464000e+004    +1.9055558e-006
+1.4592000e+004    +1.2948851e-006
+1.4720000e+004    +1.9854031e-006
+1.4848000e+004    +4.6019809e-006
+1.4976000e+004    +4.2896227e-006
+1.5104000e+004    +2.6464877e-006
+1.5232000e+004    +2.4868737e-006
+1.5360000e+004    +2.1415563e-006
+1.5488000e+004    +4.0738041e-006
+1.5616000e+004    +3.3595520e-006
+1.5744000e+004    +4.4730649e-007
+1.5872000e+004    +1.7466259e-006
+1.6000000e+004    +5.0926519e-007
+1.6128000e+004    +2.8929817e-006
+1.6256000e+004    +4.5829156e-006
+1.6384000e+004    +3.4719969e-006
+1.6512000e+004    +1.8248118e-006
+1.6640000e+004    +1.0027288e-006
+1.6768000e+004    +3.1720806e-006
+1.6896000e+004    +2.9967612e-006
+1.7024000e+004    +3.8442590e-006
+1.7152000e+004    +2.7526419e-006
+1.7280000e+004    +3.1877639e-006
+1.7408000e+004    +2.6416337e-006
+1.7536000e+004    +1.4078216e-006
+1.7664000e+004    +3.3268097e-006
+1.7792000e+004    +2.6660807e-006
+1.7920000e+004    +1.7282176e-006
+1.8048000e+004    +8.9433439e-007
+1.8176000e+004    +1.6317267e-006
+1.8304000e+004    +1.8459344e-006
+1.8432000e+004    +1.3651623e-006
+1.8560000e+004    +6.8210068e-007
+1.8688000e+004    +6.2744886e-007
+1.8816000e+004    +4.3917947e-007
+1.8944000e+004    +2.3296056e-006
+1.9072000e+004    +5.0715876e-006
+1.9200000e+004    +9.1435913e-006
+1.9328000e+004    +6.8908766e-006
+1.9456000e+004    +2.9668088e-006
+1.9584000e+004    +3.3108929e-006
+1.9712000e+004    +3.9923598e-006
+1.9840000e+004    +3.4139525e-006
+1.9968000e+004    +2.8324002e-006
+2.0096000e+004    +7.8172246e-007
+2.0224000e+004    +2.2247634e-006
+2.0352000e+004    +1.9296629e-006
+2.0480000e+004    +2.2251616e-006
+2.0608000e+004    +2.3461027e-006
+2.0736000e+004    +2.9215887e-006
+2.0864000e+004    +2.7670415e-006
+2.0992000e+004    +2.9794289e-006
+2.1120000e+004    +1.5355873e-006
+2.1248000e+004    +2.0792415e-006
+2.1376000e+004    +1.9543604e-006
+2.1504000e+004    +2.8172710e-006
+2.1632000e+004    +2.7459075e-006
+2.1760000e+004    +2.7539479e-006
+2.1888000e+004    +4.6361884e-006
+2.2016000e+004    +5.6714680e-006
+2.2144000e+004    +3.0773258e-006
+2.2272000e+004    +2.5785582e-006
+2.2400000e+004    +2.2186723e-006
+2.2528000e+004    +3.1035720e-006
+2.2656000e+004    +2.3140321e-006
+2.2784000e+004    +1.5937273e-006
+2.2912000e+004    +2.3722357e-006
+2.3040000e+004    +1.9628267e-006
+2.3168000e+004    +2.2740828e-006
+2.3296000e+004    +2.1576147e-006
+2.3424000e+004    +2.6323687e-006
+2.3552000e+004    +3.3436033e-006
+2.3680000e+004    +2.5664103e-006
+2.3808000e+004    +4.8356346e-006
+2.3936000e+004    +2.1506894e-006
+2.4064000e+004    +1.6751469e-006
+2.4192000e+004    +2.6234791e-006
+2.4320000e+004    +7.6648871e-007
+2.4448000e+004    +1.2455666e-006
+2.4576000e+004    +1.3709949e-006
+2.4704000e+004    +3.3466627e-006
+2.4832000e+004    +1.7927334e-006
+2.4960000e+004    +2.0869722e-006
+2.5088000e+004    +2.4786739e-006
+2.5216000e+004    +1.2440604e-006
+2.5344000e+004    +1.6949913e-006
+2.5472000e+004    +1.3230720e-006
+2.5600000e+004    +1.6960225e-006
+2.5728000e+004    +1.5176810e-006
+2.5856000e+004    +2.2200541e-006
+2.5984000e+004    +3.1043933e-006
+2.6112000e+004    +2.5950485e-006
+2.6240000e+004    +2.3841583e-006
+2.6368000e+004    +4.0176354e-007
+2.6496000e+004    +2.1961907e-006
+2.6624000e+004    +2.7407236e-006
+2.6752000e+004    +3.3544029e-006
+2.6880000e+004    +4.1868989e-006
+2.7008000e+004    +3.8950561e-006
+2.7136000e+004    +2.6150988e-006
+2.7264000e+004    +1.8478771e-006
+2.7392000e+004    +7.2906261e-007
+2.7520000e+004    +7.8216203e-008
+2.7648000e+004    +2.2246022e-006
+2.7776000e+004    +2.1072042e-006
+2.7904000e+004    +1.2112488e-006
+2.8032000e+004    +4.1374665e-006
+2.8160000e+004    +4.0351329e-006
+2.8288000e+004    +2.8688219e-006
+2.8416000e+004    +1.5955535e-006
+2.8544000e+004    +1.9716392e-006
+2.8672000e+004    +2.3402908e-006
+2.8800000e+004    +1.6551314e-006
+2.8928000e+004    +1.8392865e-006
+2.9056000e+004    +2.3655928e-006
+2.9184000e+004    +1.6210803e-006
+2.9312000e+004    +8.6911433e-007
+2.9440000e+004    +1.8392986e-006
+2.9568000e+004    +2.0421166e-006
+2.9696000e+004    +1.0727664e-006
+2.9824000e+004    +2.0473790e-006
+2.9952000e+004    +1.8517197e-006
+3.0080000e+004    +5.3833531e-007
+3.0208000e+004    +2.7618603e-007
+3.0336000e+004    +2.2450565e-006
+3.0464000e+004    +3.6980653e-006
+3.0592000e+004    +2.6494067e-006
+3.0720000e+004    +1.2820188e-006
+3.0848000e+004    +1.6808565e-006
+3.0976000e+004    +2.2172794e-006
+3.1104000e+004    +2.0637733e-006
+3.1232000e+004    +1.5798992e-006
+3.1360000e+004    +1.0837969e-006
+3.1488000e+004    +6.7334929e-007
+3.1616000e+004    +1.1910818e-006
+3.1744000e+004    +2.1564874e-006
+3.1872000e+004    +1.5095013e-006
+3.2000000e+004    +1.0506859e-006
+3.2128000e+004    +1.4568440e-007
+3.2256000e+004    +2.2013689e-006
+3.2384000e+004    +3.1569559e-006
+3.2512000e+004    +3.2070266e-006
+3.2640000e+004    +2.1770850e-006
+3.2768000e+004    +1.2666618e-006
+3.2896000e+004    +1.0342841e-006
+3.3024000e+004    +1.0594413e-006
+3.3152000e+004    +1.1211667e-006
+3.3280000e+004    +9.6236806e-007
+3.3408000e+004    +9.8938676e-007
+3.3536000e+004    +9.9936995e-007
+3.3664000e+004    +1.3573456e-006
+3.3792000e+004    +1.9571842e-006
+3.3920000e+004    +8.8381631e-007
+3.4048000e+004    +1.5302872e-006
+3.4176000e+004    +2.5676954e-007
+3.4304000e+004    +1.1891674e-006
+3.4432000e+004    +2.1477208e-006
+3.4560000e+004    +3.5360715e-006
+3.4688000e+004    +1.8270812e-006
+3.4816000e+004    +1.3910401e-006
+3.4944000e+004    +2.3578059e-006
+3.5072000e+004    +1.9071989e-006
+3.5200000e+004    +1.1623073e-006
+3.5328000e+004    +2.8987651e-007
+3.5456000e+004    +5.2031703e-007
+3.5584000e+004    +1.8770636e-006
+3.5712000e+004    +2.4352003e-006
+3.5840000e+004    +2.4272028e-006
+3.5968000e+004    +1.4682065e-006
+3.6096000e+004    +6.5619196e-007
+3.6224000e+004    +1.2877027e-006
+3.6352000e+004    +9.0658978e-007
+3.6480000e+004    +1.6418157e-006
+3.6608000e+004    +9.5582766e-007
+3.6736000e+004    +5.3633471e-007
+3.6864000e+004    +3.9834845e-007
+3.6992000e+004    +1.5362062e-006
+3.7120000e+004    +3.1663460e-006
+3.7248000e+004    +2.0370510e-006
+3.7376000e+004    +2.5116553e-006
+3.7504000e+004    +1.8113954e-006
+3.7632000e+004    +1.5918317e-006
+3.7760000e+004    +2.3907639e-006
+3.7888000e+004    +1.0967382e-006
+3.8016000e+004    +9.7444024e-007
+3.8144000e+004    +2.2226320e-006
+3.8272000e+004    +2.4716842e-006
+3.8400000e+004    +2.6969294e-006
+3.8528000e+004    +4.1529365e-006
+3.8656000e+004    +4.9376854e-006
+3.8784000e+004    +4.6990540e-006
+3.8912000e+004    +3.2650426e-006
+3.9040000e+004    +8.7762567e-007
+3.9168000e+004    +3.0409271e-006
+3.9296000e+004    +1.8055377e-006
+3.9424000e+004    +1.6275185e-006
+3.9552000e+004    +8.2872839e-007
+3.9680000e+004    +9.0264467e-007
+3.9808000e+004    +1.5867207e-006
+3.9936000e+004    +6.7032568e-007
+4.0064000e+004    +1.6704892e-006
+4.0192000e+004    +1.3633828e-006
+4.0320000e+004    +1.7683768e-006
+4.0448000e+004    +2.9875987e-006
+4.0576000e+004    +3.2024559e-006
+4.0704000e+004    +3.4667173e-006
+4.0832000e+004    +3.4573284e-006
+4.0960000e+004    +2.5703441e-006
+4.1088000e+004    +2.1951009e-006
+4.1216000e+004    +2.0105579e-006
+4.1344000e+004    +9.7941506e-007
+4.1472000e+004    +1.5166981e-006
+4.1600000e+004    +1.7927728e-006
+4.1728000e+004    +1.8495903e-006
+4.1856000e+004    +1.8804673e-006
+4.1984000e+004    +1.7465569e-006
+4.2112000e+004    +2.4386091e-007
+4.2240000e+004    +1.2432535e-006
+4.2368000e+004    +1.4650857e-006
+4.2496000e+004    +8.2030749e-007
+4.2624000e+004    +1.2954953e-006
+4.2752000e+004    +1.9595623e-006
+4.2880000e+004    +2.0980438e-006
+4.3008000e+004    +2.6731211e-006
+4.3136000e+004    +1.8463683e-006
+4.3264000e+004    +1.8936196e-006
+4.3392000e+004    +2.7079941e-006
+4.3520000e+004    +2.0198597e-006
+4.3648000e+004    +9.8711575e-007
+4.3776000e+004    +6.4105774e-007
+4.3904000e+004    +3.3504571e-006
+4.4032000e+004    +3.3352144e-006
+4.4160000e+004    +1.2524481e-006
+4.4288000e+004    +9.6153587e-007
+4.4416000e+004    +2.3432271e-007
+4.4544000e+004    +1.1095002e-006
+4.4672000e+004    +7.3845382e-007
+4.4800000e+004    +1.2927501e-006
+4.4928000e+004    +1.7210334e-006
+4.5056000e+004    +1.4772601e-006
+4.5184000e+004    +2.1681799e-006
+4.5312000e+004    +6.9761916e-007
+4.5440000e+004    +1.9199774e-007
+4.5568000e+004    +2.2999716e-006
+4.5696000e+004    +6.9149326e-007
+4.5824000e+004    +2.3220239e-006
+4.5952000e+004    +1.3800837e-006
+4.6080000e+004    +1.1866606e-006
+4.6208000e+004    +7.8916560e-007
+4.6336000e+004    +1.8347242e-006
+4.6464000e+004    +1.9889246e-006
+4.6592000e+004    +9.9316890e-007
+4.6720000e+004    +1.7231813e-006
+4.6848000e+004    +8.0745497e-007
+4.6976000e+004    +6.5211458e-007
+4.7104000e+004    +1.2981022e-006
+4.7232000e+004    +9.3008788e-007
+4.7360000e+004    +4.2689450e-007
+4.7488000e+004    +1.7365048e-006
+4.7616000e+004    +1.1488054e-006
+4.7744000e+004    +1.0351657e-006
+4.7872000e+004    +5.1135339e-007
+4.8000000e+004    +1.5896746e-006
+4.8128000e+004    +1.7052990e-006
+4.8256000e+004    +9.3657150e-007
+4.8384000e+004    +1.4774369e-006
+4.8512000e+004    +6.5034487e-007
+4.8640000e+004    +2.7116744e-006
+4.8768000e+004    +3.4918955e-006
+4.8896000e+004    +2.3177497e-006
+4.9024000e+004    +2.0644259e-006
+4.9152000e+004    +1.4997478e-006
+4.9280000e+004    +1.4217397e-006
+4.9408000e+004    +1.1578569e-006
+4.9536000e+004    +1.6896029e-006
+4.9664000e+004    +1.0675635e-006
+4.9792000e+004    +1.4634073e-006
+4.9920000e+004    +1.9436714e-006
+5.0048000e+004    +7.7652987e-007
+5.0176000e+004    +1.2415510e-006
+5.0304000e+004    +7.5380706e-007
+5.0432000e+004    +4.1035042e-007
+5.0560000e+004    +1.3305496e-006
+5.0688000e+004    +1.7488212e-006
+5.0816000e+004    +4.4014976e-007
+5.0944000e+004    +1.2914095e-006
+5.1072000e+004    +1.1424670e-006
+5.1200000e+004    +2.5627919e-006
+5.1328000e+004    +2.2633567e-006
+5.1456000e+004    +1.6901409e-006
+5.1584000e+004    +1.0616875e-006
+5.1712000e+004    +1.0657823e-006
+5.1840000e+004    +2.1936000e-006
+5.1968000e+004    +2.3219982e-006
+5.2096000e+004    +1.1916534e-006
+5.2224000e+004    +1.3811782e-006
+5.2352000e+004    +2.2603642e-006
+5.2480000e+004    +2.4783990e-006
+5.2608000e+004    +1.8058887e-006
+5.2736000e+004    +1.4919334e-006
+5.2864000e+004    +8.9409781e-007
+5.2992000e+004    +6.3019053e-007
+5.3120000e+004    +8.4832664e-008
+5.3248000e+004    +9.0797141e-007
+5.3376000e+004    +1.7354546e-006
+5.3504000e+004    +1.4287598e-006
+5.3632000e+004    +1.1152895e-006
+5.3760000e+004    +1.8314336e-006
+5.3888000e+004    +9.8972032e-007
+5.4016000e+004    +1.4686676e-006
+5.4144000e+004    +1.5748041e-006
+5.4272000e+004    +7.2431686e-007
+5.4400000e+004    +1.8728989e-006
+5.4528000e+004    +1.3468410e-006
+5.4656000e+004    +3.6456839e-007
+5.4784000e+004    +8.8068265e-007
+5.4912000e+004    +6.8262136e-007
+5.5040000e+004    +2.8627210e-006
+5.5168000e+004    +5.3688386e-006
+5.5296000e+004    +3.2800042e-006
+5.5424000e+004    +9.1431093e-007
+5.5552000e+004    +1.1165429e-006
+5.5680000e+004    +1.7979394e-006
+5.5808000e+004    +8.0016252e-007
+5.5936000e+004    +7.6873306e-007
+5.6064000e+004    +5.1145952e-007
+5.6192000e+004    +9.8846169e-007
+5.6320000e+004    +1.9728650e-006
+5.6448000e+004    +2.4943720e-006
+5.6576000e+004    +1.2792110e-006
+5.6704000e+004    +7.0630512e-007
+5.6832000e+004    +7.7670808e-007
+5.6960000e+004    +8.6457254e-007
+5.7088000e+004    +6.2395549e-007
+5.7216000e+004    +7.4362930e-007
+5.7344000e+004    +1.2370132e-006
+5.7472000e+004    +1.4253159e-006
+5.7600000e+004    +1.7263742e-006
+5.7728000e+004    +1.7129253e-006
+5.7856000e+004    +1.0064438e-006
+5.7984000e+004    +4.0856878e-007
+5.8112000e+004    +8.1805263e-007
+5.8240000e+004    +5.6807289e-007
+5.8368000e+004    +7.0084900e-007
+5.8496000e+004    +1.3260227e-006
+5.8624000e+004    +1.1929009e-006
+5.8752000e+004    +9.6470615e-007
+5.8880000e+004    +2.9675940e-007
+5.9008000e+004    +9.0196403e-007
+5.9136000e+004    +1.8095725e-006
+5.9264000e+004    +1.1958120e-006
+5.9392000e+004    +1.7038037e-006
+5.9520000e+004    +1.3517180e-006
+5.9648000e+004    +7.6090924e-007
+5.9776000e+004    +3.3977605e-007
+5.9904000e+004    +1.3753023e-006
+6.0032000e+004    +1.0028082e-006
+6.0160000e+004    +9.4144184e-007
+6.0288000e+004    +1.8169807e-006
+6.0416000e+004    +3.1608336e-006
+6.0544000e+004    +2.3004388e-006
+6.0672000e+004    +2.0807099e-006
+6.0800000e+004    +3.1280563e-006
+6.0928000e+004    +8.7449570e-007
+6.1056000e+004    +4.5497956e-007
+6.1184000e+004    +7.3272275e-007
+6.1312000e+004    +8.8407450e-007
+6.1440000e+004    +2.1690205e-006
+6.1568000e+004    +1.5545804e-006
+6.1696000e+004    +1.6832056e-006
+6.1824000e+004    +1.9310469e-006
+6.1952000e+004    +1.2073081e-006
+6.2080000e+004    +9.4438411e-007
+6.2208000e+004    +2.5903116e-006
+6.2336000e+004    +1.8932890e-006
+6.2464000e+004    +9.6147460e-007
+6.2592000e+004    +1.2733479e-006
+6.2720000e+004    +7.8111412e-007
+6.2848000e+004    +1.9689048e-006
+6.2976000e+004    +1.1775170e-006
+6.3104000e+004    +7.1973716e-007
+6.3232000e+004    +1.0492541e-006
+6.3360000e+004    +8.1335162e-007
+6.3488000e+004    +1.6424611e-006
+6.3616000e+004    +7.5931860e-007
+6.3744000e+004    +2.4825388e-007
+6.3872000e+004    +8.5617557e-007
+6.4000000e+004    +5.3995967e-007
+6.4128000e+004    +1.4343253e-006
+6.4256000e+004    +1.3230632e-006
+6.4384000e+004    +1.5870518e-006
+6.4512000e+004    +1.3435518e-006
+6.4640000e+004    +1.1664366e-006
+6.4768000e+004    +1.2187272e-006
+6.4896000e+004    +6.9155629e-007
+6.5024000e+004    +1.7345402e-006
+6.5152000e+004    +2.4393348e-006
+6.5280000e+004    +2.5877646e-006
+6.5408000e+004    +2.0687053e-006
+6.5536000e+004    +9.3792261e-007
+6.5664000e+004    +1.1384664e-006
+6.5792000e+004    +6.7540844e-007
+6.5920000e+004    +1.7779944e-006
+6.6048000e+004    +1.3617401e-006
+6.6176000e+004    +8.2892586e-007
+6.6304000e+004    +5.6410869e-007
+6.6432000e+004    +6.9657824e-007
+6.6560000e+004    +1.9512922e-006
+6.6688000e+004    +2.9366365e-006
+6.6816000e+004    +2.0923342e-006
+6.6944000e+004    +1.2548114e-006
+6.7072000e+004    +8.1605572e-007
+6.7200000e+004    +8.9551156e-007
+6.7328000e+004    +1.9781683e-006
+6.7456000e+004    +1.5997881e-006
+6.7584000e+004    +7.0724718e-007
+6.7712000e+004    +7.5594380e-007
+6.7840000e+004    +9.2398892e-007
+6.7968000e+004    +2.0678651e-006
+6.8096000e+004    +1.8168749e-006
+6.8224000e+004    +1.7035924e-006
+6.8352000e+004    +9.6018437e-007
+6.8480000e+004    +5.2887310e-007
+6.8608000e+004    +1.4699453e-006
+6.8736000e+004    +6.9797466e-007
+6.8864000e+004    +8.8917159e-007
+6.8992000e+004    +1.3404310e-006
+6.9120000e+004    +1.4781443e-006
+6.9248000e+004    +9.5178319e-007
+6.9376000e+004    +1.4047121e-006
+6.9504000e+004    +8.2496535e-007
+6.9632000e+004    +7.1091802e-007
+6.9760000e+004    +1.6299416e-006
+6.9888000e+004    +1.1458627e-006
+7.0016000e+004    +5.1431965e-007
+7.0144000e+004    +2.4189317e-006
+7.0272000e+004    +4.7531180e-006
+7.0400000e+004    +2.2090856e-006
+7.0528000e+004    +1.4057365e-006
+7.0656000e+004    +1.0761167e-006
+7.0784000e+004    +1.4793003e-006
+7.0912000e+004    +2.1665571e-006
+7.1040000e+004    +6.9485492e-007
+7.1168000e+004    +3.3514615e-007
+7.1296000e+004    +7.4936253e-007
+7.1424000e+004    +1.7737476e-006
+7.1552000e+004    +1.6195130e-006
+7.1680000e+004    +1.3692123e-006
+7.1808000e+004    +1.3611900e-006
+7.1936000e+004    +1.6088774e-006
+7.2064000e+004    +1.0582995e-006
+7.2192000e+004    +7.7203867e-007
+7.2320000e+004    +1.2776235e-006
+7.2448000e+004    +1.8038080e-006
+7.2576000e+004    +1.4246963e-006
+7.2704000e+004    +1.9907336e-006
+7.2832000e+004    +2.6976402e-006
+7.2960000e+004    +2.0640362e-006
+7.3088000e+004    +1.8738266e-006
+7.3216000e+004    +3.3123837e-007
+7.3344000e+004    +2.0776806e-006
+7.3472000e+004    +2.3418718e-006
+7.3600000e+004    +1.9761883e-006
+7.3728000e+004    +2.0123314e-006
+7.3856000e+004    +1.2156628e-006
+7.3984000e+004    +1.3903148e-006
+7.4112000e+004    +1.6947587e-006
+7.4240000e+004    +2.1930750e-006
+7.4368000e+004    +1.0588807e-006
+7.4496000e+004    +1.6810392e-006
+7.4624000e+004    +2.9345513e-006
+7.4752000e+004    +2.1483954e-006
+7.4880000e+004    +1.7633280e-007
+7.5008000e+004    +1.2331172e-006
+7.5136000e+004    +1.2320387e-006
+7.5264000e+004    +1.2906327e-006
+7.5392000e+004    +1.0897235e-006
+7.5520000e+004    +4.8677776e-007
+7.5648000e+004    +2.4021756e-006
+7.5776000e+004    +2.3097068e-006
+7.5904000e+004    +8.5332351e-007
+7.6032000e+004    +9.8682960e-007
+7.6160000e+004    +7.0335818e-007
+7.6288000e+004    +1.6954733e-007
+7.6416000e+004    +3.7810042e-007
+7.6544000e+004    +9.6751606e-008
+7.6672000e+004    +7.3477230e-007
+7.6800000e+004    +1.4200970e-006
+7.6928000e+004    +1.5115279e-006
+7.7056000e+004    +1.2819021e-006
+7.7184000e+004    +1.0775498e-006
+7.7312000e+004    +9.7625218e-007
+7.7440000e+004    +7.6276285e-007
+7.7568000e+004    +5.4773163e-006
+7.7696000e+004    +9.3424733e-006
+7.7824000e+004    +4.6437585e-006
+7.7952000e+004    +8.4596229e-007
+7.8080000e+004    +3.4426540e-007
+7.8208000e+004    +1.0160567e-006
+7.8336000e+004    +5.6397369e-007
+7.8464000e+004    +1.1619424e-006
+7.8592000e+004    +7.8021588e-007
+7.8720000e+004    +1.4851264e-006
+7.8848000e+004    +1.9369224e-006
+7.8976000e+004    +1.2116278e-006
+7.9104000e+004    +8.7091780e-007
+7.9232000e+004    +1.3089925e-006
+7.9360000e+004    +5.0495959e-007
+7.9488000e+004    +3.7626830e-006
+7.9616000e+004    +3.1178963e-006
+7.9744000e+004    +2.6839732e-007
+7.9872000e+004    +1.5539490e-006
+8.0000000e+004    +2.2908282e-006
+8.0128000e+004    +2.5327349e-006
+8.0256000e+004    +1.9338647e-006
+8.0384000e+004    +2.0426278e-006
+8.0512000e+004    +4.9808426e-007
+8.0640000e+004    +7.7089686e-007
+8.0768000e+004    +8.4248910e-007
+8.0896000e+004    +1.1994862e-006
+8.1024000e+004    +8.1466180e-007
+8.1152000e+004    +1.8650478e-006
+8.1280000e+004    +1.6685790e-006
+8.1408000e+004    +1.5911257e-006
+8.1536000e+004    +1.4485660e-006
+8.1664000e+004    +1.1199844e-006
+8.1792000e+004    +8.4641846e-007
+8.1920000e+004    +1.5469848e-006
+8.2048000e+004    +1.5917216e-006
+8.2176000e+004    +9.5467817e-007
+8.2304000e+004    +9.8400358e-007
+8.2432000e+004    +2.1271162e-006
+8.2560000e+004    +1.8531313e-006
+8.2688000e+004    +1.7133466e-006
+8.2816000e+004    +2.3672349e-006
+8.2944000e+004    +1.4308524e-006
+8.3072000e+004    +4.4902035e-007
+8.3200000e+004    +4.2733623e-007
+8.3328000e+004    +1.4057272e-006
+8.3456000e+004    +4.9549175e-007
+8.3584000e+004    +2.0864384e-006
+8.3712000e+004    +6.3164663e-007
+8.3840000e+004    +3.0545331e-007
+8.3968000e+004    +2.3897483e-006
+8.4096000e+004    +2.0597483e-006
+8.4224000e+004    +1.5701563e-006
+8.4352000e+004    +2.4892995e-006
+8.4480000e+004    +1.3408417e-006
+8.4608000e+004    +3.7659936e-007
+8.4736000e+004    +1.5871790e-006
+8.4864000e+004    +8.0814056e-007
+8.4992000e+004    +1.1729080e-006
+8.5120000e+004    +2.7378275e-007
+8.5248000e+004    +2.0460666e-006
+8.5376000e+004    +1.3457294e-006
+8.5504000e+004    +1.1642614e-006
+8.5632000e+004    +6.0806343e-007
+8.5760000e+004    +7.7507417e-007
+8.5888000e+004    +1.2501853e-006
+8.6016000e+004    +3.6770803e-007
+8.6144000e+004    +8.4165976e-007
+8.6272000e+004    +9.6466795e-007
+8.6400000e+004    +9.0737348e-007
+8.6528000e+004    +1.7579406e-007
+8.6656000e+004    +1.5062712e-006
+8.6784000e+004    +6.7292359e-007
+8.6912000e+004    +2.7940412e-006
+8.7040000e+004    +8.8951333e-007
+8.7168000e+004    +1.7486215e-006
+8.7296000e+004    +1.7221448e-006
+8.7424000e+004    +1.2429136e-006
+8.7552000e+004    +1.9284028e-006
+8.7680000e+004    +2.7726553e-006
+8.7808000e+004    +2.3738771e-006
+8.7936000e+004    +8.8687250e-007
+8.8064000e+004    +2.4578148e-006
+8.8192000e+004    +1.0165064e-006
+8.8320000e+004    +1.4322308e-006
+8.8448000e+004    +5.0934403e-007
+8.8576000e+004    +9.4227744e-007
+8.8704000e+004    +9.1237149e-007
+8.8832000e+004    +8.7891976e-007
+8.8960000e+004    +2.2415763e-006
+8.9088000e+004    +2.2829640e-006
+8.9216000e+004    +1.5525063e-006
+8.9344000e+004    +5.8893545e-007
+8.9472000e+004    +1.2666214e-006
+8.9600000e+004    +1.0280188e-006
+8.9728000e+004    +1.4538399e-006
+8.9856000e+004    +6.2633586e-007
+8.9984000e+004    +1.3092556e-006
+9.0112000e+004    +7.3195406e-007
+9.0240000e+004    +1.5763662e-006
+9.0368000e+004    +1.0860041e-006
+9.0496000e+004    +1.1464491e-006
+9.0624000e+004    +2.4670426e-006
+9.0752000e+004    +2.2854317e-006
+9.0880000e+004    +1.3738172e-006
+9.1008000e+004    +2.1729393e-006
+9.1136000e+004    +1.6145046e-006
+9.1264000e+004    +7.4407768e-007
+9.1392000e+004    +1.4125441e-006
+9.1520000e+004    +1.8617518e-006
+9.1648000e+004    +9.8700411e-007
+9.1776000e+004    +1.0168546e-006
+9.1904000e+004    +4.4916038e-007
+9.2032000e+004    +1.6876654e-006
+9.2160000e+004    +2.4118376e-006
+9.2288000e+004    +3.3565618e-006
+9.2416000e+004    +2.2605627e-006
+9.2544000e+004    +9.4561159e-007
+9.2672000e+004    +5.8121020e-007
+9.2800000e+004    +7.3353334e-008
+9.2928000e+004    +2.0476465e-007
+9.3056000e+004    +6.6671066e-007
+9.3184000e+004    +1.5299278e-006
+9.3312000e+004    +1.5162568e-006
+9.3440000e+004    +1.4848802e-006
+9.3568000e+004    +2.0678901e-006
+9.3696000e+004    +2.6125188e-006
+9.3824000e+004    +2.1469311e-006
+9.3952000e+004    +7.4322361e-007
+9.4080000e+004    +1.7386453e-006
+9.4208000e+004    +1.5942035e-006
+9.4336000e+004    +8.5290668e-007
+9.4464000e+004    +3.0615706e-006
+9.4592000e+004    +1.9855993e-006
+9.4720000e+004    +9.8663145e-007
+9.4848000e+004    +8.5414467e-007
+9.4976000e+004    +2.9485454e-006
+9.5104000e+004    +2.5895979e-006
+9.5232000e+004    +1.4817289e-006
+9.5360000e+004    +1.7027620e-006
+9.5488000e+004    +1.4599200e-006
+9.5616000e+004    +1.0036288e-006
+9.5744000e+004    +2.4436210e-006
+9.5872000e+004    +1.7631113e-006
+9.6000000e+004    +3.3952472e-006
+9.6128000e+004    +3.6668118e-006
+9.6256000e+004    +1.4809302e-006
+9.6384000e+004    +1.3746351e-006
+9.6512000e+004    +2.5556546e-006
+9.6640000e+004    +1.0294397e-006
+9.6768000e+004    +1.2214144e-006
+9.6896000e+004    +1.3261945e-006
+9.7024000e+004    +1.2292741e-006
+9.7152000e+004    +7.7901490e-007
+9.7280000e+004    +2.5348770e-006
+9.7408000e+004    +2.5367228e-006
+9.7536000e+004    +3.1536233e-006
+9.7664000e+004    +3.8979010e-006
+9.7792000e+004    +7.9294028e-007
+9.7920000e+004    +2.8907748e-006
+9.8048000e+004    +2.6444632e-006
+9.8176000e+004    +1.9427625e-006
+9.8304000e+004    +2.9659686e-006
+9.8432000e+004    +2.6687751e-006
+9.8560000e+004    +2.9077066e-007
+9.8688000e+004    +2.1893989e-006
+9.8816000e+004    +1.7112278e-006
+9.8944000e+004    +2.1812625e-006
+9.9072000e+004    +2.6113373e-006
+9.9200000e+004    +1.7079336e-006
+9.9328000e+004    +2.2763736e-006
+9.9456000e+004    +4.5921183e-006
+9.9584000e+004    +4.3720834e-006
+9.9712000e+004    +1.5153864e-006
+9.9840000e+004    +2.9568221e-006
+9.9968000e+004    +1.5507106e-006
+1.0009600e+005    +2.9616374e-006
+1.0022400e+005    +5.1893066e-006
+1.0035200e+005    +5.0620411e-006
+1.0048000e+005    +1.2597949e-006
+1.0060800e+005    +5.0140551e-007
+1.0073600e+005    +4.7478864e-007
+1.0086400e+005    +2.0290174e-006
+1.0099200e+005    +1.4942925e-006
+1.0112000e+005    +1.4693225e-006
+1.0124800e+005    +2.7583267e-006
+1.0137600e+005    +1.2660722e-006
+1.0150400e+005    +8.1772123e-007
+1.0163200e+005    +2.7990368e-006
+1.0176000e+005    +1.4552006e-006
+1.0188800e+005    +1.4864657e-006
+1.0201600e+005    +4.2633988e-007
+1.0214400e+005    +7.5189843e-007
+1.0227200e+005    +2.3824391e-006
