# Comments from moku data file:% Moku:Phasemeter 
# 
# % Ch 1 - DC coupling, 50 Ohm impedance, 1 V range
# 
# % Ch 1 bandwidth = 1.0000000000e+04 (Hz)
# 
# % Acquisition rate: 1.5625000000e+04 Hz
# 
# % External 10 MHz clock
# 
# % Acquired 2020-02-08 T 06:09:58 -0800
# 
# % Time, Set frequency 1 (Hz), Frequency 1 (Hz), Phase 1 (cyc), I 1 (V), Q 1 (V)
# 
# #########################################################
# ASD calculated by mokuReadFreqNoise.py
# Frequency [Hz]         Freq ASD1 [Hz/rtHz]      Freq ASDlb1 [Hz/rtHz]    Freq ASDub1 [Hz/rtHz]    
# 
0.000000000000000000e+00 3.199165452329211803e+02 1.996014474305415547e+02 5.180661431984178762e+02
1.000000000000000056e-01 3.882184103042358743e+02 3.185328855333781348e+02 6.820564059305328328e+02
2.000000000000000111e-01 2.767115238987513521e+02 1.306809703374802041e+02 4.508622434787860698e+02
3.000000000000000444e-01 3.215167055637066937e+02 1.838775143091186237e+02 4.223793102968250537e+02
4.000000000000000222e-01 1.891976618223850437e+02 7.193427885612631201e+01 3.956339097096425803e+02
5.000000000000000000e-01 1.847900101766855698e+02 1.479295292006898705e+02 3.068315063104682281e+02
6.000000000000000888e-01 1.300019972208845900e+02 6.916664657252950121e+01 2.587667831486324417e+02
7.000000000000000666e-01 1.865337198693073333e+02 9.551594677361283914e+01 2.424112420793757963e+02
8.000000000000000444e-01 1.889937480165966690e+02 1.351757026822556895e+02 3.302219795046118520e+02
9.000000000000000222e-01 1.690566829233507633e+02 8.663848460570090992e+01 2.908262370154499763e+02
1.000000000000000000e+00 1.384183215949329622e+02 7.778884832812090622e+01 1.921902320547080762e+02
1.100000000000000089e+00 9.151910138968835895e+01 6.078399131984829040e+01 2.276212583798336198e+02
1.200000000000000178e+00 8.834952862585576838e+01 6.387739967564857579e+01 1.784627620026060413e+02
1.300000000000000044e+00 9.488175248549697471e+01 3.935072887322389334e+01 1.208391750562173286e+02
1.400000000000000133e+00 1.090144112888084891e+02 6.848827846697029997e+01 1.481316725519763224e+02
1.500000000000000000e+00 8.405754787893769731e+01 2.581865565833531306e+01 1.496675826376713587e+02
1.600000000000000089e+00 1.062355859317840583e+02 7.440429898653013652e+01 1.317593124042949739e+02
1.700000000000000178e+00 9.733192637193891983e+01 7.110772991220544270e+01 1.220371237160515534e+02
1.800000000000000044e+00 7.600510869055737828e+01 5.536666096636505330e+01 9.821479400308656693e+01
1.900000000000000133e+00 8.013769749759136118e+01 3.851830627784723760e+01 1.193293791097352283e+02
2.000000000000000000e+00 7.553260956417922500e+01 5.974144479936284569e+01 1.090739264265969410e+02
2.100000000000000089e+00 9.769731499670260177e+01 4.950846840294416751e+01 1.214877903963529349e+02
2.200000000000000178e+00 1.132926356596363320e+02 8.045689571997314715e+01 1.564720631943077080e+02
2.300000000000000266e+00 1.312765988166987654e+02 7.963622253102893467e+01 1.629183114411740405e+02
2.400000000000000355e+00 8.322484989972463154e+01 5.555450358020496537e+01 1.320848013710018449e+02
2.500000000000000000e+00 1.223576375435850565e+02 7.235492224596210065e+01 1.575415368401899912e+02
2.600000000000000089e+00 6.285915969842373840e+01 2.676652946932887644e+01 1.800327038645806965e+02
2.700000000000000178e+00 8.240177095295035770e+01 6.072416018487444944e+01 1.055133538291324840e+02
2.800000000000000266e+00 8.036875965337759453e+01 3.997023978108997255e+01 1.347386548011324123e+02
2.900000000000000355e+00 5.207759378766793645e+01 4.469350244243781844e+01 8.522396745045313082e+01
3.000000000000000000e+00 8.857191634103129729e+01 4.371087213812818106e+01 1.149879006578971712e+02
3.100000000000000089e+00 6.047301640871405226e+01 3.876469153749430774e+01 1.334119603368467892e+02
3.200000000000000178e+00 4.883081949045472925e+01 2.529334888220439126e+01 9.618670707472182357e+01
3.300000000000000266e+00 5.389893707090295294e+01 2.723125761656044119e+01 7.653260035008440809e+01
3.400000000000000355e+00 5.449148458398513384e+01 3.258265266068084287e+01 6.332778669530323157e+01
3.500000000000000000e+00 5.336106545260511780e+01 3.850442586924918231e+01 6.036015769386949614e+01
3.600000000000000089e+00 5.527135518921709689e+01 3.589332413304314429e+01 8.613663426291019221e+01
3.700000000000000178e+00 5.799458991583512102e+01 3.705081628591098308e+01 8.982231730946713810e+01
3.800000000000000266e+00 3.807519355301985797e+01 2.136459308243662747e+01 9.844717414410530409e+01
3.900000000000000355e+00 4.945751287535622964e+01 2.669566845253407550e+01 9.510121630862353470e+01
4.000000000000000000e+00 6.314696176149863049e+01 3.301119754562918729e+01 8.554192815895767410e+01
4.100000000000000533e+00 6.963244143475799319e+01 4.056875228294124724e+01 8.168345780640952114e+01
4.200000000000000178e+00 3.958813556539208633e+01 2.886194838907472260e+01 6.519147160048181888e+01
4.299999999999999822e+00 3.917096314575789506e+01 2.447261773525315220e+01 4.982366720064551657e+01
4.400000000000000355e+00 4.765577486014647945e+01 1.866630827385133529e+01 6.732909324127545858e+01
4.500000000000000000e+00 3.591345355748120483e+01 1.319835441017226785e+01 5.362773044488051966e+01
4.600000000000000533e+00 3.451360336055080325e+01 1.405915041026142021e+01 4.822998554455064379e+01
4.700000000000000178e+00 3.810948412671152852e+01 2.207759258203769193e+01 5.579200385818617036e+01
4.800000000000000711e+00 3.763874507002790182e+01 1.727377209445571182e+01 5.637294632437474462e+01
4.900000000000000355e+00 3.268803546005377569e+01 1.278117333217377904e+01 4.462423793919460735e+01
5.000000000000000000e+00 3.665820424913074760e+01 1.683231197960703440e+01 5.510464665867231560e+01
5.100000000000000533e+00 3.554970284903054534e+01 2.605486340187991701e+01 5.890088416158502582e+01
5.200000000000000178e+00 3.909213539836395057e+01 2.320054103611248664e+01 5.019594733183314617e+01
5.300000000000000711e+00 4.518739664719993954e+01 3.470568078516342325e+01 5.439864229287486808e+01
5.400000000000000355e+00 3.450582315186112226e+01 1.727578734369547320e+01 6.098322273510395775e+01
5.500000000000000000e+00 3.399024381281807905e+01 2.006319168941850606e+01 4.153819288568389112e+01
5.600000000000000533e+00 2.813173112243299556e+01 1.997995749644460517e+01 4.035687885119211415e+01
5.700000000000000178e+00 2.678639490505235088e+01 1.683584181395822910e+01 3.789344624347103974e+01
5.800000000000000711e+00 3.411875253152865639e+01 2.496632626651249609e+01 4.884057174292993864e+01
5.900000000000000355e+00 4.484177139774293863e+01 1.968082072065038801e+01 6.762405491084085440e+01
6.000000000000000000e+00 3.540934714818018847e+01 1.916812086801296644e+01 5.740378795148892266e+01
6.100000000000000533e+00 3.263950916926228274e+01 1.799232773996578416e+01 6.379841305781712890e+01
6.200000000000000178e+00 4.181270576991754240e+01 1.708927043047997785e+01 5.663055704954778236e+01
6.300000000000000711e+00 3.185624841727690182e+01 2.046930387010913677e+01 4.402208857021555133e+01
6.400000000000000355e+00 3.370274245141754221e+01 1.298622767382811816e+01 3.812928899321567400e+01
6.500000000000000000e+00 2.810771667935937046e+01 1.906399893963516590e+01 3.788948504791439120e+01
6.600000000000000533e+00 3.052654676184073423e+01 1.659763289410260256e+01 3.767906454379281200e+01
6.700000000000000178e+00 3.076977028808849113e+01 1.639254580602753464e+01 4.339842571944497962e+01
6.800000000000000711e+00 2.353226394707881042e+01 1.385585883720748157e+01 4.122601168926231452e+01
6.900000000000000355e+00 1.876267168365789217e+01 8.492905017872574902e+00 2.182051164537952204e+01
7.000000000000000000e+00 1.614311355234887557e+01 1.019480805083521524e+01 1.867004101391717796e+01
7.100000000000000533e+00 2.018975458776153786e+01 1.247330336339609147e+01 2.786236880271819416e+01
7.200000000000000178e+00 2.840649774068701561e+01 1.593333481735494495e+01 3.933464742889488974e+01
7.300000000000000711e+00 2.635341012153576301e+01 2.017318157193103900e+01 4.003283039340932703e+01
7.400000000000000355e+00 2.678727101330722604e+01 1.301647737926371207e+01 3.576252087333504903e+01
7.500000000000000000e+00 2.798768214725778236e+01 1.220065969116242677e+01 4.615583967498974971e+01
7.600000000000000533e+00 3.016265160443391125e+01 1.799670616853004290e+01 3.574084120541316167e+01
7.700000000000000178e+00 2.045782949962848107e+01 1.318057908032892023e+01 3.944337741533789909e+01
7.800000000000000711e+00 1.837638318644263435e+01 1.136633770227613383e+01 2.356777906594903271e+01
7.900000000000000355e+00 1.437328498617143069e+01 7.850564074601728670e+00 2.375268199249185486e+01
8.000000000000000000e+00 1.933370291809374919e+01 1.169725237896934900e+01 4.061650481850083594e+01
8.099999999999999645e+00 2.852104486400330075e+01 1.725887487842826218e+01 3.597982562575396770e+01
8.200000000000001066e+00 2.078085915339677570e+01 1.141844599223985668e+01 3.501336201762190825e+01
8.300000000000000711e+00 1.730333067680273018e+01 1.308023263930269309e+01 2.595570331753581428e+01
8.400000000000000355e+00 1.846857861242897059e+01 8.640875183381043101e+00 3.054594091388653965e+01
8.500000000000000000e+00 2.366280069153220111e+01 1.897313632551803764e+01 3.916853177117953066e+01
8.599999999999999645e+00 2.348353139046464477e+01 1.329113776921400358e+01 3.729214339881678342e+01
8.700000000000001066e+00 2.373763224969135166e+01 1.028045201188163738e+01 3.532450962761191704e+01
8.800000000000000711e+00 1.958235215047787037e+01 1.287839942061980025e+01 2.507832438812680564e+01
8.900000000000000355e+00 2.025027286218676537e+01 8.302623678218315817e+00 2.635172250790887460e+01
9.000000000000000000e+00 2.655621038986532767e+01 1.134335767010353280e+01 3.114377292678769038e+01
9.099999999999999645e+00 2.527953112759061938e+01 1.341873477234886813e+01 3.606873463741149521e+01
9.200000000000001066e+00 1.949836416865299071e+01 1.485756008359025060e+01 2.922856841746098411e+01
9.300000000000000711e+00 2.289918364979779852e+01 1.234292108634260110e+01 4.097069706477684292e+01
9.400000000000000355e+00 3.175554045521353430e+01 2.066060225179465704e+01 3.556363643259266638e+01
9.500000000000000000e+00 2.380938264128139892e+01 1.376404877800121263e+01 2.876012835789658695e+01
9.600000000000001421e+00 1.521465912216398131e+01 7.392519327461124945e+00 2.203980788468886942e+01
9.700000000000001066e+00 2.291120656053897875e+01 8.188622775406301457e+00 2.694672030611820901e+01
9.800000000000000711e+00 2.025758854647317975e+01 1.280038893453012960e+01 2.517984100859795404e+01
9.900000000000000355e+00 1.297302917875087580e+01 1.042098200976491817e+01 3.258587080916086620e+01
1.000000000000000000e+01 2.205587392877658814e+01 1.360364739671685363e+01 2.928050582680212699e+01
1.000000000000000000e+01 1.941161319543597941e+01 1.018070381821337200e+01 3.114783746904055306e+01
1.100000000000000000e+01 1.510243897720132544e+01 7.041304628958465095e+00 2.708558002604484116e+01
1.200000000000000000e+01 1.300871595001240166e+01 6.354841760872965040e+00 2.335445560302088097e+01
1.300000000000000000e+01 1.360073069034944204e+01 7.565903151092970624e+00 2.175960421100717213e+01
1.400000000000000000e+01 1.179972826591236235e+01 6.515091921630834726e+00 2.100100960955705887e+01
1.500000000000000000e+01 1.170175605960713838e+01 6.199477260653235788e+00 1.731097786480080813e+01
1.600000000000000000e+01 9.709618055543614901e+00 4.722100057570791876e+00 1.714007244219426696e+01
1.700000000000000000e+01 9.469986933532695161e+00 4.256771421943097877e+00 1.525504040042814502e+01
1.800000000000000000e+01 8.719154822883076861e+00 3.427888962386144378e+00 1.294925621589466935e+01
1.900000000000000000e+01 7.963978262174645550e+00 3.959086622334002215e+00 1.369703816769963645e+01
2.000000000000000000e+01 8.170723643942904957e+00 3.463727418614863662e+00 1.521310682264184599e+01
2.100000000000000000e+01 8.217086874851027289e+00 3.709930964171134438e+00 1.332266645725813170e+01
2.200000000000000000e+01 7.131177477007099696e+00 3.702300518530519557e+00 1.231018585266363630e+01
2.300000000000000000e+01 7.450483805128422787e+00 3.158834309138963903e+00 1.222692865151680763e+01
2.400000000000000000e+01 7.346450804142429014e+00 3.841041208243291205e+00 1.141081116674251206e+01
2.500000000000000000e+01 6.362572349783623515e+00 2.976296840028202606e+00 1.094314645687146204e+01
2.600000000000000000e+01 6.180471445130131691e+00 3.081006977616674636e+00 1.043728133705887551e+01
2.700000000000000000e+01 6.108962706211903182e+00 2.969287832373579405e+00 9.829600490319723605e+00
2.800000000000000000e+01 5.947208339499041152e+00 2.372522714807584698e+00 8.824756961783977616e+00
2.900000000000000000e+01 5.764072809724104296e+00 2.680002552535738047e+00 9.204904472549623407e+00
3.000000000000000000e+01 4.852601561063865532e+00 2.620245566870598619e+00 8.237403906382290586e+00
3.100000000000000000e+01 5.067276863680628907e+00 2.537891119487667879e+00 7.950958365519060322e+00
3.200000000000000000e+01 5.359491217564818832e+00 2.082622074026859060e+00 7.674446863028901333e+00
3.300000000000000000e+01 4.780997293027226647e+00 2.182336872787699278e+00 7.974999222349416605e+00
3.400000000000000000e+01 4.671996957085205793e+00 1.770706434987942002e+00 8.813713783173446004e+00
3.500000000000000000e+01 4.303002006541924551e+00 1.543368093533363350e+00 7.892760007076850215e+00
3.600000000000000000e+01 4.047676465260981793e+00 1.676469437807432739e+00 7.364548412008341316e+00
3.700000000000000000e+01 3.816611683493347673e+00 1.424185046744366634e+00 6.419803254402955517e+00
3.800000000000000000e+01 3.691053594758454626e+00 1.672997786848579027e+00 6.431215256822002679e+00
3.900000000000000000e+01 3.050132377368979686e+00 1.428424760521140424e+00 6.055219224787421695e+00
4.000000000000000000e+01 3.019995871075384475e+00 1.394278143005651893e+00 6.246177879379889220e+00
4.100000000000000000e+01 2.515125901748628490e+00 1.149351904148744774e+00 5.858801783575409594e+00
4.200000000000000000e+01 2.641767743174999961e+00 1.172705608635329799e+00 5.553446381542236132e+00
4.300000000000000000e+01 2.692868860283835986e+00 1.097805345128748167e+00 5.126525827014575043e+00
4.400000000000000000e+01 2.373520188067888892e+00 1.183758619328550754e+00 5.078509216469508480e+00
4.500000000000000000e+01 2.400856201834819625e+00 1.079317824118593894e+00 4.862674059712497332e+00
4.600000000000000000e+01 2.192176846987476502e+00 1.078320515555975634e+00 5.921005864001239516e+00
4.700000000000000000e+01 2.232837255790754760e+00 9.489190636497406572e-01 4.928052094321106580e+00
4.800000000000000000e+01 1.989467352412109591e+00 8.391591788968199017e-01 4.464774307463469150e+00
4.900000000000000000e+01 1.790297764142360748e+00 8.475575491534775852e-01 4.005058279803324517e+00
5.000000000000000000e+01 1.677027443256158046e+00 6.572083876478502784e-01 4.532910755806403458e+00
5.100000000000000000e+01 1.607233887346497081e+00 6.921661158995716656e-01 3.950611878084245188e+00
5.200000000000000000e+01 1.515192766282708714e+00 7.151921094701069181e-01 3.574316689240037093e+00
5.300000000000000000e+01 1.571512849338331685e+00 6.588307376284026073e-01 3.610009486200702611e+00
5.400000000000000000e+01 1.303930207399862207e+00 5.510944387944601841e-01 3.345385319749097253e+00
5.500000000000000000e+01 1.347442297537566169e+00 5.571947762675319993e-01 3.106815619924285343e+00
5.600000000000000000e+01 1.204620302821471478e+00 5.902375191079031191e-01 3.195821816011958028e+00
5.700000000000000000e+01 1.159792477301512914e+00 6.195644571881981921e-01 2.693843326573701180e+00
5.800000000000000000e+01 1.147216866254205270e+00 6.240499623653741335e-01 2.990781806529877240e+00
5.900000000000000000e+01 1.096403269082184773e+00 5.066366264498065597e-01 2.668679413871205774e+00
6.000000000000000000e+01 1.032665128591690351e+00 5.079958239264370512e-01 2.754089014360548759e+00
6.100000000000000000e+01 1.067976343282716956e+00 4.418664015305410753e-01 2.156922302519222345e+00
6.200000000000000000e+01 9.115289456358026676e-01 4.285608018510226325e-01 2.262508799210551924e+00
6.300000000000000000e+01 8.707175708295479266e-01 4.387759909470829722e-01 2.007053325315972359e+00
6.400000000000000000e+01 8.536890228198072972e-01 4.087309156577691449e-01 1.524249543727951739e+00
6.500000000000000000e+01 9.954400524981432685e-01 5.010851391602951788e-01 1.998418710058192493e+00
6.600000000000000000e+01 9.502636918916016473e-01 4.429406202091852873e-01 1.984310490315005504e+00
6.700000000000000000e+01 8.871249080687459987e-01 4.150007076077425472e-01 1.807880898683396742e+00
6.800000000000000000e+01 8.474789797768795818e-01 3.697525428529946367e-01 1.483326110427203526e+00
6.900000000000000000e+01 7.272665153883651756e-01 3.948632892655128956e-01 1.422054358943798169e+00
7.000000000000000000e+01 7.372266834507466005e-01 2.975572272919310146e-01 1.336468503333071878e+00
7.100000000000000000e+01 7.049243868450381090e-01 3.398617128221492756e-01 1.285929335686671893e+00
7.200000000000000000e+01 7.173788760148369636e-01 3.021626578725482015e-01 1.403030177669065237e+00
7.300000000000000000e+01 7.225150162982930668e-01 2.882486752525842411e-01 1.427867047262318945e+00
7.400000000000000000e+01 5.911717916794033689e-01 2.748136830182835721e-01 1.207991817794148215e+00
7.500000000000000000e+01 5.785539287317057466e-01 2.618817046819249539e-01 1.165052969641478642e+00
7.600000000000000000e+01 5.153242374310649243e-01 2.710545910133169700e-01 1.014914363443142120e+00
7.700000000000000000e+01 5.510226687622573616e-01 2.706894132024222355e-01 9.721058793850453350e-01
7.800000000000000000e+01 5.375009117858583485e-01 2.678229390694631951e-01 9.257033446680257294e-01
7.900000000000000000e+01 5.387235361038229531e-01 2.640261586922340031e-01 9.179237731365783581e-01
8.000000000000000000e+01 5.151604633554728307e-01 3.112343929022167166e-01 9.993244209811236178e-01
8.100000000000000000e+01 5.428765001329619588e-01 3.034923213926083996e-01 9.646407334203490613e-01
8.200000000000000000e+01 5.195099015852705504e-01 2.700047148159324673e-01 9.099804637442931998e-01
8.300000000000000000e+01 4.953783341265818319e-01 2.264633587485617994e-01 8.489630121799565110e-01
8.400000000000000000e+01 5.185576979826118649e-01 2.538425809714273673e-01 8.307162754576818964e-01
8.500000000000000000e+01 4.327708930784751606e-01 1.992555698389807672e-01 8.339401536302825102e-01
8.600000000000000000e+01 5.212423015750258237e-01 2.507985320226347459e-01 8.700720583804611996e-01
8.700000000000000000e+01 4.652828717193415176e-01 2.313945202799861378e-01 8.522716931306205668e-01
8.800000000000000000e+01 4.612170338108693701e-01 2.017462645717595371e-01 7.788729086979773175e-01
8.900000000000000000e+01 3.953712156096289010e-01 1.921637708566510394e-01 7.133150366864616787e-01
9.000000000000000000e+01 3.989901254790046425e-01 2.048000907385296165e-01 7.166277837667227590e-01
9.100000000000000000e+01 4.060049185117490245e-01 1.981091062321912732e-01 7.082340793210121221e-01
9.200000000000000000e+01 4.082918332327855615e-01 1.861511403155653721e-01 7.646983211222001531e-01
9.300000000000000000e+01 4.097085847740881137e-01 1.966594661795962318e-01 7.774511543173228123e-01
9.400000000000000000e+01 4.191627377842616631e-01 1.875280083992989788e-01 7.390337603403427380e-01
9.500000000000000000e+01 3.965157488226481175e-01 1.758375986447716643e-01 6.990366296797742018e-01
9.600000000000000000e+01 3.985024649606359604e-01 2.130441878347501539e-01 6.062920069606353435e-01
9.700000000000000000e+01 3.383848186757547616e-01 1.770878210437859257e-01 6.595685909245867506e-01
9.800000000000000000e+01 4.260317013900996042e-01 2.148647224219458196e-01 7.032394090318222490e-01
9.900000000000000000e+01 3.592091397411116827e-01 1.841602503567277005e-01 6.240931654052266353e-01
1.000000000000000000e+02 3.454689278528628171e-01 2.052329207199369288e-01 5.237829546042269691e-01
1.000320102432778526e+02 2.959546985433229027e-01 1.317220668618793167e-01 5.902267604293787162e-01
1.100352112676056322e+02 2.420288582974199632e-01 1.136095598057032530e-01 5.073294562974323130e-01
1.200384122919334118e+02 2.238970290489905868e-01 1.065050873591004976e-01 4.310010630339646265e-01
1.300416133162611914e+02 1.958962393926052536e-01 9.247783057832408005e-02 3.888616820884058800e-01
1.400448143405889994e+02 1.783066565028612604e-01 8.667491155209208764e-02 3.251465483794526712e-01
1.500480153649167789e+02 1.611164315970952388e-01 7.826305264529298533e-02 2.954116068379588622e-01
1.600512163892445585e+02 1.345304896093270364e-01 6.261958945955264921e-02 2.564289751119847582e-01
1.700544174135723381e+02 1.140357697456839542e-01 5.377825430307661692e-02 2.209673652517809284e-01
1.800576184379001177e+02 1.046954667131402977e-01 4.495093751788514086e-02 1.996779550853949314e-01
1.900608194622279257e+02 8.211092725778930401e-02 3.741652619079065267e-02 1.753705005977105880e-01
2.000640204865557052e+02 7.724945788377672595e-02 3.470135958489172640e-02 1.508909346599686396e-01
2.100672215108834848e+02 6.965255931751934693e-02 3.188900891568190871e-02 1.396441535133752521e-01
2.200704225352112644e+02 6.219991354722078508e-02 3.093825704005831456e-02 1.275492668020871134e-01
2.300736235595390440e+02 6.399839912365229422e-02 3.119133867067935134e-02 1.242637411807024361e-01
2.400768245838668236e+02 6.434955173157126673e-02 3.187837846651950247e-02 1.170140728651365147e-01
2.500800256081946316e+02 5.586017194989853496e-02 2.722999365355321597e-02 1.035739941534952330e-01
2.600832266325223827e+02 4.713263231686137117e-02 2.192989539482455286e-02 8.956720208654420090e-02
2.700864276568502191e+02 4.069536676834499545e-02 1.861393546636565949e-02 7.518398665561529248e-02
2.800896286811779987e+02 4.094788970976234038e-02 2.015853001286338486e-02 7.108291853829851181e-02
2.900928297055057783e+02 3.971885378240742198e-02 1.880637248494029107e-02 7.113146252607849274e-02
3.000960307298335579e+02 3.498351037240508138e-02 1.659091978473473464e-02 6.183849244609931212e-02
3.100992317541613374e+02 3.317481579502426503e-02 1.589042007258904127e-02 5.587395306925669464e-02
3.201024327784891170e+02 3.194100114964587567e-02 1.537819899206006868e-02 5.329132282257852821e-02
3.301056338028168966e+02 3.287099631355695772e-02 1.747674484886003327e-02 5.301692661267543710e-02
3.401088348271446762e+02 3.515041115251160697e-02 1.699279300275998925e-02 5.762345254773210829e-02
3.501120358514724558e+02 3.595838013209986389e-02 1.830835222325046668e-02 5.984575274160695152e-02
3.601152368758002353e+02 4.020032070501920740e-02 1.970848308493870771e-02 6.473999212353151456e-02
3.701184379001280149e+02 4.284208180182703246e-02 2.125173615135065100e-02 7.181838614258446996e-02
3.801216389244558513e+02 6.001869695653527098e-02 2.799608691426836923e-02 9.676239057620511508e-02
3.901248399487836309e+02 7.360514005926092895e-02 3.575100839842462047e-02 1.201997061996366023e-01
4.001280409731114105e+02 6.665361909190320455e-02 3.379987184287420315e-02 1.076436139501163458e-01
4.101312419974391901e+02 5.251527845144991075e-02 2.597707297781083960e-02 7.989813373616480585e-02
4.201344430217669697e+02 4.508180770146424932e-02 2.255143319136047875e-02 7.540685569224650497e-02
4.301376440460947492e+02 3.750949822961307384e-02 1.907245945116731872e-02 6.041159419588756213e-02
4.401408450704225288e+02 3.178719117266030902e-02 1.607035125206570866e-02 5.281242698621144149e-02
4.501440460947503084e+02 3.098984687019092077e-02 1.475820967190657682e-02 5.089597587710283783e-02
4.601472471190780880e+02 2.897395104635518831e-02 1.364231399067052791e-02 4.707028968842213307e-02
4.701504481434058675e+02 2.941163591833828583e-02 1.491749097156847698e-02 4.917180894334064606e-02
4.801536491677336471e+02 3.301096358303062112e-02 1.676937601972444333e-02 5.375906044965574754e-02
4.901568501920614835e+02 2.992876496853335427e-02 1.559813851768736964e-02 5.068549516598629817e-02
5.001600512163892631e+02 2.665190234478533732e-02 1.337460845139135969e-02 4.464554823809882556e-02
5.101632522407170427e+02 2.611049799162638851e-02 1.333356398517257513e-02 4.264867597540507316e-02
5.201664532650447654e+02 2.803624897586561721e-02 1.330998563278682281e-02 4.711437574701888426e-02
5.301696542893726019e+02 3.288733646281015444e-02 1.564887661437570562e-02 5.585935101096878297e-02
5.401728553137004383e+02 3.412743840035682708e-02 1.776335207671898841e-02 5.669775228766572861e-02
5.501760563380281610e+02 3.396779599510665881e-02 1.732866103749692438e-02 5.402169369909140539e-02
5.601792573623559974e+02 3.334431913392850444e-02 1.655547293294624620e-02 5.484215536707064131e-02
5.701824583866837202e+02 3.655402928036309562e-02 1.788735051376365640e-02 6.026970668331160103e-02
5.801856594110115566e+02 3.715992490787011632e-02 1.866579114410638410e-02 6.331105861414999814e-02
5.901888604353392793e+02 3.421277416503863689e-02 1.702009395117333457e-02 5.690091494545315015e-02
6.001920614596671157e+02 3.249162903730589552e-02 1.640174877078524884e-02 5.521128875665219649e-02
6.101952624839948385e+02 3.085218834093475873e-02 1.539886055130239122e-02 5.222430042942913936e-02
6.201984635083226749e+02 6.273112941901441697e-02 3.214862817821614871e-02 1.060449579383804380e-01
6.302016645326503976e+02 2.396439818575912817e-01 1.139037724343673202e-01 4.103589055455715284e-01
6.402048655569782341e+02 2.515390701388539041e-01 1.129893904441068436e-01 4.093462118384367798e-01
6.502080665813060705e+02 1.441712009737816658e-01 7.489435639173042114e-02 2.416575288254727005e-01
6.602112676056337932e+02 1.456845803146916418e-01 7.059598623141409568e-02 2.395764574047242745e-01
6.702144686299616296e+02 1.032478663118260587e-01 5.322291920464562731e-02 1.712445782694764496e-01
6.802176696542893524e+02 9.702057739856058405e-02 4.740040309563881699e-02 1.597875173451462905e-01
6.902208706786171888e+02 9.203549649759409923e-02 4.834412024728450968e-02 1.474413834322015893e-01
7.002240717029449115e+02 6.740964202264676519e-02 3.326809944624872784e-02 1.118756213617047718e-01
7.102272727272727479e+02 4.765582281425120165e-02 2.274956962194108270e-02 7.869462119258616162e-02
7.202304737516004707e+02 6.626592775371958899e-02 3.243654429615615287e-02 1.085723104603283917e-01
7.302336747759283071e+02 5.209291717060995225e-02 2.647959609033129214e-02 8.748681453233983496e-02
7.402368758002560298e+02 2.968331788642477806e-02 1.409049826633314989e-02 4.976983303934076619e-02
7.502400768245838663e+02 3.098429980699919997e-02 1.479415642448577393e-02 5.361438911944423763e-02
7.602432778489117027e+02 3.474093132042368332e-02 1.718371415892620130e-02 5.867315275244672917e-02
7.702464788732394254e+02 3.842130879801463478e-02 1.889675946774620890e-02 6.347524883372132609e-02
7.802496798975672618e+02 5.559217277615590563e-02 2.827271893057914029e-02 9.057362963169690584e-02
7.902528809218949846e+02 1.323394798189909960e-01 6.703718833783736675e-02 2.120350715893354610e-01
8.002560819462228210e+02 2.591059461642702400e-01 1.319878024478856327e-01 4.117185428287853943e-01
8.102592829705505437e+02 2.074797493307783958e-01 1.080315860473522876e-01 3.276201968213519611e-01
8.202624839948783801e+02 1.047091896062393584e-01 5.342598433575401762e-02 1.678746017621166042e-01
8.302656850192061029e+02 1.359578561306181432e-01 6.973717705751485141e-02 2.203095946550638340e-01
8.402688860435339393e+02 3.511173122277693182e-01 2.065086082854973581e-01 4.876559689034871692e-01
8.502720870678616620e+02 3.471747284990738258e-01 1.920136384162039189e-01 5.117282454884471976e-01
8.602752880921894985e+02 2.219408016913862192e-01 1.113108882405730998e-01 3.642108138585887778e-01
8.702784891165173349e+02 1.735166844869112657e-01 8.981186587745070005e-02 2.885734614084504712e-01
8.802816901408450576e+02 1.129503241240286254e-01 5.579809993499742354e-02 1.797703904367121408e-01
8.902848911651728940e+02 7.358916465723894240e-02 3.531535700045474596e-02 1.217247185060211789e-01
9.002880921895006168e+02 6.601732397117850148e-02 3.376660409914893080e-02 1.109617001276658466e-01
9.102912932138284532e+02 9.144599342910564310e-02 4.425414315067721649e-02 1.492593012524871809e-01
9.202944942381561759e+02 9.123040005679471098e-02 4.730836131709348358e-02 1.434406663427541806e-01
9.302976952624840123e+02 6.722343336603019137e-02 3.423504919151389159e-02 1.099402936267758063e-01
9.403008962868117351e+02 5.906823634318161820e-02 2.963143803107579424e-02 9.609288335900767475e-02
9.503040973111395715e+02 5.645624084756972055e-02 2.797994988618413351e-02 9.213003111602779960e-02
9.603072983354672942e+02 5.277072712599113757e-02 2.594306940498295605e-02 8.754916820016861445e-02
9.703104993597951307e+02 5.847470545270781750e-02 3.021985838045586001e-02 9.764656588693414185e-02
9.803137003841229671e+02 7.181132840626515412e-02 3.488665037913200179e-02 1.210781160608380008e-01
9.903169014084506898e+02 9.079074113760930709e-02 4.539224769807647525e-02 1.527082122623158733e-01
1.000320102432778526e+03 1.360222004835218157e-01 6.520987504468453433e-02 2.281702906925098806e-01
1.010323303457106249e+03 1.376666480774681178e-01 6.711188290934970435e-02 2.253908589478573476e-01
1.020326504481434085e+03 1.380913536659274521e-01 6.530761815643047752e-02 2.327504689732034504e-01
1.030329705505761922e+03 1.943387150074311343e-01 9.483035205360527964e-02 3.268468608706854295e-01
1.040332906530089531e+03 2.100105986872472796e-01 1.062716472860600891e-01 3.505968018958918742e-01
1.050336107554417367e+03 1.803060981213671365e-01 9.343358612253480078e-02 2.997890189723365073e-01
1.060339308578745204e+03 1.126194551928347415e-01 5.650207685332939850e-02 1.782712707761924253e-01
1.070342509603073040e+03 7.018186657073227641e-02 3.370049707176032971e-02 1.141906875414927247e-01
1.080345710627400877e+03 6.435725366178622620e-02 3.024987936347266204e-02 1.076824035840338312e-01
1.090348911651728486e+03 6.468099783094839739e-02 3.170084285357368387e-02 1.079828246625138960e-01
1.100352112676056322e+03 6.065813176121379047e-02 3.181743121858917472e-02 1.052112887655757972e-01
1.110355313700384158e+03 5.898139884859956300e-02 2.815443865853796759e-02 1.001677529331923971e-01
1.120358514724711995e+03 6.280721201529342046e-02 2.953781717780877905e-02 1.067333003739576736e-01
1.130361715749039604e+03 6.368196414129176364e-02 3.247839890482576847e-02 1.070131408235091980e-01
1.140364916773367440e+03 7.773487389817639037e-02 4.179742035899361441e-02 1.262403253158405625e-01
1.150368117797695277e+03 1.127076057128726799e-01 5.662065900915657507e-02 1.833125190687843187e-01
1.160371318822023113e+03 1.508435457697207271e-01 7.260113144372228045e-02 2.420784282574287571e-01
1.170374519846350722e+03 1.339464435831609901e-01 6.813794658823474348e-02 2.211558989914176876e-01
1.180377720870678559e+03 9.835167874339979799e-02 4.786794547531988964e-02 1.655166805429551802e-01
1.190380921895006395e+03 7.455988126433869823e-02 3.859326558566349152e-02 1.245053073552035983e-01
1.200384122919334231e+03 6.264815932028659773e-02 2.899540229110358913e-02 1.068024018502092137e-01
1.210387323943662068e+03 5.718890865586854361e-02 2.793402850925395461e-02 9.913788749464881589e-02
1.220390524967989677e+03 5.885562101929121825e-02 2.799383619806960349e-02 1.022333154999733873e-01
1.230393725992317513e+03 5.931713321878193113e-02 2.867136708543268145e-02 9.885443527395286478e-02
1.240396927016645350e+03 6.055457279851987618e-02 2.830946443514281707e-02 1.039439008372528284e-01
1.250400128040973186e+03 6.651738656370563552e-02 3.320529579335530085e-02 1.141089236985361466e-01
1.260403329065300795e+03 7.310957608336522695e-02 3.781109614697377580e-02 1.212644786022713944e-01
1.270406530089628632e+03 1.376944489605836652e-01 8.099182882668674865e-02 1.929330640672207442e-01
1.280409731113956468e+03 1.304381098407211004e-01 7.304052908376350295e-02 1.937704586800944873e-01
1.290412932138284305e+03 8.343917272608838975e-02 4.204768131928799529e-02 1.386557718978824738e-01
1.300416133162612141e+03 8.065864733331168379e-02 3.907741758676887278e-02 1.354527719913937167e-01
1.310419334186939750e+03 8.665810642814684994e-02 4.651797294029464541e-02 1.397319807451089524e-01
1.320422535211267586e+03 7.620056970666153062e-02 3.869119264310253575e-02 1.253598643311279182e-01
1.330425736235595423e+03 6.383339333755862210e-02 3.115184473198729515e-02 1.060417372099638350e-01
1.340428937259923259e+03 5.795812510944177431e-02 2.854293918288708029e-02 1.006250391574601000e-01
1.350432138284250868e+03 5.611589385255519313e-02 2.735607201232041416e-02 9.620591487244649354e-02
1.360435339308578705e+03 5.957101555628523809e-02 3.022203835309069872e-02 9.884113259375514049e-02
1.370438540332906541e+03 6.159867566183739596e-02 3.056688543948253220e-02 1.065400065618226644e-01
1.380441741357234378e+03 6.491684054863938735e-02 3.243068135594987661e-02 1.143555986701401544e-01
1.390444942381562214e+03 6.385454935282543210e-02 3.292094896676477089e-02 1.104641446710637603e-01
1.400448143405889823e+03 6.291045453290632083e-02 3.072115175860955574e-02 1.149391552549499929e-01
1.410451344430217659e+03 6.380901042668367384e-02 3.292592739183669570e-02 1.083933370331926771e-01
1.420454545454545496e+03 6.098701006928875651e-02 3.086275090566015927e-02 1.055286368845188838e-01
1.430457746478873332e+03 6.123028667001988862e-02 3.092731252666622646e-02 1.106365076853110807e-01
1.440460947503200941e+03 6.472008601279821693e-02 3.041974649049477772e-02 1.183839681029578567e-01
1.450464148527528778e+03 6.435015234722774036e-02 3.298511221963931761e-02 1.166473724769579168e-01
1.460467349551856614e+03 7.281761463282737656e-02 3.540930114965220449e-02 1.226509333138072200e-01
1.470470550576184451e+03 7.721755865978879863e-02 3.827568712808276929e-02 1.344187092278880391e-01
1.480473751600512060e+03 8.327736253078998896e-02 4.062013819414785065e-02 1.397126206595841469e-01
1.490476952624839896e+03 8.745328981396945089e-02 4.494461174848900231e-02 1.470577410919314265e-01
1.500480153649167733e+03 8.985026623226900766e-02 4.571239599738901455e-02 1.473793987665762972e-01
1.510483354673495569e+03 8.772337003569490033e-02 4.153528237085900993e-02 1.478445703899486374e-01
1.520486555697823405e+03 8.430135268100100165e-02 4.043495430505817528e-02 1.391849214032662430e-01
1.530489756722151014e+03 8.722032853125682994e-02 4.285284807061542911e-02 1.484383933695227475e-01
1.540492957746478851e+03 8.394186326862294878e-02 4.114927008201602759e-02 1.435308378365111603e-01
1.550496158770806687e+03 8.124530172371641212e-02 3.904278341599808078e-02 1.433572972176675731e-01
1.560499359795134524e+03 8.527580947407080447e-02 4.212410449080356695e-02 1.423522241526334053e-01
1.570502560819462133e+03 7.638831073101265412e-02 3.759089217182574882e-02 1.312308065342798202e-01
1.580505761843789969e+03 7.009879719964082212e-02 3.333997191748282879e-02 1.250025066140247332e-01
1.590508962868117806e+03 6.714925853816731960e-02 3.237134330656492309e-02 1.246075130146881288e-01
1.600512163892445642e+03 6.415203769408785173e-02 2.988242558441378885e-02 1.232622980732889922e-01
1.610515364916773478e+03 6.274588801715394459e-02 3.150524946462611442e-02 1.198548949883962572e-01
1.620518565941101087e+03 6.271594884735595676e-02 2.918320507280335735e-02 1.167443107241451922e-01
1.630521766965428924e+03 6.234755774881362705e-02 2.781707022478547078e-02 1.140036797696840076e-01
1.640524967989756760e+03 6.141758469381269209e-02 2.745888201431460895e-02 1.159305374318459203e-01
1.650528169014084597e+03 6.189296336813417815e-02 2.967250634934655296e-02 1.175905687903775337e-01
1.660531370038412206e+03 6.237619521892366625e-02 2.862854368203710323e-02 1.187344149328686260e-01
1.670534571062740042e+03 6.152648732413066451e-02 2.967833701210939243e-02 1.195259880693314430e-01
1.680537772087067879e+03 6.193437903190576743e-02 2.938880248313334789e-02 1.175840373511942427e-01
1.690540973111395715e+03 6.420202823286631777e-02 3.050718869651294213e-02 1.195801080112385978e-01
1.700544174135723324e+03 6.398151600919700643e-02 2.940137549125319480e-02 1.235477626237746346e-01
1.710547375160051160e+03 6.413803537696015356e-02 3.117161531529292345e-02 1.235189321945938529e-01
1.720550576184378997e+03 6.372901446401357806e-02 3.247832657307734433e-02 1.210627652813234256e-01
1.730553777208706833e+03 6.597850928652354563e-02 3.175982555848390343e-02 1.251227273866807321e-01
1.740556978233034670e+03 6.612886017745925327e-02 3.383748189928566241e-02 1.179989167907068565e-01
1.750560179257362279e+03 6.602998069430607297e-02 3.087687491722220304e-02 1.227745485071975312e-01
1.760563380281690115e+03 6.264799831898436311e-02 3.020602594132988303e-02 1.208805244136039181e-01
1.770566581306017952e+03 6.206040032495735437e-02 2.961082903844231354e-02 1.209312089836130921e-01
1.780569782330345788e+03 6.720013168066578391e-02 3.131904914183094440e-02 1.195037532728603774e-01
1.790572983354673397e+03 6.665857276962597333e-02 3.132879517616276449e-02 1.243016930408012144e-01
1.800576184379001234e+03 6.600045470359727773e-02 3.076026078860586918e-02 1.211496292681797787e-01
1.810579385403329070e+03 6.575515526796019139e-02 3.003991828216341295e-02 1.254393542637542436e-01
1.820582586427656906e+03 6.585965852207735505e-02 3.260000786985284282e-02 1.279373965282648018e-01
1.830585787451984743e+03 6.679168012173966607e-02 3.215538900554695129e-02 1.287525187261962800e-01
1.840588988476312352e+03 6.789168162123836170e-02 3.215033018495538908e-02 1.319429042109249439e-01
1.850592189500640188e+03 6.806609380485684202e-02 3.136775986838793301e-02 1.322260457772556075e-01
1.860595390524968025e+03 7.030775531892333174e-02 3.321464450044071121e-02 1.346443589901298310e-01
1.870598591549295861e+03 7.623693617286333990e-02 3.321831542354743150e-02 1.388123679790149445e-01
1.880601792573623470e+03 7.023231126327661444e-02 3.042049993634329472e-02 1.317708269809485522e-01
1.890604993597951307e+03 7.025201082861153024e-02 3.498862202427220625e-02 1.387040735436688710e-01
1.900608194622279143e+03 6.998004442538494074e-02 3.345596060632589908e-02 1.375160393895287214e-01
1.910611395646606979e+03 7.230046203528084359e-02 3.541817997841684856e-02 1.356663259307935576e-01
1.920614596670934588e+03 7.298298651623777444e-02 3.637734160857702265e-02 1.386542558537739445e-01
1.930617797695262425e+03 7.168476306060377057e-02 3.382390795031593733e-02 1.375938623605522104e-01
1.940620998719590261e+03 7.009042539794035909e-02 3.081977250351615114e-02 1.353205122741180655e-01
1.950624199743918098e+03 7.055280098927228793e-02 3.526146100838137287e-02 1.393126236176537025e-01
1.960627400768245934e+03 7.468055385760190290e-02 3.293487045858041473e-02 1.414947275556470152e-01
1.970630601792573543e+03 7.269706257227270818e-02 3.374151948596711831e-02 1.346185439197801204e-01
1.980633802816901380e+03 7.385052326028217207e-02 3.263960224747131100e-02 1.374010091415827084e-01
1.990637003841229216e+03 7.464299044398296779e-02 3.554697471914211593e-02 1.391797680742657140e-01
2.000640204865557052e+03 7.499151206602518160e-02 3.531293742875963454e-02 1.387427848225435689e-01
2.010643405889884662e+03 7.124538570126642822e-02 3.386363756338381381e-02 1.440607040047983955e-01
2.020646606914212498e+03 7.150831978772571873e-02 3.403720455266457529e-02 1.400396939847971534e-01
2.030649807938540334e+03 7.435839376784002253e-02 3.427987782442992737e-02 1.431122718588399012e-01
2.040653008962868171e+03 7.415424191802076626e-02 3.461689845356254180e-02 1.386036347739368346e-01
2.050656209987195780e+03 7.403434657440280398e-02 3.588483070485146836e-02 1.432770912118846718e-01
2.060659411011523844e+03 7.786397220002536090e-02 3.686005375425753516e-02 1.461944698663262820e-01
2.070662612035851453e+03 7.535045444791543812e-02 3.372065437673282123e-02 1.422319260107399730e-01
2.080665813060179062e+03 7.619344729608730493e-02 3.613900076279170231e-02 1.478559752620705603e-01
2.090669014084507126e+03 7.751682706701096270e-02 3.305589691654434864e-02 1.499088586020816405e-01
2.100672215108834735e+03 7.742821850340930734e-02 3.411218511018559996e-02 1.500924446470119356e-01
2.110675416133162798e+03 7.621576922212799921e-02 3.679509294818846671e-02 1.469242618421862101e-01
2.120678617157490407e+03 7.682569504573433239e-02 3.592209200142277431e-02 1.424527421859626830e-01
2.130681818181818016e+03 7.870054899095166312e-02 3.679127177360599910e-02 1.535979309021126560e-01
2.140685019206146080e+03 8.089505248989775632e-02 3.712253278310204824e-02 1.557276190245086567e-01
2.150688220230473689e+03 7.818784557557413584e-02 3.478971036273306033e-02 1.559102392308146512e-01
2.160691421254801753e+03 8.112625240556037287e-02 3.769973272265425557e-02 1.504548980352429510e-01
2.170694622279129362e+03 7.785099507655626749e-02 3.679243692165012208e-02 1.481712781253891331e-01
2.180697823303456971e+03 8.074113166180137136e-02 3.666633501078612328e-02 1.542609278154005448e-01
2.190701024327785035e+03 8.128877326454742036e-02 3.874887652565046220e-02 1.571767113973207008e-01
2.200704225352112644e+03 8.103358212525435533e-02 3.630310066208938119e-02 1.531292620394502091e-01
2.210707426376440253e+03 7.886513392564156733e-02 3.527746311474461854e-02 1.600752099360248371e-01
2.220710627400768317e+03 7.910457318513319791e-02 3.404270372327628663e-02 1.571897171794393866e-01
2.230713828425095926e+03 8.083743053823919111e-02 3.678166020712708012e-02 1.488787012146149391e-01
2.240717029449423990e+03 8.318928504588080086e-02 3.834336051185376071e-02 1.554433352038259164e-01
2.250720230473751599e+03 8.155894955716487538e-02 3.739508765649552507e-02 1.591732097802933676e-01
2.260723431498079208e+03 7.950480040611618282e-02 3.629311749584894498e-02 1.572622692358968677e-01
2.270726632522407272e+03 8.025403842887360306e-02 3.563779688368585302e-02 1.616841969911523014e-01
2.280729833546734881e+03 8.071147761989369562e-02 3.598870242706019018e-02 1.608803475194051924e-01
2.290733034571062944e+03 8.258214432686475370e-02 3.817066539446180296e-02 1.585217047213356989e-01
2.300736235595390553e+03 8.054161667943941783e-02 3.539162751145941838e-02 1.605385262655195378e-01
2.310739436619718163e+03 8.072111291804827393e-02 3.620026630274365831e-02 1.587420593206284869e-01
2.320742637644046226e+03 8.477693018604146036e-02 3.666311102946650385e-02 1.617175235858246130e-01
2.330745838668373835e+03 8.307915521108616419e-02 3.707980927234344470e-02 1.593959812471639759e-01
2.340749039692701444e+03 8.453628043192251695e-02 3.758682298953314183e-02 1.574470636161794668e-01
2.350752240717029508e+03 8.201720379260707405e-02 3.791182077455934607e-02 1.592686434519627880e-01
2.360755441741357117e+03 8.359506255077162051e-02 3.782978877019045616e-02 1.623539058944789837e-01
2.370758642765685181e+03 8.600927861963424126e-02 3.858467311911766007e-02 1.647946927326293387e-01
2.380761843790012790e+03 8.219338893227823295e-02 3.928853561066900091e-02 1.625114647928465605e-01
2.390765044814340399e+03 8.129550720248544804e-02 3.614750942746820794e-02 1.659825625184216669e-01
2.400768245838668463e+03 8.346249155247410789e-02 3.637439703213769110e-02 1.667779562963241646e-01
2.410771446862996072e+03 8.340961330952589847e-02 3.750992604738445646e-02 1.694750227764389439e-01
2.420774647887324136e+03 8.268280217619580763e-02 3.641788564833820657e-02 1.662482693780701903e-01
2.430777848911651745e+03 8.186362580730932592e-02 3.807523675712599226e-02 1.695859294161417286e-01
2.440781049935979354e+03 8.791709569591681095e-02 3.745395913675236138e-02 1.737447752980857685e-01
2.450784250960307418e+03 8.465283787931311699e-02 3.962343548755557082e-02 1.691544018845821951e-01
2.460787451984635027e+03 8.272072201034955108e-02 3.644562667454696869e-02 1.670352300179401006e-01
2.470790653008963091e+03 8.687508383375948384e-02 3.893811549032714925e-02 1.696786223228768931e-01
2.480793854033290700e+03 8.566711721362274545e-02 3.687545892848217294e-02 1.658009715662458194e-01
2.490797055057618309e+03 8.691798247958644474e-02 3.696562301043423981e-02 1.762991290942524936e-01
2.500800256081946372e+03 8.854498827865256438e-02 3.850452455119285355e-02 1.764501393841007015e-01
2.510803457106273981e+03 8.867701733118305008e-02 3.982797786570705517e-02 1.801348965692841364e-01
2.520806658130601591e+03 8.599458261183723362e-02 3.848151651106716808e-02 1.846035563508580946e-01
2.530809859154929654e+03 8.692022267741035535e-02 3.898109045104178327e-02 1.707435588426368389e-01
2.540813060179257263e+03 8.296852447539307396e-02 4.146201888201924562e-02 1.715114068998573604e-01
2.550816261203585327e+03 8.641304158321222451e-02 3.977958431467241984e-02 1.774706203901991186e-01
2.560819462227912936e+03 8.624066412655176372e-02 3.634368762575321959e-02 1.728383245965061654e-01
2.570822663252240545e+03 8.471166437133598182e-02 3.883928689274948609e-02 1.740345751277808661e-01
2.580825864276568609e+03 8.520074297192642421e-02 3.799114753806163980e-02 1.795151276828404474e-01
2.590829065300896218e+03 9.069993936582829153e-02 3.976900509523181165e-02 1.850162849175428781e-01
2.600832266325224282e+03 9.025841041464574555e-02 3.931677599785902283e-02 1.851760499054287967e-01
2.610835467349551891e+03 8.902289755013798045e-02 3.675095492700158895e-02 1.906817240194166041e-01
2.620838668373879500e+03 8.593897198239236479e-02 4.032069011852692370e-02 1.849963425003731676e-01
2.630841869398207564e+03 8.480598512970186076e-02 4.043387371441549416e-02 1.843830308084906666e-01
2.640845070422535173e+03 9.008777779055511525e-02 3.812953075614988058e-02 1.790436633930609367e-01
2.650848271446862782e+03 8.759041457782117124e-02 3.943459412416865095e-02 1.797772116763081407e-01
2.660851472471190846e+03 8.813190438408317895e-02 4.018915745096506703e-02 1.845294181355734420e-01
2.670854673495518455e+03 9.003335743593009199e-02 3.875393689388435814e-02 1.820753743789872703e-01
2.680857874519846519e+03 9.100743845507576479e-02 4.004439942822117515e-02 1.866233042576679602e-01
2.690861075544174128e+03 9.140875691604993802e-02 4.004911981197629978e-02 1.931467760302596759e-01
2.700864276568501737e+03 9.199452745091492301e-02 4.129391372901027035e-02 1.832203289302130611e-01
2.710867477592829800e+03 8.861190010080542689e-02 3.958194890249182307e-02 1.779189292324704352e-01
2.720870678617157409e+03 8.824723363908665297e-02 3.909280379717672282e-02 1.794077192046566183e-01
2.730873879641485473e+03 8.880626015921185001e-02 4.439990441078308508e-02 1.893181250731734711e-01
2.740877080665813082e+03 9.301183706827716169e-02 3.939599761170977515e-02 1.887718254311681054e-01
2.750880281690140691e+03 9.151497608661293692e-02 4.110315323310164554e-02 1.928944057062720041e-01
2.760883482714468755e+03 9.539794622288474968e-02 4.281681980592295933e-02 1.900863458072385992e-01
2.770886683738796364e+03 9.003821644865642182e-02 4.102069957290786772e-02 1.878019656299831364e-01
2.780889884763124428e+03 9.099390074272058204e-02 4.286847692991907488e-02 1.907818607246944131e-01
2.790893085787452037e+03 8.968612401712582061e-02 3.920489027032875162e-02 2.016950091641483700e-01
2.800896286811779646e+03 9.175686597620032192e-02 4.336150333393971185e-02 1.985113758816210994e-01
2.810899487836107710e+03 9.120233368788584205e-02 4.132392352211595316e-02 1.990639042115455448e-01
2.820902688860435319e+03 8.960692525259156271e-02 3.886662552325018116e-02 1.883196635495224813e-01
2.830905889884762928e+03 8.998241828821550159e-02 3.965029005777013366e-02 1.978212376560050945e-01
2.840909090909090992e+03 8.800127536701474185e-02 3.925695511838393076e-02 1.949317162375356904e-01
2.850912291933418601e+03 8.771101145011472866e-02 3.742000738272757698e-02 1.965171839789224828e-01
2.860915492957746665e+03 8.820374813673323433e-02 3.905339354980832955e-02 1.919249140054843650e-01
2.870918693982074274e+03 8.600310243050524051e-02 3.847542586775567347e-02 1.933195410920525437e-01
2.880921895006401883e+03 9.119355797541638109e-02 4.045228817508156327e-02 1.904000847991016709e-01
2.890925096030729947e+03 8.998157975945542120e-02 4.083580560805286086e-02 1.907879880123856398e-01
2.900928297055057556e+03 8.769485268757083729e-02 3.701935689954332503e-02 1.953755874229387290e-01
2.910931498079385619e+03 8.541934067134292208e-02 3.670729786742911449e-02 1.939971398479690690e-01
2.920934699103713228e+03 8.649724349703082071e-02 3.841425776251227581e-02 1.963533518864109817e-01
2.930937900128040837e+03 9.282654598042729133e-02 3.957867181677539314e-02 1.907048848598079660e-01
2.940941101152368901e+03 8.727308095833698209e-02 4.170966395668072868e-02 1.854792600259381474e-01
2.950944302176696510e+03 8.355658962296963477e-02 3.700061995848944602e-02 1.953688103109787466e-01
2.960947503201024119e+03 8.597685464194453064e-02 3.664933070400309967e-02 1.941346877509799729e-01
2.970950704225352183e+03 8.865361050374426233e-02 3.641575429744548648e-02 1.867066500732086909e-01
2.980953905249679792e+03 8.614320991309777631e-02 3.789503470558144155e-02 1.821352697839771495e-01
2.990957106274007856e+03 8.595711242326288526e-02 3.956186650968244317e-02 1.858667063613290982e-01
3.000960307298335465e+03 8.776457365186063342e-02 3.903616249910743519e-02 1.892635905104774474e-01
3.010963508322663074e+03 8.920969822903812574e-02 3.797897295865187289e-02 1.869129577747917215e-01
3.020966709346991138e+03 8.723546510255997255e-02 3.855140080494801058e-02 1.882730320208516606e-01
3.030969910371318747e+03 8.873278506748244476e-02 4.188576720856430208e-02 1.911679311876862686e-01
3.040973111395646811e+03 8.939614152785638201e-02 4.029400106357376721e-02 1.866666542316052779e-01
3.050976312419974420e+03 8.620719176985179588e-02 3.881643799542736084e-02 1.880759923529214395e-01
3.060979513444302029e+03 8.342850611449370568e-02 3.786718551031406643e-02 1.840253454308206915e-01
3.070982714468630093e+03 8.544581602945525156e-02 3.757389624376440002e-02 1.869444969876966345e-01
3.080985915492957702e+03 8.535779451359472303e-02 4.071048813742798173e-02 1.937613892792804104e-01
3.090989116517285311e+03 8.704207823795273580e-02 4.138786764613096303e-02 1.934682122497421164e-01
3.100992317541613374e+03 8.527394125704991501e-02 3.560421503400336418e-02 1.915498630466667962e-01
3.110995518565940984e+03 8.565564405876854859e-02 3.748594479950743269e-02 1.865282074437585591e-01
3.120998719590269047e+03 8.494619983572246347e-02 3.968349223054602054e-02 1.787562005054113279e-01
3.131001920614596656e+03 8.265858147426929925e-02 3.607370584140057873e-02 1.816182468751371404e-01
3.141005121638924265e+03 8.552430993433118855e-02 3.986966959195926280e-02 1.809595013472053149e-01
3.151008322663252329e+03 8.431659009947997663e-02 3.819039730774882735e-02 1.822891509745806493e-01
3.161011523687579938e+03 8.217027331419414493e-02 3.800567007147229864e-02 1.861370081109253727e-01
3.171014724711908002e+03 8.638152201858272095e-02 3.886091273176539573e-02 1.907055669231754735e-01
3.181017925736235611e+03 8.436729647464925874e-02 3.748482625141674740e-02 1.945870077381713359e-01
3.191021126760563220e+03 8.818685497902352399e-02 4.067198730902790021e-02 1.941878548414011363e-01
3.201024327784891284e+03 8.918531243229746441e-02 3.937777938836693747e-02 1.953400284041159896e-01
3.211027528809218893e+03 8.666550065244643664e-02 3.722577309406514129e-02 1.860633063528548403e-01
3.221030729833546957e+03 8.924176103734741961e-02 3.891064433580934678e-02 1.851808002699246447e-01
3.231033930857874566e+03 8.832975402057820224e-02 3.783036113021116809e-02 1.955476824317907147e-01
3.241037131882202175e+03 9.041829447951776899e-02 3.705535222546009477e-02 1.954326094607490294e-01
3.251040332906530239e+03 8.957303207256404887e-02 3.806223991410394303e-02 1.974979956946601445e-01
3.261043533930857848e+03 9.008305475299033249e-02 3.900665685833838020e-02 2.023456624810712479e-01
3.271046734955185457e+03 8.714698751962386691e-02 4.140539441303285606e-02 1.960713873748711755e-01
3.281049935979513521e+03 8.660237804459249011e-02 4.083566760232919257e-02 1.966420337845342092e-01
3.291053137003841130e+03 8.644137244414235033e-02 4.055963369294762755e-02 1.942394222959897832e-01
3.301056338028169193e+03 9.130242580504686900e-02 4.139856723663895566e-02 2.029042102000765402e-01
3.311059539052496802e+03 9.511690418681151282e-02 4.219922529381838622e-02 2.007668994892203573e-01
3.321062740076824412e+03 9.748467106426025874e-02 4.742201519091965994e-02 1.891732911764224256e-01
3.331065941101152475e+03 1.001231557170264019e-01 4.456382986122712359e-02 1.942843901040248178e-01
3.341069142125480084e+03 9.938673973372776083e-02 4.569553668521149359e-02 1.990307519972157602e-01
3.351072343149808148e+03 9.824952926903042505e-02 4.508055864443846067e-02 1.980682569722254371e-01
3.361075544174135757e+03 9.608884289062982753e-02 4.231555910544269189e-02 1.992077303701625668e-01
3.371078745198463366e+03 9.317607049862076940e-02 4.246249997144540406e-02 1.900571809341483065e-01
3.381081946222791430e+03 9.375413855277765773e-02 4.034124383929359875e-02 1.898988011889983785e-01
3.391085147247119039e+03 9.129291435601957772e-02 4.019707628757435841e-02 2.028962736289807167e-01
3.401088348271446648e+03 9.018243868412620379e-02 3.976890003215964586e-02 1.958663681663444511e-01
3.411091549295774712e+03 9.269937677638750984e-02 4.045868643440966167e-02 1.917717057385106560e-01
3.421094750320102321e+03 9.104112209022466318e-02 4.060241562187510977e-02 1.916631557840817457e-01
3.431097951344430385e+03 8.952559794993925069e-02 4.045917166657564401e-02 1.900395475083685448e-01
3.441101152368757994e+03 9.253221517563764431e-02 4.004571417765134117e-02 1.914739324822968547e-01
3.451104353393085603e+03 9.394132806518586121e-02 4.314262414005912150e-02 2.017430750192349687e-01
3.461107554417413667e+03 9.517814860434922752e-02 4.299677325048101295e-02 1.992913972877018991e-01
3.471110755441741276e+03 9.548359448493680401e-02 4.406188839644290672e-02 1.907093628823899045e-01
3.481113956466069340e+03 9.414055107314370230e-02 4.172502278268400838e-02 1.941632065650658046e-01
3.491117157490396949e+03 9.131206224895548063e-02 4.072984394728277474e-02 1.921434422798784236e-01
3.501120358514724558e+03 9.685954763032866843e-02 4.385360792238646166e-02 2.007155453707635262e-01
3.511123559539052621e+03 9.865750435845260791e-02 4.366103210631000486e-02 1.972004648370156987e-01
3.521126760563380230e+03 9.298819483321087154e-02 4.196987328257451716e-02 2.000167594990869824e-01
3.531129961587708294e+03 1.007073397728885517e-01 4.671486149279709121e-02 1.985301756213260771e-01
3.541133162612035903e+03 1.024217103315638311e-01 4.694248075356323435e-02 2.000150361547698985e-01
3.551136363636363512e+03 9.963034742960089063e-02 4.525897515565128343e-02 2.051663555219311874e-01
3.561139564660691576e+03 1.012290666500026831e-01 4.500672544494033200e-02 1.981532815107088230e-01
3.571142765685019185e+03 1.055799814873203402e-01 5.017775878276371782e-02 2.039066223993692140e-01
3.581145966709346794e+03 1.090375076381262104e-01 5.025535272070488085e-02 2.142240449450370510e-01
3.591149167733674858e+03 1.034622048884553669e-01 4.781950678745264943e-02 2.015346820084614743e-01
3.601152368758002467e+03 1.011293811603328763e-01 4.674824235698742114e-02 1.904596606379169166e-01
3.611155569782330531e+03 1.001544675452379907e-01 4.681736815531292728e-02 1.987992297544205478e-01
3.621158770806658140e+03 9.669560041754930724e-02 4.640621800328142976e-02 1.975827580239743475e-01
3.631161971830985749e+03 1.007347808414893880e-01 4.752929154677076190e-02 1.963400453704082227e-01
3.641165172855313813e+03 1.009976822517067579e-01 4.612285953018369772e-02 2.010506959397845850e-01
3.651168373879641422e+03 1.002792813048108828e-01 4.139249506234633780e-02 1.992297154790659552e-01
3.661171574903969486e+03 1.010564348008952951e-01 4.338350360296242686e-02 1.999543945169962034e-01
3.671174775928297095e+03 1.008065163350274768e-01 4.696193623726480082e-02 1.997317143169607401e-01
3.681177976952624704e+03 1.000729141741545786e-01 4.577360166249919843e-02 1.883801922502659210e-01
3.691181177976952767e+03 9.274050035829545235e-02 4.351386456184029583e-02 1.905871441412079481e-01
3.701184379001280377e+03 9.825390364116054487e-02 4.196647197275216179e-02 1.924453303884688382e-01
3.711187580025607986e+03 9.620656105455664686e-02 4.178754191178705307e-02 1.848478734746865360e-01
3.721190781049936049e+03 1.945906469713935272e-01 1.243345339882164918e-01 3.044806680357828865e-01
3.731193982074263658e+03 5.997368316314682923e-01 5.198393489228099185e-01 6.911823861960523230e-01
3.741197183098591722e+03 4.816916308128612600e-01 3.866746411098101466e-01 5.741871217171102826e-01
3.751200384122919331e+03 1.128238280880325545e-01 5.481616654429398439e-02 2.031911276638599384e-01
3.761203585147246940e+03 9.718178275379470155e-02 4.332691204909402266e-02 2.000757281253986442e-01
3.771206786171575004e+03 9.125142105145461757e-02 4.122484723604438739e-02 1.984692092074034631e-01
3.781209987195902613e+03 9.490196356399750732e-02 4.251249907331214328e-02 1.829058352669001852e-01
3.791213188220230677e+03 1.021434956873921024e-01 4.613246319247012173e-02 1.941703879289095047e-01
3.801216389244558286e+03 9.840364707879893647e-02 4.453165682354188332e-02 1.917697098185018878e-01
3.811219590268885895e+03 9.620943629810546627e-02 4.279605395864091721e-02 1.909306503510681541e-01
3.821222791293213959e+03 1.029021208863001025e-01 4.700951564376856101e-02 1.965887605518968073e-01
3.831225992317541568e+03 9.803931898998705097e-02 4.502782138585109672e-02 1.880599587425384189e-01
3.841229193341869177e+03 9.395072729552976509e-02 4.453269119220523709e-02 1.923495349080056038e-01
3.851232394366197241e+03 9.557065179688684076e-02 4.243501679815404881e-02 2.034748928932816892e-01
3.861235595390524850e+03 9.808465555042608641e-02 4.471102068469148816e-02 1.942007741028133616e-01
3.871238796414852914e+03 9.498876448633858383e-02 4.489447278034151140e-02 1.854297652717192824e-01
3.881241997439180523e+03 1.007151592710702481e-01 4.434264924581567124e-02 1.954241394573498491e-01
3.891245198463508132e+03 9.755534243881761047e-02 4.372958586558924748e-02 2.084554703563378519e-01
3.901248399487836195e+03 9.843971732304468425e-02 4.192159910675098689e-02 1.954113175951576464e-01
3.911251600512163805e+03 9.683944235196384476e-02 4.482185085944864061e-02 1.963717379992857281e-01
3.921254801536491868e+03 9.695263216511469662e-02 4.420994778883955562e-02 1.852993800119334955e-01
3.931258002560819477e+03 9.484312464244754048e-02 4.474340528374491643e-02 1.875400875222431041e-01
3.941261203585147086e+03 1.001931866179339992e-01 4.304659102126931480e-02 1.873826206814033779e-01
3.951264404609475150e+03 9.903535488824188882e-02 4.413362806800842641e-02 1.899013204574817038e-01
3.961267605633802759e+03 9.601753286237775520e-02 4.418011503746214347e-02 1.848466823268902215e-01
3.971270806658130823e+03 9.624354382983725531e-02 4.169248898102507345e-02 1.847862376768139858e-01
3.981274007682458432e+03 9.804495444013346106e-02 4.300524023441491817e-02 1.862612600277743780e-01
3.991277208706786041e+03 9.762267193717222291e-02 4.459428419231740992e-02 1.821334082630116091e-01
4.001280409731114105e+03 9.862547089888468177e-02 4.440786071215910985e-02 1.833305938720995454e-01
4.011283610755441714e+03 9.666517595568450971e-02 4.447608108897176810e-02 1.876373146218126287e-01
4.021286811779769323e+03 9.628251370671793430e-02 4.355692153399419453e-02 1.806167142957700589e-01
4.031290012804097387e+03 9.491708188326446194e-02 3.993276660219645391e-02 1.826517462970735917e-01
4.041293213828424996e+03 9.637633601382530890e-02 4.599709123709355696e-02 1.890518050634847347e-01
4.051296414852753060e+03 9.825855816407466636e-02 4.241425841812761915e-02 1.897976228421473788e-01
4.061299615877080669e+03 9.326283746958602405e-02 4.509903800915079919e-02 1.866182678813683715e-01
4.071302816901408278e+03 9.820838674456681960e-02 4.368436419389324504e-02 1.833837483363255083e-01
4.081306017925736342e+03 9.912208917986206624e-02 4.375525341340597008e-02 1.890806992026097810e-01
4.091309218950063951e+03 9.462883305980540616e-02 4.340901174643906069e-02 1.910191882672441499e-01
4.101312419974391560e+03 9.876216127771904330e-02 4.454184503190964511e-02 1.812306058716876556e-01
4.111315620998719169e+03 9.809996577867317880e-02 4.264420258117589124e-02 1.861197995215154166e-01
4.121318822023047687e+03 9.886945005538572140e-02 4.291310080849917996e-02 1.843119361818496837e-01
4.131322023047375296e+03 9.968927499912673407e-02 4.558327614050863147e-02 1.817306175133014678e-01
4.141325224071702905e+03 1.013860515016551805e-01 4.820088673784869715e-02 1.752585903090266850e-01
4.151328425096030514e+03 9.941890231147179624e-02 4.351164715111748710e-02 1.830887819847138165e-01
4.161331626120358123e+03 9.561725303983592550e-02 4.539858095652868353e-02 1.849127974768375593e-01
4.171334827144686642e+03 1.012799070531697349e-01 4.617161496407920507e-02 1.825496326609040432e-01
4.181338028169014251e+03 9.836491004000376404e-02 4.510780653720379563e-02 1.838999188854898159e-01
4.191341229193341860e+03 9.906613987854967496e-02 4.555899448587398537e-02 1.895341452777700164e-01
4.201344430217669469e+03 9.856131828241891657e-02 4.463601316007962533e-02 1.864393334147796677e-01
4.211347631241997078e+03 9.529845952561670497e-02 4.433945038563045365e-02 1.864046795610616591e-01
4.221350832266325597e+03 9.600787996941505253e-02 4.560348187569573941e-02 1.757217393536952832e-01
4.231354033290653206e+03 9.481172335836378362e-02 4.189601224855932921e-02 1.834815031672638597e-01
4.241357234314980815e+03 9.796362765504725012e-02 4.698482215106147830e-02 1.817440723021678251e-01
4.251360435339308424e+03 9.680661658857638019e-02 4.798530405078876848e-02 1.770959347215043667e-01
4.261363636363636033e+03 9.806869862969647134e-02 4.677376852424246223e-02 1.790370613617070783e-01
4.271366837387964551e+03 9.639848441958852321e-02 4.366771511973437797e-02 1.781779240068589731e-01
4.281370038412292161e+03 9.379898741986224253e-02 4.276425058594283957e-02 1.727720493743076513e-01
4.291373239436619770e+03 9.538757105020437277e-02 4.423637286953979036e-02 1.811326442591401908e-01
4.301376440460947379e+03 9.588319415904182630e-02 4.600908468393077877e-02 1.743800214506444346e-01
4.311379641485274988e+03 9.867996167996140322e-02 4.554699774026442494e-02 1.759414170799776800e-01
4.321382842509603506e+03 9.324685925330344904e-02 4.384018283807806365e-02 1.781712298162717589e-01
4.331386043533931115e+03 9.595486719126566921e-02 4.381895107535751371e-02 1.794869730767473248e-01
4.341389244558258724e+03 9.468344596373438893e-02 4.567731649149948253e-02 1.851094866902482372e-01
4.351392445582586333e+03 9.884551815169269340e-02 4.579240313231724979e-02 1.824928432960954694e-01
4.361395646606913942e+03 9.750663540733416068e-02 4.370123752491023722e-02 1.839053658056076790e-01
4.371398847631241551e+03 9.651115599386786426e-02 4.746277981239509225e-02 1.731735187038777324e-01
4.381402048655570070e+03 9.342363461101728384e-02 4.534040111551723706e-02 1.745759497947077243e-01
4.391405249679897679e+03 9.605669200071033365e-02 4.392886487446178573e-02 1.706045143402646902e-01
4.401408450704225288e+03 9.985960107962690846e-02 4.326670849127792207e-02 1.806279621836448523e-01
4.411411651728552897e+03 1.010753767532429764e-01 5.132115578227825631e-02 1.864692273451211968e-01
4.421414852752880506e+03 1.067448533122615506e-01 5.390357855787496905e-02 1.936006638024283244e-01
4.431418053777209025e+03 9.880321191927056435e-02 4.716911380733685571e-02 1.790304830045496287e-01
4.441421254801536634e+03 9.942184402069252636e-02 4.461893604654515455e-02 1.769738838718335761e-01
4.451424455825864243e+03 9.730461652024142982e-02 4.503694647287267983e-02 1.850753140860652568e-01
4.461427656850191852e+03 9.965316923580017083e-02 4.845093583734014914e-02 1.785196462161573183e-01
4.471430857874519461e+03 9.735835852747140584e-02 4.942420872684877980e-02 1.760621787714148623e-01
4.481434058898847979e+03 1.007039702241369211e-01 4.661173757803086654e-02 1.733574872489863083e-01
4.491437259923175588e+03 9.945330134290084056e-02 4.622244720165471360e-02 1.816229064674700910e-01
4.501440460947503198e+03 1.014889393792668265e-01 4.748163229040714556e-02 1.825451356205083364e-01
4.511443661971830807e+03 9.852939894093638851e-02 4.570782824590045867e-02 1.772894956168333813e-01
4.521446862996158416e+03 1.025886559462719783e-01 4.993957541773157843e-02 1.799885889377032533e-01
4.531450064020486934e+03 9.962452254746100022e-02 4.799982444714371438e-02 1.773014414193258281e-01
4.541453265044814543e+03 9.968909342361881309e-02 4.819004181844682710e-02 1.813621655487452633e-01
4.551456466069142152e+03 1.008564998894671133e-01 4.757342461340068746e-02 1.832824347792681996e-01
4.561459667093469761e+03 9.899977723546458941e-02 4.666192398739956587e-02 1.907088532633786082e-01
4.571462868117797370e+03 9.948629513975544569e-02 4.885375587360517302e-02 1.858607582028616589e-01
4.581466069142125889e+03 1.005113769635189863e-01 4.953550669386418137e-02 1.811210508853828005e-01
4.591469270166453498e+03 1.015347116216382822e-01 4.826558256302114491e-02 1.803718936829794561e-01
4.601472471190781107e+03 1.007250246457640913e-01 4.753154503025020655e-02 1.850254505096112501e-01
4.611475672215108716e+03 1.029589419987514409e-01 4.963199557500255765e-02 1.910990721061754938e-01
4.621478873239436325e+03 1.065051740602556557e-01 5.011305057821020120e-02 1.941822682364608421e-01
4.631482074263764844e+03 1.062383522326537655e-01 4.933264873332580958e-02 1.980063390472380780e-01
4.641485275288092453e+03 1.081212194584259684e-01 5.369834787349304223e-02 1.945252436824986830e-01
4.651488476312420062e+03 1.075064105156111754e-01 5.148761399804652195e-02 1.987904608170420750e-01
4.661491677336747671e+03 1.110946177761895637e-01 5.201935051200230753e-02 2.018288860701215881e-01
4.671494878361075280e+03 1.119302633314632894e-01 5.374672757778869991e-02 1.990741743840897804e-01
4.681498079385402889e+03 1.182415573533015379e-01 5.422481443389816358e-02 2.098140658251730351e-01
4.691501280409731407e+03 1.186630077453042359e-01 5.361947681664824134e-02 2.126406892456731978e-01
4.701504481434059016e+03 1.225506983167487102e-01 5.822341904014065317e-02 2.233645131307332998e-01
4.711507682458386626e+03 1.278581520829689677e-01 6.276445546368550343e-02 2.358604369735917694e-01
4.721510883482714235e+03 1.248410930809571856e-01 6.062170387980286845e-02 2.262779818800570997e-01
4.731514084507041844e+03 1.333386640157736003e-01 6.252074999636875186e-02 2.315671022082626818e-01
4.741517285531370362e+03 1.305139138341001870e-01 6.652106961367440507e-02 2.323500973370120348e-01
4.751520486555697971e+03 1.345670156629010517e-01 6.578172470504087266e-02 2.323029875582036385e-01
4.761523687580025580e+03 1.349890948182388972e-01 6.192813034427264302e-02 2.353998090999915860e-01
4.771526888604353189e+03 1.333090437070257317e-01 6.639171505617627589e-02 2.322321686895442994e-01
4.781530089628680798e+03 1.374949747815227830e-01 6.515092309344584776e-02 2.328050141882624657e-01
4.791533290653009317e+03 1.373992350639777482e-01 5.996610545484695742e-02 2.393878963897113632e-01
4.801536491677336926e+03 1.359032041193411755e-01 5.987015896839699425e-02 2.429671783416496311e-01
4.811539692701664535e+03 1.317531294594048719e-01 6.173889069418637965e-02 2.432175071919111808e-01
4.821542893725992144e+03 1.317237745014246952e-01 6.253461879881648533e-02 2.443553455537310348e-01
4.831546094750319753e+03 1.335004725502312306e-01 6.147123336173719588e-02 2.351355915223716231e-01
4.841549295774648272e+03 1.338195394872038202e-01 6.714525924586373096e-02 2.387814681960010454e-01
4.851552496798975881e+03 1.349458943509124764e-01 7.034207182991149276e-02 2.433874427148756958e-01
4.861555697823303490e+03 1.362879614452332799e-01 6.242240397669038959e-02 2.474880168665801738e-01
4.871558898847631099e+03 1.365840377666340533e-01 6.842943237830895198e-02 2.378270182266748467e-01
4.881562099871958708e+03 1.343738706197592225e-01 6.582914023994734798e-02 2.430903614103089860e-01
4.891565300896287226e+03 1.347861923972989984e-01 6.365797437832777794e-02 2.395129498860551764e-01
4.901568501920614835e+03 1.296894409317371211e-01 5.827387903882091935e-02 2.344490816491685004e-01
4.911571702944942444e+03 1.247988350429124760e-01 5.981668471381443308e-02 2.281877939332044858e-01
4.921574903969270053e+03 1.284629605203321256e-01 6.196385600236783281e-02 2.354585462612361901e-01
4.931578104993597663e+03 1.242822514683394053e-01 5.989729334127840560e-02 2.343004205200328038e-01
4.941581306017926181e+03 1.218461737065508615e-01 5.702651408347958473e-02 2.271996557077416712e-01
4.951584507042253790e+03 1.272363330813545135e-01 6.079289386690687330e-02 2.272151655618063759e-01
4.961587708066581399e+03 1.222998446494930336e-01 5.770770916459266181e-02 2.194285025741099793e-01
4.971590909090909008e+03 1.168810981863276921e-01 5.488213477175363231e-02 2.189105595213305666e-01
4.981594110115236617e+03 1.182504629941237007e-01 5.540676758518391781e-02 2.181776115572441332e-01
4.991597311139564226e+03 1.167474661414340531e-01 5.486396196220523491e-02 2.073617746520308724e-01
5.001600512163892745e+03 1.183737354243791923e-01 5.632280140952795888e-02 2.085480086326113869e-01
5.011603713188220354e+03 1.130522348715174985e-01 5.565290000076281857e-02 2.168166890557517157e-01
5.021606914212547963e+03 1.158167129927425987e-01 5.429537630350751709e-02 2.145489094315601031e-01
5.031610115236875572e+03 1.132807163833124825e-01 5.381971684675657119e-02 2.085370293684839504e-01
5.041613316261203181e+03 1.104249149180771827e-01 5.576843374489370148e-02 1.961715318041823142e-01
5.051616517285531700e+03 1.104142587072340087e-01 5.440625786340280018e-02 2.073941670382495606e-01
5.061619718309859309e+03 1.083720257724892083e-01 5.196973957405806588e-02 2.013912833122348256e-01
5.071622919334186918e+03 1.081780824452722028e-01 5.178679247935065455e-02 1.941711518637135314e-01
5.081626120358514527e+03 1.083753838127415742e-01 5.127260571886225332e-02 1.966988160158023025e-01
5.091629321382842136e+03 1.101181784693913007e-01 5.068549021430150681e-02 1.972666986983035720e-01
5.101632522407170654e+03 1.034826977341647136e-01 4.903097481564894222e-02 1.898410697353905829e-01
5.111635723431498263e+03 1.021027929211458657e-01 5.001522284515735189e-02 1.854665892093376456e-01
5.121638924455825872e+03 9.946447032235537777e-02 4.741546138958374623e-02 1.801204023663933174e-01
5.131642125480153481e+03 1.029999296756005100e-01 4.967428496971357937e-02 1.798114251243912720e-01
5.141645326504481091e+03 1.017842643673196185e-01 4.676428233978525278e-02 1.828147721377291479e-01
5.151648527528809609e+03 1.020178259837497131e-01 4.737421680916164418e-02 1.842741749626962133e-01
5.161651728553137218e+03 1.030218786655751340e-01 4.822329583053779761e-02 1.835818443030164671e-01
5.171654929577464827e+03 1.023876156646240931e-01 5.057879874195538722e-02 1.811304965401025757e-01
5.181658130601792436e+03 1.016857164836426908e-01 5.126719845118212632e-02 1.789543986833300737e-01
5.191661331626120045e+03 9.983531147956382912e-02 5.022546924036482702e-02 1.748888077623816650e-01
5.201664532650448564e+03 9.728684802645265473e-02 4.762398965715860383e-02 1.752629950737239484e-01
5.211667733674776173e+03 9.773656039774485105e-02 4.678962619797141093e-02 1.731483346723823868e-01
5.221670934699103782e+03 9.965676681113092017e-02 4.764123357769088629e-02 1.765300036050727606e-01
5.231674135723431391e+03 1.008563214314136119e-01 4.667403863693863481e-02 1.787950878816031985e-01
5.241677336747759000e+03 1.032466713090996746e-01 5.019602341528308503e-02 1.758631794798591330e-01
5.251680537772087519e+03 1.032242064176916718e-01 4.987292653060625830e-02 1.796099793847961146e-01
5.261683738796415128e+03 1.020433154105807733e-01 4.924034255355934364e-02 1.835065725008001303e-01
5.271686939820742737e+03 1.020881081598694756e-01 4.647969125662329559e-02 1.801105603105769837e-01
5.281690140845070346e+03 1.022618216885820691e-01 5.115714981214326135e-02 1.816962317281799744e-01
5.291693341869397955e+03 9.692903431817004312e-02 4.785460010082984161e-02 1.799513059555798988e-01
5.301696542893725564e+03 9.763628010198611984e-02 4.765755073000711023e-02 1.793124327974869037e-01
5.311699743918054082e+03 1.012810342370524253e-01 4.735072782529285706e-02 1.819491019936536336e-01
5.321702944942381691e+03 1.023530236750345851e-01 5.014764582765816880e-02 1.816302413978920505e-01
5.331706145966709300e+03 1.015486302808501912e-01 4.939564844680711941e-02 1.892806645126683673e-01
5.341709346991036909e+03 1.045618147641963896e-01 5.047598718598109158e-02 1.893663092250909841e-01
5.351712548015364519e+03 1.039870488972843149e-01 5.084891820244885619e-02 1.900736541809779356e-01
5.361715749039693037e+03 1.028442909442903314e-01 4.751272580673368551e-02 1.919692192182528567e-01
5.371718950064020646e+03 1.048691296937080547e-01 5.185644735033956287e-02 1.903701098101593103e-01
5.381722151088348255e+03 1.026907577175652925e-01 4.975796783827744069e-02 1.949752163111459491e-01
5.391725352112675864e+03 1.070934936975910245e-01 5.225301575737542614e-02 1.928700869362274251e-01
5.401728553137003473e+03 1.026982665070775569e-01 5.118540783363659946e-02 1.861513223994818722e-01
5.411731754161331992e+03 1.046054111295997846e-01 5.035714791716517508e-02 1.964094572427817764e-01
5.421734955185659601e+03 1.073074545676241387e-01 5.133861115414053988e-02 1.972991302453404039e-01
5.431738156209987210e+03 1.075064680587277666e-01 5.093314072053042874e-02 1.982601375659612530e-01
5.441741357234314819e+03 1.071969715332294210e-01 5.254148509263267819e-02 1.967007423264288124e-01
5.451744558258642428e+03 1.070268202744816405e-01 5.323881364175833686e-02 1.975398672914821518e-01
5.461747759282970947e+03 1.092862948150439412e-01 4.857447386238737674e-02 2.007828994097182185e-01
5.471750960307298556e+03 1.080705462057313104e-01 5.112278565406471603e-02 1.955336755529934467e-01
5.481754161331626165e+03 1.095647397189560557e-01 5.302436075969708257e-02 2.018585635406867362e-01
5.491757362355953774e+03 1.041249480787006937e-01 5.105723212007300810e-02 2.066389137008503851e-01
5.501760563380281383e+03 1.102113236692839754e-01 5.317574246375914027e-02 2.143168513651041163e-01
5.511763764404609901e+03 1.083536902394702378e-01 5.055178633437956009e-02 2.051661021643654825e-01
5.521766965428937510e+03 1.111439927870090799e-01 5.286323142345208254e-02 2.122877598051469694e-01
5.531770166453265119e+03 1.130173241393805650e-01 5.699672369900892627e-02 2.135464043852865201e-01
5.541773367477592728e+03 1.188684357496048172e-01 6.026419526311883879e-02 2.315661093637017831e-01
5.551776568501920337e+03 1.152808866472387894e-01 5.248132758804546077e-02 2.250334507729603306e-01
5.561779769526248856e+03 1.146364521255030383e-01 5.604192345562970107e-02 2.137405038611495112e-01
5.571782970550576465e+03 1.136085043475897477e-01 5.377918205866025897e-02 2.214105682702052214e-01
5.581786171574904074e+03 1.162347571719816869e-01 5.237420533139289236e-02 2.238724522995408639e-01
5.591789372599231683e+03 4.018503752810003715e-01 2.939593877486053053e-01 5.490037668996107234e-01
5.601792573623559292e+03 7.710746250918492084e-01 6.718688351247825707e-01 8.795593843115314669e-01
5.611795774647886901e+03 3.990645385408805312e-01 2.856019253778073197e-01 5.199414014509662341e-01
5.621798975672215420e+03 1.142368272479274138e-01 5.787949954148282478e-02 2.386151979695100012e-01
5.631802176696543029e+03 1.167660682973991892e-01 5.852542236358137390e-02 2.346762018517962178e-01
5.641805377720870638e+03 1.169996235943572965e-01 5.327596122386143995e-02 2.336148890340998263e-01
5.651808578745198247e+03 1.139799386997186609e-01 5.512631069595840677e-02 2.412571399609630962e-01
5.661811779769525856e+03 1.215770657601628890e-01 6.082099950685606465e-02 2.473717266277103699e-01
5.671814980793854374e+03 1.200421802581962544e-01 5.725631042244184316e-02 2.438946731621664255e-01
5.681818181818181984e+03 1.169152632245966106e-01 5.618672708964560919e-02 2.446037999581527345e-01
5.691821382842509593e+03 1.160488050821399247e-01 5.325049370816620220e-02 2.485726776422129969e-01
5.701824583866837202e+03 1.221373259023645075e-01 6.109633234428674120e-02 2.443516515974682446e-01
5.711827784891164811e+03 1.212957062143312364e-01 5.751462093153908439e-02 2.478482858097151575e-01
5.721830985915493329e+03 1.226306205911319169e-01 5.555919283710916701e-02 2.426104635917318286e-01
5.731834186939820938e+03 1.199885033753354951e-01 5.476627108322299625e-02 2.511607141509615282e-01
5.741837387964148547e+03 1.220124529010072345e-01 5.546764794282497274e-02 2.661477191977590917e-01
5.751840588988476156e+03 1.268910255333705606e-01 5.627188358141068519e-02 2.692600344596029482e-01
5.761843790012803765e+03 1.278835173841027517e-01 5.952797261240904553e-02 2.981724851756682448e-01
5.771846991037132284e+03 1.265710760963294490e-01 5.740502811900559388e-02 2.797434210845313185e-01
5.781850192061459893e+03 1.268929753367039615e-01 6.049304099626459652e-02 2.722860158068319270e-01
5.791853393085787502e+03 1.325621921655310564e-01 6.540120766200083202e-02 2.874144595958600945e-01
5.801856594110115111e+03 1.349272590827940432e-01 6.081479347768178889e-02 2.985739626247035927e-01
5.811859795134442720e+03 1.390683158819212284e-01 6.304575095427648879e-02 3.095604011703849689e-01
5.821862996158771239e+03 1.408305242888300279e-01 6.290749704883626114e-02 3.063772244005770751e-01
5.831866197183098848e+03 1.465882549250113742e-01 7.061333653798365639e-02 3.109858611020359653e-01
5.841869398207426457e+03 1.466969168993248473e-01 6.876426646187150382e-02 3.262019196980100455e-01
5.851872599231754066e+03 1.429549488032279825e-01 7.188658592066085595e-02 3.202236189177178338e-01
5.861875800256081675e+03 1.353199457860023436e-01 6.399277528099094059e-02 3.392118381827386453e-01
5.871879001280410193e+03 1.415361882807552318e-01 6.813160406718042628e-02 3.321722476132262236e-01
5.881882202304737802e+03 1.418656388285625958e-01 6.633169967763301311e-02 3.291904661202065263e-01
5.891885403329065412e+03 1.434274696609438293e-01 6.334499061785096863e-02 3.474232996471057211e-01
5.901888604353393021e+03 1.460242736315080503e-01 6.809823470778705867e-02 3.485511249704945080e-01
5.911891805377720630e+03 1.449922015602331249e-01 6.669505863004424051e-02 3.466991299677922855e-01
5.921895006402048239e+03 1.435455758385309200e-01 6.350693472790704119e-02 3.356772782354957019e-01
5.931898207426376757e+03 1.453227651693659861e-01 6.403307854038256530e-02 3.614653840363490911e-01
5.941901408450704366e+03 1.439244770474132906e-01 6.640859049744508857e-02 3.528127411690245019e-01
5.951904609475031975e+03 1.482838971734716793e-01 6.857109433729878523e-02 3.476598864362473451e-01
5.961907810499359584e+03 1.512612135605831687e-01 6.968991542545549533e-02 3.600076290542755242e-01
5.971911011523687193e+03 1.529730394273230154e-01 6.565933806598475697e-02 3.497536791669897949e-01
5.981914212548015712e+03 1.491504070359400969e-01 6.983376715133526869e-02 3.577525935311050009e-01
5.991917413572343321e+03 1.520154550842629237e-01 7.363726519009161642e-02 3.562559349939717346e-01
6.001920614596670930e+03 1.561637185991738563e-01 7.411799319772401085e-02 3.894805601645889848e-01
6.011923815620998539e+03 1.628127277089660152e-01 7.329787178044482043e-02 3.864749715483463133e-01
6.021927016645326148e+03 1.564649406099037909e-01 7.590906221805730769e-02 3.975223482103517614e-01
6.031930217669654667e+03 1.642291666633402536e-01 7.509430574978141759e-02 3.857661961542603324e-01
6.041933418693982276e+03 1.604576590947011661e-01 7.178343657387122045e-02 3.964758741992941427e-01
6.051936619718309885e+03 1.694230585892674834e-01 7.853794739720451612e-02 4.099255693440678194e-01
6.061939820742637494e+03 1.757551953395531941e-01 8.231440738912775001e-02 4.050805706858741084e-01
6.071943021766965103e+03 1.667512044342037425e-01 7.484090118806933922e-02 4.135002357600054967e-01
6.081946222791293621e+03 1.743607165300143369e-01 7.569900953775619834e-02 4.154784738961220247e-01
6.091949423815621230e+03 1.598174144037404765e-01 7.398314499546729262e-02 3.895874224721879164e-01
6.101952624839948840e+03 1.679499329124074791e-01 7.391172572058091195e-02 4.086388206811931711e-01
6.111955825864276449e+03 1.678213588165357317e-01 7.387538583805371151e-02 4.194474033393360557e-01
6.121959026888604058e+03 1.632816207573639655e-01 7.438654016535754809e-02 4.318834179647421112e-01
6.131962227912932576e+03 1.739659675714764764e-01 7.309412659197922491e-02 4.329603758644859357e-01
6.141965428937260185e+03 1.708534437743874923e-01 7.665986126643696552e-02 4.467730591527370732e-01
6.151968629961587794e+03 1.768134050463370521e-01 7.798335217523029439e-02 4.314136273799453192e-01
6.161971830985915403e+03 1.743050329866110415e-01 7.279627696159680916e-02 4.521676509856363824e-01
6.171975032010243012e+03 1.734061679777543774e-01 7.465781687848867254e-02 4.628937519402456791e-01
6.181978233034570621e+03 1.769714187052543741e-01 7.873607810290438047e-02 4.688779034841460414e-01
6.191981434058899140e+03 1.839311910371589087e-01 7.838817265131692302e-02 4.534298472187123230e-01
6.201984635083226749e+03 1.785789859562935677e-01 8.067091299367287749e-02 4.722325233205476591e-01
6.211987836107554358e+03 1.756280715382048108e-01 7.811364457817236706e-02 4.837376983564852795e-01
6.221991037131881967e+03 1.756686789269205073e-01 7.648112918871936838e-02 4.756711511675419390e-01
6.231994238156209576e+03 1.724627225239326322e-01 7.688080390320176094e-02 4.644687688731885533e-01
6.241997439180538095e+03 1.829962516352468815e-01 8.208082237338171216e-02 4.840979185803671592e-01
6.252000640204865704e+03 1.891614959459888556e-01 7.728640676392484199e-02 4.862009713335634919e-01
6.262003841229193313e+03 1.818034429935798391e-01 7.973172600859997072e-02 4.883528235722398581e-01
6.272007042253520922e+03 1.804106494854112730e-01 7.521804493698119876e-02 5.132290886153498821e-01
6.282010243277848531e+03 1.831111375076992787e-01 7.846884308768015126e-02 5.129090716823557772e-01
6.292013444302177049e+03 1.797859905814646608e-01 7.276958778882770817e-02 4.909944158517432489e-01
6.302016645326504658e+03 1.850514906487812361e-01 7.878821534270442906e-02 4.873672246655381124e-01
6.312019846350832267e+03 1.891194054881626396e-01 8.173495132506120031e-02 5.167846820834205435e-01
6.322023047375159877e+03 1.963316409270256802e-01 7.774148146511203339e-02 5.284863123239199600e-01
6.332026248399487486e+03 1.982693026991955432e-01 7.871962762588444185e-02 5.279508404231864072e-01
6.342029449423816004e+03 1.899682190635884338e-01 7.522405851618517436e-02 5.310036987024271404e-01
6.352032650448143613e+03 1.914319395517363742e-01 8.396962463516742525e-02 5.471801434684001597e-01
6.362035851472471222e+03 1.940791543902696537e-01 7.974898288690585035e-02 5.506251330230269581e-01
6.372039052496798831e+03 2.066193766025539447e-01 8.869996439752954320e-02 5.385256057548432063e-01
6.382042253521126440e+03 2.041184706113918224e-01 8.770634001186501660e-02 5.215114130510914991e-01
6.392045454545454959e+03 2.013928493197598979e-01 8.656230480716144149e-02 5.553910411084591603e-01
6.402048655569782568e+03 2.074857254177999155e-01 8.545385722685390484e-02 5.561672024448590657e-01
6.412051856594110177e+03 2.076202225480875962e-01 8.860838686879890513e-02 5.521165051109854227e-01
6.422055057618437786e+03 2.120188287505790081e-01 7.991478967444697046e-02 5.575915366213600732e-01
6.432058258642765395e+03 2.101109059693102299e-01 8.567248041534489267e-02 5.643728546955448788e-01
6.442061459667093914e+03 2.081333982492895585e-01 8.275422362983053670e-02 5.661861395967702215e-01
6.452064660691421523e+03 1.979231623293568332e-01 7.703475302200632480e-02 5.645926951555746420e-01
6.462067861715749132e+03 2.098202355003266351e-01 8.723595753479067294e-02 5.896151753525608052e-01
6.472071062740076741e+03 2.124948792340003723e-01 8.186298611247785906e-02 5.818406933040547457e-01
6.482074263764404350e+03 2.189955483034350392e-01 8.189524164553273200e-02 5.882527783184775538e-01
6.492077464788731959e+03 2.089570708493192763e-01 7.969816337641684456e-02 5.852230521599306456e-01
6.502080665813060477e+03 2.148733875335799015e-01 8.289291229411577255e-02 5.880571263737031096e-01
6.512083866837388086e+03 2.019174595815322326e-01 8.453047271000911633e-02 5.950101326828123316e-01
6.522087067861715695e+03 2.095048079144862796e-01 8.785833395160681791e-02 6.029833119744966163e-01
6.532090268886043305e+03 2.127480242522890863e-01 8.924037921730713918e-02 5.797733360307365524e-01
6.542093469910370914e+03 2.190099503966766725e-01 9.327584475599599856e-02 5.752616396741494498e-01
6.552096670934699432e+03 2.193065189716806029e-01 9.382917575312477165e-02 5.921911187611446081e-01
6.562099871959027041e+03 2.138226036713250511e-01 9.426424411490177957e-02 5.924420858652255095e-01
6.572103072983354650e+03 2.181452200000520425e-01 8.555409400319982649e-02 6.115748001579496274e-01
6.582106274007682259e+03 2.243266316629155543e-01 8.690007467942119368e-02 5.987734707092001729e-01
6.592109475032009868e+03 2.306615336044388898e-01 8.373799618106669840e-02 5.725192326647016161e-01
6.602112676056338387e+03 2.275066754720483087e-01 9.213564825064585184e-02 5.858362025981058707e-01
6.612115877080665996e+03 2.234867273400640009e-01 8.374270622620173798e-02 5.918284438050581686e-01
6.622119078104993605e+03 2.227414744744611597e-01 8.497307437025403143e-02 6.199149833933611520e-01
6.632122279129321214e+03 2.179452566301906813e-01 9.168210242026954282e-02 5.876471428515759321e-01
6.642125480153648823e+03 2.242458819484869914e-01 9.208979083914271835e-02 5.981460154703421850e-01
6.652128681177977342e+03 2.218040268347823418e-01 9.057852959214997279e-02 6.091603906120287570e-01
6.662131882202304951e+03 2.130447807385632553e-01 8.469220133565603936e-02 6.023363555558477467e-01
6.672135083226632560e+03 2.293870202998870012e-01 8.749714125570014212e-02 6.050871688241850066e-01
6.682138284250960169e+03 2.286937478586572869e-01 8.582103500171153754e-02 6.058502412689477090e-01
6.692141485275287778e+03 2.376550536126209034e-01 8.668456341999561388e-02 6.015350088040010146e-01
6.702144686299616296e+03 2.248999970721828334e-01 9.241116883499038426e-02 6.145004183357033467e-01
6.712147887323943905e+03 2.282350192882603990e-01 8.783553904971132253e-02 6.191423131101829735e-01
6.722151088348271514e+03 2.327933331692622621e-01 9.176074357092041389e-02 6.106484616894537476e-01
6.732154289372599123e+03 2.352751170924166357e-01 8.799820256425676390e-02 6.198856104957261026e-01
6.742157490396926733e+03 2.478372299545094082e-01 9.017944847433445599e-02 6.325066389517891574e-01
6.752160691421255251e+03 2.409302124355835462e-01 9.609144472890848721e-02 6.541468209042635706e-01
6.762163892445582860e+03 2.438512060129653103e-01 9.209141518818528271e-02 6.479287958794054392e-01
6.772167093469910469e+03 2.297747841772000976e-01 9.530491804533777755e-02 6.329636988588875912e-01
6.782170294494238078e+03 2.345463534965548102e-01 8.216675198617029441e-02 6.392377387698582325e-01
6.792173495518565687e+03 2.349314502253653514e-01 9.447326018562113292e-02 6.227320937717460980e-01
6.802176696542893296e+03 2.434626799970689703e-01 8.934600395629853364e-02 6.192312086563082074e-01
6.812179897567221815e+03 2.428309764987248709e-01 9.448292877217315255e-02 6.154462557002398082e-01
6.822183098591549424e+03 3.664324554412713431e-01 1.741756158621299566e-01 7.054979828838908729e-01
6.832186299615877033e+03 5.375974297437328131e-01 2.647528837452246542e-01 9.181453974738453816e-01
6.842189500640204642e+03 3.596906637747371294e-01 1.673288433212223869e-01 7.006679794286286844e-01
6.852192701664532251e+03 2.405716275123068459e-01 9.863808041214998379e-02 6.587155627974861094e-01
6.862195902688860770e+03 2.282443141673936027e-01 9.109737132696589523e-02 6.524456794914544888e-01
6.872199103713188379e+03 2.268580498493465436e-01 8.668968964714204861e-02 6.405880219294856071e-01
6.882202304737515988e+03 2.233193934182959306e-01 8.833004258246499041e-02 6.259562135578120579e-01
6.892205505761843597e+03 2.951245307351850200e-01 1.314477979793788609e-01 6.735587366424082845e-01
6.902208706786171206e+03 5.463223195484664396e-01 2.639477761587411542e-01 9.199342632299424283e-01
6.912211907810499724e+03 4.480547391576629179e-01 2.213401075857671096e-01 8.038493169327322052e-01
6.922215108834827333e+03 2.280984062484696651e-01 9.816468232218106271e-02 6.549636932556684998e-01
6.932218309859154942e+03 2.318804989794080451e-01 9.437149446719743373e-02 6.674658937716021478e-01
6.942221510883482551e+03 2.307040660854746683e-01 9.539211524718395341e-02 6.222865611995253010e-01
6.952224711907810160e+03 2.180816912990812817e-01 8.422890678913405593e-02 6.247918604316816671e-01
6.962227912932138679e+03 2.240452256821414412e-01 8.226415515801834000e-02 6.586857601825503172e-01
6.972231113956466288e+03 2.187963397645173169e-01 8.567360240574649344e-02 6.706470790880909583e-01
6.982234314980793897e+03 2.272623170714777041e-01 9.522154307992773681e-02 6.371937499692547080e-01
6.992237516005121506e+03 2.166608728178549825e-01 8.999683649471977576e-02 6.550091746111765811e-01
7.002240717029449115e+03 2.196848278539483557e-01 8.559315230730152324e-02 6.544931117544956489e-01
7.012243918053777634e+03 2.199689464947137407e-01 9.333070831110314158e-02 6.606329433779456473e-01
7.022247119078105243e+03 2.285356728020637440e-01 8.707785927757122346e-02 6.322574372001642518e-01
7.032250320102432852e+03 2.282356435972979491e-01 8.247249449534020671e-02 6.480412895983683752e-01
7.042253521126760461e+03 2.256534146545034203e-01 9.071682146002418845e-02 6.559315052095713305e-01
7.052256722151088070e+03 2.266124584157475363e-01 9.505291222087440539e-02 6.458009287634309814e-01
7.062259923175416588e+03 2.320872631735630132e-01 9.286035650117628604e-02 6.253079718128506936e-01
7.072263124199744198e+03 2.323264263133273388e-01 9.772421573496736791e-02 6.388222891007835358e-01
7.082266325224071807e+03 2.334691513563549869e-01 9.725212257207987987e-02 6.322012161841767952e-01
7.092269526248399416e+03 2.284550505791282105e-01 9.896128547450476487e-02 6.214891260725902145e-01
7.102272727272727025e+03 2.428150219620439643e-01 1.011169618995895053e-01 6.137515868129759244e-01
7.112275928297054634e+03 2.491990302998606244e-01 1.000292512648732618e-01 6.125212948745458741e-01
7.122279129321383152e+03 2.480959514719248971e-01 1.052105027419740352e-01 5.980041661586611434e-01
7.132282330345710761e+03 2.469883484418136099e-01 9.768281636733619488e-02 5.915485674147142880e-01
7.142285531370038370e+03 2.457299700990563662e-01 1.017463013948191469e-01 6.121301724307369740e-01
7.152288732394365979e+03 2.446844726102652690e-01 1.041473264723270509e-01 6.238445179769459559e-01
7.162291933418693588e+03 2.496423218168890845e-01 1.024500929611789762e-01 6.319335045326393008e-01
7.172295134443022107e+03 2.555115415541279744e-01 1.064410705943821256e-01 6.158682214950036427e-01
7.182298335467349716e+03 2.590337058865766484e-01 1.113042221465414122e-01 6.426538310227635220e-01
7.192301536491677325e+03 2.607337528512613800e-01 1.053898093787783707e-01 6.342898801229392980e-01
7.202304737516004934e+03 2.634984791028358031e-01 1.071919896131759697e-01 6.557508492574359860e-01
7.212307938540332543e+03 2.541986244158546127e-01 1.038821201650268478e-01 6.395590993956105086e-01
7.222311139564661062e+03 2.540738868759370161e-01 1.021573842710802316e-01 6.169242008515190001e-01
7.232314340588988671e+03 2.635689173920008899e-01 1.056855730877352267e-01 6.239071538752660739e-01
7.242317541613316280e+03 2.576500513085303590e-01 1.087944889779451502e-01 6.405066748513392749e-01
7.252320742637643889e+03 2.682429518546484704e-01 1.124824873001451092e-01 6.303002602268841237e-01
7.262323943661971498e+03 2.550027511848446116e-01 1.147021898068613099e-01 6.268991633995737445e-01
7.272327144686300016e+03 2.534972086375449352e-01 1.086403213604743706e-01 6.182581021802873167e-01
7.282330345710627626e+03 2.499241709296313174e-01 1.125116730987927582e-01 6.283270719891976830e-01
7.292333546734955235e+03 2.368641121877294864e-01 1.092798699893932912e-01 6.150811192758999235e-01
7.302336747759282844e+03 2.326018880762509844e-01 1.058589932856874583e-01 5.902603067814667925e-01
7.312339948783610453e+03 2.381405002737945198e-01 1.062816955469765012e-01 5.656760640560488662e-01
7.322343149807938971e+03 3.227642339832931806e-01 1.460242204926572862e-01 6.309493794468707950e-01
7.332346350832266580e+03 3.674126772389231799e-01 1.719776355261066758e-01 6.733051618422890572e-01
7.342349551856594189e+03 2.910925913161749867e-01 1.396688689125299698e-01 5.987584567346738718e-01
7.352352752880921798e+03 2.131866552334409082e-01 9.912831796114382477e-02 5.117547450149952937e-01
7.362355953905249407e+03 2.025130718650413608e-01 9.481965657330949926e-02 5.044208471520246206e-01
7.372359154929577926e+03 1.962173707994271654e-01 8.871807621908463226e-02 5.021568084128620324e-01
7.382362355953905535e+03 1.918981886265252179e-01 8.386548453987310858e-02 5.099164465090357812e-01
7.392365556978233144e+03 1.806545303991919649e-01 8.275327348799046967e-02 4.852512573119990846e-01
7.402368758002560753e+03 1.764154843414912355e-01 8.268406756926306722e-02 4.468741606875014094e-01
7.412371959026888362e+03 1.823902137633215681e-01 7.915908095218401885e-02 4.477671200192736567e-01
7.422375160051215971e+03 1.672651283277247214e-01 7.711477101449869254e-02 4.617442452842469569e-01
7.432378361075544490e+03 1.681820518123511854e-01 7.556353857397256346e-02 4.518662825747122858e-01
7.442381562099872099e+03 1.602668674285123163e-01 7.178296457818213183e-02 4.393226151010474756e-01
7.452384763124199708e+03 1.662216676834184503e-01 7.098437635603808971e-02 4.403189479199653422e-01
7.462387964148527317e+03 3.388281056520072720e-01 2.238613438601779471e-01 5.334886171416173273e-01
7.472391165172854926e+03 3.926926175304265576e-01 2.638395791341076047e-01 5.570674960174555324e-01
7.482394366197183444e+03 1.832626831084285535e-01 8.415106163771005066e-02 3.881802801191259755e-01
7.492397567221511054e+03 1.416923363245224388e-01 6.304361420529755455e-02 3.768917153985884561e-01
7.502400768245838663e+03 1.425529729198186379e-01 6.752469330732202568e-02 3.482043517890930917e-01
7.512403969270166272e+03 1.407705739246098431e-01 6.707741176352566281e-02 3.551040442077300630e-01
7.522407170294493881e+03 1.352679553963687942e-01 7.011803081494827339e-02 3.124997476721269596e-01
7.532410371318822399e+03 1.358259013937670179e-01 6.632355115495008890e-02 2.847200257337187401e-01
7.542413572343150008e+03 1.325215168680277944e-01 6.468237720341295238e-02 2.753644947484445993e-01
7.552416773367477617e+03 1.290006878245013588e-01 6.839969575764669185e-02 2.619788849777461848e-01
7.562419974391805226e+03 1.297047922262355435e-01 6.271855188748608201e-02 2.507304433346112527e-01
7.572423175416132835e+03 1.287152799511160906e-01 6.269527587182996409e-02 2.587601528995064348e-01
7.582426376440461354e+03 1.254205878363544580e-01 6.151686774650100969e-02 2.459010675357557740e-01
7.592429577464788963e+03 1.247684051092799590e-01 5.915564563094719008e-02 2.413846325196990494e-01
7.602432778489116572e+03 1.286263109763431112e-01 6.214750708177621541e-02 2.395323705578231155e-01
7.612435979513444181e+03 1.230757962280857876e-01 5.983876951791716747e-02 2.345426719521983283e-01
7.622439180537771790e+03 1.247232825677848517e-01 6.171571013308398829e-02 2.288224771458130247e-01
7.632442381562100309e+03 1.221341792554208744e-01 5.778394425248369048e-02 2.276082045663783970e-01
7.642445582586427918e+03 1.230866584181366102e-01 6.428258704120760891e-02 2.302166544364726841e-01
7.652448783610755527e+03 1.215928899704692007e-01 5.782449185119965807e-02 2.239624026382276423e-01
7.662451984635083136e+03 1.179107162706908435e-01 5.671187532836668987e-02 2.201283194897196149e-01
7.672455185659410745e+03 1.204056363994104317e-01 5.683232514103263994e-02 2.155498643355316934e-01
7.682458386683738354e+03 1.206116331532140068e-01 6.078644696384804397e-02 2.160417095268988008e-01
7.692461587708066872e+03 1.217837957639107960e-01 6.001778500691751922e-02 2.167728815858547819e-01
7.702464788732394481e+03 1.188976916174172838e-01 6.060568594406348653e-02 2.076908477897659033e-01
7.712467989756722091e+03 1.190269106246970993e-01 5.824031092119488773e-02 2.066818689990078672e-01
7.722471190781049700e+03 1.167923884802388457e-01 6.005085951796412802e-02 2.015342295978315990e-01
7.732474391805377309e+03 1.140063021722469844e-01 5.399629878758366308e-02 1.985656162167295236e-01
7.742477592829705827e+03 1.149739839564611066e-01 5.688125752162601773e-02 1.960126753667402466e-01
7.752480793854033436e+03 1.170812751876870172e-01 6.102200722964449403e-02 2.039242038451261063e-01
7.762483994878361045e+03 1.192263022778836667e-01 6.031578693420904663e-02 2.081880599646054597e-01
7.772487195902688654e+03 1.208218377614899280e-01 6.015547160844357533e-02 2.112762101673076875e-01
7.782490396927016263e+03 1.164832988906304989e-01 5.579564492773970291e-02 2.017098792409273145e-01
7.792493597951344782e+03 1.150177911171559181e-01 5.697842763145710698e-02 1.944463375946447192e-01
7.802496798975672391e+03 1.164043524288024128e-01 5.667271778945226490e-02 1.935092301651307745e-01
7.812500000000000000e+03 6.591162325017718704e-02 1.635290081430474524e-02 1.416605139439998384e-01
