# Comments from moku data file:% Moku:Phasemeter 
# 
# % Ch 1 - DC coupling, 50 Ohm impedance, 1 V range
# 
# % Ch 1 bandwidth = 1.0000000000e+04 (Hz)
# 
# % Acquisition rate: 1.5625000000e+04 Hz
# 
# % External 10 MHz clock
# 
# % Acquired 2020-02-08 T 02:40:57 -0800
# 
# % Time, Set frequency 1 (Hz), Frequency 1 (Hz), Phase 1 (cyc), I 1 (V), Q 1 (V)
# 
# #########################################################
# ASD calculated by mokuReadFreqNoise.py
# Frequency [Hz]         Freq ASD1 [Hz/rtHz]      Freq ASDlb1 [Hz/rtHz]    Freq ASDub1 [Hz/rtHz]    
# 
0.000000000000000000e+00 2.531144423079828982e+02 1.014933883117581246e+02 3.349000380144435098e+02
1.000000000000000056e-01 3.257871191088288469e+02 1.825207824717243454e+02 4.639440028618317911e+02
2.000000000000000111e-01 2.088541520346653328e+02 1.439501094430746377e+02 3.772075732989843573e+02
3.000000000000000444e-01 1.834861229050312090e+02 1.218417268216231832e+02 4.420967485442247948e+02
4.000000000000000222e-01 2.059610981886315244e+02 9.880878521389846014e+01 3.741533067840694002e+02
5.000000000000000000e-01 1.967554434205341067e+02 1.327086764386083075e+02 2.440989383504440298e+02
6.000000000000000888e-01 1.750416398411788919e+02 8.956093531570483890e+01 2.140249221972595706e+02
7.000000000000000666e-01 1.662996638524395792e+02 9.224690734168136430e+01 2.987653692840987674e+02
8.000000000000000444e-01 1.818990377918600529e+02 1.250796827209907462e+02 2.868830747908161811e+02
9.000000000000000222e-01 1.270536569819368964e+02 5.317313681368903389e+01 2.005975929260169721e+02
1.000000000000000000e+00 1.138392712405204037e+02 6.070415266295024281e+01 1.708245700610844153e+02
1.100000000000000089e+00 9.358047894752027673e+01 6.169437065990662461e+01 1.434453562887425448e+02
1.200000000000000178e+00 7.535034245624093785e+01 3.911037703794158205e+01 1.599452652659338412e+02
1.300000000000000044e+00 1.030937591434593656e+02 5.441851962991548675e+01 1.317474266072048010e+02
1.400000000000000133e+00 7.669721341427559480e+01 5.617235854149627983e+01 1.273901269545334998e+02
1.500000000000000000e+00 8.518259007776893554e+01 6.194194217427973825e+01 1.333012314381182648e+02
1.600000000000000089e+00 1.220477251994911967e+02 4.236230717442611393e+01 1.490596989189924955e+02
1.700000000000000178e+00 1.151239767763115083e+02 7.915953838301690837e+01 1.510871671211099283e+02
1.800000000000000044e+00 9.222779517404741512e+01 5.191452617853379792e+01 1.577549947036008575e+02
1.900000000000000133e+00 6.771088338458827138e+01 3.963083046024799216e+01 1.174288176589610657e+02
2.000000000000000000e+00 8.854957401554908358e+01 4.953760411898393556e+01 1.262041673290486585e+02
2.100000000000000089e+00 1.121244962420096840e+02 6.903020726789300454e+01 1.480344607323642094e+02
2.200000000000000178e+00 8.811312917980947645e+01 6.179601972968777801e+01 1.039959512868649796e+02
2.300000000000000266e+00 6.561036949007339558e+01 3.478971440881117871e+01 9.707801352656832705e+01
2.400000000000000355e+00 9.737730041301090012e+01 5.486757517965649811e+01 1.313976629773048330e+02
2.500000000000000000e+00 1.081610410117327348e+02 7.650368687553985581e+01 1.569532236722421032e+02
2.600000000000000089e+00 8.476962675885394560e+01 4.791192002436385877e+01 1.200157523982824586e+02
2.700000000000000178e+00 4.407011292132561664e+01 3.257424819268538130e+01 1.216222662050196277e+02
2.800000000000000266e+00 6.448623279232884897e+01 3.923742539204710766e+01 1.177777741835307097e+02
2.900000000000000355e+00 5.793644081886098718e+01 2.713349548279641610e+01 1.016843089139305789e+02
3.000000000000000000e+00 5.757963169194530906e+01 4.870167364270086097e+01 8.116393597944259852e+01
3.100000000000000089e+00 5.903236919929288717e+01 2.433790198033515040e+01 7.779625881748121685e+01
3.200000000000000178e+00 4.400681885565383311e+01 2.874530366625296907e+01 9.901137028531053375e+01
3.300000000000000266e+00 6.030564351664550315e+01 4.109819050328795242e+01 8.278814933877038129e+01
3.400000000000000355e+00 5.991101104508155117e+01 3.014588605883242778e+01 8.749976352534119428e+01
3.500000000000000000e+00 5.636777224341584969e+01 2.481915715845189041e+01 8.597657952145200966e+01
3.600000000000000089e+00 6.796756360839816580e+01 4.622268290681078184e+01 9.379752486844887471e+01
3.700000000000000178e+00 5.009382942747001266e+01 2.618248750303674655e+01 8.685823290427265420e+01
3.800000000000000266e+00 5.755402805749316997e+01 2.361122466973534983e+01 1.012783391705833935e+02
3.900000000000000355e+00 2.856060382208412562e+01 1.727566666516453253e+01 8.463723717236528898e+01
4.000000000000000000e+00 5.130006486503338436e+01 2.294670601303042545e+01 8.494379412585342948e+01
4.100000000000000533e+00 3.640526415398891658e+01 1.081815411053370291e+01 7.802608766548101471e+01
4.200000000000000178e+00 4.125248972147640814e+01 2.257907251740650878e+01 5.835722441641743785e+01
4.299999999999999822e+00 4.312861778648272093e+01 2.499044608476437901e+01 8.141290355019481240e+01
4.400000000000000355e+00 6.603367615164191307e+01 3.554491322657132457e+01 8.575632163300738853e+01
4.500000000000000000e+00 4.680366233490800454e+01 2.813713222541824166e+01 6.157322718270773265e+01
4.600000000000000533e+00 3.187738812228318253e+01 2.027704396208982018e+01 5.064260590614100721e+01
4.700000000000000178e+00 5.314264256152009125e+01 3.064631101240570388e+01 7.270540213162279031e+01
4.800000000000000711e+00 3.269772609651514728e+01 1.670903953869882130e+01 6.481133815440388446e+01
4.900000000000000355e+00 3.363426386544330171e+01 2.414932000815300839e+01 5.680752559001081181e+01
5.000000000000000000e+00 4.003333721517716981e+01 1.914413825454161611e+01 6.383566337858582784e+01
5.100000000000000533e+00 5.434423444955134386e+01 2.643353240227268941e+01 6.921087109966245521e+01
5.200000000000000178e+00 3.814553323455034217e+01 2.256777854347354406e+01 4.791987376023251954e+01
5.300000000000000711e+00 2.583978823179544904e+01 1.325041397082264893e+01 5.375522139891503315e+01
5.400000000000000355e+00 2.770866083539242908e+01 2.217173966432134335e+01 4.472509819411737908e+01
5.500000000000000000e+00 3.968682003146010118e+01 2.882996721518108174e+01 5.778838187171242424e+01
5.600000000000000533e+00 4.167365680385762516e+01 2.022978949887898992e+01 6.623800761095942846e+01
5.700000000000000178e+00 4.494350579716471117e+01 2.678865852997332908e+01 5.713905612246566790e+01
5.800000000000000711e+00 4.468749834381596031e+01 2.473018232978171937e+01 5.143007318467476807e+01
5.900000000000000355e+00 3.020829316395305142e+01 1.368300097574837260e+01 4.125664491584029037e+01
6.000000000000000000e+00 3.164110774197540010e+01 1.638406173562496448e+01 4.214514317512185215e+01
6.100000000000000533e+00 2.646307823546422000e+01 1.232975446830818989e+01 4.188680076435272071e+01
6.200000000000000178e+00 3.183996654623535250e+01 1.427593060841710404e+01 5.910482047697579588e+01
6.300000000000000711e+00 3.315647221173635018e+01 1.938476065932822934e+01 4.851007962467462420e+01
6.400000000000000355e+00 3.260234833798468657e+01 1.526702483614419492e+01 4.575582602335082782e+01
6.500000000000000000e+00 2.672197860086146903e+01 1.050083882306806338e+01 4.467509025586009841e+01
6.600000000000000533e+00 3.104148190868906099e+01 2.304738471326870197e+01 4.368779974649396536e+01
6.700000000000000178e+00 1.934027148515460226e+01 1.594677937409379709e+01 4.197635200254192966e+01
6.800000000000000711e+00 1.614553539305391183e+01 1.319226051062850935e+01 3.490570851674678465e+01
6.900000000000000355e+00 1.806245395928034014e+01 1.407681031154922024e+01 2.612504300150389724e+01
7.000000000000000000e+00 2.181310083044607140e+01 1.563196253467197927e+01 2.718521665298161594e+01
7.100000000000000533e+00 2.146122630666913977e+01 7.865275848797552705e+00 2.559856766953269158e+01
7.200000000000000178e+00 3.011480813292483916e+01 1.515657595903360999e+01 3.870934180165145477e+01
7.300000000000000711e+00 2.174461286110450331e+01 1.688561059185699520e+01 3.649757373618184175e+01
7.400000000000000355e+00 3.195355850457480429e+01 1.891445318259959407e+01 4.925136027532062855e+01
7.500000000000000000e+00 2.922105086497815307e+01 1.171394778147934090e+01 4.880731643318655699e+01
7.600000000000000533e+00 3.236185216195588765e+01 1.754877338589899338e+01 4.552236451869316625e+01
7.700000000000000178e+00 2.516062594613355685e+01 9.114151324433507284e+00 4.107167994999397820e+01
7.800000000000000711e+00 2.597432645904965653e+01 1.531151453049166378e+01 4.128359631268646268e+01
7.900000000000000355e+00 1.924853383046909983e+01 1.213515203372736373e+01 3.494540024058189687e+01
8.000000000000000000e+00 1.442330638337816318e+01 4.711384104254153549e+00 2.175733135167050492e+01
8.099999999999999645e+00 1.613489760837761366e+01 5.603624233506423025e+00 2.707631723006112523e+01
8.200000000000001066e+00 2.061250963856166862e+01 1.203291849335005281e+01 2.849284427271242137e+01
8.300000000000000711e+00 2.819221050364788184e+01 1.705634528478848111e+01 3.198997416340279187e+01
8.400000000000000355e+00 2.787646572506244524e+01 9.379666639535114925e+00 3.293663088243050652e+01
8.500000000000000000e+00 1.969966211179517401e+01 1.238912300203351080e+01 2.913303406378680549e+01
8.599999999999999645e+00 2.046823838927614503e+01 9.556888579196398226e+00 2.560292013245300069e+01
8.700000000000001066e+00 1.812744921453493774e+01 1.165590821864749671e+01 2.786228043866094595e+01
8.800000000000000711e+00 1.627573134364712359e+01 7.125367474862635220e+00 2.281604621086054863e+01
8.900000000000000355e+00 1.766786792109553872e+01 1.436678635885698796e+01 3.088373674697472993e+01
9.000000000000000000e+00 2.006998672327109645e+01 1.008243804867334781e+01 3.111600257553464743e+01
9.099999999999999645e+00 1.766036736879566149e+01 1.217434530945290660e+01 2.478657785955824266e+01
9.200000000000001066e+00 1.584529320552941556e+01 1.192864674936241443e+01 2.765228352154327496e+01
9.300000000000000711e+00 1.897763138911869873e+01 1.058260608440232353e+01 3.505143815998810908e+01
9.400000000000000355e+00 1.059746646099605094e+01 6.277703114714546118e+00 2.427459893042588490e+01
9.500000000000000000e+00 1.779712815147280480e+01 1.130539916088881824e+01 2.652289292607713023e+01
9.600000000000001421e+00 1.926834822220507348e+01 1.402581865149364759e+01 2.899149765759881703e+01
9.700000000000001066e+00 2.137321464533126658e+01 1.373503022793702044e+01 2.788422897618566765e+01
9.800000000000000711e+00 2.170645674921659563e+01 1.102188985613243410e+01 2.367467344139237895e+01
9.900000000000000355e+00 1.796526569011752272e+01 7.697468133229632414e+00 2.249124035258243737e+01
1.000000000000000000e+01 1.231891998600139360e+01 1.017869433825316250e+01 1.936291929114560517e+01
1.000000000000000000e+01 1.646666488281580953e+01 8.064822173678003026e+00 2.682855550038230419e+01
1.100000000000000000e+01 1.472262050984429393e+01 6.543160681438503268e+00 2.496366729982829824e+01
1.200000000000000000e+01 1.536651323579596884e+01 7.565872420842119084e+00 2.228887972424159614e+01
1.300000000000000000e+01 1.319521699312822172e+01 7.086182027642106362e+00 2.119826223432254508e+01
1.400000000000000000e+01 1.074603041104355938e+01 4.429056761890659999e+00 1.851293380285508050e+01
1.500000000000000000e+01 1.184400759966677619e+01 5.002941216595106155e+00 1.798984942193879633e+01
1.600000000000000000e+01 9.949700258890844751e+00 4.857928487857532396e+00 1.737205747722911653e+01
1.700000000000000000e+01 9.379082268208975393e+00 4.868277494653349358e+00 1.525149577429472991e+01
1.800000000000000000e+01 8.548265948601498465e+00 4.329614595019959822e+00 1.474341018880950038e+01
1.900000000000000000e+01 7.840289248835769165e+00 4.050458831715924468e+00 1.299697089338167011e+01
2.000000000000000000e+01 7.970427661412784026e+00 3.535399986566913011e+00 1.368902881271615612e+01
2.100000000000000000e+01 7.127733690533639255e+00 2.884224281267901979e+00 1.251224178958747757e+01
2.200000000000000000e+01 6.803006967116700388e+00 3.522846413285281475e+00 1.043772216939462893e+01
2.300000000000000000e+01 6.675328692548855081e+00 3.634438753903236563e+00 1.167991756822711125e+01
2.400000000000000000e+01 6.486147201598090994e+00 3.425045188422073839e+00 1.061150563914119438e+01
2.500000000000000000e+01 6.141502671909161215e+00 3.293681450140598876e+00 9.456986782005893488e+00
2.600000000000000000e+01 5.315227830909863727e+00 2.441623370886942812e+00 9.651103941873055092e+00
2.700000000000000000e+01 5.192699400055643011e+00 2.547831271229303418e+00 8.893941463788426205e+00
2.800000000000000000e+01 5.232614405538502211e+00 3.199702304534288722e+00 7.879368494827269309e+00
2.900000000000000000e+01 5.118075453378102324e+00 2.597667273517940689e+00 8.809197353992765045e+00
3.000000000000000000e+01 4.662929352363057944e+00 2.345490997144651590e+00 8.216274793745132143e+00
3.100000000000000000e+01 4.673134102170539705e+00 2.097322279795845734e+00 8.412795161159211332e+00
3.200000000000000000e+01 3.641129742655254908e+00 2.073427033118697693e+00 7.130798511048331179e+00
3.300000000000000000e+01 3.754416602869806496e+00 1.751954010027037212e+00 6.790429076995099678e+00
3.400000000000000000e+01 3.568230491231723089e+00 1.768321634967899403e+00 6.293287844933030506e+00
3.500000000000000000e+01 3.205590589045804073e+00 1.315142156559039543e+00 6.487250663116012284e+00
3.600000000000000000e+01 3.603313450929845452e+00 1.330768826427960017e+00 6.059917845152841487e+00
3.700000000000000000e+01 3.354267415677049335e+00 1.821139145570444429e+00 6.302994893894867445e+00
3.800000000000000000e+01 3.474171538861210884e+00 1.548429081056713175e+00 6.557028516552898978e+00
3.900000000000000000e+01 3.252154735151099096e+00 1.501080303731282983e+00 5.538418159162922905e+00
4.000000000000000000e+01 2.529994743028506132e+00 1.424318016899930983e+00 5.682530483101043473e+00
4.100000000000000000e+01 2.861790584866995335e+00 1.316160434720227590e+00 5.946627217074988536e+00
4.200000000000000000e+01 2.406745776005594362e+00 1.101751439575490377e+00 5.728020863100562465e+00
4.300000000000000000e+01 2.257440030050817281e+00 9.909048887817341056e-01 4.888599980773285836e+00
4.400000000000000000e+01 2.151977233359077424e+00 1.002119959578964048e+00 4.832449881830902960e+00
4.500000000000000000e+01 2.216467632849822955e+00 1.022221380693512982e+00 5.028631478054124138e+00
4.600000000000000000e+01 1.943406283360064268e+00 1.133737365942181219e+00 4.866663972504025715e+00
4.700000000000000000e+01 1.796857520297870714e+00 8.936200344423037567e-01 4.490222849273622252e+00
4.800000000000000000e+01 1.703662383670070390e+00 7.676756623494628284e-01 4.839258788411223478e+00
4.900000000000000000e+01 1.708156116770161326e+00 9.353167911999032968e-01 5.427278036340846157e+00
5.000000000000000000e+01 1.671395417302167452e+00 7.341097986603496439e-01 4.464430798630617758e+00
5.100000000000000000e+01 1.920786661105637005e+00 8.011452098845891490e-01 4.192372542507344590e+00
5.200000000000000000e+01 1.647372620317892666e+00 6.969649833536419870e-01 4.102853182047541125e+00
5.300000000000000000e+01 1.540636056050288083e+00 6.490513356583665905e-01 4.269275248213746821e+00
5.400000000000000000e+01 1.454593237268652084e+00 5.694537401981266678e-01 3.750044824937396548e+00
5.500000000000000000e+01 1.522966671899272928e+00 4.770122171799505706e-01 4.160528170771469192e+00
5.600000000000000000e+01 1.392934199228924141e+00 5.500880318190396467e-01 4.435208902777199036e+00
5.700000000000000000e+01 1.218800444414757544e+00 5.236179987494994359e-01 3.443372815652191221e+00
5.800000000000000000e+01 1.158720852852231031e+00 5.406480844508104733e-01 3.079451529111288721e+00
5.900000000000000000e+01 1.178982351111199200e+00 5.436210493235104080e-01 3.383638685913346489e+00
6.000000000000000000e+01 1.202596798491777808e+00 6.153029612890626998e-01 3.114063167237519636e+00
6.100000000000000000e+01 1.121827794008709578e+00 5.938674587342561706e-01 2.356936634935969277e+00
6.200000000000000000e+01 1.051170987297792792e+00 4.632627779158182135e-01 3.502650984198843798e+00
6.300000000000000000e+01 9.184091759363840479e-01 3.910401847889909410e-01 2.589683404649812726e+00
6.400000000000000000e+01 9.760010345528873366e-01 4.181421785204954000e-01 2.212176945487720481e+00
6.500000000000000000e+01 1.069495741238651210e+00 3.973149215067064421e-01 2.411929045754077183e+00
6.600000000000000000e+01 8.999052178477562336e-01 3.988570092664574518e-01 1.954330878564874308e+00
6.700000000000000000e+01 7.581771087038210455e-01 3.900498728701319306e-01 2.181738755391863904e+00
6.800000000000000000e+01 8.620234666591711781e-01 3.753082397010078508e-01 1.760085759252069781e+00
6.900000000000000000e+01 7.970805565304639462e-01 3.707623980287598764e-01 1.706884091018837868e+00
7.000000000000000000e+01 7.377731891862235880e-01 3.481664010225346551e-01 1.492646792236718811e+00
7.100000000000000000e+01 7.205125336910379596e-01 3.593108905028011280e-01 1.600293604807324854e+00
7.200000000000000000e+01 7.236638513135066342e-01 3.450004424870210529e-01 1.573079906055596000e+00
7.300000000000000000e+01 6.329442675478652580e-01 3.395018704724755976e-01 1.517545306878052003e+00
7.400000000000000000e+01 6.256931819062531153e-01 2.744562526164084360e-01 1.559631619009800740e+00
7.500000000000000000e+01 5.875448098872403380e-01 2.992701052051278676e-01 1.180115194030396442e+00
7.600000000000000000e+01 5.411689255074054739e-01 2.654838994659927121e-01 1.212739875898222408e+00
7.700000000000000000e+01 6.100747544955865687e-01 2.802549794754096157e-01 1.302075535883284507e+00
7.800000000000000000e+01 5.558622971830958770e-01 2.653851271074935125e-01 1.199324278861987558e+00
7.900000000000000000e+01 5.838264592200927972e-01 2.115548910136350047e-01 1.150601147769414245e+00
8.000000000000000000e+01 6.040183069484770240e-01 3.146666413949916197e-01 1.256408675865280600e+00
8.100000000000000000e+01 5.895020286511849505e-01 2.567210219106315083e-01 1.027945582314704565e+00
8.200000000000000000e+01 4.620246460226032914e-01 2.646429705795847465e-01 1.065474821120917515e+00
8.300000000000000000e+01 4.669691897756682031e-01 2.564638075203224954e-01 8.761607187186649659e-01
8.400000000000000000e+01 5.635491380441292053e-01 2.551080489914466232e-01 1.091742552735804006e+00
8.500000000000000000e+01 4.995422451759183313e-01 2.374066737543488737e-01 9.773752184048921654e-01
8.600000000000000000e+01 5.344613721804676310e-01 2.802578568422440242e-01 9.175645187435352845e-01
8.700000000000000000e+01 4.814577971149269220e-01 2.278131350524857934e-01 8.092457943029640610e-01
8.800000000000000000e+01 4.408014746870584366e-01 2.042975968319895030e-01 8.137240208079397075e-01
8.900000000000000000e+01 4.424435711866092080e-01 2.163105626953094607e-01 7.796151518302132377e-01
9.000000000000000000e+01 4.301588197801046731e-01 1.904227262380006336e-01 6.947531128167500070e-01
9.100000000000000000e+01 4.288810833166550318e-01 1.923195350458283825e-01 7.701629059123015208e-01
9.200000000000000000e+01 4.230467924838810512e-01 1.887481842671681898e-01 6.990730090416404918e-01
9.300000000000000000e+01 4.235093142631576324e-01 2.077656713498860774e-01 7.490865416449640213e-01
9.400000000000000000e+01 4.005725040292346106e-01 1.607958616844240296e-01 7.503540756168753934e-01
9.500000000000000000e+01 3.456251817810194193e-01 1.320076358392301141e-01 7.446996025114348550e-01
9.600000000000000000e+01 4.246047924753013625e-01 1.958183340014535145e-01 7.370012616470349442e-01
9.700000000000000000e+01 3.869035271657366160e-01 1.836507801520934902e-01 6.650836170640807010e-01
9.800000000000000000e+01 3.454253285991549793e-01 1.570239166894611682e-01 5.957389038409167670e-01
9.900000000000000000e+01 3.547817895423039936e-01 1.802296009924173603e-01 5.828820969497942039e-01
1.000000000000000000e+02 3.462591684416433946e-01 1.486748794741046265e-01 5.755252829057224684e-01
1.000320102432778526e+02 2.977892864741893963e-01 1.305058061347676435e-01 6.283296789305561347e-01
1.100352112676056322e+02 2.550312058329765041e-01 1.139486269792542861e-01 5.088803674038844260e-01
1.200384122919334118e+02 2.301462899877206036e-01 1.067403745879860477e-01 4.441714804906902736e-01
1.300416133162611914e+02 1.993952078630720770e-01 9.192598210811797621e-02 3.837395279042710716e-01
1.400448143405889994e+02 1.709110728036371263e-01 8.342588932577699179e-02 3.368285605193972465e-01
1.500480153649167789e+02 1.526416034995014548e-01 6.916022956958742252e-02 3.115092306860631766e-01
1.600512163892445585e+02 1.413795091421262140e-01 6.651797203729886698e-02 2.595002018442658653e-01
1.700544174135723381e+02 1.211455072214196182e-01 5.207633048288874689e-02 2.247708819507672484e-01
1.800576184379001177e+02 9.693576795182697048e-02 4.156999081080592351e-02 1.984053418509178490e-01
1.900608194622279257e+02 8.592155164637110820e-02 3.623421726449887331e-02 1.796665877526484045e-01
2.000640204865557052e+02 7.346166740849385812e-02 3.563200560056326710e-02 1.632255106732210248e-01
2.100672215108834848e+02 7.775445878525433230e-02 3.506953303040853676e-02 1.420563414194753460e-01
2.200704225352112644e+02 7.010282273110879370e-02 3.086181580820407042e-02 1.348209698781247523e-01
2.300736235595390440e+02 6.680362587925645079e-02 3.009914991981890373e-02 1.247832432959339183e-01
2.400768245838668236e+02 6.898385204461690567e-02 3.241350818331386469e-02 1.185635989854156025e-01
2.500800256081946316e+02 5.778968469882592163e-02 2.759221720279694812e-02 1.024776886343356508e-01
2.600832266325223827e+02 4.968679339294126279e-02 2.255185173426102821e-02 9.010013735188193706e-02
2.700864276568502191e+02 4.161643040641591074e-02 1.925891421442043130e-02 7.924552485476445141e-02
2.800896286811779987e+02 4.235668597770903682e-02 2.045032897397244462e-02 7.477181473770357079e-02
2.900928297055057783e+02 4.131766026222047361e-02 2.096175719237825322e-02 6.967407453880046508e-02
3.000960307298335579e+02 3.668157217221942185e-02 1.870378622339065322e-02 6.489125343787748024e-02
3.100992317541613374e+02 3.315155263974436245e-02 1.694300472758366455e-02 5.656505169797205329e-02
3.201024327784891170e+02 3.117066038204475281e-02 1.528034976498397236e-02 5.320646736303228513e-02
3.301056338028168966e+02 3.180609869380014720e-02 1.575358852901935849e-02 5.560841964162044349e-02
3.401088348271446762e+02 3.352906283383094710e-02 1.730522544960663364e-02 5.902056318628205039e-02
3.501120358514724558e+02 3.374652065236601051e-02 1.673825644746716398e-02 5.756320316054443914e-02
3.601152368758002353e+02 3.666418766885559677e-02 1.882555562734196386e-02 5.996802527131143284e-02
3.701184379001280149e+02 4.080515942289327652e-02 1.999801942832224802e-02 6.952888210718088935e-02
3.801216389244558513e+02 5.808849968402170910e-02 2.853292264192593131e-02 9.792102576094320610e-02
3.901248399487836309e+02 7.272930662936250013e-02 3.660563233470473521e-02 1.185548737169179606e-01
4.001280409731114105e+02 6.328159338246998333e-02 3.182946580676406650e-02 1.045368042963018690e-01
4.101312419974391901e+02 4.939085357178262664e-02 2.570676756373655239e-02 7.932153305738803839e-02
4.201344430217669697e+02 4.391026298615313683e-02 2.203334689459971601e-02 7.070365877918961817e-02
4.301376440460947492e+02 3.723113375698869354e-02 1.896712952696692073e-02 6.217873741807043025e-02
4.401408450704225288e+02 3.336432380124065150e-02 1.644649613314541278e-02 5.523786299913072129e-02
4.501440460947503084e+02 3.061382924032668429e-02 1.566346173430080077e-02 5.242109271359563644e-02
4.601472471190780880e+02 3.039560807296248432e-02 1.493793372798462443e-02 4.794519684301944140e-02
4.701504481434058675e+02 3.096953340350012268e-02 1.521673367599687791e-02 5.393486916621226257e-02
4.801536491677336471e+02 3.507363410770186762e-02 1.706466514659877448e-02 5.868198734162121538e-02
4.901568501920614835e+02 3.061650833620479378e-02 1.674973646107563371e-02 5.122622333022931046e-02
5.001600512163892631e+02 2.766996100507341030e-02 1.389019444095363105e-02 4.399148605234240450e-02
5.101632522407170427e+02 2.552534165222412887e-02 1.194698012478992259e-02 4.256995390602767715e-02
5.201664532650447654e+02 2.762045962125384002e-02 1.311359507271689373e-02 4.488844111679893972e-02
5.301696542893726019e+02 3.118030623726846320e-02 1.567330274287258990e-02 5.089803992466778587e-02
5.401728553137004383e+02 3.241614757115431067e-02 1.595639192698698750e-02 5.190498393113047310e-02
5.501760563380281610e+02 3.102223185212415676e-02 1.549141450868726268e-02 4.937444048268501556e-02
5.601792573623559974e+02 2.957412041789584528e-02 1.524635481658696140e-02 4.862610527816032396e-02
5.701824583866837202e+02 3.301087345815291452e-02 1.616104536385314788e-02 5.448783359410696442e-02
5.801856594110115566e+02 3.605192882901369494e-02 1.795991180992809536e-02 5.914616020237469657e-02
5.901888604353392793e+02 3.170524133029990754e-02 1.592183437675305860e-02 5.437224623206442925e-02
6.001920614596671157e+02 2.989732042998196129e-02 1.502729189189772226e-02 4.942971440200590039e-02
6.101952624839948385e+02 2.882581161321709148e-02 1.308759159998849377e-02 4.587534934505491796e-02
6.201984635083226749e+02 6.073588013802715124e-02 3.280577500855266782e-02 9.936722923540095009e-02
6.302016645326503976e+02 2.473756918076737976e-01 1.240375548227152097e-01 3.950237994138440234e-01
6.402048655569782341e+02 2.538805724802521424e-01 1.246803663687177793e-01 4.072161511755161833e-01
6.502080665813060705e+02 1.555049156196832150e-01 7.685447063517208965e-02 2.428543670627295037e-01
6.602112676056337932e+02 1.444407756078292526e-01 7.172308764584456320e-02 2.409056427596488470e-01
6.702144686299616296e+02 1.043683770354132540e-01 5.383084266625724756e-02 1.673650421036903535e-01
6.802176696542893524e+02 9.788229123909575335e-02 4.988664562532261343e-02 1.580858168853480072e-01
6.902208706786171888e+02 9.133534875019348742e-02 4.313133674110000010e-02 1.507255366763457782e-01
7.002240717029449115e+02 6.376250039273989589e-02 3.247313193281328725e-02 1.054959319715436522e-01
7.102272727272727479e+02 4.535490662470160333e-02 2.231989750855539745e-02 7.470587445290308160e-02
7.202304737516004707e+02 6.395546239564159352e-02 3.206401447338667193e-02 1.100316438407548114e-01
7.302336747759283071e+02 5.080232919918091505e-02 2.492458471133406073e-02 8.651982924375843653e-02
7.402368758002560298e+02 2.533857351142037792e-02 1.226684236160467852e-02 4.315911659492819435e-02
7.502400768245838663e+02 2.642408397973692799e-02 1.355725133321223665e-02 4.415752223630895618e-02
7.602432778489117027e+02 2.927620793459744658e-02 1.481469700506522422e-02 4.869706034309281145e-02
7.702464788732394254e+02 3.398420367828937361e-02 1.701034972899214195e-02 5.539397307575997381e-02
7.802496798975672618e+02 5.312009672634232516e-02 2.621469157652940238e-02 8.836232792833659255e-02
7.902528809218949846e+02 1.338216767954197028e-01 6.651613593954726344e-02 2.196495921510667471e-01
8.002560819462228210e+02 2.608612320488672420e-01 1.341504031881166625e-01 4.013739109529810278e-01
8.102592829705505437e+02 2.001865912706992934e-01 1.028780415702933160e-01 3.093950544575410078e-01
8.202624839948783801e+02 1.024885113665502528e-01 5.316276481005768884e-02 1.644320874731640125e-01
8.302656850192061029e+02 1.672185976739476720e-01 8.386537592589272949e-02 2.640450153997621618e-01
8.402688860435339393e+02 4.060333471873223132e-01 2.697746774088291555e-01 5.449833062252639193e-01
8.502720870678616620e+02 3.206287999511309716e-01 1.741519004507825763e-01 4.961663949357841830e-01
8.602752880921894985e+02 2.206106317138887551e-01 1.095919802338401888e-01 3.619933318785271137e-01
8.702784891165173349e+02 1.713917375489123762e-01 7.967659529312141886e-02 2.833049865733136552e-01
8.802816901408450576e+02 1.095969043891903139e-01 5.510291393467522253e-02 1.781775054353229026e-01
8.902848911651728940e+02 7.184491968389315752e-02 3.681702338280090636e-02 1.146958875724508609e-01
9.002880921895006168e+02 6.037290214445283076e-02 3.069126522318641956e-02 1.016210758133596487e-01
9.102912932138284532e+02 8.742441853644701555e-02 4.067512959724103178e-02 1.401432620969093878e-01
9.202944942381561759e+02 8.325151823313671484e-02 4.261684058766000011e-02 1.350120773469958291e-01
9.302976952624840123e+02 5.960296414229342143e-02 3.141848787615212496e-02 9.741170278658387027e-02
9.403008962868117351e+02 5.243599405382405598e-02 2.562883060552195030e-02 8.757894841382034279e-02
9.503040973111395715e+02 4.960318617500299870e-02 2.475134675096205689e-02 8.367926351491673798e-02
9.603072983354672942e+02 4.636838783948007969e-02 2.335676587224541981e-02 7.836415031936383446e-02
9.703104993597951307e+02 5.403779257722200052e-02 2.777894331979700177e-02 8.984883426721661237e-02
9.803137003841229671e+02 6.907087044635870643e-02 3.551405388362954829e-02 1.115815616861312171e-01
9.903169014084506898e+02 8.747107405603490871e-02 4.337441754612204881e-02 1.427520112762191151e-01
1.000320102432778526e+03 1.343000069352463521e-01 6.626616678811973749e-02 2.108303222163196156e-01
1.010323303457106249e+03 1.304471051892364397e-01 6.891852602873439759e-02 2.080098699345657165e-01
1.020326504481434085e+03 1.392132599506916424e-01 7.190942891203380705e-02 2.209394004889890517e-01
1.030329705505761922e+03 1.939347406671827756e-01 9.474910219940607670e-02 3.124045417257148571e-01
1.040332906530089531e+03 2.077686252054518623e-01 1.009800532936319245e-01 3.290104436368035401e-01
1.050336107554417367e+03 1.752922779673659337e-01 8.616378232995280939e-02 2.878518167939357886e-01
1.060339308578745204e+03 1.056882456943260551e-01 5.421282732843726859e-02 1.704882076175619487e-01
1.070342509603073040e+03 6.222665931824379604e-02 2.973686017900742384e-02 1.015592412275488493e-01
1.080345710627400877e+03 5.360620464854654738e-02 2.545977142161156073e-02 8.806594112642979200e-02
1.090348911651728486e+03 5.377029942364355830e-02 2.640845755111780047e-02 8.696779670237521354e-02
1.100352112676056322e+03 5.292554305751618476e-02 2.639669026367658794e-02 8.593670914297601993e-02
1.110355313700384158e+03 4.886773744661662006e-02 2.534256284023574113e-02 8.214650421865046792e-02
1.120358514724711995e+03 5.429308159446180615e-02 2.591896255786819980e-02 8.867139578326412030e-02
1.130361715749039604e+03 5.533115390452360977e-02 2.626863294847187752e-02 9.200810181658337916e-02
1.140364916773367440e+03 7.220093908478378286e-02 3.749188552419473186e-02 1.182056734075397769e-01
1.150368117797695277e+03 1.025845891136546589e-01 5.092384196825110870e-02 1.669657359993901025e-01
1.160371318822023113e+03 1.415478781835270705e-01 7.124695340443687464e-02 2.344409056502747835e-01
1.170374519846350722e+03 1.323169348104030474e-01 6.696523451497821133e-02 2.155505697230130635e-01
1.180377720870678559e+03 9.326745220660326297e-02 4.467352340860662047e-02 1.526868270070564637e-01
1.190380921895006395e+03 6.428940596799882778e-02 3.282145182087209401e-02 1.106845820750324977e-01
1.200384122919334231e+03 5.142196684024906428e-02 2.430729214434635549e-02 8.383621132803498188e-02
1.210387323943662068e+03 4.487559196878166540e-02 2.175742738599527326e-02 7.602057913745872975e-02
1.220390524967989677e+03 4.665848523226541478e-02 2.214308375100210516e-02 7.511232091978183034e-02
1.230393725992317513e+03 4.459856986666437678e-02 2.255993086292092456e-02 7.222761706673154480e-02
1.240396927016645350e+03 4.560564771049113036e-02 2.298670048925172474e-02 7.670166133955064192e-02
1.250400128040973186e+03 5.642522055141188653e-02 2.715404893302166348e-02 9.563950930702432018e-02
1.260403329065300795e+03 6.228746517638968777e-02 3.042331980465100283e-02 1.035308810650909517e-01
1.270406530089628632e+03 1.281392835059939339e-01 7.988612239555606398e-02 1.821918282427650027e-01
1.280409731113956468e+03 1.242877727082964262e-01 7.138366357514565330e-02 1.863961490129023846e-01
1.290412932138284305e+03 7.316240154494738079e-02 3.439993766149065241e-02 1.204780504286700055e-01
1.300416133162612141e+03 7.019764205233029741e-02 3.458692610254232580e-02 1.220380038024869856e-01
1.310419334186939750e+03 7.557657529252394257e-02 3.691600296525275604e-02 1.275756325634001820e-01
1.320422535211267586e+03 6.629301298564856115e-02 3.226200980750068559e-02 1.075977992267244665e-01
1.330425736235595423e+03 5.214966360388544747e-02 2.588633103494501417e-02 8.735021174848772718e-02
1.340428937259923259e+03 4.486423432799821476e-02 2.289958277066730247e-02 7.534219875997839877e-02
1.350432138284250868e+03 4.203468173245304002e-02 2.082672738581936231e-02 7.103757359971886454e-02
1.360435339308578705e+03 4.568651545346050225e-02 2.341526939631771720e-02 7.765021691262624648e-02
1.370438540332906541e+03 4.916609815396733030e-02 2.409196839587897723e-02 8.306366446822342764e-02
1.380441741357234378e+03 5.175573310575305036e-02 2.643076218443943248e-02 8.622543185923170483e-02
1.390444942381562214e+03 4.990484716939528470e-02 2.510842538018481437e-02 8.583020243854040665e-02
1.400448143405889823e+03 4.738673560325861595e-02 2.313469273661603737e-02 8.239405246764129609e-02
1.410451344430217659e+03 4.773843260584880593e-02 2.389717897574990951e-02 7.748765118079709024e-02
1.420454545454545496e+03 4.490188358442337435e-02 2.167582714031146898e-02 7.875846072770993633e-02
1.430457746478873332e+03 4.640579929590821912e-02 2.216773655121924771e-02 7.611793756553821011e-02
1.440460947503200941e+03 4.654395339611934468e-02 2.225718856713624141e-02 7.977754466787324861e-02
1.450464148527528778e+03 4.947912738339810268e-02 2.466954454216145273e-02 8.302288228900009392e-02
1.460467349551856614e+03 5.628475205423531108e-02 2.755358194325698354e-02 9.265577249215502242e-02
1.470470550576184451e+03 6.361851508978669245e-02 3.110085287142821606e-02 1.037588997581575800e-01
1.480473751600512060e+03 7.090360418739904969e-02 3.403989064716455432e-02 1.192062306453539194e-01
1.490476952624839896e+03 7.580054813207143249e-02 3.699455621549355838e-02 1.235651983148007421e-01
1.500480153649167733e+03 7.544891047782115168e-02 3.801565650005486047e-02 1.215889402933957031e-01
1.510483354673495569e+03 7.073393060722828196e-02 3.481108798859409298e-02 1.170080847120232026e-01
1.520486555697823405e+03 6.667588283186420828e-02 3.389731897130364435e-02 1.122880954700763295e-01
1.530489756722151014e+03 7.289573336656735014e-02 3.557310121826560284e-02 1.191423120863443347e-01
1.540492957746478851e+03 6.777848750463015548e-02 3.440226020240621380e-02 1.091933633205035697e-01
1.550496158770806687e+03 6.477680758144092887e-02 3.225142410461492165e-02 1.058435606574285592e-01
1.560499359795134524e+03 6.639863491333555801e-02 3.293722905463840334e-02 1.082540172377042947e-01
1.570502560819462133e+03 6.061785359216799451e-02 2.875920595153609247e-02 9.815342216801070663e-02
1.580505761843789969e+03 5.055821693155407998e-02 2.605089384786306653e-02 8.755593710951259379e-02
1.590508962868117806e+03 4.672880569582547189e-02 2.089301749123825130e-02 7.777028528123595963e-02
1.600512163892445642e+03 3.975235425047646959e-02 1.986170295944153855e-02 7.205217006382624856e-02
1.610515364916773478e+03 4.037670047146664498e-02 1.916781778182674936e-02 6.944958453887496719e-02
1.620518565941101087e+03 3.928050896241829654e-02 1.891145255064087885e-02 6.827801564287576397e-02
1.630521766965428924e+03 3.650192099642835669e-02 1.711783998400205273e-02 6.649903677321027107e-02
1.640524967989756760e+03 3.529796908793676746e-02 1.810684670584962463e-02 6.689053005250443495e-02
1.650528169014084597e+03 3.657005519428040835e-02 1.743598551548030534e-02 6.503986319290754048e-02
1.660531370038412206e+03 3.533233852283677867e-02 1.630145185515734577e-02 6.537250549238506070e-02
1.670534571062740042e+03 3.483722534654062897e-02 1.681424441856211455e-02 6.416406094277951611e-02
1.680537772087067879e+03 3.654424965108352130e-02 1.803230552055224215e-02 6.688479554079350409e-02
1.690540973111395715e+03 3.535663037145382603e-02 1.685643020652101073e-02 6.828888747852226992e-02
1.700544174135723324e+03 3.529380087296146717e-02 1.648023510839443859e-02 6.569556390233798060e-02
1.710547375160051160e+03 3.523308417067987086e-02 1.848947167904858163e-02 6.618252175411774851e-02
1.720550576184378997e+03 3.604995382704106327e-02 1.710232273936397249e-02 6.384783641251728925e-02
1.730553777208706833e+03 3.660138151407442419e-02 1.696849211626668893e-02 6.485303792102767306e-02
1.740556978233034670e+03 3.548910180460766728e-02 1.673005501755530505e-02 6.421304828006253740e-02
1.750560179257362279e+03 3.548343732431642056e-02 1.754365907428421384e-02 6.448306930102631895e-02
1.760563380281690115e+03 3.558758270698502563e-02 1.641841071030250218e-02 6.613887074167541791e-02
1.770566581306017952e+03 3.600337618470653145e-02 1.758851352987785693e-02 6.657604821080305435e-02
1.780569782330345788e+03 3.555552507867821427e-02 1.671072053528285806e-02 6.672454307005952490e-02
1.790572983354673397e+03 3.578480512593924107e-02 1.712463486467412019e-02 6.591188985077123252e-02
1.800576184379001234e+03 3.544909474208413069e-02 1.683626340180102363e-02 6.893589967883455294e-02
1.810579385403329070e+03 3.651578701815057920e-02 1.769574530641921523e-02 6.758259674708361198e-02
1.820582586427656906e+03 3.524604697376933909e-02 1.808233767329109690e-02 6.820092947852379739e-02
1.830585787451984743e+03 3.605667041012310808e-02 1.675869748274967999e-02 6.975575625539248703e-02
1.840588988476312352e+03 3.704560376357429047e-02 1.769183959567870168e-02 7.009486086350494305e-02
1.850592189500640188e+03 3.787051877920101506e-02 1.724994865998669136e-02 7.160954419712545205e-02
1.860595390524968025e+03 3.915288315557711313e-02 1.843471155286029173e-02 7.358368454793319524e-02
1.870598591549295861e+03 4.039952408075288964e-02 1.994563720978771368e-02 7.529589846226596161e-02
1.880601792573623470e+03 3.974637662501781521e-02 1.909217237082351179e-02 7.726383407959998284e-02
1.890604993597951307e+03 3.861662670530149194e-02 1.737047935144668542e-02 7.477007962074638803e-02
1.900608194622279143e+03 4.002371835044172405e-02 1.885145503972206898e-02 7.470337831201330492e-02
1.910611395646606979e+03 3.872442451670358304e-02 1.814869796466599128e-02 7.676638752194442361e-02
1.920614596670934588e+03 4.095596515840051882e-02 1.915453552561731387e-02 8.049479974188512854e-02
1.930617797695262425e+03 4.190284044597081259e-02 2.045377310155206338e-02 7.977124040869969235e-02
1.940620998719590261e+03 3.950721272170756165e-02 1.940358810835122669e-02 7.588226899954192417e-02
1.950624199743918098e+03 3.897010549955804565e-02 1.872881286938323300e-02 7.733846638867296341e-02
1.960627400768245934e+03 3.858735061857491988e-02 1.969898195371035457e-02 8.020466114375414401e-02
1.970630601792573543e+03 3.767043067280682889e-02 1.802993497829787073e-02 7.490244033754477060e-02
1.980633802816901380e+03 3.917155248968334780e-02 1.794586273936073922e-02 7.425231754122557648e-02
1.990637003841229216e+03 4.010216083318229180e-02 1.948896603561672478e-02 7.674945779537011015e-02
2.000640204865557052e+03 4.021097934010006703e-02 1.947869735212013828e-02 7.721248330961780204e-02
2.010643405889884662e+03 3.952379526833445234e-02 1.858183380435117840e-02 7.699506206694117783e-02
2.020646606914212498e+03 3.970643802354103385e-02 1.858923801245809110e-02 7.847481095364328141e-02
2.030649807938540334e+03 4.003126697773829595e-02 1.839484492269535809e-02 7.784402511481443299e-02
2.040653008962868171e+03 3.986924538390784756e-02 1.882111087785899931e-02 7.920481605779713941e-02
2.050656209987195780e+03 3.930184825284850636e-02 1.855862841941813973e-02 7.516625544363512990e-02
2.060659411011523844e+03 4.064125703896645514e-02 1.809318887189174246e-02 7.940306259765390895e-02
2.070662612035851453e+03 4.029058067135404819e-02 1.826605677911555259e-02 7.583865592013604162e-02
2.080665813060179062e+03 3.941109215557268147e-02 1.840419410301231615e-02 7.672105162963438474e-02
2.090669014084507126e+03 4.196618591899801964e-02 1.909156754456329055e-02 8.228273871478122836e-02
2.100672215108834735e+03 4.066858493108634065e-02 1.913614703799138700e-02 8.172572202236183525e-02
2.110675416133162798e+03 4.240632746755912397e-02 2.033135795624986183e-02 8.220201894641826490e-02
2.120678617157490407e+03 4.172996330405935594e-02 2.053236083118920724e-02 7.872538391604091967e-02
2.130681818181818016e+03 4.249925817144991486e-02 1.947795027708037335e-02 8.544921720986947689e-02
2.140685019206146080e+03 4.327763386999195633e-02 2.022547477929425436e-02 8.380687404592059020e-02
2.150688220230473689e+03 4.124983168329838384e-02 1.761807482168563019e-02 7.986682562832586596e-02
2.160691421254801753e+03 4.048023136618980611e-02 1.761672295108784869e-02 8.241625433325545924e-02
2.170694622279129362e+03 4.057310975112294466e-02 1.961039781795147208e-02 8.204945604473370957e-02
2.180697823303456971e+03 4.072775233227322184e-02 1.871938840061271314e-02 8.124606148821809926e-02
2.190701024327785035e+03 4.187710865163564444e-02 1.918105884879955231e-02 8.272238293120336150e-02
2.200704225352112644e+03 4.117972961145129757e-02 1.932717057078016387e-02 8.219511036738107179e-02
2.210707426376440253e+03 4.097320276373992570e-02 1.915940124687548138e-02 8.060016124194231690e-02
2.220710627400768317e+03 4.164515884290663494e-02 2.066800597777150583e-02 8.108785881557602215e-02
2.230713828425095926e+03 4.332868077523217842e-02 1.977264566041845098e-02 8.183540274802633685e-02
2.240717029449423990e+03 4.199028684885218465e-02 1.940876706713788591e-02 8.493368817240541657e-02
2.250720230473751599e+03 4.283048946647995819e-02 1.923912586551180734e-02 8.662670631748907446e-02
2.260723431498079208e+03 4.099576539861489455e-02 1.961359623975705152e-02 8.356597490790861060e-02
2.270726632522407272e+03 4.248608734740582510e-02 1.941538368355641073e-02 8.258752041538332256e-02
2.280729833546734881e+03 4.368871032731872633e-02 2.123296592125567886e-02 8.463510645413931111e-02
2.290733034571062944e+03 4.448028607509402210e-02 2.046790608214204762e-02 8.490394626319693050e-02
2.300736235595390553e+03 4.569214636183615424e-02 2.112589572752091374e-02 8.996630466739766185e-02
2.310739436619718163e+03 4.290974764883481035e-02 2.068405750288763653e-02 8.748781467802167755e-02
2.320742637644046226e+03 4.130968472827882543e-02 1.967652842997853757e-02 8.418296341881859046e-02
2.330745838668373835e+03 4.357116858196852932e-02 2.019456662872254685e-02 8.371733247993434768e-02
2.340749039692701444e+03 4.204458052751522401e-02 1.928360678126262232e-02 8.731176423408565368e-02
2.350752240717029508e+03 4.520022239280128973e-02 1.986495893143311667e-02 8.961506338965118112e-02
2.360755441741357117e+03 4.558375186642814325e-02 2.166074404739631518e-02 9.066575641667559693e-02
2.370758642765685181e+03 4.586816391318902786e-02 2.201509886111265718e-02 9.178346878248214158e-02
2.380761843790012790e+03 4.338076634891558508e-02 2.085868744528184687e-02 8.898589860367178694e-02
2.390765044814340399e+03 4.571545730653340384e-02 2.048108325512143155e-02 8.934681076722993109e-02
2.400768245838668463e+03 4.608682105884714941e-02 2.062370903393555971e-02 9.374578254855070458e-02
2.410771446862996072e+03 4.547391397220382214e-02 2.116058606622397975e-02 9.295827584190602400e-02
2.420774647887324136e+03 4.495465052959493613e-02 2.013001198181194745e-02 9.037251815244834452e-02
2.430777848911651745e+03 4.456135600162462740e-02 2.063788012396126914e-02 9.193889866873555805e-02
2.440781049935979354e+03 4.556132652427438007e-02 2.132593308201721424e-02 9.020097451409159195e-02
2.450784250960307418e+03 4.478500571569726113e-02 2.160607934062084082e-02 8.900867957197758362e-02
2.460787451984635027e+03 4.631428990244251809e-02 2.123784797445890313e-02 8.973069932499155854e-02
2.470790653008963091e+03 4.505199747819067096e-02 2.095290746544844346e-02 9.124453219769797230e-02
2.480793854033290700e+03 4.329249927288891797e-02 1.941983259663058320e-02 8.883672519732069284e-02
2.490797055057618309e+03 4.497358410258251588e-02 2.072328551932010182e-02 9.107310189156260505e-02
2.500800256081946372e+03 4.453680086002596156e-02 2.055784770643532058e-02 9.601926376375641281e-02
2.510803457106273981e+03 4.506418665082308206e-02 2.079697774404926092e-02 9.194786898697478172e-02
2.520806658130601591e+03 4.672195514159570295e-02 2.029241919967489372e-02 9.456934021891406916e-02
2.530809859154929654e+03 4.857601226831948643e-02 2.142878436018917643e-02 9.365029248499935621e-02
2.540813060179257263e+03 4.827065946033827493e-02 2.272324426986100168e-02 9.561932119008043074e-02
2.550816261203585327e+03 5.055981397372810021e-02 2.364152213469064567e-02 9.329401695516013893e-02
2.560819462227912936e+03 4.752504627303057866e-02 2.309748683217081877e-02 8.830977441247934989e-02
2.570822663252240545e+03 4.730292477654477606e-02 2.311882029233990055e-02 9.282562588153567273e-02
2.580825864276568609e+03 4.872022795984547183e-02 2.331721477094527220e-02 8.967082507007546888e-02
2.590829065300896218e+03 4.723214089896120293e-02 2.144567824272334416e-02 9.379958023957621349e-02
2.600832266325224282e+03 4.686167111406390473e-02 2.271927420743950765e-02 1.000391721523761768e-01
2.610835467349551891e+03 4.779334780105518043e-02 2.207550068601805277e-02 9.768236451355247207e-02
2.620838668373879500e+03 4.699668609410995179e-02 2.261832077830067469e-02 9.246436809492930564e-02
2.630841869398207564e+03 4.736128112582681238e-02 2.246017647341601656e-02 9.182749641346472924e-02
2.640845070422535173e+03 4.742085368936285739e-02 2.245810412872472836e-02 9.641532259484958400e-02
2.650848271446862782e+03 4.807744620252025342e-02 2.204676214114884708e-02 9.893091974147805168e-02
2.660851472471190846e+03 4.940102512580924615e-02 2.306615609048746907e-02 9.693607437080502265e-02
2.670854673495518455e+03 4.958246431563006346e-02 2.217775586761427248e-02 9.783949404845611320e-02
2.680857874519846519e+03 5.171920695116084821e-02 2.378159840004517162e-02 9.974709914646860687e-02
2.690861075544174128e+03 5.171209304060008644e-02 2.484097819473296900e-02 9.973811118604627990e-02
2.700864276568501737e+03 5.513591499712882510e-02 2.670942953426105534e-02 1.037762189532806384e-01
2.710867477592829800e+03 5.281375436355792430e-02 2.391047098225945050e-02 1.010935852472656105e-01
2.720870678617157409e+03 5.381563328475915536e-02 2.607977517284250021e-02 1.073901644708888242e-01
2.730873879641485473e+03 5.535399152264508515e-02 2.501673075740840080e-02 1.074142686089279708e-01
2.740877080665813082e+03 5.373584230048765453e-02 2.498786331258143895e-02 1.069195692066110814e-01
2.750880281690140691e+03 5.371706299758583630e-02 2.581196703132402140e-02 1.002167194297135105e-01
2.760883482714468755e+03 5.527796412517556324e-02 2.598202016838507475e-02 1.017565290756254764e-01
2.770886683738796364e+03 5.532619587630552282e-02 2.669786459089474803e-02 1.084217664879244258e-01
2.780889884763124428e+03 5.609730863160767439e-02 2.614374176236065883e-02 1.064490509946443841e-01
2.790893085787452037e+03 5.418517794849692093e-02 2.598246015032161516e-02 1.005072436269934671e-01
2.800896286811779646e+03 5.319783531019245393e-02 2.604772847541654904e-02 9.915146318227680000e-02
2.810899487836107710e+03 5.516324048592572554e-02 2.505329857164817486e-02 9.955385534338830056e-02
2.820902688860435319e+03 5.180242675328512042e-02 2.522235338572026420e-02 9.833276183540651250e-02
2.830905889884762928e+03 5.077254458101301826e-02 2.296897693971359372e-02 9.946456502631584318e-02
2.840909090909090992e+03 5.175090121750713229e-02 2.299670153431978073e-02 9.738540568425986532e-02
2.850912291933418601e+03 5.150600670483208160e-02 2.310483332185607822e-02 9.918025199205864062e-02
2.860915492957746665e+03 5.174645308910200830e-02 2.386184245262190640e-02 1.025495441626867871e-01
2.870918693982074274e+03 5.069255459504904554e-02 2.305002927961537912e-02 9.927348443690771351e-02
2.880921895006401883e+03 5.163761057741540067e-02 2.529036974070213856e-02 9.776616477276736661e-02
2.890925096030729947e+03 5.702708303334898948e-02 2.689580162832988855e-02 1.048078304313398990e-01
2.900928297055057556e+03 5.210817456485705712e-02 2.444537895692850196e-02 1.030135245353777929e-01
2.910931498079385619e+03 4.969913950601804326e-02 2.379148064421708619e-02 1.011681373262132977e-01
2.920934699103713228e+03 5.084837464877597218e-02 2.453033303604545273e-02 9.790333678677141938e-02
2.930937900128040837e+03 5.060756783261703001e-02 2.421882235464718758e-02 1.002281684649618532e-01
2.940941101152368901e+03 5.168913777367470375e-02 2.389218227593024879e-02 1.019172622716622983e-01
2.950944302176696510e+03 5.043237968001311466e-02 2.202221903654591126e-02 1.008273979748938454e-01
2.960947503201024119e+03 4.988400340819813122e-02 2.109699727499328437e-02 9.612344203179776225e-02
2.970950704225352183e+03 4.978251959133161986e-02 2.312632664825188186e-02 9.398183310743622731e-02
2.980953905249679792e+03 5.059174156078375534e-02 2.340121752821324591e-02 1.000188233265563859e-01
2.990957106274007856e+03 5.172291655596521903e-02 2.373891709166770989e-02 9.777444415837997782e-02
3.000960307298335465e+03 5.153111862245951524e-02 2.363633430137444466e-02 9.621122947528994163e-02
3.010963508322663074e+03 5.132116805917992519e-02 2.222891941069598046e-02 9.859254844329308487e-02
3.020966709346991138e+03 5.157392522529831436e-02 2.348784998360475829e-02 1.030006783772912521e-01
3.030969910371318747e+03 5.232560351275004212e-02 2.442362753229112768e-02 9.661699666870243730e-02
3.040973111395646811e+03 5.124177143870048412e-02 2.434654818839349436e-02 9.810658751970441349e-02
3.050976312419974420e+03 5.284621769373083755e-02 2.407395476559454767e-02 1.014762043195236302e-01
3.060979513444302029e+03 5.144084457033515356e-02 2.473743242800459374e-02 1.020571883964371540e-01
3.070982714468630093e+03 5.127956131926580952e-02 2.435602863724046357e-02 9.804505756316693466e-02
3.080985915492957702e+03 5.398971557544261779e-02 2.507962916709551363e-02 1.014299845048644844e-01
3.090989116517285311e+03 5.185427641776125390e-02 2.487232039504231121e-02 1.012002928411972064e-01
3.100992317541613374e+03 5.163768398235937113e-02 2.277064756171246970e-02 1.019940951720105654e-01
3.110995518565940984e+03 5.272020154512254558e-02 2.344271357412763129e-02 1.033783995580875442e-01
3.120998719590269047e+03 5.152698190155146490e-02 2.366543739188852608e-02 1.037058609555035482e-01
3.131001920614596656e+03 5.092376416195514705e-02 2.436455746620511467e-02 1.014199004132435439e-01
3.141005121638924265e+03 5.301208642691721679e-02 2.594540544472561175e-02 1.040713787058024642e-01
3.151008322663252329e+03 5.368498477741112662e-02 2.565999472990965202e-02 1.031815122458323436e-01
3.161011523687579938e+03 5.486953685073718556e-02 2.491720114027542662e-02 1.031131527352975724e-01
3.171014724711908002e+03 5.237811607959870497e-02 2.394733328904943837e-02 1.047186661189642987e-01
3.181017925736235611e+03 5.328576962518859206e-02 2.537447520417332805e-02 1.041948656178958432e-01
3.191021126760563220e+03 5.577605860739597715e-02 2.629372091197010319e-02 1.058297265234713486e-01
3.201024327784891284e+03 5.445838417174862084e-02 2.586842176476577757e-02 1.018777910264981740e-01
3.211027528809218893e+03 5.221130272874812545e-02 2.615198300416268079e-02 1.000243550981747831e-01
3.221030729833546957e+03 5.376122879677079636e-02 2.589009739764948359e-02 1.026274717783427493e-01
3.231033930857874566e+03 5.355727129848833479e-02 2.516332788937813286e-02 1.009575025350193667e-01
3.241037131882202175e+03 5.488546872966868634e-02 2.540696489449068007e-02 1.010826566771414053e-01
3.251040332906530239e+03 5.511081685972935018e-02 2.435465992060675475e-02 1.029475369072303248e-01
3.261043533930857848e+03 5.477118283653614056e-02 2.540972628943731840e-02 1.037494235498645778e-01
3.271046734955185457e+03 5.814634415483711793e-02 2.698736118593145217e-02 1.094227833484674034e-01
3.281049935979513521e+03 5.732957959370572204e-02 2.669356200097105364e-02 1.070628821563387179e-01
3.291053137003841130e+03 5.573075449857278763e-02 2.697243208312303381e-02 1.063326991384122844e-01
3.301056338028169193e+03 5.771103019838444426e-02 2.919389838636121323e-02 1.115613070375974097e-01
3.311059539052496802e+03 6.545213189130735798e-02 3.090818025537780955e-02 1.177343935712749923e-01
3.321062740076824412e+03 6.567891666012266871e-02 3.290297891172210693e-02 1.228930733808052955e-01
3.331065941101152475e+03 6.986787927718678126e-02 3.040673387736679903e-02 1.184240670235419679e-01
3.341069142125480084e+03 6.821538140111960136e-02 3.320142879199067948e-02 1.212178397917299255e-01
3.351072343149808148e+03 6.588631053362888068e-02 3.214138737133832163e-02 1.187003615281210789e-01
3.361075544174135757e+03 6.129877000315162028e-02 2.887961247535898376e-02 1.116804783765187742e-01
3.371078745198463366e+03 6.176482107388747700e-02 2.865180836439331497e-02 1.093381060117083192e-01
3.381081946222791430e+03 5.886712871755323678e-02 2.910761822517075534e-02 1.086630491907412815e-01
3.391085147247119039e+03 5.887535633965666759e-02 2.775540598823768995e-02 1.065111921804322986e-01
3.401088348271446648e+03 5.740075798902943144e-02 2.627978911061697870e-02 1.101700469269124988e-01
3.411091549295774712e+03 5.866944214188302836e-02 2.647425035984734762e-02 1.091693727818659337e-01
3.421094750320102321e+03 5.750288587845327204e-02 2.819262799056421187e-02 1.100669982268619035e-01
3.431097951344430385e+03 5.773253108428241104e-02 2.664128175660499323e-02 1.109322961467295726e-01
3.441101152368757994e+03 5.916058825003946142e-02 2.706376242782681033e-02 1.039883758059292618e-01
3.451104353393085603e+03 5.702996172642489647e-02 2.816178085796322561e-02 1.094631346623686219e-01
3.461107554417413667e+03 5.895936124221758806e-02 2.946790137568507453e-02 1.057159853490131501e-01
3.471110755441741276e+03 5.764590930255843182e-02 2.777982539491957725e-02 1.036208869758149936e-01
3.481113956466069340e+03 5.841756893823388946e-02 2.743108694370707118e-02 1.081775337599529402e-01
3.491117157490396949e+03 5.790572129746637819e-02 2.796472197667419779e-02 1.085704172463447387e-01
3.501120358514724558e+03 6.049070687090254972e-02 2.906885406529843494e-02 1.103488574985916626e-01
3.511123559539052621e+03 5.971307589461594817e-02 2.733267743848025524e-02 1.079311842124659054e-01
3.521126760563380230e+03 5.858960163521649556e-02 2.911797201439146610e-02 1.075756734079523214e-01
3.531129961587708294e+03 6.602648888306826558e-02 3.016659139305388065e-02 1.136687352060191947e-01
3.541133162612035903e+03 6.394207093313579449e-02 3.087754494247412981e-02 1.163443829474881813e-01
3.551136363636363512e+03 6.078161430052538006e-02 3.036866839028539225e-02 1.127095275412880182e-01
3.561139564660691576e+03 6.201752512713343268e-02 3.049468149722653690e-02 1.126765025577586843e-01
3.571142765685019185e+03 6.505476947044992742e-02 3.095700286379836005e-02 1.216603470994419289e-01
3.581145966709346794e+03 6.881858846798287466e-02 3.437116054067899940e-02 1.224528079134214742e-01
3.591149167733674858e+03 6.604803363485985124e-02 3.282502103017084782e-02 1.201750341677079725e-01
3.601152368758002467e+03 6.609467926578184438e-02 3.109760162571189104e-02 1.249058415799346455e-01
3.611155569782330531e+03 6.877764771130048804e-02 3.371377925834752320e-02 1.234104885152422781e-01
3.621158770806658140e+03 6.978209621426569031e-02 3.351299932197174258e-02 1.234454533411256660e-01
3.631161971830985749e+03 7.339000252795087331e-02 3.580784099442373830e-02 1.258330339155995792e-01
3.641165172855313813e+03 7.691735093348536778e-02 3.493870659327486666e-02 1.289005977601267450e-01
3.651168373879641422e+03 7.615917878869657431e-02 3.632374729055092705e-02 1.314148191576777758e-01
3.661171574903969486e+03 7.471849237227659590e-02 3.535431956912026691e-02 1.315978049529664407e-01
3.671174775928297095e+03 7.615415701538208459e-02 3.581982703427596254e-02 1.321811807014312001e-01
3.681177976952624704e+03 7.253880902359134686e-02 3.447036609321479927e-02 1.251805577079294352e-01
3.691181177976952767e+03 7.121748380358082497e-02 3.405915098006185443e-02 1.237201915848991085e-01
3.701184379001280377e+03 6.816505169503338235e-02 3.217134075854407443e-02 1.204069951490282092e-01
3.711187580025607986e+03 6.721869556824093539e-02 3.209135346940203415e-02 1.261545892185147455e-01
3.721190781049936049e+03 2.284332621541159403e-01 1.666785469295904709e-01 2.926663488212166708e-01
3.731193982074263658e+03 6.191760426627593850e-01 5.574689915247785787e-01 6.724657598232378630e-01
3.741197183098591722e+03 4.229728992280747391e-01 3.565134288475858559e-01 4.863083165098658900e-01
3.751200384122919331e+03 7.086838956509976251e-02 3.446568269280785718e-02 1.243494608047865380e-01
3.761203585147246940e+03 6.180568930008700779e-02 2.993720407146937060e-02 1.139464630818706886e-01
3.771206786171575004e+03 6.216870392115422805e-02 3.010661288237208300e-02 1.084185953472979608e-01
3.781209987195902613e+03 6.199659960711455253e-02 2.893067088065983533e-02 1.070342331741065828e-01
3.791213188220230677e+03 6.238857857677632124e-02 2.992309624901131823e-02 1.149266186558398767e-01
3.801216389244558286e+03 6.559633675890563786e-02 3.220783987338070309e-02 1.135688630832729223e-01
3.811219590268885895e+03 6.298489142468265134e-02 3.023343362293521436e-02 1.113381300484194841e-01
3.821222791293213959e+03 6.051578707501258786e-02 2.966541160976104291e-02 1.117853187888437766e-01
3.831225992317541568e+03 6.089846221916289659e-02 2.772938361347885086e-02 1.131978705131293089e-01
3.841229193341869177e+03 6.411777777758989605e-02 3.016094193878259694e-02 1.146300710630517999e-01
3.851232394366197241e+03 6.382941725892145313e-02 3.253039531047489941e-02 1.150189761198923133e-01
3.861235595390524850e+03 6.440840395737595925e-02 3.186547161480686452e-02 1.150919708984701750e-01
3.871238796414852914e+03 6.331820686048190983e-02 3.082985418302729499e-02 1.156789474580462024e-01
3.881241997439180523e+03 6.188541018540297950e-02 3.183016919439090459e-02 1.107221715308382703e-01
3.891245198463508132e+03 6.471822974722808708e-02 3.071043677267498023e-02 1.160328573931201784e-01
3.901248399487836195e+03 6.603992135151044718e-02 3.116009462558363974e-02 1.186280669714719488e-01
3.911251600512163805e+03 6.624044492672871709e-02 3.066487313442528215e-02 1.168137240143476002e-01
3.921254801536491868e+03 6.440005258801147214e-02 3.171131571320011389e-02 1.114782285095874681e-01
3.931258002560819477e+03 6.484745630312072073e-02 3.122915147428097227e-02 1.137665585627781195e-01
3.941261203585147086e+03 6.343310938965912582e-02 2.892908701168203991e-02 1.130516461846533816e-01
3.951264404609475150e+03 6.246614155866323653e-02 2.855088198313994463e-02 1.120043219734186135e-01
3.961267605633802759e+03 6.362573048437823731e-02 3.076815367857015440e-02 1.132641136242317076e-01
3.971270806658130823e+03 6.541306255010299886e-02 3.065675640219615514e-02 1.187472952922070668e-01
3.981274007682458432e+03 6.399768024514611298e-02 2.863362515491216231e-02 1.172449996145194934e-01
3.991277208706786041e+03 6.348285696692092250e-02 3.081999949302921191e-02 1.176339914931402719e-01
4.001280409731114105e+03 6.372733989574824731e-02 3.057614251245949211e-02 1.145468716038929163e-01
4.011283610755441714e+03 6.300064927800040626e-02 3.110535525030284562e-02 1.163949157840533932e-01
4.021286811779769323e+03 6.412837105747805355e-02 3.044195401797955211e-02 1.155603981538238789e-01
4.031290012804097387e+03 6.327501283788304620e-02 2.981028454151774323e-02 1.173473045101208062e-01
4.041293213828424996e+03 6.160777519995714463e-02 3.063587261441139478e-02 1.103168701288961828e-01
4.051296414852753060e+03 6.435662546248667459e-02 2.890951863266610217e-02 1.096622394150139485e-01
4.061299615877080669e+03 6.402708627618619586e-02 2.977090419752655148e-02 1.157414856993860125e-01
4.071302816901408278e+03 6.080870707564761668e-02 2.844780607786439458e-02 1.141267142983338062e-01
4.081306017925736342e+03 6.630540915365300270e-02 3.009817577071971159e-02 1.123596464813722828e-01
4.091309218950063951e+03 6.585210289764334424e-02 2.882215148681982128e-02 1.169797907178405372e-01
4.101312419974391560e+03 6.598216428221320706e-02 3.149280849675883259e-02 1.195848303705007581e-01
4.111315620998719169e+03 6.461452309753140666e-02 3.009234958974578086e-02 1.230141374397347581e-01
4.121318822023047687e+03 6.515031278015605276e-02 2.992735811371055946e-02 1.146480501668018376e-01
4.131322023047375296e+03 6.347765854317692635e-02 2.972523288498971766e-02 1.175941597188406712e-01
4.141325224071702905e+03 6.676387756012162888e-02 2.919792878691377866e-02 1.202826826513696407e-01
4.151328425096030514e+03 6.599038636367358934e-02 3.055354594367855336e-02 1.156979799598149422e-01
4.161331626120358123e+03 6.364573240747628535e-02 3.065468026994085105e-02 1.132430116341133081e-01
4.171334827144686642e+03 6.451609574180794393e-02 2.890715892583240604e-02 1.140062635996766383e-01
4.181338028169014251e+03 6.237545447899303652e-02 3.007288673698534434e-02 1.151136819118051963e-01
4.191341229193341860e+03 6.560550743803574003e-02 3.001178606526925044e-02 1.210448482604038062e-01
4.201344430217669469e+03 6.606388366707272031e-02 3.127537604499470991e-02 1.220729359341986286e-01
4.211347631241997078e+03 6.628875300406067428e-02 3.159068982340857562e-02 1.222274948864115612e-01
4.221350832266325597e+03 6.427331294194200961e-02 3.227787094630918396e-02 1.232559135620509977e-01
4.231354033290653206e+03 6.795341615772151900e-02 3.274071413553804322e-02 1.152283082011971854e-01
4.241357234314980815e+03 6.847605209150180172e-02 3.252303473272388085e-02 1.227502476378477952e-01
4.251360435339308424e+03 6.601627922065915477e-02 3.258761073549702042e-02 1.254852607749259441e-01
4.261363636363636033e+03 6.801688686268125839e-02 3.174510643469091731e-02 1.302178755743066962e-01
4.271366837387964551e+03 6.829408330046370101e-02 3.215937623840266213e-02 1.306412520013509326e-01
4.281370038412292161e+03 7.057432297630773788e-02 3.345058256517493417e-02 1.346380174859604095e-01
4.291373239436619770e+03 6.778398269957511268e-02 3.199176508129328994e-02 1.324091918698718784e-01
4.301376440460947379e+03 6.939464633744971134e-02 3.350667554108466284e-02 1.345311492352338767e-01
4.311379641485274988e+03 7.146729410887175948e-02 3.165912397501492032e-02 1.378239370631371974e-01
4.321382842509603506e+03 7.041540348134570082e-02 3.220397025767538640e-02 1.466539246409665487e-01
4.331386043533931115e+03 7.417149961155784788e-02 3.240916997498220070e-02 1.470676506783463733e-01
4.341389244558258724e+03 7.425250258307290741e-02 3.316645007458249306e-02 1.500864769317446501e-01
4.351392445582586333e+03 8.112090438283182936e-02 3.554575918128526080e-02 1.553964554995641290e-01
4.361395646606913942e+03 7.549726462736018606e-02 3.484114554803349750e-02 1.562257337546648917e-01
4.371398847631241551e+03 7.660249423888690345e-02 3.554258082688131065e-02 1.544606256261266686e-01
4.381402048655570070e+03 7.911171673067979304e-02 3.666814115469973351e-02 1.544048653853116737e-01
4.391405249679897679e+03 7.759895977198880135e-02 3.642331704733985098e-02 1.511942553279984613e-01
4.401408450704225288e+03 7.638383827036766827e-02 3.519588894800286527e-02 1.513002463762515848e-01
4.411411651728552897e+03 7.804256111703924970e-02 3.778957501735945301e-02 1.517902254939102746e-01
4.421414852752880506e+03 8.647274050684225499e-02 4.222079279048727984e-02 1.633531251655111483e-01
4.431418053777209025e+03 8.370368616755406721e-02 4.229159774251772808e-02 1.627616624947898771e-01
4.441421254801536634e+03 7.588787952889633481e-02 3.556867937963553716e-02 1.549540050876692665e-01
4.451424455825864243e+03 7.891043398980360224e-02 3.290584453989993385e-02 1.556291493763926059e-01
4.461427656850191852e+03 7.897709677726244548e-02 3.720793420733070622e-02 1.538354324731153189e-01
4.471430857874519461e+03 8.088253950738762132e-02 3.778945245670390501e-02 1.604599063962655614e-01
4.481434058898847979e+03 8.411696925704763295e-02 3.781214407976862812e-02 1.649453187886298355e-01
4.491437259923175588e+03 8.579557480211581766e-02 3.767191598810537556e-02 1.689378764865352711e-01
4.501440460947503198e+03 8.703442700554997469e-02 4.069047208535259141e-02 1.803257802660750420e-01
4.511443661971830807e+03 9.009721182116277316e-02 4.168095629562751370e-02 1.735965369285186466e-01
4.521446862996158416e+03 9.015161450063663429e-02 4.217262643139385592e-02 1.765344765359058710e-01
4.531450064020486934e+03 9.435789556603120520e-02 4.277367954225387570e-02 1.724371819825779306e-01
4.541453265044814543e+03 9.446999044038997817e-02 4.206689577920107170e-02 1.745031677147878268e-01
4.551456466069142152e+03 9.526650405556078005e-02 4.208726608855853368e-02 1.795532136526032108e-01
4.561459667093469761e+03 9.384545498443895573e-02 4.261940922411169147e-02 1.919221654652527864e-01
4.571462868117797370e+03 9.816224221579017417e-02 4.369206892099383732e-02 1.876735278824121222e-01
4.581466069142125889e+03 9.867210332393258621e-02 4.484445871036142617e-02 2.057503227929180223e-01
4.591469270166453498e+03 1.016258107168922370e-01 4.543545574416193306e-02 2.070378768354707855e-01
4.601472471190781107e+03 1.038548079794115453e-01 5.028601710732325675e-02 2.092206041875306621e-01
4.611475672215108716e+03 1.072694614541562924e-01 5.027143823724128380e-02 2.122572619550153472e-01
4.621478873239436325e+03 1.095182376035597205e-01 4.905108216410220684e-02 2.103068792495628447e-01
4.631482074263764844e+03 1.085120104471220953e-01 5.016646408253536138e-02 2.110425044592951771e-01
4.641485275288092453e+03 1.105607972911043513e-01 5.323493416753285329e-02 2.157048345713323267e-01
4.651488476312420062e+03 1.082699015136328324e-01 5.040897110159143352e-02 2.184869745178847078e-01
4.661491677336747671e+03 1.094286949988954732e-01 4.945059918056467219e-02 2.069713678577467242e-01
4.671494878361075280e+03 1.124306273249772448e-01 5.067410757372286384e-02 2.115825083752796432e-01
4.681498079385402889e+03 1.134260458221200418e-01 5.109681210992141065e-02 2.153081092893760207e-01
4.691501280409731407e+03 1.151824362860874168e-01 5.318519362371924852e-02 2.293989159852893867e-01
4.701504481434059016e+03 1.123561023299437800e-01 5.169675312054736876e-02 2.355711814887648803e-01
4.711507682458386626e+03 1.118081746058881970e-01 5.013835207112223719e-02 2.296822916630475997e-01
4.721510883482714235e+03 1.101583797661785519e-01 5.468088653955479467e-02 2.246793133467229198e-01
4.731514084507041844e+03 1.095924559650003488e-01 4.822368869168721511e-02 2.209832253023789883e-01
4.741517285531370362e+03 1.055805818428804527e-01 4.722103248753283661e-02 2.150473026253819364e-01
4.751520486555697971e+03 1.101076413130767234e-01 4.996695258538847578e-02 2.299768052094426640e-01
4.761523687580025580e+03 1.050259021492768174e-01 4.951480344862770056e-02 2.313898063706840147e-01
4.771526888604353189e+03 1.102347521233068145e-01 4.886738586151073704e-02 2.289493318771933239e-01
4.781530089628680798e+03 1.079718128107419878e-01 5.021877950901419002e-02 2.360656481952194130e-01
4.791533290653009317e+03 1.065786142312984824e-01 4.796774076078816340e-02 2.339804858176457170e-01
4.801536491677336926e+03 1.062908435396671125e-01 4.544545392167669701e-02 2.493872306045771536e-01
4.811539692701664535e+03 1.053616554778167846e-01 4.733812020702345136e-02 2.572501471153262886e-01
4.821542893725992144e+03 1.129514384452237064e-01 4.747812642789378534e-02 2.471618194282343417e-01
4.831546094750319753e+03 1.164138469248746505e-01 5.143137463742240845e-02 2.429029412993894965e-01
4.841549295774648272e+03 1.168382715357068474e-01 5.198464541750014850e-02 2.462404580771279383e-01
4.851552496798975881e+03 1.199440677590882937e-01 5.496170822356843261e-02 2.478551098181784040e-01
4.861555697823303490e+03 1.235594419566151403e-01 5.598739911433416039e-02 2.478665401935156165e-01
4.871558898847631099e+03 1.207936991819333755e-01 5.627189030868127995e-02 2.527634670865743782e-01
4.881562099871958708e+03 1.161830390253829892e-01 5.453610772370354881e-02 2.342261878515510820e-01
4.891565300896287226e+03 1.129486080216016430e-01 5.237819659326740929e-02 2.358869575023595511e-01
4.901568501920614835e+03 1.138222307141337625e-01 5.398389835358422678e-02 2.513654499032535461e-01
4.911571702944942444e+03 1.138979925876905663e-01 4.897349242067773611e-02 2.449791776271431354e-01
4.921574903969270053e+03 1.059743231476879821e-01 5.166120334757073884e-02 2.301825785207660402e-01
4.931578104993597663e+03 1.077629532510891441e-01 4.837038472145677864e-02 2.347123766136164635e-01
4.941581306017926181e+03 1.053089009812758770e-01 4.465542710015830974e-02 2.244165925323778898e-01
4.951584507042253790e+03 1.025610546782324689e-01 4.482597173557020809e-02 2.171960080660071679e-01
4.961587708066581399e+03 9.726699393584423148e-02 4.599086882509482305e-02 2.131392983412764286e-01
4.971590909090909008e+03 9.637087589279155764e-02 4.201888094798644085e-02 2.146702871162699533e-01
4.981594110115236617e+03 9.659098853974497356e-02 4.452112801080422566e-02 2.103354765020482575e-01
4.991597311139564226e+03 9.172448642882513603e-02 4.028495252929559928e-02 2.147924089412175663e-01
5.001600512163892745e+03 8.816720408503510298e-02 3.771219453182739212e-02 2.028108198046123800e-01
5.011603713188220354e+03 8.910974842512107974e-02 4.111689142245307516e-02 2.197247574200279219e-01
5.021606914212547963e+03 9.246455692572033702e-02 4.222121118982671839e-02 2.216323406077221059e-01
5.031610115236875572e+03 8.981383820288510456e-02 3.900151289625255341e-02 2.252342477957368638e-01
5.041613316261203181e+03 9.087893479854111667e-02 4.196230498480169047e-02 2.368266415653751955e-01
5.051616517285531700e+03 9.190102358547208583e-02 4.253558571319669690e-02 2.335467610861968468e-01
5.061619718309859309e+03 9.218245641904002086e-02 4.322774067462217817e-02 2.394708801990254321e-01
5.071622919334186918e+03 9.551894838194587012e-02 4.019243133655361899e-02 2.457385139477800684e-01
5.081626120358514527e+03 9.374913183305022546e-02 4.298479522463394265e-02 2.370104166895407316e-01
5.091629321382842136e+03 9.212105230451203552e-02 4.362555645162215223e-02 2.415850033939865860e-01
5.101632522407170654e+03 9.200242381194698171e-02 4.158060924304206318e-02 2.384788135274350518e-01
5.111635723431498263e+03 9.217049982613510772e-02 4.296757333911253862e-02 2.521995837529765749e-01
5.121638924455825872e+03 9.386246715869399349e-02 4.389876419640940941e-02 2.793403680649918508e-01
5.131642125480153481e+03 9.353865028476586463e-02 4.161414382060693584e-02 2.719129408918461444e-01
5.141645326504481091e+03 9.344376677510912721e-02 4.064202109456922785e-02 2.753560652009250931e-01
5.151648527528809609e+03 9.699101685345895563e-02 4.268481296830650001e-02 2.941483795311052862e-01
5.161651728553137218e+03 9.459002547914692471e-02 4.389386343577694055e-02 2.983483767454463975e-01
5.171654929577464827e+03 9.712399206844314625e-02 4.377394029238531464e-02 2.819514604799754354e-01
5.181658130601792436e+03 9.870759322769234734e-02 4.534681040425581761e-02 3.041794319832004101e-01
5.191661331626120045e+03 9.806547630960907314e-02 4.452637879038276458e-02 3.160801189213323648e-01
5.201664532650448564e+03 9.760011585038622095e-02 4.110735790912574406e-02 3.037911925344788378e-01
5.211667733674776173e+03 9.708036747116331744e-02 4.166560044631070769e-02 3.174288424547832554e-01
5.221670934699103782e+03 9.954744129096046446e-02 4.381199714891157587e-02 3.151520312085672182e-01
5.231674135723431391e+03 9.751051627551317325e-02 4.161789609972518789e-02 3.142602121429803330e-01
5.241677336747759000e+03 1.000333737611793644e-01 4.534861912774305198e-02 3.096970194371270746e-01
5.251680537772087519e+03 1.057937309910702978e-01 4.682011039758419285e-02 3.107450534570124212e-01
5.261683738796415128e+03 1.070785579634437878e-01 4.647722855480326820e-02 3.301123859021410922e-01
5.271686939820742737e+03 1.039512732823350827e-01 4.529357208574765620e-02 3.381367145609639469e-01
5.281690140845070346e+03 1.059066878385857835e-01 4.850767184341333443e-02 3.510054702196740983e-01
5.291693341869397955e+03 1.033952533562976922e-01 4.726857955755253693e-02 3.562294475053861542e-01
5.301696542893725564e+03 1.077474684288881324e-01 4.860331503496435196e-02 3.551673315411219556e-01
5.311699743918054082e+03 1.068563369188304524e-01 4.732911514174672346e-02 3.524977468020761284e-01
5.321702944942381691e+03 1.092204039667434012e-01 4.729115790824186399e-02 3.751730901323863665e-01
5.331706145966709300e+03 1.103715977117305236e-01 4.801592921992194757e-02 3.650757577669964116e-01
5.341709346991036909e+03 1.143170479252794552e-01 4.971708085860535725e-02 3.579641658463500464e-01
5.351712548015364519e+03 1.151966443896385722e-01 4.688190048382108455e-02 3.667025431069075858e-01
5.361715749039693037e+03 1.152734073034375611e-01 4.629993752942236640e-02 3.855734661598013702e-01
5.371718950064020646e+03 1.192541457161631485e-01 5.027294858345773138e-02 3.810111839568892100e-01
5.381722151088348255e+03 1.146304450968598510e-01 5.034445505388417813e-02 3.903127871229742918e-01
5.391725352112675864e+03 1.195375485939085686e-01 5.051202843891897803e-02 3.903920084541899760e-01
5.401728553137003473e+03 1.212248836841570143e-01 5.376165502331457791e-02 3.889545544911965358e-01
5.411731754161331992e+03 1.194710881915960060e-01 5.131361958246060534e-02 3.887743339398057607e-01
5.421734955185659601e+03 1.187923168128990070e-01 5.192555514713081272e-02 3.711966322146534325e-01
5.431738156209987210e+03 1.205666577538206802e-01 5.170195090801934373e-02 3.765454339378353499e-01
5.441741357234314819e+03 1.237939530212401607e-01 5.219826636115543206e-02 3.774264659025543533e-01
5.451744558258642428e+03 1.221384244328222318e-01 5.297045377213348283e-02 3.554420033028469206e-01
5.461747759282970947e+03 1.214737412628821428e-01 4.718483429083968062e-02 3.755341973650562770e-01
5.471750960307298556e+03 1.175499269465230950e-01 4.954831583035063797e-02 3.792235140068226928e-01
5.481754161331626165e+03 1.228267544457653376e-01 4.966043516504498739e-02 3.815928807527864119e-01
5.491757362355953774e+03 1.256585607868385690e-01 5.317261969596651788e-02 4.103645056663205448e-01
5.501760563380281383e+03 1.250095463490659420e-01 5.056157732410893058e-02 4.025376221304803326e-01
5.511763764404609901e+03 1.263905222493550695e-01 5.278245641307357378e-02 4.065251502569676711e-01
5.521766965428937510e+03 1.324825107834242122e-01 5.616265410055794327e-02 3.957525461314697623e-01
5.531770166453265119e+03 1.336699517948049809e-01 6.170396833271892673e-02 3.932442931965173805e-01
5.541773367477592728e+03 1.425778149021714736e-01 6.591541343089504790e-02 4.316627571865992996e-01
5.551776568501920337e+03 1.375159872116839543e-01 5.838167225069026967e-02 4.290207109496667615e-01
5.561779769526248856e+03 1.357443469024164906e-01 5.365540279112505223e-02 4.245280359596383390e-01
5.571782970550576465e+03 1.360016729702054339e-01 5.747080574732260638e-02 4.468150235451050500e-01
5.581786171574904074e+03 1.478268200560108880e-01 6.423380640300284383e-02 4.489162189424766303e-01
5.591789372599231683e+03 5.045114852464653854e-01 3.831731761166373706e-01 7.207393096459284720e-01
5.601792573623559292e+03 7.603899246796472777e-01 6.359506561322628704e-01 9.731879196997003101e-01
5.611795774647886901e+03 3.317115005658475835e-01 2.136008171233025332e-01 6.164680853974048302e-01
5.621798975672215420e+03 1.580777799156611041e-01 6.216350079730948580e-02 5.451466950944591217e-01
5.631802176696543029e+03 1.520445879159580127e-01 6.139129649602336619e-02 5.405393910248192935e-01
5.641805377720870638e+03 1.490031409404636575e-01 6.029072552235570370e-02 5.561046183672869736e-01
5.651808578745198247e+03 1.591932028981382086e-01 6.741313723684774772e-02 5.648642802797643192e-01
5.661811779769525856e+03 1.651931057638724998e-01 7.058703839874436170e-02 5.234735698686333594e-01
5.671814980793854374e+03 1.598320719190564065e-01 6.239309592518347408e-02 5.057114035025571663e-01
5.681818181818181984e+03 1.575413539134295771e-01 6.330295364057830776e-02 4.966489296965648781e-01
5.691821382842509593e+03 1.563398958145084117e-01 6.421104833737846518e-02 4.578560105388532753e-01
5.701824583866837202e+03 1.627845142502502562e-01 6.190776682588277485e-02 4.487592108976133920e-01
5.711827784891164811e+03 1.570997717808996774e-01 6.229911667496853406e-02 4.703090520911953898e-01
5.721830985915493329e+03 1.558649953304981628e-01 6.333189048912263308e-02 4.656490990411630837e-01
5.731834186939820938e+03 1.631943217808376478e-01 6.636580523849294755e-02 4.511473196457558843e-01
5.741837387964148547e+03 1.595495960959380510e-01 6.221918769326127696e-02 4.622205629632822887e-01
5.751840588988476156e+03 1.706794872070698521e-01 7.100386839859323951e-02 4.709362261935778893e-01
5.761843790012803765e+03 1.661454614274191499e-01 6.566577469945644729e-02 4.583618620815680944e-01
5.771846991037132284e+03 1.664869753129265828e-01 6.894733604707034558e-02 4.690581931711450547e-01
5.781850192061459893e+03 1.678088895859022323e-01 6.843841056558015723e-02 4.692053946174045143e-01
5.791853393085787502e+03 1.752868774947738406e-01 6.684881639370744699e-02 4.758729735357384305e-01
5.801856594110115111e+03 1.709072371024724646e-01 7.000352009754233495e-02 5.052147675395134430e-01
5.811859795134442720e+03 1.770402055948557263e-01 7.735772199396939719e-02 5.193260037792324368e-01
5.821862996158771239e+03 1.772121325598018104e-01 7.011870184613407109e-02 5.032636036872693008e-01
5.831866197183098848e+03 1.836245031820286921e-01 7.743815988523078397e-02 5.151128899505328373e-01
5.841869398207426457e+03 1.987439551886388545e-01 8.233057510980798521e-02 5.261023921501488676e-01
5.851872599231754066e+03 1.936026812403646991e-01 7.524598078994723660e-02 4.925125961552204723e-01
5.861875800256081675e+03 1.858583302110139723e-01 7.626271962737650456e-02 5.349881618127295679e-01
5.871879001280410193e+03 1.842462049047120520e-01 7.160674487741994221e-02 5.133177930305510284e-01
5.881882202304737802e+03 1.829725564116515268e-01 7.134428091621326795e-02 5.003052966736761809e-01
5.891885403329065412e+03 1.876475516972954116e-01 7.718067235245167079e-02 5.174259399643192925e-01
5.901888604353393021e+03 1.896333238951641020e-01 7.484340991829437073e-02 5.257127283244203975e-01
5.911891805377720630e+03 1.895222294232838112e-01 7.444904050600105461e-02 5.004143815106488757e-01
5.921895006402048239e+03 1.871579985153125070e-01 7.577126953475489535e-02 5.224055086208745369e-01
5.931898207426376757e+03 1.845709227336329028e-01 7.714658768023902047e-02 5.331813535652460967e-01
5.941901408450704366e+03 1.799532838806024715e-01 7.185976879907217396e-02 5.138207869210614787e-01
5.951904609475031975e+03 1.826883089282769213e-01 7.133693405321014924e-02 5.267152186319022933e-01
5.961907810499359584e+03 1.801598820271305412e-01 7.332740562554208863e-02 5.172608518899679542e-01
5.971911011523687193e+03 1.863371998735516843e-01 7.725197746721326753e-02 5.263773057166837299e-01
5.981914212548015712e+03 1.875656810729633972e-01 7.803121297017028002e-02 5.356623760166813186e-01
5.991917413572343321e+03 1.827170626174277890e-01 7.270621149007085171e-02 5.515521055781669180e-01
6.001920614596670930e+03 1.873332498055586548e-01 7.556449830387565458e-02 5.306456273390366407e-01
6.011923815620998539e+03 1.811712283167423998e-01 7.178088957362685485e-02 5.186670707898310972e-01
6.021927016645326148e+03 1.844610700302291295e-01 7.649718720542243722e-02 5.050268312583571229e-01
6.031930217669654667e+03 1.891107305233367397e-01 7.276719656372189482e-02 5.522268111723852568e-01
6.041933418693982276e+03 1.881244494156648073e-01 7.858499681215619370e-02 5.494560420971211778e-01
6.051936619718309885e+03 1.999708438967413848e-01 7.855838127952528838e-02 5.459751320369140570e-01
6.061939820742637494e+03 1.953474618309898048e-01 7.508993063444005522e-02 5.393102885070700792e-01
6.071943021766965103e+03 1.818561623625292445e-01 7.277981233030730857e-02 5.319896945598365789e-01
6.081946222791293621e+03 1.793581178835259859e-01 7.332474506792119318e-02 5.460596605862787500e-01
6.091949423815621230e+03 1.848325491811718957e-01 7.065314509268516563e-02 5.525419600488042926e-01
6.101952624839948840e+03 1.862141360145150304e-01 7.114686872869656342e-02 5.232460576678188424e-01
6.111955825864276449e+03 1.905979974803519716e-01 7.434329580081475153e-02 5.355812539584409171e-01
6.121959026888604058e+03 1.837467019221842301e-01 7.743028520220102129e-02 5.455196496212786350e-01
6.131962227912932576e+03 1.765994490094129621e-01 7.896968599949746870e-02 5.577498184499298794e-01
6.141965428937260185e+03 1.839054195869735675e-01 7.439888425799408289e-02 5.612646500871625310e-01
6.151968629961587794e+03 1.859672455074015129e-01 7.187091117559894771e-02 5.401585859034646608e-01
6.161971830985915403e+03 1.809748614502687813e-01 6.829452083723906719e-02 5.314057183276137408e-01
6.171975032010243012e+03 1.814843883683578685e-01 7.137745216513698143e-02 5.499450332474368208e-01
6.181978233034570621e+03 1.754080786151861471e-01 7.515813752022885985e-02 5.500823141539659122e-01
6.191981434058899140e+03 1.862425497212654990e-01 7.342573129358853645e-02 5.557349763918442154e-01
6.201984635083226749e+03 1.894537467802824282e-01 7.292485088912299684e-02 5.389399635167572145e-01
6.211987836107554358e+03 1.941151006259996536e-01 7.940033896704883076e-02 5.417869587880448368e-01
6.221991037131881967e+03 1.857837681237365368e-01 6.636989904299217535e-02 5.574230018906130013e-01
6.231994238156209576e+03 1.891582618299698093e-01 8.242441331500807711e-02 5.589245015318494714e-01
6.241997439180538095e+03 1.952886497337615879e-01 7.902833933975998704e-02 5.592476847849600086e-01
6.252000640204865704e+03 1.904579350740966126e-01 7.773568632743742268e-02 5.597885985013849597e-01
6.262003841229193313e+03 1.845656239790114672e-01 7.133882076679422257e-02 5.582467477621717578e-01
6.272007042253520922e+03 1.765089765578908010e-01 7.329758733749379418e-02 5.559692185275244558e-01
6.282010243277848531e+03 1.792026859669862970e-01 7.023072675896717409e-02 5.602760880321806525e-01
6.292013444302177049e+03 1.884942786769321088e-01 7.229813012684452311e-02 5.127164946656519451e-01
6.302016645326504658e+03 1.804220877740835283e-01 7.208100954310291131e-02 5.263873667581645543e-01
6.312019846350832267e+03 1.729312145696602632e-01 7.260610813073475889e-02 5.368623553990696795e-01
6.322023047375159877e+03 1.731351372807845845e-01 7.230155638606189372e-02 5.309564968004565344e-01
6.332026248399487486e+03 1.820319837041302069e-01 7.449720074780569190e-02 5.354455134560018870e-01
6.342029449423816004e+03 1.874658354614398004e-01 7.440707880184133094e-02 5.285160904698691375e-01
6.352032650448143613e+03 1.737230406080705059e-01 6.819738258843252576e-02 5.399637174671787498e-01
6.362035851472471222e+03 1.805959171833925736e-01 7.050440775637066559e-02 5.581178516290625780e-01
6.372039052496798831e+03 1.839477116597327822e-01 7.518306279037863249e-02 5.298281590798091800e-01
6.382042253521126440e+03 1.714152264388760227e-01 7.032378607548042670e-02 5.489139876348975156e-01
6.392045454545454959e+03 1.760328549728533420e-01 7.572876011409312991e-02 5.373865686866606817e-01
6.402048655569782568e+03 1.901840112753273027e-01 7.024869551081967811e-02 5.370902852516833414e-01
6.412051856594110177e+03 1.791683418379842185e-01 6.932663443877012943e-02 5.395714916919172044e-01
6.422055057618437786e+03 1.792562484262764100e-01 7.017977546009102063e-02 5.547637749403651064e-01
6.432058258642765395e+03 1.793580386418245631e-01 6.993472469888498133e-02 5.552997927325613592e-01
6.442061459667093914e+03 1.781528568177594696e-01 7.059352907194935134e-02 5.595907732420214442e-01
6.452064660691421523e+03 1.735784308940900300e-01 6.833953720139453181e-02 5.502954411404109569e-01
6.462067861715749132e+03 1.764389597852673852e-01 7.021654778681661602e-02 5.376196397306540753e-01
6.472071062740076741e+03 1.721272561617195329e-01 6.781548131333565987e-02 5.311366255556128069e-01
6.482074263764404350e+03 1.680442562715797616e-01 7.157474154835599678e-02 5.359929605807963737e-01
6.492077464788731959e+03 1.773492252360678589e-01 6.829573840496024062e-02 5.468276507222359362e-01
6.502080665813060477e+03 1.700300236923050767e-01 6.627545230370775198e-02 5.355712958835175952e-01
6.512083866837388086e+03 1.751221005417281096e-01 7.014473817194279148e-02 5.285719977868638120e-01
6.522087067861715695e+03 1.711456159298407886e-01 7.148660951496475791e-02 5.587092955707789743e-01
6.532090268886043305e+03 1.715687456520217924e-01 6.594596298034349768e-02 5.431332543247735511e-01
6.542093469910370914e+03 1.687858170917557743e-01 6.690297382485195510e-02 5.443008266348533519e-01
6.552096670934699432e+03 1.672785671717258171e-01 6.560011585987754468e-02 5.469541791035410494e-01
6.562099871959027041e+03 1.700351571212837531e-01 7.191717046769235955e-02 5.471503671664825763e-01
6.572103072983354650e+03 1.662002102841650120e-01 6.627318333298250208e-02 5.560622443651535018e-01
6.582106274007682259e+03 1.681315957747053502e-01 6.872259884258244411e-02 5.585326936548340448e-01
6.592109475032009868e+03 1.661345692933386131e-01 6.447271381505779997e-02 5.499541512878559635e-01
6.602112676056338387e+03 1.676178979078725428e-01 6.382091682268940802e-02 5.583002696900790651e-01
6.612115877080665996e+03 1.665232128893713304e-01 6.955583594762647370e-02 5.461772645639678680e-01
6.622119078104993605e+03 1.580126220037144646e-01 6.526295144244627366e-02 5.493896030234325378e-01
6.632122279129321214e+03 1.689525515472594663e-01 6.375067999257788554e-02 5.742438642576380703e-01
6.642125480153648823e+03 1.633955429401633130e-01 6.463717552478054351e-02 5.504388866608568298e-01
6.652128681177977342e+03 1.601022300799972153e-01 6.141919739961863856e-02 5.578772949092517530e-01
6.662131882202304951e+03 1.580740463925938977e-01 6.501905229049907697e-02 5.549623566711391343e-01
6.672135083226632560e+03 1.620742761966614265e-01 6.420448185951449505e-02 5.690538384485651635e-01
6.682138284250960169e+03 1.555971659375298966e-01 6.279079114028396358e-02 5.250179080080633609e-01
6.692141485275287778e+03 1.567375284982286121e-01 5.983079828304820741e-02 5.548304692146828199e-01
6.702144686299616296e+03 1.587823872371092182e-01 6.341965275299778215e-02 5.428127526145529735e-01
6.712147887323943905e+03 1.556330267785531185e-01 6.291346510318912566e-02 5.338814517540773075e-01
6.722151088348271514e+03 1.568568984190575610e-01 6.272828061662683030e-02 5.073612068552362242e-01
6.732154289372599123e+03 1.524474146438475897e-01 6.616917889507481498e-02 5.310585458294025951e-01
6.742157490396926733e+03 1.513440032693102733e-01 6.434003423316121684e-02 5.211910068677454433e-01
6.752160691421255251e+03 1.498828308810945531e-01 6.205205955719395039e-02 5.291216301754766427e-01
6.762163892445582860e+03 1.498955213052897417e-01 6.021852744781901190e-02 5.192553173480007889e-01
6.772167093469910469e+03 1.542028800378157094e-01 6.000565389764159208e-02 5.247048653679968755e-01
6.782170294494238078e+03 1.572753036273899785e-01 6.475401935818497767e-02 5.086136475731906081e-01
6.792173495518565687e+03 1.578580506545720907e-01 6.186941554956297551e-02 5.212820095899418638e-01
6.802176696542893296e+03 1.540039876667908536e-01 6.339644793573501191e-02 5.356234444801272199e-01
6.812179897567221815e+03 1.685626939748331443e-01 6.883324660877297718e-02 5.299807791836886883e-01
6.822183098591549424e+03 3.364810221170966842e-01 1.676324051915683011e-01 6.234097360412864663e-01
6.832186299615877033e+03 5.491534660155713565e-01 2.722687455859053585e-01 9.329551250897443193e-01
6.842189500640204642e+03 3.404997948272273089e-01 1.626869975653565947e-01 6.350896148648365047e-01
6.852192701664532251e+03 1.605810660819076141e-01 6.690101134922030179e-02 5.294896264104346217e-01
6.862195902688860770e+03 1.585987045800799633e-01 6.552474306276744043e-02 5.074186221542337227e-01
6.872199103713188379e+03 1.602649674365238253e-01 6.454367392592612329e-02 4.923156252146890788e-01
6.882202304737515988e+03 1.560989236714089845e-01 6.561431703254969050e-02 4.886570071588501873e-01
6.892205505761843597e+03 2.452006698711949595e-01 1.118088807681471564e-01 5.066078640486738616e-01
6.902208706786171206e+03 5.614185363082573321e-01 2.800223597134273712e-01 9.269807200836103211e-01
6.912211907810499724e+03 4.757119658311784183e-01 2.243447304440134016e-01 7.884087181990548920e-01
6.922215108834827333e+03 1.805470827261587419e-01 7.872681540879868101e-02 4.932065209131577532e-01
6.932218309859154942e+03 1.679187013611521395e-01 6.693129017952181847e-02 4.858506090558103452e-01
6.942221510883482551e+03 1.688189896858788563e-01 6.481134930172979813e-02 4.875999331392428249e-01
6.952224711907810160e+03 1.787479029007448539e-01 7.373103871815822608e-02 4.839966896784977934e-01
6.962227912932138679e+03 1.836966237698948734e-01 7.286656307643164798e-02 4.655453034992727002e-01
6.972231113956466288e+03 1.809783007947034505e-01 7.207643474121899763e-02 5.079009312252882324e-01
6.982234314980793897e+03 1.796687125521225226e-01 6.803453695102669452e-02 4.765258304454801364e-01
6.992237516005121506e+03 1.931858143101818914e-01 7.248653058138621041e-02 4.567652604928090776e-01
7.002240717029449115e+03 1.821536221931062405e-01 7.367213820256186818e-02 4.905533609044954724e-01
7.012243918053777634e+03 1.966071235723320654e-01 8.076681675289412721e-02 4.930094661550930568e-01
7.022247119078105243e+03 1.988284005944556954e-01 8.373917157277163681e-02 4.905216876231404677e-01
7.032250320102432852e+03 2.070262397460720938e-01 8.267004967233572421e-02 4.884205237303188007e-01
7.042253521126760461e+03 2.087732745994745343e-01 8.567236425219612594e-02 5.196716350984916799e-01
7.052256722151088070e+03 2.137615019020692175e-01 8.738288120638831868e-02 5.122640572709378226e-01
7.062259923175416588e+03 2.106237742033279514e-01 8.728105242562804456e-02 5.045810539907483738e-01
7.072263124199744198e+03 2.124472359052392290e-01 8.757444751106004122e-02 5.028935205876212677e-01
7.082266325224071807e+03 2.085985046856025926e-01 8.676148107790931929e-02 5.070597067590185691e-01
7.092269526248399416e+03 2.118141712652385211e-01 8.744585678585807542e-02 4.997825572524312032e-01
7.102272727272727025e+03 2.107330363004778773e-01 9.064194567238084699e-02 4.848446718350041262e-01
7.112275928297054634e+03 2.077793044564474056e-01 8.803538403173652438e-02 4.686007200470681533e-01
7.122279129321383152e+03 2.004731613850161964e-01 8.584140119524082124e-02 4.742351481824101378e-01
7.132282330345710761e+03 1.993032538899301709e-01 8.242570621717494606e-02 4.701119188717212127e-01
7.142285531370038370e+03 1.907335781741971714e-01 7.934313927978904613e-02 4.475108955300676206e-01
7.152288732394365979e+03 1.906253679776848120e-01 7.465101547974084539e-02 4.517676005495581681e-01
7.162291933418693588e+03 1.920647453749138589e-01 7.874036025958003338e-02 4.280542209080330229e-01
7.172295134443022107e+03 1.909247726246526833e-01 7.097966964194873940e-02 4.603285080927416173e-01
7.182298335467349716e+03 1.841450912629509495e-01 7.062227005575287542e-02 4.496988190241628103e-01
7.192301536491677325e+03 1.680287616938971051e-01 6.837784732890038464e-02 4.403220980213580771e-01
7.202304737516004934e+03 1.562705868220353456e-01 6.087986908649140744e-02 4.220174392701165345e-01
7.212307938540332543e+03 1.565204094076010077e-01 5.941388747679738486e-02 4.087241211152221054e-01
7.222311139564661062e+03 1.483207088722368894e-01 5.763692848267972652e-02 4.203568589095088570e-01
7.232314340588988671e+03 1.511310335453070752e-01 6.076826117601964727e-02 4.047359633625295383e-01
7.242317541613316280e+03 1.477159277880070731e-01 5.924024515543905439e-02 3.908785701053503203e-01
7.252320742637643889e+03 1.407699548916937771e-01 5.841998865014417369e-02 3.760352916057662642e-01
7.262323943661971498e+03 1.430295851438038168e-01 5.869094149444895742e-02 3.621224361262498914e-01
7.272327144686300016e+03 1.463284530288740115e-01 6.182370678087755617e-02 3.603679029925521693e-01
7.282330345710627626e+03 1.380977371775649887e-01 6.157498682486012981e-02 3.514516217735574322e-01
7.292333546734955235e+03 1.357610006820772486e-01 5.965204194942019117e-02 3.423440312099348404e-01
7.302336747759282844e+03 1.359138041288204257e-01 6.108585746731279992e-02 3.372314722263520803e-01
7.312339948783610453e+03 1.389448211539267841e-01 6.283019613072884924e-02 3.312872484575160037e-01
7.322343149807938971e+03 2.631972694603458285e-01 1.287877993838592583e-01 4.800417437264288822e-01
7.332346350832266580e+03 3.308208875312124708e-01 1.734721158065089808e-01 5.703058276283290429e-01
7.342349551856594189e+03 2.308478257167644598e-01 1.064802047585059891e-01 4.148674022612346413e-01
7.352352752880921798e+03 1.338277504947508745e-01 6.161141411031144377e-02 2.895409855861799109e-01
7.362355953905249407e+03 1.192900040006174001e-01 5.585957260668742569e-02 2.653495574481510300e-01
7.372359154929577926e+03 1.197010817503112307e-01 5.612621095407617500e-02 2.672490140035878037e-01
7.382362355953905535e+03 1.147858302244060963e-01 5.411000685934058002e-02 2.556210620210569995e-01
7.392365556978233144e+03 1.074340765944451492e-01 5.089626179323641919e-02 2.488290633983573086e-01
7.402368758002560753e+03 1.098413318366396191e-01 5.420830260770382464e-02 2.227414455715990282e-01
7.412371959026888362e+03 1.067521263597839970e-01 5.229553340816719270e-02 2.228691429312626149e-01
7.422375160051215971e+03 1.016349721246387894e-01 4.716641638189478930e-02 2.161929137611864615e-01
7.432378361075544490e+03 9.733726410859530609e-02 4.745994334568007927e-02 1.998756475196945548e-01
7.442381562099872099e+03 9.466100351955689107e-02 4.453907311166972749e-02 2.006232926281816542e-01
7.452384763124199708e+03 1.284434068117175920e-01 6.444430652747133725e-02 2.460841311343630322e-01
7.462387964148527317e+03 3.521654973585368609e-01 2.713803723246808186e-01 4.460585298123573295e-01
7.472391165172854926e+03 3.233661421939464931e-01 2.424464545540480076e-01 4.208228804235108478e-01
7.482394366197183444e+03 1.063990412713942263e-01 5.299930061435523254e-02 2.093213717076170544e-01
7.492397567221511054e+03 9.118854563141767788e-02 4.214085226891176039e-02 1.902742024602488147e-01
7.502400768245838663e+03 9.094436044417417153e-02 4.124109666012602121e-02 1.866746236971206507e-01
7.512403969270166272e+03 9.380416446356501514e-02 4.362409382729495050e-02 1.785356361451126972e-01
7.522407170294493881e+03 9.176252155978879832e-02 4.264444324325748076e-02 1.779816827584943806e-01
7.532410371318822399e+03 8.730971779543447719e-02 4.212943947024506974e-02 1.747716216892317709e-01
7.542413572343150008e+03 8.555488267491691279e-02 4.293033592814628208e-02 1.649152915702767064e-01
7.552416773367477617e+03 8.600733105768845754e-02 3.743801822278911007e-02 1.745585724709305397e-01
7.562419974391805226e+03 8.309599992281645198e-02 3.849232467530522978e-02 1.688975610430046015e-01
7.572423175416132835e+03 8.258211941779644572e-02 3.889895174701212682e-02 1.664422486456730021e-01
7.582426376440461354e+03 8.412307331360854845e-02 3.631115921877401537e-02 1.687108778549450960e-01
7.592429577464788963e+03 8.297063441208718526e-02 3.738042667051180018e-02 1.671791422341882827e-01
7.602432778489116572e+03 8.208403771076290545e-02 3.757015974330081554e-02 1.688341411181759899e-01
7.612435979513444181e+03 8.150392756940656735e-02 3.668433307380879888e-02 1.643329432230004328e-01
7.622439180537771790e+03 8.080703948397324754e-02 3.635796316592194988e-02 1.608472973643580439e-01
7.632442381562100309e+03 8.332277776791101320e-02 3.855681481078108985e-02 1.602765457822778183e-01
7.642445582586427918e+03 8.413964224532273495e-02 3.771316264078135305e-02 1.632992719854892971e-01
7.652448783610755527e+03 8.398756933630183164e-02 3.844337701762332721e-02 1.607990905359795442e-01
7.662451984635083136e+03 8.077761396360316759e-02 3.617960648238073562e-02 1.657553873271011280e-01
7.672455185659410745e+03 8.553126619493547911e-02 3.867640852474428514e-02 1.556161496378597464e-01
7.682458386683738354e+03 8.235807129659684922e-02 3.804621973114952205e-02 1.576795197297236883e-01
7.692461587708066872e+03 8.340922590213617482e-02 3.808832641067384783e-02 1.511004861335002725e-01
7.702464788732394481e+03 8.117569841258043262e-02 3.781252044526910161e-02 1.561369234742899514e-01
7.712467989756722091e+03 7.990479773649493411e-02 3.768184305798489425e-02 1.531557034386028249e-01
7.722471190781049700e+03 8.180046175616645376e-02 3.809161840065597437e-02 1.553412197613778245e-01
7.732474391805377309e+03 8.249236653042477108e-02 3.867142681384156538e-02 1.562550400600485612e-01
7.742477592829705827e+03 7.953240866546852639e-02 3.730399388446353770e-02 1.514521164447432955e-01
7.752480793854033436e+03 7.755099170000297193e-02 3.788392557900256696e-02 1.543101871564460104e-01
7.762483994878361045e+03 8.120339460398166842e-02 3.933625972173283858e-02 1.548470288352734869e-01
7.772487195902688654e+03 8.267649234059928909e-02 3.729042852034616246e-02 1.638390479197971705e-01
7.782490396927016263e+03 8.162967816963787038e-02 3.946983210995678309e-02 1.588505421153142139e-01
7.792493597951344782e+03 7.979550595138738822e-02 3.885892313642208551e-02 1.578147405293006122e-01
7.802496798975672391e+03 7.819399043724875598e-02 3.863315921923640706e-02 1.503031588661383755e-01
7.812500000000000000e+03 4.539137546275501256e-02 1.259162479747625955e-02 1.078526635143863682e-01
