# Comments from moku data file:% Moku:Phasemeter 
# 
# % Ch 1 - DC coupling, 50 Ohm impedance, 1 V range
# 
# % Ch 1 bandwidth = 1.0000000000e+04 (Hz)
# 
# % Acquisition rate: 1.5625000000e+04 Hz
# 
# % External 10 MHz clock
# 
# % Acquired 2020-02-07 T 23:45:12 -0800
# 
# % Time, Set frequency 1 (Hz), Frequency 1 (Hz), Phase 1 (cyc), I 1 (V), Q 1 (V)
# 
# #########################################################
# ASD calculated by mokuReadFreqNoise.py
# Frequency [Hz]         Freq ASD1 [Hz/rtHz]      Freq ASDlb1 [Hz/rtHz]    Freq ASDub1 [Hz/rtHz]    
# 
0.000000000000000000e+00 4.462267324345418160e+02 2.982910181202123567e+02 7.261727653537305969e+02
1.000000000000000056e-01 5.559820105090424249e+02 2.956149438035703838e+02 7.876996908304349745e+02
2.000000000000000111e-01 2.930726525462145560e+02 1.841565871031103256e+02 7.109776768403029337e+02
3.000000000000000444e-01 2.668589552790215293e+02 2.004866862754279282e+02 3.326590961993662745e+02
4.000000000000000222e-01 2.860675049908326173e+02 9.381947353628649466e+01 4.192819403153335429e+02
5.000000000000000000e-01 1.716332011279460232e+02 1.182647659733614347e+02 2.651533511983000722e+02
6.000000000000000888e-01 2.043302806049011053e+02 1.286803286489717095e+02 2.488338579661609913e+02
7.000000000000000666e-01 1.521482077137738713e+02 1.250236161432602700e+02 2.054282537722401685e+02
8.000000000000000444e-01 1.191556610868714188e+02 5.200915862853621263e+01 1.877183328559621600e+02
9.000000000000000222e-01 1.643683486069242861e+02 1.350825265455704596e+02 2.306156414388587166e+02
1.000000000000000000e+00 1.074975431536986576e+02 6.643780673103168510e+01 2.639138891169975523e+02
1.100000000000000089e+00 1.689137891341624709e+02 7.975463388096223127e+01 2.172306452102430399e+02
1.200000000000000178e+00 1.227363014479345935e+02 9.712268086813023160e+01 2.229445833847857443e+02
1.300000000000000044e+00 1.178029428467449264e+02 9.004546202986399805e+01 1.841731760307210095e+02
1.400000000000000133e+00 7.200794859064815512e+01 4.291058010686395363e+01 1.315222098748848794e+02
1.500000000000000000e+00 7.865247067557935168e+01 3.167888546992088905e+01 1.243454795968807929e+02
1.600000000000000089e+00 1.045760419390163776e+02 5.730242852188066394e+01 1.361040644300599070e+02
1.700000000000000178e+00 1.199811377386649127e+02 7.283166215335619142e+01 1.787251754296906370e+02
1.800000000000000044e+00 9.772011393278124558e+01 6.246593984943687872e+01 1.238151384047612567e+02
1.900000000000000133e+00 7.713869849847404225e+01 2.914004949932364141e+01 1.278070124629175410e+02
2.000000000000000000e+00 9.484893579031704292e+01 5.068325226388528648e+01 1.294399604820452794e+02
2.100000000000000089e+00 1.030619254316167712e+02 4.399537192421261977e+01 1.261968329157052437e+02
2.200000000000000178e+00 1.086955629274611255e+02 5.485459541106563108e+01 1.286507533622879009e+02
2.300000000000000266e+00 7.766521409916548180e+01 5.072844690518542166e+01 1.109387668026148930e+02
2.400000000000000355e+00 5.302034579214289067e+01 2.827160772748041495e+01 1.428507508442684752e+02
2.500000000000000000e+00 4.694880468934540119e+01 2.451247712566844328e+01 1.501467538279893290e+02
2.600000000000000089e+00 7.973738437233551224e+01 6.323290567566403553e+01 1.085943200817601451e+02
2.700000000000000178e+00 1.037212809107820561e+02 5.394033706877767997e+01 1.424742706139887503e+02
2.800000000000000266e+00 6.995909725306736959e+01 2.547367514656911425e+01 1.654450061482727108e+02
2.900000000000000355e+00 9.492018690698567696e+01 6.060364746259683244e+01 1.278805023349912346e+02
3.000000000000000000e+00 7.445671458188257930e+01 2.619860589658356886e+01 1.119093201205525929e+02
3.100000000000000089e+00 9.366391039515178818e+01 4.338972756315121160e+01 1.068683450372270443e+02
3.200000000000000178e+00 8.242053652859320323e+01 5.620305159814605389e+01 9.313123966036931733e+01
3.300000000000000266e+00 6.276625490438962629e+01 3.877410265761370312e+01 8.752544111661305237e+01
3.400000000000000355e+00 5.114089780135722663e+01 2.826249379760046310e+01 9.194675016237650311e+01
3.500000000000000000e+00 6.421370436542134996e+01 2.216253583749561074e+01 9.846209732523354319e+01
3.600000000000000089e+00 6.667817254288893025e+01 4.242364872770909301e+01 8.866164991522603600e+01
3.700000000000000178e+00 4.639096468624457970e+01 2.681453433632154670e+01 7.587235066451319199e+01
3.800000000000000266e+00 5.678778252328019960e+01 3.918159059404586486e+01 7.546787611301485299e+01
3.900000000000000355e+00 6.024531403867985802e+01 2.703226115468864776e+01 7.418646502142885879e+01
4.000000000000000000e+00 4.081644330705398005e+01 2.626405833491946851e+01 8.154351495081178314e+01
4.100000000000000533e+00 3.427110655236293724e+01 2.583886549111748110e+01 8.517597088070522204e+01
4.200000000000000178e+00 4.321250630966901696e+01 2.645300324707406503e+01 7.580208803436694609e+01
4.299999999999999822e+00 4.354507754071436665e+01 2.564176686204518418e+01 8.144621599520604605e+01
4.400000000000000355e+00 2.946359487901140284e+01 2.233628860706900099e+01 5.490586256704684587e+01
4.500000000000000000e+00 4.038082779306832037e+01 2.367291080929453528e+01 7.585724910891541128e+01
4.600000000000000533e+00 4.657054334933874173e+01 2.063191771788816808e+01 6.922741524189827089e+01
4.700000000000000178e+00 3.661293124008410160e+01 2.131520402481794818e+01 5.108732048782040636e+01
4.800000000000000711e+00 4.058966615547350898e+01 1.679498412230898907e+01 4.494405700298298711e+01
4.900000000000000355e+00 4.413086344244388215e+01 2.088949656636022922e+01 5.613175230479570388e+01
5.000000000000000000e+00 3.218203521927694766e+01 2.547637605178836040e+01 6.249443010784430896e+01
5.100000000000000533e+00 3.601809663163393083e+01 2.130139932691214000e+01 6.630164600832246435e+01
5.200000000000000178e+00 5.223797157660558099e+01 3.715842317130325512e+01 7.171796156225320829e+01
5.300000000000000711e+00 4.525364527131454651e+01 3.235108000734425104e+01 5.741360602374064825e+01
5.400000000000000355e+00 4.421549155680588683e+01 3.674756093619495090e+01 6.851165750640421948e+01
5.500000000000000000e+00 4.510294592829397686e+01 3.108913795409254277e+01 6.676169248931584832e+01
5.600000000000000533e+00 3.075473101545646060e+01 2.003503290861100439e+01 6.173370030953054055e+01
5.700000000000000178e+00 3.147017427045421911e+01 1.807587109598837927e+01 5.050985166734989207e+01
5.800000000000000711e+00 4.716193189385093376e+01 4.092913659738378129e+01 5.273103093094260885e+01
5.900000000000000355e+00 3.817635707174643755e+01 2.145223896096894833e+01 6.510112709153914068e+01
6.000000000000000000e+00 3.263634821865555580e+01 1.541760377409526228e+01 4.039677720759151214e+01
6.100000000000000533e+00 3.223840816734065129e+01 1.626795741889664626e+01 4.137108152077085066e+01
6.200000000000000178e+00 3.228097152675223214e+01 1.472776540751533680e+01 4.331371984543838494e+01
6.300000000000000711e+00 4.155885190929593165e+01 2.075867029126072083e+01 5.086221731866794471e+01
6.400000000000000355e+00 3.011348782406179581e+01 1.732534206793883769e+01 4.402270602108260533e+01
6.500000000000000000e+00 2.321519681767090404e+01 1.480246857455430920e+01 3.243006855133078403e+01
6.600000000000000533e+00 2.330764635902329474e+01 9.794864544541379558e+00 3.411752789578598311e+01
6.700000000000000178e+00 2.340340436185243078e+01 1.309108501644669253e+01 4.156962032716188560e+01
6.800000000000000711e+00 2.719826626567601480e+01 1.478819997453187973e+01 3.882596160237739014e+01
6.900000000000000355e+00 2.941440581566708445e+01 1.439829898551424137e+01 4.400842789017498546e+01
7.000000000000000000e+00 3.897151540916422618e+01 2.953803306349673719e+01 4.671799106964938630e+01
7.100000000000000533e+00 3.275145359875804729e+01 1.772800154922213167e+01 5.400979604358379049e+01
7.200000000000000178e+00 2.204889713472550383e+01 1.572751523403831264e+01 4.863490197589733555e+01
7.300000000000000711e+00 3.846310725541966491e+01 1.481389169695600749e+01 4.958809054646359016e+01
7.400000000000000355e+00 3.362569391126763207e+01 1.290506101281156504e+01 4.740047435595482739e+01
7.500000000000000000e+00 2.227418216345984803e+01 8.765615504375675826e+00 4.983300364199529753e+01
7.600000000000000533e+00 3.288182640752104646e+01 2.420265784097106021e+01 4.077022142935653193e+01
7.700000000000000178e+00 2.487961963064335791e+01 6.723829520584933661e+00 4.596322205842506037e+01
7.800000000000000711e+00 2.737449635261241454e+01 1.778197687131644145e+01 4.136848403311397959e+01
7.900000000000000355e+00 2.455822312977871391e+01 1.567627412677487087e+01 5.046155675990502942e+01
8.000000000000000000e+00 2.629725654579780070e+01 1.798128068938940061e+01 4.553894446640216387e+01
8.099999999999999645e+00 2.609227233629124854e+01 1.734099698537863077e+01 3.726446762342241215e+01
8.200000000000001066e+00 2.414634393792696088e+01 1.390153890626753075e+01 3.257879229203906135e+01
8.300000000000000711e+00 1.577507113063480482e+01 8.009338027454422360e+00 3.110402324687858311e+01
8.400000000000000355e+00 2.348446287671287536e+01 1.767804529515379386e+01 3.476117146024338922e+01
8.500000000000000000e+00 2.584523600340607530e+01 2.019220002751892551e+01 2.768103485853766088e+01
8.599999999999999645e+00 2.041433967429539109e+01 9.286400341533942893e+00 2.396988836313387239e+01
8.700000000000001066e+00 1.574513432754126718e+01 1.047103181152906615e+01 2.450015229437860498e+01
8.800000000000000711e+00 2.167790498274995770e+01 1.579204758395393426e+01 3.507898835124452575e+01
8.900000000000000355e+00 2.487257104995275014e+01 1.880411425168525952e+01 3.373010299091573216e+01
9.000000000000000000e+00 3.231738876568900309e+01 2.065931024307704433e+01 4.239769571251020608e+01
9.099999999999999645e+00 3.196216503187040558e+01 1.728287782998651423e+01 4.269477591856236387e+01
9.200000000000001066e+00 2.119717729189379440e+01 1.746191732241024397e+01 4.115332249415746446e+01
9.300000000000000711e+00 1.923669471367712802e+01 1.084625964556994404e+01 3.907560768361599202e+01
9.400000000000000355e+00 2.379703961369870768e+01 1.110438737835088929e+01 3.408949861761852418e+01
9.500000000000000000e+00 1.596615095545744190e+01 7.102301815848941935e+00 3.145186187063708161e+01
9.600000000000001421e+00 1.936775896107958772e+01 1.326949775389418207e+01 3.913441749667268965e+01
9.700000000000001066e+00 2.548261328677095605e+01 1.200161972313167880e+01 4.289732949655616778e+01
9.800000000000000711e+00 1.858248304936412509e+01 9.416379219849007498e+00 2.774807164780717983e+01
9.900000000000000355e+00 2.770298793466053766e+01 1.294053046567046295e+01 3.212391628646786046e+01
1.000000000000000000e+01 2.915216883785673119e+01 1.142085381515582121e+01 3.358969943523919000e+01
1.000000000000000000e+01 1.817294556254063664e+01 9.017580641103469574e+00 3.343997773463932077e+01
1.100000000000000000e+01 1.645407286730390339e+01 7.249967928596148248e+00 2.765955345481863503e+01
1.200000000000000000e+01 1.464308166311089465e+01 6.307498518585868297e+00 2.283129870920387461e+01
1.300000000000000000e+01 1.459441260018755848e+01 7.504389548329363890e+00 2.228633379180260121e+01
1.400000000000000000e+01 1.224288689824749632e+01 7.708998407733024472e+00 2.005800609962876280e+01
1.500000000000000000e+01 1.110671453180724555e+01 6.197678796785259792e+00 1.920345910309111304e+01
1.600000000000000000e+01 1.068909871272316359e+01 6.064064967331195710e+00 1.760478028770794268e+01
1.700000000000000000e+01 9.633140554162904934e+00 4.099801408603527264e+00 1.568950435123747411e+01
1.800000000000000000e+01 8.657703537588018250e+00 5.169361478314988823e+00 1.448637216221451318e+01
1.900000000000000000e+01 9.312320191831265248e+00 4.460961585806036744e+00 1.409210709393220995e+01
2.000000000000000000e+01 8.625498144330487449e+00 4.605656222640527986e+00 1.399356568254560962e+01
2.100000000000000000e+01 8.150414993493019011e+00 4.166941900036494673e+00 1.295473591011641368e+01
2.200000000000000000e+01 7.757113305698661421e+00 3.452938434342288421e+00 1.262491745401266208e+01
2.300000000000000000e+01 7.569309244019704508e+00 3.223514852736765857e+00 1.185093700241082537e+01
2.400000000000000000e+01 6.884343331511123765e+00 3.781507809891250460e+00 1.117686103777689155e+01
2.500000000000000000e+01 6.249205571421729388e+00 3.249184573650062191e+00 1.062528491474318137e+01
2.600000000000000000e+01 5.559319054074689070e+00 2.931753014440388938e+00 1.030030413532651501e+01
2.700000000000000000e+01 5.818963878540031942e+00 2.926571575614458798e+00 1.045186568455583043e+01
2.800000000000000000e+01 6.436983544361103426e+00 3.046784778721504772e+00 9.504105740177946515e+00
2.900000000000000000e+01 5.346542933230369776e+00 2.789211039014699800e+00 9.577215948555751979e+00
3.000000000000000000e+01 5.312997084492317335e+00 2.634330127472144678e+00 7.913849856970789354e+00
3.100000000000000000e+01 4.261637353897682168e+00 2.275395257395645299e+00 7.859973936540309403e+00
3.200000000000000000e+01 4.873185775843672296e+00 2.478425132789984442e+00 8.210577799683765221e+00
3.300000000000000000e+01 4.788949482268271218e+00 2.146412494788325631e+00 7.674989866118718140e+00
3.400000000000000000e+01 4.287728377088291687e+00 2.064202889787329021e+00 7.460627244441866424e+00
3.500000000000000000e+01 4.411531686817962594e+00 2.086115750162942373e+00 7.440272162128064970e+00
3.600000000000000000e+01 4.072497576227277705e+00 1.546976535045428314e+00 7.978320323416820514e+00
3.700000000000000000e+01 3.319101246440616215e+00 1.687301184010543187e+00 7.208121874464945122e+00
3.800000000000000000e+01 2.974055927643963759e+00 1.456267791552001034e+00 6.795838190159228631e+00
3.900000000000000000e+01 3.325964417747905078e+00 1.405159439559773737e+00 6.123265017363285878e+00
4.000000000000000000e+01 3.334581604261618537e+00 1.307161255465499661e+00 6.820532590416148899e+00
4.100000000000000000e+01 2.994137534035910875e+00 1.323450640794070488e+00 6.191188360098388799e+00
4.200000000000000000e+01 2.698619215507236824e+00 1.399413847003346145e+00 5.319337619686511864e+00
4.300000000000000000e+01 2.792009867131158174e+00 1.179986335185402524e+00 5.738897860904672577e+00
4.400000000000000000e+01 2.391337514939225084e+00 1.033762211068199433e+00 6.350422365501372290e+00
4.500000000000000000e+01 2.250482327505344049e+00 1.055566626660145779e+00 5.520919850507134186e+00
4.600000000000000000e+01 1.981000234455975617e+00 7.764484165667644433e-01 4.007895731746214274e+00
4.700000000000000000e+01 1.803021760881305724e+00 9.198290621293747638e-01 4.270143429772807586e+00
4.800000000000000000e+01 1.832751867212444097e+00 8.760900988538449230e-01 4.628550570068936665e+00
4.900000000000000000e+01 1.848140427950236253e+00 8.641634894743623896e-01 4.637827312560165893e+00
5.000000000000000000e+01 1.756994940932881999e+00 7.540089989731317832e-01 3.795056391861576728e+00
5.100000000000000000e+01 1.652922776748268152e+00 6.150329611917966233e-01 4.677552396817897140e+00
5.200000000000000000e+01 1.455775362217657687e+00 6.800180663707025008e-01 3.691097679005412413e+00
5.300000000000000000e+01 1.440891212278082811e+00 7.091199476816046898e-01 3.362464288007710245e+00
5.400000000000000000e+01 1.350800057127915510e+00 6.838494912705714857e-01 3.105760260091293468e+00
5.500000000000000000e+01 1.274469236596739163e+00 5.631455175065321894e-01 3.008064267312897666e+00
5.600000000000000000e+01 1.391638641185796832e+00 6.023091106346578627e-01 2.773529771851338310e+00
5.700000000000000000e+01 1.245192654575661528e+00 6.228511323190759619e-01 2.777502263320448694e+00
5.800000000000000000e+01 1.124950016913156547e+00 4.737421879111818335e-01 2.923329082963677994e+00
5.900000000000000000e+01 1.067521824247141593e+00 4.938805430041078859e-01 2.706963845723878048e+00
6.000000000000000000e+01 1.111598340888517500e+00 4.542922092580125581e-01 2.410454850076784172e+00
6.100000000000000000e+01 9.809925028459133278e-01 4.921846541877399894e-01 1.945911529538990159e+00
6.200000000000000000e+01 9.218202970022317810e-01 4.299294430827869662e-01 1.598222976221620240e+00
6.300000000000000000e+01 8.591306760326697933e-01 3.779509857639420933e-01 1.751136363621680792e+00
6.400000000000000000e+01 9.496982113607220777e-01 4.635900574140297548e-01 1.717616967010758389e+00
6.500000000000000000e+01 8.233754244552312640e-01 3.220617016722680526e-01 1.547741483175930188e+00
6.600000000000000000e+01 7.795522090291626682e-01 3.385863685558098135e-01 1.591059920923503235e+00
6.700000000000000000e+01 7.505355859807807395e-01 3.437923913404842269e-01 1.497605506561135780e+00
6.800000000000000000e+01 8.133744176774436729e-01 3.722652037617135701e-01 1.346569163058602969e+00
6.900000000000000000e+01 8.243423597473339415e-01 4.415660849835436053e-01 1.247392120486532363e+00
7.000000000000000000e+01 7.270060702681497844e-01 3.862142909835691307e-01 1.259505895987662827e+00
7.100000000000000000e+01 7.174778176185816481e-01 3.033996121329209372e-01 1.222241502444852301e+00
7.200000000000000000e+01 6.727922567141662036e-01 3.263476071013258761e-01 1.227912476175268219e+00
7.300000000000000000e+01 6.673149636560359310e-01 3.656678356904766725e-01 1.071701246461963963e+00
7.400000000000000000e+01 6.156274878139303963e-01 3.263950253651818345e-01 1.099270023501030646e+00
7.500000000000000000e+01 5.767096129634307067e-01 2.487942871363300612e-01 1.062007131550163797e+00
7.600000000000000000e+01 6.296842730756772033e-01 3.108869114317503457e-01 1.086018099723383035e+00
7.700000000000000000e+01 6.088317421137566798e-01 2.629982893449023806e-01 1.067078982360525119e+00
7.800000000000000000e+01 5.389175627959443826e-01 3.170868950183261537e-01 9.422978755627008374e-01
7.900000000000000000e+01 4.636245705890430502e-01 2.718372157616730789e-01 9.104767587899527115e-01
8.000000000000000000e+01 4.650622602884855183e-01 2.330603000061106933e-01 9.350736582501180116e-01
8.100000000000000000e+01 4.861555637008404540e-01 2.584435867502559714e-01 8.169867049331343001e-01
8.200000000000000000e+01 4.495652041004355448e-01 1.920517625996257249e-01 7.448051068728708257e-01
8.300000000000000000e+01 4.866898456622699154e-01 2.401657087183592110e-01 8.524703533976460967e-01
8.400000000000000000e+01 4.687443808580798454e-01 2.396004131073634358e-01 7.997145576733857286e-01
8.500000000000000000e+01 4.484770435202170002e-01 2.322101431811938732e-01 7.352562120511506594e-01
8.600000000000000000e+01 4.632107134135621807e-01 2.135485105153282215e-01 8.206273362168847729e-01
8.700000000000000000e+01 4.231812212427645825e-01 1.571422108775531179e-01 8.041867482575664194e-01
8.800000000000000000e+01 4.744893236478712195e-01 2.377534196892920892e-01 7.205466112957229496e-01
8.900000000000000000e+01 3.851634954580195336e-01 1.712851057737329874e-01 7.408491496288478473e-01
9.000000000000000000e+01 4.134604153072778399e-01 2.013502797075499839e-01 6.474895384446879287e-01
9.100000000000000000e+01 4.050771061947830987e-01 1.984627804903306980e-01 6.554552664598493061e-01
9.200000000000000000e+01 4.147942232826594688e-01 2.057804625675943300e-01 7.040637333669980125e-01
9.300000000000000000e+01 3.955703164589345344e-01 1.956866561234370250e-01 6.718137911593334843e-01
9.400000000000000000e+01 3.785719573595563436e-01 1.981487718258501396e-01 5.924633152774311240e-01
9.500000000000000000e+01 4.065388405436445307e-01 1.783730510418984339e-01 5.897762144995992717e-01
9.600000000000000000e+01 3.408092733294504906e-01 1.474681602704060457e-01 6.017318183723197045e-01
9.700000000000000000e+01 3.555298525808575083e-01 1.386440799414513647e-01 6.386446164286824212e-01
9.800000000000000000e+01 3.246843568047079742e-01 1.470318931891404224e-01 5.779431301105837360e-01
9.900000000000000000e+01 3.438906422656617945e-01 1.652748754963705158e-01 5.794330588303393537e-01
1.000000000000000000e+02 3.652372872855008112e-01 1.705862068234786921e-01 6.265352179849175140e-01
1.000320102432778526e+02 2.973041752834862383e-01 1.440427859576019765e-01 5.785080352829966577e-01
1.100352112676056322e+02 2.543729158081973196e-01 1.214038871188751756e-01 4.957003240178319281e-01
1.200384122919334118e+02 2.375498267594874924e-01 1.090024580548986238e-01 4.364654869715048902e-01
1.300416133162611914e+02 2.004389546456815663e-01 9.384560525223151206e-02 3.838089501624304400e-01
1.400448143405889994e+02 1.788044885099379644e-01 8.062347694986649049e-02 3.383643606128430292e-01
1.500480153649167789e+02 1.647757113912076687e-01 7.234054862514242845e-02 3.090481555844373784e-01
1.600512163892445585e+02 1.388821215284704591e-01 6.489116136158160075e-02 2.692013425659487980e-01
1.700544174135723381e+02 1.212694799982926841e-01 5.595128080377093777e-02 2.316556135380096193e-01
1.800576184379001177e+02 1.001245744345683475e-01 4.560783762762279925e-02 1.995839557426593303e-01
1.900608194622279257e+02 8.486170648016391760e-02 3.636794542595767760e-02 1.680104372774129662e-01
2.000640204865557052e+02 7.714284872499195533e-02 3.683458950182944697e-02 1.468258937880118631e-01
2.100672215108834848e+02 7.494879001477944280e-02 3.756416292925964656e-02 1.379830648163422324e-01
2.200704225352112644e+02 6.790995154051442106e-02 3.189042913637463172e-02 1.353937736204710585e-01
2.300736235595390440e+02 6.708377858847315578e-02 3.214597382770074258e-02 1.298881728927262225e-01
2.400768245838668236e+02 7.241421262730364516e-02 3.547864474066509538e-02 1.254375491527510711e-01
2.500800256081946316e+02 6.099826914404366668e-02 2.794993845516083320e-02 1.048657232199367018e-01
2.600832266325223827e+02 4.974194798012297053e-02 2.394002445842220717e-02 8.596078176410058835e-02
2.700864276568502191e+02 4.452980697320383513e-02 1.939269148956558608e-02 8.045039624408373280e-02
2.800896286811779987e+02 4.130589343989745504e-02 1.936702066202879505e-02 7.647146391175625724e-02
2.900928297055057783e+02 4.122733647049737354e-02 2.000929339014673181e-02 7.264275971367263607e-02
3.000960307298335579e+02 3.847003729129241240e-02 1.874496784194896667e-02 6.650298094402704030e-02
3.100992317541613374e+02 3.533165923052632162e-02 1.737049940078888230e-02 6.175322304640070564e-02
3.201024327784891170e+02 3.156772871702758637e-02 1.604349476555117990e-02 5.679921733854226967e-02
3.301056338028168966e+02 3.402227333838853118e-02 1.736195681409130956e-02 5.730088157359799345e-02
3.401088348271446762e+02 3.748166612901896594e-02 1.832552051669775542e-02 6.185149399015847649e-02
3.501120358514724558e+02 3.950834686628842268e-02 1.992558792821804564e-02 6.402537931734332555e-02
3.601152368758002353e+02 3.990535603744768678e-02 2.097516808374113445e-02 6.885523000791672621e-02
3.701184379001280149e+02 4.373959414203607010e-02 2.188943571299770477e-02 7.176666037469874027e-02
3.801216389244558513e+02 6.027684655380731449e-02 3.131735640897958389e-02 9.767973424298481699e-02
3.901248399487836309e+02 7.485790007211089170e-02 3.849678534086379417e-02 1.234993458008347700e-01
4.001280409731114105e+02 6.633534102837947144e-02 3.316770296772708626e-02 1.101662119868140055e-01
4.101312419974391901e+02 5.209315609824384519e-02 2.544081834459244532e-02 8.400015466424776145e-02
4.201344430217669697e+02 4.273578292195123057e-02 2.136614779269966485e-02 7.150382241983666010e-02
4.301376440460947492e+02 3.971773597802120970e-02 1.973985202706811035e-02 6.612048869359246628e-02
4.401408450704225288e+02 3.957635774411397828e-02 1.994574621445806967e-02 6.477915914909007644e-02
4.501440460947503084e+02 4.152856937877973109e-02 2.003435690799445362e-02 6.867137406755384477e-02
4.601472471190780880e+02 4.280020972762711706e-02 2.185729173717821175e-02 7.026438153878333814e-02
4.701504481434058675e+02 4.746461264416603626e-02 2.231738008362279743e-02 7.758158548817767342e-02
4.801536491677336471e+02 5.274157399677659869e-02 2.543929616090523718e-02 8.525303377513446246e-02
4.901568501920614835e+02 5.038655502720559148e-02 2.482084663676116867e-02 8.470937617479937232e-02
5.001600512163892631e+02 4.528360023127412509e-02 2.342975251657540212e-02 7.398481429608673443e-02
5.101632522407170427e+02 3.983675370887605066e-02 1.937576563422465509e-02 6.558618011797724690e-02
5.201664532650447654e+02 3.705902876570475735e-02 1.848566709379072595e-02 6.098935048138761500e-02
5.301696542893726019e+02 3.959419446931226882e-02 1.927269963830700178e-02 6.435450722069742391e-02
5.401728553137004383e+02 3.789228208651269220e-02 1.932364225572961308e-02 6.402766244108541727e-02
5.501760563380281610e+02 3.570765150700573598e-02 1.665330154247426572e-02 5.984961164225613417e-02
5.601792573623559974e+02 3.802059506585910020e-02 1.874375122497854221e-02 6.198494288455522888e-02
5.701824583866837202e+02 4.217048158367004557e-02 2.064526959624198368e-02 6.982859358912794912e-02
5.801856594110115566e+02 4.358125094676975481e-02 2.005130446122765919e-02 7.290360250629487893e-02
5.901888604353392793e+02 3.911575028783267904e-02 1.963411566726451854e-02 6.672398348155991754e-02
6.001920614596671157e+02 3.845113437999509581e-02 1.875974391524190196e-02 6.289551538973679745e-02
6.101952624839948385e+02 3.565847103410027530e-02 1.834024448337990068e-02 6.143110521092766396e-02
6.201984635083226749e+02 7.063810158760172597e-02 3.598372251264790600e-02 1.163182977955971587e-01
6.302016645326503976e+02 2.508727613594414763e-01 1.203065635083570978e-01 4.371514390835981589e-01
6.402048655569782341e+02 2.612059011973403844e-01 1.273707820120842382e-01 4.267307063347129392e-01
6.502080665813060705e+02 1.574264659810173106e-01 8.220737593828848777e-02 2.560875093158024307e-01
6.602112676056337932e+02 1.533690073696929446e-01 7.533966733327378262e-02 2.402593248545190352e-01
6.702144686299616296e+02 1.090656468985524846e-01 5.402353931154336292e-02 1.717152727227324316e-01
6.802176696542893524e+02 9.975984361302513148e-02 4.843343370647312102e-02 1.616569279101496559e-01
6.902208706786171888e+02 9.356189043511403680e-02 4.774138741258379670e-02 1.514882376148521670e-01
7.002240717029449115e+02 6.974270419591474535e-02 3.598633098694073440e-02 1.125758317077998061e-01
7.102272727272727479e+02 5.001922816761041751e-02 2.522577640337246574e-02 8.076347754790340339e-02
7.202304737516004707e+02 6.672856508518053287e-02 3.281053748943647819e-02 1.101843471849479478e-01
7.302336747759283071e+02 5.583670507781049452e-02 2.717200638295217546e-02 9.189125690667507285e-02
7.402368758002560298e+02 3.611876965276349799e-02 1.666099770778113262e-02 6.198046294345784663e-02
7.502400768245838663e+02 3.730085740261356031e-02 1.743693233594028821e-02 6.273003460445092383e-02
7.602432778489117027e+02 3.807849773713508496e-02 1.821733354476058261e-02 6.353088332306809638e-02
7.702464788732394254e+02 4.037138565348810659e-02 1.938422371936395980e-02 6.841246574331581731e-02
7.802496798975672618e+02 5.960616624764728672e-02 3.044313835402725696e-02 9.675245978913783740e-02
7.902528809218949846e+02 1.150259970733569503e-01 5.594132373894924321e-02 1.876587270437852506e-01
8.002560819462228210e+02 2.068280064317210565e-01 1.050593255415780969e-01 3.344111510282599120e-01
8.102592829705505437e+02 1.897980383833225426e-01 9.489406608717379510e-02 2.969145524160360927e-01
8.202624839948783801e+02 1.097209386581064761e-01 5.395139179758874637e-02 1.827825557432413150e-01
8.302656850192061029e+02 1.274242129992553818e-01 6.390719111857193213e-02 2.144441079199971845e-01
8.402688860435339393e+02 3.835988917338205018e-01 2.457087625013718857e-01 5.249536640170471280e-01
8.502720870678616620e+02 4.528376111972866602e-01 2.603115301170720319e-01 6.431407711273746663e-01
8.602752880921894985e+02 2.465318946830621638e-01 1.332922580784159372e-01 3.992554389770879841e-01
8.702784891165173349e+02 1.840030877201530857e-01 9.483132564802809750e-02 3.046500232405637831e-01
8.802816901408450576e+02 1.178133547949319765e-01 6.098109900696647295e-02 1.938885720968757664e-01
8.902848911651728940e+02 8.028739064835874184e-02 4.020416144131753328e-02 1.306612211394122536e-01
9.002880921895006168e+02 6.892066006737708472e-02 3.510916177636684565e-02 1.131641173815976231e-01
9.102912932138284532e+02 9.455722400001377592e-02 4.990972538978951517e-02 1.527311045839810366e-01
9.202944942381561759e+02 9.225499049498736559e-02 4.619924531751445906e-02 1.502337938989274091e-01
9.302976952624840123e+02 7.007273881146096339e-02 3.641466763612926510e-02 1.140506903003733197e-01
9.403008962868117351e+02 6.303830641391403034e-02 3.178552906464751637e-02 1.052392237587960883e-01
9.503040973111395715e+02 6.063658096381647350e-02 2.992074166096561280e-02 9.932468894837466478e-02
9.603072983354672942e+02 5.865148322498035804e-02 2.704463606494928937e-02 9.730520850010872247e-02
9.703104993597951307e+02 6.487900250685743608e-02 3.332424003403149093e-02 1.070947234211576393e-01
9.803137003841229671e+02 7.888426575937544649e-02 3.842584836348771071e-02 1.281848044322471125e-01
9.903169014084506898e+02 9.297692028230560013e-02 4.447625194170014978e-02 1.562647909401690127e-01
1.000320102432778526e+03 1.458352355345875762e-01 6.953875806869176668e-02 2.448904901237452802e-01
1.010323303457106249e+03 1.552648988308054923e-01 7.788735350750140840e-02 2.567595030425762204e-01
1.020326504481434085e+03 1.452225236652307516e-01 7.259637094380171074e-02 2.417964406843444158e-01
1.030329705505761922e+03 2.032776815275599003e-01 9.868321578168988417e-02 3.309905844162454591e-01
1.040332906530089531e+03 2.130497088799784000e-01 1.076276300664879421e-01 3.560025390148022773e-01
1.050336107554417367e+03 1.849309103725116366e-01 8.873085148717545223e-02 3.082394225042019986e-01
1.060339308578745204e+03 1.084488886540418973e-01 5.643642291744710437e-02 1.830754762531948687e-01
1.070342509603073040e+03 7.159997871802317726e-02 3.632674150846054023e-02 1.165591797096775101e-01
1.080345710627400877e+03 6.180546760648669702e-02 3.203678291712063614e-02 1.022092497205063510e-01
1.090348911651728486e+03 6.378964772419334905e-02 3.187088517940748350e-02 1.024626661706423830e-01
1.100352112676056322e+03 6.158338513202706727e-02 3.153812907134685706e-02 1.005595906431294706e-01
1.110355313700384158e+03 5.842676256446559246e-02 2.953909226812954925e-02 9.722790451327709138e-02
1.120358514724711995e+03 6.146986581050754850e-02 3.069068652411089879e-02 1.037073397824111037e-01
1.130361715749039604e+03 6.521590722737836965e-02 3.188002704100210277e-02 1.055317579381775811e-01
1.140364916773367440e+03 7.706987879599723479e-02 3.833592954318842255e-02 1.257250171405503436e-01
1.150368117797695277e+03 1.140765650465126319e-01 5.647092080583910462e-02 1.904109556309612206e-01
1.160371318822023113e+03 1.442592444466077317e-01 7.616269543170151035e-02 2.401367592527272332e-01
1.170374519846350722e+03 1.298142003904848296e-01 6.433273018447283054e-02 2.191510817639067688e-01
1.180377720870678559e+03 9.517848089056447913e-02 4.868449471078944296e-02 1.557589747055382612e-01
1.190380921895006395e+03 7.007834426930052707e-02 3.370185489767384135e-02 1.139737880267351761e-01
1.200384122919334231e+03 5.954051170338373056e-02 2.944018445438822962e-02 1.043266728190413717e-01
1.210387323943662068e+03 5.552154170209126077e-02 2.827098279064321762e-02 9.402031006074378083e-02
1.220390524967989677e+03 5.492147911050951348e-02 2.817573606677160891e-02 9.137776031121658260e-02
1.230393725992317513e+03 5.470211418774077738e-02 2.760053766143324289e-02 9.539017734854796093e-02
1.240396927016645350e+03 5.628472649423848367e-02 2.880180149891073058e-02 9.424201447826270617e-02
1.250400128040973186e+03 6.438832852040526911e-02 3.206817535043728767e-02 1.108121895878840663e-01
1.260403329065300795e+03 6.814949463004967012e-02 3.235290110687539383e-02 1.138309297720708074e-01
1.270406530089628632e+03 1.168083427517536271e-01 6.485917159214889260e-02 1.720652193404733354e-01
1.280409731113956468e+03 1.116737380080480846e-01 5.792279699249046343e-02 1.715066086999730566e-01
1.290412932138284305e+03 8.057984732099214564e-02 4.174085325278351771e-02 1.308175330928445512e-01
1.300416133162612141e+03 7.951901431608286719e-02 4.094630103812615940e-02 1.295588057034458285e-01
1.310419334186939750e+03 8.396040069237042935e-02 4.080061300953304049e-02 1.376608009729427540e-01
1.320422535211267586e+03 7.113905586072473419e-02 3.372408218212821773e-02 1.191933091002645717e-01
1.330425736235595423e+03 6.071654333691955951e-02 2.958611785367373792e-02 1.021182388833821175e-01
1.340428937259923259e+03 5.488001091603653819e-02 2.604249741471974938e-02 9.405422490781871481e-02
1.350432138284250868e+03 5.147819210717266558e-02 2.498319426987326286e-02 8.897753377807607333e-02
1.360435339308578705e+03 5.658758338544152278e-02 2.555063635689155260e-02 9.167815615094702941e-02
1.370438540332906541e+03 5.761820110552727525e-02 2.940638067743336914e-02 9.878300632474699972e-02
1.380441741357234378e+03 6.164036702070566087e-02 3.077723932545399499e-02 1.017078853060513488e-01
1.390444942381562214e+03 6.004730375717452773e-02 3.059524327521700310e-02 9.958665182965258100e-02
1.400448143405889823e+03 5.602042183082193288e-02 2.878579934945241572e-02 9.795650575117759162e-02
1.410451344430217659e+03 5.638926947218696195e-02 2.759423717436056828e-02 9.482439608013955301e-02
1.420454545454545496e+03 5.400824435572742360e-02 2.792196108053367209e-02 9.014140634182213341e-02
1.430457746478873332e+03 5.302556242588773311e-02 2.609386691137776867e-02 9.013767497766715653e-02
1.440460947503200941e+03 5.726953445072534288e-02 2.885924584154949540e-02 9.679716493083073692e-02
1.450464148527528778e+03 5.917087871382062381e-02 2.863029574047345344e-02 1.002043022995495886e-01
1.460467349551856614e+03 6.113901771593746592e-02 2.874637891110073257e-02 1.043309891471664586e-01
1.470470550576184451e+03 7.084571563375956227e-02 3.420064717680607047e-02 1.213712739206904562e-01
1.480473751600512060e+03 7.729356901264824997e-02 3.732364501236511839e-02 1.282904987733616553e-01
1.490476952624839896e+03 8.164329601736484976e-02 4.225831928300272100e-02 1.311362818832616794e-01
1.500480153649167733e+03 8.069188603323848574e-02 4.003954165515363761e-02 1.326189845660388777e-01
1.510483354673495569e+03 7.700546589766960048e-02 3.865387213375204994e-02 1.328825104167687954e-01
1.520486555697823405e+03 7.656246861557508554e-02 3.614309391745249012e-02 1.272295537739604743e-01
1.530489756722151014e+03 7.934574295096952223e-02 4.121334494039721047e-02 1.351106571375791099e-01
1.540492957746478851e+03 7.793080155393300457e-02 3.938868411662560520e-02 1.282657397980435099e-01
1.550496158770806687e+03 7.565161605317144433e-02 3.910409884652465279e-02 1.241747880103307999e-01
1.560499359795134524e+03 7.007071419846545857e-02 3.391918576227300614e-02 1.222979456766532524e-01
1.570502560819462133e+03 6.632669730186037393e-02 3.077100310429533789e-02 1.089021030478265484e-01
1.580505761843789969e+03 5.765815955794774406e-02 2.774787011310722237e-02 1.015307220788790321e-01
1.590508962868117806e+03 5.347035647290866028e-02 2.498731500150561113e-02 9.102864164122394242e-02
1.600512163892445642e+03 4.793259144260412358e-02 2.284060576815885590e-02 8.528685754086876014e-02
1.610515364916773478e+03 4.827457976844584664e-02 2.347263499380342414e-02 8.338754464263037347e-02
1.620518565941101087e+03 4.592948918718659651e-02 2.260184726356797777e-02 8.174070652172411855e-02
1.630521766965428924e+03 4.427039264508242367e-02 2.120277693597898139e-02 7.897272523767888408e-02
1.640524967989756760e+03 4.149951715227885585e-02 2.095939000679697753e-02 7.877789328296141980e-02
1.650528169014084597e+03 4.307872794309440534e-02 2.013533670340678441e-02 7.946985051550140011e-02
1.660531370038412206e+03 4.256481689217420789e-02 1.882574359044122264e-02 7.842862973649764036e-02
1.670534571062740042e+03 4.123403078724312276e-02 1.945234143925082815e-02 7.748773214447067514e-02
1.680537772087067879e+03 4.097929067557197491e-02 2.049963961702932699e-02 7.717233694301839364e-02
1.690540973111395715e+03 4.102331994188971459e-02 2.024725061299929851e-02 7.626504405222431227e-02
1.700544174135723324e+03 4.104207411956613261e-02 2.008993984056391471e-02 7.701415077563369960e-02
1.710547375160051160e+03 4.153631452144638386e-02 1.914692559686628423e-02 7.426955978323655783e-02
1.720550576184378997e+03 3.950201336551749376e-02 1.905207162680035149e-02 7.188325661836159064e-02
1.730553777208706833e+03 4.042805381555281824e-02 1.854241089047056756e-02 7.571773049529324784e-02
1.740556978233034670e+03 4.088006284206444768e-02 2.011693045017581838e-02 7.761019975765290346e-02
1.750560179257362279e+03 3.978606820214972140e-02 1.880138657526737520e-02 7.582007469600775262e-02
1.760563380281690115e+03 3.939631397386828687e-02 1.904534586051292999e-02 7.020262133540947080e-02
1.770566581306017952e+03 3.918090020313002436e-02 1.842937087852902431e-02 7.432511058782834135e-02
1.780569782330345788e+03 4.055573961546644207e-02 1.963936905338179925e-02 7.466502403693088541e-02
1.790572983354673397e+03 3.909627495558536114e-02 1.859507258419291001e-02 7.396427079386908021e-02
1.800576184379001234e+03 3.912899954802135510e-02 1.853242233773522846e-02 7.578665417037841467e-02
1.810579385403329070e+03 4.066497081600761038e-02 1.846669352181589535e-02 7.335922875503810003e-02
1.820582586427656906e+03 3.844390745103443141e-02 1.795374852229262783e-02 7.357358702857388910e-02
1.830585787451984743e+03 3.919462558762574350e-02 1.767533820913008702e-02 7.314893218884609138e-02
1.840588988476312352e+03 3.936239194686476373e-02 1.860812551040633492e-02 7.209516719516838312e-02
1.850592189500640188e+03 4.009886637375804919e-02 1.977289265154548101e-02 7.354072566506139608e-02
1.860595390524968025e+03 3.971844946754315986e-02 1.946664377181786879e-02 7.358375880001336022e-02
1.870598591549295861e+03 3.899214060786870828e-02 1.953459598008303044e-02 7.205550593598254727e-02
1.880601792573623470e+03 4.025352794838332748e-02 1.938913256155187087e-02 7.467641608505358464e-02
1.890604993597951307e+03 3.960558873636611105e-02 1.986806577557590978e-02 7.491610326430933608e-02
1.900608194622279143e+03 3.862352447635282460e-02 1.813537773831317562e-02 7.480464490825559920e-02
1.910611395646606979e+03 3.934917561473053743e-02 1.927352781529093756e-02 7.369570548248480235e-02
1.920614596670934588e+03 3.943733549956823792e-02 1.709932969987148360e-02 7.240455733521107551e-02
1.930617797695262425e+03 3.827812826120857020e-02 1.929154454988683820e-02 7.097224789928212318e-02
1.940620998719590261e+03 3.835475863839236249e-02 1.958216130177236128e-02 7.095388744721710383e-02
1.950624199743918098e+03 3.782390091566348311e-02 1.814476764908714082e-02 6.967258297437975423e-02
1.960627400768245934e+03 3.786102209870586405e-02 1.859509682482011692e-02 7.143208056498315250e-02
1.970630601792573543e+03 3.929385831244133070e-02 1.879721121462666483e-02 7.191409093413543563e-02
1.980633802816901380e+03 3.784987344896627304e-02 1.854877337204287671e-02 7.289737096426365803e-02
1.990637003841229216e+03 3.660374257975314294e-02 1.722976299670291728e-02 6.871424821906033098e-02
2.000640204865557052e+03 3.769911262088012499e-02 1.736119418477499038e-02 7.137386342801599337e-02
2.010643405889884662e+03 3.895360422397580596e-02 1.848013293844177896e-02 6.912081037336041678e-02
2.020646606914212498e+03 3.762466467387415303e-02 1.776150928641635762e-02 6.917809706162553196e-02
2.030649807938540334e+03 3.721810868283516316e-02 1.777465105494501971e-02 6.843542720901209242e-02
2.040653008962868171e+03 3.645461708973875281e-02 1.850179263447128061e-02 7.049513614178268273e-02
2.050656209987195780e+03 3.738797188067002897e-02 1.832536828569925058e-02 6.941001999552941226e-02
2.060659411011523844e+03 3.704345401803291193e-02 1.775797776995998931e-02 7.059558544445224126e-02
2.070662612035851453e+03 3.758503433317474107e-02 1.761325316345521697e-02 6.898468077929351128e-02
2.080665813060179062e+03 3.775633329841925762e-02 1.823912523483474379e-02 7.000190984558563034e-02
2.090669014084507126e+03 3.862161718600209959e-02 1.902333721671062988e-02 6.921019324006043305e-02
2.100672215108834735e+03 3.859753087126126941e-02 1.885743342844083473e-02 7.080194026807998253e-02
2.110675416133162798e+03 3.778114216509179807e-02 1.776980643110358596e-02 7.221221534900591765e-02
2.120678617157490407e+03 3.937754801886694800e-02 1.881469912033187017e-02 7.325716762358547296e-02
2.130681818181818016e+03 3.800568491533132254e-02 1.831674634840030347e-02 6.950281441111778868e-02
2.140685019206146080e+03 3.779353541304484448e-02 1.927376255717488593e-02 6.822142568752775915e-02
2.150688220230473689e+03 3.874414252284432564e-02 1.916127981513696468e-02 6.741910303027501272e-02
2.160691421254801753e+03 3.853027911270117539e-02 1.922536771366662942e-02 6.688852110078971624e-02
2.170694622279129362e+03 3.767264167560801374e-02 1.847177098916815211e-02 6.802778808065626515e-02
2.180697823303456971e+03 3.687362575501179629e-02 1.816796320746819765e-02 6.706134752469966598e-02
2.190701024327785035e+03 3.639547231688983198e-02 1.742349198283731082e-02 6.754816311042451116e-02
2.200704225352112644e+03 3.738053285409501103e-02 1.727369852763776387e-02 6.738448417057590900e-02
2.210707426376440253e+03 3.668924098125093958e-02 1.855817290762159025e-02 6.525324019895949179e-02
2.220710627400768317e+03 3.625298688314654988e-02 1.786561790077357062e-02 6.293305517114276826e-02
2.230713828425095926e+03 3.589084123599134424e-02 1.654203801537935253e-02 6.385938655387032870e-02
2.240717029449423990e+03 3.632947584817744491e-02 1.718413647122125215e-02 6.591889315173481145e-02
2.250720230473751599e+03 3.536619041263928953e-02 1.653483347780434695e-02 6.551351825733855994e-02
2.260723431498079208e+03 3.630049641167334973e-02 1.802159403399660603e-02 6.541796048961033561e-02
2.270726632522407272e+03 3.725156246810643751e-02 1.835665992555342643e-02 6.623511949795543585e-02
2.280729833546734881e+03 3.752397128798865694e-02 1.746058993602181419e-02 6.713959928044206660e-02
2.290733034571062944e+03 3.642016651215407297e-02 1.687684657088151657e-02 6.519543228740999619e-02
2.300736235595390553e+03 3.641891456677054384e-02 1.814280783185876628e-02 6.464281248054794260e-02
2.310739436619718163e+03 3.589550599340685100e-02 1.774977893805046100e-02 6.428342577538900815e-02
2.320742637644046226e+03 3.599093123560694052e-02 1.754652283848151875e-02 6.584995146352841389e-02
2.330745838668373835e+03 3.651626553324901353e-02 1.819926696097078772e-02 6.392932178481214311e-02
2.340749039692701444e+03 3.718701480807758142e-02 1.866635244914358061e-02 6.431926700955765963e-02
2.350752240717029508e+03 3.802862639690154228e-02 1.790132863169135308e-02 6.576068920174282795e-02
2.360755441741357117e+03 3.638408756660115734e-02 1.771281090212813158e-02 6.371826872726428503e-02
2.370758642765685181e+03 3.662969722160154540e-02 1.827167086930840331e-02 6.551752552724557366e-02
2.380761843790012790e+03 3.604033847161493970e-02 1.691668614921935238e-02 6.427769122712720384e-02
2.390765044814340399e+03 3.655091359472296964e-02 1.821620852896192397e-02 6.220814844714583208e-02
2.400768245838668463e+03 3.708817860717641968e-02 1.789409323716649111e-02 6.488382028473117791e-02
2.410771446862996072e+03 3.720980135014064633e-02 1.775918484796384228e-02 6.554831605522358495e-02
2.420774647887324136e+03 3.584556571502085093e-02 1.702713875596248774e-02 6.599898004054099987e-02
2.430777848911651745e+03 3.651582685686895896e-02 1.809179315959565798e-02 6.522685545925376027e-02
2.440781049935979354e+03 3.713187078296147775e-02 1.792439366441133178e-02 6.320349730049051873e-02
2.450784250960307418e+03 3.666557019961969727e-02 1.797782112220402614e-02 6.262739790853781574e-02
2.460787451984635027e+03 3.589861197455244957e-02 1.780987826375601130e-02 6.669972460140026482e-02
2.470790653008963091e+03 3.581827291474858066e-02 1.818490673891236947e-02 6.434395101784858018e-02
2.480793854033290700e+03 3.533055927558502451e-02 1.644486312137393574e-02 6.462135282489352150e-02
2.490797055057618309e+03 3.645477595161857043e-02 1.745687110136275380e-02 6.631466073505490333e-02
2.500800256081946372e+03 3.731882590978396336e-02 1.897264594964434212e-02 6.469161951400705102e-02
2.510803457106273981e+03 3.608713849216147601e-02 1.730825335264725082e-02 6.273487668396379724e-02
2.520806658130601591e+03 3.507511646164516300e-02 1.622176498031823247e-02 6.299812282019884302e-02
2.530809859154929654e+03 3.699770021826791905e-02 1.787954559436084889e-02 6.303235572610520199e-02
2.540813060179257263e+03 3.613033354954840737e-02 1.829216637913212012e-02 6.600264409869179005e-02
2.550816261203585327e+03 3.673116001349278903e-02 1.738354850865533527e-02 6.781383892512114764e-02
2.560819462227912936e+03 3.611981572211894059e-02 1.685282488516607821e-02 6.614452668136894253e-02
2.570822663252240545e+03 3.633109088289244309e-02 1.721710855821301581e-02 6.385308961337990419e-02
2.580825864276568609e+03 3.521483759975369693e-02 1.741985357834111708e-02 6.290213095550004074e-02
2.590829065300896218e+03 3.550202949545736009e-02 1.789513437155465514e-02 6.361394412598692094e-02
2.600832266325224282e+03 3.648018353970045036e-02 1.687014924318403636e-02 6.190895111156622527e-02
2.610835467349551891e+03 3.515747356224397518e-02 1.771876528506007020e-02 6.428054745201657039e-02
2.620838668373879500e+03 3.520178907709922006e-02 1.708663935736776454e-02 6.329422612115764846e-02
2.630841869398207564e+03 3.499040124203161434e-02 1.624301717676829293e-02 6.376632337484967883e-02
2.640845070422535173e+03 3.740288758769502037e-02 1.721710307147897995e-02 6.307705809881508641e-02
2.650848271446862782e+03 3.654456108105208489e-02 1.812761793960763687e-02 6.443468718209967305e-02
2.660851472471190846e+03 3.801031731302600275e-02 1.848578782565545378e-02 6.527440652754737394e-02
2.670854673495518455e+03 3.773275771515408744e-02 1.839854684991094197e-02 6.680866041203847860e-02
2.680857874519846519e+03 3.799391905104793771e-02 1.971270185759061572e-02 6.579209288742690620e-02
2.690861075544174128e+03 3.928008639696407844e-02 2.022603589120418321e-02 6.921398285524579808e-02
2.700864276568501737e+03 4.206107103139331005e-02 2.142367436840126455e-02 7.034893908850373134e-02
2.710867477592829800e+03 4.143839124534146046e-02 2.026878425466922123e-02 7.204942362488742091e-02
2.720870678617157409e+03 4.109800103375108732e-02 1.957856611375178441e-02 7.133302264883571719e-02
2.730873879641485473e+03 4.193478995610093463e-02 2.175087901479921815e-02 7.014092494167152581e-02
2.740877080665813082e+03 4.382126116586133185e-02 2.260578145163310432e-02 7.311822633431097618e-02
2.750880281690140691e+03 4.262375119450725891e-02 2.039253718015224606e-02 7.403731091825220545e-02
2.760883482714468755e+03 4.279788439413202000e-02 1.969797942405690505e-02 7.439694055739032308e-02
2.770886683738796364e+03 4.412993767730306188e-02 2.090508094904097725e-02 7.352580090587615413e-02
2.780889884763124428e+03 4.138870219602204525e-02 2.017001511828762916e-02 6.849866745730809336e-02
2.790893085787452037e+03 4.003214456518392611e-02 2.055882951094610903e-02 6.939591153179647254e-02
2.800896286811779646e+03 4.170258501903748721e-02 2.017357421167314396e-02 6.890109702617037979e-02
2.810899487836107710e+03 4.152633454152649534e-02 2.109545401370491180e-02 6.960817774307943850e-02
2.820902688860435319e+03 3.961810289148415959e-02 1.927736228439102736e-02 6.665983917089450539e-02
2.830905889884762928e+03 3.733315907766093095e-02 1.841183280341318271e-02 6.417168065076679639e-02
2.840909090909090992e+03 3.755131448141370981e-02 1.920946803215591026e-02 6.249896453219544457e-02
2.850912291933418601e+03 3.700712049566654699e-02 1.843896900190812940e-02 6.446570967405998442e-02
2.860915492957746665e+03 3.794552866776067235e-02 1.829821708230650393e-02 6.296654276681791507e-02
2.870918693982074274e+03 3.753952277854611524e-02 1.979067866617145038e-02 6.341080151097541751e-02
2.880921895006401883e+03 3.758467411391239188e-02 1.867426419385105965e-02 6.382925442861007992e-02
2.890925096030729947e+03 3.584279261457722771e-02 1.663242198447684866e-02 6.121809626297954748e-02
2.900928297055057556e+03 3.389668871795326055e-02 1.660054516932592261e-02 5.936058359283335334e-02
2.910931498079385619e+03 3.552672522957838613e-02 1.713483734669365988e-02 6.022653861659202357e-02
2.920934699103713228e+03 3.277049548744277035e-02 1.671552103046907919e-02 5.858668918450092578e-02
2.930937900128040837e+03 3.288935254832643651e-02 1.679027722870525194e-02 5.672038276242712118e-02
2.940941101152368901e+03 3.476705060296404748e-02 1.675508114242406713e-02 5.945025378275325262e-02
2.950944302176696510e+03 3.556262043793659289e-02 1.682896039240180941e-02 5.878012189830117418e-02
2.960947503201024119e+03 3.450288296458599996e-02 1.761713193226002033e-02 5.885617488979882905e-02
2.970950704225352183e+03 3.409183349292568832e-02 1.743938907908050215e-02 6.032146015727081478e-02
2.980953905249679792e+03 3.496850038621543422e-02 1.739428429437332377e-02 5.855656387139095836e-02
2.990957106274007856e+03 3.344752321883379814e-02 1.593990033365472528e-02 5.834808279278517334e-02
3.000960307298335465e+03 3.500129736957037496e-02 1.647244264534494448e-02 6.191155647543863938e-02
3.010963508322663074e+03 3.509565099245297304e-02 1.802434269588858856e-02 5.921381153230545480e-02
3.020966709346991138e+03 3.436140375191005375e-02 1.677773119328494419e-02 5.897345599654352233e-02
3.030969910371318747e+03 3.416762156098061831e-02 1.749759849194364864e-02 5.960099514673446175e-02
3.040973111395646811e+03 3.634413489688808480e-02 1.698276848402208508e-02 6.070084363553240187e-02
3.050976312419974420e+03 3.554882869968193498e-02 1.738121942052015326e-02 6.024259922405615642e-02
3.060979513444302029e+03 3.497505807354511081e-02 1.671282758857742246e-02 6.002797943142667431e-02
3.070982714468630093e+03 3.467256007306909055e-02 1.716187428935052675e-02 5.776307990503292550e-02
3.080985915492957702e+03 3.467267967362940712e-02 1.774394604710299861e-02 6.078953298276845024e-02
3.090989116517285311e+03 3.400476943868936675e-02 1.685233655092861077e-02 5.884768843033247321e-02
3.100992317541613374e+03 3.505328297792210251e-02 1.727179341936414814e-02 5.867953766494894002e-02
3.110995518565940984e+03 3.548835141778493990e-02 1.712196952561100341e-02 6.057059569023193202e-02
3.120998719590269047e+03 3.442587405390581945e-02 1.748336442320184980e-02 6.047626605745486106e-02
3.131001920614596656e+03 3.481653975511656007e-02 1.677171535660303830e-02 6.013753807155032549e-02
3.141005121638924265e+03 3.383281838317141882e-02 1.625596972975011309e-02 5.877657678911928779e-02
3.151008322663252329e+03 3.412443640828568409e-02 1.590451706091255274e-02 5.919649427470145830e-02
3.161011523687579938e+03 3.432987298117809449e-02 1.604487129885539751e-02 5.936070072943144121e-02
3.171014724711908002e+03 3.488510422510253395e-02 1.687669797217004539e-02 5.800412367492776416e-02
3.181017925736235611e+03 3.519518511842965186e-02 1.818159763685074301e-02 5.845627194683353234e-02
3.191021126760563220e+03 3.442703958972453265e-02 1.751597830841744932e-02 6.090264209550171060e-02
3.201024327784891284e+03 3.420822863628385224e-02 1.769108475501740899e-02 5.944405139021961132e-02
3.211027528809218893e+03 3.566821307786725154e-02 1.784910496129723731e-02 6.007351525934371411e-02
3.221030729833546957e+03 3.440865363002348215e-02 1.727801889244156772e-02 5.831566120541842313e-02
3.231033930857874566e+03 3.473734514361360992e-02 1.717719309655944479e-02 5.863204397111990845e-02
3.241037131882202175e+03 3.495740836529202811e-02 1.632022728424083191e-02 6.009888127671534491e-02
3.251040332906530239e+03 3.541460074470602348e-02 1.722530314196716456e-02 6.131889150681152367e-02
3.261043533930857848e+03 3.524522393571551115e-02 1.684019255008291707e-02 6.047901400599017818e-02
3.271046734955185457e+03 3.578054119179275433e-02 1.762926916231253791e-02 6.204678730423420635e-02
3.281049935979513521e+03 3.621228790493339483e-02 1.835042223662001690e-02 6.390164677466488030e-02
3.291053137003841130e+03 3.770226357183618926e-02 1.984307724803812539e-02 6.543562919313535009e-02
3.301056338028169193e+03 4.026093954108737188e-02 2.090451349830850861e-02 6.594096220988621138e-02
3.311059539052496802e+03 4.371016826378577858e-02 2.170134297701103651e-02 7.159783926792523401e-02
3.321062740076824412e+03 4.584291096060036375e-02 2.431192443676213205e-02 8.126509601851451825e-02
3.331065941101152475e+03 5.172287681153605460e-02 2.555857395022593723e-02 8.733210404177731145e-02
3.341069142125480084e+03 4.977901553388632688e-02 2.595377819426708185e-02 8.336127760869099790e-02
3.351072343149808148e+03 4.600998996136070052e-02 2.275982972816928060e-02 7.700098406536207141e-02
3.361075544174135757e+03 4.151594251334812108e-02 2.201704910628262540e-02 7.163092437754944863e-02
3.371078745198463366e+03 4.062748676164661815e-02 2.059213555388373501e-02 6.877387331614086274e-02
3.381081946222791430e+03 4.001040852464912700e-02 1.974919331843774661e-02 6.636644448234045590e-02
3.391085147247119039e+03 3.958658616403269714e-02 1.989547141057878762e-02 6.638636333366570996e-02
3.401088348271446648e+03 3.863579475874552582e-02 1.975992048190936337e-02 6.741097651549692038e-02
3.411091549295774712e+03 3.877107950358200938e-02 1.851529934836591840e-02 6.616824237067771286e-02
3.421094750320102321e+03 3.775586586637953018e-02 1.869109860865052555e-02 6.611380143890911720e-02
3.431097951344430385e+03 3.640906404374796151e-02 1.846816954277421402e-02 6.138331199507244401e-02
3.441101152368757994e+03 3.681660422667193400e-02 1.885572578443427127e-02 6.323202523508793249e-02
3.451104353393085603e+03 3.634257715228639274e-02 1.823981077960491054e-02 5.978821704493164635e-02
3.461107554417413667e+03 3.688695173310674313e-02 1.837562043324008840e-02 6.082047654010617338e-02
3.471110755441741276e+03 3.723774975640221918e-02 1.721810692420189595e-02 6.223278139377775436e-02
3.481113956466069340e+03 3.687085315505002348e-02 1.857952524292919017e-02 6.364501748490730693e-02
3.491117157490396949e+03 3.657091198952388406e-02 1.736046952969089868e-02 6.429225253267072115e-02
3.501120358514724558e+03 3.614269658973940508e-02 1.778729748512633546e-02 6.112430107704450166e-02
3.511123559539052621e+03 3.674807915906163486e-02 1.776930170049828908e-02 6.411156553890159926e-02
3.521126760563380230e+03 3.852014563620401177e-02 1.871763831534050196e-02 6.879208520303235763e-02
3.531129961587708294e+03 4.161737893500880997e-02 2.018323725001507432e-02 7.290762579680983013e-02
3.541133162612035903e+03 4.392237535359740097e-02 2.070622198776807255e-02 7.587070589673990118e-02
3.551136363636363512e+03 4.316404297658958666e-02 1.996358516465498653e-02 7.634518193619133086e-02
3.561139564660691576e+03 4.495562277387482597e-02 2.129928897393860987e-02 8.285459419034110762e-02
3.571142765685019185e+03 4.701877015556863576e-02 2.209045178489732822e-02 8.652907557160478824e-02
3.581145966709346794e+03 4.965830457470030157e-02 2.381191006184595060e-02 8.859491072730013572e-02
3.591149167733674858e+03 5.236909999265846466e-02 2.461319471473868287e-02 9.473758886959772474e-02
3.601152368758002467e+03 5.217941662067494824e-02 2.620996361301662636e-02 9.533875801701645336e-02
3.611155569782330531e+03 5.268481611498901374e-02 2.536348210655864355e-02 9.596995770907795764e-02
3.621158770806658140e+03 5.569314302204010636e-02 2.695430764834164453e-02 9.757459545082663999e-02
3.631161971830985749e+03 5.597091590501782066e-02 2.712612496446524871e-02 9.377953630340768454e-02
3.641165172855313813e+03 5.304250993464796476e-02 2.488005495814313642e-02 9.283218068697697556e-02
3.651168373879641422e+03 4.913534655038613586e-02 2.321212857836260288e-02 8.759286553477696469e-02
3.661171574903969486e+03 4.619661030882576264e-02 2.209636590003032086e-02 7.981903172620855025e-02
3.671174775928297095e+03 4.397444791621861471e-02 2.095504058471266140e-02 7.458146827453909777e-02
3.681177976952624704e+03 4.176176678206357934e-02 1.996533529687523692e-02 7.409747189916382482e-02
3.691181177976952767e+03 3.923625317274997970e-02 1.860897936146635803e-02 7.028870480601989712e-02
3.701184379001280377e+03 3.854843242408885484e-02 1.839820118287211620e-02 6.834338422074678898e-02
3.711187580025607986e+03 3.919535332413739276e-02 1.864375280965823584e-02 6.815942341375293145e-02
3.721190781049936049e+03 4.402432769429549808e-02 2.230506998852966466e-02 7.421241498945337078e-02
3.731193982074263658e+03 1.998665450027013735e-01 1.638470313620994101e-01 2.367169889585497844e-01
3.741197183098591722e+03 2.682821268859886255e-01 2.344965512219442383e-01 2.997429922935551661e-01
3.751200384122919331e+03 9.235528236729671769e-02 5.878106415949133079e-02 1.262155505906047692e-01
3.761203585147246940e+03 3.754782113452246467e-02 1.785408809393193574e-02 6.174715936393478100e-02
3.771206786171575004e+03 3.529420083527999574e-02 1.788929871031378835e-02 6.122016519615433583e-02
3.781209987195902613e+03 3.796772757721950803e-02 1.854311541792022511e-02 6.390715123683025911e-02
3.791213188220230677e+03 3.782818266107292743e-02 1.761151583981382385e-02 6.425427858511957580e-02
3.801216389244558286e+03 3.699183937305298292e-02 1.766181772396573091e-02 6.188484648890072576e-02
3.811219590268885895e+03 3.661592589651714580e-02 1.730136737989328155e-02 6.053708719550237455e-02
3.821222791293213959e+03 3.827363902107061566e-02 1.979193260796134959e-02 6.305465506899299299e-02
3.831225992317541568e+03 3.805313417642822854e-02 1.858210756828923907e-02 6.566849496886385806e-02
3.841229193341869177e+03 3.757056128560249536e-02 1.788155655341548689e-02 6.447910084388490393e-02
3.851232394366197241e+03 3.912404386379264576e-02 1.860889482701957517e-02 6.438959489625492583e-02
3.861235595390524850e+03 3.646391715926640409e-02 1.909598558017386663e-02 6.336480581819876889e-02
3.871238796414852914e+03 3.492008275395126066e-02 1.791092446519539430e-02 6.367748287687469144e-02
3.881241997439180523e+03 3.701718484352590349e-02 1.740402330229097114e-02 6.290568947549576850e-02
3.891245198463508132e+03 3.707325582827943750e-02 1.788198462064930980e-02 6.506970784236032479e-02
3.901248399487836195e+03 3.721400838493053864e-02 1.762862120551514714e-02 6.404404335493850409e-02
3.911251600512163805e+03 3.591223714451110410e-02 1.816452159816318510e-02 6.351228568490337179e-02
3.921254801536491868e+03 3.768748931268462582e-02 1.955813806381760320e-02 6.393218648926045355e-02
3.931258002560819477e+03 3.694950483111231893e-02 1.728047656327487414e-02 6.519083681402586261e-02
3.941261203585147086e+03 3.759669577374412375e-02 1.653954769672771885e-02 6.251482872436948945e-02
3.951264404609475150e+03 3.632408254318181262e-02 1.854611351115966270e-02 6.292672062706675118e-02
3.961267605633802759e+03 3.781786453169572876e-02 1.830840941820526327e-02 6.420800876533044876e-02
3.971270806658130823e+03 3.697136574750773536e-02 1.682885185690485841e-02 6.583884088389699296e-02
3.981274007682458432e+03 3.715617894049678960e-02 1.727135695127903284e-02 6.487657467227737895e-02
3.991277208706786041e+03 3.759930257045879243e-02 1.888779173853633725e-02 6.507927436321440939e-02
4.001280409731114105e+03 3.747598152488232359e-02 1.863095899030936184e-02 6.593698190179952956e-02
4.011283610755441714e+03 3.746919671659827700e-02 1.882344454997757210e-02 6.431278926377768934e-02
4.021286811779769323e+03 3.836850831882693269e-02 2.038629422179766629e-02 6.459827971186650475e-02
4.031290012804097387e+03 3.713346783606554652e-02 1.750951726860363808e-02 6.314780755393586964e-02
4.041293213828424996e+03 3.735376095730530421e-02 1.828278375189885258e-02 6.340429997334538770e-02
4.051296414852753060e+03 3.631305301104398309e-02 1.797207162648348927e-02 6.333389376846963736e-02
4.061299615877080669e+03 3.788382996319576007e-02 1.823375639595059897e-02 6.390389549798393409e-02
4.071302816901408278e+03 3.688061787337718750e-02 1.724483603252950983e-02 6.320875628587599437e-02
4.081306017925736342e+03 3.797406852684594852e-02 1.878351406377182231e-02 6.403910458978670506e-02
4.091309218950063951e+03 3.779177474868357367e-02 1.800485455198669663e-02 6.709450993079653369e-02
4.101312419974391560e+03 3.751395838843606806e-02 1.799268869360404893e-02 6.477439599388425118e-02
4.111315620998719169e+03 3.712380776248161429e-02 1.805024383378681790e-02 6.315433083064085629e-02
4.121318822023047687e+03 3.741678024256693547e-02 1.885526603165758180e-02 6.521205893367684747e-02
4.131322023047375296e+03 3.870423525215090782e-02 1.900117788137077948e-02 6.515932475651399491e-02
4.141325224071702905e+03 3.968223692427569338e-02 1.844979674258919941e-02 6.610001701779882888e-02
4.151328425096030514e+03 3.846623772199479763e-02 1.937640456952847284e-02 6.694729933598679572e-02
4.161331626120358123e+03 3.771101910369996368e-02 1.823993642503337828e-02 6.751316324280617898e-02
4.171334827144686642e+03 3.891538039502044632e-02 1.810108910816947067e-02 6.735781235210470952e-02
4.181338028169014251e+03 3.884915515212668952e-02 1.806698208731911601e-02 6.763337709838486422e-02
4.191341229193341860e+03 3.820916789485608728e-02 1.892655623920235994e-02 6.548408292773864880e-02
4.201344430217669469e+03 3.848666756709533121e-02 1.887586986663569028e-02 6.658159387353723702e-02
4.211347631241997078e+03 3.712253899306625082e-02 1.798191629624745769e-02 6.474563296138934054e-02
4.221350832266325597e+03 3.745864379036438485e-02 1.753549853527966093e-02 6.491551565676571822e-02
4.231354033290653206e+03 3.845776604520544095e-02 1.904535712265222405e-02 6.849646455162908265e-02
4.241357234314980815e+03 3.850518092461253233e-02 1.982712516020901719e-02 6.659790906725682191e-02
4.251360435339308424e+03 3.972456557939287036e-02 1.942738745438209527e-02 6.934454766156743222e-02
4.261363636363636033e+03 4.037599314281781898e-02 1.954087754083246378e-02 6.940474518187392250e-02
4.271366837387964551e+03 3.945651543343259293e-02 1.936802216330184984e-02 6.904831533746613736e-02
4.281370038412292161e+03 3.735585503429609405e-02 1.784479666556452321e-02 6.671896910927825608e-02
4.291373239436619770e+03 3.952788951974171849e-02 2.087867175963750710e-02 6.911461769857880910e-02
4.301376440460947379e+03 4.016674886486567425e-02 2.003604100665442797e-02 6.641680379808155565e-02
4.311379641485274988e+03 3.868539658560695566e-02 1.815134464632800135e-02 6.712371031080668904e-02
4.321382842509603506e+03 3.943688004350677512e-02 1.911949742465636135e-02 6.724129163885525506e-02
4.331386043533931115e+03 4.054020617227635515e-02 1.936899003313796719e-02 6.854777110269028029e-02
4.341389244558258724e+03 3.945494817843513136e-02 1.913197093062322940e-02 6.942774828018234701e-02
4.351392445582586333e+03 3.955316799968465469e-02 1.945928243292258455e-02 6.851818017358052293e-02
4.361395646606913942e+03 3.918497615807364082e-02 1.914596858155729123e-02 6.648021320423477820e-02
4.371398847631241551e+03 3.916381242213296671e-02 2.010076787461848730e-02 6.964651206998373478e-02
4.381402048655570070e+03 4.043170763213541768e-02 1.924758615343508811e-02 7.385140386649623190e-02
4.391405249679897679e+03 4.047710488282500740e-02 2.033201217235942188e-02 7.033515646347630879e-02
4.401408450704225288e+03 4.519664682970667147e-02 2.228192172800468052e-02 7.516121728071153973e-02
4.411411651728552897e+03 4.830577695000223132e-02 2.388228281789908994e-02 8.068155284924818926e-02
4.421414852752880506e+03 4.361293195141411477e-02 2.025611734282318360e-02 7.264483221113403333e-02
4.431418053777209025e+03 4.091790426708773881e-02 2.175627436421624997e-02 7.453595554351909180e-02
4.441421254801536634e+03 4.091878432367195007e-02 1.963263586478953410e-02 7.225670362559070969e-02
4.451424455825864243e+03 4.269048401839722895e-02 2.002112864410099738e-02 7.624515489416844316e-02
4.461427656850191852e+03 4.321511382213702457e-02 2.078642180619897500e-02 7.839392987769018550e-02
4.471430857874519461e+03 4.269066720131299564e-02 2.119128929323466082e-02 7.780150026374053895e-02
4.481434058898847979e+03 4.264683174102795044e-02 2.144058120965381189e-02 7.805822834497776197e-02
4.491437259923175588e+03 4.369295449051036062e-02 2.205397266622768221e-02 8.120930692823587205e-02
4.501440460947503198e+03 4.462131541878917862e-02 2.188022941042319994e-02 8.553292487449447312e-02
4.511443661971830807e+03 4.555392413004062668e-02 2.195719587575229587e-02 8.844987072536250605e-02
4.521446862996158416e+03 4.704766273662233655e-02 2.223370828829047269e-02 8.994876523051738293e-02
4.531450064020486934e+03 4.701322803987728616e-02 2.265638541990078886e-02 9.364273268308388742e-02
4.541453265044814543e+03 4.912379635610945872e-02 2.200295857022883592e-02 9.525330353507904801e-02
4.551456466069142152e+03 4.998248632365141081e-02 2.253806614268807212e-02 1.002818812530981429e-01
4.561459667093469761e+03 5.041182762439305742e-02 2.325705352734892817e-02 9.835646489671590054e-02
4.571462868117797370e+03 5.344548012491751043e-02 2.415773324229116004e-02 1.000641249568993418e-01
4.581466069142125889e+03 5.340125226564652883e-02 2.449235257716517525e-02 1.035638988404826849e-01
4.591469270166453498e+03 5.548814852328377845e-02 2.562244593673398615e-02 1.105431398103491059e-01
4.601472471190781107e+03 5.361387569273560333e-02 2.493853190946930531e-02 1.125420793905109185e-01
4.611475672215108716e+03 5.835551740134577864e-02 2.718861845925554799e-02 1.144919793716763085e-01
4.621478873239436325e+03 5.920987649110311807e-02 2.647893345297500090e-02 1.197252982160041113e-01
4.631482074263764844e+03 6.128312122047240018e-02 2.870848441421920000e-02 1.208216432108639299e-01
4.641485275288092453e+03 6.210492000047210942e-02 2.968958353601618833e-02 1.230970038008724066e-01
4.651488476312420062e+03 6.543085675687863867e-02 2.873016513566976557e-02 1.292546019020176240e-01
4.661491677336747671e+03 6.959403610609124491e-02 3.362045240541788882e-02 1.354966531860609114e-01
4.671494878361075280e+03 7.154377708667171432e-02 3.133360232351661140e-02 1.364542586267772639e-01
4.681498079385402889e+03 7.265391146346449058e-02 3.286192836402897915e-02 1.437361607836817601e-01
4.691501280409731407e+03 7.656844456462055803e-02 3.511329080482245707e-02 1.505241968350196358e-01
4.701504481434059016e+03 8.032820880002776442e-02 3.769935197561087581e-02 1.486841072622326065e-01
4.711507682458386626e+03 8.480593022189651664e-02 3.993087488820610403e-02 1.552220035494875083e-01
4.721510883482714235e+03 8.946511795057657257e-02 4.111399522779567162e-02 1.612864771833607547e-01
4.731514084507041844e+03 9.070436928155770073e-02 4.149865965257142769e-02 1.657140493821929184e-01
4.741517285531370362e+03 9.294900278900852797e-02 4.350953987027553205e-02 1.748821517000380688e-01
4.751520486555697971e+03 9.841351078582326328e-02 4.426550122308926111e-02 1.760565109590047639e-01
4.761523687580025580e+03 9.863104140507640560e-02 4.472632716781347467e-02 1.744411022625386443e-01
4.771526888604353189e+03 9.711823692735850611e-02 4.247921357361145178e-02 1.843676654882988597e-01
4.781530089628680798e+03 9.565121579338867197e-02 4.360141109784004820e-02 1.804377129088660658e-01
4.791533290653009317e+03 9.478426860977029467e-02 4.081837541788110868e-02 1.897403709116115278e-01
4.801536491677336926e+03 8.670925750508255703e-02 3.789073016865706495e-02 1.843516330355895461e-01
4.811539692701664535e+03 8.807938498173890907e-02 3.894808009549586419e-02 1.784865123812883203e-01
4.821542893725992144e+03 9.435075353867070080e-02 3.911423803918300662e-02 1.821559850561665639e-01
4.831546094750319753e+03 1.015512921537761598e-01 4.651773953923257071e-02 1.898594045756791804e-01
4.841549295774648272e+03 1.044402661405056526e-01 4.639545693407926691e-02 1.841180006089132015e-01
4.851552496798975881e+03 1.030634917875999229e-01 5.191122758751660904e-02 1.785704151958530106e-01
4.861555697823303490e+03 1.006915078114055118e-01 4.658840380076819526e-02 1.786060012956692256e-01
4.871558898847631099e+03 9.510475519362555918e-02 4.265216597883097344e-02 1.713959492173356136e-01
4.881562099871958708e+03 8.861762134529919954e-02 4.165593210834040577e-02 1.640442259748098319e-01
4.891565300896287226e+03 8.391010694378596424e-02 3.875504761805353970e-02 1.588181311078324387e-01
4.901568501920614835e+03 8.078864302412634701e-02 3.891464444128558964e-02 1.555111383240877221e-01
4.911571702944942444e+03 8.168455618623830794e-02 3.532833168592044298e-02 1.526788299193845289e-01
4.921574903969270053e+03 7.467586572264005296e-02 3.283884191226703331e-02 1.516062448153990272e-01
4.931578104993597663e+03 7.203163937828004071e-02 3.304986664496194215e-02 1.418840303289867766e-01
4.941581306017926181e+03 7.074101403610466576e-02 3.463148210549381323e-02 1.323790636168346302e-01
4.951584507042253790e+03 6.765160393191722854e-02 3.071707663853533513e-02 1.312716891657548790e-01
4.961587708066581399e+03 6.322664151585430381e-02 2.951220809425671165e-02 1.184614476628030322e-01
4.971590909090909008e+03 6.263220280596069889e-02 2.992786592723701081e-02 1.247408481122105756e-01
4.981594110115236617e+03 6.262026288661548534e-02 2.994459207579283980e-02 1.205879527019054626e-01
4.991597311139564226e+03 5.921671026126898441e-02 2.780020853357593677e-02 1.128401487134152170e-01
5.001600512163892745e+03 5.788563948819497318e-02 2.784502492345298369e-02 1.097826084893459009e-01
5.011603713188220354e+03 5.781200929978200925e-02 2.661754001261862693e-02 1.109719399074478724e-01
5.021606914212547963e+03 5.570163029450104358e-02 2.614598596540166145e-02 1.064025134501807163e-01
5.031610115236875572e+03 5.618546313013912663e-02 2.780549811365906274e-02 1.055622129296666517e-01
5.041613316261203181e+03 5.580631626434268133e-02 2.644957250242716690e-02 1.026636024571785377e-01
5.051616517285531700e+03 5.302035370490749272e-02 2.658950237731089530e-02 9.749867718613007550e-02
5.061619718309859309e+03 5.451641559326757258e-02 2.633377268702673593e-02 9.678667867253540336e-02
5.071622919334186918e+03 5.267209659267726302e-02 2.671952247364655850e-02 9.880813700739424221e-02
5.081626120358514527e+03 5.448982332965757180e-02 2.574172300663467999e-02 9.525801694040875178e-02
5.091629321382842136e+03 5.213770093040470677e-02 2.505203903858538653e-02 9.020925137088890711e-02
5.101632522407170654e+03 5.055660226225829057e-02 2.428763569425967245e-02 9.301516240528114043e-02
5.111635723431498263e+03 5.407741681430976166e-02 2.751620399253176807e-02 9.147830633264876499e-02
5.121638924455825872e+03 5.258316481268708598e-02 2.507014389996787759e-02 9.461698870705169406e-02
5.131642125480153481e+03 5.162368354866753856e-02 2.552312672570590177e-02 9.190144459922197639e-02
5.141645326504481091e+03 5.131780989407421639e-02 2.606730432686090240e-02 9.162071153286321934e-02
5.151648527528809609e+03 5.212234595082042982e-02 2.551676023988567327e-02 9.167466561230597222e-02
5.161651728553137218e+03 5.213382168740064715e-02 2.446387938010402899e-02 9.331526183046173761e-02
5.171654929577464827e+03 5.265188272782429096e-02 2.491286978032785510e-02 9.243411386960090348e-02
5.181658130601792436e+03 5.326209210559369744e-02 2.595903002366917525e-02 9.307846447714167304e-02
5.191661331626120045e+03 4.963826265392200926e-02 2.375347504384933001e-02 8.983415300734937103e-02
5.201664532650448564e+03 5.298166281288033130e-02 2.742338275096508141e-02 9.013692956705150749e-02
5.211667733674776173e+03 5.234604600744998532e-02 2.634029436362209098e-02 8.868694268767174371e-02
5.221670934699103782e+03 5.130513147925403611e-02 2.559111093148926097e-02 8.990533414546397761e-02
5.231674135723431391e+03 5.126064146298285606e-02 2.426120935362038183e-02 9.094074828295410640e-02
5.241677336747759000e+03 5.261310734551796764e-02 2.546201978533278384e-02 9.101340532727385246e-02
5.251680537772087519e+03 5.249173322030661892e-02 2.463136972692886451e-02 9.004636022304828014e-02
5.261683738796415128e+03 5.352856195058729866e-02 2.651839320475812486e-02 9.006203398421455675e-02
5.271686939820742737e+03 5.561952963987763787e-02 2.676645551330557662e-02 9.185021654026612192e-02
5.281690140845070346e+03 5.535709794305399695e-02 2.732121358996464008e-02 9.414372083506777900e-02
5.291693341869397955e+03 5.459781619982712053e-02 2.715909097460041111e-02 9.472969416522382391e-02
5.301696542893725564e+03 5.377660532963885603e-02 2.750319156011438171e-02 9.230030841020278598e-02
5.311699743918054082e+03 5.262575136747530552e-02 2.703190059022834990e-02 9.494333497264331734e-02
5.321702944942381691e+03 5.597755699222200371e-02 2.531557900481061843e-02 9.620047092987576987e-02
5.331706145966709300e+03 5.631616317788816495e-02 2.584602540904471987e-02 9.551411747544932829e-02
5.341709346991036909e+03 5.625401402107612497e-02 2.744653883205384198e-02 9.389227311970181622e-02
5.351712548015364519e+03 5.646908164830136828e-02 2.790258387180609770e-02 9.569646710159195047e-02
5.361715749039693037e+03 5.683809108128930199e-02 2.730734264380023021e-02 9.798574027984911783e-02
5.371718950064020646e+03 5.602071981784464971e-02 2.682907822263909739e-02 9.751012815044435289e-02
5.381722151088348255e+03 5.689339581845788418e-02 2.861938347384039225e-02 9.851879654985595813e-02
5.391725352112675864e+03 5.715374502598659368e-02 2.776856237997765015e-02 1.001395009066449737e-01
5.401728553137003473e+03 5.831341157132161751e-02 2.844741979404798171e-02 1.005699260215096730e-01
5.411731754161331992e+03 5.920365401430898594e-02 2.809713097219905184e-02 1.000533625502100371e-01
5.421734955185659601e+03 5.858739470563165130e-02 2.874252459102265289e-02 9.752054175041896533e-02
5.431738156209987210e+03 5.747565521258487381e-02 2.765057431894516263e-02 9.975290217833990281e-02
5.441741357234314819e+03 5.776180818635474196e-02 2.677377391328726250e-02 9.815259382542690370e-02
5.451744558258642428e+03 5.819346122805577060e-02 2.745163959289359523e-02 1.027432716697627424e-01
5.461747759282970947e+03 5.916403024783625092e-02 2.839688799523501506e-02 1.030813213980450310e-01
5.471750960307298556e+03 6.154961314668640215e-02 2.899632168804142790e-02 1.047595839535919032e-01
5.481754161331626165e+03 5.813356219093010480e-02 2.904165161790744562e-02 9.972433989964867018e-02
5.491757362355953774e+03 5.922218770517834185e-02 3.031840597191599179e-02 1.037466774248923529e-01
5.501760563380281383e+03 6.011024671349295828e-02 3.113501621946111048e-02 1.035402777616490633e-01
5.511763764404609901e+03 6.125291173120665095e-02 2.965100452199446318e-02 1.025088866993926623e-01
5.521766965428937510e+03 6.229218398083700287e-02 3.048204178350305896e-02 1.085148614034806003e-01
5.531770166453265119e+03 6.232626395422573989e-02 3.172813585056803720e-02 1.070776562471998927e-01
5.541773367477592728e+03 6.285858301546992655e-02 3.009882198072139428e-02 1.048676855467835234e-01
5.551776568501920337e+03 6.419300779448088023e-02 3.122320364797907116e-02 1.099816940164690809e-01
5.561779769526248856e+03 6.189482340995166448e-02 2.877691605880497439e-02 1.041870835349952840e-01
5.571782970550576465e+03 6.198064125139726710e-02 2.963886280187088065e-02 1.072492577481809067e-01
5.581786171574904074e+03 6.404989742453938428e-02 3.204521416772177639e-02 1.079182948583754104e-01
5.591789372599231683e+03 7.879443646612867280e-02 3.922418596805835739e-02 1.324841562978885112e-01
5.601792573623559292e+03 2.916850946203252137e-01 2.321297350767864420e-01 3.515612263504673263e-01
5.611795774647886901e+03 3.327278514536327059e-01 2.731084741411220485e-01 3.884497093590797423e-01
5.621798975672215420e+03 1.041028374226738024e-01 5.587024656152848184e-02 1.617010846391691292e-01
5.631802176696543029e+03 6.371762860108599880e-02 2.999559940250142581e-02 1.052021333986566248e-01
5.641805377720870638e+03 6.181561933893958000e-02 3.211555451928314181e-02 1.047652487667185134e-01
5.651808578745198247e+03 6.349072039814600277e-02 2.949648989635177132e-02 1.082531588817543938e-01
5.661811779769525856e+03 6.434883836132405943e-02 3.285565978770126766e-02 1.155037736134104237e-01
5.671814980793854374e+03 6.862561504440381488e-02 3.495526500626276734e-02 1.124822096559644213e-01
5.681818181818181984e+03 6.532218476859957823e-02 3.114374215193265599e-02 1.122379040714177600e-01
5.691821382842509593e+03 6.732605566823765542e-02 3.304528941209258081e-02 1.106811586077562082e-01
5.701824583866837202e+03 6.931885021196604324e-02 3.402836927125119093e-02 1.146649678330055183e-01
5.711827784891164811e+03 6.849923889967585167e-02 3.426062303358835825e-02 1.158576388304125432e-01
5.721830985915493329e+03 6.788645031389954621e-02 3.490257629117236859e-02 1.153747662265674073e-01
5.731834186939820938e+03 6.654570201039122779e-02 3.346486920066063520e-02 1.156105968182526561e-01
5.741837387964148547e+03 6.887812880408535066e-02 3.231973499921314552e-02 1.187855856917497677e-01
5.751840588988476156e+03 6.808084806652714427e-02 3.396455261449568552e-02 1.192352783020341478e-01
5.761843790012803765e+03 7.004204409405576093e-02 3.477011103059193808e-02 1.221852259806804758e-01
5.771846991037132284e+03 7.220175961842072165e-02 3.518849243801098342e-02 1.261878619745070984e-01
5.781850192061459893e+03 7.250460783038786827e-02 3.523165147656565771e-02 1.318349343972659848e-01
5.791853393085787502e+03 7.592262979068495343e-02 3.694985003665855749e-02 1.302718752561726479e-01
5.801856594110115111e+03 7.729681925964243527e-02 3.830444847697903749e-02 1.325461370703061859e-01
5.811859795134442720e+03 7.606853418158611435e-02 3.708935107904039880e-02 1.328674983325811854e-01
5.821862996158771239e+03 7.769372466057138105e-02 4.024288403552694904e-02 1.324098762505796223e-01
5.831866197183098848e+03 7.826652731059044465e-02 3.852058352420115878e-02 1.408330076088104565e-01
5.841869398207426457e+03 8.170065637082807308e-02 3.927652118471259418e-02 1.391187641732837821e-01
5.851872599231754066e+03 8.361464479958671814e-02 3.898259653280743836e-02 1.412432256469974834e-01
5.861875800256081675e+03 8.162461003699515716e-02 3.799450683569399051e-02 1.420839250197916959e-01
5.871879001280410193e+03 8.009535880694611254e-02 3.959800109451276640e-02 1.393195845903950070e-01
5.881882202304737802e+03 8.262714855000242997e-02 3.902308040843106840e-02 1.438906639627765549e-01
5.891885403329065412e+03 8.045064017091446695e-02 3.997180589433135117e-02 1.402011789860227176e-01
5.901888604353393021e+03 8.528217487734579549e-02 4.154692443069100266e-02 1.427666444885450081e-01
5.911891805377720630e+03 8.711724745731720676e-02 4.170710490241907875e-02 1.520631702164748356e-01
5.921895006402048239e+03 8.515355839553465089e-02 4.041240989326494448e-02 1.479390860828945220e-01
5.931898207426376757e+03 8.591899279526224453e-02 4.457463015568338682e-02 1.471321935967312422e-01
5.941901408450704366e+03 8.507674791525551838e-02 4.286506643243329084e-02 1.589766072535484520e-01
5.951904609475031975e+03 9.095184570652606326e-02 4.445184078227676361e-02 1.563826103314162608e-01
5.961907810499359584e+03 8.623103936679321624e-02 4.404398791398920349e-02 1.569479286164879861e-01
5.971911011523687193e+03 8.632580601965605949e-02 4.240379811859202458e-02 1.497140432644697983e-01
5.981914212548015712e+03 8.956082750067179132e-02 4.212199579474022043e-02 1.561037283240189755e-01
5.991917413572343321e+03 8.913217814744515965e-02 4.538687710782120938e-02 1.559218828970732884e-01
6.001920614596670930e+03 9.101567613818463409e-02 4.437782421734576960e-02 1.569312367559996257e-01
6.011923815620998539e+03 9.080965726793764625e-02 4.336688108097572214e-02 1.573386462178351097e-01
6.021927016645326148e+03 9.007061834258808797e-02 4.341626637201953520e-02 1.505110257606693813e-01
6.031930217669654667e+03 8.972387861385781871e-02 4.606696801922301188e-02 1.522888812450430007e-01
6.041933418693982276e+03 8.992993337871556248e-02 4.102873372549493969e-02 1.553099511495772411e-01
6.051936619718309885e+03 8.955514463213989917e-02 4.140853533710228684e-02 1.556374988642981461e-01
6.061939820742637494e+03 9.327767694205706117e-02 4.726000873008096015e-02 1.571668447018687298e-01
6.071943021766965103e+03 8.997600978636298430e-02 4.575551838501994151e-02 1.529013104542576995e-01
6.081946222791293621e+03 8.911171523012974272e-02 4.392816307413659888e-02 1.516367320660077511e-01
6.091949423815621230e+03 8.839762507587212159e-02 4.328147502401845370e-02 1.543301595941221072e-01
6.101952624839948840e+03 9.143259033463935204e-02 4.269062299360407847e-02 1.512903848595317513e-01
6.111955825864276449e+03 8.735739929140720617e-02 4.197684975619535991e-02 1.486689247837387762e-01
6.121959026888604058e+03 8.660403574035072105e-02 3.999102331624702217e-02 1.517867044171259949e-01
6.131962227912932576e+03 8.829649425307679877e-02 4.063309994805325981e-02 1.440475507260330079e-01
6.141965428937260185e+03 8.590498138441987619e-02 4.356393250080520946e-02 1.449736385364817637e-01
6.151968629961587794e+03 8.668292583306548560e-02 4.486456014251086200e-02 1.479464526133248692e-01
6.161971830985915403e+03 8.517329981390620031e-02 4.136793864847642527e-02 1.484933687615260789e-01
6.171975032010243012e+03 8.681122592110482317e-02 4.358177589410006797e-02 1.509733447204953394e-01
6.181978233034570621e+03 8.726760112271468584e-02 4.099309530095378296e-02 1.467269032314202915e-01
6.191981434058899140e+03 8.360929118268395355e-02 4.135714881884328814e-02 1.447457025806962450e-01
6.201984635083226749e+03 8.419335840395943127e-02 4.207879012996738888e-02 1.448601552052856123e-01
6.211987836107554358e+03 8.702344976528884890e-02 4.498354660981945113e-02 1.438647049484249318e-01
6.221991037131881967e+03 8.617594068099648785e-02 4.241256241272047672e-02 1.465193846374606423e-01
6.231994238156209576e+03 8.691772374730222239e-02 4.332093688465619291e-02 1.461244059105042681e-01
6.241997439180538095e+03 8.684607630120626254e-02 4.254437979663541064e-02 1.501815010982969212e-01
6.252000640204865704e+03 8.687782449923726891e-02 4.103798981961669090e-02 1.479105229940802235e-01
6.262003841229193313e+03 8.657690193070745333e-02 4.122063163833487170e-02 1.468755599860619709e-01
6.272007042253520922e+03 9.139287319691538625e-02 4.537841093668278786e-02 1.483334737192708586e-01
6.282010243277848531e+03 9.001088286139992400e-02 4.579145960326876791e-02 1.481936851958473578e-01
6.292013444302177049e+03 8.654430937163495874e-02 4.259011347335699832e-02 1.552073204876370793e-01
6.302016645326504658e+03 9.032065011686353506e-02 4.484042219994808370e-02 1.516006264725648089e-01
6.312019846350832267e+03 8.998377393160703064e-02 4.548012304421397700e-02 1.507397369617568539e-01
6.322023047375159877e+03 8.711613199829765231e-02 4.264584475557534060e-02 1.498478006805135376e-01
6.332026248399487486e+03 8.699341466331504680e-02 4.350663903118567877e-02 1.470001004288722379e-01
6.342029449423816004e+03 8.958730691068325647e-02 4.511371436560009801e-02 1.524549443062202525e-01
6.352032650448143613e+03 8.915834789251456116e-02 4.603172901843224224e-02 1.586400388294818276e-01
6.362035851472471222e+03 9.039456975849792519e-02 4.590620556674255420e-02 1.588915651965553677e-01
6.372039052496798831e+03 9.683619034362785094e-02 4.683562986258740790e-02 1.618752714705231355e-01
6.382042253521126440e+03 9.669131341199990737e-02 4.775743069687357623e-02 1.631756512596582165e-01
6.392045454545454959e+03 9.366379245320603786e-02 4.476893059862217805e-02 1.638031341780808170e-01
6.402048655569782568e+03 9.239644840655569791e-02 4.420986216050407785e-02 1.634753433132569989e-01
6.412051856594110177e+03 9.540358898408990429e-02 4.461368249681721410e-02 1.596683544799873122e-01
6.422055057618437786e+03 9.480842118623233894e-02 4.970399174825361477e-02 1.638402175268871552e-01
6.432058258642765395e+03 9.351370953817088327e-02 4.593078600253561877e-02 1.613842429940168244e-01
6.442061459667093914e+03 9.363550796347856753e-02 4.290130773909764383e-02 1.649086917126854346e-01
6.452064660691421523e+03 9.658578463158046246e-02 4.673024834794903964e-02 1.709974409633061576e-01
6.462067861715749132e+03 1.000709737870065230e-01 4.747871750212456776e-02 1.773691708046301052e-01
6.472071062740076741e+03 1.003378449900717700e-01 4.469511250593485863e-02 1.819220701444981270e-01
6.482074263764404350e+03 1.047371231510005468e-01 5.081270056632183202e-02 1.816195741386640861e-01
6.492077464788731959e+03 1.018342049774111358e-01 5.006986929033539757e-02 1.810471399357888866e-01
6.502080665813060477e+03 9.716709102648571350e-02 4.678814563145639038e-02 1.840158268629908389e-01
6.512083866837388086e+03 1.014465932961969435e-01 5.063831638055645012e-02 1.822974032574629921e-01
6.522087067861715695e+03 1.008895367890885048e-01 4.959122753367992131e-02 1.889191040643096731e-01
6.532090268886043305e+03 1.007547238541426776e-01 5.018349217946576485e-02 1.870181919317192853e-01
6.542093469910370914e+03 1.014391395234721382e-01 4.780819370430919313e-02 1.868880244897286880e-01
6.552096670934699432e+03 1.068665534864257638e-01 5.050798876359847284e-02 1.928484680656248340e-01
6.562099871959027041e+03 1.036527240680755468e-01 5.322095589253755116e-02 1.923715713107146397e-01
6.572103072983354650e+03 1.056318147839446775e-01 5.131389216005016740e-02 1.974328164062042756e-01
6.582106274007682259e+03 1.064076670487348192e-01 5.304722815289436566e-02 1.979943713731087962e-01
6.592109475032009868e+03 1.071449958469267577e-01 5.175635444890365477e-02 2.024367161067376353e-01
6.602112676056338387e+03 1.101625323715884758e-01 5.473009859762862500e-02 2.023572894953075407e-01
6.612115877080665996e+03 1.110542677177438486e-01 5.374228288745443172e-02 2.084820141748450761e-01
6.622119078104993605e+03 1.091510287840116306e-01 5.044673815903748942e-02 2.070788612586172417e-01
6.632122279129321214e+03 1.129680253385697691e-01 5.347391718777762953e-02 2.068417061444304539e-01
6.642125480153648823e+03 1.110164793956682078e-01 5.790179955646123505e-02 2.251712178957326616e-01
6.652128681177977342e+03 1.108512599159110490e-01 5.577037557184560262e-02 2.161326335464632820e-01
6.662131882202304951e+03 1.116349007576547259e-01 5.416431544944284165e-02 2.252909623939431116e-01
6.672135083226632560e+03 1.116894087400543273e-01 5.409572975961256247e-02 2.242226672778635521e-01
6.682138284250960169e+03 1.165846336393256133e-01 5.381266729074574151e-02 2.316857868567477052e-01
6.692141485275287778e+03 1.164656676470544605e-01 5.666534374345332664e-02 2.426627593037211927e-01
6.702144686299616296e+03 1.222142558155420583e-01 5.937617618582500395e-02 2.546700158284079807e-01
6.712147887323943905e+03 1.207713972257143803e-01 5.641871290849979903e-02 2.604274872773900129e-01
6.722151088348271514e+03 1.226548829249844152e-01 5.975086185347830425e-02 2.748084695102028796e-01
6.732154289372599123e+03 1.233208697937225179e-01 6.049836624931807794e-02 2.746921383682057183e-01
6.742157490396926733e+03 1.277154145740875268e-01 6.071522783966439019e-02 2.883921629364939454e-01
6.752160691421255251e+03 1.307059524180875232e-01 5.985620916154753279e-02 2.943774225512963971e-01
6.762163892445582860e+03 1.297833802222135291e-01 5.855119916895352300e-02 3.078228154997877941e-01
6.772167093469910469e+03 1.310350036849443622e-01 6.154479890868836539e-02 3.385956275445437536e-01
6.782170294494238078e+03 1.336943024187452200e-01 6.401958665364028411e-02 3.482647061405080291e-01
6.792173495518565687e+03 1.389591334126810684e-01 6.564683973717358456e-02 3.767739078571394340e-01
6.802176696542893296e+03 1.410468101449427192e-01 6.586538287040286099e-02 3.604109318546993568e-01
6.812179897567221815e+03 1.458084737599379677e-01 6.146070197872283841e-02 3.969285457444801102e-01
6.822183098591549424e+03 2.200959500798757296e-01 1.010103233560799701e-01 4.442212693961491987e-01
6.832186299615877033e+03 3.213805148852339477e-01 1.570892821731182665e-01 5.723749142657973410e-01
6.842189500640204642e+03 2.236431783871057621e-01 1.039814265803167548e-01 4.610373118698679051e-01
6.852192701664532251e+03 1.518388335501341668e-01 7.040794049524144727e-02 4.179900441384706289e-01
6.862195902688860770e+03 1.528125315673802553e-01 6.754234447236256988e-02 4.299953861325789273e-01
6.872199103713188379e+03 1.473128611090120665e-01 6.743102960267799428e-02 4.271278110046485832e-01
6.882202304737515988e+03 1.577853843420767566e-01 7.116489425951642855e-02 4.532675440758343055e-01
6.892205505761843597e+03 1.885472640057310745e-01 8.251468468045523863e-02 4.722518414116415042e-01
6.902208706786171206e+03 3.037813182701326054e-01 1.536935808527414016e-01 5.854021759390826141e-01
6.912211907810499724e+03 2.708368539742330716e-01 1.283093634840949959e-01 5.424475319303466714e-01
6.922215108834827333e+03 1.724515535295481905e-01 7.551067078489842599e-02 4.860793583979298171e-01
6.932218309859154942e+03 1.695344725976701550e-01 7.658745045049908384e-02 4.981330207945890987e-01
6.942221510883482551e+03 1.797072715712755564e-01 8.007901080142824923e-02 5.307495460834503742e-01
6.952224711907810160e+03 1.841688287699016213e-01 8.263397863300196711e-02 5.455777789729912008e-01
6.962227912932138679e+03 1.932506738402894886e-01 7.625271527630686497e-02 5.549549781860467768e-01
6.972231113956466288e+03 1.951246962032816556e-01 8.171046723951283508e-02 5.576966703697222583e-01
6.982234314980793897e+03 2.024485079220940953e-01 8.132216234958918044e-02 5.828548264571818960e-01
6.992237516005121506e+03 2.153532000316194794e-01 9.196119790693288443e-02 6.205333979425761148e-01
7.002240717029449115e+03 2.264369023391289149e-01 8.999521860279063867e-02 6.020547698195590769e-01
7.012243918053777634e+03 2.293992496161594008e-01 8.697601999004543616e-02 5.982074086177662231e-01
7.022247119078105243e+03 2.282831642246594961e-01 8.656391752519865257e-02 6.149720004650550687e-01
7.032250320102432852e+03 2.356381414810988506e-01 9.574982117768567058e-02 6.595573863011577886e-01
7.042253521126760461e+03 2.506790440328115488e-01 9.949412147058038502e-02 6.400152625320417732e-01
7.052256722151088070e+03 2.546015748564792180e-01 1.120285422565930056e-01 6.432413026024021985e-01
7.062259923175416588e+03 2.703496193859540320e-01 1.075934721793078558e-01 6.842175940868424622e-01
7.072263124199744198e+03 2.743979629129006392e-01 1.074533694576150361e-01 6.734142618502073629e-01
7.082266325224071807e+03 2.899442402755226245e-01 1.179158482731401669e-01 6.816156951747972537e-01
7.092269526248399416e+03 3.039414631891692586e-01 1.203403858831250117e-01 7.060473754237539534e-01
7.102272727272727025e+03 3.147809344428825207e-01 1.275238466123251313e-01 7.039210159427715663e-01
7.112275928297054634e+03 3.172862343429682097e-01 1.196849107641705379e-01 6.685477871502791825e-01
7.122279129321383152e+03 3.251286237881074181e-01 1.376737585875260905e-01 6.986915561468569624e-01
7.132282330345710761e+03 3.332378842910734829e-01 1.370664629799203116e-01 7.184979587046087524e-01
7.142285531370038370e+03 3.298404440403494009e-01 1.387065165562280933e-01 7.333260282011242470e-01
7.152288732394365979e+03 3.645666429493185090e-01 1.392974319379785830e-01 7.750076479686657249e-01
7.162291933418693588e+03 3.733687179325522187e-01 1.535419232244408794e-01 7.783033621492734255e-01
7.172295134443022107e+03 3.744898624919918428e-01 1.598817854944533379e-01 7.655403619828012873e-01
7.182298335467349716e+03 3.658896923029475445e-01 1.639684014190347372e-01 7.981028957573380600e-01
7.192301536491677325e+03 3.763477132177278084e-01 1.593779291157684797e-01 7.634839788874825395e-01
7.202304737516004934e+03 3.848553594785191767e-01 1.573229458000830472e-01 7.762034503685109055e-01
7.212307938540332543e+03 3.883090549747745257e-01 1.643825773305495341e-01 7.808454846619130585e-01
7.222311139564661062e+03 3.992433349096053408e-01 1.618391841103473117e-01 8.273858782209477791e-01
7.232314340588988671e+03 4.008071701952171106e-01 1.643595558968805048e-01 8.052054753279576094e-01
7.242317541613316280e+03 4.027772045264319534e-01 1.667463682451927054e-01 7.954200623274850779e-01
7.252320742637643889e+03 4.046001087290647114e-01 1.695334509704119474e-01 8.111452341239168140e-01
7.262323943661971498e+03 4.233095812832321503e-01 1.744030891451053278e-01 8.329793442426980388e-01
7.272327144686300016e+03 4.328249912728637239e-01 1.719557775212906814e-01 8.300396524650556218e-01
7.282330345710627626e+03 4.279930125749226710e-01 1.665981361639382041e-01 8.216097586169950340e-01
7.292333546734955235e+03 4.231016739968356255e-01 1.743008737900313965e-01 8.360887584199807598e-01
7.302336747759282844e+03 4.264857714318647242e-01 1.809438396262390836e-01 8.373077171948303254e-01
7.312339948783610453e+03 4.274700596818018505e-01 1.666855616310849997e-01 8.328980790814259905e-01
7.322343149807938971e+03 4.351519158264988141e-01 1.861461513162009640e-01 8.307655694839652938e-01
7.332346350832266580e+03 4.507176373688540627e-01 1.860148355899418904e-01 8.685614797957500466e-01
7.342349551856594189e+03 4.419396870178911030e-01 1.771962115372391899e-01 8.338601885601074626e-01
7.352352752880921798e+03 4.442241440988486945e-01 1.683104206230842115e-01 8.260068682129733109e-01
7.362355953905249407e+03 4.418783559860114951e-01 1.679372326436290030e-01 8.303068408801049793e-01
7.372359154929577926e+03 4.338358161775326405e-01 1.749350700912926937e-01 8.284402342448926593e-01
7.382362355953905535e+03 4.464166095577163929e-01 1.616804783350191121e-01 8.258048480895013865e-01
7.392365556978233144e+03 4.473788345567081270e-01 1.664047342115177464e-01 8.825356729701664404e-01
7.402368758002560753e+03 4.569839306117853273e-01 1.578778129299485411e-01 8.347788659397181732e-01
7.412371959026888362e+03 4.557723292107035973e-01 1.543793637646410366e-01 8.301078887478420265e-01
7.422375160051215971e+03 4.567263773858922793e-01 1.492871673713259961e-01 8.884407008421674190e-01
7.432378361075544490e+03 4.481190766935064240e-01 1.584148968065563212e-01 8.537094583065423237e-01
7.442381562099872099e+03 4.609869535434172327e-01 1.603612094716979353e-01 8.900899749579073150e-01
7.452384763124199708e+03 4.726374638793793270e-01 1.673744813609750748e-01 8.610586980187611150e-01
7.462387964148527317e+03 4.666854974002694334e-01 1.637090712391880143e-01 9.131689376193251606e-01
7.472391165172854926e+03 5.105425203358909814e-01 2.080731498768966237e-01 9.619917538786217914e-01
7.482394366197183444e+03 5.130433833608125660e-01 2.069331627704019683e-01 9.838936661600877764e-01
7.492397567221511054e+03 4.843469200670106334e-01 1.540541895535467998e-01 9.728076879340096239e-01
7.502400768245838663e+03 4.878479623043289193e-01 1.493495963691293116e-01 9.523291908387285787e-01
7.512403969270166272e+03 4.917156723756997971e-01 1.499872310493969851e-01 9.366736105979016624e-01
7.522407170294493881e+03 5.104393639170078378e-01 1.436389332054943402e-01 9.388516917431353193e-01
7.532410371318822399e+03 4.615603693735377266e-01 1.579678384587001050e-01 9.361921477810113412e-01
7.542413572343150008e+03 4.809339345883295591e-01 1.440267389719429303e-01 9.471428391049647733e-01
7.552416773367477617e+03 4.687943920455437397e-01 1.462507779688186904e-01 9.479913854595412026e-01
7.562419974391805226e+03 4.773116665772500489e-01 1.398804294783997093e-01 9.525364496595850605e-01
7.572423175416132835e+03 4.656394867105671520e-01 1.402480151963993726e-01 9.307839923527144732e-01
7.582426376440461354e+03 4.557730068754253239e-01 1.337767371790235249e-01 9.052861990854605967e-01
7.592429577464788963e+03 4.530526991955928229e-01 1.273352194440185436e-01 8.992687811185331448e-01
7.602432778489116572e+03 4.372843433935749147e-01 1.239340126794606922e-01 9.133506244391573770e-01
7.612435979513444181e+03 4.499672027862849921e-01 1.230331908257294576e-01 9.573871565188275534e-01
7.622439180537771790e+03 4.588963287078367537e-01 1.221571268881874589e-01 9.810886078206908500e-01
7.632442381562100309e+03 4.354962399616185698e-01 1.260083708507994116e-01 9.729216315892756928e-01
7.642445582586427918e+03 4.289109546397458783e-01 1.220776122856604973e-01 9.921618747516586234e-01
7.652448783610755527e+03 4.282648954748955461e-01 1.111145329781505348e-01 9.439059381508371205e-01
7.662451984635083136e+03 4.244835683462849785e-01 1.092677620628946522e-01 9.385419986872554077e-01
7.672455185659410745e+03 4.269980511875708928e-01 1.063757879019782276e-01 9.738138767133911466e-01
7.682458386683738354e+03 4.081426784599872515e-01 1.076873459019287438e-01 9.781002130309183196e-01
7.692461587708066872e+03 4.064701335894985723e-01 1.124001008379945654e-01 9.731535094895232829e-01
7.702464788732394481e+03 3.909251405076826780e-01 1.094631793032458944e-01 9.879900663364089564e-01
7.712467989756722091e+03 3.751202746507983909e-01 1.082377211922070093e-01 1.018239602426003865e+00
7.722471190781049700e+03 3.857182140617851362e-01 1.051344973619452172e-01 9.822974303316063249e-01
7.732474391805377309e+03 3.679962939420309276e-01 1.081599897788782377e-01 9.654430368104531812e-01
7.742477592829705827e+03 3.490473446202740360e-01 1.005954535906225383e-01 9.592424548922836580e-01
7.752480793854033436e+03 3.266170580952889591e-01 1.013185907999630125e-01 9.953522786795274691e-01
7.762483994878361045e+03 3.101787442185497956e-01 1.047752740887013118e-01 9.844519342967144038e-01
7.772487195902688654e+03 2.991263211848354531e-01 1.007053273458256293e-01 9.723006680897349208e-01
7.782490396927016263e+03 3.095660517329154038e-01 9.819379560545651864e-02 9.486436651284193555e-01
7.792493597951344782e+03 2.929731284244548317e-01 9.822409102465244624e-02 1.010480926092572895e+00
7.802496798975672391e+03 2.819179530482135987e-01 9.494944320519760339e-02 9.724653272915655400e-01
7.812500000000000000e+03 1.780828741705749729e-01 4.804451702475697611e-02 6.381158657081129615e-01
