# Comments from moku data file:% Moku:Phasemeter 
# 
# % Ch 1 - DC coupling, 50 Ohm impedance, 1 V range
# 
# % Ch 1 bandwidth = 1.0000000000e+04 (Hz)
# 
# % Acquisition rate: 1.5625000000e+04 Hz
# 
# % External 10 MHz clock
# 
# % Acquired 2020-02-07 T 22:38:29 -0800
# 
# % Time, Set frequency 1 (Hz), Frequency 1 (Hz), Phase 1 (cyc), I 1 (V), Q 1 (V)
# 
# #########################################################
# ASD calculated by mokuReadFreqNoise.py
# Frequency [Hz]         Freq ASD1 [Hz/rtHz]      Freq ASDlb1 [Hz/rtHz]    Freq ASDub1 [Hz/rtHz]    
# 
0.000000000000000000e+00 3.321672307274895957e+02 1.877641527574857321e+02 8.513908265986242441e+02
1.000000000000000056e-01 5.569418779492974636e+02 2.079995642166788627e+02 9.969696440852643491e+02
2.000000000000000111e-01 5.180469448726718156e+02 3.279952178159509231e+02 7.033585496128026762e+02
3.000000000000000444e-01 5.994884997543921372e+02 1.941057089913110474e+02 9.742627647457615012e+02
4.000000000000000222e-01 6.644429795989121885e+02 2.782200770460345893e+02 7.690636302743580472e+02
5.000000000000000000e-01 3.646676547087393487e+02 1.702236364805980031e+02 8.907377162303546356e+02
6.000000000000000888e-01 5.110487725622877520e+02 2.915357601838219921e+02 7.450163461729757728e+02
7.000000000000000666e-01 6.028334956463193066e+02 2.690922286481508081e+02 8.056057508021760896e+02
8.000000000000000444e-01 5.599528874226105017e+02 3.488918565200701778e+02 6.651749770104023582e+02
9.000000000000000222e-01 4.007828214179547217e+02 1.790432310563762144e+02 6.049162807989170005e+02
1.000000000000000000e+00 3.663014178897353190e+02 2.940541816407777560e+02 7.411650809372737285e+02
1.100000000000000089e+00 3.778583273538903313e+02 2.027884139669051251e+02 8.522105339870607850e+02
1.200000000000000178e+00 5.289797190201568355e+02 2.801040655469568605e+02 7.168366877943736881e+02
1.300000000000000044e+00 4.719573640642034320e+02 3.010464072421118544e+02 6.018867488138929502e+02
1.400000000000000133e+00 2.632275763617780058e+02 1.857502778353072017e+02 6.145587805807689392e+02
1.500000000000000000e+00 4.606412649798994039e+02 2.879316942430893960e+02 5.549061971117322400e+02
1.600000000000000089e+00 4.659825933904183444e+02 2.302864284990316435e+02 7.694141060098583011e+02
1.700000000000000178e+00 4.017098027425820419e+02 1.727318382247376576e+02 5.651297378080591898e+02
1.800000000000000044e+00 3.136531608680285217e+02 1.850237310956444787e+02 5.365521855977185623e+02
1.900000000000000133e+00 3.893534752845228581e+02 7.541348619483130733e+01 4.555787844840046432e+02
2.000000000000000000e+00 4.253222455702616003e+02 2.577753134279037113e+02 5.451485070726712365e+02
2.100000000000000089e+00 4.206288521754458998e+02 2.546506402357701973e+02 7.166602788937727837e+02
2.200000000000000178e+00 3.957908002553211873e+02 1.981882889098532985e+02 6.060811666606981589e+02
2.300000000000000266e+00 3.859864042970207265e+02 2.297988948206765372e+02 6.528558724193760554e+02
2.400000000000000355e+00 4.601375145408084109e+02 1.713752753468130550e+02 5.921724598135829183e+02
2.500000000000000000e+00 3.258540153556832593e+02 1.531440636438224487e+02 6.132710241348759155e+02
2.600000000000000089e+00 3.219908091467786448e+02 1.764836125733295376e+02 3.721156479732662206e+02
2.700000000000000178e+00 3.282890279644917655e+02 1.058057724861130708e+02 5.711616426407802010e+02
2.800000000000000266e+00 4.687884003813448430e+02 2.304643186584802379e+02 5.507254846912741186e+02
2.900000000000000355e+00 3.084204387264329625e+02 1.905544717236022336e+02 4.514144230660422750e+02
3.000000000000000000e+00 4.255378476378293726e+02 2.931426418531870013e+02 7.019181742861903786e+02
3.100000000000000089e+00 6.142221776192528750e+02 4.001866366054742912e+02 6.855793582915538309e+02
3.200000000000000178e+00 3.716013429449378691e+02 2.956329863752809501e+02 5.574020815439813532e+02
3.300000000000000266e+00 4.299263965338812454e+02 3.211658884837762002e+02 6.417867538276724417e+02
3.400000000000000355e+00 4.448476809172400976e+02 3.608387670266725422e+02 7.829559825007208929e+02
3.500000000000000000e+00 5.238196731934514219e+02 4.434083164894706215e+02 6.266786933298016038e+02
3.600000000000000089e+00 3.256404656196548899e+02 2.501969144620645125e+02 4.960166873183924849e+02
3.700000000000000178e+00 2.324181883363481802e+02 1.894283474223476560e+02 6.021150405076648440e+02
3.800000000000000266e+00 3.432078657708754008e+02 2.096097335220263744e+02 5.609490864464106608e+02
3.900000000000000355e+00 5.037189790014449500e+02 3.010197518708794746e+02 6.647628453836774725e+02
4.000000000000000000e+00 5.600149984387178392e+02 4.138141904684620727e+02 7.309716761314793985e+02
4.100000000000000533e+00 3.604630521768954736e+02 1.980746135079308488e+02 5.252077386727513613e+02
4.200000000000000178e+00 2.105951239981568790e+02 1.172012719134828842e+02 3.708272395187572670e+02
4.299999999999999822e+00 1.946374807728008136e+02 1.146267172418173459e+02 4.506504372548307629e+02
4.400000000000000355e+00 2.405743136586830531e+02 2.128969077003535233e+02 3.505175013959878356e+02
4.500000000000000000e+00 2.887999492429136126e+02 2.172277279087087720e+02 3.401347465104256571e+02
4.600000000000000533e+00 3.133058426723512184e+02 2.365116085257510292e+02 3.930405470639843202e+02
4.700000000000000178e+00 3.586172033346308581e+02 2.190258809353009326e+02 5.025613158827885627e+02
4.800000000000000711e+00 2.843357712906160941e+02 1.762278352532731560e+02 4.228723508430682045e+02
4.900000000000000355e+00 2.565106472176042303e+02 1.567988197877213565e+02 3.786405611096510029e+02
5.000000000000000000e+00 4.834626390445488937e+02 2.564647074278447576e+02 5.843112505682919391e+02
5.100000000000000533e+00 3.291838074373621339e+02 1.532536019771190752e+02 5.057213981952040740e+02
5.200000000000000178e+00 1.774103488580266799e+02 1.129214860849245667e+02 5.329189186800297193e+02
5.300000000000000711e+00 2.468662761809285087e+02 1.528404927359991916e+02 5.355346112390255939e+02
5.400000000000000355e+00 3.308888131285165173e+02 1.534037252741626958e+02 5.530947347113415162e+02
5.500000000000000000e+00 2.964777563493842649e+02 1.603001189048769959e+02 4.490755174529261922e+02
5.600000000000000533e+00 2.022642808562108030e+02 1.442583088955263690e+02 3.027270203927532179e+02
5.700000000000000178e+00 3.259951152575262086e+02 1.674417572573363771e+02 5.011784576982033172e+02
5.800000000000000711e+00 3.269236501261797230e+02 1.432605877953144784e+02 4.364937881153194894e+02
5.900000000000000355e+00 2.706827746964573862e+02 1.908474776585279074e+02 4.301983573075571030e+02
6.000000000000000000e+00 2.868927775144026100e+02 1.825194662579910130e+02 4.945866737033765617e+02
6.100000000000000533e+00 2.768984588627552625e+02 1.535066574207712620e+02 5.039671673177783759e+02
6.200000000000000178e+00 3.739384916968887183e+02 2.185677242227748138e+02 4.341657355333882151e+02
6.300000000000000711e+00 2.478299087117246415e+02 1.788290387834232718e+02 4.275102976230394916e+02
6.400000000000000355e+00 1.495373637598680148e+02 8.501251774875349554e+01 5.856914859252570977e+02
6.500000000000000000e+00 3.808809776100752060e+02 3.045423738779546738e+02 4.956847047113955114e+02
6.600000000000000533e+00 2.280662328445299352e+02 7.990890202847447199e+01 4.592679269744907060e+02
6.700000000000000178e+00 3.758762628355202082e+02 1.846242735177985423e+02 4.585977792483058124e+02
6.800000000000000711e+00 2.331381774244519534e+02 1.802834881604361499e+02 5.652434872006161868e+02
6.900000000000000355e+00 2.555422667448438858e+02 7.014632094973670462e+01 5.323431177949260018e+02
7.000000000000000000e+00 2.619319402225127078e+02 1.840595371634312869e+02 4.160394935041051099e+02
7.100000000000000533e+00 3.171023538554863990e+02 1.663122852562235323e+02 4.191691468985868028e+02
7.200000000000000178e+00 2.792378643957869713e+02 7.795414071693187452e+01 4.897416501439037688e+02
7.300000000000000711e+00 2.392763165107262182e+02 1.735913747110500083e+02 4.509124294948532565e+02
7.400000000000000355e+00 2.635904779182982338e+02 1.650408836394983041e+02 5.060033498498058293e+02
7.500000000000000000e+00 2.841473255628690140e+02 1.825442456555701369e+02 5.827477022314692476e+02
7.600000000000000533e+00 4.282225123521770911e+02 1.772121358368055724e+02 5.031485784812196584e+02
7.700000000000000178e+00 2.828976040700512158e+02 1.430500208236343553e+02 3.579937391211562954e+02
7.800000000000000711e+00 2.625844424464886515e+02 1.535759479985133567e+02 3.392424840582112893e+02
7.900000000000000355e+00 2.046407741280042103e+02 9.631289040291103731e+01 4.196379699760565245e+02
8.000000000000000000e+00 3.230717553008229288e+02 2.121614712851360309e+02 4.130950806925926599e+02
8.099999999999999645e+00 4.491519949925316268e+02 2.925953656330172521e+02 5.087466863857392809e+02
8.200000000000001066e+00 3.116104576938029709e+02 1.184687913891801117e+02 5.426542996031763550e+02
8.300000000000000711e+00 3.060398931154867910e+02 1.958955720978236172e+02 5.604939425215841311e+02
8.400000000000000355e+00 3.515513931497541193e+02 1.375138870726118512e+02 5.916643487735323106e+02
8.500000000000000000e+00 3.334970434341889245e+02 1.603266577795665171e+02 5.168515469070716790e+02
8.599999999999999645e+00 3.205540871180285194e+02 1.318624670459003596e+02 4.162110439245909106e+02
8.700000000000001066e+00 3.057929543917136925e+02 1.973494727330232479e+02 4.472169144979484372e+02
8.800000000000000711e+00 2.134315256309236588e+02 1.514065876851788630e+02 4.650250128593142449e+02
8.900000000000000355e+00 2.720407580302535848e+02 2.007404701890829415e+02 4.754925919531368095e+02
9.000000000000000000e+00 3.636821257136309669e+02 9.680746500099681384e+01 4.991006636634527922e+02
9.099999999999999645e+00 2.289924406702635054e+02 1.379940389362194253e+02 4.577811488305163152e+02
9.200000000000001066e+00 3.146264446357987481e+02 2.121866750122389931e+02 4.769233883767425368e+02
9.300000000000000711e+00 2.777266421750958898e+02 1.183988918106733905e+02 4.299259763018931153e+02
9.400000000000000355e+00 3.405705688819170405e+02 6.028753095874846224e+01 4.117235880744397605e+02
9.500000000000000000e+00 2.421781468044678718e+02 1.219277677529721160e+02 4.738171156278902458e+02
9.600000000000001421e+00 2.639974249118751572e+02 1.193670771560788353e+02 3.597703134862058505e+02
9.700000000000001066e+00 2.039181497320528820e+02 1.215696559043908849e+02 3.878171563524190901e+02
9.800000000000000711e+00 2.264345149692573216e+02 1.544619526950455963e+02 3.702764976742297449e+02
9.900000000000000355e+00 1.994664024208126989e+02 1.433283404739984519e+02 3.458989037799484549e+02
1.000000000000000000e+01 2.691924070809346858e+02 1.602708923749203791e+02 3.193107843582398004e+02
1.000000000000000000e+01 2.476249970940908440e+02 1.408634920360588012e+02 4.213352499303521768e+02
1.100000000000000000e+01 2.585943351060988107e+02 9.015925802705093872e+01 4.506448394521743808e+02
1.200000000000000000e+01 2.321126538685588230e+02 1.276626205380033099e+02 3.931418160691380876e+02
1.300000000000000000e+01 2.077515037505953330e+02 8.790539993800000218e+01 4.132655604314506945e+02
1.400000000000000000e+01 2.100943130026693950e+02 9.298549521405382734e+01 4.098244558907334181e+02
1.500000000000000000e+01 1.896276577997399500e+02 1.060794519070075808e+02 3.468393661737822526e+02
1.600000000000000000e+01 1.825886111374825305e+02 8.668007624958521262e+01 3.294776557792725953e+02
1.700000000000000000e+01 1.911597406246730202e+02 1.018659318184373603e+02 3.669623879699573763e+02
1.800000000000000000e+01 2.024123629176061741e+02 9.357749698421422124e+01 3.781080089925503671e+02
1.900000000000000000e+01 1.827899189366935389e+02 6.773103202264327649e+01 3.400195681793167068e+02
2.000000000000000000e+01 1.581454356627682500e+02 6.676738602220063967e+01 3.101016506967415012e+02
2.100000000000000000e+01 1.413723017224584737e+02 6.999516067513566497e+01 2.716180880694403754e+02
2.200000000000000000e+01 1.254226074136959710e+02 5.155371813674238268e+01 2.838470364121277498e+02
2.300000000000000000e+01 1.278415449723930237e+02 4.335014377565525479e+01 2.489551295148827421e+02
2.400000000000000000e+01 1.412369894283093004e+02 5.605122800091189816e+01 2.267904840918556317e+02
2.500000000000000000e+01 1.305896334336415805e+02 5.512944654285932700e+01 2.149607861522236760e+02
2.600000000000000000e+01 9.912364268905777465e+01 5.017062633029815544e+01 2.047974441122611893e+02
2.700000000000000000e+01 9.449425420031410283e+01 4.172794981376441115e+01 1.984888555468333777e+02
2.800000000000000000e+01 8.262111580137161582e+01 4.089285422931286007e+01 2.166679215873606381e+02
2.900000000000000000e+01 8.771508059038693261e+01 4.052134316052899266e+01 1.763444578882192673e+02
3.000000000000000000e+01 8.051392766677469126e+01 3.619844576204932451e+01 1.746829782364352752e+02
3.100000000000000000e+01 8.122908943777603952e+01 2.899257773311312292e+01 1.554965617350142679e+02
3.200000000000000000e+01 8.016716583539778185e+01 3.344002674000170572e+01 1.545474925475725172e+02
3.300000000000000000e+01 9.047075316267788025e+01 2.791680168090268310e+01 1.441859148781934152e+02
3.400000000000000000e+01 8.110390432601215593e+01 2.843466710005859710e+01 1.411505170729226961e+02
3.500000000000000000e+01 6.689197322447176930e+01 2.768357836444065256e+01 1.391543777038431813e+02
3.600000000000000000e+01 7.076783884876911657e+01 3.280138217064185113e+01 1.386614394557431922e+02
3.700000000000000000e+01 7.113137500772145927e+01 2.689288354107582180e+01 1.456524452113070254e+02
3.800000000000000000e+01 6.921614850609775260e+01 2.595634893996406234e+01 1.365939595948657654e+02
3.900000000000000000e+01 6.957786315762112395e+01 2.985274583332357068e+01 1.379061395748007897e+02
4.000000000000000000e+01 6.840191523782522154e+01 3.009011450855264158e+01 1.248277767891718213e+02
4.100000000000000000e+01 5.929047323290307503e+01 2.697140556083878593e+01 1.203450130183519917e+02
4.200000000000000000e+01 6.572342992473848255e+01 2.793052925698509625e+01 1.324790601833481674e+02
4.300000000000000000e+01 6.331694119272284382e+01 2.788198855202920612e+01 1.188539346580443663e+02
4.400000000000000000e+01 5.309400679484883767e+01 2.678420646268625305e+01 1.214019083437297297e+02
4.500000000000000000e+01 5.481808730569240140e+01 2.527505903403753607e+01 1.256560073560280983e+02
4.600000000000000000e+01 5.550715967882930357e+01 2.507093566014505726e+01 1.197628300000984751e+02
4.700000000000000000e+01 6.462123163284539373e+01 2.261409967571245261e+01 1.192288409579520163e+02
4.800000000000000000e+01 6.575598567289162588e+01 2.347840568673202455e+01 1.206211707558216659e+02
4.900000000000000000e+01 6.488028350256507792e+01 2.270659346702731085e+01 1.132681173221884308e+02
5.000000000000000000e+01 5.931290713459564046e+01 2.399126854513171381e+01 1.161164218975714277e+02
5.100000000000000000e+01 6.100081717346705545e+01 2.321582198941352360e+01 1.098827056405802693e+02
5.200000000000000000e+01 5.870082286620993983e+01 2.054553611599829566e+01 1.026673194837906493e+02
5.300000000000000000e+01 5.437193986435794812e+01 2.079901192641681007e+01 1.026031144633748369e+02
5.400000000000000000e+01 5.664383595136516192e+01 2.198914036071460743e+01 1.011698166460669626e+02
5.500000000000000000e+01 4.739065002946541938e+01 2.418903297636122929e+01 9.337752171198576434e+01
5.600000000000000000e+01 5.825627060077753328e+01 2.465986058540628534e+01 1.067334119593732709e+02
5.700000000000000000e+01 5.763620820695960845e+01 2.284679154713607119e+01 1.137370481787194478e+02
5.800000000000000000e+01 5.024885169874383450e+01 1.995338812192190048e+01 9.502478525781602059e+01
5.900000000000000000e+01 5.257455436892610123e+01 1.961387902160047503e+01 1.032058799541836862e+02
6.000000000000000000e+01 5.263334953625961532e+01 2.473008555017283783e+01 1.032440076693320634e+02
6.100000000000000000e+01 5.554879761062210974e+01 2.364154623452997228e+01 1.001741802289741372e+02
6.200000000000000000e+01 4.785127654505505035e+01 1.946977548340230868e+01 9.419879990861966235e+01
6.300000000000000000e+01 5.282205886194373790e+01 1.790890082604095213e+01 9.591022087541776386e+01
6.400000000000000000e+01 4.945427308682595680e+01 1.673280231860324818e+01 1.017428854315773634e+02
6.500000000000000000e+01 5.581765754814159664e+01 2.181844920170214763e+01 1.005651599906515230e+02
6.600000000000000000e+01 4.390587368814593106e+01 2.085866790653139446e+01 8.470847405732136792e+01
6.700000000000000000e+01 4.554698088562700775e+01 1.812372188556946639e+01 9.509127395752287271e+01
6.800000000000000000e+01 4.373104845770835425e+01 2.040609636386735204e+01 9.543592114304192364e+01
6.900000000000000000e+01 4.685454342347560441e+01 2.147478549175800921e+01 9.144732300453731000e+01
7.000000000000000000e+01 4.078880770439326398e+01 1.609556001389152158e+01 8.655958703637483609e+01
7.100000000000000000e+01 5.053054725941618130e+01 1.767452007715255036e+01 9.069186571540988950e+01
7.200000000000000000e+01 4.712139072302888110e+01 1.901899212467385070e+01 8.685276177867041270e+01
7.300000000000000000e+01 4.794716481854545265e+01 1.507244042939373152e+01 8.414059456776267609e+01
7.400000000000000000e+01 4.419956573731464999e+01 1.497184552954026415e+01 8.690940430980705855e+01
7.500000000000000000e+01 4.663304225707889827e+01 1.990566644246832340e+01 8.922345342931127732e+01
7.600000000000000000e+01 3.977845086273043052e+01 1.472523751317130269e+01 8.701231016337222002e+01
7.700000000000000000e+01 3.873668754965309802e+01 1.460305052373466239e+01 9.336336330917681892e+01
7.800000000000000000e+01 4.003108103350945157e+01 1.714947999811024815e+01 8.864047566429792369e+01
7.900000000000000000e+01 4.888386661061336014e+01 1.647848361383637439e+01 8.687247430200366693e+01
8.000000000000000000e+01 4.575183231814384044e+01 1.799165123470089256e+01 8.757715046915403434e+01
8.100000000000000000e+01 4.140158082086411184e+01 1.784770008177290634e+01 7.190230315676249973e+01
8.200000000000000000e+01 3.971323879927334843e+01 1.668930708995897660e+01 7.624167938124543298e+01
8.300000000000000000e+01 3.906233235930641001e+01 1.557350805277301475e+01 8.005920844499212308e+01
8.400000000000000000e+01 4.768111238263552565e+01 1.791604884967623335e+01 8.141357906140706291e+01
8.500000000000000000e+01 4.462386774689131386e+01 1.561752757537795411e+01 7.624502350196534906e+01
8.600000000000000000e+01 4.845334038040092395e+01 1.525004391091445122e+01 7.995419480431957027e+01
8.700000000000000000e+01 4.240161397723340286e+01 2.257486311630150055e+01 7.353705296838471384e+01
8.800000000000000000e+01 4.617840070775314842e+01 1.960081598834589300e+01 7.520409461963653541e+01
8.900000000000000000e+01 4.276457252347016436e+01 1.729367164306732363e+01 7.960156547724058385e+01
9.000000000000000000e+01 5.337118981968648512e+01 1.870400679759206497e+01 8.156666468784776214e+01
9.100000000000000000e+01 4.332046182276222623e+01 2.065561228453947962e+01 8.271758958659668792e+01
9.200000000000000000e+01 3.931663066086007063e+01 1.672752373718802943e+01 7.979162928491354023e+01
9.300000000000000000e+01 4.460431319783851478e+01 2.075470933346662861e+01 8.270710221740020529e+01
9.400000000000000000e+01 4.163599334773259386e+01 2.223062710767948857e+01 7.951051799091462158e+01
9.500000000000000000e+01 4.179873514856126349e+01 1.902116816336447869e+01 8.660667519808872328e+01
9.600000000000000000e+01 3.931611373173179658e+01 1.664480585969267779e+01 7.436806131531338337e+01
9.700000000000000000e+01 3.810854776830389312e+01 1.782317393972019914e+01 7.791648946621046434e+01
9.800000000000000000e+01 3.964702934162375669e+01 1.519111086585652082e+01 7.754097931047104453e+01
9.900000000000000000e+01 4.021545013501923194e+01 1.598959726126641101e+01 7.194434135118778784e+01
1.000000000000000000e+02 3.940163176464429995e+01 1.960440648328719249e+01 7.145934625102087523e+01
1.000320102432778526e+02 1.088393845534615956e+01 3.601909104083823365e+00 7.872538515265158310e+01
1.100352112676056322e+02 1.098301789399592288e+01 3.366183640692662404e+00 7.321394972927575395e+01
1.200384122919334118e+02 1.082093346121388677e+01 3.434883012257085255e+00 7.213902786608184670e+01
1.300416133162611914e+02 9.230430546878301001e+00 2.985408162346575800e+00 7.072066441313457119e+01
1.400448143405889994e+02 8.863323392804609568e+00 2.753507633656079090e+00 7.084880824614860728e+01
1.500480153649167789e+02 8.455497604057232053e+00 2.466306392993943053e+00 7.114279209502016954e+01
1.600512163892445585e+02 7.872138832265074271e+00 2.207072397905691208e+00 7.220680245867725944e+01
1.700544174135723381e+02 7.355452218776560080e+00 2.103726527974743910e+00 6.482577956517214091e+01
1.800576184379001177e+02 6.990375841186827977e+00 2.157977798595385188e+00 6.109623006431298364e+01
1.900608194622279257e+02 6.621972379773611195e+00 2.006228400470008832e+00 6.287747526760978189e+01
2.000640204865557052e+02 6.563835947362085754e+00 1.888757757759258693e+00 6.252623253722943986e+01
2.100672215108834848e+02 6.216377523652561798e+00 1.791288272876784937e+00 6.211504407880219247e+01
2.200704225352112644e+02 6.458180068075867197e+00 1.736894765346505665e+00 6.073212764220284754e+01
2.300736235595390440e+02 6.467560932751970526e+00 1.746946494490032142e+00 6.062536389592595043e+01
2.400768245838668236e+02 6.046180168580716163e+00 1.756111320501618778e+00 5.997670794351709844e+01
2.500800256081946316e+02 5.865921357811907377e+00 1.632246938060437635e+00 5.825468156099636730e+01
2.600832266325223827e+02 5.770492445193430520e+00 1.532935803920061568e+00 5.846189449099484392e+01
2.700864276568502191e+02 5.488391254939247510e+00 1.609561757696183371e+00 5.653937506167909532e+01
2.800896286811779987e+02 5.390436720341865495e+00 1.506824685234436023e+00 5.868430475522094980e+01
2.900928297055057783e+02 5.435445032298491519e+00 1.546507573895558707e+00 6.077875609109411670e+01
3.000960307298335579e+02 5.332732861334164021e+00 1.421261967370958779e+00 5.526783514682414733e+01
3.100992317541613374e+02 5.345974534265854672e+00 1.473299572325529549e+00 5.694969041348535654e+01
3.201024327784891170e+02 5.035956552364670102e+00 1.436246677365928592e+00 5.792191746918440742e+01
3.301056338028168966e+02 4.869658907549788474e+00 1.405001398076741292e+00 5.748623169622722173e+01
3.401088348271446762e+02 4.700407995059004307e+00 1.406037455694012506e+00 5.911443286830616728e+01
3.501120358514724558e+02 4.687667683579719302e+00 1.375533411035549936e+00 5.598763729491933105e+01
3.601152368758002353e+02 5.079399594103007232e+00 1.292579738655320609e+00 5.360340754314427869e+01
3.701184379001280149e+02 4.601709172299187856e+00 1.286165303316519015e+00 5.887549749812551880e+01
3.801216389244558513e+02 4.917247508149863222e+00 1.339822844831038084e+00 5.600965908409421701e+01
3.901248399487836309e+02 4.727670225750202349e+00 1.351487602021871792e+00 5.516464228717388352e+01
4.001280409731114105e+02 5.107399959446767390e+00 1.415169751936119047e+00 5.345032832192068639e+01
4.101312419974391901e+02 5.265711448917882898e+00 1.383224582786040990e+00 5.178408998212395886e+01
4.201344430217669697e+02 4.734341200783227066e+00 1.404694410420463502e+00 5.014132229371084293e+01
4.301376440460947492e+02 5.324215289642783233e+00 1.433975848269043230e+00 5.112348043507599726e+01
4.401408450704225288e+02 5.058562755569904645e+00 1.571307553700911575e+00 5.071810740373421567e+01
4.501440460947503084e+02 4.878453835872662125e+00 1.419498120565898081e+00 5.081394790458458743e+01
4.601472471190780880e+02 4.724353523673964439e+00 1.361153184477391420e+00 5.187517003208780153e+01
4.701504481434058675e+02 4.765519275499736196e+00 1.339549357249555150e+00 5.358124166446317105e+01
4.801536491677336471e+02 4.971159601101715175e+00 1.355785012771096198e+00 5.360794927735641835e+01
4.901568501920614835e+02 5.193767815945402155e+00 1.494702747379912378e+00 5.261003271307965434e+01
5.001600512163892631e+02 5.430351356126311479e+00 1.683645085309074529e+00 5.322413192313693031e+01
5.101632522407170427e+02 5.162873029936353220e+00 1.574310829249376598e+00 5.107379164811970185e+01
5.201664532650447654e+02 4.456068030210396103e+00 1.384329758834578872e+00 5.362187192307218453e+01
5.301696542893726019e+02 5.100752439668182703e+00 1.384242800636331649e+00 5.392320672403570825e+01
5.401728553137004383e+02 4.755415558540986964e+00 1.287937558063000809e+00 5.057151309672048711e+01
5.501760563380281610e+02 4.811502391498218678e+00 1.313696371458850320e+00 5.209561562726718620e+01
5.601792573623559974e+02 5.086051994150554201e+00 1.427984444786585261e+00 5.544708178934456555e+01
5.701824583866837202e+02 4.982914268263828106e+00 1.330227354689101027e+00 5.444878113970193567e+01
5.801856594110115566e+02 4.854014010272388546e+00 1.302520916542409202e+00 5.356124788749239940e+01
5.901888604353392793e+02 4.640704102208216497e+00 1.329938147353397104e+00 5.359607631945262085e+01
6.001920614596671157e+02 4.987461922311815066e+00 1.342784930007306476e+00 5.676816903755781851e+01
6.101952624839948385e+02 4.985931050644803797e+00 1.340746439242273436e+00 5.495893979253010997e+01
6.201984635083226749e+02 5.147665675553584563e+00 1.374820481237787329e+00 5.148867102596746292e+01
6.302016645326503976e+02 4.741929049709393773e+00 1.463848780823250095e+00 5.241326264432203175e+01
6.402048655569782341e+02 4.933376539839397168e+00 1.485607398424958481e+00 5.304271769965716032e+01
6.502080665813060705e+02 4.909482860580195229e+00 1.358616390203362334e+00 5.386365134442424818e+01
6.602112676056337932e+02 4.662920149996777397e+00 1.447010900731863892e+00 5.557961035106176695e+01
6.702144686299616296e+02 5.042798766724612136e+00 1.502955387624063555e+00 5.325515502573840365e+01
6.802176696542893524e+02 5.002495046502975384e+00 1.392757663169878812e+00 5.516763352780093754e+01
6.902208706786171888e+02 5.110106748451922698e+00 1.438885708759645388e+00 5.414767107267462620e+01
7.002240717029449115e+02 4.950829823234780491e+00 1.402369879727048518e+00 5.401139396680174798e+01
7.102272727272727479e+02 4.988178361910392766e+00 1.346418899626873555e+00 5.492041541193876242e+01
7.202304737516004707e+02 4.995338199145299640e+00 1.412645213741284378e+00 5.513586856590816865e+01
7.302336747759283071e+02 5.002524327754315436e+00 1.456895102340719950e+00 5.594857357597724246e+01
7.402368758002560298e+02 5.533231596610487912e+00 1.612931347976719998e+00 5.343667936897672632e+01
7.502400768245838663e+02 4.709694597098796010e+00 1.652451846824787740e+00 5.460437334079863803e+01
7.602432778489117027e+02 5.437614281168714037e+00 1.571767371944530867e+00 5.324188995200324115e+01
7.702464788732394254e+02 5.153268761945791532e+00 1.544924713144282702e+00 5.435253861706481615e+01
7.802496798975672618e+02 5.616007598066810047e+00 1.714518372173792882e+00 5.663060995073838200e+01
7.902528809218949846e+02 5.455415656272534441e+00 1.613714554028813364e+00 5.343923092636036642e+01
8.002560819462228210e+02 5.332739392748588436e+00 1.522476266395885069e+00 5.558069601559289907e+01
8.102592829705505437e+02 5.165083333562654033e+00 1.572839828110309757e+00 5.636070587659678921e+01
8.202624839948783801e+02 5.235328272364749402e+00 1.585690501640981243e+00 5.558961897490407722e+01
8.302656850192061029e+02 5.336942405003392231e+00 1.589644913941899773e+00 5.462076927440732277e+01
8.402688860435339393e+02 5.206433749762815921e+00 1.647326041764235471e+00 5.809926384950274780e+01
8.502720870678616620e+02 5.143887559875729210e+00 1.685917227669039065e+00 5.473702045287654983e+01
8.602752880921894985e+02 5.018508777287853384e+00 1.690746134381562404e+00 5.367672259540173485e+01
8.702784891165173349e+02 5.515439338884442932e+00 1.695951186294550439e+00 5.239075537493310719e+01
8.802816901408450576e+02 5.406071619867660161e+00 1.704519693592223106e+00 5.679582784325884859e+01
8.902848911651728940e+02 5.484035190093486278e+00 1.617793670347846602e+00 5.657915237379152273e+01
9.002880921895006168e+02 5.488232510161339839e+00 1.748838801301523915e+00 5.876839758087826482e+01
9.102912932138284532e+02 5.658910898000302225e+00 1.849927611784898840e+00 5.482242176722164828e+01
9.202944942381561759e+02 5.442510056170545063e+00 1.792760260345496182e+00 5.489771309751786532e+01
9.302976952624840123e+02 5.392850454217340328e+00 1.758392080864694451e+00 5.489300398357379862e+01
9.403008962868117351e+02 5.413082025315105739e+00 1.873309391078594954e+00 5.526183882641592504e+01
9.503040973111395715e+02 5.659284478558602061e+00 1.719582801382991022e+00 5.164235757028363594e+01
9.603072983354672942e+02 5.675913820416364608e+00 1.943688456371192030e+00 5.128690972602989007e+01
9.703104993597951307e+02 5.819568564463512672e+00 1.987947132471727496e+00 5.337773843864970758e+01
9.803137003841229671e+02 6.205375761996491768e+00 2.077001950744428171e+00 5.221961864098511086e+01
9.903169014084506898e+02 6.436765581824848148e+00 2.111286371687393970e+00 5.194051495055356327e+01
1.000320102432778526e+03 6.554054043300688193e+00 2.215688313516024355e+00 5.228969964493901301e+01
1.010323303457106249e+03 7.061508699955314050e+00 2.138428707986001598e+00 5.293119954671394822e+01
1.020326504481434085e+03 7.500276464333819781e+00 2.277157653463977027e+00 5.403167837099557858e+01
1.030329705505761922e+03 8.115180034187527980e+00 2.264084252586942014e+00 5.186180936439851052e+01
1.040332906530089531e+03 8.483669215369776140e+00 2.220433184232361690e+00 4.978917412995832592e+01
1.050336107554417367e+03 8.355431612382744788e+00 2.230498153326450961e+00 5.019155258386898311e+01
1.060339308578745204e+03 7.599190072315393785e+00 2.514010440718482453e+00 4.999532969423452045e+01
1.070342509603073040e+03 7.393792248417073942e+00 2.332447573956201392e+00 5.193401927014226516e+01
1.080345710627400877e+03 6.629927814500201855e+00 2.383635630157512786e+00 5.174721839556585934e+01
1.090348911651728486e+03 6.480466786564524462e+00 2.241411434845614892e+00 5.402350955483731809e+01
1.100352112676056322e+03 6.406154454863673742e+00 2.222244170844438482e+00 5.470490546177956759e+01
1.110355313700384158e+03 6.227548096205220318e+00 2.206068055783321658e+00 5.158525924953442399e+01
1.120358514724711995e+03 6.380299331039822164e+00 2.040350939947109143e+00 4.748313866780571857e+01
1.130361715749039604e+03 6.073601615525380026e+00 2.091822787201281564e+00 4.764812822463048292e+01
1.140364916773367440e+03 5.773016885955735589e+00 2.198905127978437068e+00 4.672871959262794661e+01
1.150368117797695277e+03 6.036887747344023225e+00 2.142689820859080108e+00 4.947979177088675584e+01
1.160371318822023113e+03 5.834980427004218484e+00 2.123505563842869481e+00 4.810862031149195417e+01
1.170374519846350722e+03 5.857805040593767387e+00 2.165398799948414776e+00 4.982738798040313810e+01
1.180377720870678559e+03 5.787985697676094610e+00 2.020029999683712330e+00 4.795147538518475017e+01
1.190380921895006395e+03 5.794983248832700440e+00 2.064780752979833878e+00 4.906307369089750381e+01
1.200384122919334231e+03 5.675687837843715222e+00 2.042213657969727869e+00 4.791588393382856026e+01
1.210387323943662068e+03 6.098239446908793937e+00 2.211449650786426080e+00 4.736392706722273971e+01
1.220390524967989677e+03 6.214664024645427887e+00 2.147856637326151397e+00 4.863241559754721521e+01
1.230393725992317513e+03 6.182327537081788726e+00 2.191683079896642461e+00 4.823193136226775124e+01
1.240396927016645350e+03 6.105946424797862981e+00 2.292020114880286563e+00 4.708824061602156519e+01
1.250400128040973186e+03 6.262871807676529734e+00 2.273898977410707456e+00 4.558771230024238008e+01
1.260403329065300795e+03 6.007781441747130025e+00 2.188425000037007351e+00 4.760144374563485314e+01
1.270406530089628632e+03 5.894634243178848543e+00 2.247293798361019945e+00 4.823913543422958128e+01
1.280409731113956468e+03 6.043950097711808134e+00 2.271429418843713854e+00 4.769586653460901715e+01
1.290412932138284305e+03 6.304126134892119815e+00 2.344977670991601038e+00 4.479016677018569226e+01
1.300416133162612141e+03 6.379974857843298430e+00 2.337039301491719900e+00 4.161980927821445420e+01
1.310419334186939750e+03 6.158756587938275295e+00 2.306610485103764763e+00 4.367722721557045418e+01
1.320422535211267586e+03 6.051123385714008762e+00 2.302856991994056912e+00 4.562074202616262397e+01
1.330425736235595423e+03 6.156472597328330743e+00 2.150893912081753179e+00 4.487191032724566497e+01
1.340428937259923259e+03 6.275958902780179649e+00 2.433580370014894800e+00 4.473659144565493051e+01
1.350432138284250868e+03 6.510264624824147361e+00 2.217569424805492240e+00 4.696736795889174942e+01
1.360435339308578705e+03 6.343636277794823641e+00 2.239058117198815534e+00 4.490485667129501479e+01
1.370438540332906541e+03 6.095907400792904163e+00 2.541122050485694839e+00 4.587004203756303156e+01
1.380441741357234378e+03 6.165094868771222814e+00 2.495723024758938813e+00 4.555505187928996236e+01
1.390444942381562214e+03 6.298130072459580120e+00 2.297538351879457430e+00 4.259235662329687955e+01
1.400448143405889823e+03 6.111704085648552720e+00 2.275730431224976869e+00 4.285052047284953147e+01
1.410451344430217659e+03 6.423040989512203147e+00 2.377839466257269940e+00 4.379883540277185716e+01
1.420454545454545496e+03 6.320613819532355571e+00 2.245503256613951226e+00 4.112183456489674427e+01
1.430457746478873332e+03 6.400332032961930651e+00 2.374088336662045329e+00 4.287999705255313643e+01
1.440460947503200941e+03 6.046709203718823922e+00 2.506112861356788901e+00 4.270977244733264655e+01
1.450464148527528778e+03 6.656969814645800732e+00 2.583765414316138820e+00 4.442127446643674205e+01
1.460467349551856614e+03 6.640969773599387338e+00 2.459186493614101909e+00 4.574233468386560020e+01
1.470470550576184451e+03 6.443195556629762066e+00 2.417615022073293485e+00 4.255714596138050609e+01
1.480473751600512060e+03 6.380507777590959329e+00 2.371542401931650002e+00 4.178505075644423528e+01
1.490476952624839896e+03 6.289141202635310179e+00 2.303231480304927192e+00 4.279430339669588079e+01
1.500480153649167733e+03 6.477992366964593351e+00 2.360128207354819541e+00 4.300835609762111034e+01
1.510483354673495569e+03 6.374995395174015478e+00 2.553232426404605349e+00 4.245517161298580788e+01
1.520486555697823405e+03 6.586132752832429382e+00 2.826229787458689913e+00 4.320225133406218276e+01
1.530489756722151014e+03 6.923862446121222369e+00 2.606957121972270475e+00 4.370691532388752165e+01
1.540492957746478851e+03 6.758735585092548348e+00 2.534721591917750594e+00 4.473875703255638570e+01
1.550496158770806687e+03 6.856128748976247245e+00 2.551827565349684246e+00 4.201483091120952906e+01
1.560499359795134524e+03 6.938463321026485886e+00 2.641472437239361870e+00 4.134199338832890191e+01
1.570502560819462133e+03 6.957241236175748078e+00 2.485492181201690798e+00 4.084014341023832628e+01
1.580505761843789969e+03 6.634899984683269025e+00 2.695507797437907804e+00 3.906124299565900770e+01
1.590508962868117806e+03 7.013260735398524126e+00 2.719247925750560402e+00 3.818020699560045728e+01
1.600512163892445642e+03 7.154341258663686531e+00 2.697883917934526199e+00 3.768887104198654470e+01
1.610515364916773478e+03 7.612361519805928012e+00 2.899199880202236290e+00 3.775886092786497983e+01
1.620518565941101087e+03 7.012619744746896977e+00 2.715423799168683150e+00 3.910498104983533807e+01
1.630521766965428924e+03 7.523180127772036485e+00 2.808730461944157319e+00 3.904583336523894133e+01
1.640524967989756760e+03 7.434850825171542610e+00 2.968625265977558492e+00 3.919112928537061435e+01
1.650528169014084597e+03 7.408885932423993737e+00 2.854830887555602104e+00 4.072679318673176141e+01
1.660531370038412206e+03 7.835054256777749693e+00 3.022403515015540609e+00 4.204984295289713003e+01
1.670534571062740042e+03 8.304063166171237853e+00 3.037585541545579915e+00 3.974559184048178651e+01
1.680537772087067879e+03 8.070377032159337105e+00 3.256134301029914635e+00 4.122870595400671334e+01
1.690540973111395715e+03 8.280095170799588900e+00 3.369446325987609736e+00 4.372587181821933910e+01
1.700544174135723324e+03 8.112526023830929134e+00 3.042082462445603763e+00 4.161368278679761090e+01
1.710547375160051160e+03 8.273905847432448724e+00 3.025834675851626354e+00 4.237709941109220324e+01
1.720550576184378997e+03 8.811084147686489842e+00 3.241750332654906863e+00 4.030810512987461891e+01
1.730553777208706833e+03 8.605784271135554775e+00 3.246651651192687282e+00 3.940060745914958318e+01
1.740556978233034670e+03 8.338138283710415877e+00 3.255676711217093455e+00 3.968547825066752921e+01
1.750560179257362279e+03 8.747202173199500663e+00 3.335974137526191541e+00 4.124452025483592621e+01
1.760563380281690115e+03 8.786921915438535180e+00 3.435211071674044714e+00 4.200200150218707051e+01
1.770566581306017952e+03 8.958746540113100565e+00 3.474085976575005841e+00 4.197798679413813261e+01
1.780569782330345788e+03 9.185364659794407416e+00 3.568070748621575028e+00 4.272547797006036063e+01
1.790572983354673397e+03 9.170575546033374437e+00 3.791883950725559949e+00 4.069274662942259368e+01
1.800576184379001234e+03 9.300457588967836031e+00 3.605719630419152555e+00 3.973551437260240959e+01
1.810579385403329070e+03 9.509272666671201080e+00 3.575552561682299402e+00 3.942212750924776543e+01
1.820582586427656906e+03 9.771739893000351174e+00 3.709997180043582699e+00 3.917777265867258052e+01
1.830585787451984743e+03 1.015643493047365986e+01 3.979860698160694543e+00 4.163578280690895639e+01
1.840588988476312352e+03 9.788616497881228895e+00 3.921309128205525241e+00 4.301002083906580253e+01
1.850592189500640188e+03 1.020707440907356300e+01 4.002298092787278883e+00 4.282858394829078463e+01
1.860595390524968025e+03 1.109142393630578738e+01 3.973996147587473882e+00 4.480000068810534231e+01
1.870598591549295861e+03 1.172280801871861833e+01 4.377734374204007572e+00 4.549963032805867869e+01
1.880601792573623470e+03 1.207982289313540036e+01 4.530321130446774980e+00 4.961982791503630352e+01
1.890604993597951307e+03 1.223316315207120120e+01 4.316268005430239363e+00 5.108721240249761308e+01
1.900608194622279143e+03 1.243699602038543794e+01 4.024340349983919651e+00 5.346646014042235606e+01
1.910611395646606979e+03 1.307690143265870653e+01 4.398119367631831089e+00 5.436909464281460203e+01
1.920614596670934588e+03 1.434543740840239145e+01 4.464768665399776459e+00 5.838009015716176719e+01
1.930617797695262425e+03 1.530825010669559560e+01 4.955127111616841162e+00 6.115093579039528748e+01
1.940620998719590261e+03 1.620497178148131212e+01 4.985391877349676371e+00 6.606959230359255741e+01
1.950624199743918098e+03 1.940872876604854014e+01 4.944913889385659012e+00 6.559923329585389240e+01
1.960627400768245934e+03 2.012872365765058902e+01 5.285380532929017328e+00 7.260012082344150031e+01
1.970630601792573543e+03 2.084430958195768468e+01 5.261183674289891421e+00 7.792843109197774254e+01
1.980633802816901380e+03 2.462986267395682205e+01 5.080638644705357088e+00 8.273155506393112546e+01
1.990637003841229216e+03 2.719653092420871587e+01 5.940537724358175176e+00 8.835841075738547090e+01
2.000640204865557052e+03 3.030586356897181588e+01 6.106319321427249314e+00 8.904857811624395936e+01
2.010643405889884662e+03 3.011136410809117336e+01 6.249445596322916074e+00 9.061716010561110579e+01
2.020646606914212498e+03 3.043926343450657512e+01 6.174896027299483059e+00 9.241294216512321213e+01
2.030649807938540334e+03 3.349459275411266646e+01 6.478112286488676652e+00 9.274082146554493988e+01
2.040653008962868171e+03 3.200033477272815219e+01 6.218748458975356996e+00 8.879606696776566821e+01
2.050656209987195780e+03 3.192975362730193822e+01 6.814863375574445215e+00 8.694604471184611327e+01
2.060659411011523844e+03 3.336727407420991653e+01 6.492557064243739795e+00 8.757239676528362793e+01
2.070662612035851453e+03 3.573850194111118839e+01 7.061986588643779150e+00 8.802115391479806306e+01
2.080665813060179062e+03 3.887092221468464714e+01 7.448092654363724918e+00 9.025679202458013606e+01
2.090669014084507126e+03 3.752424678970062644e+01 7.093362529606757505e+00 8.933436901239720385e+01
2.100672215108834735e+03 3.742479936975132659e+01 8.014206830405242954e+00 8.862123078835733736e+01
2.110675416133162798e+03 4.181709797358684710e+01 7.691487190001175200e+00 9.606124229347658172e+01
2.120678617157490407e+03 4.611951973376222469e+01 8.828368596160688142e+00 9.626607994772442112e+01
2.130681818181818016e+03 4.340739358865201325e+01 9.169712620266423642e+00 1.010388407713430325e+02
2.140685019206146080e+03 4.774802855670566970e+01 8.987870309937161295e+00 1.085847135434751465e+02
2.150688220230473689e+03 5.396676199532718243e+01 9.564081111525441159e+00 1.184848882998455224e+02
2.160691421254801753e+03 5.914906967109865121e+01 1.036384081571891791e+01 1.288461360295695499e+02
2.170694622279129362e+03 6.269010848150334425e+01 1.095289986534370996e+01 1.417716948252326858e+02
2.180697823303456971e+03 6.386875048924397191e+01 1.190058996016042236e+01 1.465408469255391992e+02
2.190701024327785035e+03 6.895179926467615417e+01 1.248293388703541140e+01 1.450373402762199362e+02
2.200704225352112644e+03 6.648936899072249673e+01 1.269988252222957215e+01 1.362096884833888168e+02
2.210707426376440253e+03 6.523766737916776037e+01 1.316582395375828085e+01 1.302529993890022979e+02
2.220710627400768317e+03 6.693374668185991538e+01 1.272721267359635533e+01 1.246404129021446181e+02
2.230713828425095926e+03 6.288689891081417471e+01 1.392536768305129335e+01 1.262078941748033571e+02
2.240717029449423990e+03 5.948670228515853609e+01 1.445635292503011904e+01 1.212690790944054271e+02
2.250720230473751599e+03 6.150012011091541098e+01 1.439681859139460407e+01 1.202153290377391670e+02
2.260723431498079208e+03 6.113984563149285378e+01 1.465510357119021556e+01 1.208832759820210185e+02
2.270726632522407272e+03 6.100153414077865932e+01 1.526939443142626729e+01 1.219997418237656035e+02
2.280729833546734881e+03 5.910765621549017368e+01 1.632437205257976842e+01 1.191900976115673103e+02
2.290733034571062944e+03 6.148699040706029706e+01 1.628016630345301152e+01 1.200019142787438113e+02
2.300736235595390553e+03 6.216615474127500818e+01 1.693343749686597377e+01 1.216731110679787236e+02
2.310739436619718163e+03 5.948976288693135928e+01 1.612832338646370189e+01 1.197191483288769547e+02
2.320742637644046226e+03 5.448080989447748834e+01 1.670960831804533342e+01 1.162001909099392947e+02
2.330745838668373835e+03 5.290425838401458236e+01 1.643451678043953734e+01 1.132658236383845605e+02
2.340749039692701444e+03 5.428204585508915159e+01 1.624886531415038249e+01 1.080599823057196005e+02
2.350752240717029508e+03 5.211365985367081066e+01 1.423553957796723246e+01 1.081604117822997466e+02
2.360755441741357117e+03 5.011129463989292532e+01 1.372725351352448975e+01 1.079723054127455413e+02
2.370758642765685181e+03 4.803721853236318395e+01 1.397852852066144003e+01 1.033565433291958016e+02
2.380761843790012790e+03 4.852232831580693073e+01 1.388222449986069584e+01 1.035400755089517304e+02
2.390765044814340399e+03 4.555477852747110745e+01 1.306947633105906448e+01 9.965166774659029159e+01
2.400768245838668463e+03 4.416804587147503725e+01 1.232826472858887890e+01 9.633490382927067230e+01
2.410771446862996072e+03 4.366441807012102316e+01 1.246676816587356029e+01 9.608804444860561489e+01
2.420774647887324136e+03 4.186172558146148504e+01 1.305673544456429092e+01 9.249125873487409422e+01
2.430777848911651745e+03 4.006703889511656769e+01 1.176334444186392680e+01 8.564931530352333766e+01
2.440781049935979354e+03 3.809788056554826596e+01 1.168933484789858035e+01 8.275735045174755555e+01
2.450784250960307418e+03 3.596951655309693052e+01 1.135927090676629270e+01 7.688170564269884721e+01
2.460787451984635027e+03 3.349738619361188086e+01 1.100563981908676681e+01 7.311970671666028920e+01
2.470790653008963091e+03 3.460812345474442964e+01 1.079528960074461885e+01 7.102889538258651214e+01
2.480793854033290700e+03 3.399776419302484243e+01 1.089684403106843114e+01 6.737896807911701558e+01
2.490797055057618309e+03 3.090001721443944760e+01 1.023099755345170081e+01 6.480831670901584118e+01
2.500800256081946372e+03 3.258278317856090212e+01 1.021850907719371548e+01 6.507793638274824843e+01
2.510803457106273981e+03 3.028556278150574244e+01 1.017851873761823711e+01 6.199343897459194608e+01
2.520806658130601591e+03 2.942068963400272352e+01 9.684561447286204938e+00 6.036426391190902052e+01
2.530809859154929654e+03 3.074008315663736823e+01 1.082850360669792522e+01 6.012300538480220524e+01
2.540813060179257263e+03 3.052963726421226553e+01 1.038261843220536740e+01 5.714672585464685284e+01
2.550816261203585327e+03 2.935065987161582868e+01 1.020208363691331144e+01 5.743766515982334653e+01
2.560819462227912936e+03 3.221595233670220892e+01 1.092776847191670342e+01 5.659059899047171172e+01
2.570822663252240545e+03 2.991105253731836910e+01 1.149054622043840368e+01 5.911884962125412812e+01
2.580825864276568609e+03 3.014950378439576539e+01 1.056079081922907825e+01 5.731666336524659755e+01
2.590829065300896218e+03 3.092209322800025006e+01 1.084132304393665436e+01 5.784903296874497869e+01
2.600832266325224282e+03 3.163771010633910308e+01 1.156752172099509934e+01 5.826761583816068679e+01
2.610835467349551891e+03 3.233631636482768101e+01 1.131245992131470857e+01 6.140644727786403934e+01
2.620838668373879500e+03 3.318719234019244624e+01 1.152744850695042622e+01 6.258950764981481285e+01
2.630841869398207564e+03 3.564596815215251269e+01 1.148295250208797924e+01 6.740921011841352595e+01
2.640845070422535173e+03 3.560021869579271225e+01 1.216648024277509954e+01 7.452479019090890233e+01
2.650848271446862782e+03 3.886715490086118763e+01 1.390907891404809504e+01 8.075314072334181503e+01
2.660851472471190846e+03 4.143975670054177129e+01 1.264208142969916793e+01 9.070773929430730220e+01
2.670854673495518455e+03 4.469434911156352541e+01 1.352821115604402991e+01 1.066025903190461293e+02
2.680857874519846519e+03 4.661129913683181769e+01 1.420678078124332799e+01 1.323545440311532957e+02
2.690861075544174128e+03 5.083197617794350975e+01 1.465997515022892728e+01 1.505593077930724348e+02
2.700864276568501737e+03 5.527722018678608151e+01 1.549109103766702056e+01 1.655408463580918976e+02
2.710867477592829800e+03 5.473432176601505716e+01 1.480191235628669588e+01 1.814386006036150150e+02
2.720870678617157409e+03 5.549573828702933298e+01 1.525350931162215851e+01 1.746657293029536220e+02
2.730873879641485473e+03 5.512367665007583639e+01 1.407274206487391055e+01 1.613807485499737595e+02
2.740877080665813082e+03 5.075330689472480827e+01 1.407897823294795536e+01 1.438837393346511249e+02
2.750880281690140691e+03 4.928541649530494340e+01 1.395980260917938942e+01 1.387879937190464830e+02
2.760883482714468755e+03 4.811042140036795445e+01 1.371936892902168559e+01 1.249732283475162404e+02
2.770886683738796364e+03 4.535586718117894378e+01 1.347668323680514213e+01 1.269225130064556026e+02
2.780889884763124428e+03 4.313226130492213173e+01 1.272771710753048602e+01 1.177551335156429673e+02
2.790893085787452037e+03 4.151292489093914639e+01 1.199994234641647495e+01 1.169460783616154771e+02
2.800896286811779646e+03 3.987626423436293521e+01 1.159558296114298770e+01 1.084218873496546678e+02
2.810899487836107710e+03 3.878766359787660889e+01 1.175787044232482437e+01 1.065532034862223867e+02
2.820902688860435319e+03 3.789973881316205961e+01 1.182293601535475958e+01 9.863948190436501307e+01
2.830905889884762928e+03 3.459786242326030248e+01 1.117953614659584538e+01 9.518753852929421555e+01
2.840909090909090992e+03 3.316004743977038771e+01 1.063549600431268871e+01 1.008508806251821284e+02
2.850912291933418601e+03 3.455798633024390654e+01 1.022705606565669711e+01 9.877506604829069659e+01
2.860915492957746665e+03 3.327443880123770725e+01 1.034536607413826914e+01 1.033620139142636560e+02
2.870918693982074274e+03 3.276987627446104767e+01 1.044561326788350897e+01 1.103554274114861613e+02
2.880921895006401883e+03 3.429445123060050093e+01 9.541296072196082889e+00 1.192991451281632180e+02
2.890925096030729947e+03 3.621055620816452603e+01 9.508732355983369189e+00 1.435493733842169490e+02
2.900928297055057556e+03 3.568103549758878046e+01 9.688904701058673297e+00 1.579017305640822144e+02
2.910931498079385619e+03 3.212366694070676942e+01 9.534752162863165736e+00 1.617162263193609419e+02
2.920934699103713228e+03 3.095162865212050818e+01 9.674518876584496496e+00 1.528705577184464630e+02
2.930937900128040837e+03 3.120728213796991568e+01 9.036351786188911106e+00 1.426373755983053968e+02
2.940941101152368901e+03 3.209000025073839168e+01 9.420229192994710843e+00 1.162624939573916691e+02
2.950944302176696510e+03 2.974611801327273852e+01 8.652327651214015702e+00 9.647331049496133915e+01
2.960947503201024119e+03 2.817058911656841147e+01 8.723755529866675573e+00 8.076441118233097427e+01
2.970950704225352183e+03 2.649848059449971061e+01 8.764959650796448898e+00 7.561739839256897255e+01
2.980953905249679792e+03 2.475228341162872425e+01 8.267771538039676571e+00 7.171573781340813980e+01
2.990957106274007856e+03 2.444085296445331323e+01 8.004001524139381374e+00 6.937294951576025426e+01
3.000960307298335465e+03 2.318138097071327053e+01 8.015752055550599664e+00 6.692297009025308796e+01
3.010963508322663074e+03 2.189883817112817610e+01 7.304925393267873268e+00 6.508107420489832862e+01
3.020966709346991138e+03 2.097372195387347915e+01 7.472864145051736351e+00 6.521318495953187266e+01
3.030969910371318747e+03 2.064720148857908555e+01 7.424886943661284988e+00 6.194079370630694115e+01
3.040973111395646811e+03 2.095580531028043580e+01 7.773853166253574365e+00 6.106054609886364659e+01
3.050976312419974420e+03 1.958334199202377590e+01 7.215876343163982298e+00 6.393237679323206635e+01
3.060979513444302029e+03 1.887899181314422847e+01 7.088120541986958401e+00 6.082125387244169445e+01
3.070982714468630093e+03 1.851660825566759172e+01 6.618970178308180685e+00 6.113306384203723809e+01
3.080985915492957702e+03 1.908695021914048695e+01 7.171724260842479381e+00 5.951806504532929409e+01
3.090989116517285311e+03 1.849109519300535354e+01 6.822470570451565131e+00 5.960099575522330895e+01
3.100992317541613374e+03 1.818506921280370392e+01 7.166368848737743491e+00 6.091698521643577635e+01
3.110995518565940984e+03 1.755832222897563710e+01 7.336031735506039375e+00 5.799431077092359033e+01
3.120998719590269047e+03 1.744027527710711922e+01 7.142470460984049474e+00 5.644612377843463946e+01
3.131001920614596656e+03 1.721922608738164584e+01 6.956809261194598193e+00 5.584643462141664116e+01
3.141005121638924265e+03 1.778847787585547024e+01 6.037054761437705253e+00 5.644729883810374105e+01
3.151008322663252329e+03 1.658297855173067958e+01 6.230706261813069524e+00 5.541250960611819210e+01
3.161011523687579938e+03 1.581956320598963650e+01 6.175096137911011418e+00 5.564051715161571110e+01
3.171014724711908002e+03 1.585770421054515644e+01 6.209570170786250287e+00 5.666273420817675088e+01
3.181017925736235611e+03 1.631308162113596794e+01 6.077858669083324727e+00 5.397422552449994981e+01
3.191021126760563220e+03 1.541940699050918262e+01 6.305462959709613457e+00 5.017746675033713188e+01
3.201024327784891284e+03 1.499587294655895242e+01 5.716909388751105325e+00 5.069314326661491066e+01
3.211027528809218893e+03 1.514671893524753266e+01 5.926755990671150442e+00 4.689415767710429606e+01
3.221030729833546957e+03 1.457211299733440946e+01 6.121737784541071647e+00 4.644374560875235147e+01
3.231033930857874566e+03 1.428388604309256316e+01 6.182413545566820545e+00 4.563282053265486127e+01
3.241037131882202175e+03 1.433488185818643856e+01 5.960950619848198073e+00 4.170790094114676805e+01
3.251040332906530239e+03 1.417957317176682785e+01 6.145454659229830696e+00 4.317361656472889564e+01
3.261043533930857848e+03 1.399536375834606439e+01 6.052754948292354165e+00 4.312752652027224087e+01
3.271046734955185457e+03 1.395900469556947066e+01 5.476862484107882345e+00 4.483160192560792012e+01
3.281049935979513521e+03 1.373917831510831178e+01 5.692567854451172416e+00 4.246319807447753192e+01
3.291053137003841130e+03 1.400155174850389450e+01 6.236349629647518711e+00 3.987761560339006905e+01
3.301056338028169193e+03 1.393162820605408392e+01 5.802965915460792878e+00 4.414090435151470615e+01
3.311059539052496802e+03 1.351016327157943131e+01 5.798429572206196703e+00 4.149644307035656965e+01
3.321062740076824412e+03 1.363908327178807944e+01 5.848024541146830124e+00 4.192399273606687160e+01
3.331065941101152475e+03 1.371165477709507741e+01 5.947622239033591107e+00 4.033126452825353425e+01
3.341069142125480084e+03 1.342640155725495354e+01 5.876270091838144083e+00 4.094792166135702871e+01
3.351072343149808148e+03 1.305165335540601568e+01 5.366230531658179537e+00 4.192260763717085581e+01
3.361075544174135757e+03 1.284598149849163562e+01 5.826545961448350575e+00 4.278404309998321509e+01
3.371078745198463366e+03 1.326231644906901153e+01 5.892549635597491786e+00 4.221936226946522908e+01
3.381081946222791430e+03 1.324652081843988150e+01 5.674810440199194339e+00 4.107817475245431638e+01
3.391085147247119039e+03 1.296219345751162244e+01 5.253509064696554098e+00 4.070780237172071736e+01
3.401088348271446648e+03 1.360899898965434041e+01 5.613393983904094497e+00 4.230145708757162026e+01
3.411091549295774712e+03 1.310605510614738911e+01 5.412669652375416085e+00 4.022317023486755971e+01
3.421094750320102321e+03 1.309180000952577139e+01 5.666523971686794781e+00 3.994272752453663600e+01
3.431097951344430385e+03 1.331562495126979329e+01 5.607076072901864272e+00 4.015600431062195952e+01
3.441101152368757994e+03 1.355627204203707592e+01 5.969630475807679026e+00 4.239483542757078993e+01
3.451104353393085603e+03 1.320904908263965361e+01 5.803052270537381929e+00 4.258098450155134174e+01
3.461107554417413667e+03 1.315776890462561255e+01 5.859122523601071997e+00 4.165331988517112904e+01
3.471110755441741276e+03 1.330640056920144154e+01 5.333044719394575139e+00 4.293806496473020928e+01
3.481113956466069340e+03 1.308930913373606231e+01 5.599398155495565632e+00 4.390184264273904802e+01
3.491117157490396949e+03 1.324933106904626179e+01 5.218292105926677138e+00 4.112901928358273551e+01
3.501120358514724558e+03 1.341645587546915053e+01 5.606398367069627575e+00 4.293332094312313529e+01
3.511123559539052621e+03 1.380265324589443665e+01 5.605970120920185096e+00 4.186890474675217888e+01
3.521126760563380230e+03 1.379545637043020356e+01 6.123817577839131054e+00 4.098590747403426349e+01
3.531129961587708294e+03 1.353345502384730636e+01 5.827574048477566215e+00 4.132068011803856677e+01
3.541133162612035903e+03 1.295978028444948293e+01 5.676001399438794337e+00 3.974626869294002773e+01
3.551136363636363512e+03 1.319125815224906972e+01 6.021883117952733677e+00 4.120966252641843397e+01
3.561139564660691576e+03 1.291501500004409841e+01 5.721740291899489961e+00 4.062915574882507741e+01
3.571142765685019185e+03 1.301904301376626982e+01 5.587783527319056809e+00 4.227077766699702011e+01
3.581145966709346794e+03 1.360237905264413882e+01 5.774142366952468741e+00 4.119357852298186629e+01
3.591149167733674858e+03 1.317720687672183999e+01 5.695873502403274280e+00 3.912352996156838714e+01
3.601152368758002467e+03 1.320855965340945026e+01 5.808753679354827781e+00 3.876948837266719750e+01
3.611155569782330531e+03 1.326339969721845513e+01 5.788506814917727006e+00 3.810089914157411073e+01
3.621158770806658140e+03 1.377238252130333862e+01 5.944105074232982844e+00 3.950299880272135766e+01
3.631161971830985749e+03 1.323341926757126075e+01 5.695075766857587318e+00 4.024984921604414723e+01
3.641165172855313813e+03 1.310305559425611399e+01 5.983173199791735897e+00 4.093903729825824200e+01
3.651168373879641422e+03 1.373226873552172655e+01 5.515946485506820096e+00 3.861308802401152462e+01
3.661171574903969486e+03 1.319545100169605867e+01 5.764709396685906206e+00 3.678026057843590735e+01
3.671174775928297095e+03 1.334158219906232823e+01 5.794281887352486393e+00 3.971121255922253823e+01
3.681177976952624704e+03 1.362893860535772284e+01 5.668936804812067187e+00 3.905128034450365249e+01
3.691181177976952767e+03 1.290972546809941690e+01 5.800749516438420628e+00 3.938412634614711294e+01
3.701184379001280377e+03 1.277216714708524847e+01 5.397734880631776200e+00 4.190440307560718480e+01
3.711187580025607986e+03 1.362280165922779851e+01 5.618405075421534889e+00 3.950912696602858176e+01
3.721190781049936049e+03 1.348771335445606034e+01 5.731851463215515530e+00 3.935515947834905859e+01
3.731193982074263658e+03 1.303927873675448623e+01 5.685522739762433275e+00 3.984756426692615605e+01
3.741197183098591722e+03 1.318764463510093954e+01 5.977035198920519932e+00 3.935768643502514408e+01
3.751200384122919331e+03 1.368015836922545780e+01 5.819829559738945335e+00 3.961719073059350649e+01
3.761203585147246940e+03 1.365285946593523114e+01 5.917934252392130112e+00 4.081613954165366209e+01
3.771206786171575004e+03 1.317204651029912732e+01 5.412939144125087587e+00 3.855560527874261822e+01
3.781209987195902613e+03 1.334281804162617924e+01 5.639219092027606628e+00 3.947908568957075914e+01
3.791213188220230677e+03 1.328034442130007875e+01 5.734888587203060162e+00 3.763191790972756934e+01
3.801216389244558286e+03 1.327168691214761864e+01 5.616261919707209671e+00 4.051877466574339337e+01
3.811219590268885895e+03 1.428749130355546981e+01 6.168443026006113605e+00 4.167418930800153021e+01
3.821222791293213959e+03 1.374183003369362055e+01 5.993148050091700263e+00 4.141533020771465345e+01
3.831225992317541568e+03 1.358776658813761173e+01 5.715440606151869218e+00 3.893805293200104245e+01
3.841229193341869177e+03 1.333464537522969273e+01 6.044406221492589992e+00 3.981831022256261576e+01
3.851232394366197241e+03 1.323146590662240918e+01 5.866142754639409596e+00 4.126775587940624490e+01
3.861235595390524850e+03 1.346640217185623101e+01 5.861433011677799065e+00 4.087113782642133231e+01
3.871238796414852914e+03 1.394793931394615960e+01 5.596715582991023119e+00 3.916999124432636847e+01
3.881241997439180523e+03 1.384455534617445238e+01 5.597324225928029584e+00 3.694962725529731529e+01
3.891245198463508132e+03 1.415473311622670316e+01 6.152608173632668098e+00 3.795601626828155872e+01
3.901248399487836195e+03 1.413510138943397898e+01 6.005213889682724293e+00 4.076460784369110968e+01
3.911251600512163805e+03 1.404557704379167760e+01 6.065812113789203153e+00 3.992541211197241324e+01
3.921254801536491868e+03 1.422220610119109807e+01 6.020985184269286528e+00 4.129749451977355790e+01
3.931258002560819477e+03 1.398998474898023581e+01 6.057104388415022633e+00 4.117331470956283113e+01
3.941261203585147086e+03 1.450846360489751596e+01 6.737429775043201730e+00 4.046196992374255075e+01
3.951264404609475150e+03 1.547076712464351900e+01 6.587558669306209147e+00 3.872204663445629080e+01
3.961267605633802759e+03 1.572023212321812302e+01 6.732013556744013805e+00 4.105617168460012323e+01
3.971270806658130823e+03 1.582002076140094182e+01 7.099886578096335832e+00 4.190330765420752357e+01
3.981274007682458432e+03 1.506558232202962699e+01 6.979979648296858130e+00 4.145926110225906314e+01
3.991277208706786041e+03 1.555717589873878204e+01 6.191161430424333645e+00 4.424171791983624757e+01
4.001280409731114105e+03 1.616355248153045210e+01 6.849799926023864671e+00 4.349234024304757895e+01
4.011283610755441714e+03 1.534814755614163317e+01 6.978688603605255558e+00 4.112106900383349739e+01
4.021286811779769323e+03 1.599532502970353143e+01 6.566814982888035779e+00 4.208051745707599167e+01
4.031290012804097387e+03 1.608870324196188051e+01 6.763898446337468506e+00 4.176671301249830037e+01
4.041293213828424996e+03 1.592725348504574434e+01 6.257650980955834719e+00 3.891465444329875822e+01
4.051296414852753060e+03 1.499101986156405175e+01 6.279176315826402011e+00 3.899307233048054400e+01
4.061299615877080669e+03 1.534019462101020537e+01 6.017125575431110818e+00 3.964630762170739331e+01
4.071302816901408278e+03 1.603454724163574596e+01 6.429008188106299926e+00 4.158597404183422697e+01
4.081306017925736342e+03 1.557661385051929770e+01 6.495697234759986394e+00 4.244720389159235907e+01
4.091309218950063951e+03 1.466406450007916185e+01 6.143337555437313746e+00 4.106864230142168992e+01
4.101312419974391560e+03 1.440278264285239551e+01 5.718379618879188442e+00 4.026274178241892088e+01
4.111315620998719169e+03 1.444742989823231483e+01 5.877949379835365029e+00 4.143166763564247645e+01
4.121318822023047687e+03 1.468686765362902058e+01 5.943204599902035312e+00 4.044522542956710254e+01
4.131322023047375296e+03 1.416166269310657988e+01 6.048111253712285418e+00 4.027677212759682845e+01
4.141325224071702905e+03 1.425648432669203380e+01 6.031656106870048717e+00 4.020214081786910754e+01
4.151328425096030514e+03 1.440880512968457694e+01 5.777018834504813682e+00 4.053757915552526470e+01
4.161331626120358123e+03 1.416546830931946666e+01 5.896333094200860714e+00 3.957018845876587676e+01
4.171334827144686642e+03 1.432648769848992565e+01 5.763455188145208297e+00 3.883989623395700619e+01
4.181338028169014251e+03 1.377355458502743879e+01 5.596420560410084732e+00 3.823782796120599414e+01
4.191341229193341860e+03 1.409596624310178115e+01 5.742351911198908532e+00 4.010987307317355288e+01
4.201344430217669469e+03 1.391216019316109964e+01 5.854578476815544441e+00 4.014448056870895698e+01
4.211347631241997078e+03 1.461698344260622484e+01 6.154793455082448794e+00 4.170732992490471247e+01
4.221350832266325597e+03 1.388283520134276294e+01 5.949886472275835558e+00 4.097846375635921845e+01
4.231354033290653206e+03 1.465495756582020626e+01 6.160299056643248505e+00 3.996892057995545144e+01
4.241357234314980815e+03 1.508068399208644550e+01 5.873868292438788608e+00 4.291031114540064806e+01
4.251360435339308424e+03 1.564768166122735948e+01 6.208839838178586312e+00 3.993545906123741673e+01
4.261363636363636033e+03 1.519524247699029118e+01 6.158966697906366861e+00 4.047328316555416450e+01
4.271366837387964551e+03 1.527256944281861806e+01 6.159662379594005088e+00 4.152743663446874223e+01
4.281370038412292161e+03 1.614669537224860107e+01 5.881998016129949214e+00 3.972276114284394311e+01
4.291373239436619770e+03 1.562131295556686439e+01 5.950221130168444894e+00 4.114418874444351104e+01
4.301376440460947379e+03 1.650346968473887799e+01 6.125663557999428299e+00 3.979743355329696897e+01
4.311379641485274988e+03 1.559905830268749405e+01 5.790208000437073288e+00 4.028547846063910498e+01
4.321382842509603506e+03 1.617437362398606027e+01 6.319844682135334679e+00 4.341169092928605266e+01
4.331386043533931115e+03 1.732934814031869308e+01 6.564035587896931645e+00 4.291637333156864287e+01
4.341389244558258724e+03 1.717889882599174101e+01 6.529306580119252246e+00 4.641404098705641701e+01
4.351392445582586333e+03 1.784958554585305279e+01 6.582475493021905599e+00 4.574962176179079876e+01
4.361395646606913942e+03 1.703513525746059898e+01 6.448437164794453835e+00 4.269586825659878571e+01
4.371398847631241551e+03 1.741032264683896713e+01 6.400557233376139799e+00 4.198001830295083181e+01
4.381402048655570070e+03 1.785001634257233505e+01 6.302467779911324897e+00 4.036775557670184611e+01
4.391405249679897679e+03 1.717025890520226739e+01 6.460111068749481156e+00 4.195103459550254144e+01
4.401408450704225288e+03 1.740884975449986527e+01 6.561373520952640703e+00 4.224369129320592009e+01
4.411411651728552897e+03 1.763669998767137415e+01 6.850375247386788047e+00 4.259081747769445059e+01
4.421414852752880506e+03 1.749934729718424720e+01 6.281904475826856071e+00 4.257805332870486836e+01
4.431418053777209025e+03 1.708903484720760346e+01 6.840434610682519789e+00 4.128670546401093588e+01
4.441421254801536634e+03 1.746801723437834397e+01 6.810572775928971367e+00 3.997434437255047612e+01
4.451424455825864243e+03 1.694432227479551756e+01 6.793871793142758797e+00 4.215886034189041709e+01
4.461427656850191852e+03 1.657242976437125392e+01 6.438571935294966408e+00 4.072629543256491758e+01
4.471430857874519461e+03 1.733505278700623364e+01 6.807870115900134245e+00 4.095356722951038364e+01
4.481434058898847979e+03 1.692710692940699246e+01 6.544091267985164606e+00 4.102037549671039329e+01
4.491437259923175588e+03 1.750951274047678652e+01 6.673834368690912733e+00 4.024235110622345957e+01
4.501440460947503198e+03 1.689267174813474881e+01 6.856917020258564754e+00 4.208904874546391994e+01
4.511443661971830807e+03 1.728363684005959300e+01 6.510060059269923372e+00 4.140121815446563858e+01
4.521446862996158416e+03 1.722093925650289137e+01 6.317116334600171079e+00 3.924870317861272895e+01
4.531450064020486934e+03 1.688754701437403227e+01 7.487916488051050479e+00 4.109579559134292737e+01
4.541453265044814543e+03 1.813296487031056614e+01 7.699033828684261671e+00 4.046069559383944636e+01
4.551456466069142152e+03 1.770019949147091509e+01 6.925217304949630837e+00 3.971388697829905823e+01
4.561459667093469761e+03 1.816473948319788079e+01 7.515364987442699984e+00 4.107782144351141085e+01
4.571462868117797370e+03 1.716546526119474336e+01 7.005970652906797547e+00 4.009184092427770452e+01
4.581466069142125889e+03 1.748768120965346284e+01 6.912858004862290073e+00 3.947287396723928765e+01
4.591469270166453498e+03 1.732839990123351370e+01 6.469984575691965389e+00 4.033007856596241680e+01
4.601472471190781107e+03 1.768060672663225219e+01 7.267137342729816041e+00 4.093262440222325438e+01
4.611475672215108716e+03 1.795914118406665239e+01 7.236815876148304127e+00 4.072820669578003105e+01
4.621478873239436325e+03 1.799711222385704090e+01 7.373908763503272290e+00 4.238049199182680127e+01
4.631482074263764844e+03 1.813546968915693469e+01 8.010395969109731951e+00 4.167525216217258333e+01
4.641485275288092453e+03 1.864172225413991413e+01 7.916657601077441875e+00 4.040482062228132776e+01
4.651488476312420062e+03 1.867461956280555668e+01 7.740771537723340145e+00 4.113886802661153297e+01
4.661491677336747671e+03 1.822315631232483923e+01 7.785122092594218834e+00 4.062921442575628106e+01
4.671494878361075280e+03 1.821311788954999145e+01 7.368852180921377837e+00 4.289832119983422842e+01
4.681498079385402889e+03 1.829643513262191945e+01 7.808597122403598156e+00 4.035151694905319886e+01
4.691501280409731407e+03 1.893931351899176363e+01 7.938848088239432776e+00 4.093630561815250246e+01
4.701504481434059016e+03 1.831935741580209864e+01 7.622229326351672718e+00 4.016702272876622004e+01
4.711507682458386626e+03 1.874941616679780054e+01 7.628096523373988802e+00 3.948984790327817507e+01
4.721510883482714235e+03 1.840086742751054416e+01 7.746843111017233774e+00 3.956195674900219217e+01
4.731514084507041844e+03 1.847284409152348772e+01 8.140802016869221447e+00 4.172333233765059646e+01
4.741517285531370362e+03 1.853595879373236244e+01 8.335620259713094171e+00 4.043789957518220746e+01
4.751520486555697971e+03 1.922831124426531346e+01 8.903696989071274714e+00 4.151599194922568614e+01
4.761523687580025580e+03 1.894337409897178048e+01 8.844360037907980754e+00 4.194886404888448084e+01
4.771526888604353189e+03 1.955847941726889161e+01 8.747218238956900649e+00 4.268043014706431393e+01
4.781530089628680798e+03 2.009327118697175507e+01 9.237992646912083217e+00 4.126591472101176095e+01
4.791533290653009317e+03 1.985843535430970164e+01 9.227945808555501728e+00 4.323666670588605143e+01
4.801536491677336926e+03 1.899369176758913014e+01 8.570688933761449135e+00 4.098444586901726439e+01
4.811539692701664535e+03 1.792591993074905687e+01 8.217660672046248393e+00 3.964673505524027775e+01
4.821542893725992144e+03 1.717231733475060551e+01 7.859665906733982688e+00 4.014442501749478964e+01
4.831546094750319753e+03 1.791503244067594736e+01 7.988722646810021644e+00 4.012806012924878729e+01
4.841549295774648272e+03 1.716821764620421931e+01 7.632243607645166072e+00 3.974098600830928518e+01
4.851552496798975881e+03 1.716658770556402303e+01 7.803183783588798050e+00 3.835923492798105627e+01
4.861555697823303490e+03 1.655631030303352702e+01 7.032803285292293261e+00 3.994190935066718140e+01
4.871558898847631099e+03 1.633190746571374063e+01 6.632253441174337460e+00 3.896990637940325541e+01
4.881562099871958708e+03 1.548149607547902740e+01 6.315655698307005572e+00 3.996826460264552594e+01
4.891565300896287226e+03 1.509083366158446005e+01 6.694308584654065086e+00 3.839251628306304553e+01
4.901568501920614835e+03 1.511091982111608090e+01 6.774257688104649233e+00 4.117413864084038266e+01
4.911571702944942444e+03 1.528830235561635575e+01 6.627707556451019499e+00 3.831906735531083541e+01
4.921574903969270053e+03 1.523347806588089171e+01 6.817845781774481750e+00 4.089405896019823672e+01
4.931578104993597663e+03 1.504813530295361268e+01 6.731478356070419444e+00 3.987609671847719284e+01
4.941581306017926181e+03 1.539736008339767892e+01 6.326429342281399748e+00 4.016535929593859322e+01
4.951584507042253790e+03 1.429906886392502408e+01 6.349105548589953685e+00 3.835065956574374724e+01
4.961587708066581399e+03 1.444411722208443827e+01 6.211179065825616519e+00 3.878744306815001153e+01
4.971590909090909008e+03 1.458853383694553330e+01 6.404168396410379493e+00 3.965425854977622322e+01
4.981594110115236617e+03 1.453859215966464191e+01 6.205444801351807094e+00 3.933497627576323907e+01
4.991597311139564226e+03 1.486783894345209234e+01 6.484849201944082431e+00 4.147622377462798937e+01
5.001600512163892745e+03 1.452951279460141087e+01 6.237579337636320886e+00 4.064480791666333204e+01
5.011603713188220354e+03 1.435269343085971272e+01 6.617383793451602436e+00 3.973612727670396083e+01
5.021606914212547963e+03 1.440980418587005474e+01 6.511582792660108865e+00 4.058204602973921027e+01
5.031610115236875572e+03 1.389045134089841405e+01 6.014671966522493030e+00 4.171222844477770764e+01
5.041613316261203181e+03 1.415710863727286650e+01 5.992931442634466421e+00 3.860153294472472396e+01
5.051616517285531700e+03 1.390309455177781928e+01 5.896165582910120051e+00 3.908956337575042284e+01
5.061619718309859309e+03 1.348229202922023262e+01 6.013844788431076616e+00 3.791781278148812362e+01
5.071622919334186918e+03 1.405634981347052914e+01 6.195570879666521869e+00 3.850442648406696122e+01
5.081626120358514527e+03 1.365149465036508403e+01 6.170908415900348665e+00 3.905648684659436753e+01
5.091629321382842136e+03 1.375834921667972388e+01 6.173365189569464562e+00 3.915789050296452700e+01
5.101632522407170654e+03 1.384663670160718851e+01 5.945877983094553620e+00 3.970508883613019435e+01
5.111635723431498263e+03 1.329835685513642929e+01 5.602749970963196269e+00 3.932262728176948485e+01
5.121638924455825872e+03 1.295941832548108685e+01 4.942502673656190559e+00 3.932820467416620858e+01
5.131642125480153481e+03 1.306949266133211651e+01 5.550676032466401288e+00 3.972528339333926084e+01
5.141645326504481091e+03 1.399465992868392128e+01 5.510754926073546223e+00 4.079900358271535055e+01
5.151648527528809609e+03 1.358672360181086347e+01 5.744720433059862685e+00 3.941092476303755632e+01
5.161651728553137218e+03 1.297547432566131853e+01 5.892983405041530176e+00 4.069391202483551240e+01
5.171654929577464827e+03 1.333134682432751461e+01 6.071073120245094934e+00 4.275377648107476602e+01
5.181658130601792436e+03 1.318686423537157637e+01 5.740205355685277233e+00 4.160552139841940544e+01
5.191661331626120045e+03 1.344281298104501587e+01 5.261894137145828765e+00 4.136515322788700644e+01
5.201664532650448564e+03 1.334936905478884484e+01 5.630958423942701074e+00 4.151903892289141851e+01
5.211667733674776173e+03 1.353560569709649641e+01 5.888718452575026241e+00 4.017898774039563392e+01
5.221670934699103782e+03 1.360216663276438886e+01 5.548156769207329475e+00 4.104813353506901308e+01
5.231674135723431391e+03 1.357231380711231772e+01 5.606923370623399627e+00 4.082357513291000117e+01
5.241677336747759000e+03 1.317868195469686832e+01 5.535153481632191230e+00 4.105251523646608547e+01
5.251680537772087519e+03 1.380510248394597284e+01 5.351343263956474416e+00 4.075033244483511652e+01
5.261683738796415128e+03 1.271384875248746305e+01 5.555381946695375106e+00 3.945472268508629554e+01
5.271686939820742737e+03 1.362847807604856420e+01 6.053266883408652710e+00 3.940780428420460879e+01
5.281690140845070346e+03 1.348653014645939763e+01 5.711527698857343793e+00 4.212307210524696188e+01
5.291693341869397955e+03 1.381364159334306763e+01 5.819359983905995293e+00 4.152953404596211584e+01
5.301696542893725564e+03 1.408875433707526170e+01 6.055016596640791171e+00 4.032859136710091974e+01
5.311699743918054082e+03 1.454615164424894935e+01 6.464571983763486074e+00 3.992929637018327327e+01
5.321702944942381691e+03 1.485892242712376188e+01 6.183707777653456361e+00 4.073861963510793771e+01
5.331706145966709300e+03 1.541401161773330308e+01 6.540929562145837650e+00 3.895484359265536511e+01
5.341709346991036909e+03 1.584690910010041875e+01 6.917292595580278203e+00 4.067726044388599149e+01
5.351712548015364519e+03 1.672998724837935214e+01 6.906263389342647052e+00 4.116734856804695397e+01
5.361715749039693037e+03 1.748057633637694508e+01 7.200934419494887884e+00 4.234454367639683880e+01
5.371718950064020646e+03 1.859943938992105217e+01 7.884379527660030362e+00 4.098706077808786574e+01
5.381722151088348255e+03 1.901283457238926289e+01 7.542413572291175150e+00 4.387628065160497215e+01
5.391725352112675864e+03 2.041396504622107955e+01 8.591097233676148193e+00 4.425689706406616608e+01
5.401728553137003473e+03 2.041271437779398923e+01 9.514648501386821167e+00 4.669389842489618303e+01
5.411731754161331992e+03 2.062239888681103395e+01 9.084845819718466942e+00 4.462928278707963869e+01
5.421734955185659601e+03 2.115922333797421828e+01 9.013734729986804695e+00 4.445991477721568685e+01
5.431738156209987210e+03 2.040689709812333064e+01 8.991060047392579690e+00 4.144613893864793397e+01
5.441741357234314819e+03 1.896362884861398612e+01 8.443547810523201136e+00 4.159994267770455423e+01
5.451744558258642428e+03 1.839062577666301479e+01 8.200404971346642924e+00 4.189533043477994312e+01
5.461747759282970947e+03 1.866174805914989676e+01 8.582349995036913981e+00 3.994042899076517728e+01
5.471750960307298556e+03 1.893471313356826258e+01 8.134148915859352513e+00 4.120524586688753033e+01
5.481754161331626165e+03 1.776484787254335629e+01 8.114246852457386083e+00 4.077626574285311989e+01
5.491757362355953774e+03 1.845631026296964095e+01 7.804772467973882577e+00 4.133182323016226434e+01
5.501760563380281383e+03 1.845728159911737265e+01 8.063885853820094596e+00 4.108962718637167200e+01
5.511763764404609901e+03 1.872670576952866384e+01 8.022700140827870641e+00 4.223711435738752584e+01
5.521766965428937510e+03 1.867337396220925427e+01 8.032413224323841305e+00 4.108531410362959235e+01
5.531770166453265119e+03 1.905980901767846092e+01 7.869496703238492152e+00 4.066001801087099921e+01
5.541773367477592728e+03 1.851428656209547796e+01 8.127987238287671445e+00 4.219632773837593476e+01
5.551776568501920337e+03 1.905246680231849510e+01 8.051484758346040493e+00 4.245229467042227611e+01
5.561779769526248856e+03 1.815974149843284735e+01 7.614915092865266466e+00 4.164840507702260197e+01
5.571782970550576465e+03 1.825487805353069248e+01 7.535145148492053302e+00 4.394469487263687313e+01
5.581786171574904074e+03 1.858124222088671118e+01 8.375989787497397643e+00 4.184914718584761317e+01
5.591789372599231683e+03 1.755580075072652591e+01 7.400735187101453505e+00 4.280996685376729971e+01
5.601792573623559292e+03 1.743090572142504513e+01 7.299992856398215046e+00 4.243199833217867223e+01
5.611795774647886901e+03 1.630143474916247825e+01 7.452256705945949911e+00 4.403059173982455121e+01
5.621798975672215420e+03 1.621982377182020585e+01 7.174891031223472382e+00 4.374324348918683825e+01
5.631802176696543029e+03 1.628850129656999002e+01 6.916569420015182601e+00 4.129275862957776866e+01
5.641805377720870638e+03 1.688973142831620677e+01 7.077270268213059268e+00 4.323080066182052406e+01
5.651808578745198247e+03 1.681572643270742518e+01 6.942555592211234305e+00 4.367693524123290416e+01
5.661811779769525856e+03 1.630962717497443748e+01 6.537411517384651205e+00 4.413721060579486988e+01
5.671814980793854374e+03 1.659213640979647764e+01 6.850111054224498730e+00 4.348828817610585418e+01
5.681818181818181984e+03 1.682518007173461783e+01 6.857875699648279699e+00 4.357632403965752133e+01
5.691821382842509593e+03 1.737419284722928481e+01 7.225019928169469807e+00 4.430047912487106743e+01
5.701824583866837202e+03 1.770689462737813358e+01 6.917214650458719305e+00 4.387061893095425802e+01
5.711827784891164811e+03 1.672449294405468834e+01 7.500688452791731464e+00 4.329597586512808505e+01
5.721830985915493329e+03 1.657254487446824953e+01 6.933111606374515290e+00 4.346833313919415787e+01
5.731834186939820938e+03 1.625853749322606490e+01 7.071901743645790717e+00 4.472156941147789411e+01
5.741837387964148547e+03 1.689673469856485610e+01 7.803637449470445908e+00 4.474419875401813584e+01
5.751840588988476156e+03 1.762981125948820349e+01 7.352441938793127463e+00 4.695632369753999313e+01
5.761843790012803765e+03 1.728904662080389798e+01 7.631286454417154808e+00 4.836278592313938418e+01
5.771846991037132284e+03 1.846310048846406460e+01 7.710934873006425327e+00 4.569232136038492342e+01
5.781850192061459893e+03 1.948101697456641901e+01 7.882119553955241997e+00 4.680510443478455329e+01
5.791853393085787502e+03 1.958068282751384714e+01 7.960608756206372760e+00 4.800528987549518689e+01
5.801856594110115111e+03 2.234678640273753558e+01 8.279237221962072013e+00 4.940321401549321934e+01
5.811859795134442720e+03 2.287161690164718664e+01 8.537892827437936205e+00 4.896352562466932312e+01
5.821862996158771239e+03 2.332601981558767079e+01 8.901118987350360001e+00 5.278800646425741405e+01
5.831866197183098848e+03 2.247120822950977370e+01 8.722227850605321464e+00 5.373253445152411700e+01
5.841869398207426457e+03 2.335959618747645905e+01 9.165525380799063981e+00 5.167721823854194696e+01
5.851872599231754066e+03 2.246140800637082791e+01 8.891097335328224105e+00 5.039476002746559402e+01
5.861875800256081675e+03 2.169299939162859658e+01 8.607442583578238882e+00 5.122547646158867707e+01
5.871879001280410193e+03 2.138252735669201954e+01 8.046566815177083498e+00 5.379284861888266533e+01
5.881882202304737802e+03 2.049798054867077823e+01 8.166620977475822940e+00 5.380395033537863014e+01
5.891885403329065412e+03 2.022812537649669196e+01 7.543028408857604283e+00 5.470504809807939495e+01
5.901888604353393021e+03 1.989092505147003109e+01 7.370754817486217192e+00 5.412305836665688474e+01
5.911891805377720630e+03 1.969690013065242340e+01 7.932314313969881070e+00 5.389159743500109556e+01
5.921895006402048239e+03 1.992506900821815918e+01 7.523371737726360031e+00 5.831758265783781781e+01
5.931898207426376757e+03 1.970181021347810102e+01 7.591386612617673890e+00 5.980940526193103324e+01
5.941901408450704366e+03 2.134016049063908937e+01 8.162526641918221415e+00 5.963209362880580500e+01
5.951904609475031975e+03 2.072066889775990361e+01 7.748609670467467403e+00 5.887991519795037476e+01
5.961907810499359584e+03 2.122006922704850496e+01 7.928207378836203745e+00 6.190889289802441908e+01
5.971911011523687193e+03 2.189752114536839045e+01 8.230664526392375890e+00 6.298311136984531089e+01
5.981914212548015712e+03 2.410317170659545383e+01 8.919462761600090772e+00 6.259586232539828643e+01
5.991917413572343321e+03 2.269773664415127001e+01 8.692078169546599398e+00 5.910405521651328797e+01
6.001920614596670930e+03 2.320277353845875368e+01 8.313037751247513540e+00 5.954799066467388258e+01
6.011923815620998539e+03 2.202303865530343074e+01 7.955407164106228279e+00 5.907483936844881356e+01
6.021927016645326148e+03 2.488592617754673242e+01 7.446354060454036805e+00 6.121682945656935004e+01
6.031930217669654667e+03 2.487338712029576371e+01 8.305474094363226811e+00 6.152521798756588822e+01
6.041933418693982276e+03 2.441895054577143043e+01 8.381764572491423593e+00 6.284286182417063316e+01
6.051936619718309885e+03 2.475826012926757258e+01 8.916602924036986622e+00 6.508645816283201668e+01
6.061939820742637494e+03 2.783836462353140817e+01 8.038610838169136130e+00 6.554440928876009309e+01
6.071943021766965103e+03 2.631190747472995994e+01 8.574340874441912064e+00 6.361869461675936321e+01
6.081946222791293621e+03 2.560836161987425896e+01 8.759966242775599099e+00 6.354997392507110021e+01
6.091949423815621230e+03 2.561325045655016197e+01 8.531757551609668866e+00 6.371212323378613007e+01
6.101952624839948840e+03 2.650013890900829949e+01 9.298946688156352280e+00 6.282260548462537031e+01
6.111955825864276449e+03 2.681568738348158476e+01 8.980355021469971888e+00 6.232347028507602005e+01
6.121959026888604058e+03 2.590329933684967045e+01 9.185251491451847272e+00 5.977844126823567450e+01
6.131962227912932576e+03 2.640372559417451015e+01 8.957290024842990306e+00 5.840891142371392419e+01
6.141965428937260185e+03 2.712035835182839349e+01 8.448593115974691869e+00 5.835308430995167583e+01
6.151968629961587794e+03 2.632807081036874308e+01 8.315145056782810684e+00 5.889838381863950190e+01
6.161971830985915403e+03 2.646942313463239671e+01 8.757180985913814553e+00 6.068093653866457515e+01
6.171975032010243012e+03 2.534350796359276359e+01 8.785220757536075453e+00 5.945845483160878331e+01
6.181978233034570621e+03 2.618908141074162543e+01 9.441771154779013742e+00 5.837712096015545171e+01
6.191981434058899140e+03 2.578770129241404163e+01 8.993377869800365687e+00 5.906553395162545428e+01
6.201984635083226749e+03 2.566817757040515247e+01 9.066616726281951699e+00 5.774509493916342961e+01
6.211987836107554358e+03 2.577355110715142672e+01 9.512455436639250195e+00 5.692727190362671053e+01
6.221991037131881967e+03 2.579686474963184395e+01 9.425130926918155794e+00 5.784717111262438749e+01
6.231994238156209576e+03 2.407744070072572740e+01 8.991866006328775640e+00 5.672206859142456636e+01
6.241997439180538095e+03 2.561167336488504631e+01 9.775567432738402118e+00 5.720797864249822595e+01
6.252000640204865704e+03 2.486657918459396299e+01 8.951964912587362377e+00 5.656485573828516777e+01
6.262003841229193313e+03 2.678248283626038884e+01 9.640147366299576248e+00 5.629944485296854850e+01
6.272007042253520922e+03 2.561239199870924210e+01 1.024930666600194584e+01 5.478204695031801919e+01
6.282010243277848531e+03 2.526467154438784490e+01 9.769603168960770745e+00 5.319845271842382317e+01
6.292013444302177049e+03 2.521369793917843793e+01 9.835045986333803114e+00 5.335124303818870573e+01
6.302016645326504658e+03 2.452391350049362728e+01 9.455316551100700906e+00 5.455109883658473535e+01
6.312019846350832267e+03 2.468637635242311390e+01 1.002696782014461441e+01 5.682453485403079441e+01
6.322023047375159877e+03 2.589151868264998413e+01 1.027486104315656057e+01 5.647049319815028667e+01
6.332026248399487486e+03 2.606890307182213107e+01 9.600251613728486788e+00 5.745128449840397167e+01
6.342029449423816004e+03 2.682878005807160093e+01 1.000230234611699665e+01 5.592490077682628424e+01
6.352032650448143613e+03 2.768209730515771128e+01 9.973442618442877716e+00 5.876426136667146238e+01
6.362035851472471222e+03 2.849858366904086182e+01 9.958319016245699373e+00 6.001874945177539189e+01
6.372039052496798831e+03 2.834593487994385796e+01 1.026194123410951420e+01 5.775842575228855935e+01
6.382042253521126440e+03 2.834197578290025277e+01 1.021183380520158757e+01 5.987759197532203359e+01
6.392045454545454959e+03 2.835956510352673376e+01 1.074895213522646031e+01 5.814669807229149257e+01
6.402048655569782568e+03 2.803028208121321185e+01 1.079536470091578515e+01 5.905620350724036882e+01
6.412051856594110177e+03 2.892200885996806292e+01 1.077003462022561209e+01 5.894450295053260191e+01
6.422055057618437786e+03 2.892357551597166321e+01 1.109043344697621514e+01 5.913508635297910132e+01
6.432058258642765395e+03 3.078228992557686894e+01 1.047555644187643686e+01 6.138198052340170108e+01
6.442061459667093914e+03 3.133258099401455965e+01 1.107591839053692517e+01 6.340042847558802208e+01
6.452064660691421523e+03 3.055049244140807119e+01 1.176526668136661158e+01 6.594312173824238243e+01
6.462067861715749132e+03 3.222394560658090512e+01 1.169802543573738340e+01 6.809634946916115439e+01
6.472071062740076741e+03 3.273894144004927398e+01 1.189545773498726255e+01 7.111407414953797002e+01
6.482074263764404350e+03 3.488531261266423655e+01 1.298050279582213307e+01 7.340900349879028397e+01
6.492077464788731959e+03 3.453167413050594803e+01 1.198962248539323205e+01 7.661082374701165065e+01
6.502080665813060477e+03 3.604339464206853449e+01 1.274375224778967741e+01 7.717786049688731964e+01
6.512083866837388086e+03 3.837292817237081977e+01 1.287504223479056975e+01 8.173344233222617561e+01
6.522087067861715695e+03 3.848609092288625533e+01 1.292377856543880732e+01 8.210845191065995152e+01
6.532090268886043305e+03 3.845688947551060721e+01 1.331023003543502981e+01 8.152379026029258569e+01
6.542093469910370914e+03 3.534519871876332786e+01 1.306746355788470559e+01 7.832621792283232764e+01
6.552096670934699432e+03 3.652134627976024461e+01 1.407163138967158211e+01 7.291907636962400829e+01
6.562099871959027041e+03 3.693908907737102254e+01 1.311811833562130403e+01 7.128746586630946069e+01
6.572103072983354650e+03 3.650838610372483117e+01 1.379165268810417899e+01 7.503452020193415706e+01
6.582106274007682259e+03 3.695102659200452422e+01 1.370378396554265343e+01 7.207887432837065944e+01
6.592109475032009868e+03 3.492617191261745546e+01 1.291700868089483123e+01 7.220831249621441827e+01
6.602112676056338387e+03 3.685662221422953166e+01 1.341867660922784822e+01 7.112980702942861910e+01
6.612115877080665996e+03 3.694375445902694821e+01 1.348414599746274156e+01 6.982473626927539101e+01
6.622119078104993605e+03 3.450666285126703769e+01 1.411730563539973993e+01 6.860190525778149606e+01
6.632122279129321214e+03 3.517156484761977708e+01 1.416432934548052813e+01 6.648582257019137387e+01
6.642125480153648823e+03 3.583545715781500718e+01 1.473319327454288086e+01 6.689588398219633802e+01
6.652128681177977342e+03 3.521896172389972435e+01 1.470961667675159212e+01 6.671901497049434226e+01
6.662131882202304951e+03 3.484700708384519885e+01 1.419572290705903583e+01 6.646120496846776859e+01
6.672135083226632560e+03 3.483952208467525935e+01 1.329332076858108280e+01 6.729222888678063441e+01
6.682138284250960169e+03 3.326804773872679277e+01 1.333491648919980044e+01 6.661988148742652527e+01
6.692141485275287778e+03 3.546289005831070540e+01 1.492622649449925021e+01 6.503799416919500231e+01
6.702144686299616296e+03 3.539876586918793322e+01 1.471977792819085096e+01 6.543720392964857524e+01
6.712147887323943905e+03 3.544083767746356983e+01 1.543249489092225879e+01 6.575880914117408338e+01
6.722151088348271514e+03 3.542857555853127138e+01 1.477687037660906810e+01 6.462999198328306250e+01
6.732154289372599123e+03 3.520289008840754974e+01 1.440940608689511393e+01 6.612607647578670367e+01
6.742157490396926733e+03 3.444413734065823718e+01 1.624755618135084489e+01 6.277415352599431486e+01
6.752160691421255251e+03 3.428615065636233084e+01 1.501644265661830957e+01 6.438049112243672312e+01
6.762163892445582860e+03 3.460649802137356090e+01 1.534315838756196371e+01 6.477799272633946259e+01
6.772167093469910469e+03 3.450416568501275094e+01 1.600127928840944236e+01 6.449415438954186186e+01
6.782170294494238078e+03 3.524361785483428378e+01 1.567113415131358956e+01 6.505697184438719205e+01
6.792173495518565687e+03 3.559061523098518620e+01 1.491884504014845625e+01 6.581659485489495864e+01
6.802176696542893296e+03 3.596514015663887420e+01 1.732134090047787112e+01 6.481658113326741955e+01
6.812179897567221815e+03 3.668508558906501804e+01 1.810019257637683765e+01 6.788066218085795356e+01
6.822183098591549424e+03 3.793807799448514828e+01 1.722136589188073685e+01 6.842582584513012023e+01
6.832186299615877033e+03 3.904230481014617027e+01 1.795624655843733208e+01 6.686654418677437661e+01
6.842189500640204642e+03 3.906924508998179135e+01 1.831080653326919716e+01 6.866382223491150683e+01
6.852192701664532251e+03 4.115994568221879746e+01 1.814372440395096930e+01 7.404304474377045153e+01
6.862195902688860770e+03 4.277558980516961640e+01 1.951991383513590606e+01 7.834489677718447354e+01
6.872199103713188379e+03 4.311824642280684117e+01 1.846910717645950584e+01 8.043920770600335857e+01
6.882202304737515988e+03 4.388601029790010699e+01 2.046352595313992850e+01 8.073754210535076936e+01
6.892205505761843597e+03 4.210420590793802376e+01 1.991795836758809202e+01 7.917579387210210484e+01
6.902208706786171206e+03 4.219239110022615336e+01 1.958806536964058154e+01 7.638023641375193051e+01
6.912211907810499724e+03 4.122709629046873658e+01 1.911853544507959768e+01 7.224600533935256408e+01
6.922215108834827333e+03 4.092614851841555179e+01 1.737090556939793373e+01 6.901096340541168672e+01
6.932218309859154942e+03 3.819844559770347558e+01 1.829720693350945737e+01 6.677638699553295965e+01
6.942221510883482551e+03 3.694824805052972749e+01 1.743972377799826745e+01 6.501950389508905914e+01
6.952224711907810160e+03 3.688656449084771083e+01 1.727718976527762962e+01 6.523856930277354138e+01
6.962227912932138679e+03 3.632342344764379760e+01 1.635679357514057131e+01 6.616374497701107771e+01
6.972231113956466288e+03 3.518127830908699138e+01 1.611205893963978042e+01 6.285488135197729775e+01
6.982234314980793897e+03 3.489870870340855902e+01 1.588555484480157176e+01 6.429993203671213564e+01
6.992237516005121506e+03 3.509178461936061666e+01 1.660971351472682045e+01 6.360556141305913513e+01
7.002240717029449115e+03 3.358821239037757067e+01 1.563706047742066474e+01 6.232384669802992505e+01
7.012243918053777634e+03 3.351707143603317718e+01 1.539874076839675610e+01 6.176295579957766790e+01
7.022247119078105243e+03 3.277340871934369204e+01 1.488103096141527537e+01 6.223791517438868937e+01
7.032250320102432852e+03 3.142240810342882185e+01 1.434768637948040038e+01 6.254396771577759750e+01
7.042253521126760461e+03 3.239397712690644937e+01 1.521450570399887425e+01 6.128462984885659637e+01
7.052256722151088070e+03 3.312830025397641265e+01 1.485288485528688973e+01 6.234394410239896445e+01
7.062259923175416588e+03 3.190950184704076520e+01 1.469813976039454317e+01 5.849514512295951363e+01
7.072263124199744198e+03 3.204957215572186158e+01 1.375127484598754357e+01 6.307168957251665375e+01
7.082266325224071807e+03 3.167720675681781373e+01 1.463675159920315672e+01 5.835694190496297296e+01
7.092269526248399416e+03 3.156713208559021666e+01 1.410550273073068439e+01 6.096740681861531641e+01
7.102272727272727025e+03 3.250355513786769990e+01 1.380126451603156212e+01 6.230755361199270936e+01
7.112275928297054634e+03 3.264661343052268450e+01 1.445898207305157079e+01 6.047234573635056876e+01
7.122279129321383152e+03 3.188149401954707685e+01 1.379193188378240009e+01 5.810912536466845779e+01
7.132282330345710761e+03 3.094741642340756727e+01 1.383023874674214859e+01 6.014084160549158753e+01
7.142285531370038370e+03 3.110928146075348266e+01 1.363297601303614570e+01 5.752552604957187299e+01
7.152288732394365979e+03 3.295066462022921883e+01 1.362810588044349736e+01 5.926308581098329853e+01
7.162291933418693588e+03 3.104977857217910397e+01 1.315405179540429970e+01 6.063897200354192307e+01
7.172295134443022107e+03 3.172833212676656700e+01 1.367159347897435495e+01 5.880236315875797004e+01
7.182298335467349716e+03 3.116948352235382202e+01 1.345607283643579777e+01 5.926645393376484350e+01
7.192301536491677325e+03 3.208939158910032319e+01 1.337882284669962374e+01 5.976049832304275355e+01
7.202304737516004934e+03 3.186631502680860351e+01 1.462163578254069307e+01 5.896029989488253165e+01
7.212307938540332543e+03 3.134949649157039886e+01 1.416545420696288105e+01 6.114965854789711130e+01
7.222311139564661062e+03 3.143153863914007573e+01 1.419818821205042703e+01 5.699875367723054609e+01
7.232314340588988671e+03 3.151097963370227362e+01 1.414776790012206575e+01 5.828394852532929349e+01
7.242317541613316280e+03 2.952402218769499243e+01 1.329624540374822317e+01 5.845282529290214768e+01
7.252320742637643889e+03 3.184832023739868845e+01 1.345013491985916509e+01 5.992869075577155513e+01
7.262323943661971498e+03 3.046587280722406987e+01 1.352042512933964780e+01 5.948108785726058301e+01
7.272327144686300016e+03 3.113760194102120948e+01 1.406905677419128331e+01 5.993919552429722586e+01
7.282330345710627626e+03 3.162523440357685089e+01 1.493630005480651413e+01 6.069832080165453903e+01
7.292333546734955235e+03 3.144480651364564494e+01 1.359764959632415149e+01 6.056013326691802945e+01
7.302336747759282844e+03 3.076768491140856199e+01 1.317568006145813797e+01 6.035599996512690524e+01
7.312339948783610453e+03 3.109261279391204624e+01 1.311663926948198977e+01 5.828335107334505949e+01
7.322343149807938971e+03 3.134545374422968678e+01 1.339526423589522075e+01 5.892124665636758607e+01
7.332346350832266580e+03 3.111291795626977574e+01 1.344377295789454685e+01 5.856571227330847051e+01
7.342349551856594189e+03 3.084421256858449567e+01 1.414230763667815793e+01 5.858933156297765521e+01
7.352352752880921798e+03 3.079870467114808363e+01 1.332678712477051519e+01 6.043107537447419730e+01
7.362355953905249407e+03 3.041768441011357638e+01 1.302048883188450645e+01 5.978310345744982612e+01
7.372359154929577926e+03 3.031809399019761742e+01 1.299870415871433238e+01 6.270578845455039385e+01
7.382362355953905535e+03 3.151513323087255714e+01 1.364386422402331434e+01 6.005918745095432598e+01
7.392365556978233144e+03 3.125343143998958340e+01 1.336863750309108667e+01 6.103554092214945115e+01
7.402368758002560753e+03 3.104398301177706898e+01 1.330268802557789698e+01 6.217952042975593230e+01
7.412371959026888362e+03 3.236610569114074565e+01 1.269283050242560940e+01 6.184559646084460383e+01
7.422375160051215971e+03 3.075900830530061825e+01 1.252911993874922203e+01 6.049977079327869234e+01
7.432378361075544490e+03 3.129614060525096164e+01 1.323815365986733639e+01 6.088096058770607044e+01
7.442381562099872099e+03 3.135237338022232834e+01 1.334437748208712193e+01 6.213723765511200980e+01
7.452384763124199708e+03 3.177706717626843158e+01 1.247147938749904839e+01 6.473137258156472740e+01
7.462387964148527317e+03 3.173666352282177883e+01 1.276671980269342832e+01 6.447937888679888374e+01
7.472391165172854926e+03 3.137477349146271521e+01 1.190876735919307272e+01 6.469963112066334077e+01
7.482394366197183444e+03 3.092424501470928178e+01 1.227281049131908119e+01 6.574409327463833108e+01
7.492397567221511054e+03 3.245388375747165810e+01 1.295189862643372969e+01 6.508682275596447653e+01
7.502400768245838663e+03 3.158813396093986725e+01 1.273347968229419891e+01 6.799026872546696154e+01
7.512403969270166272e+03 3.225448578007504352e+01 1.293684271634469773e+01 6.818083841475943530e+01
7.522407170294493881e+03 3.334958823056976485e+01 1.246207803233172484e+01 6.911800112215499325e+01
7.532410371318822399e+03 3.220624492448641263e+01 1.198273354367787569e+01 6.938779398972762635e+01
7.542413572343150008e+03 3.221864740113965553e+01 1.296795371322337864e+01 6.860656277626914346e+01
7.552416773367477617e+03 3.114611326499140986e+01 1.189451376929628168e+01 6.801017928620190389e+01
7.562419974391805226e+03 3.108802860787638167e+01 1.184661258736631062e+01 6.494359666999821457e+01
7.572423175416132835e+03 3.026990120165623210e+01 1.159765883147517584e+01 6.346466595741114247e+01
7.582426376440461354e+03 2.914275503022492231e+01 1.163516050537942093e+01 6.034117557632959716e+01
7.592429577464788963e+03 2.715323207385597826e+01 1.104341416314041169e+01 5.640952076686784267e+01
7.602432778489116572e+03 2.647029902344807084e+01 1.097953792169029619e+01 5.382315354980575250e+01
7.612435979513444181e+03 2.570339111641974483e+01 1.022090609158957086e+01 5.200913944191194105e+01
7.622439180537771790e+03 2.439813875279847721e+01 1.022572582444681899e+01 5.029961625545529813e+01
7.632442381562100309e+03 2.372035540158752553e+01 9.835627191774220179e+00 5.143581113238934677e+01
7.642445582586427918e+03 2.437961648486817623e+01 9.872705676184141410e+00 4.904622740996559571e+01
7.652448783610755527e+03 2.291980350882876749e+01 9.574477065487030814e+00 4.619185697546031832e+01
7.662451984635083136e+03 2.287462588403494834e+01 1.003819894922807165e+01 4.582483527132403367e+01
7.672455185659410745e+03 2.125978008605834901e+01 8.956802404389756944e+00 4.440290706663821396e+01
7.682458386683738354e+03 2.124661335309480137e+01 9.236906941722356379e+00 4.593665711221922976e+01
7.692461587708066872e+03 2.058193931518177422e+01 9.027024829131288897e+00 4.327110649437444323e+01
7.702464788732394481e+03 2.092927977528117722e+01 9.291513335855801969e+00 4.593173497392616866e+01
7.712467989756722091e+03 2.136216147814225153e+01 9.096377866424312231e+00 4.604170441915442069e+01
7.722471190781049700e+03 1.906400686747560513e+01 8.598925423959926206e+00 4.307667987941982091e+01
7.732474391805377309e+03 2.010878926133552369e+01 8.701493794558718520e+00 4.431235208423188254e+01
7.742477592829705827e+03 1.962145054499392671e+01 8.725372047715246993e+00 4.220507782175001665e+01
7.752480793854033436e+03 1.974356951498483070e+01 8.191507043318971171e+00 4.311224218835629785e+01
7.762483994878361045e+03 1.966766052929290964e+01 8.427468413688993465e+00 4.415670137777790671e+01
7.772487195902688654e+03 1.945287318434510127e+01 9.010469696177176857e+00 4.282840093579848428e+01
7.782490396927016263e+03 1.989819863658808075e+01 8.693323597454568841e+00 4.547498337617340525e+01
7.792493597951344782e+03 1.921159344031793381e+01 8.164578694101534140e+00 4.690285550082693078e+01
7.802496798975672391e+03 1.897487630865684949e+01 8.115583838748360535e+00 4.434382549233989579e+01
7.812500000000000000e+03 1.087890404342407891e+01 3.277272248916259123e+00 2.994785369102529415e+01
