# Comments from moku data file:% Moku:Phasemeter 
# 
# % Ch 1 - DC coupling, 50 Ohm impedance, 1 V range
# 
# % Ch 1 bandwidth = 1.0000000000e+04 (Hz)
# 
# % Acquisition rate: 1.5625000000e+04 Hz
# 
# % External 10 MHz clock
# 
# % Acquired 2020-02-08 T 01:20:51 -0800
# 
# % Time, Set frequency 1 (Hz), Frequency 1 (Hz), Phase 1 (cyc), I 1 (V), Q 1 (V)
# 
# #########################################################
# ASD calculated by mokuReadFreqNoise.py
# Frequency [Hz]         Freq ASD1 [Hz/rtHz]      Freq ASDlb1 [Hz/rtHz]    Freq ASDub1 [Hz/rtHz]    
# 
0.000000000000000000e+00 1.324003241093327006e+02 8.634412143446240862e+01 3.277239373148282766e+02
1.000000000000000056e-01 2.930176202130338083e+02 1.999896800627196569e+02 6.325893065109811459e+02
2.000000000000000111e-01 3.506734480182580569e+02 2.485780601395249505e+02 4.508527827115431137e+02
3.000000000000000444e-01 2.406043224635785123e+02 1.627568028571344030e+02 3.848949808485045310e+02
4.000000000000000222e-01 1.850559540231850804e+02 1.396541910915753135e+02 4.155553291057483420e+02
5.000000000000000000e-01 2.157800092028996630e+02 1.393783581865076826e+02 3.227530258608948657e+02
6.000000000000000888e-01 2.027451135571222949e+02 1.601540815163845650e+02 2.275244446939273928e+02
7.000000000000000666e-01 1.712657276912807447e+02 1.003442998525652143e+02 2.627358836648788838e+02
8.000000000000000444e-01 1.159490390620883176e+02 8.311216265821111904e+01 1.475067234030299801e+02
9.000000000000000222e-01 1.243397146488288882e+02 4.649625299920872834e+01 1.691176409714403803e+02
1.000000000000000000e+00 1.401110442019062816e+02 1.266260924046502367e+02 1.995608709328612633e+02
1.100000000000000089e+00 1.224096156806108979e+02 9.534996978791247102e+01 2.049565075674281900e+02
1.200000000000000178e+00 9.114277586152061872e+01 4.326455373703100804e+01 1.756642145048780606e+02
1.300000000000000044e+00 1.037218411662498880e+02 6.136763752372706193e+01 1.538895689801467483e+02
1.400000000000000133e+00 9.038120800314557357e+01 6.736340774437685752e+01 2.117792691824838016e+02
1.500000000000000000e+00 1.145123011563448756e+02 7.495773653014622084e+01 1.453220276639787585e+02
1.600000000000000089e+00 1.080114961473385335e+02 7.365940504683719325e+01 1.396232111821140904e+02
1.700000000000000178e+00 9.258892918467385869e+01 4.651324455706168237e+01 1.204165560853542871e+02
1.800000000000000044e+00 9.773128737555228440e+01 4.395296540481078296e+01 1.682447924598558586e+02
1.900000000000000133e+00 9.170701023247498540e+01 3.825984152514323711e+01 1.507618014128655943e+02
2.000000000000000000e+00 1.069555656458657751e+02 5.013543608289734266e+01 1.187560852059307877e+02
2.100000000000000089e+00 8.698486381201699658e+01 4.523842466316732924e+01 1.065561341521861465e+02
2.200000000000000178e+00 7.699326095426631866e+01 5.371356841612065836e+01 1.240553987304790837e+02
2.300000000000000266e+00 5.893816449513883526e+01 3.604017019579490722e+01 1.250306828449621293e+02
2.400000000000000355e+00 6.270094112273840636e+01 4.036756540101761459e+01 1.148302059122343906e+02
2.500000000000000000e+00 7.560563249125064544e+01 3.564688795441099955e+01 1.095436220269400422e+02
2.600000000000000089e+00 7.873581068759014556e+01 5.632666753241378643e+01 1.212196325608027649e+02
2.700000000000000178e+00 9.375044886238273989e+01 6.710906944729059376e+01 1.481766856957746654e+02
2.800000000000000266e+00 8.846024476828387151e+01 4.122750806416522806e+01 1.161306972102770345e+02
2.900000000000000355e+00 6.741766299125195872e+01 4.276976923352901849e+01 8.616688630379233871e+01
3.000000000000000000e+00 5.322823560099056550e+01 3.272252762527219971e+01 7.923416164573680476e+01
3.100000000000000089e+00 5.487827444356043571e+01 2.779234208504934500e+01 8.861505888726068747e+01
3.200000000000000178e+00 5.030607950473431345e+01 3.028265146972917776e+01 6.353896699211249199e+01
3.300000000000000266e+00 4.084716255475872515e+01 2.228548176457753272e+01 1.041849504615682491e+02
3.400000000000000355e+00 6.790171371437716630e+01 3.301170955135028606e+01 1.024895907360808280e+02
3.500000000000000000e+00 4.726629527151806798e+01 3.396684161763025855e+01 7.675286904153566070e+01
3.600000000000000089e+00 5.569144805800051046e+01 2.314485544709545195e+01 9.440214639457880708e+01
3.700000000000000178e+00 5.756899273644934567e+01 2.680760235114004431e+01 9.084997433030460456e+01
3.800000000000000266e+00 4.378849200047902457e+01 2.247083560140417546e+01 7.771350717838345190e+01
3.900000000000000355e+00 4.258786721669247299e+01 2.098253055371759501e+01 6.314775150138755322e+01
4.000000000000000000e+00 4.424786325515483298e+01 2.434785156380443638e+01 7.090394558709311923e+01
4.100000000000000533e+00 5.307522600745578956e+01 2.952103966678440017e+01 7.341618662554145658e+01
4.200000000000000178e+00 5.000961462366979049e+01 3.754713817137240284e+01 6.534450934950606893e+01
4.299999999999999822e+00 5.949454723137559853e+01 3.107486144824838803e+01 6.740906437917961114e+01
4.400000000000000355e+00 4.090146150060342478e+01 2.626559738136347377e+01 8.175456705932137424e+01
4.500000000000000000e+00 4.190273276913515588e+01 1.923154060351959416e+01 6.354888995003227592e+01
4.600000000000000533e+00 3.415163802550776495e+01 1.962641841800654774e+01 4.902419041829593027e+01
4.700000000000000178e+00 4.585474066412309213e+01 3.286763482814214399e+01 6.922118769140867300e+01
4.800000000000000711e+00 4.437955803371809793e+01 2.995593629098693356e+01 5.693457511451365605e+01
4.900000000000000355e+00 4.861623938724579119e+01 3.096087701260440639e+01 5.666978930841714401e+01
5.000000000000000000e+00 4.763229817360608820e+01 3.630303047283850049e+01 5.673287124525466396e+01
5.100000000000000533e+00 4.950034103350295567e+01 3.176762029377057672e+01 6.253458654852946097e+01
5.200000000000000178e+00 2.575585211580874301e+01 1.977509483531327206e+01 4.907407947460434627e+01
5.300000000000000711e+00 2.796830755186492823e+01 1.725141688230472070e+01 5.319391742397981915e+01
5.400000000000000355e+00 4.013366835970671787e+01 2.552684803591908391e+01 5.897480025818827443e+01
5.500000000000000000e+00 3.512985679401590744e+01 2.687634093607923802e+01 5.172622843488138500e+01
5.600000000000000533e+00 3.468789775154597521e+01 2.331973218421403260e+01 6.015721475334805746e+01
5.700000000000000178e+00 2.676198309569405609e+01 1.900067690485257188e+01 4.793247268065285738e+01
5.800000000000000711e+00 2.858116108935711353e+01 1.304349655425775723e+01 6.166458315580716487e+01
5.900000000000000355e+00 5.330590813708554521e+01 2.675543196798511758e+01 6.536061580673040794e+01
6.000000000000000000e+00 3.294073589787748091e+01 2.040223235136918234e+01 7.372474005741965186e+01
6.100000000000000533e+00 4.343954391811694649e+01 1.990921006399179660e+01 6.422484892171107163e+01
6.200000000000000178e+00 3.653435779610258294e+01 2.027617753934633527e+01 4.687453381268534969e+01
6.300000000000000711e+00 3.776744143941591147e+01 1.859882296256955314e+01 4.729391148192591032e+01
6.400000000000000355e+00 3.695229801994806706e+01 1.789493553092925993e+01 5.493311459782231054e+01
6.500000000000000000e+00 3.892995568872442647e+01 2.539033326072149777e+01 5.381104411693402767e+01
6.600000000000000533e+00 3.254426525257974845e+01 2.211016699974148025e+01 4.469948622117187398e+01
6.700000000000000178e+00 2.553626323077864058e+01 1.012796575976483204e+01 3.759438588715763530e+01
6.800000000000000711e+00 2.982531954598653456e+01 1.587524570409663660e+01 3.566927363155653552e+01
6.900000000000000355e+00 2.595487874719170307e+01 1.411681791659347773e+01 4.681230055424548908e+01
7.000000000000000000e+00 2.753050612808297615e+01 1.481271657256083607e+01 3.879685822939602247e+01
7.100000000000000533e+00 3.062951708546845708e+01 1.990139034135475882e+01 4.042404702121238103e+01
7.200000000000000178e+00 2.807645285413099145e+01 1.389276308232972212e+01 3.810200857377638783e+01
7.300000000000000711e+00 2.670572850720056834e+01 1.378750409229082052e+01 3.229338319388306644e+01
7.400000000000000355e+00 2.380938577463836481e+01 1.077284890116386862e+01 3.777574871257968425e+01
7.500000000000000000e+00 2.073818571404265043e+01 1.423539699935065350e+01 3.104507096323754212e+01
7.600000000000000533e+00 1.270483384491656054e+01 4.591045435871151881e+00 2.118541002328310441e+01
7.700000000000000178e+00 2.260112210933782961e+01 1.264161397046012247e+01 3.465075567229389009e+01
7.800000000000000711e+00 3.011799871759980718e+01 1.420001006521936660e+01 4.048331303685710481e+01
7.900000000000000355e+00 1.432172196914057771e+01 9.646437489552225131e+00 4.178302385830591703e+01
8.000000000000000000e+00 2.817421550212212367e+01 1.499328203049179642e+01 4.746656357832204520e+01
8.099999999999999645e+00 1.617122483651700549e+01 1.214422682254504160e+01 3.770204284710415266e+01
8.200000000000001066e+00 2.791723166208634055e+01 7.770139192483092039e+00 4.631385126432137866e+01
8.300000000000000711e+00 2.200446683794644898e+01 7.033441411306783131e+00 6.040166150624697394e+01
8.400000000000000355e+00 2.914108049149297486e+01 8.610792697121304684e+00 4.442364492643510943e+01
8.500000000000000000e+00 2.301477156474562236e+01 1.159828595085499359e+01 3.127574960015687111e+01
8.599999999999999645e+00 2.352796570624129657e+01 1.451492610365624358e+01 2.706700660536796121e+01
8.700000000000001066e+00 1.850941634708721395e+01 1.301099105072334261e+01 3.789159960702619401e+01
8.800000000000000711e+00 1.882386631681148614e+01 1.507832794978222957e+01 3.266851348244286157e+01
8.900000000000000355e+00 1.765843573785774367e+01 6.037980303172894914e+00 2.772212901918979000e+01
9.000000000000000000e+00 1.886896256038683362e+01 1.335753086230218223e+01 2.802006076610357610e+01
9.099999999999999645e+00 1.836330597199305004e+01 1.313252507378839340e+01 2.355215212436516836e+01
9.200000000000001066e+00 2.045626824064459015e+01 1.264989677482624586e+01 2.770546124123172760e+01
9.300000000000000711e+00 2.454418048569919719e+01 1.702735554479028934e+01 3.136409360262108237e+01
9.400000000000000355e+00 1.342707113631322891e+01 1.023011919742080522e+01 3.207558603671264308e+01
9.500000000000000000e+00 1.586182473304289964e+01 8.929965055618135139e+00 2.914414656414478699e+01
9.600000000000001421e+00 2.037140415244995140e+01 1.045878356650625385e+01 2.835370470177185709e+01
9.700000000000001066e+00 2.134915060211633175e+01 1.023638114245587794e+01 3.254887851397538867e+01
9.800000000000000711e+00 2.055497927938288782e+01 9.660963101649363338e+00 2.180205807346020919e+01
9.900000000000000355e+00 2.062147525847872132e+01 1.636241212570255854e+01 2.964657552149542497e+01
1.000000000000000000e+01 2.733198610202094514e+01 1.135661902177543325e+01 3.471594773459014505e+01
1.000000000000000000e+01 1.627308202636337953e+01 8.206558168151619981e+00 3.057320558314548009e+01
1.100000000000000000e+01 1.464719464166062757e+01 6.398837523579101294e+00 2.428596081100985415e+01
1.200000000000000000e+01 1.360721640740463556e+01 7.847257613792763209e+00 2.131058429368131257e+01
1.300000000000000000e+01 1.234390969011563932e+01 5.677957657569725924e+00 2.255933549151770734e+01
1.400000000000000000e+01 1.204576130785922672e+01 5.034108809001955009e+00 2.047103483520502110e+01
1.500000000000000000e+01 1.202301663418651323e+01 5.586808272129936803e+00 2.028209932059163378e+01
1.600000000000000000e+01 1.103759155086717136e+01 5.811441208380053958e+00 1.802401639184739679e+01
1.700000000000000000e+01 8.987735820037098478e+00 4.991237942141738770e+00 1.539118732726232963e+01
1.800000000000000000e+01 8.237395554455638091e+00 4.205589943140273235e+00 1.492357964961201766e+01
1.900000000000000000e+01 8.134156243601925240e+00 4.347166995270105083e+00 1.508975546833807968e+01
2.000000000000000000e+01 8.396027995554272039e+00 3.904285078166187972e+00 1.352240075118359108e+01
2.100000000000000000e+01 7.572224332087071907e+00 3.718527922499743621e+00 1.248436771922973598e+01
2.200000000000000000e+01 7.107466830024367965e+00 4.446393197245165574e+00 1.198012221215447148e+01
2.300000000000000000e+01 7.144541567691016226e+00 3.737426737770507490e+00 1.171933996293383373e+01
2.400000000000000000e+01 7.035423971384412667e+00 3.921742691316894458e+00 1.170315212960631790e+01
2.500000000000000000e+01 6.142414519824079377e+00 2.956970865310674768e+00 9.973207095763074292e+00
2.600000000000000000e+01 5.985949545140507588e+00 2.176034202000949769e+00 9.161842907811582393e+00
2.700000000000000000e+01 5.409233911264400341e+00 2.483680196131568874e+00 8.662775292112398162e+00
2.800000000000000000e+01 5.324926014892808368e+00 2.790243743772458540e+00 8.998447862285795296e+00
2.900000000000000000e+01 4.968589146097165177e+00 2.684626279833017826e+00 8.500161627814271981e+00
3.000000000000000000e+01 4.428176637163701024e+00 2.070472325702247485e+00 7.695878459682470307e+00
3.100000000000000000e+01 4.901448633724720949e+00 2.398164340044744769e+00 7.766348143347919120e+00
3.200000000000000000e+01 4.497907801865179245e+00 2.260932381760540899e+00 7.344106761827239538e+00
3.300000000000000000e+01 3.779838761204828312e+00 1.365340111519988131e+00 6.988434825818478302e+00
3.400000000000000000e+01 3.444826633400452920e+00 1.539463902897393321e+00 7.358790347231567885e+00
3.500000000000000000e+01 3.926747279106808985e+00 1.554413696695031710e+00 6.631668540396692180e+00
3.600000000000000000e+01 3.269122639447596956e+00 1.418196470883009486e+00 7.091010554551508527e+00
3.700000000000000000e+01 2.862740620913664991e+00 1.139172842294819521e+00 6.511873237280022764e+00
3.800000000000000000e+01 2.693091278213123108e+00 1.258074443839519496e+00 6.754277455918540340e+00
3.900000000000000000e+01 2.465053333638308253e+00 9.177757845033883699e-01 5.583182736192910056e+00
4.000000000000000000e+01 2.595683231605325769e+00 1.120384819887140448e+00 5.672921790855938617e+00
4.100000000000000000e+01 2.608458591524639658e+00 1.058040345056675990e+00 5.532614275606393406e+00
4.200000000000000000e+01 2.352209539149300532e+00 9.160693684700648154e-01 4.861686436546985846e+00
4.300000000000000000e+01 1.923116296137544756e+00 8.951218558519096202e-01 4.719210317642513530e+00
4.400000000000000000e+01 1.932628782808606616e+00 1.016653001076236684e+00 5.055974253611401181e+00
4.500000000000000000e+01 2.107854106520546278e+00 9.110224758904336140e-01 4.443470327880374882e+00
4.600000000000000000e+01 1.993738819965252818e+00 9.895054925392328116e-01 3.841551878271985299e+00
4.700000000000000000e+01 1.794987516618618217e+00 7.445003353015630099e-01 3.886980595375190362e+00
4.800000000000000000e+01 1.823614302948399102e+00 8.323714965063909732e-01 3.472970164661922432e+00
4.900000000000000000e+01 1.568771694792386873e+00 7.461314893713524299e-01 3.626728576858061714e+00
5.000000000000000000e+01 1.368745607225964944e+00 6.337921035929179325e-01 3.670858728033876694e+00
5.100000000000000000e+01 1.570729793124124640e+00 7.204412456407707221e-01 3.129628558115213899e+00
5.200000000000000000e+01 1.435777332707205645e+00 5.767701333283306031e-01 2.547464738551519225e+00
5.300000000000000000e+01 1.236236249198230164e+00 5.233339280238827884e-01 2.552724474813446331e+00
5.400000000000000000e+01 1.459700236880943747e+00 6.425740819265942649e-01 2.356069175496973589e+00
5.500000000000000000e+01 1.252455083980396067e+00 5.259692999176482919e-01 2.268508327559318527e+00
5.600000000000000000e+01 1.160573676464347059e+00 4.754976557016301619e-01 2.434798710653303555e+00
5.700000000000000000e+01 1.078148728449880744e+00 5.702377654710586441e-01 2.143997613592437457e+00
5.800000000000000000e+01 1.102789544255878385e+00 5.741005457196574069e-01 2.070024656296265864e+00
5.900000000000000000e+01 9.427879999351874707e-01 5.136733373557300641e-01 1.916888084865793207e+00
6.000000000000000000e+01 1.033023042547602355e+00 5.032984392994372946e-01 1.782725283572544228e+00
6.100000000000000000e+01 1.012234857878163696e+00 4.880033895714961933e-01 1.768354993825567822e+00
6.200000000000000000e+01 8.246556597251415432e-01 4.411271875292220312e-01 1.553936992233776904e+00
6.300000000000000000e+01 7.926246282971691759e-01 4.779124114862275396e-01 1.664643147878817731e+00
6.400000000000000000e+01 8.760571447005985890e-01 3.779512814008617605e-01 1.687009091622369894e+00
6.500000000000000000e+01 8.784355185547727540e-01 4.114532477440026037e-01 1.665890625205332265e+00
6.600000000000000000e+01 7.743168639852321400e-01 3.841399974584738808e-01 1.560275509515434145e+00
6.700000000000000000e+01 8.041959205392263943e-01 4.428210908792751810e-01 1.384108674388433879e+00
6.800000000000000000e+01 7.119489146909557808e-01 3.347145068522818789e-01 1.308189536246414431e+00
6.900000000000000000e+01 7.144532500175603262e-01 3.344688615811882704e-01 1.239737341651335534e+00
7.000000000000000000e+01 6.212722603850413527e-01 3.226815468696194733e-01 1.281379983019917290e+00
7.100000000000000000e+01 7.472785676423547851e-01 4.212698209564739171e-01 1.215723068249470185e+00
7.200000000000000000e+01 7.155981037006116097e-01 3.308366354527482733e-01 1.177391070402496576e+00
7.300000000000000000e+01 7.055064021449338751e-01 3.340543619422230437e-01 1.199584024790415926e+00
7.400000000000000000e+01 6.128305448522456400e-01 2.324953263145194682e-01 1.145068600779508339e+00
7.500000000000000000e+01 5.647335056208812043e-01 2.851880349581784602e-01 1.127959086495187613e+00
7.600000000000000000e+01 5.925658147319554647e-01 2.955047471660042224e-01 1.152606939103439476e+00
7.700000000000000000e+01 5.474338906789896209e-01 2.677487764703339601e-01 9.876456303688333493e-01
7.800000000000000000e+01 5.416614084332207479e-01 2.785366951953558434e-01 9.676761447418779083e-01
7.900000000000000000e+01 5.336813382011548201e-01 2.309038721181775888e-01 8.625026175654159077e-01
8.000000000000000000e+01 4.995876440255678230e-01 2.410406525916456988e-01 8.092095210749280509e-01
8.100000000000000000e+01 5.209049036342566774e-01 3.151362860098140817e-01 9.416616339045275064e-01
8.200000000000000000e+01 5.043311498775971957e-01 2.502897753166386519e-01 9.029198196484967687e-01
8.300000000000000000e+01 5.172095123463695820e-01 2.754930921311580239e-01 9.188851829922508596e-01
8.400000000000000000e+01 5.320647120924413276e-01 2.856023716511951194e-01 8.845110172482371080e-01
8.500000000000000000e+01 4.924536315106150530e-01 2.612719697699996679e-01 8.709164925814241176e-01
8.600000000000000000e+01 4.111115519739105273e-01 2.338323528350582381e-01 7.808081024376664070e-01
8.700000000000000000e+01 4.666643080021379286e-01 2.281654449562764420e-01 8.370269569022670275e-01
8.800000000000000000e+01 4.361934707424590663e-01 2.508757047606458013e-01 8.236684885684548707e-01
8.900000000000000000e+01 4.386019310888147893e-01 2.254184251200326561e-01 7.236950340999179776e-01
9.000000000000000000e+01 4.010071971831012383e-01 1.731608480764647018e-01 7.155641144226101424e-01
9.100000000000000000e+01 4.287402485121694640e-01 2.399473597934059788e-01 6.600694719517308240e-01
9.200000000000000000e+01 3.962068882460874075e-01 1.669297467547447844e-01 6.648232221018783861e-01
9.300000000000000000e+01 3.783604617504843226e-01 1.763722978737471137e-01 6.784619231525318428e-01
9.400000000000000000e+01 4.146780473278067758e-01 2.047502091230495036e-01 7.060836823857881139e-01
9.500000000000000000e+01 4.070123056002972750e-01 1.728091395720084134e-01 6.849451371173208569e-01
9.600000000000000000e+01 4.299442475696065857e-01 2.011919407530868009e-01 7.246835844671999372e-01
9.700000000000000000e+01 3.728279375223380598e-01 1.583890665860072655e-01 6.870518918949186649e-01
9.800000000000000000e+01 3.646195496823856352e-01 2.075404494022715374e-01 5.691370764622416534e-01
9.900000000000000000e+01 3.327419340225238331e-01 1.529887639960413603e-01 5.336515517531869035e-01
1.000000000000000000e+02 3.776348612202556909e-01 1.938747784125144646e-01 6.654493263507861300e-01
1.000320102432778526e+02 3.000059970575818524e-01 1.351187090811060976e-01 6.205039817029648352e-01
1.100352112676056322e+02 2.498586453135233920e-01 1.145222255537633738e-01 5.213289602054004268e-01
1.200384122919334118e+02 2.400231864628916689e-01 1.112412211940851658e-01 4.641975909319631111e-01
1.300416133162611914e+02 2.142257013913019259e-01 9.616958780575698973e-02 4.121680459912467898e-01
1.400448143405889994e+02 1.965539782742366237e-01 9.170916640495184458e-02 3.715190176760323482e-01
1.500480153649167789e+02 1.642753402198286750e-01 7.741021268729932070e-02 3.189276780160354985e-01
1.600512163892445585e+02 1.422639959663694609e-01 6.466465526855354196e-02 2.743691637644271597e-01
1.700544174135723381e+02 1.232084777217312965e-01 5.642674873576550981e-02 2.360650654064710974e-01
1.800576184379001177e+02 1.040114371039009555e-01 4.518639821344926089e-02 2.073734474926469118e-01
1.900608194622279257e+02 8.588238601801970185e-02 3.540761748107396079e-02 1.699046607927954811e-01
2.000640204865557052e+02 7.799988240035825304e-02 3.517296519151612982e-02 1.511461067124516000e-01
2.100672215108834848e+02 7.481671213439025636e-02 3.590173393848882649e-02 1.395299929318187249e-01
2.200704225352112644e+02 6.787385937459745888e-02 3.285878076251037838e-02 1.380484762429792789e-01
2.300736235595390440e+02 6.502224053772417967e-02 3.114129107911277686e-02 1.335700799813278328e-01
2.400768245838668236e+02 6.918033624567557216e-02 3.502635584817639230e-02 1.218197337670820779e-01
2.500800256081946316e+02 5.884562790857096604e-02 2.795982556461848109e-02 1.016052444386953413e-01
2.600832266325223827e+02 4.956019272612271348e-02 2.357761748209909192e-02 8.954347789690042525e-02
2.700864276568502191e+02 4.271544114613620019e-02 2.020951576868816948e-02 7.803573520646195361e-02
2.800896286811779987e+02 4.216275768861731804e-02 2.091683954404059687e-02 7.403334948266332427e-02
2.900928297055057783e+02 4.344811036632688361e-02 2.032060253072014502e-02 7.430816380456499448e-02
3.000960307298335579e+02 3.808097167944998057e-02 1.832668026733646344e-02 6.599446039924578011e-02
3.100992317541613374e+02 3.663265436336793357e-02 1.839680194446432354e-02 6.176287684863302624e-02
3.201024327784891170e+02 3.368456622912327503e-02 1.683862261109863104e-02 5.873100921959930470e-02
3.301056338028168966e+02 3.499171444106263795e-02 1.771447068257108251e-02 5.724843720522246326e-02
3.401088348271446762e+02 3.624521359250410663e-02 1.803602564695933747e-02 6.156910110833078292e-02
3.501120358514724558e+02 3.742935411058991024e-02 1.893225742559764488e-02 6.288122476431524943e-02
3.601152368758002353e+02 4.324995711988711272e-02 2.195345152580235881e-02 6.809514549243259052e-02
3.701184379001280149e+02 4.357440583725055022e-02 2.182710733759921778e-02 7.262886441368457402e-02
3.801216389244558513e+02 5.808627507669060497e-02 2.843479026057815426e-02 9.627975207250560885e-02
3.901248399487836309e+02 7.148393385679249756e-02 3.705286592222556408e-02 1.197734092890920393e-01
4.001280409731114105e+02 6.572932391748419201e-02 3.257684056963954661e-02 1.116952906651338395e-01
4.101312419974391901e+02 5.044133827340611942e-02 2.406007984587919812e-02 8.347863783593084674e-02
4.201344430217669697e+02 4.477801357794884696e-02 2.231965155549921545e-02 7.282673710145788626e-02
4.301376440460947492e+02 3.728626625440240039e-02 1.809405443820970641e-02 6.059604814173404769e-02
4.401408450704225288e+02 3.578373090820029939e-02 1.754925720774811251e-02 5.627385639014974988e-02
4.501440460947503084e+02 3.722900254551058524e-02 1.726785463518406769e-02 6.020714332432063054e-02
4.601472471190780880e+02 3.515656972592075269e-02 1.645810873359892373e-02 5.797305029156631789e-02
4.701504481434058675e+02 3.480432472460829457e-02 1.714247664497445603e-02 6.005911695068407580e-02
4.801536491677336471e+02 4.139989119957243613e-02 2.003996962664152115e-02 6.861016711929461553e-02
4.901568501920614835e+02 3.881340232260683393e-02 2.017583651058313735e-02 6.634293400728036305e-02
5.001600512163892631e+02 3.402063260753311613e-02 1.739672226089299806e-02 5.768213050517644741e-02
5.101632522407170427e+02 3.102858281305602775e-02 1.543693462829858441e-02 5.204601982811038474e-02
5.201664532650447654e+02 3.330362563694389683e-02 1.532009289925991696e-02 5.406562970353086944e-02
5.301696542893726019e+02 3.617220020124811697e-02 1.794018339035198181e-02 6.053222441913636009e-02
5.401728553137004383e+02 3.693692126135980636e-02 1.776593845442201239e-02 5.980236031070135932e-02
5.501760563380281610e+02 3.554658608857729635e-02 1.732550163590925937e-02 5.820442594966409450e-02
5.601792573623559974e+02 3.557208404123593515e-02 1.709763025865632460e-02 6.045331894244331677e-02
5.701824583866837202e+02 3.761403982879591573e-02 1.847983423764838415e-02 6.270214631537983363e-02
5.801856594110115566e+02 4.177766415590854210e-02 2.043127651402359621e-02 6.809218794139458575e-02
5.901888604353392793e+02 3.652230401615932931e-02 1.773812264623394336e-02 6.220458198163735658e-02
6.001920614596671157e+02 3.561635815129760713e-02 1.646932776632414192e-02 6.127027011007909335e-02
6.101952624839948385e+02 3.253852548959432905e-02 1.662386133847783276e-02 5.609823294068885108e-02
6.201984635083226749e+02 6.712697949447814227e-02 3.187117456709671892e-02 1.084409187895761101e-01
6.302016645326503976e+02 2.487579171521299148e-01 1.286040269147500914e-01 4.105006007337046459e-01
6.402048655569782341e+02 2.517021233934678692e-01 1.253474895364269925e-01 4.114275917758588030e-01
6.502080665813060705e+02 1.518446143076284949e-01 7.375612359684433073e-02 2.475776489723068852e-01
6.602112676056337932e+02 1.502603974088786709e-01 7.494161876386459809e-02 2.400381989942111660e-01
6.702144686299616296e+02 1.044835215671284928e-01 5.237025128064648483e-02 1.747875063094893044e-01
6.802176696542893524e+02 9.658410333235664669e-02 4.685366084609851600e-02 1.601463317856073321e-01
6.902208706786171888e+02 9.198287652471567877e-02 4.468003423825987058e-02 1.527647901450402967e-01
7.002240717029449115e+02 6.851110815448334390e-02 3.359282383837341318e-02 1.125342973959605058e-01
7.102272727272727479e+02 4.958536915200233847e-02 2.352520362375248170e-02 7.955081504082812949e-02
7.202304737516004707e+02 7.156516432197848609e-02 3.568146156730744173e-02 1.154377294274677029e-01
7.302336747759283071e+02 5.677308807634338234e-02 2.815939064781706330e-02 9.406734394468532767e-02
7.402368758002560298e+02 3.220839920918007471e-02 1.633061283826332810e-02 5.282623066058873135e-02
7.502400768245838663e+02 3.285170981897443665e-02 1.609907692793440329e-02 5.732062685316530182e-02
7.602432778489117027e+02 3.561788406919068339e-02 1.846295847777581350e-02 6.079789282417704527e-02
7.702464788732394254e+02 4.058894578824769062e-02 1.781676879892483967e-02 6.957147493622556356e-02
7.802496798975672618e+02 5.715168354838082165e-02 2.898281227056476173e-02 9.386428538204887040e-02
7.902528809218949846e+02 1.187520083192000614e-01 5.925975792600950837e-02 1.943763797143668315e-01
8.002560819462228210e+02 2.216924533072429648e-01 1.170174340379632610e-01 3.559480993530406145e-01
8.102592829705505437e+02 1.996205736860665325e-01 1.011340151817622796e-01 3.155425015613701478e-01
8.202624839948783801e+02 1.064681023213899513e-01 5.390982925077095200e-02 1.735220747544369835e-01
8.302656850192061029e+02 1.268939466982868525e-01 6.283524723003333645e-02 2.096769710158255806e-01
8.402688860435339393e+02 3.905386063101811689e-01 2.475377140621305150e-01 5.228383668557774477e-01
8.502720870678616620e+02 4.473516868280822956e-01 2.560359574328292531e-01 6.381830995162516285e-01
8.602752880921894985e+02 2.384547335497808063e-01 1.125604826089824650e-01 3.899708443499203536e-01
8.702784891165173349e+02 1.798813337825069525e-01 8.829434872062311146e-02 3.001217163657914910e-01
8.802816901408450576e+02 1.187038324108902337e-01 6.190711357142808513e-02 1.861226519670590995e-01
8.902848911651728940e+02 7.790804475438466159e-02 3.992407970333094330e-02 1.287585687182433991e-01
9.002880921895006168e+02 6.696693223176328202e-02 3.524547016736470639e-02 1.094911767659160345e-01
9.102912932138284532e+02 9.259090051549542788e-02 4.733348124792454564e-02 1.505466793618603638e-01
9.202944942381561759e+02 8.834443349232413978e-02 4.578040842573098679e-02 1.443776930931012781e-01
9.302976952624840123e+02 6.390695710883149971e-02 3.108243292649428419e-02 1.113630155622646195e-01
9.403008962868117351e+02 6.035158395444376739e-02 2.924723384693519654e-02 9.775588980426729024e-02
9.503040973111395715e+02 5.591905499100167931e-02 2.664539960454261405e-02 9.184473575349835772e-02
9.603072983354672942e+02 5.501299677712563618e-02 2.687625679542896689e-02 9.216006094475205634e-02
9.703104993597951307e+02 6.015927942273545381e-02 2.969080822002717959e-02 9.902431146539010520e-02
9.803137003841229671e+02 7.214953113199355783e-02 3.507581413082592331e-02 1.182603142871309632e-01
9.903169014084506898e+02 8.954543254848174039e-02 4.652209492923511935e-02 1.501377764410444515e-01
1.000320102432778526e+03 1.430928237205465747e-01 7.034550510660819711e-02 2.298805041195557120e-01
1.010323303457106249e+03 1.451717824208433039e-01 7.706115139705678463e-02 2.480913932261322452e-01
1.020326504481434085e+03 1.412091860221731110e-01 6.919803919959410798e-02 2.375038717161838120e-01
1.030329705505761922e+03 2.057223813555933145e-01 9.934525605548723270e-02 3.317371119086393594e-01
1.040332906530089531e+03 2.198965753911693577e-01 1.072548844475770397e-01 3.559555684200524373e-01
1.050336107554417367e+03 1.920055335541977493e-01 9.231296769260977086e-02 3.146853071401559676e-01
1.060339308578745204e+03 1.089858450077592494e-01 5.288210389011986645e-02 1.796453055944576271e-01
1.070342509603073040e+03 6.704640484025041480e-02 3.212253602186660589e-02 1.139181296199442833e-01
1.080345710627400877e+03 6.201492231357293855e-02 3.024207259717378443e-02 1.035093234216767910e-01
1.090348911651728486e+03 6.312652448210590017e-02 3.066713303602451243e-02 1.022434751717439250e-01
1.100352112676056322e+03 5.980599087879758663e-02 3.108638991480874164e-02 1.006937684969944069e-01
1.110355313700384158e+03 5.622337915634111061e-02 2.660740957883924590e-02 9.611681727487195182e-02
1.120358514724711995e+03 6.180033118706859674e-02 3.067340226705517550e-02 1.007733953949062206e-01
1.130361715749039604e+03 6.047758720564185009e-02 2.934743376742533424e-02 1.028607192303077622e-01
1.140364916773367440e+03 7.267991447987716402e-02 3.763284065607429979e-02 1.194350379230246784e-01
1.150368117797695277e+03 1.123101933785710105e-01 5.670343728085027596e-02 1.855646958349584374e-01
1.160371318822023113e+03 1.521205297715207405e-01 7.649451242682142604e-02 2.435153630556964044e-01
1.170374519846350722e+03 1.330678079690639504e-01 6.812176562731175888e-02 2.203460857964954778e-01
1.180377720870678559e+03 9.996683422176251554e-02 4.930724050213866616e-02 1.643316320293309041e-01
1.190380921895006395e+03 7.189636715102869224e-02 3.593278405084337351e-02 1.217446425317408043e-01
1.200384122919334231e+03 6.137896693894288880e-02 3.192423938110910964e-02 1.007759449506708122e-01
1.210387323943662068e+03 5.608367250638079254e-02 2.834474886375782168e-02 9.287882008919812193e-02
1.220390524967989677e+03 5.178979881790524153e-02 2.468059897172552447e-02 8.692522716787125237e-02
1.230393725992317513e+03 5.284922159095407218e-02 2.373733572338660239e-02 9.028741675721098370e-02
1.240396927016645350e+03 5.528427041746654391e-02 2.671980051907145437e-02 9.391240781191238784e-02
1.250400128040973186e+03 6.514821077241006453e-02 3.099366523590790096e-02 1.073186426933271931e-01
1.260403329065300795e+03 7.129082127161820437e-02 3.504315744674695032e-02 1.148391645701334202e-01
1.270406530089628632e+03 1.452654824853490956e-01 9.279858206759838968e-02 2.018367973731040876e-01
1.280409731113956468e+03 1.254437882445803842e-01 7.104963789439346089e-02 1.872287026268073806e-01
1.290412932138284305e+03 7.837841217595147014e-02 4.079743828967467845e-02 1.259993668503585074e-01
1.300416133162612141e+03 8.146503216424441640e-02 4.126722143724482345e-02 1.304862930998781367e-01
1.310419334186939750e+03 8.562898059950870000e-02 4.202922032915500788e-02 1.349443961603525310e-01
1.320422535211267586e+03 7.499825001321810958e-02 3.493461077800042586e-02 1.205275612672123825e-01
1.330425736235595423e+03 5.969693303440540277e-02 2.962607910471321687e-02 1.019967211977677035e-01
1.340428937259923259e+03 5.419451189311894068e-02 2.684102389249889628e-02 8.861417279248787193e-02
1.350432138284250868e+03 5.217123242081420087e-02 2.585800343650672059e-02 8.562100167029326747e-02
1.360435339308578705e+03 5.332550061019846604e-02 2.463497558461600484e-02 8.972800965063609802e-02
1.370438540332906541e+03 5.860359239390440511e-02 2.822086052505907994e-02 9.591408092393055584e-02
1.380441741357234378e+03 6.123159141636795588e-02 3.088700367680804679e-02 1.006638293701654085e-01
1.390444942381562214e+03 5.847092416612585664e-02 3.034898193569638900e-02 9.984145588469699184e-02
1.400448143405889823e+03 5.714681070939430646e-02 2.863128171502840602e-02 9.621813220993742644e-02
1.410451344430217659e+03 5.436382328429780614e-02 2.805605029101740713e-02 9.534657152774146660e-02
1.420454545454545496e+03 5.361854609356839912e-02 2.576343672009568167e-02 9.249270161742492724e-02
1.430457746478873332e+03 5.642886987795592280e-02 2.799388799015977564e-02 9.469943824124894827e-02
1.440460947503200941e+03 5.701655982895462854e-02 2.684742880724914557e-02 9.577353417920417278e-02
1.450464148527528778e+03 5.651542865453898501e-02 2.873430252105767593e-02 1.003393931816502771e-01
1.460467349551856614e+03 6.756427848360779809e-02 3.195119614278570802e-02 1.110661649972305431e-01
1.470470550576184451e+03 7.189049088954904687e-02 3.598472770326679310e-02 1.194525050440151670e-01
1.480473751600512060e+03 7.511828736782068250e-02 3.547346178929785404e-02 1.230318069240385476e-01
1.490476952624839896e+03 8.012742815940594732e-02 3.872092242437983473e-02 1.317256506085942580e-01
1.500480153649167733e+03 8.165135186695895997e-02 3.886968289509381419e-02 1.369781513508442905e-01
1.510483354673495569e+03 7.845040067583748666e-02 3.765998982112161303e-02 1.299163622224038250e-01
1.520486555697823405e+03 7.514650805031045100e-02 3.805252191275368401e-02 1.242924970450082905e-01
1.530489756722151014e+03 7.894080957649504682e-02 4.049566948314785308e-02 1.327926034493004948e-01
1.540492957746478851e+03 7.552420162379061552e-02 3.757108168531786418e-02 1.256325124590783882e-01
1.550496158770806687e+03 7.438373357839173083e-02 3.657696191701984012e-02 1.234566008798493597e-01
1.560499359795134524e+03 7.416792248182987879e-02 3.679552663133001111e-02 1.225270724514144621e-01
1.570502560819462133e+03 6.519965243284500667e-02 3.466678714346436985e-02 1.137181237104206571e-01
1.580505761843789969e+03 5.890944845661610918e-02 2.792207757372059188e-02 9.850663566574474617e-02
1.590508962868117806e+03 5.294390661129826786e-02 2.689975583096610584e-02 9.159154071546739273e-02
1.600512163892445642e+03 4.976892316051467063e-02 2.288735797037771968e-02 8.686268938510743887e-02
1.610515364916773478e+03 5.081255129805446746e-02 2.461081244553476807e-02 9.057859549473380734e-02
1.620518565941101087e+03 4.841401709018034599e-02 2.480384889134159068e-02 8.696838459840955382e-02
1.630521766965428924e+03 4.836458293374810979e-02 2.437276316910239049e-02 8.619068719509564991e-02
1.640524967989756760e+03 4.608539098878457890e-02 2.178632440032952575e-02 8.501754780289287605e-02
1.650528169014084597e+03 4.557885522299756631e-02 2.083820541548948857e-02 8.547951268734232944e-02
1.660531370038412206e+03 4.691239865573115786e-02 2.262857345291380620e-02 8.638833685265016882e-02
1.670534571062740042e+03 4.617430416849999802e-02 2.260468747089035974e-02 8.643665845465264841e-02
1.680537772087067879e+03 4.537238478140373510e-02 2.280343220104875251e-02 8.381263080532427856e-02
1.690540973111395715e+03 4.585794801421053807e-02 2.232802549554401342e-02 8.470227056232233764e-02
1.700544174135723324e+03 4.514092587307971111e-02 2.284492130695693970e-02 8.381587777132840089e-02
1.710547375160051160e+03 4.411173518064584465e-02 2.083116518504714298e-02 8.377152254085741545e-02
1.720550576184378997e+03 4.578164713115575463e-02 2.095478392405209639e-02 8.417847657494935409e-02
1.730553777208706833e+03 4.592068040988298711e-02 2.230487221057055741e-02 8.533288881082806698e-02
1.740556978233034670e+03 4.715048071778035060e-02 2.307845735688754743e-02 8.408032818343000314e-02
1.750560179257362279e+03 4.677855287458029115e-02 2.250634152963808948e-02 8.415566559319888340e-02
1.760563380281690115e+03 4.713632312473600705e-02 2.250397377465450030e-02 8.548624910476018690e-02
1.770566581306017952e+03 4.687499118647665830e-02 2.276260155294311527e-02 8.766916762413637376e-02
1.780569782330345788e+03 4.939582635807827915e-02 2.210769672420855383e-02 8.891118774095316257e-02
1.790572983354673397e+03 4.817571139806681862e-02 2.294314690159993814e-02 8.836333058443186783e-02
1.800576184379001234e+03 4.843984653731803897e-02 2.345089709491210775e-02 8.889470442161417907e-02
1.810579385403329070e+03 4.831858618604022854e-02 2.325905339006427777e-02 8.896049459710743401e-02
1.820582586427656906e+03 4.651869846048119900e-02 2.125841613187592211e-02 9.011960977345037649e-02
1.830585787451984743e+03 4.731368828491352985e-02 2.211473005084612850e-02 8.759752387744360047e-02
1.840588988476312352e+03 4.877031575515147072e-02 2.291557325737269765e-02 9.385947566528068942e-02
1.850592189500640188e+03 4.922768330820324195e-02 2.326609777214182911e-02 8.743429765775627416e-02
1.860595390524968025e+03 5.098970025771746434e-02 2.534858569114550181e-02 9.223725165058721531e-02
1.870598591549295861e+03 5.184292570965844810e-02 2.528377762731956815e-02 9.611032434671817892e-02
1.880601792573623470e+03 4.806049379352308332e-02 2.329113811011380986e-02 9.061344294208459327e-02
1.890604993597951307e+03 4.949686811104869744e-02 2.347968680499227037e-02 9.535595850637021420e-02
1.900608194622279143e+03 4.916253522268275444e-02 2.408906162394346129e-02 9.067239612606939336e-02
1.910611395646606979e+03 4.892939566874203450e-02 2.425733096915685255e-02 9.369368611989174755e-02
1.920614596670934588e+03 5.368467778734832552e-02 2.451201044903655521e-02 9.578164379929295091e-02
1.930617797695262425e+03 5.169470800020725676e-02 2.438415296445805083e-02 9.482344619834234822e-02
1.940620998719590261e+03 5.068428409236177407e-02 2.356957328523099152e-02 9.488496963315805333e-02
1.950624199743918098e+03 4.824163420114679218e-02 2.211396640475129724e-02 9.522503829408572595e-02
1.960627400768245934e+03 4.830130880035622687e-02 2.185515254710349020e-02 9.787033635301363443e-02
1.970630601792573543e+03 4.833280230614045436e-02 2.226836859402971103e-02 9.579006708200572817e-02
1.980633802816901380e+03 4.710772064977061108e-02 2.215012288357921105e-02 9.563877708316209647e-02
1.990637003841229216e+03 4.882679045360583531e-02 2.322765298090302341e-02 9.410268395186038859e-02
2.000640204865557052e+03 4.845545500100944397e-02 2.285437922353578469e-02 9.510165186078690935e-02
2.010643405889884662e+03 4.833919976882121439e-02 2.186078789561129651e-02 9.360344385419568092e-02
2.020646606914212498e+03 4.946852117712339375e-02 2.355787859527927117e-02 9.211988184811989444e-02
2.030649807938540334e+03 4.907028055971685010e-02 2.293431593567110682e-02 9.360123603616936350e-02
2.040653008962868171e+03 4.927796585797990930e-02 2.451864402292523379e-02 9.497729145345967794e-02
2.050656209987195780e+03 5.079657496722324306e-02 2.483846668280060427e-02 9.320132233894661000e-02
2.060659411011523844e+03 4.988479148587677409e-02 2.410101976271723442e-02 9.161915954128520279e-02
2.070662612035851453e+03 5.031072953593165170e-02 2.355601353257334371e-02 9.327498336898100428e-02
2.080665813060179062e+03 4.940368643803189075e-02 2.317706854230023455e-02 8.970873253720119955e-02
2.090669014084507126e+03 4.909911494505832252e-02 2.423291420484459738e-02 9.313859563577626954e-02
2.100672215108834735e+03 5.157941412682347931e-02 2.383651346910089369e-02 9.161810196455157096e-02
2.110675416133162798e+03 5.075120573760623366e-02 2.414687712939041220e-02 9.399601239811743170e-02
2.120678617157490407e+03 5.261483185373861532e-02 2.540156433101900188e-02 9.772483752158045434e-02
2.130681818181818016e+03 5.192578389136912748e-02 2.496767598023971746e-02 9.170582429453269513e-02
2.140685019206146080e+03 5.013062013337694217e-02 2.465931479825241024e-02 9.219751087658696609e-02
2.150688220230473689e+03 5.056150756392224777e-02 2.403218645642702864e-02 9.235301951030577827e-02
2.160691421254801753e+03 5.150405940170150326e-02 2.250948156310597290e-02 9.241990152171052075e-02
2.170694622279129362e+03 4.887950758999979467e-02 2.409140148536567660e-02 8.902402246524902807e-02
2.180697823303456971e+03 4.932397714759131219e-02 2.340679874458710674e-02 9.179231363092474338e-02
2.190701024327785035e+03 4.933973387755163920e-02 2.423181051263817443e-02 9.113400700466262050e-02
2.200704225352112644e+03 4.994710143565988386e-02 2.507047134574149488e-02 9.567111409361117591e-02
2.210707426376440253e+03 4.933846138918383806e-02 2.351683609198423897e-02 9.507348607195484358e-02
2.220710627400768317e+03 4.794641660807844735e-02 2.234596910535361844e-02 9.267806695358304925e-02
2.230713828425095926e+03 4.791905221555483457e-02 2.200536384443999710e-02 8.818790522421100786e-02
2.240717029449423990e+03 4.839705426565654028e-02 2.345842152684637222e-02 9.051759039205525825e-02
2.250720230473751599e+03 4.957917922285880880e-02 2.327135550960766561e-02 9.189653651449024296e-02
2.260723431498079208e+03 4.963674746982085773e-02 2.305709401705410833e-02 9.395204092521745876e-02
2.270726632522407272e+03 4.932844622438058158e-02 2.442009610282879287e-02 9.587494056110802687e-02
2.280729833546734881e+03 5.006309954696741560e-02 2.401447112161046379e-02 9.381016554869352209e-02
2.290733034571062944e+03 4.905186892822851336e-02 2.269618543838621341e-02 9.412520415991852685e-02
2.300736235595390553e+03 4.977415256013967282e-02 2.300775306809873383e-02 9.281767309177865743e-02
2.310739436619718163e+03 4.830035236734279980e-02 2.420488092930413865e-02 9.301273554111641473e-02
2.320742637644046226e+03 5.012907258893689599e-02 2.372828208780920420e-02 9.298302772953769002e-02
2.330745838668373835e+03 5.070430875307193469e-02 2.377587297882997885e-02 9.500638058675561770e-02
2.340749039692701444e+03 5.168890754853432828e-02 2.458298420721727676e-02 9.483605428542164761e-02
2.350752240717029508e+03 4.972238697039208649e-02 2.365095640883354070e-02 9.230654809549994344e-02
2.360755441741357117e+03 4.995804454363868274e-02 2.451672971323559658e-02 8.967265019712757079e-02
2.370758642765685181e+03 4.937315971126682995e-02 2.346595269819414312e-02 9.297047784301920581e-02
2.380761843790012790e+03 4.965734084350027777e-02 2.427696401015425054e-02 9.480402648683070033e-02
2.390765044814340399e+03 4.873096297609814248e-02 2.437815808615519803e-02 9.307337086918252012e-02
2.400768245838668463e+03 4.999609567160443607e-02 2.256576115357932996e-02 9.654368743929943320e-02
2.410771446862996072e+03 4.864586939094530521e-02 2.287089565330930468e-02 9.054243759234899269e-02
2.420774647887324136e+03 5.005119144723015057e-02 2.376585739347935808e-02 9.365483007569050389e-02
2.430777848911651745e+03 4.999598347338016224e-02 2.424911773564950024e-02 9.465395817193558714e-02
2.440781049935979354e+03 5.297006021291596201e-02 2.435864966956237040e-02 9.320733501567123047e-02
2.450784250960307418e+03 5.092654121435899461e-02 2.589788358648207126e-02 9.250743304288371049e-02
2.460787451984635027e+03 5.087186538897860849e-02 2.484990416213906164e-02 8.962927922555326277e-02
2.470790653008963091e+03 5.062444619190585582e-02 2.481581676851916940e-02 9.240338862895923489e-02
2.480793854033290700e+03 5.079974444367126724e-02 2.366424637601048653e-02 9.393893406007521041e-02
2.490797055057618309e+03 4.795948232696405772e-02 2.342185600717003324e-02 9.017553952546131235e-02
2.500800256081946372e+03 5.068033513677230179e-02 2.273350518706646756e-02 9.132938436787492453e-02
2.510803457106273981e+03 5.002383975331586158e-02 2.464538769200660950e-02 9.255438464449848579e-02
2.520806658130601591e+03 5.241718373840288658e-02 2.562775592367789318e-02 9.339127890148811451e-02
2.530809859154929654e+03 5.029550025903336413e-02 2.290545966507560177e-02 9.302851996891371711e-02
2.540813060179257263e+03 5.248538268251615874e-02 2.381294431795650049e-02 9.241778009230706969e-02
2.550816261203585327e+03 5.304279335916003285e-02 2.504513563966598647e-02 9.621885306984587216e-02
2.560819462227912936e+03 4.960672652203629296e-02 2.417865999052658255e-02 9.506320214926422540e-02
2.570822663252240545e+03 5.172469623049473497e-02 2.290591604031831999e-02 9.286543646088890602e-02
2.580825864276568609e+03 5.225705834964349678e-02 2.511422535259624778e-02 9.410721527651146057e-02
2.590829065300896218e+03 4.815311775459794191e-02 2.300730129543477817e-02 9.338585854379824469e-02
2.600832266325224282e+03 5.092942028969135032e-02 2.455091601733908405e-02 9.416388436770874171e-02
2.610835467349551891e+03 5.009397016731149260e-02 2.236982935894759120e-02 9.450793091080678110e-02
2.620838668373879500e+03 4.809271140877707795e-02 2.345020156582233034e-02 9.180974815259156097e-02
2.630841869398207564e+03 4.914444145912313239e-02 2.342899821333242413e-02 9.313754182965393313e-02
2.640845070422535173e+03 4.873282801729210412e-02 2.427746698146850471e-02 9.005342303154527384e-02
2.650848271446862782e+03 5.104886525304510453e-02 2.421403456161720993e-02 9.088495678683269907e-02
2.660851472471190846e+03 5.262617518845837811e-02 2.448779373239637000e-02 9.298559486825019871e-02
2.670854673495518455e+03 5.287977579722779459e-02 2.434879773723216262e-02 9.212769688629246501e-02
2.680857874519846519e+03 4.878353982972702396e-02 2.325857896605029729e-02 9.111765688331475987e-02
2.690861075544174128e+03 5.169310558169123992e-02 2.464790725000687299e-02 9.245394081362237615e-02
2.700864276568501737e+03 5.199154043071124026e-02 2.578576728861148304e-02 9.542624171742843109e-02
2.710867477592829800e+03 5.411371118730503443e-02 2.803264276356862844e-02 9.770723511942061568e-02
2.720870678617157409e+03 5.298103288021920043e-02 2.544632672511187160e-02 9.757633991980059485e-02
2.730873879641485473e+03 5.426140191743552416e-02 2.546158436671623615e-02 9.771346847674090841e-02
2.740877080665813082e+03 5.468758879890273095e-02 2.596269086330305412e-02 9.702923264764505562e-02
2.750880281690140691e+03 5.408417978040440388e-02 2.635755299289413087e-02 1.004041821554450958e-01
2.760883482714468755e+03 5.621698618083981192e-02 2.688392840182554991e-02 9.915337634254321741e-02
2.770886683738796364e+03 5.645924102261666577e-02 2.734577174400021002e-02 9.807046752679202117e-02
2.780889884763124428e+03 5.118706023134710070e-02 2.291761961369752007e-02 9.512028099160849126e-02
2.790893085787452037e+03 5.412591576885645434e-02 2.391067306126845940e-02 9.656544084553508878e-02
2.800896286811779646e+03 5.580042332560677942e-02 2.680646854708354856e-02 9.591575144923274177e-02
2.810899487836107710e+03 5.412848604112342060e-02 2.554010736541363277e-02 9.881998871531469386e-02
2.820902688860435319e+03 5.110853877632011433e-02 2.404611772143103871e-02 9.599946655970255371e-02
2.830905889884762928e+03 5.042612707832737351e-02 2.363493868092818306e-02 9.141932686862977442e-02
2.840909090909090992e+03 5.061775616012087475e-02 2.448170973197441938e-02 9.383514630422028213e-02
2.850912291933418601e+03 4.902444946267409814e-02 2.303086087979062252e-02 9.149986419854648501e-02
2.860915492957746665e+03 4.810691887238545406e-02 2.376037112566422790e-02 9.116123634803167952e-02
2.870918693982074274e+03 4.698518222963959240e-02 2.428027822349748677e-02 8.974604430337218552e-02
2.880921895006401883e+03 5.259081307165531377e-02 2.534741465521077666e-02 9.654720000307254191e-02
2.890925096030729947e+03 5.110017623957380933e-02 2.504879600777038667e-02 9.569251948435056332e-02
2.900928297055057556e+03 4.929267176140404022e-02 2.368504725521620655e-02 9.251874537551829647e-02
2.910931498079385619e+03 4.897007753023863152e-02 2.384493026116104100e-02 9.120406256611406082e-02
2.920934699103713228e+03 4.801020662252274834e-02 2.195957331202307711e-02 9.008256906942546660e-02
2.930937900128040837e+03 4.886596342469354259e-02 2.230906914677914521e-02 8.960940884816691321e-02
2.940941101152368901e+03 4.966920581781475441e-02 2.351055420713613758e-02 8.944341870636829395e-02
2.950944302176696510e+03 5.057477137102445869e-02 2.450315919050824465e-02 8.947401238767491161e-02
2.960947503201024119e+03 4.791204104402923408e-02 2.281472638640310094e-02 8.958405512012086735e-02
2.970950704225352183e+03 4.913729920368675730e-02 2.260327632513228768e-02 8.843965339771349410e-02
2.980953905249679792e+03 4.691033475731926777e-02 2.157539824620697752e-02 8.968789654998451932e-02
2.990957106274007856e+03 4.826686764256343104e-02 2.272626009684281315e-02 8.830411028676063423e-02
3.000960307298335465e+03 4.888565062420324042e-02 2.316680911380369565e-02 8.912218416825369582e-02
3.010963508322663074e+03 4.753078370810397829e-02 2.286444009552122264e-02 8.841077620909867929e-02
3.020966709346991138e+03 4.806858616367795656e-02 2.360860223871403402e-02 8.967561313032121340e-02
3.030969910371318747e+03 4.842692966873787808e-02 2.286921909340780198e-02 9.039198578174867382e-02
3.040973111395646811e+03 4.795770359415529177e-02 2.280843432516997324e-02 8.945803831785566207e-02
3.050976312419974420e+03 4.688863428421942425e-02 2.208355042902208562e-02 8.960827415155078746e-02
3.060979513444302029e+03 4.836062697156998103e-02 2.341592212219692493e-02 9.136275382743361262e-02
3.070982714468630093e+03 4.750087914594586236e-02 2.251484529990303851e-02 9.146796214464675279e-02
3.080985915492957702e+03 4.678703492389203050e-02 2.146128582488481332e-02 8.815798052880431668e-02
3.090989116517285311e+03 4.640558844442107395e-02 2.184890329542642229e-02 8.828849205950582701e-02
3.100992317541613374e+03 4.548309775759309947e-02 2.180327149215641885e-02 8.747145419040611158e-02
3.110995518565940984e+03 4.724499316541673488e-02 2.295835640968806393e-02 8.329008853537434032e-02
3.120998719590269047e+03 4.610304705334006964e-02 2.356787519686966495e-02 8.590562941156958121e-02
3.131001920614596656e+03 4.854738486144869608e-02 2.382445090308597108e-02 8.521501496374128681e-02
3.141005121638924265e+03 4.460443130723590333e-02 2.274540644785228924e-02 8.198221817699787028e-02
3.151008322663252329e+03 4.621626278201575178e-02 2.228630848125613337e-02 8.424033466333329112e-02
3.161011523687579938e+03 4.821226622630097464e-02 2.336846410580246600e-02 8.613452926579039104e-02
3.171014724711908002e+03 4.771507391274026205e-02 2.313130684464942063e-02 8.645607542185272665e-02
3.181017925736235611e+03 4.600363563055139687e-02 2.144417346322190915e-02 8.383331451417269653e-02
3.191021126760563220e+03 4.522313888603064769e-02 2.106107708337985954e-02 8.378454040893842936e-02
3.201024327784891284e+03 4.594208913383480974e-02 2.270031229440697129e-02 8.579234575041866373e-02
3.211027528809218893e+03 4.721680513046574990e-02 2.238582397355514883e-02 8.501016289691924743e-02
3.221030729833546957e+03 4.689264676977668994e-02 2.131887173580114536e-02 8.526093017784006078e-02
3.231033930857874566e+03 4.653953194481610239e-02 2.352360501586195363e-02 8.480356098039319723e-02
3.241037131882202175e+03 4.801158584896229875e-02 2.239130420834235108e-02 8.488156114246184214e-02
3.251040332906530239e+03 4.871194537609909586e-02 2.300652916348078919e-02 8.513317381674115336e-02
3.261043533930857848e+03 4.832433689344164257e-02 2.364408105104030475e-02 8.671985441634023906e-02
3.271046734955185457e+03 4.980620381997103580e-02 2.351968352558598055e-02 8.717015907370775918e-02
3.281049935979513521e+03 5.029473379642186021e-02 2.335426703361501849e-02 8.886946132291341505e-02
3.291053137003841130e+03 4.910702386077347992e-02 2.358325373672764957e-02 8.875482325563698038e-02
3.301056338028169193e+03 4.927559351687733208e-02 2.314270612210331604e-02 8.863266894616579628e-02
3.311059539052496802e+03 5.354313178541519197e-02 2.779806879942189890e-02 9.462398551888233367e-02
3.321062740076824412e+03 5.879278608766581177e-02 2.922784577323874269e-02 1.010734243415633560e-01
3.331065941101152475e+03 5.888195703808804526e-02 2.956413813347209471e-02 1.024298371576738559e-01
3.341069142125480084e+03 5.947315361674566231e-02 3.136074309450911229e-02 9.959706811268306814e-02
3.351072343149808148e+03 5.636426804595684459e-02 2.799096370262381395e-02 9.765628656103293725e-02
3.361075544174135757e+03 5.213368687394895340e-02 2.494575712772729645e-02 8.822302966089219656e-02
3.371078745198463366e+03 4.994482513597128803e-02 2.329836250894051081e-02 8.475554335269694373e-02
3.381081946222791430e+03 5.018785497582124722e-02 2.453139563660267086e-02 8.932907060972714031e-02
3.391085147247119039e+03 4.804333432187724712e-02 2.149766438334149016e-02 8.924062371848812125e-02
3.401088348271446648e+03 4.872453037608963367e-02 2.410104954606768698e-02 8.684703830689409487e-02
3.411091549295774712e+03 4.807317346434469840e-02 2.287350175507575634e-02 8.743277811642023722e-02
3.421094750320102321e+03 4.941102223481792094e-02 2.358260115832015030e-02 8.687176406679600338e-02
3.431097951344430385e+03 4.743682024686528276e-02 2.274271165892004579e-02 8.832278174391254566e-02
3.441101152368757994e+03 4.799497731025331726e-02 2.342779183491692022e-02 8.698032192369517523e-02
3.451104353393085603e+03 4.784456347800315756e-02 2.266482117209832683e-02 8.640535451973881120e-02
3.461107554417413667e+03 4.675319549992294071e-02 2.156486464830558933e-02 8.381467728697354624e-02
3.471110755441741276e+03 4.718645135104275468e-02 2.252367067969499384e-02 8.459667053958226657e-02
3.481113956466069340e+03 4.867933495159812440e-02 2.379404526770493092e-02 8.380271427121634142e-02
3.491117157490396949e+03 4.739547716945282513e-02 2.208190659271408104e-02 8.446812651625396073e-02
3.501120358514724558e+03 4.634324467324309194e-02 2.257328841586698359e-02 8.484880308347796107e-02
3.511123559539052621e+03 4.763225492574017089e-02 2.257873234594605719e-02 8.516120692580139706e-02
3.521126760563380230e+03 4.928894386833524571e-02 2.427484686890060347e-02 9.096779053062881149e-02
3.531129961587708294e+03 5.484395691692259961e-02 2.762436701943744854e-02 9.580742705615276356e-02
3.541133162612035903e+03 5.236829007933042901e-02 2.512213671934064932e-02 9.137089839818496317e-02
3.551136363636363512e+03 5.010028150406793668e-02 2.467787870430348390e-02 8.866818836533633952e-02
3.561139564660691576e+03 5.193831167398573617e-02 2.459523296344731311e-02 9.449376495763150974e-02
3.571142765685019185e+03 5.589276433476291633e-02 2.812233162924554844e-02 9.879504792072092700e-02
3.581145966709346794e+03 6.075728469290721245e-02 2.971998343792121508e-02 1.018456858944234988e-01
3.591149167733674858e+03 5.716192641977769356e-02 2.843630009284682514e-02 1.030286470679932093e-01
3.601152368758002467e+03 5.855121925045483899e-02 2.766338864382521245e-02 1.053604008938645725e-01
3.611155569782330531e+03 6.070927795150073830e-02 2.798639371137570317e-02 1.051751926179278762e-01
3.621158770806658140e+03 6.222307919360151041e-02 2.853707855042665956e-02 1.115454039274008519e-01
3.631161971830985749e+03 6.096502610649041920e-02 2.858114964771226590e-02 1.118316600827892054e-01
3.641165172855313813e+03 6.306111596786521944e-02 2.969203260999724384e-02 1.125654062536580319e-01
3.651168373879641422e+03 6.179166810205077853e-02 3.016196485511547440e-02 1.100886470466586470e-01
3.661171574903969486e+03 6.612516460230251358e-02 3.017308617205997912e-02 1.127993045438977215e-01
3.671174775928297095e+03 6.598903223263985485e-02 3.292568796042612267e-02 1.131181976109115056e-01
3.681177976952624704e+03 6.415498716851308902e-02 3.355512125030833681e-02 1.098179713730355472e-01
3.691181177976952767e+03 5.771086759493430224e-02 2.801136512784327057e-02 1.063707857759248060e-01
3.701184379001280377e+03 5.460382300985898441e-02 2.650924651187324885e-02 9.665627658201145223e-02
3.711187580025607986e+03 5.395534873556021710e-02 2.699822689498679318e-02 9.262833436353679062e-02
3.721190781049936049e+03 6.446134242971543471e-02 3.206979830774431967e-02 1.128674654327895682e-01
3.731193982074263658e+03 4.293570603036937494e-01 3.781369008173061097e-01 4.908912224094125754e-01
3.741197183098591722e+03 6.194037323426501152e-01 5.706035762423279367e-01 6.644633158086641345e-01
3.751200384122919331e+03 2.214417575592990406e-01 1.654655782450079327e-01 2.722094704504622320e-01
3.761203585147246940e+03 4.990802476166148610e-02 2.397049225445696888e-02 9.194228916720913192e-02
3.771206786171575004e+03 4.944178814220813456e-02 2.312671463216422682e-02 8.791467569672742344e-02
3.781209987195902613e+03 4.821892181887096201e-02 2.521814050730469131e-02 8.783930580768443963e-02
3.791213188220230677e+03 5.077119492433855574e-02 2.446420550433568361e-02 8.990259860980155671e-02
3.801216389244558286e+03 5.254369059759959187e-02 2.493575420995529021e-02 8.929155294946754251e-02
3.811219590268885895e+03 5.129659229061652587e-02 2.401784450517385414e-02 8.880313213354874835e-02
3.821222791293213959e+03 5.547033603943096747e-02 2.833788022283377506e-02 9.604509608010192157e-02
3.831225992317541568e+03 5.141363811555947627e-02 2.560234321109078337e-02 8.841203542434454554e-02
3.841229193341869177e+03 4.900527130666666037e-02 2.251567394124212584e-02 8.666927427036651144e-02
3.851232394366197241e+03 4.745262467805348022e-02 2.340464078458454403e-02 8.532961235191936777e-02
3.861235595390524850e+03 4.760775263815741204e-02 2.303394383218918332e-02 8.460675570787340449e-02
3.871238796414852914e+03 4.660174168162418279e-02 2.400834549286917294e-02 8.500831078962442500e-02
3.881241997439180523e+03 4.803723609798717098e-02 2.322257506086124537e-02 8.457050454946238305e-02
3.891245198463508132e+03 4.789840385817411422e-02 2.349763685001172650e-02 8.623981083095216826e-02
3.901248399487836195e+03 4.746375536508359860e-02 2.193922201009569292e-02 8.488791039480736433e-02
3.911251600512163805e+03 4.737932127789644399e-02 2.329258689336348789e-02 8.452050413284392660e-02
3.921254801536491868e+03 4.769779084588297857e-02 2.295414463769773414e-02 8.612222416726407481e-02
3.931258002560819477e+03 4.696593455561709485e-02 2.261876084549444693e-02 8.337085071813880865e-02
3.941261203585147086e+03 4.978065943401049909e-02 2.453316080295710189e-02 8.541767401728307674e-02
3.951264404609475150e+03 4.890225795713929596e-02 2.476029041046097501e-02 8.566404497116701655e-02
3.961267605633802759e+03 4.923032485005213871e-02 2.423278448870407401e-02 8.857256149299422288e-02
3.971270806658130823e+03 4.936417730459662090e-02 2.377245615344691920e-02 8.864308355308929410e-02
3.981274007682458432e+03 4.975008043556769510e-02 2.368737973420134008e-02 8.944463902357521756e-02
3.991277208706786041e+03 4.880199066904060412e-02 2.149603817241455342e-02 9.073032444385593920e-02
4.001280409731114105e+03 4.847609844809018520e-02 2.263101226222758930e-02 8.659730632551043694e-02
4.011283610755441714e+03 4.803932254358272980e-02 2.352262516292283681e-02 8.751011334285584142e-02
4.021286811779769323e+03 4.978117020542233151e-02 2.400644480477802725e-02 8.853045326395514447e-02
4.031290012804097387e+03 4.913234476730196643e-02 2.419689471341467807e-02 8.434757899307732121e-02
4.041293213828424996e+03 4.691764075613295837e-02 2.155744327626492318e-02 8.492072916720264097e-02
4.051296414852753060e+03 4.928118996803366320e-02 2.328501524692840399e-02 8.369561901979315210e-02
4.061299615877080669e+03 4.825269834290701193e-02 2.348066597207604939e-02 8.854988662435304969e-02
4.071302816901408278e+03 4.836867964486517985e-02 2.302387095112194346e-02 8.937951582360814662e-02
4.081306017925736342e+03 5.008356312380263936e-02 2.369574993673169427e-02 8.581026811261451004e-02
4.091309218950063951e+03 4.765004164210694115e-02 2.354353468040020284e-02 8.576055043997687921e-02
4.101312419974391560e+03 4.823546183096493606e-02 2.430880521949365519e-02 8.325852562340124718e-02
4.111315620998719169e+03 4.806936957983778957e-02 2.300244325637094273e-02 8.306748466409707987e-02
4.121318822023047687e+03 4.782603295338113542e-02 2.283571133452690083e-02 8.489868731977517902e-02
4.131322023047375296e+03 4.888916808997099961e-02 2.423578148724653963e-02 8.571447195612319492e-02
4.141325224071702905e+03 4.990154210212462138e-02 2.442413371236423422e-02 8.618679141980298275e-02
4.151328425096030514e+03 4.828890764765447069e-02 2.386996746374966255e-02 8.475238476944589594e-02
4.161331626120358123e+03 4.943290507352975094e-02 2.334011865602284713e-02 8.498324934111267659e-02
4.171334827144686642e+03 4.961348328439087879e-02 2.381267851257577728e-02 8.574046848994792969e-02
4.181338028169014251e+03 4.820529449591194615e-02 2.307341930085965095e-02 8.626121503112230138e-02
4.191341229193341860e+03 4.760614417954642241e-02 2.341617884021086546e-02 8.365705943590405480e-02
4.201344430217669469e+03 5.005131096306891098e-02 2.447979450820970959e-02 8.924109030677680743e-02
4.211347631241997078e+03 5.025030313454251218e-02 2.472643042770953856e-02 8.668756659690261823e-02
4.221350832266325597e+03 4.917053025346859035e-02 2.494939813279302768e-02 8.751802613312005541e-02
4.231354033290653206e+03 5.044508102870009364e-02 2.545976586697730124e-02 8.816607798709077959e-02
4.241357234314980815e+03 5.006343121163265436e-02 2.373831845542218738e-02 8.824035340533516181e-02
4.251360435339308424e+03 5.129313853009992430e-02 2.501464283893410287e-02 8.731459227520541044e-02
4.261363636363636033e+03 5.140998833528029333e-02 2.469939910089352653e-02 8.851471928883090923e-02
4.271366837387964551e+03 5.276430049142672579e-02 2.630555284089741014e-02 9.056509079545346785e-02
4.281370038412292161e+03 5.136412182035206969e-02 2.530750208524714176e-02 8.975502718788459788e-02
4.291373239436619770e+03 5.209818391738157972e-02 2.622436306532472533e-02 9.270336203177259593e-02
4.301376440460947379e+03 5.078158778576288834e-02 2.463123827797860169e-02 9.293624240321013419e-02
4.311379641485274988e+03 5.079712199396782535e-02 2.405603352535505557e-02 9.204823334896536369e-02
4.321382842509603506e+03 5.276998673126415129e-02 2.533014772288690042e-02 9.422829714586335170e-02
4.331386043533931115e+03 5.320173877269321339e-02 2.639456004975853504e-02 9.277987296753888169e-02
4.341389244558258724e+03 5.209245763960592551e-02 2.558350777804043949e-02 9.422917735796683403e-02
4.351392445582586333e+03 5.300395098911688668e-02 2.523111759956993272e-02 9.530774144969719752e-02
4.361395646606913942e+03 5.278868093759932212e-02 2.428949307356493073e-02 9.543221362213767656e-02
4.371398847631241551e+03 5.417913990592079093e-02 2.438668516284448959e-02 1.002590169065969983e-01
4.381402048655570070e+03 5.327994841870416221e-02 2.492693942309115451e-02 9.455718976621244054e-02
4.391405249679897679e+03 5.576005937833920095e-02 2.563750772136643222e-02 9.525124682994030867e-02
4.401408450704225288e+03 6.455038668419491033e-02 3.145187204876923742e-02 1.118224297069284057e-01
4.411411651728552897e+03 7.285921082208578203e-02 3.565311169553954385e-02 1.211131656878845914e-01
4.421414852752880506e+03 5.927035494159609008e-02 2.566363938928782965e-02 1.085087771251215388e-01
4.431418053777209025e+03 5.530473039603878843e-02 2.509484319880373945e-02 1.061946640669890612e-01
4.441421254801536634e+03 5.938799672841602040e-02 2.780400784449339746e-02 1.065712442937821192e-01
4.451424455825864243e+03 5.950413995570937031e-02 2.683123125089757061e-02 1.085614990030680516e-01
4.461427656850191852e+03 6.057732755572333566e-02 2.847471313244968882e-02 1.119009972635121725e-01
4.471430857874519461e+03 6.190455423177471800e-02 2.743111574143516918e-02 1.137223025782037045e-01
4.481434058898847979e+03 5.858168430758077527e-02 2.813401728693852230e-02 1.153992129864212790e-01
4.491437259923175588e+03 6.320953007750022834e-02 3.006570371917440324e-02 1.246135735313352449e-01
4.501440460947503198e+03 6.352892933719411772e-02 2.974525188946707324e-02 1.237955365528272816e-01
4.511443661971830807e+03 6.600523889959693247e-02 3.064810922003816454e-02 1.296020607435666161e-01
4.521446862996158416e+03 6.662449292893370123e-02 3.140129548316289432e-02 1.291766150049493966e-01
4.531450064020486934e+03 7.034443740144682988e-02 3.379354761638058563e-02 1.330458442771277616e-01
4.541453265044814543e+03 6.915812263881128408e-02 3.304593922973591419e-02 1.348705258531551487e-01
4.551456466069142152e+03 7.175969909408057290e-02 3.450114790843099993e-02 1.364009034497017936e-01
4.561459667093469761e+03 7.505324036363476836e-02 3.331264738010455972e-02 1.452113446013280906e-01
4.571462868117797370e+03 7.627497371878225185e-02 3.489586710560931004e-02 1.470537466680521266e-01
4.581466069142125889e+03 7.765228152464211109e-02 3.324854470784267824e-02 1.539099484369355342e-01
4.591469270166453498e+03 8.240364302026205456e-02 3.555385486704486231e-02 1.534991009995436695e-01
4.601472471190781107e+03 8.142936789188078006e-02 3.717412582494674517e-02 1.533543767377017475e-01
4.611475672215108716e+03 8.452923681364959974e-02 3.975972326797188455e-02 1.639507307149815352e-01
4.621478873239436325e+03 8.206203704610294525e-02 3.663603334633837999e-02 1.584604852119352869e-01
4.631482074263764844e+03 8.635830267430530394e-02 4.023852400491528120e-02 1.647822381552862814e-01
4.641485275288092453e+03 8.699012293015184749e-02 3.892864210757484428e-02 1.633314848273176023e-01
4.651488476312420062e+03 8.418263293452937779e-02 3.876377643659770916e-02 1.525509705643861291e-01
4.661491677336747671e+03 8.655754623365428946e-02 4.057492629061855427e-02 1.640440520506386002e-01
4.671494878361075280e+03 8.936729884987103245e-02 4.313902736224232981e-02 1.711408283734916491e-01
4.681498079385402889e+03 8.696927318988033340e-02 3.924378322930810459e-02 1.667040746560584652e-01
4.691501280409731407e+03 9.389456426412004508e-02 4.168830662800705744e-02 1.584654611151901649e-01
4.701504481434059016e+03 9.021228171890822989e-02 4.036811577070818086e-02 1.652757467873873509e-01
4.711507682458386626e+03 8.710302127203323197e-02 4.214554246537876442e-02 1.613336297030723288e-01
4.721510883482714235e+03 8.834304608535316350e-02 4.184428904513952385e-02 1.725134909275901074e-01
4.731514084507041844e+03 8.824046512073052684e-02 3.955937488823210724e-02 1.682785696151803956e-01
4.741517285531370362e+03 9.257578387691907384e-02 4.308249044244315262e-02 1.678312601250867842e-01
4.751520486555697971e+03 9.284073684680581307e-02 4.252003528013945099e-02 1.719412179900304538e-01
4.761523687580025580e+03 9.508348225280104093e-02 4.585326851841504958e-02 1.782127644705778224e-01
4.771526888604353189e+03 9.453806210353946082e-02 4.380753486811258396e-02 1.787726698608991527e-01
4.781530089628680798e+03 9.398599874615326533e-02 4.311451470005105147e-02 1.869833359679364260e-01
4.791533290653009317e+03 8.871351669486947367e-02 3.874055309028169580e-02 1.816548582899106257e-01
4.801536491677336926e+03 8.525507993029739218e-02 3.778994979727332698e-02 1.726816096473721973e-01
4.811539692701664535e+03 8.437254918885268851e-02 4.066889684665055821e-02 1.693158526504361383e-01
4.821542893725992144e+03 8.912177585107042277e-02 4.073088324054818105e-02 1.777883325824205218e-01
4.831546094750319753e+03 9.561404451351783462e-02 4.098730551498203090e-02 1.738322911101905510e-01
4.841549295774648272e+03 9.663875239807087625e-02 4.228075741620008349e-02 1.755373104631479941e-01
4.851552496798975881e+03 9.479458129217376017e-02 4.442333575502999815e-02 1.739441768443557579e-01
4.861555697823303490e+03 9.559694373468106965e-02 4.713147943559729824e-02 1.703227339993400868e-01
4.871558898847631099e+03 9.217999729253352481e-02 4.196917280305959702e-02 1.690311723917260756e-01
4.881562099871958708e+03 9.372658931115604442e-02 4.705007797859437485e-02 1.584647212141595540e-01
4.891565300896287226e+03 9.108840723243827320e-02 4.234174930037684637e-02 1.612295125628362413e-01
4.901568501920614835e+03 9.084012888916953576e-02 4.670288536222416687e-02 1.581124528051666145e-01
4.911571702944942444e+03 8.636628268231187622e-02 4.285721742810388174e-02 1.523422894169873254e-01
4.921574903969270053e+03 8.487584899669184391e-02 3.970020344984968863e-02 1.486065086996766760e-01
4.931578104993597663e+03 7.780922671326001572e-02 3.822485252160985614e-02 1.487775926733854170e-01
4.941581306017926181e+03 7.975788760797070109e-02 3.516497019646450117e-02 1.398429185755590831e-01
4.951584507042253790e+03 7.571334781939566272e-02 3.588363328731992291e-02 1.348594673315699488e-01
4.961587708066581399e+03 7.309988184471877259e-02 3.396525648510309581e-02 1.286197023925362282e-01
4.971590909090909008e+03 6.813960022785377213e-02 3.315696991816501071e-02 1.180690207875385866e-01
4.981594110115236617e+03 6.565537560900169822e-02 3.122986917120451275e-02 1.178418007130265371e-01
4.991597311139564226e+03 6.309247771924415826e-02 3.107772592843926346e-02 1.148811927014397327e-01
5.001600512163892745e+03 6.426127243237729492e-02 3.166793480949860184e-02 1.161085495557062780e-01
5.011603713188220354e+03 6.405118360783973452e-02 3.066567668292363366e-02 1.132122186827705101e-01
5.021606914212547963e+03 6.208325164444283145e-02 2.856022678318314786e-02 1.109209516743674129e-01
5.031610115236875572e+03 6.178779790907020647e-02 3.137056900493096628e-02 1.083007430771182056e-01
5.041613316261203181e+03 6.177459035420703598e-02 3.029409874787570081e-02 1.105092659288727103e-01
5.051616517285531700e+03 6.227784551239308464e-02 3.125113895477434067e-02 1.088389075230857816e-01
5.061619718309859309e+03 6.099271197367858027e-02 2.888482849503474365e-02 1.074113148713280314e-01
5.071622919334186918e+03 6.304452943003673038e-02 2.927242544861824100e-02 1.072445314775854752e-01
5.081626120358514527e+03 6.145323812207230396e-02 3.043331267982804511e-02 1.086379402819640932e-01
5.091629321382842136e+03 6.103712638374889782e-02 2.958233555000668036e-02 1.093506575595501185e-01
5.101632522407170654e+03 6.244534969362895011e-02 3.142849349120568903e-02 1.081548298648315476e-01
5.111635723431498263e+03 6.276544513354059829e-02 3.203950898797940094e-02 1.051785536718367747e-01
5.121638924455825872e+03 5.987143925587397331e-02 2.893103152121100780e-02 1.034817689649720485e-01
5.131642125480153481e+03 6.385222316508279428e-02 3.106624324682105698e-02 1.082752717462649866e-01
5.141645326504481091e+03 6.368940910828706226e-02 3.063920567043020363e-02 1.084174233077804944e-01
5.151648527528809609e+03 6.219088824479360178e-02 3.026903711142926376e-02 1.089315290398560343e-01
5.161651728553137218e+03 6.477522389325357510e-02 3.297037635511599479e-02 1.093741082641170870e-01
5.171654929577464827e+03 6.284023330404707453e-02 3.249159690570718739e-02 1.108057751928503282e-01
5.181658130601792436e+03 6.356741275190806728e-02 3.044660301914854997e-02 1.070329125961244077e-01
5.191661331626120045e+03 6.381135577988769625e-02 3.187972959001128537e-02 1.097829132641209432e-01
5.201664532650448564e+03 6.131836943703680015e-02 3.122431618837994208e-02 1.062737127178048496e-01
5.211667733674776173e+03 6.137893520176572471e-02 2.911785458659156209e-02 1.070836916736944561e-01
5.221670934699103782e+03 6.405082606009393498e-02 3.120350805931123434e-02 1.101903004213730247e-01
5.231674135723431391e+03 6.060541360287474005e-02 3.033597482513103460e-02 1.121600576523578835e-01
5.241677336747759000e+03 6.360484377642559861e-02 3.024565185583569932e-02 1.136294068588734191e-01
5.251680537772087519e+03 6.478390205385647915e-02 3.100528993468747510e-02 1.171365858624727890e-01
5.261683738796415128e+03 6.340102793983778962e-02 3.374253340613395102e-02 1.129685167221460701e-01
5.271686939820742737e+03 6.603201786978882271e-02 3.137623348155640923e-02 1.133928076607966101e-01
5.281690140845070346e+03 6.679696905666375473e-02 3.221514444386364834e-02 1.148754549604865671e-01
5.291693341869397955e+03 6.693131588096214168e-02 3.256144393211789917e-02 1.138638964379994484e-01
5.301696542893725564e+03 6.526124281878087352e-02 3.312709653114294384e-02 1.157866284625054393e-01
5.311699743918054082e+03 6.810736732364643109e-02 3.487812907517356953e-02 1.177888715010703413e-01
5.321702944942381691e+03 6.646173374688559010e-02 3.134920589041436528e-02 1.152014520274583370e-01
5.331706145966709300e+03 6.566510835266745061e-02 3.156342587232947861e-02 1.173442553636939029e-01
5.341709346991036909e+03 6.509910513720867931e-02 3.259693894769426226e-02 1.156652215484408747e-01
5.351712548015364519e+03 6.616019509287313083e-02 3.342614292739457676e-02 1.141934397168931775e-01
5.361715749039693037e+03 6.682503339809083009e-02 3.124011675450637932e-02 1.118279846453704152e-01
5.371718950064020646e+03 6.668481648947301166e-02 3.236439954571684874e-02 1.145113124605788013e-01
5.381722151088348255e+03 6.734907733818513986e-02 3.384020963196261028e-02 1.165254683094981841e-01
5.391725352112675864e+03 6.849172016230342663e-02 3.475192587771690905e-02 1.160162499765411553e-01
5.401728553137003473e+03 6.970668016990137772e-02 3.597136189600335515e-02 1.233922851222269829e-01
5.411731754161331992e+03 7.003606799529046856e-02 3.456116970814246403e-02 1.196031732688577071e-01
5.421734955185659601e+03 7.101943201812688233e-02 3.605713360752985791e-02 1.216162168502346458e-01
5.431738156209987210e+03 7.098838888991823581e-02 3.536658797886905320e-02 1.233977611709222710e-01
5.441741357234314819e+03 7.004215682261630271e-02 3.592610839493017016e-02 1.214746741146902342e-01
5.451744558258642428e+03 7.204464351164042990e-02 3.585119623916523807e-02 1.245222961021804631e-01
5.461747759282970947e+03 7.315638005247852849e-02 3.527703714213101943e-02 1.214674106229207268e-01
5.471750960307298556e+03 6.854081595719435649e-02 3.089992752769629702e-02 1.196404440707433819e-01
5.481754161331626165e+03 6.902123473343613203e-02 3.423092548555509151e-02 1.219683888754262147e-01
5.491757362355953774e+03 7.396295353234778880e-02 3.362306972137866362e-02 1.240771467454218069e-01
5.501760563380281383e+03 7.168220453912933776e-02 3.667568996665853537e-02 1.246972869299800141e-01
5.511763764404609901e+03 7.459505629008349181e-02 3.632152409984075458e-02 1.266874431895010089e-01
5.521766965428937510e+03 7.544936389808888644e-02 3.748836557504518080e-02 1.285183612177513424e-01
5.531770166453265119e+03 7.625904611014790169e-02 3.886125832434377675e-02 1.331817264800869982e-01
5.541773367477592728e+03 8.277925365280884573e-02 3.993289240956872377e-02 1.398756043292460616e-01
5.551776568501920337e+03 8.594230611001357767e-02 4.198450191476674198e-02 1.506714187324093290e-01
5.561779769526248856e+03 7.954253511274830823e-02 3.870041670485931118e-02 1.360191092523265199e-01
5.571782970550576465e+03 7.683406486900587473e-02 3.603381404849416436e-02 1.362291719857744721e-01
5.581786171574904074e+03 7.944651115766653005e-02 3.920858064084699335e-02 1.362052684332031027e-01
5.591789372599231683e+03 1.139765556558186149e-01 5.562656778514532552e-02 1.783931145377758987e-01
5.601792573623559292e+03 5.819703990679733208e-01 4.978051335706218383e-01 6.646027303640404948e-01
5.611795774647886901e+03 7.142019084911371829e-01 6.302487853316607325e-01 7.876700935528352376e-01
5.621798975672215420e+03 2.187244794330140962e-01 1.342965664207292908e-01 2.982708750962816402e-01
5.631802176696543029e+03 8.197986504879539726e-02 4.227921185053582637e-02 1.383443542269126025e-01
5.641805377720870638e+03 8.031280045674239754e-02 3.952595636131529117e-02 1.364354539839395530e-01
5.651808578745198247e+03 7.833086673005809630e-02 3.787105151378861861e-02 1.355565912150691055e-01
5.661811779769525856e+03 8.302910989216086279e-02 3.995106527899341259e-02 1.458721532890245864e-01
5.671814980793854374e+03 8.421433106277793901e-02 4.084380697259600707e-02 1.548459131372301734e-01
5.681818181818181984e+03 7.970968942391593037e-02 3.793391755244797381e-02 1.452681986714513263e-01
5.691821382842509593e+03 8.130825717399560448e-02 3.831473612282832591e-02 1.483319759848764074e-01
5.701824583866837202e+03 8.366236754596945158e-02 4.329149111917152820e-02 1.498669723463075532e-01
5.711827784891164811e+03 8.334626025886084089e-02 3.990430149813858907e-02 1.505774332973761342e-01
5.721830985915493329e+03 8.571214071614771668e-02 4.572102776646144034e-02 1.479552229849379064e-01
5.731834186939820938e+03 8.837215237953288671e-02 4.113521375680105618e-02 1.509071666105202270e-01
5.741837387964148547e+03 8.956476611113420305e-02 4.243109307765403904e-02 1.563281751570040345e-01
5.751840588988476156e+03 9.396213495191246823e-02 4.380028597824243974e-02 1.627006057341564005e-01
5.761843790012803765e+03 9.235125624852136283e-02 4.625621757726623706e-02 1.658135030261173315e-01
5.771846991037132284e+03 9.175829257142392725e-02 4.521462511246087529e-02 1.630532389204004950e-01
5.781850192061459893e+03 9.368772694392191180e-02 4.371484422796882013e-02 1.608784839784720699e-01
5.791853393085787502e+03 9.132879593667420082e-02 4.540545920058813162e-02 1.705127638319059169e-01
5.801856594110115111e+03 9.585629860166119953e-02 4.602046120140619589e-02 1.722628680353590347e-01
5.811859795134442720e+03 9.719218489544095840e-02 4.576335645064293772e-02 1.698464132875503740e-01
5.821862996158771239e+03 9.594168363937322086e-02 4.832399401929404759e-02 1.679731348332239027e-01
5.831866197183098848e+03 1.012881563700955140e-01 5.024690068626546519e-02 1.837039775386414830e-01
5.841869398207426457e+03 1.105497110082562379e-01 5.270836917055553988e-02 2.054952619156221738e-01
5.851872599231754066e+03 1.044306605345768496e-01 4.792727694997182125e-02 1.909620311289181582e-01
5.861875800256081675e+03 9.981097067907929166e-02 4.763297685919617996e-02 1.786851515852624361e-01
5.871879001280410193e+03 1.014239594627194818e-01 4.894519931198342000e-02 1.805805782339388599e-01
5.881882202304737802e+03 1.054365203929959194e-01 4.990691037224333215e-02 1.911499348087968009e-01
5.891885403329065412e+03 1.040246904916504456e-01 5.136667185919186612e-02 1.969173158001076007e-01
5.901888604353393021e+03 1.007870780283379730e-01 4.896544372117850319e-02 1.910367921855236628e-01
5.911891805377720630e+03 1.013895286700225717e-01 4.718961553418583171e-02 1.914939955285010764e-01
5.921895006402048239e+03 1.000432082977580489e-01 4.733216588161857225e-02 1.932288435746345179e-01
5.931898207426376757e+03 1.063545723856320763e-01 4.906967451071921754e-02 1.967716479154830167e-01
5.941901408450704366e+03 1.020419596678969476e-01 4.993607019995713325e-02 2.026910319101326574e-01
5.951904609475031975e+03 1.044302256582633065e-01 5.084412967650793480e-02 2.034226710680547556e-01
5.961907810499359584e+03 1.109839627792718608e-01 4.955597922324395110e-02 2.046226335474485014e-01
5.971911011523687193e+03 1.101143365758686793e-01 5.355000473461422883e-02 2.125612474310109579e-01
5.981914212548015712e+03 1.102706670475688544e-01 5.164689794594273103e-02 2.121392053658503474e-01
5.991917413572343321e+03 1.040271912932708848e-01 5.326879617854388127e-02 2.054415904817282201e-01
6.001920614596670930e+03 1.045771333686416199e-01 5.117892437996929278e-02 2.046924170062198456e-01
6.011923815620998539e+03 1.089660845752941087e-01 5.337215277203678776e-02 2.127291930430628697e-01
6.021927016645326148e+03 1.100474824304186888e-01 4.786770076482257247e-02 2.108153425943697090e-01
6.031930217669654667e+03 1.092732571277499481e-01 4.786571990824649292e-02 2.152064302152754405e-01
6.041933418693982276e+03 1.089674548900747553e-01 5.372142490822627570e-02 2.162073945120140395e-01
6.051936619718309885e+03 1.160683669123703798e-01 5.871460215566721985e-02 2.257850006425069778e-01
6.061939820742637494e+03 1.223461139549510412e-01 5.733633954168844415e-02 2.369238518487125356e-01
6.071943021766965103e+03 1.072789191332069875e-01 4.993018981655490685e-02 2.280507178271903301e-01
6.081946222791293621e+03 1.059907288588391033e-01 5.021140430854063169e-02 2.202767452477968901e-01
6.091949423815621230e+03 1.105412878074175098e-01 5.340477107377717553e-02 2.225020606324646655e-01
6.101952624839948840e+03 1.099132924643985154e-01 4.894397916173897495e-02 2.366236492027893323e-01
6.111955825864276449e+03 1.064170287976150542e-01 5.300968717932681706e-02 2.283955406302811131e-01
6.121959026888604058e+03 1.064191498779104711e-01 5.368386480383712661e-02 2.380973083958770053e-01
6.131962227912932576e+03 1.102655095338949537e-01 5.345591041195275200e-02 2.299269447385786647e-01
6.141965428937260185e+03 1.058092209208500584e-01 4.837995409043960998e-02 2.361979580586124616e-01
6.151968629961587794e+03 1.130875029178451951e-01 4.967388564477387414e-02 2.559227206949898914e-01
6.161971830985915403e+03 1.085292116317526645e-01 5.003314608361662114e-02 2.372721347568731154e-01
6.171975032010243012e+03 1.090846043922290842e-01 5.381802664765601707e-02 2.693142556665500953e-01
6.181978233034570621e+03 1.079779562620519912e-01 5.389062525873114518e-02 2.777536682328717865e-01
6.191981434058899140e+03 1.105649393662573726e-01 5.255514291950197370e-02 2.793260013086619753e-01
6.201984635083226749e+03 1.153900963156681281e-01 5.476612973194706913e-02 2.920664217214318237e-01
6.211987836107554358e+03 1.130300203559467392e-01 5.304319443775940696e-02 2.880352904576647388e-01
6.221991037131881967e+03 1.110922851622588720e-01 5.306276903665003986e-02 2.872907932625485272e-01
6.231994238156209576e+03 1.148857129875316269e-01 5.507881013846905455e-02 2.955958757419653304e-01
6.241997439180538095e+03 1.130180042681746544e-01 5.580557451268619573e-02 3.368319164013472977e-01
6.252000640204865704e+03 1.217896268878183863e-01 5.460191376264145191e-02 3.422644175389978338e-01
6.262003841229193313e+03 1.192591436533190219e-01 5.660543412351831671e-02 3.317180476823122226e-01
6.272007042253520922e+03 1.202306533073634748e-01 5.476526832036952147e-02 3.472388968270523346e-01
6.282010243277848531e+03 1.214693408242919631e-01 5.777947729125913062e-02 3.764612903476503014e-01
6.292013444302177049e+03 1.230445656240818503e-01 5.852039755476386163e-02 3.935360347483720656e-01
6.302016645326504658e+03 1.268329551710830616e-01 5.944701023711863874e-02 3.889240657790122846e-01
6.312019846350832267e+03 1.256908106074458020e-01 5.636064235566894121e-02 4.029736642574305305e-01
6.322023047375159877e+03 1.275044610633959408e-01 5.848179890937479919e-02 4.057077384188979008e-01
6.332026248399487486e+03 1.302973960827609745e-01 5.822499632294644151e-02 4.338095345090466348e-01
6.342029449423816004e+03 1.313446194867094186e-01 6.054657817127839792e-02 4.695311744469279902e-01
6.352032650448143613e+03 1.326697423380770458e-01 6.234243813677762397e-02 4.569995008601337450e-01
6.362035851472471222e+03 1.283937333284220494e-01 6.018060033498007222e-02 4.405599893747877971e-01
6.372039052496798831e+03 1.390539267902336507e-01 6.385907179785134391e-02 4.456937353404071267e-01
6.382042253521126440e+03 1.434567147527888165e-01 6.197168715567010627e-02 4.579426087682733626e-01
6.392045454545454959e+03 1.432669780789913583e-01 6.104556927457185228e-02 4.392428705409606726e-01
6.402048655569782568e+03 1.425784110048939624e-01 6.074391313451929508e-02 4.597877709705598392e-01
6.412051856594110177e+03 1.397694142096334580e-01 6.201886649179024630e-02 4.848171966029938273e-01
6.422055057618437786e+03 1.389007138506307137e-01 6.096069169202867483e-02 4.979543485380181211e-01
6.432058258642765395e+03 1.448902996395690645e-01 6.171861308378437383e-02 4.997117396606077233e-01
6.442061459667093914e+03 1.426593864168077541e-01 6.327355158709663252e-02 4.879135476394177995e-01
6.452064660691421523e+03 1.458109448467427016e-01 6.588337295147841943e-02 5.015331175521895446e-01
6.462067861715749132e+03 1.508540637320891498e-01 6.463921870714212092e-02 4.869810403249930086e-01
6.472071062740076741e+03 1.452109894184926420e-01 6.594479411388856627e-02 5.241973829791856110e-01
6.482074263764404350e+03 1.525241831955405913e-01 6.586416133625017100e-02 5.384659462756543613e-01
6.492077464788731959e+03 1.480804977602506733e-01 7.164148562108541007e-02 5.308503037211235176e-01
6.502080665813060477e+03 1.613995904455828023e-01 7.302028019840123285e-02 5.441211379657368008e-01
6.512083866837388086e+03 1.591094023728110152e-01 7.316096958354317836e-02 5.585532848449534793e-01
6.522087067861715695e+03 1.575547716824520217e-01 6.507672701379059454e-02 5.509794244996161217e-01
6.532090268886043305e+03 1.614788930619320273e-01 6.729882200765655020e-02 5.392133992023327993e-01
6.542093469910370914e+03 1.644790274617208004e-01 6.995273529654116862e-02 5.698544841126136351e-01
6.552096670934699432e+03 1.635535472487584518e-01 7.077328675209691722e-02 5.602136168758887758e-01
6.562099871959027041e+03 1.754438044629695326e-01 6.887184758604333878e-02 5.515523462512027519e-01
6.572103072983354650e+03 1.729971286605925529e-01 7.427840989567893737e-02 5.580659293942944466e-01
6.582106274007682259e+03 1.719182191844422503e-01 7.278967428320641531e-02 5.475262823702020665e-01
6.592109475032009868e+03 1.785882735153166978e-01 7.605456332540522224e-02 5.882379739357076476e-01
6.602112676056338387e+03 1.770012048415333661e-01 7.459144421560466587e-02 5.800237520290983939e-01
6.612115877080665996e+03 1.809577500849224307e-01 7.855328107409446925e-02 5.764052050487808998e-01
6.622119078104993605e+03 1.785177315448816804e-01 7.626766510424660972e-02 5.722720067996116544e-01
6.632122279129321214e+03 1.820862320146126034e-01 8.042737870993187099e-02 5.904949459874341278e-01
6.642125480153648823e+03 1.861351254285806833e-01 7.612569664239081380e-02 5.743105885813654110e-01
6.652128681177977342e+03 1.849900336320038086e-01 7.831023812366916248e-02 5.767661236369391320e-01
6.662131882202304951e+03 1.967381995370585668e-01 7.486603582099086995e-02 6.081703963961601067e-01
6.672135083226632560e+03 1.874000744418210795e-01 7.783339256888002766e-02 5.946717542780672883e-01
6.682138284250960169e+03 1.986659039924765502e-01 7.790243742804797700e-02 6.169762126902684773e-01
6.692141485275287778e+03 2.019175053184469881e-01 7.671134680201173450e-02 6.343934790033892712e-01
6.702144686299616296e+03 2.171467786310062043e-01 8.872828119352348109e-02 6.419509491475473562e-01
6.712147887323943905e+03 2.023179123243423472e-01 8.786414195773055436e-02 6.453422636888286323e-01
6.722151088348271514e+03 2.077722131166914454e-01 8.371235736554882845e-02 6.416759214159358793e-01
6.732154289372599123e+03 2.161572516391531695e-01 8.559808909713466363e-02 6.281645290934592119e-01
6.742157490396926733e+03 2.163780399275021249e-01 8.516924469558022348e-02 6.510999491754428936e-01
6.752160691421255251e+03 2.159534963303767208e-01 8.968875029650250075e-02 6.348431146864846886e-01
6.762163892445582860e+03 2.167709537401697473e-01 8.296933149081996139e-02 6.325494660663055768e-01
6.772167093469910469e+03 2.096662485565357892e-01 8.654589220619206269e-02 6.478021905745317000e-01
6.782170294494238078e+03 2.187882041422153645e-01 8.539334958866513781e-02 6.429345110558083443e-01
6.792173495518565687e+03 2.328441585100636813e-01 8.602794451400574971e-02 6.887967246624155937e-01
6.802176696542893296e+03 2.323790703847068706e-01 9.280963829828607625e-02 6.777355358009520270e-01
6.812179897567221815e+03 2.478024237117220085e-01 1.016661827929525447e-01 6.823991363609842598e-01
6.822183098591549424e+03 4.010953793378171373e-01 1.969546072877012555e-01 7.726372765550472144e-01
6.832186299615877033e+03 6.247748488232978126e-01 3.022687174119792486e-01 1.048095711241799677e+00
6.842189500640204642e+03 4.162035514530460500e-01 2.030256528747177436e-01 7.661321578739473948e-01
6.852192701664532251e+03 2.581479722702412216e-01 1.038429845453000266e-01 7.062519530530391165e-01
6.862195902688860770e+03 2.502774838423779125e-01 9.159392732604175469e-02 6.566450165686261720e-01
6.872199103713188379e+03 2.602986799625420233e-01 9.595194843322653322e-02 6.904645144545004110e-01
6.882202304737515988e+03 2.654361116912417606e-01 9.606098002718049811e-02 6.899630491560996282e-01
6.892205505761843597e+03 3.325943069652438910e-01 1.487286553170344416e-01 6.988989874380218126e-01
6.902208706786171206e+03 6.393555683180125460e-01 3.200924206543265815e-01 1.038133227902198641e+00
6.912211907810499724e+03 5.403801002051007440e-01 2.488088664939359929e-01 8.993966244012463473e-01
6.922215108834827333e+03 2.774209820128996085e-01 1.033068234116982231e-01 6.794430009917831192e-01
6.932218309859154942e+03 2.690815674121352363e-01 9.939354800766243836e-02 6.782827573034637680e-01
6.942221510883482551e+03 2.697532996235617042e-01 1.096289042965179900e-01 6.770277634521209009e-01
6.952224711907810160e+03 2.599090893070362118e-01 9.906092663455511038e-02 6.703009308958619572e-01
6.962227912932138679e+03 2.703823756848747206e-01 1.045189692834490314e-01 6.405495302751034181e-01
6.972231113956466288e+03 2.945719234338465831e-01 1.131115718486245675e-01 6.928985954294091254e-01
6.982234314980793897e+03 2.915863244259999654e-01 1.148275990823067888e-01 6.857445717871005764e-01
6.992237516005121506e+03 2.963216667768102108e-01 1.104304070219734035e-01 6.874061946749435714e-01
7.002240717029449115e+03 2.974837456707409289e-01 1.107477453137569456e-01 6.960039629164215258e-01
7.012243918053777634e+03 2.965657604890608590e-01 1.185340394167774397e-01 6.630824995998588767e-01
7.022247119078105243e+03 3.078748535065995440e-01 1.128254387303737755e-01 7.026716242607669027e-01
7.032250320102432852e+03 3.165942525199285096e-01 1.199612168400312900e-01 7.107727978533817659e-01
7.042253521126760461e+03 3.162900720140657818e-01 1.318139898909079233e-01 7.196561435180341970e-01
7.052256722151088070e+03 3.106898278640839450e-01 1.167972732370830408e-01 6.855434272094138581e-01
7.062259923175416588e+03 3.135350187230354080e-01 1.185182625361508035e-01 7.151309614321427199e-01
7.072263124199744198e+03 3.285792078389274673e-01 1.310636413590257343e-01 7.018117331145390381e-01
7.082266325224071807e+03 3.100106333094840849e-01 1.206451967624642962e-01 6.968649146914808190e-01
7.092269526248399416e+03 3.125784414758586149e-01 1.265984134411365924e-01 6.862620715206821931e-01
7.102272727272727025e+03 3.155772642705330644e-01 1.302108980137240690e-01 7.007487433878046845e-01
7.112275928297054634e+03 3.371422048768332735e-01 1.321093935736475655e-01 7.125540067085578411e-01
7.122279129321383152e+03 3.266915221185663354e-01 1.288898619821650660e-01 7.162134971915289361e-01
7.132282330345710761e+03 3.232856910457690969e-01 1.315851866918627822e-01 6.934909133525124503e-01
7.142285531370038370e+03 3.231368513628940509e-01 1.294443615291948901e-01 6.855716844461914317e-01
7.152288732394365979e+03 3.193874940348763736e-01 1.288403167155287021e-01 6.827176586539583925e-01
7.162291933418693588e+03 3.135445128102782308e-01 1.257411322967547096e-01 6.739364932812194064e-01
7.172295134443022107e+03 3.172597224275814365e-01 1.197794742707599114e-01 6.748663767317966133e-01
7.182298335467349716e+03 3.255472379747361700e-01 1.210868709301551188e-01 6.885719720219124484e-01
7.192301536491677325e+03 3.249739802848407022e-01 1.172946773589214897e-01 6.900609586307487886e-01
7.202304737516004934e+03 3.125204736033929676e-01 1.196090878372455674e-01 7.045885678291803345e-01
7.212307938540332543e+03 3.079864322025234746e-01 1.177156604262480366e-01 6.955290013827142293e-01
7.222311139564661062e+03 3.153546681873348745e-01 1.196459640864608459e-01 7.201128803694941682e-01
7.232314340588988671e+03 3.194232159443930463e-01 1.068244063888979800e-01 7.410737182118632971e-01
7.242317541613316280e+03 3.079394393645117356e-01 1.200400772812649508e-01 7.249269564662295107e-01
7.252320742637643889e+03 3.059946608101906107e-01 1.226583416255457720e-01 7.222791922813488474e-01
7.262323943661971498e+03 2.952709963752357947e-01 1.147278580986014485e-01 6.991094570287906818e-01
7.272327144686300016e+03 2.971540552523661560e-01 1.067294171797588120e-01 7.295393241381923355e-01
7.282330345710627626e+03 3.032390820580399549e-01 1.140057500674505758e-01 7.004088665163517025e-01
7.292333546734955235e+03 2.988441622711273116e-01 1.157448463230851959e-01 6.989307921987615302e-01
7.302336747759282844e+03 3.009853903795839947e-01 1.161426918781653383e-01 6.879974795052791192e-01
7.312339948783610453e+03 2.802683314052964447e-01 1.083326422728230071e-01 6.929605324678710376e-01
7.322343149807938971e+03 3.546005023761675257e-01 1.537593725568190128e-01 7.775796454670904634e-01
7.332346350832266580e+03 3.917816594985079059e-01 1.821905760173757882e-01 8.055497405746481210e-01
7.342349551856594189e+03 3.260617256512585160e-01 1.456914921890491987e-01 7.487193180390886438e-01
7.352352752880921798e+03 2.729060279598846117e-01 1.004422835752501741e-01 7.187749783569263862e-01
7.362355953905249407e+03 2.580162553180348484e-01 9.367593739839800981e-02 6.961895279643232071e-01
7.372359154929577926e+03 2.688317014403207028e-01 9.764827673842230160e-02 6.930183799825437863e-01
7.382362355953905535e+03 2.671475840235236765e-01 9.881566078584333446e-02 7.000258644876057312e-01
7.392365556978233144e+03 2.547420815274593631e-01 9.467501681894892329e-02 6.723184884558385255e-01
7.402368758002560753e+03 2.430725945518024123e-01 8.540361579829974792e-02 6.870469809737892453e-01
7.412371959026888362e+03 2.424968077430061097e-01 9.265958719164579804e-02 6.705010809045947040e-01
7.422375160051215971e+03 2.359710446777611714e-01 9.018360278364251359e-02 6.795123063267973773e-01
7.432378361075544490e+03 2.268598081932687860e-01 8.436633821945156708e-02 6.924626684613305327e-01
7.442381562099872099e+03 2.184511478804186113e-01 8.322250674653945690e-02 6.652406016184894133e-01
7.452384763124199708e+03 2.246742753400585713e-01 9.155327885286383693e-02 6.823573779226859148e-01
7.462387964148527317e+03 2.443671996719411765e-01 9.556932566117685990e-02 7.183744602997066409e-01
7.472391165172854926e+03 3.964230146046336389e-01 2.588042930374949702e-01 7.976928584808626876e-01
7.482394366197183444e+03 4.084822690072010265e-01 2.634829600199855015e-01 8.289558677672407283e-01
7.492397567221511054e+03 2.364260791550041596e-01 9.508339852666973513e-02 7.276095222807752450e-01
7.502400768245838663e+03 2.109158621473382622e-01 7.934769969920416055e-02 7.090766600433435762e-01
7.512403969270166272e+03 2.129299601518065688e-01 7.715476417591896063e-02 7.009936334645707756e-01
7.522407170294493881e+03 2.105067456295353356e-01 7.939436868682425708e-02 6.944592372016931137e-01
7.532410371318822399e+03 2.019087504517225740e-01 7.592918881803996378e-02 6.898697586753088640e-01
7.542413572343150008e+03 2.057644311488050493e-01 7.431445596188701597e-02 7.026564389408372913e-01
7.552416773367477617e+03 1.889802699858735002e-01 7.705011738703780588e-02 6.873202812991927591e-01
7.562419974391805226e+03 1.953702763235066475e-01 7.317509103658560721e-02 6.881046948399178742e-01
7.572423175416132835e+03 1.940452012802609538e-01 7.558724253466074516e-02 7.020378764117770620e-01
7.582426376440461354e+03 1.912899822804793315e-01 7.515909048920470237e-02 6.746533278140632861e-01
7.592429577464788963e+03 1.839240662056988718e-01 7.537967920891620877e-02 6.728521785515585441e-01
7.602432778489116572e+03 1.860906492026635495e-01 7.553428062322425918e-02 6.986631536633176598e-01
7.612435979513444181e+03 1.802231053721275178e-01 7.553888843215435245e-02 6.912089099447974450e-01
7.622439180537771790e+03 1.805094190401419219e-01 7.613192663430157214e-02 6.813884776350838113e-01
7.632442381562100309e+03 1.841429366607349738e-01 7.877886961339730654e-02 6.519499958392587224e-01
7.642445582586427918e+03 1.806366363262187358e-01 7.698590206202474140e-02 6.799800504577087068e-01
7.652448783610755527e+03 1.822793331620353452e-01 7.175938213794218201e-02 6.904319136061601858e-01
7.662451984635083136e+03 1.776948608910407512e-01 7.175690510710236447e-02 7.322650425503582916e-01
7.672455185659410745e+03 1.776113597412782019e-01 7.554818388808752505e-02 7.392678318214420674e-01
7.682458386683738354e+03 1.661111197576646825e-01 6.880828266912761282e-02 7.107513739764869110e-01
7.692461587708066872e+03 1.663706699851627002e-01 6.898539225182301338e-02 7.141186294987404981e-01
7.702464788732394481e+03 1.645837763826456801e-01 7.133462635111680050e-02 6.909212142331688788e-01
7.712467989756722091e+03 1.614353569126056875e-01 7.049215808367866043e-02 6.871498399328974660e-01
7.722471190781049700e+03 1.586880307619622787e-01 6.885308494990088901e-02 6.716071605073969941e-01
7.732474391805377309e+03 1.605152746262535901e-01 6.944306292392209146e-02 7.289275209060344096e-01
7.742477592829705827e+03 1.593931934227146852e-01 7.254785972974933661e-02 7.016976465222828363e-01
7.752480793854033436e+03 1.586035414991855963e-01 6.797312053902648810e-02 6.635889969721575632e-01
7.762483994878361045e+03 1.511850323986938804e-01 6.641437003150187091e-02 6.284376663305156763e-01
7.772487195902688654e+03 1.552740048023023012e-01 6.731056196070207831e-02 6.438419985708212501e-01
7.782490396927016263e+03 1.526624280874836759e-01 6.726570419745638019e-02 5.970076544930308371e-01
7.792493597951344782e+03 1.531735539791165834e-01 6.323126423295523379e-02 6.235202071515508759e-01
7.802496798975672391e+03 1.461361455178629698e-01 6.658713728403874155e-02 6.013839856569660469e-01
7.812500000000000000e+03 9.253757914001384255e-02 2.441103992173328588e-02 3.898047240077469056e-01
