# SR785 Measurement - Timestamp: Nov 02 2017 - 15:39:10
#---------- Measurement Setup ------------
# Start Frequency (Hz): 0.000000
# Frequency Span (Hz): 3200.000000
# Frequency Resolution: 800
# Number of Averages: 25
# Averaging Mode: RMS
# Window function: Hanning
#---------- Measurement Parameters ----------
# Measurement Group:  "FFT" "FFT"
# Measurements:  "FFT 1" "FFT 1"
# View:  "Log Magnitude" "Log Magnitude"
# Unit:  "Vrms/rtHz" "Vrms"
#---------- Input Parameters ----------
# Input Source: Analog
# Input Mode: Single ended, Single ended
# Input Grounding: Float, Float
# Input Coupling: DC, DC
# Input Range: -2.0dBVpk, -34.0dBVpk
# Auto Range: On, On
# Auto Range Mode: Up Only, Normal
# Anti-Aliasing Filter: On, On
#---------- Source Parameters ----------
# Source Type: Sine
# Source Amplitude: 500.0mVpk
# Source On: 0

#---------- Measurement Data ----------
# [Freq(Hz) Display 0(Vrms/rtHz) Display 1(Vrms) ]
+0.0000000e+000    +1.9851342e-001
+4.0000000e+000    +1.0041247e-001
+8.0000000e+000    +9.7821252e-003
+1.2000000e+001    +9.2514716e-003
+1.6000000e+001    +9.2235496e-003
+2.0000000e+001    +8.0864206e-003
+2.4000000e+001    +7.4250014e-003
+2.8000000e+001    +7.1958466e-003
+3.2000000e+001    +5.3720698e-003
+3.6000000e+001    +4.0258463e-003
+4.0000000e+001    +3.3558321e-003
+4.4000000e+001    +2.8919049e-003
+4.8000000e+001    +2.2479980e-003
+5.2000000e+001    +1.7279729e-003
+5.6000000e+001    +1.4523960e-003
+6.0000000e+001    +1.1751587e-003
+6.4000000e+001    +1.0882212e-003
+6.8000000e+001    +1.1529076e-003
+7.2000000e+001    +1.2126433e-003
+7.6000000e+001    +8.1096316e-004
+8.0000000e+001    +5.9615629e-004
+8.4000000e+001    +7.5411872e-004
+8.8000000e+001    +6.8049092e-004
+9.2000000e+001    +4.5473286e-004
+9.6000000e+001    +4.1613186e-004
+1.0000000e+002    +3.9644344e-004
+1.0400000e+002    +3.0845581e-004
+1.0800000e+002    +2.4953252e-004
+1.1200000e+002    +2.6388001e-004
+1.1600000e+002    +2.5763581e-004
+1.2000000e+002    +2.3070532e-004
+1.2400000e+002    +2.5015659e-004
+1.2800000e+002    +2.8080097e-004
+1.3200000e+002    +2.4770401e-004
+1.3600000e+002    +2.4618744e-004
+1.4000000e+002    +2.2701151e-004
+1.4400000e+002    +2.2198760e-004
+1.4800000e+002    +2.3101849e-004
+1.5200000e+002    +2.3809537e-004
+1.5600000e+002    +2.3356074e-004
+1.6000000e+002    +2.1539861e-004
+1.6400000e+002    +2.3071849e-004
+1.6800000e+002    +2.6453938e-004
+1.7200000e+002    +2.4601707e-004
+1.7600000e+002    +2.1821032e-004
+1.8000000e+002    +2.2964251e-004
+1.8400000e+002    +2.0664625e-004
+1.8800000e+002    +2.3235795e-004
+1.9200000e+002    +2.2862801e-004
+1.9600000e+002    +2.1665107e-004
+2.0000000e+002    +2.3449413e-004
+2.0400000e+002    +2.1749956e-004
+2.0800000e+002    +2.3250366e-004
+2.1200000e+002    +2.3235309e-004
+2.1600000e+002    +2.3294035e-004
+2.2000000e+002    +2.3705342e-004
+2.2400000e+002    +2.2332362e-004
+2.2800000e+002    +2.3311394e-004
+2.3200000e+002    +2.6164344e-004
+2.3600000e+002    +2.5002219e-004
+2.4000000e+002    +2.1732005e-004
+2.4400000e+002    +1.9342404e-004
+2.4800000e+002    +2.1878644e-004
+2.5200000e+002    +2.2358638e-004
+2.5600000e+002    +2.3037980e-004
+2.6000000e+002    +2.0816263e-004
+2.6400000e+002    +2.1431016e-004
+2.6800000e+002    +2.2051961e-004
+2.7200000e+002    +2.2350845e-004
+2.7600000e+002    +1.8590687e-004
+2.8000000e+002    +1.9846817e-004
+2.8400000e+002    +2.0432301e-004
+2.8800000e+002    +2.0365379e-004
+2.9200000e+002    +2.0011935e-004
+2.9600000e+002    +1.9414170e-004
+3.0000000e+002    +1.9353472e-004
+3.0400000e+002    +1.9258911e-004
+3.0800000e+002    +2.0327413e-004
+3.1200000e+002    +2.2380227e-004
+3.1600000e+002    +2.3231891e-004
+3.2000000e+002    +2.2958868e-004
+3.2400000e+002    +2.4738250e-004
+3.2800000e+002    +2.4779720e-004
+3.3200000e+002    +2.6469366e-004
+3.3600000e+002    +2.7194951e-004
+3.4000000e+002    +2.8797475e-004
+3.4400000e+002    +3.0013762e-004
+3.4800000e+002    +3.4202295e-004
+3.5200000e+002    +3.5244858e-004
+3.5600000e+002    +3.1181771e-004
+3.6000000e+002    +2.6898750e-004
+3.6400000e+002    +2.4109294e-004
+3.6800000e+002    +2.5286005e-004
+3.7200000e+002    +2.6297299e-004
+3.7600000e+002    +2.3188734e-004
+3.8000000e+002    +1.9888427e-004
+3.8400000e+002    +1.9704382e-004
+3.8800000e+002    +1.9340335e-004
+3.9200000e+002    +1.7051745e-004
+3.9600000e+002    +1.7906286e-004
+4.0000000e+002    +1.7645890e-004
+4.0400000e+002    +1.9016631e-004
+4.0800000e+002    +1.7150292e-004
+4.1200000e+002    +1.5201424e-004
+4.1600000e+002    +1.5133762e-004
+4.2000000e+002    +1.7661047e-004
+4.2400000e+002    +1.7439059e-004
+4.2800000e+002    +1.8880516e-004
+4.3200000e+002    +1.8720735e-004
+4.3600000e+002    +1.8711117e-004
+4.4000000e+002    +2.1466706e-004
+4.4400000e+002    +2.0338887e-004
+4.4800000e+002    +1.8386364e-004
+4.5200000e+002    +1.7976532e-004
+4.5600000e+002    +1.8113108e-004
+4.6000000e+002    +1.6666840e-004
+4.6400000e+002    +2.0342763e-004
+4.6800000e+002    +1.9555893e-004
+4.7200000e+002    +1.9577150e-004
+4.7600000e+002    +1.8480729e-004
+4.8000000e+002    +1.8292671e-004
+4.8400000e+002    +1.8345086e-004
+4.8800000e+002    +1.9649335e-004
+4.9200000e+002    +1.8811405e-004
+4.9600000e+002    +1.9926700e-004
+5.0000000e+002    +1.8280986e-004
+5.0400000e+002    +1.7172545e-004
+5.0800000e+002    +1.9398351e-004
+5.1200000e+002    +1.9691579e-004
+5.1600000e+002    +1.8831821e-004
+5.2000000e+002    +1.8959423e-004
+5.2400000e+002    +2.0195682e-004
+5.2800000e+002    +1.9201955e-004
+5.3200000e+002    +1.9489734e-004
+5.3600000e+002    +1.9468517e-004
+5.4000000e+002    +2.2243225e-004
+5.4400000e+002    +2.4567251e-004
+5.4800000e+002    +2.2525007e-004
+5.5200000e+002    +2.0733646e-004
+5.5600000e+002    +2.0647807e-004
+5.6000000e+002    +1.9630573e-004
+5.6400000e+002    +2.0203610e-004
+5.6800000e+002    +2.2515710e-004
+5.7200000e+002    +2.1221556e-004
+5.7600000e+002    +2.1212611e-004
+5.8000000e+002    +2.2320509e-004
+5.8400000e+002    +2.0007782e-004
+5.8800000e+002    +2.1695982e-004
+5.9200000e+002    +2.2416686e-004
+5.9600000e+002    +2.0610854e-004
+6.0000000e+002    +2.0703323e-004
+6.0400000e+002    +2.0213817e-004
+6.0800000e+002    +2.2012167e-004
+6.1200000e+002    +2.1892329e-004
+6.1600000e+002    +2.1723166e-004
+6.2000000e+002    +2.1497061e-004
+6.2400000e+002    +2.1803824e-004
+6.2800000e+002    +2.0332770e-004
+6.3200000e+002    +2.3855761e-004
+6.3600000e+002    +2.6066753e-004
+6.4000000e+002    +2.2650324e-004
+6.4400000e+002    +2.0973942e-004
+6.4800000e+002    +1.9963829e-004
+6.5200000e+002    +2.0300291e-004
+6.5600000e+002    +1.8210769e-004
+6.6000000e+002    +1.8583096e-004
+6.6400000e+002    +1.8903436e-004
+6.6800000e+002    +2.0413431e-004
+6.7200000e+002    +2.3399929e-004
+6.7600000e+002    +2.3610712e-004
+6.8000000e+002    +2.0980506e-004
+6.8400000e+002    +1.9484876e-004
+6.8800000e+002    +2.1132920e-004
+6.9200000e+002    +2.2138179e-004
+6.9600000e+002    +2.1743425e-004
+7.0000000e+002    +2.0511961e-004
+7.0400000e+002    +2.0067536e-004
+7.0800000e+002    +1.9044828e-004
+7.1200000e+002    +2.0958070e-004
+7.1600000e+002    +2.2240600e-004
+7.2000000e+002    +2.5822158e-004
+7.2400000e+002    +2.5318895e-004
+7.2800000e+002    +2.2837486e-004
+7.3200000e+002    +2.1925525e-004
+7.3600000e+002    +2.3500368e-004
+7.4000000e+002    +2.2604312e-004
+7.4400000e+002    +1.8573784e-004
+7.4800000e+002    +1.8910266e-004
+7.5200000e+002    +2.2989578e-004
+7.5600000e+002    +2.3250456e-004
+7.6000000e+002    +2.1687597e-004
+7.6400000e+002    +2.2622499e-004
+7.6800000e+002    +2.4011024e-004
+7.7200000e+002    +2.2759625e-004
+7.7600000e+002    +2.4351882e-004
+7.8000000e+002    +2.3369516e-004
+7.8400000e+002    +2.2651965e-004
+7.8800000e+002    +2.1374512e-004
+7.9200000e+002    +2.0929555e-004
+7.9600000e+002    +2.2603021e-004
+8.0000000e+002    +2.2456358e-004
+8.0400000e+002    +1.9653175e-004
+8.0800000e+002    +1.9900659e-004
+8.1200000e+002    +1.9812353e-004
+8.1600000e+002    +2.2491459e-004
+8.2000000e+002    +2.2062278e-004
+8.2400000e+002    +1.9299786e-004
+8.2800000e+002    +1.7895593e-004
+8.3200000e+002    +1.6979463e-004
+8.3600000e+002    +1.7066429e-004
+8.4000000e+002    +1.8523318e-004
+8.4400000e+002    +1.8141262e-004
+8.4800000e+002    +1.8832534e-004
+8.5200000e+002    +1.9433876e-004
+8.5600000e+002    +2.0893291e-004
+8.6000000e+002    +1.8789523e-004
+8.6400000e+002    +1.9539238e-004
+8.6800000e+002    +1.9570843e-004
+8.7200000e+002    +1.8318961e-004
+8.7600000e+002    +1.9211540e-004
+8.8000000e+002    +1.9580461e-004
+8.8400000e+002    +1.6499929e-004
+8.8800000e+002    +1.9091494e-004
+8.9200000e+002    +1.9977138e-004
+8.9600000e+002    +1.7873572e-004
+9.0000000e+002    +2.0760296e-004
+9.0400000e+002    +2.0344784e-004
+9.0800000e+002    +2.1341366e-004
+9.1200000e+002    +2.2130135e-004
+9.1600000e+002    +2.0471025e-004
+9.2000000e+002    +2.0867064e-004
+9.2400000e+002    +1.8460216e-004
+9.2800000e+002    +1.9205340e-004
+9.3200000e+002    +2.0729343e-004
+9.3600000e+002    +2.1339128e-004
+9.4000000e+002    +2.0342115e-004
+9.4400000e+002    +1.8259602e-004
+9.4800000e+002    +1.7066028e-004
+9.5200000e+002    +1.7808849e-004
+9.5600000e+002    +2.0506523e-004
+9.6000000e+002    +2.0236823e-004
+9.6400000e+002    +2.2526356e-004
+9.6800000e+002    +2.1221684e-004
+9.7200000e+002    +1.7487924e-004
+9.7600000e+002    +1.9893669e-004
+9.8000000e+002    +1.8315733e-004
+9.8400000e+002    +1.6763576e-004
+9.8800000e+002    +1.6054082e-004
+9.9200000e+002    +1.7284510e-004
+9.9600000e+002    +1.7796936e-004
+1.0000000e+003    +2.0168547e-004
+1.0040000e+003    +1.9192092e-004
+1.0080000e+003    +1.8584187e-004
+1.0120000e+003    +1.9331311e-004
+1.0160000e+003    +1.7581413e-004
+1.0200000e+003    +1.8826860e-004
+1.0240000e+003    +1.6721121e-004
+1.0280000e+003    +1.4144460e-004
+1.0320000e+003    +1.6704111e-004
+1.0360000e+003    +1.9664831e-004
+1.0400000e+003    +1.9423616e-004
+1.0440000e+003    +1.8295794e-004
+1.0480000e+003    +1.6622641e-004
+1.0520000e+003    +1.6916791e-004
+1.0560000e+003    +1.8147168e-004
+1.0600000e+003    +1.7463593e-004
+1.0640000e+003    +1.7019098e-004
+1.0680000e+003    +1.7288658e-004
+1.0720000e+003    +1.7507443e-004
+1.0760000e+003    +1.5709529e-004
+1.0800000e+003    +1.5857401e-004
+1.0840000e+003    +1.7173149e-004
+1.0880000e+003    +1.6922930e-004
+1.0920000e+003    +1.4984795e-004
+1.0960000e+003    +1.7162460e-004
+1.1000000e+003    +1.7133476e-004
+1.1040000e+003    +1.6878766e-004
+1.1080000e+003    +1.7707879e-004
+1.1120000e+003    +1.6462634e-004
+1.1160000e+003    +1.3983752e-004
+1.1200000e+003    +1.6720378e-004
+1.1240000e+003    +1.8169338e-004
+1.1280000e+003    +1.6201408e-004
+1.1320000e+003    +1.6254219e-004
+1.1360000e+003    +1.5483305e-004
+1.1400000e+003    +1.6073669e-004
+1.1440000e+003    +1.5968908e-004
+1.1480000e+003    +1.5316102e-004
+1.1520000e+003    +1.7576337e-004
+1.1560000e+003    +1.9558459e-004
+1.1600000e+003    +1.8261306e-004
+1.1640000e+003    +1.9205888e-004
+1.1680000e+003    +1.9175252e-004
+1.1720000e+003    +1.7240283e-004
+1.1760000e+003    +1.6765895e-004
+1.1800000e+003    +1.6267717e-004
+1.1840000e+003    +1.6603079e-004
+1.1880000e+003    +1.5540532e-004
+1.1920000e+003    +1.5643323e-004
+1.1960000e+003    +1.5265106e-004
+1.2000000e+003    +1.6898171e-004
+1.2040000e+003    +1.8634440e-004
+1.2080000e+003    +1.6921165e-004
+1.2120000e+003    +1.6279741e-004
+1.2160000e+003    +1.6950350e-004
+1.2200000e+003    +1.6520241e-004
+1.2240000e+003    +1.3685893e-004
+1.2280000e+003    +1.5064862e-004
+1.2320000e+003    +1.7428673e-004
+1.2360000e+003    +1.6251694e-004
+1.2400000e+003    +1.4988967e-004
+1.2440000e+003    +1.6036905e-004
+1.2480000e+003    +1.4209322e-004
+1.2520000e+003    +1.2933023e-004
+1.2560000e+003    +1.4513335e-004
+1.2600000e+003    +1.5880079e-004
+1.2640000e+003    +1.5308906e-004
+1.2680000e+003    +1.5315227e-004
+1.2720000e+003    +1.3914112e-004
+1.2760000e+003    +1.4986441e-004
+1.2800000e+003    +1.7089184e-004
+1.2840000e+003    +1.7227946e-004
+1.2880000e+003    +1.4762378e-004
+1.2920000e+003    +1.6079131e-004
+1.2960000e+003    +1.4361770e-004
+1.3000000e+003    +1.3719828e-004
+1.3040000e+003    +1.5594689e-004
+1.3080000e+003    +1.5190280e-004
+1.3120000e+003    +1.3883835e-004
+1.3160000e+003    +1.3497677e-004
+1.3200000e+003    +1.4318361e-004
+1.3240000e+003    +1.4356709e-004
+1.3280000e+003    +1.3994196e-004
+1.3320000e+003    +1.4405951e-004
+1.3360000e+003    +1.6634371e-004
+1.3400000e+003    +1.5611194e-004
+1.3440000e+003    +1.3843369e-004
+1.3480000e+003    +1.3935685e-004
+1.3520000e+003    +1.3744562e-004
+1.3560000e+003    +1.4854647e-004
+1.3600000e+003    +1.4679696e-004
+1.3640000e+003    +1.2804988e-004
+1.3680000e+003    +1.2780086e-004
+1.3720000e+003    +1.3597994e-004
+1.3760000e+003    +1.5029787e-004
+1.3800000e+003    +1.6259003e-004
+1.3840000e+003    +1.4579369e-004
+1.3880000e+003    +1.5996159e-004
+1.3920000e+003    +1.4457203e-004
+1.3960000e+003    +1.3009267e-004
+1.4000000e+003    +1.3598113e-004
+1.4040000e+003    +1.2657081e-004
+1.4080000e+003    +1.3905842e-004
+1.4120000e+003    +1.3113805e-004
+1.4160000e+003    +1.2942227e-004
+1.4200000e+003    +1.4227071e-004
+1.4240000e+003    +1.5088551e-004
+1.4280000e+003    +1.3961537e-004
+1.4320000e+003    +1.2295778e-004
+1.4360000e+003    +1.3266773e-004
+1.4400000e+003    +1.3771851e-004
+1.4440000e+003    +1.4989584e-004
+1.4480000e+003    +1.4231617e-004
+1.4520000e+003    +1.3630887e-004
+1.4560000e+003    +1.3368616e-004
+1.4600000e+003    +1.3240791e-004
+1.4640000e+003    +1.3630639e-004
+1.4680000e+003    +1.4747838e-004
+1.4720000e+003    +1.2424387e-004
+1.4760000e+003    +1.2476723e-004
+1.4800000e+003    +1.2910055e-004
+1.4840000e+003    +1.2263151e-004
+1.4880000e+003    +1.2439901e-004
+1.4920000e+003    +1.2826531e-004
+1.4960000e+003    +1.2496240e-004
+1.5000000e+003    +1.1653319e-004
+1.5040000e+003    +1.2076766e-004
+1.5080000e+003    +1.2394358e-004
+1.5120000e+003    +1.2620079e-004
+1.5160000e+003    +1.5308124e-004
+1.5200000e+003    +1.4145726e-004
+1.5240000e+003    +1.2595224e-004
+1.5280000e+003    +1.1783603e-004
+1.5320000e+003    +1.3213350e-004
+1.5360000e+003    +1.2677637e-004
+1.5400000e+003    +1.2855307e-004
+1.5440000e+003    +1.2052406e-004
+1.5480000e+003    +1.5236114e-004
+1.5520000e+003    +1.3744381e-004
+1.5560000e+003    +1.3251393e-004
+1.5600000e+003    +1.3685292e-004
+1.5640000e+003    +1.3653436e-004
+1.5680000e+003    +1.3938922e-004
+1.5720000e+003    +1.3483538e-004
+1.5760000e+003    +1.3190215e-004
+1.5800000e+003    +1.2667375e-004
+1.5840000e+003    +1.4089799e-004
+1.5880000e+003    +1.2389208e-004
+1.5920000e+003    +1.0997165e-004
+1.5960000e+003    +1.1817971e-004
+1.6000000e+003    +1.2474129e-004
+1.6040000e+003    +1.3329476e-004
+1.6080000e+003    +1.2504721e-004
+1.6120000e+003    +1.3110343e-004
+1.6160000e+003    +1.2686841e-004
+1.6200000e+003    +1.2313720e-004
+1.6240000e+003    +1.1903136e-004
+1.6280000e+003    +1.0577129e-004
+1.6320000e+003    +1.1881370e-004
+1.6360000e+003    +1.2029786e-004
+1.6400000e+003    +9.0547263e-005
+1.6440000e+003    +9.2663853e-005
+1.6480000e+003    +1.1781003e-004
+1.6520000e+003    +1.2041785e-004
+1.6560000e+003    +1.0690778e-004
+1.6600000e+003    +1.1339752e-004
+1.6640000e+003    +1.1406471e-004
+1.6680000e+003    +1.2460344e-004
+1.6720000e+003    +1.4350571e-004
+1.6760000e+003    +1.2790241e-004
+1.6800000e+003    +1.2481924e-004
+1.6840000e+003    +1.3228990e-004
+1.6880000e+003    +1.0902202e-004
+1.6920000e+003    +1.0515568e-004
+1.6960000e+003    +1.1403410e-004
+1.7000000e+003    +1.0403941e-004
+1.7040000e+003    +1.1629290e-004
+1.7080000e+003    +1.1755296e-004
+1.7120000e+003    +1.1481270e-004
+1.7160000e+003    +1.1484800e-004
+1.7200000e+003    +1.1018854e-004
+1.7240000e+003    +1.0506168e-004
+1.7280000e+003    +1.2166549e-004
+1.7320000e+003    +1.1869967e-004
+1.7360000e+003    +1.0973639e-004
+1.7400000e+003    +1.1925447e-004
+1.7440000e+003    +1.1847482e-004
+1.7480000e+003    +9.9917357e-005
+1.7520000e+003    +1.0025065e-004
+1.7560000e+003    +1.1013338e-004
+1.7600000e+003    +1.2061368e-004
+1.7640000e+003    +1.1765762e-004
+1.7680000e+003    +1.1541045e-004
+1.7720000e+003    +1.1414790e-004
+1.7760000e+003    +9.3876748e-005
+1.7800000e+003    +9.9649485e-005
+1.7840000e+003    +1.0599014e-004
+1.7880000e+003    +1.0652494e-004
+1.7920000e+003    +1.1460092e-004
+1.7960000e+003    +1.0731870e-004
+1.8000000e+003    +9.5886433e-005
+1.8040000e+003    +1.0398596e-004
+1.8080000e+003    +1.1596394e-004
+1.8120000e+003    +1.1683740e-004
+1.8160000e+003    +1.2405850e-004
+1.8200000e+003    +1.1329461e-004
+1.8240000e+003    +1.1121242e-004
+1.8280000e+003    +1.1358712e-004
+1.8320000e+003    +1.0357972e-004
+1.8360000e+003    +1.0542948e-004
+1.8400000e+003    +9.7761877e-005
+1.8440000e+003    +1.1222056e-004
+1.8480000e+003    +1.0810277e-004
+1.8520000e+003    +1.1409671e-004
+1.8560000e+003    +1.1159901e-004
+1.8600000e+003    +1.1075620e-004
+1.8640000e+003    +1.1462981e-004
+1.8680000e+003    +1.0365681e-004
+1.8720000e+003    +9.9942590e-005
+1.8760000e+003    +1.0072872e-004
+1.8800000e+003    +9.6770193e-005
+1.8840000e+003    +9.4225361e-005
+1.8880000e+003    +1.0070810e-004
+1.8920000e+003    +1.0331094e-004
+1.8960000e+003    +1.0241956e-004
+1.9000000e+003    +1.1465781e-004
+1.9040000e+003    +1.0439263e-004
+1.9080000e+003    +9.3516988e-005
+1.9120000e+003    +9.5549185e-005
+1.9160000e+003    +9.7352058e-005
+1.9200000e+003    +1.0225466e-004
+1.9240000e+003    +1.1314630e-004
+1.9280000e+003    +1.0962506e-004
+1.9320000e+003    +9.9836536e-005
+1.9360000e+003    +1.0328083e-004
+1.9400000e+003    +9.4595220e-005
+1.9440000e+003    +9.4834191e-005
+1.9480000e+003    +1.0426691e-004
+1.9520000e+003    +1.0720499e-004
+1.9560000e+003    +1.0854426e-004
+1.9600000e+003    +1.0011496e-004
+1.9640000e+003    +8.9647954e-005
+1.9680000e+003    +9.6256466e-005
+1.9720000e+003    +4.8285732e-005
+1.9760000e+003    +6.9944908e-005
+1.9800000e+003    +1.3071865e-004
+1.9840000e+003    +1.8537825e-004
+1.9880000e+003    +2.3913704e-004
+1.9920000e+003    +1.8446114e-004
+1.9960000e+003    +1.0533317e-004
+2.0000000e+003    +5.6342535e-005
+2.0040000e+003    +1.7795118e-004
+2.0080000e+003    +6.1417675e-005
+2.0120000e+003    +9.4939314e-005
+2.0160000e+003    +5.7749920e-005
+2.0200000e+003    +1.2014975e-004
+2.0240000e+003    +1.1911151e-004
+2.0280000e+003    +1.7829951e-004
+2.0320000e+003    +7.4624986e-005
+2.0360000e+003    +4.4412554e-005
+2.0400000e+003    +9.9157813e-005
+2.0440000e+003    +9.9595563e-005
+2.0480000e+003    +6.2552353e-005
+2.0520000e+003    +7.7822071e-005
+2.0560000e+003    +8.4054052e-005
+2.0600000e+003    +1.0760896e-004
+2.0640000e+003    +9.8707998e-005
+2.0680000e+003    +9.3324154e-005
+2.0720000e+003    +1.3315141e-004
+2.0760000e+003    +5.2761163e-005
+2.0800000e+003    +8.8356115e-005
+2.0840000e+003    +8.7435263e-005
+2.0880000e+003    +4.9143742e-005
+2.0920000e+003    +9.0405010e-005
+2.0960000e+003    +1.2932895e-004
+2.1000000e+003    +8.6980072e-005
+2.1040000e+003    +6.7016226e-005
+2.1080000e+003    +8.9930203e-005
+2.1120000e+003    +1.1610898e-004
+2.1160000e+003    +1.1295354e-004
+2.1200000e+003    +1.0802464e-004
+2.1240000e+003    +8.2361417e-005
+2.1280000e+003    +7.8604469e-005
+2.1320000e+003    +1.3268230e-004
+2.1360000e+003    +1.1824428e-004
+2.1400000e+003    +1.3020483e-004
+2.1440000e+003    +1.1124455e-004
+2.1480000e+003    +9.1026122e-005
+2.1520000e+003    +9.1067806e-005
+2.1560000e+003    +1.0885761e-004
+2.1600000e+003    +8.8032786e-005
+2.1640000e+003    +4.6894416e-005
+2.1680000e+003    +6.2929168e-005
+2.1720000e+003    +7.7350567e-005
+2.1760000e+003    +9.7293610e-005
+2.1800000e+003    +8.4115352e-005
+2.1840000e+003    +8.4087464e-005
+2.1880000e+003    +1.0029573e-004
+2.1920000e+003    +7.7762110e-005
+2.1960000e+003    +8.4107778e-005
+2.2000000e+003    +9.1828988e-005
+2.2040000e+003    +9.1598391e-005
+2.2080000e+003    +9.6128351e-005
+2.2120000e+003    +5.4871820e-005
+2.2160000e+003    +6.1407292e-005
+2.2200000e+003    +8.4011517e-005
+2.2240000e+003    +7.7595207e-005
+2.2280000e+003    +9.6819720e-005
+2.2320000e+003    +9.4629911e-005
+2.2360000e+003    +1.0117774e-004
+2.2400000e+003    +7.6230826e-005
+2.2440000e+003    +4.7710360e-005
+2.2480000e+003    +6.5756445e-005
+2.2520000e+003    +7.6942546e-005
+2.2560000e+003    +7.4924406e-005
+2.2600000e+003    +7.9074940e-005
+2.2640000e+003    +8.5795786e-005
+2.2680000e+003    +7.9111502e-005
+2.2720000e+003    +7.4974276e-005
+2.2760000e+003    +9.1579481e-005
+2.2800000e+003    +1.0180729e-004
+2.2840000e+003    +8.4755113e-005
+2.2880000e+003    +8.1517363e-005
+2.2920000e+003    +8.3626735e-005
+2.2960000e+003    +9.4995099e-005
+2.3000000e+003    +9.0039379e-005
+2.3040000e+003    +6.1158127e-005
+2.3080000e+003    +6.2865009e-005
+2.3120000e+003    +7.2805073e-005
+2.3160000e+003    +7.8732650e-005
+2.3200000e+003    +1.0547499e-004
+2.3240000e+003    +8.6250657e-005
+2.3280000e+003    +6.3223430e-005
+2.3320000e+003    +7.6527191e-005
+2.3360000e+003    +8.4877480e-005
+2.3400000e+003    +8.7070744e-005
+2.3440000e+003    +7.8059202e-005
+2.3480000e+003    +7.3180941e-005
+2.3520000e+003    +7.8902442e-005
+2.3560000e+003    +8.2751911e-005
+2.3600000e+003    +8.4316096e-005
+2.3640000e+003    +9.4556483e-005
+2.3680000e+003    +8.5605898e-005
+2.3720000e+003    +7.3192190e-005
+2.3760000e+003    +7.5606331e-005
+2.3800000e+003    +7.7300305e-005
+2.3840000e+003    +8.8847482e-005
+2.3880000e+003    +9.0495581e-005
+2.3920000e+003    +8.2141247e-005
+2.3960000e+003    +9.1084112e-005
+2.4000000e+003    +7.0030903e-005
+2.4040000e+003    +7.4702621e-005
+2.4080000e+003    +9.5173302e-005
+2.4120000e+003    +7.1209375e-005
+2.4160000e+003    +6.0896742e-005
+2.4200000e+003    +7.4871197e-005
+2.4240000e+003    +7.0781505e-005
+2.4280000e+003    +6.2624786e-005
+2.4320000e+003    +7.0333888e-005
+2.4360000e+003    +7.2676405e-005
+2.4400000e+003    +6.4227868e-005
+2.4440000e+003    +7.1038507e-005
+2.4480000e+003    +8.1772843e-005
+2.4520000e+003    +7.9187797e-005
+2.4560000e+003    +7.8710698e-005
+2.4600000e+003    +5.9130816e-005
+2.4640000e+003    +6.0900955e-005
+2.4680000e+003    +7.2283605e-005
+2.4720000e+003    +6.5307184e-005
+2.4760000e+003    +6.7328423e-005
+2.4800000e+003    +6.3557440e-005
+2.4840000e+003    +7.3009680e-005
+2.4880000e+003    +7.7830191e-005
+2.4920000e+003    +9.4728355e-005
+2.4960000e+003    +9.1143935e-005
+2.5000000e+003    +8.3277824e-005
+2.5040000e+003    +7.5133234e-005
+2.5080000e+003    +6.7171735e-005
+2.5120000e+003    +8.1968268e-005
+2.5160000e+003    +8.3403000e-005
+2.5200000e+003    +6.9013404e-005
+2.5240000e+003    +7.0014597e-005
+2.5280000e+003    +7.4482065e-005
+2.5320000e+003    +6.6027671e-005
+2.5360000e+003    +6.2243649e-005
+2.5400000e+003    +6.6923873e-005
+2.5440000e+003    +7.6907076e-005
+2.5480000e+003    +6.8844187e-005
+2.5520000e+003    +6.5882843e-005
+2.5560000e+003    +6.8631278e-005
+2.5600000e+003    +6.7771194e-005
+2.5640000e+003    +7.4581490e-005
+2.5680000e+003    +7.7334094e-005
+2.5720000e+003    +5.8790756e-005
+2.5760000e+003    +5.9317244e-005
+2.5800000e+003    +6.2708314e-005
+2.5840000e+003    +6.8871399e-005
+2.5880000e+003    +6.6898458e-005
+2.5920000e+003    +5.7241428e-005
+2.5960000e+003    +6.6180015e-005
+2.6000000e+003    +7.1838709e-005
+2.6040000e+003    +6.5885804e-005
+2.6080000e+003    +6.2878193e-005
+2.6120000e+003    +6.5893619e-005
+2.6160000e+003    +7.4115538e-005
+2.6200000e+003    +7.8307799e-005
+2.6240000e+003    +7.5119708e-005
+2.6280000e+003    +6.0105402e-005
+2.6320000e+003    +5.3998636e-005
+2.6360000e+003    +7.8094090e-005
+2.6400000e+003    +6.9470392e-005
+2.6440000e+003    +7.5170283e-005
+2.6480000e+003    +6.7153152e-005
+2.6520000e+003    +7.2587172e-005
+2.6560000e+003    +6.1682586e-005
+2.6600000e+003    +6.4207212e-005
+2.6640000e+003    +6.7158981e-005
+2.6680000e+003    +5.9952690e-005
+2.6720000e+003    +6.0655715e-005
+2.6760000e+003    +6.5407505e-005
+2.6800000e+003    +6.7321474e-005
+2.6840000e+003    +6.1565603e-005
+2.6880000e+003    +6.3985950e-005
+2.6920000e+003    +6.6601999e-005
+2.6960000e+003    +6.6608802e-005
+2.7000000e+003    +6.3278290e-005
+2.7040000e+003    +7.2250834e-005
+2.7080000e+003    +6.5697990e-005
+2.7120000e+003    +7.6752287e-005
+2.7160000e+003    +7.7768178e-005
+2.7200000e+003    +7.0120383e-005
+2.7240000e+003    +6.9570233e-005
+2.7280000e+003    +7.9703488e-005
+2.7320000e+003    +6.8554538e-005
+2.7360000e+003    +6.0477032e-005
+2.7400000e+003    +6.7923756e-005
+2.7440000e+003    +6.9396978e-005
+2.7480000e+003    +6.4203334e-005
+2.7520000e+003    +6.5905122e-005
+2.7560000e+003    +6.9096503e-005
+2.7600000e+003    +6.6755376e-005
+2.7640000e+003    +6.4211512e-005
+2.7680000e+003    +6.3706182e-005
+2.7720000e+003    +6.2159510e-005
+2.7760000e+003    +5.9580812e-005
+2.7800000e+003    +5.8151469e-005
+2.7840000e+003    +6.3122228e-005
+2.7880000e+003    +5.0692939e-005
+2.7920000e+003    +4.9986589e-005
+2.7960000e+003    +6.3636202e-005
+2.8000000e+003    +6.2500454e-005
+2.8040000e+003    +5.9097325e-005
+2.8080000e+003    +5.6313034e-005
+2.8120000e+003    +5.4870252e-005
+2.8160000e+003    +6.0718481e-005
+2.8200000e+003    +6.4431006e-005
+2.8240000e+003    +6.4795226e-005
+2.8280000e+003    +5.9621780e-005
+2.8320000e+003    +5.7044359e-005
+2.8360000e+003    +6.2622792e-005
+2.8400000e+003    +5.8289992e-005
+2.8440000e+003    +5.7328478e-005
+2.8480000e+003    +5.3137359e-005
+2.8520000e+003    +5.2401552e-005
+2.8560000e+003    +6.3314430e-005
+2.8600000e+003    +6.1586965e-005
+2.8640000e+003    +6.2144500e-005
+2.8680000e+003    +5.8447840e-005
+2.8720000e+003    +5.7515790e-005
+2.8760000e+003    +5.4713179e-005
+2.8800000e+003    +5.3299977e-005
+2.8840000e+003    +5.4641077e-005
+2.8880000e+003    +5.5359626e-005
+2.8920000e+003    +5.3569558e-005
+2.8960000e+003    +5.4812026e-005
+2.9000000e+003    +5.4414057e-005
+2.9040000e+003    +5.3163447e-005
+2.9080000e+003    +5.5695797e-005
+2.9120000e+003    +5.4475986e-005
+2.9160000e+003    +5.1991330e-005
+2.9200000e+003    +5.2228828e-005
+2.9240000e+003    +4.6929956e-005
+2.9280000e+003    +5.4874952e-005
+2.9320000e+003    +5.4436463e-005
+2.9360000e+003    +5.1299714e-005
+2.9400000e+003    +5.3075495e-005
+2.9440000e+003    +5.5245291e-005
+2.9480000e+003    +5.3858126e-005
+2.9520000e+003    +5.1165443e-005
+2.9560000e+003    +4.8844009e-005
+2.9600000e+003    +4.8133075e-005
+2.9640000e+003    +5.6574248e-005
+2.9680000e+003    +5.4137428e-005
+2.9720000e+003    +5.0877505e-005
+2.9760000e+003    +4.8988375e-005
+2.9800000e+003    +5.3824311e-005
+2.9840000e+003    +5.2776981e-005
+2.9880000e+003    +6.5032487e-005
+2.9920000e+003    +5.9199090e-005
+2.9960000e+003    +5.5018780e-005
+3.0000000e+003    +6.5125096e-005
+3.0040000e+003    +5.6756540e-005
+3.0080000e+003    +5.3751261e-005
+3.0120000e+003    +5.3077125e-005
+3.0160000e+003    +5.4233333e-005
+3.0200000e+003    +6.2842373e-005
+3.0240000e+003    +5.6948051e-005
+3.0280000e+003    +5.5044882e-005
+3.0320000e+003    +5.6344266e-005
+3.0360000e+003    +5.6796314e-005
+3.0400000e+003    +6.0531238e-005
+3.0440000e+003    +5.7578025e-005
+3.0480000e+003    +4.9885322e-005
+3.0520000e+003    +5.0304159e-005
+3.0560000e+003    +5.5029956e-005
+3.0600000e+003    +5.2966341e-005
+3.0640000e+003    +5.2793905e-005
+3.0680000e+003    +5.0397477e-005
+3.0720000e+003    +4.6967070e-005
+3.0760000e+003    +5.3631116e-005
+3.0800000e+003    +5.1818712e-005
+3.0840000e+003    +4.7092908e-005
+3.0880000e+003    +5.5283639e-005
+3.0920000e+003    +5.2809555e-005
+3.0960000e+003    +5.0669347e-005
+3.1000000e+003    +4.7737136e-005
+3.1040000e+003    +4.9984887e-005
+3.1080000e+003    +5.0888568e-005
+3.1120000e+003    +5.0831441e-005
+3.1160000e+003    +5.2198160e-005
+3.1200000e+003    +5.1636853e-005
+3.1240000e+003    +5.3551739e-005
+3.1280000e+003    +5.2696494e-005
+3.1320000e+003    +5.2993099e-005
+3.1360000e+003    +5.4889959e-005
+3.1400000e+003    +5.1689211e-005
+3.1440000e+003    +5.2351174e-005
+3.1480000e+003    +4.9162849e-005
+3.1520000e+003    +5.0985767e-005
+3.1560000e+003    +5.2022908e-005
+3.1600000e+003    +5.3528052e-005
+3.1640000e+003    +5.3568794e-005
+3.1680000e+003    +4.3949589e-005
+3.1720000e+003    +5.2213749e-005
+3.1760000e+003    +4.6808662e-005
+3.1800000e+003    +4.9732578e-005
+3.1840000e+003    +4.7976424e-005
+3.1880000e+003    +4.1076153e-005
+3.1920000e+003    +4.5235804e-005
+3.1960000e+003    +5.1330251e-005
