# North DC Val: 0.51148905 VoltsSouth DC Val: 0.52946673 Volts
# SR785 Measurement - Timestamp: Aug 31 2020 - 11:53:41
# Parameter File: /home/controls/Git/cit_ctnlab/ctn_scripts/TransRINSpecLong.yml
#---------- Measurement Setup ------------
# Start Frequency (Hz): 0.000000
# Frequency Span (Hz): 800.000000
# Frequency Resolution: 800
# Number of Averages: 100
# Averaging Mode: RMS
# Window function: Hanning
#---------- Measurement Parameters ----------
# Measurement Group:  "FFT" "FFT"
# Measurements:  "FFT 1" "FFT 2"
# View:  "Log Magnitude" "Log Magnitude"
# Unit:  "Vrms/rtHz" "Vrms/rtHz"
#---------- Input Parameters ----------
# Input Source: Analog
# Input Mode: Single ended, Single ended
# Input Grounding: Float, Float
# Input Coupling: AC, AC
# Input Range: -36.0dBVpk, -36.0dBVpk
# Auto Range: Off, Off
# Auto Range Mode: Tracking, Tracking
# Anti-Aliasing Filter: On, On
#---------- Source Parameters ----------
# Source Type: Sine
# Source Amplitude: 500.0mVpk
# Source On: 0

#---------- Measurement Data ----------
# [Freq(Hz) Display 0(Vrms/rtHz) Display 1(Vrms/rtHz) ]
+0.0000000e+000    +4.2642580e-004    +1.9694562e-004
+1.0000000e+000    +2.8532348e-004    +1.2574367e-004
+2.0000000e+000    +2.5704654e-004    +1.2691431e-004
+3.0000000e+000    +2.2049842e-004    +9.9432000e-005
+4.0000000e+000    +7.5995580e-005    +2.7962016e-005
+5.0000000e+000    +2.5685074e-005    +6.4267583e-006
+6.0000000e+000    +1.4040845e-005    +2.9236874e-006
+7.0000000e+000    +1.1863271e-005    +2.0796388e-006
+8.0000000e+000    +9.4932748e-006    +1.6329419e-006
+9.0000000e+000    +1.1351338e-005    +1.1747870e-006
+1.0000000e+001    +1.5195734e-005    +1.0373822e-006
+1.1000000e+001    +1.4755547e-005    +9.9124827e-007
+1.2000000e+001    +8.0644140e-006    +8.0242097e-007
+1.3000000e+001    +6.5379718e-006    +6.6523654e-007
+1.4000000e+001    +6.9453381e-006    +6.0204076e-007
+1.5000000e+001    +5.9807062e-006    +5.2260492e-007
+1.6000000e+001    +5.6703097e-006    +4.8516580e-007
+1.7000000e+001    +6.0113189e-006    +4.4495238e-007
+1.8000000e+001    +6.2478157e-006    +3.9180719e-007
+1.9000000e+001    +3.1943543e-006    +3.3287938e-007
+2.0000000e+001    +2.3053769e-006    +3.1981514e-007
+2.1000000e+001    +2.1519224e-006    +2.8992332e-007
+2.2000000e+001    +1.9868555e-006    +2.7188622e-007
+2.3000000e+001    +1.8175053e-006    +2.6376748e-007
+2.4000000e+001    +1.4069409e-006    +2.3869555e-007
+2.5000000e+001    +1.4190184e-006    +2.1959447e-007
+2.6000000e+001    +8.3940154e-007    +2.0992903e-007
+2.7000000e+001    +5.9966055e-007    +1.9915075e-007
+2.8000000e+001    +5.2857820e-007    +1.8568075e-007
+2.9000000e+001    +7.0545258e-007    +1.7590507e-007
+3.0000000e+001    +8.3279838e-007    +1.6555040e-007
+3.1000000e+001    +5.6754550e-007    +1.7374356e-007
+3.2000000e+001    +4.4631551e-007    +1.6470409e-007
+3.3000000e+001    +5.2453993e-007    +1.5446238e-007
+3.4000000e+001    +9.4372388e-007    +1.5224641e-007
+3.5000000e+001    +5.3823192e-007    +1.4457011e-007
+3.6000000e+001    +1.8908834e-007    +1.3895136e-007
+3.7000000e+001    +1.9067446e-007    +1.2456992e-007
+3.8000000e+001    +1.8697759e-007    +1.1633875e-007
+3.9000000e+001    +1.6715441e-007    +1.1348720e-007
+4.0000000e+001    +1.6476848e-007    +1.1818665e-007
+4.1000000e+001    +1.7146640e-007    +1.2108433e-007
+4.2000000e+001    +1.6316318e-007    +1.1790566e-007
+4.3000000e+001    +1.5264864e-007    +1.0768827e-007
+4.4000000e+001    +1.6956223e-007    +9.9986167e-008
+4.5000000e+001    +1.5889330e-007    +1.0293108e-007
+4.6000000e+001    +1.5850108e-007    +9.2639645e-008
+4.7000000e+001    +1.8536095e-007    +9.8664003e-008
+4.8000000e+001    +2.0925340e-007    +1.0180869e-007
+4.9000000e+001    +1.6328809e-007    +9.5678523e-008
+5.0000000e+001    +1.3027027e-007    +8.9225999e-008
+5.1000000e+001    +1.4232626e-007    +8.6080554e-008
+5.2000000e+001    +1.3523756e-007    +8.3637758e-008
+5.3000000e+001    +1.7033175e-007    +8.5975898e-008
+5.4000000e+001    +2.1865833e-007    +8.6791374e-008
+5.5000000e+001    +1.8877199e-007    +8.0837133e-008
+5.6000000e+001    +1.3358280e-007    +7.7416502e-008
+5.7000000e+001    +1.3952541e-007    +7.7093659e-008
+5.8000000e+001    +1.9180200e-007    +7.8716056e-008
+5.9000000e+001    +3.2806344e-007    +8.5856946e-008
+6.0000000e+001    +5.6350575e-007    +1.0508613e-007
+6.1000000e+001    +3.0443647e-007    +7.7080799e-008
+6.2000000e+001    +1.3667371e-007    +7.1730732e-008
+6.3000000e+001    +1.4234283e-007    +6.7063482e-008
+6.4000000e+001    +1.3773182e-007    +6.3850152e-008
+6.5000000e+001    +1.2697781e-007    +6.2423645e-008
+6.6000000e+001    +1.3047911e-007    +6.0414379e-008
+6.7000000e+001    +1.6414155e-007    +5.9755735e-008
+6.8000000e+001    +2.1933737e-007    +6.5370600e-008
+6.9000000e+001    +1.6956595e-007    +6.5907443e-008
+7.0000000e+001    +1.3574365e-007    +6.4684123e-008
+7.1000000e+001    +1.3305453e-007    +6.0532166e-008
+7.2000000e+001    +1.1604698e-007    +5.9857385e-008
+7.3000000e+001    +1.2550305e-007    +5.8694205e-008
+7.4000000e+001    +1.2495786e-007    +5.8617758e-008
+7.5000000e+001    +1.1600928e-007    +5.7223080e-008
+7.6000000e+001    +1.0707189e-007    +5.6090457e-008
+7.7000000e+001    +1.0300977e-007    +5.3714267e-008
+7.8000000e+001    +1.0659706e-007    +5.3454521e-008
+7.9000000e+001    +1.0678074e-007    +5.3165721e-008
+8.0000000e+001    +1.1150446e-007    +5.3853693e-008
+8.1000000e+001    +1.0082665e-007    +5.6258155e-008
+8.2000000e+001    +9.7005930e-008    +5.6932794e-008
+8.3000000e+001    +8.8943231e-008    +5.2801035e-008
+8.4000000e+001    +8.3054289e-008    +4.8609039e-008
+8.5000000e+001    +9.0241770e-008    +5.1006147e-008
+8.6000000e+001    +8.9072522e-008    +4.6469975e-008
+8.7000000e+001    +8.4881393e-008    +4.8815970e-008
+8.8000000e+001    +8.6093124e-008    +5.1110533e-008
+8.9000000e+001    +8.6292715e-008    +4.9679041e-008
+9.0000000e+001    +8.4212012e-008    +4.8678256e-008
+9.1000000e+001    +8.5037456e-008    +4.8404207e-008
+9.2000000e+001    +8.1229942e-008    +4.8971867e-008
+9.3000000e+001    +8.2138534e-008    +4.7512032e-008
+9.4000000e+001    +7.7506307e-008    +4.7340816e-008
+9.5000000e+001    +7.9203453e-008    +4.5787310e-008
+9.6000000e+001    +7.7174370e-008    +4.8519460e-008
+9.7000000e+001    +7.4854263e-008    +4.9490289e-008
+9.8000000e+001    +7.8589629e-008    +4.2853625e-008
+9.9000000e+001    +7.7227007e-008    +4.3303334e-008
+1.0000000e+002    +7.7849762e-008    +4.7512604e-008
+1.0100000e+002    +8.0435889e-008    +4.3201659e-008
+1.0200000e+002    +8.3393843e-008    +4.4388962e-008
+1.0300000e+002    +7.6125353e-008    +4.5895476e-008
+1.0400000e+002    +7.7472450e-008    +4.6967379e-008
+1.0500000e+002    +8.7535064e-008    +4.4064393e-008
+1.0600000e+002    +8.4362391e-008    +4.3539707e-008
+1.0700000e+002    +7.8595150e-008    +4.1673381e-008
+1.0800000e+002    +7.7907906e-008    +4.2741412e-008
+1.0900000e+002    +7.3823976e-008    +4.1463618e-008
+1.1000000e+002    +7.0863543e-008    +4.2593143e-008
+1.1100000e+002    +8.0350091e-008    +4.1523847e-008
+1.1200000e+002    +8.3869310e-008    +4.1191182e-008
+1.1300000e+002    +7.9460058e-008    +4.2168029e-008
+1.1400000e+002    +7.4044699e-008    +4.3603524e-008
+1.1500000e+002    +7.7495336e-008    +4.3731585e-008
+1.1600000e+002    +8.3155392e-008    +4.3060492e-008
+1.1700000e+002    +8.1675935e-008    +4.0265427e-008
+1.1800000e+002    +7.6706456e-008    +3.9720113e-008
+1.1900000e+002    +3.1430216e-007    +4.1473772e-008
+1.2000000e+002    +6.0511303e-007    +3.9905366e-008
+1.2100000e+002    +3.0767922e-007    +3.6810469e-008
+1.2200000e+002    +7.0123463e-008    +3.6806512e-008
+1.2300000e+002    +7.7565133e-008    +3.6817909e-008
+1.2400000e+002    +8.0616964e-008    +3.6481946e-008
+1.2500000e+002    +7.6303259e-008    +3.8011628e-008
+1.2600000e+002    +7.5900431e-008    +3.9638426e-008
+1.2700000e+002    +7.0196798e-008    +3.8960611e-008
+1.2800000e+002    +6.8153319e-008    +3.9795545e-008
+1.2900000e+002    +7.1671060e-008    +3.9046345e-008
+1.3000000e+002    +7.7971315e-008    +3.8467881e-008
+1.3100000e+002    +7.4448465e-008    +3.7955118e-008
+1.3200000e+002    +7.2261940e-008    +3.9446572e-008
+1.3300000e+002    +6.8100661e-008    +3.8189796e-008
+1.3400000e+002    +7.0261954e-008    +4.0280728e-008
+1.3500000e+002    +7.4821891e-008    +3.7576296e-008
+1.3600000e+002    +7.9207886e-008    +3.4975052e-008
+1.3700000e+002    +8.0906922e-008    +3.5928611e-008
+1.3800000e+002    +7.3103770e-008    +4.0246686e-008
+1.3900000e+002    +7.4922021e-008    +4.1236841e-008
+1.4000000e+002    +8.1787931e-008    +3.7042909e-008
+1.4100000e+002    +8.9010442e-008    +3.6124490e-008
+1.4200000e+002    +1.0950777e-007    +3.8288082e-008
+1.4300000e+002    +1.5532940e-007    +3.8188453e-008
+1.4400000e+002    +2.6296735e-007    +3.6951590e-008
+1.4500000e+002    +4.7337335e-007    +3.5586577e-008
+1.4600000e+002    +5.5300393e-007    +3.8351150e-008
+1.4700000e+002    +4.7167114e-007    +3.9926359e-008
+1.4800000e+002    +2.9451320e-007    +3.8406647e-008
+1.4900000e+002    +1.6136823e-007    +3.9007265e-008
+1.5000000e+002    +1.1427719e-007    +4.0060332e-008
+1.5100000e+002    +9.0557997e-008    +3.9188766e-008
+1.5200000e+002    +8.3263195e-008    +3.5430396e-008
+1.5300000e+002    +1.3040849e-007    +3.4671093e-008
+1.5400000e+002    +1.0935049e-007    +3.7309242e-008
+1.5500000e+002    +6.5850728e-008    +3.6682252e-008
+1.5600000e+002    +6.9574810e-008    +3.6372079e-008
+1.5700000e+002    +6.9414575e-008    +3.7583888e-008
+1.5800000e+002    +5.8860511e-008    +3.6482867e-008
+1.5900000e+002    +6.3000577e-008    +3.3815045e-008
+1.6000000e+002    +6.3576145e-008    +3.5782556e-008
+1.6100000e+002    +6.6681686e-008    +3.6997751e-008
+1.6200000e+002    +6.6377737e-008    +3.4979895e-008
+1.6300000e+002    +6.4619528e-008    +3.8349043e-008
+1.6400000e+002    +6.0362993e-008    +4.1231182e-008
+1.6500000e+002    +6.2806990e-008    +3.9056978e-008
+1.6600000e+002    +6.8377432e-008    +3.7799083e-008
+1.6700000e+002    +6.6149070e-008    +3.6607979e-008
+1.6800000e+002    +6.4202908e-008    +3.7333542e-008
+1.6900000e+002    +6.2963998e-008    +3.7763574e-008
+1.7000000e+002    +6.3589830e-008    +3.6012022e-008
+1.7100000e+002    +6.0547990e-008    +3.4621905e-008
+1.7200000e+002    +5.6682808e-008    +3.6097411e-008
+1.7300000e+002    +5.9605156e-008    +3.7223156e-008
+1.7400000e+002    +6.0084552e-008    +3.7903273e-008
+1.7500000e+002    +5.8988675e-008    +3.7191167e-008
+1.7600000e+002    +5.5544533e-008    +3.4367019e-008
+1.7700000e+002    +5.3395393e-008    +3.7196600e-008
+1.7800000e+002    +5.6977445e-008    +3.7418204e-008
+1.7900000e+002    +4.2022717e-007    +5.3802392e-008
+1.8000000e+002    +8.2658016e-007    +8.5830365e-008
+1.8100000e+002    +4.1239693e-007    +5.0792888e-008
+1.8200000e+002    +5.8899300e-008    +3.4183561e-008
+1.8300000e+002    +5.0086850e-008    +3.3565581e-008
+1.8400000e+002    +5.4459839e-008    +3.3954819e-008
+1.8500000e+002    +5.2114608e-008    +3.6268634e-008
+1.8600000e+002    +5.1023065e-008    +3.4698360e-008
+1.8700000e+002    +5.4359656e-008    +3.4064978e-008
+1.8800000e+002    +5.5456660e-008    +3.5374619e-008
+1.8900000e+002    +5.3253881e-008    +3.6220005e-008
+1.9000000e+002    +5.2380496e-008    +3.7750556e-008
+1.9100000e+002    +5.2460038e-008    +3.4809631e-008
+1.9200000e+002    +5.0194256e-008    +3.6352837e-008
+1.9300000e+002    +5.0585520e-008    +3.5813056e-008
+1.9400000e+002    +5.2887657e-008    +3.5719438e-008
+1.9500000e+002    +5.1856446e-008    +3.6427590e-008
+1.9600000e+002    +5.5140092e-008    +3.6848441e-008
+1.9700000e+002    +5.4259896e-008    +3.7897156e-008
+1.9800000e+002    +5.5027840e-008    +3.6616903e-008
+1.9900000e+002    +5.7046677e-008    +3.6470411e-008
+2.0000000e+002    +5.4555237e-008    +3.9156593e-008
+2.0100000e+002    +5.1635890e-008    +3.8948894e-008
+2.0200000e+002    +5.4966488e-008    +3.5783813e-008
+2.0300000e+002    +5.6178528e-008    +3.7302282e-008
+2.0400000e+002    +5.4532240e-008    +3.6144169e-008
+2.0500000e+002    +5.5335988e-008    +3.3400404e-008
+2.0600000e+002    +5.7251736e-008    +3.4852885e-008
+2.0700000e+002    +5.7871027e-008    +3.8179188e-008
+2.0800000e+002    +5.8610230e-008    +3.7321943e-008
+2.0900000e+002    +5.7980483e-008    +3.5949444e-008
+2.1000000e+002    +5.3859782e-008    +3.5034166e-008
+2.1100000e+002    +5.6276505e-008    +3.6024677e-008
+2.1200000e+002    +5.1953098e-008    +3.5911693e-008
+2.1300000e+002    +5.1654773e-008    +3.5524621e-008
+2.1400000e+002    +5.1030629e-008    +3.4116482e-008
+2.1500000e+002    +5.4054276e-008    +3.3344893e-008
+2.1600000e+002    +6.5694742e-008    +3.3639257e-008
+2.1700000e+002    +1.1185073e-007    +3.0994585e-008
+2.1800000e+002    +9.4656514e-008    +3.3445396e-008
+2.1900000e+002    +5.6320516e-008    +3.4576740e-008
+2.2000000e+002    +5.6488098e-008    +3.5464140e-008
+2.2100000e+002    +5.3948323e-008    +3.6464847e-008
+2.2200000e+002    +5.2588987e-008    +3.6777426e-008
+2.2300000e+002    +5.6339132e-008    +3.3507916e-008
+2.2400000e+002    +5.6117312e-008    +3.3642916e-008
+2.2500000e+002    +4.8231634e-008    +3.7996482e-008
+2.2600000e+002    +5.2353474e-008    +3.7798543e-008
+2.2700000e+002    +5.5760964e-008    +3.7831676e-008
+2.2800000e+002    +5.2622141e-008    +3.7372381e-008
+2.2900000e+002    +4.8511733e-008    +3.5828670e-008
+2.3000000e+002    +4.8148351e-008    +3.8793967e-008
+2.3100000e+002    +5.4897853e-008    +3.9004441e-008
+2.3200000e+002    +5.2576112e-008    +3.8771017e-008
+2.3300000e+002    +5.1630106e-008    +3.6900225e-008
+2.3400000e+002    +4.8925379e-008    +3.4715011e-008
+2.3500000e+002    +5.0802370e-008    +3.4484305e-008
+2.3600000e+002    +4.9011831e-008    +3.4480784e-008
+2.3700000e+002    +4.7005038e-008    +3.6865398e-008
+2.3800000e+002    +4.6400533e-008    +3.8240398e-008
+2.3900000e+002    +5.9916104e-008    +3.8137628e-008
+2.4000000e+002    +8.6911619e-008    +3.8758756e-008
+2.4100000e+002    +5.9629762e-008    +4.1086391e-008
+2.4200000e+002    +5.2997056e-008    +3.7159250e-008
+2.4300000e+002    +5.2419505e-008    +3.5664691e-008
+2.4400000e+002    +5.3797844e-008    +3.6754781e-008
+2.4500000e+002    +5.7759813e-008    +3.5863621e-008
+2.4600000e+002    +5.6634345e-008    +3.7877687e-008
+2.4700000e+002    +5.5595844e-008    +3.9380968e-008
+2.4800000e+002    +5.1857128e-008    +4.1902098e-008
+2.4900000e+002    +5.0308742e-008    +3.8724600e-008
+2.5000000e+002    +5.4001301e-008    +3.9101174e-008
+2.5100000e+002    +5.5391119e-008    +3.9804984e-008
+2.5200000e+002    +5.3351908e-008    +3.8430944e-008
+2.5300000e+002    +4.8386781e-008    +3.7433693e-008
+2.5400000e+002    +5.2073599e-008    +3.5136519e-008
+2.5500000e+002    +6.0371612e-008    +3.6799559e-008
+2.5600000e+002    +6.0784714e-008    +3.8469654e-008
+2.5700000e+002    +6.8205502e-008    +3.8731660e-008
+2.5800000e+002    +6.8720411e-008    +3.7325428e-008
+2.5900000e+002    +7.5419699e-008    +3.6218932e-008
+2.6000000e+002    +8.5665604e-008    +3.8049041e-008
+2.6100000e+002    +9.3153503e-008    +3.6161754e-008
+2.6200000e+002    +8.9008097e-008    +3.6152702e-008
+2.6300000e+002    +9.9922183e-008    +3.4846263e-008
+2.6400000e+002    +1.1842292e-007    +3.5332192e-008
+2.6500000e+002    +1.1898583e-007    +3.6508112e-008
+2.6600000e+002    +1.3220540e-007    +3.7331986e-008
+2.6700000e+002    +1.5358842e-007    +3.9151821e-008
+2.6800000e+002    +1.6898088e-007    +4.0086732e-008
+2.6900000e+002    +1.6279724e-007    +3.9302869e-008
+2.7000000e+002    +1.8683701e-007    +4.0591729e-008
+2.7100000e+002    +2.8818570e-007    +3.8616076e-008
+2.7200000e+002    +3.3129513e-007    +3.7409372e-008
+2.7300000e+002    +2.8130765e-007    +3.6696271e-008
+2.7400000e+002    +4.5329719e-007    +4.0387231e-008
+2.7500000e+002    +5.6633536e-007    +3.9181494e-008
+2.7600000e+002    +5.3304012e-007    +3.6160998e-008
+2.7700000e+002    +6.1423742e-007    +3.5777841e-008
+2.7800000e+002    +6.6617798e-007    +3.8472020e-008
+2.7900000e+002    +6.3719261e-007    +3.9240259e-008
+2.8000000e+002    +5.7941725e-007    +3.7290079e-008
+2.8100000e+002    +4.5874668e-007    +3.5639246e-008
+2.8200000e+002    +3.5272694e-007    +4.0395303e-008
+2.8300000e+002    +2.9026188e-007    +3.8342264e-008
+2.8400000e+002    +2.5122759e-007    +3.6749210e-008
+2.8500000e+002    +2.2502785e-007    +3.9310681e-008
+2.8600000e+002    +2.1580340e-007    +4.1624496e-008
+2.8700000e+002    +1.8711333e-007    +4.2447159e-008
+2.8800000e+002    +1.7823706e-007    +4.1332530e-008
+2.8900000e+002    +1.5874230e-007    +4.0317186e-008
+2.9000000e+002    +1.4243412e-007    +3.5958919e-008
+2.9100000e+002    +1.2704223e-007    +3.9089411e-008
+2.9200000e+002    +1.1658272e-007    +4.3348049e-008
+2.9300000e+002    +1.2664378e-007    +4.5005635e-008
+2.9400000e+002    +1.1282884e-007    +4.1907757e-008
+2.9500000e+002    +9.6963333e-008    +3.8745696e-008
+2.9600000e+002    +8.3958767e-008    +3.9515843e-008
+2.9700000e+002    +8.3825853e-008    +4.0466418e-008
+2.9800000e+002    +7.7908332e-008    +4.2399090e-008
+2.9900000e+002    +1.0088279e-007    +4.4471989e-008
+3.0000000e+002    +1.5636532e-007    +4.6574790e-008
+3.0100000e+002    +9.1848548e-008    +4.1123762e-008
+3.0200000e+002    +5.1996242e-008    +4.3117549e-008
+3.0300000e+002    +5.4366282e-008    +4.0985288e-008
+3.0400000e+002    +5.6148561e-008    +4.2002835e-008
+3.0500000e+002    +5.4813412e-008    +4.3330015e-008
+3.0600000e+002    +4.7769486e-008    +4.5980361e-008
+3.0700000e+002    +4.3773909e-008    +4.5835449e-008
+3.0800000e+002    +4.5024763e-008    +4.0129578e-008
+3.0900000e+002    +5.0145069e-008    +3.6273573e-008
+3.1000000e+002    +4.7298006e-008    +3.4530416e-008
+3.1100000e+002    +4.7672295e-008    +3.8360120e-008
+3.1200000e+002    +5.2948085e-008    +4.0499621e-008
+3.1300000e+002    +5.0024582e-008    +3.9187132e-008
+3.1400000e+002    +4.8984287e-008    +3.9288459e-008
+3.1500000e+002    +4.8076352e-008    +4.3013522e-008
+3.1600000e+002    +5.1194665e-008    +4.3169180e-008
+3.1700000e+002    +5.3482641e-008    +4.1200003e-008
+3.1800000e+002    +5.4632441e-008    +4.0996269e-008
+3.1900000e+002    +4.9139157e-008    +4.2861014e-008
+3.2000000e+002    +5.2950700e-008    +4.0154834e-008
+3.2100000e+002    +5.1804601e-008    +4.2290203e-008
+3.2200000e+002    +4.5818240e-008    +4.3239385e-008
+3.2300000e+002    +4.7229818e-008    +4.1880345e-008
+3.2400000e+002    +4.6874906e-008    +4.3374332e-008
+3.2500000e+002    +4.7162867e-008    +4.2834621e-008
+3.2600000e+002    +4.5925720e-008    +4.4070440e-008
+3.2700000e+002    +4.5889731e-008    +4.4561141e-008
+3.2800000e+002    +4.7205969e-008    +4.2613724e-008
+3.2900000e+002    +4.8905935e-008    +4.3919584e-008
+3.3000000e+002    +5.0072607e-008    +4.3640259e-008
+3.3100000e+002    +4.4340446e-008    +4.4832131e-008
+3.3200000e+002    +4.5936712e-008    +4.2366423e-008
+3.3300000e+002    +4.6910841e-008    +4.3973145e-008
+3.3400000e+002    +4.6006470e-008    +4.4464567e-008
+3.3500000e+002    +4.7163901e-008    +4.1783018e-008
+3.3600000e+002    +5.0823402e-008    +4.3549029e-008
+3.3700000e+002    +5.3741228e-008    +4.4797297e-008
+3.3800000e+002    +5.2855732e-008    +4.8354224e-008
+3.3900000e+002    +5.1684726e-008    +4.3993715e-008
+3.4000000e+002    +4.8499274e-008    +4.2422510e-008
+3.4100000e+002    +4.8921724e-008    +4.4898879e-008
+3.4200000e+002    +5.0121287e-008    +4.4120743e-008
+3.4300000e+002    +5.1488865e-008    +4.7175607e-008
+3.4400000e+002    +4.7192909e-008    +4.5289028e-008
+3.4500000e+002    +5.0627637e-008    +4.3188901e-008
+3.4600000e+002    +5.7071297e-008    +4.6737998e-008
+3.4700000e+002    +5.1031076e-008    +4.4910959e-008
+3.4800000e+002    +5.2332325e-008    +4.6119101e-008
+3.4900000e+002    +5.5811128e-008    +4.8069754e-008
+3.5000000e+002    +6.2215427e-008    +4.6248100e-008
+3.5100000e+002    +7.3286600e-008    +4.9140453e-008
+3.5200000e+002    +9.2921312e-008    +4.9496865e-008
+3.5300000e+002    +9.9114160e-008    +4.8247415e-008
+3.5400000e+002    +8.5420659e-008    +4.9722260e-008
+3.5500000e+002    +6.8076140e-008    +4.7728541e-008
+3.5600000e+002    +6.3283366e-008    +4.8664415e-008
+3.5700000e+002    +5.4034992e-008    +5.3118285e-008
+3.5800000e+002    +4.6717066e-008    +5.6644918e-008
+3.5900000e+002    +5.2143168e-008    +5.3895334e-008
+3.6000000e+002    +5.9226590e-008    +4.8611813e-008
+3.6100000e+002    +4.8178389e-008    +5.1367802e-008
+3.6200000e+002    +4.3198007e-008    +5.3913091e-008
+3.6300000e+002    +4.4327400e-008    +5.3169924e-008
+3.6400000e+002    +4.2060293e-008    +4.9896443e-008
+3.6500000e+002    +4.3786216e-008    +5.2335889e-008
+3.6600000e+002    +4.6705885e-008    +4.8991925e-008
+3.6700000e+002    +4.7943725e-008    +4.8038096e-008
+3.6800000e+002    +4.5966885e-008    +5.2131604e-008
+3.6900000e+002    +4.7657586e-008    +4.8019956e-008
+3.7000000e+002    +4.3511559e-008    +4.9204431e-008
+3.7100000e+002    +4.4755065e-008    +5.0713091e-008
+3.7200000e+002    +4.2374889e-008    +4.9453355e-008
+3.7300000e+002    +4.6412101e-008    +4.9926690e-008
+3.7400000e+002    +4.5950738e-008    +5.0596519e-008
+3.7500000e+002    +4.7861466e-008    +5.1277471e-008
+3.7600000e+002    +4.5949829e-008    +5.1527717e-008
+3.7700000e+002    +4.7347626e-008    +5.0843497e-008
+3.7800000e+002    +4.8656403e-008    +5.0712980e-008
+3.7900000e+002    +4.6464567e-008    +5.4477063e-008
+3.8000000e+002    +4.8812272e-008    +5.3990572e-008
+3.8100000e+002    +4.7040455e-008    +4.7397819e-008
+3.8200000e+002    +4.9018020e-008    +4.5384450e-008
+3.8300000e+002    +4.6774037e-008    +4.7885592e-008
+3.8400000e+002    +4.6166875e-008    +5.4710295e-008
+3.8500000e+002    +4.3675971e-008    +6.0197067e-008
+3.8600000e+002    +4.6058780e-008    +5.6906110e-008
+3.8700000e+002    +4.7109769e-008    +5.2556835e-008
+3.8800000e+002    +4.5940901e-008    +5.4231545e-008
+3.8900000e+002    +4.3585000e-008    +5.5930318e-008
+3.9000000e+002    +4.6754423e-008    +5.3449295e-008
+3.9100000e+002    +4.6653607e-008    +5.2060905e-008
+3.9200000e+002    +4.8860262e-008    +5.2714320e-008
+3.9300000e+002    +4.7525283e-008    +5.1602619e-008
+3.9400000e+002    +4.6324686e-008    +5.8421918e-008
+3.9500000e+002    +4.2700698e-008    +5.7179996e-008
+3.9600000e+002    +4.4292953e-008    +5.3996263e-008
+3.9700000e+002    +4.1837232e-008    +5.5002108e-008
+3.9800000e+002    +4.1060460e-008    +5.5446431e-008
+3.9900000e+002    +4.3107654e-008    +5.9625251e-008
+4.0000000e+002    +4.4165091e-008    +5.8469531e-008
+4.0100000e+002    +4.8912220e-008    +5.5184849e-008
+4.0200000e+002    +4.8332250e-008    +5.0191172e-008
+4.0300000e+002    +5.1849785e-008    +5.5783865e-008
+4.0400000e+002    +4.9070902e-008    +5.7401412e-008
+4.0500000e+002    +4.3173589e-008    +5.5880783e-008
+4.0600000e+002    +4.2477556e-008    +5.3551624e-008
+4.0700000e+002    +4.6750881e-008    +5.3696226e-008
+4.0800000e+002    +4.9507300e-008    +5.9184661e-008
+4.0900000e+002    +4.7106870e-008    +6.0422742e-008
+4.1000000e+002    +4.4236820e-008    +5.9320175e-008
+4.1100000e+002    +4.4063569e-008    +5.4941449e-008
+4.1200000e+002    +4.1323457e-008    +4.9642836e-008
+4.1300000e+002    +3.8238340e-008    +5.2438846e-008
+4.1400000e+002    +4.4454122e-008    +5.5298695e-008
+4.1500000e+002    +4.1750596e-008    +5.3852744e-008
+4.1600000e+002    +4.4081425e-008    +5.4596462e-008
+4.1700000e+002    +4.3233403e-008    +6.0923895e-008
+4.1800000e+002    +3.8886977e-008    +5.7940898e-008
+4.1900000e+002    +8.9227861e-008    +6.2379932e-008
+4.2000000e+002    +1.5899749e-007    +6.3252102e-008
+4.2100000e+002    +8.5209614e-008    +6.2076232e-008
+4.2200000e+002    +4.1626830e-008    +6.2349322e-008
+4.2300000e+002    +4.1567272e-008    +5.6851967e-008
+4.2400000e+002    +4.4656453e-008    +5.0308632e-008
+4.2500000e+002    +4.1488939e-008    +5.7800413e-008
+4.2600000e+002    +4.0189061e-008    +6.4099090e-008
+4.2700000e+002    +4.3210434e-008    +6.2679817e-008
+4.2800000e+002    +4.1472223e-008    +5.8313230e-008
+4.2900000e+002    +3.7747572e-008    +5.8968602e-008
+4.3000000e+002    +4.1708446e-008    +6.1145442e-008
+4.3100000e+002    +4.1685233e-008    +6.1780121e-008
+4.3200000e+002    +4.6666365e-008    +6.3732415e-008
+4.3300000e+002    +4.4756195e-008    +6.7070182e-008
+4.3400000e+002    +1.3355024e-007    +6.3949848e-008
+4.3500000e+002    +1.7259515e-007    +6.0901421e-008
+4.3600000e+002    +7.2682312e-008    +5.9516935e-008
+4.3700000e+002    +5.4842911e-008    +5.5895324e-008
+4.3800000e+002    +5.2741065e-008    +5.7594843e-008
+4.3900000e+002    +5.4237262e-008    +6.6432200e-008
+4.4000000e+002    +5.9665915e-008    +6.6241519e-008
+4.4100000e+002    +6.2188114e-008    +6.8892426e-008
+4.4200000e+002    +5.9101673e-008    +7.2990602e-008
+4.4300000e+002    +6.6460437e-008    +6.9049335e-008
+4.4400000e+002    +7.0206895e-008    +7.2888092e-008
+4.4500000e+002    +5.4996431e-008    +7.1923161e-008
+4.4600000e+002    +4.6516735e-008    +6.9645893e-008
+4.4700000e+002    +4.9241720e-008    +6.8249847e-008
+4.4800000e+002    +4.6232259e-008    +6.8852877e-008
+4.4900000e+002    +4.5124139e-008    +7.0254778e-008
+4.5000000e+002    +4.2999876e-008    +6.7088010e-008
+4.5100000e+002    +4.1216563e-008    +6.1521675e-008
+4.5200000e+002    +4.1731624e-008    +6.3430839e-008
+4.5300000e+002    +3.9354902e-008    +6.4836712e-008
+4.5400000e+002    +3.8413646e-008    +6.7671785e-008
+4.5500000e+002    +4.0919776e-008    +7.4344563e-008
+4.5600000e+002    +3.6723275e-008    +7.0566017e-008
+4.5700000e+002    +3.9184851e-008    +6.6762560e-008
+4.5800000e+002    +3.8967798e-008    +6.9899158e-008
+4.5900000e+002    +4.2128786e-008    +6.9582910e-008
+4.6000000e+002    +4.2188034e-008    +7.0088205e-008
+4.6100000e+002    +3.9212697e-008    +6.8710300e-008
+4.6200000e+002    +3.9386673e-008    +7.0559508e-008
+4.6300000e+002    +3.7360564e-008    +6.7065251e-008
+4.6400000e+002    +3.6373756e-008    +7.1592723e-008
+4.6500000e+002    +3.5708261e-008    +6.6208287e-008
+4.6600000e+002    +3.6832706e-008    +6.1145236e-008
+4.6700000e+002    +3.7396351e-008    +6.1370756e-008
+4.6800000e+002    +3.8811905e-008    +7.2182480e-008
+4.6900000e+002    +4.1724476e-008    +7.3103848e-008
+4.7000000e+002    +4.0486682e-008    +6.7446656e-008
+4.7100000e+002    +3.9162785e-008    +6.4846752e-008
+4.7200000e+002    +3.7727229e-008    +7.2775180e-008
+4.7300000e+002    +4.0771511e-008    +7.3063084e-008
+4.7400000e+002    +4.2476625e-008    +7.0497563e-008
+4.7500000e+002    +4.0176708e-008    +7.4936501e-008
+4.7600000e+002    +4.3066024e-008    +7.5941777e-008
+4.7700000e+002    +4.1977479e-008    +7.7531077e-008
+4.7800000e+002    +4.1840909e-008    +7.4598525e-008
+4.7900000e+002    +6.0621893e-008    +6.4986523e-008
+4.8000000e+002    +9.0647731e-008    +7.0002841e-008
+4.8100000e+002    +6.1239902e-008    +7.5544762e-008
+4.8200000e+002    +4.7343313e-008    +7.1993313e-008
+4.8300000e+002    +4.6514792e-008    +6.9106974e-008
+4.8400000e+002    +5.0929316e-008    +7.2077469e-008
+4.8500000e+002    +5.4276935e-008    +7.1496103e-008
+4.8600000e+002    +5.8075415e-008    +7.0162429e-008
+4.8700000e+002    +5.9671358e-008    +7.3997967e-008
+4.8800000e+002    +6.2321398e-008    +7.8162202e-008
+4.8900000e+002    +6.1874474e-008    +8.2995037e-008
+4.9000000e+002    +6.2797405e-008    +7.7806696e-008
+4.9100000e+002    +6.5280297e-008    +7.3694402e-008
+4.9200000e+002    +6.6973342e-008    +7.9029284e-008
+4.9300000e+002    +6.9891634e-008    +7.7854203e-008
+4.9400000e+002    +6.1896763e-008    +7.4144758e-008
+4.9500000e+002    +5.8732173e-008    +7.2223628e-008
+4.9600000e+002    +5.7852287e-008    +7.3075121e-008
+4.9700000e+002    +6.0769239e-008    +7.9414264e-008
+4.9800000e+002    +7.6276457e-008    +8.0784780e-008
+4.9900000e+002    +8.4386016e-008    +7.5055816e-008
+5.0000000e+002    +6.6589209e-008    +8.3299312e-008
+5.0100000e+002    +6.0000893e-008    +7.9645929e-008
+5.0200000e+002    +5.9225030e-008    +7.9603787e-008
+5.0300000e+002    +6.5671088e-008    +8.0337387e-008
+5.0400000e+002    +6.7158538e-008    +8.0805805e-008
+5.0500000e+002    +7.3821305e-008    +8.3877225e-008
+5.0600000e+002    +6.6303222e-008    +8.3387711e-008
+5.0700000e+002    +8.0302470e-008    +8.5625267e-008
+5.0800000e+002    +9.5771640e-008    +8.2786535e-008
+5.0900000e+002    +9.7601109e-008    +8.1649127e-008
+5.1000000e+002    +9.6974411e-008    +8.3469786e-008
+5.1100000e+002    +9.3509804e-008    +8.1728146e-008
+5.1200000e+002    +9.0687749e-008    +8.2382940e-008
+5.1300000e+002    +8.4006722e-008    +8.2181295e-008
+5.1400000e+002    +7.3346087e-008    +8.3232116e-008
+5.1500000e+002    +5.9412081e-008    +8.9411742e-008
+5.1600000e+002    +5.4257214e-008    +8.6604992e-008
+5.1700000e+002    +5.2345658e-008    +7.9429093e-008
+5.1800000e+002    +4.7611355e-008    +7.9847929e-008
+5.1900000e+002    +4.8250381e-008    +8.1745377e-008
+5.2000000e+002    +4.4576801e-008    +8.2978090e-008
+5.2100000e+002    +3.9748819e-008    +8.6696701e-008
+5.2200000e+002    +3.5685254e-008    +8.6427740e-008
+5.2300000e+002    +3.9830645e-008    +8.2316035e-008
+5.2400000e+002    +4.1559012e-008    +8.3721368e-008
+5.2500000e+002    +4.4107619e-008    +8.3603325e-008
+5.2600000e+002    +4.6840434e-008    +8.4812548e-008
+5.2700000e+002    +5.1163028e-008    +8.2243488e-008
+5.2800000e+002    +5.8838737e-008    +8.9226788e-008
+5.2900000e+002    +8.0480234e-008    +8.8142947e-008
+5.3000000e+002    +1.0362415e-007    +8.6734786e-008
+5.3100000e+002    +1.2453998e-007    +8.2535131e-008
+5.3200000e+002    +1.4378084e-007    +8.6493330e-008
+5.3300000e+002    +1.6887256e-007    +8.4187974e-008
+5.3400000e+002    +1.7866968e-007    +8.1003364e-008
+5.3500000e+002    +1.8535341e-007    +8.8393378e-008
+5.3600000e+002    +1.8670946e-007    +9.4732833e-008
+5.3700000e+002    +1.5478105e-007    +9.2971419e-008
+5.3800000e+002    +1.3588695e-007    +8.8373291e-008
+5.3900000e+002    +1.2955250e-007    +8.4851109e-008
+5.4000000e+002    +1.1766007e-007    +9.6265346e-008
+5.4100000e+002    +9.9359319e-008    +9.4484044e-008
+5.4200000e+002    +9.6735988e-008    +9.2675151e-008
+5.4300000e+002    +9.0433304e-008    +9.3810286e-008
+5.4400000e+002    +8.8063047e-008    +9.2627744e-008
+5.4500000e+002    +9.0903676e-008    +9.1109115e-008
+5.4600000e+002    +1.1774627e-007    +8.5605151e-008
+5.4700000e+002    +1.8768307e-007    +8.6181174e-008
+5.4800000e+002    +3.4298151e-007    +9.2462933e-008
+5.4900000e+002    +5.9657140e-007    +8.5674920e-008
+5.5000000e+002    +9.4906795e-007    +8.2559787e-008
+5.5100000e+002    +1.2961156e-006    +8.6139174e-008
+5.5200000e+002    +1.7171527e-006    +9.0934222e-008
+5.5300000e+002    +2.3905698e-006    +9.4384824e-008
+5.5400000e+002    +1.7752947e-006    +9.4622642e-008
+5.5500000e+002    +6.9960885e-007    +9.0550543e-008
+5.5600000e+002    +4.8750144e-007    +9.1148834e-008
+5.5700000e+002    +4.2232435e-007    +9.2488214e-008
+5.5800000e+002    +3.7408014e-007    +8.9002718e-008
+5.5900000e+002    +3.4659828e-007    +1.0134763e-007
+5.6000000e+002    +2.9622032e-007    +1.0042548e-007
+5.6100000e+002    +2.3259737e-007    +9.5474206e-008
+5.6200000e+002    +2.0260055e-007    +9.0465775e-008
+5.6300000e+002    +1.8081704e-007    +9.7042893e-008
+5.6400000e+002    +1.7481511e-007    +1.0388730e-007
+5.6500000e+002    +1.5025597e-007    +9.7409050e-008
+5.6600000e+002    +1.2201772e-007    +8.9343445e-008
+5.6700000e+002    +1.0976429e-007    +1.0103809e-007
+5.6800000e+002    +8.9909470e-008    +9.9988256e-008
+5.6900000e+002    +8.2759904e-008    +8.7684256e-008
+5.7000000e+002    +8.9634277e-008    +9.5573320e-008
+5.7100000e+002    +1.0031022e-007    +9.1157041e-008
+5.7200000e+002    +1.0838432e-007    +9.1821121e-008
+5.7300000e+002    +1.2071901e-007    +9.9017576e-008
+5.7400000e+002    +1.3305642e-007    +9.6990064e-008
+5.7500000e+002    +1.5354659e-007    +1.0051252e-007
+5.7600000e+002    +1.8463034e-007    +1.0220707e-007
+5.7700000e+002    +2.0149535e-007    +9.8299502e-008
+5.7800000e+002    +2.3945915e-007    +9.8983008e-008
+5.7900000e+002    +2.8423040e-007    +9.5132663e-008
+5.8000000e+002    +3.2455384e-007    +9.1632593e-008
+5.8100000e+002    +3.1033574e-007    +9.8639418e-008
+5.8200000e+002    +2.5657116e-007    +1.0362961e-007
+5.8300000e+002    +2.1043419e-007    +1.0455373e-007
+5.8400000e+002    +1.7218197e-007    +1.0421358e-007
+5.8500000e+002    +1.5989259e-007    +1.0348430e-007
+5.8600000e+002    +1.2393215e-007    +1.0872950e-007
+5.8700000e+002    +9.8383616e-008    +1.0423555e-007
+5.8800000e+002    +8.2484583e-008    +1.0060493e-007
+5.8900000e+002    +6.3370692e-008    +1.0411797e-007
+5.9000000e+002    +5.8074392e-008    +1.0535948e-007
+5.9100000e+002    +5.4698884e-008    +1.0213405e-007
+5.9200000e+002    +4.7856055e-008    +1.0339503e-007
+5.9300000e+002    +4.7409372e-008    +1.0177963e-007
+5.9400000e+002    +4.7023931e-008    +1.0021741e-007
+5.9500000e+002    +4.4760569e-008    +9.4271208e-008
+5.9600000e+002    +4.8321105e-008    +9.7831993e-008
+5.9700000e+002    +5.2182688e-008    +1.0513391e-007
+5.9800000e+002    +5.4172926e-008    +1.1257283e-007
+5.9900000e+002    +5.8596139e-008    +1.0378720e-007
+6.0000000e+002    +7.4199001e-008    +1.0173628e-007
+6.0100000e+002    +9.4136126e-008    +1.0661673e-007
+6.0200000e+002    +1.3363150e-007    +1.0437928e-007
+6.0300000e+002    +1.7140015e-007    +1.0464791e-007
+6.0400000e+002    +2.2195495e-007    +1.0618227e-007
+6.0500000e+002    +2.8293263e-007    +1.1083156e-007
+6.0600000e+002    +2.1570177e-007    +1.1418087e-007
+6.0700000e+002    +1.0729102e-007    +1.1591900e-007
+6.0800000e+002    +5.6780415e-008    +1.1512171e-007
+6.0900000e+002    +4.3158281e-008    +1.1388426e-007
+6.1000000e+002    +4.1897820e-008    +1.0720776e-007
+6.1100000e+002    +4.2207077e-008    +1.1332023e-007
+6.1200000e+002    +3.9171990e-008    +1.1604927e-007
+6.1300000e+002    +3.7701099e-008    +1.0926576e-007
+6.1400000e+002    +3.8449976e-008    +1.0505937e-007
+6.1500000e+002    +4.1519563e-008    +1.0230610e-007
+6.1600000e+002    +4.0656492e-008    +1.0239566e-007
+6.1700000e+002    +3.7298882e-008    +1.0539523e-007
+6.1800000e+002    +3.7009858e-008    +1.0912608e-007
+6.1900000e+002    +3.7832550e-008    +1.0500586e-007
+6.2000000e+002    +3.9460261e-008    +1.1110130e-007
+6.2100000e+002    +3.6611276e-008    +1.1153580e-007
+6.2200000e+002    +3.8981408e-008    +1.0989706e-007
+6.2300000e+002    +3.6246103e-008    +1.1743951e-007
+6.2400000e+002    +3.6493805e-008    +1.2012482e-007
+6.2500000e+002    +4.0752489e-008    +1.1614628e-007
+6.2600000e+002    +3.7662915e-008    +1.1347885e-007
+6.2700000e+002    +3.6306005e-008    +1.0884452e-007
+6.2800000e+002    +3.4386758e-008    +1.0957392e-007
+6.2900000e+002    +3.7174388e-008    +1.1222161e-007
+6.3000000e+002    +3.9831825e-008    +1.1551041e-007
+6.3100000e+002    +3.8447865e-008    +1.1510009e-007
+6.3200000e+002    +4.0364355e-008    +1.1834975e-007
+6.3300000e+002    +4.0989921e-008    +1.1926036e-007
+6.3400000e+002    +4.0603631e-008    +1.1552753e-007
+6.3500000e+002    +3.6466890e-008    +1.1439130e-007
+6.3600000e+002    +3.6475857e-008    +1.1706501e-007
+6.3700000e+002    +3.6469732e-008    +1.1395005e-007
+6.3800000e+002    +3.9173624e-008    +1.1129078e-007
+6.3900000e+002    +4.0922199e-008    +1.2308055e-007
+6.4000000e+002    +4.1408025e-008    +1.2469363e-007
+6.4100000e+002    +4.0026347e-008    +1.2241506e-007
+6.4200000e+002    +4.1745739e-008    +1.2011638e-007
+6.4300000e+002    +4.5737970e-008    +1.2045778e-007
+6.4400000e+002    +6.0913926e-008    +1.1828934e-007
+6.4500000e+002    +8.2918802e-008    +1.1075225e-007
+6.4600000e+002    +9.5020340e-008    +1.1610943e-007
+6.4700000e+002    +8.0108727e-008    +1.1343115e-007
+6.4800000e+002    +6.5180608e-008    +1.2092025e-007
+6.4900000e+002    +5.7428959e-008    +1.2469062e-007
+6.5000000e+002    +5.5870782e-008    +1.2242607e-007
+6.5100000e+002    +7.3621294e-008    +1.1770969e-007
+6.5200000e+002    +1.2583612e-007    +1.0878490e-007
+6.5300000e+002    +9.6906930e-008    +1.1814202e-007
+6.5400000e+002    +6.5417126e-008    +1.2591754e-007
+6.5500000e+002    +5.7695477e-008    +1.2541750e-007
+6.5600000e+002    +4.8382795e-008    +1.2608714e-007
+6.5700000e+002    +4.4029040e-008    +1.2564395e-007
+6.5800000e+002    +4.2285887e-008    +1.1432225e-007
+6.5900000e+002    +4.9536606e-008    +1.2914279e-007
+6.6000000e+002    +6.6425415e-008    +1.3680011e-007
+6.6100000e+002    +5.0699285e-008    +1.2250474e-007
+6.6200000e+002    +4.4097110e-008    +1.2298344e-007
+6.6300000e+002    +4.4898634e-008    +1.2763041e-007
+6.6400000e+002    +4.3683261e-008    +1.2396808e-007
+6.6500000e+002    +4.2197208e-008    +1.3245065e-007
+6.6600000e+002    +4.3477272e-008    +1.3007202e-007
+6.6700000e+002    +4.2443151e-008    +1.2220194e-007
+6.6800000e+002    +3.9456534e-008    +1.2616802e-007
+6.6900000e+002    +4.3754927e-008    +1.3569328e-007
+6.7000000e+002    +4.5534339e-008    +1.3753188e-007
+6.7100000e+002    +4.3381284e-008    +1.3712734e-007
+6.7200000e+002    +4.5627072e-008    +1.3935686e-007
+6.7300000e+002    +4.5555691e-008    +1.4054093e-007
+6.7400000e+002    +4.5376776e-008    +1.3639217e-007
+6.7500000e+002    +4.5211124e-008    +1.2757116e-007
+6.7600000e+002    +4.3372044e-008    +1.2703023e-007
+6.7700000e+002    +4.4501686e-008    +1.3520861e-007
+6.7800000e+002    +4.8249589e-008    +1.3565023e-007
+6.7900000e+002    +4.9892879e-008    +1.3512550e-007
+6.8000000e+002    +4.4726228e-008    +1.3151424e-007
+6.8100000e+002    +4.4487372e-008    +1.2985399e-007
+6.8200000e+002    +4.3686189e-008    +1.3323974e-007
+6.8300000e+002    +4.4428504e-008    +1.3150587e-007
+6.8400000e+002    +5.3633180e-008    +1.3254899e-007
+6.8500000e+002    +5.8037294e-008    +1.4287816e-007
+6.8600000e+002    +6.3485743e-008    +1.3988742e-007
+6.8700000e+002    +7.6161470e-008    +1.3031533e-007
+6.8800000e+002    +7.4363172e-008    +1.2891611e-007
+6.8900000e+002    +7.9600731e-008    +1.3287656e-007
+6.9000000e+002    +9.0100990e-008    +1.3588605e-007
+6.9100000e+002    +1.0906907e-007    +1.2886517e-007
+6.9200000e+002    +1.1000245e-007    +1.2734864e-007
+6.9300000e+002    +1.1537314e-007    +1.3499648e-007
+6.9400000e+002    +1.3910783e-007    +1.2911883e-007
+6.9500000e+002    +1.2516686e-007    +1.3259412e-007
+6.9600000e+002    +9.8203060e-008    +1.3996808e-007
+6.9700000e+002    +9.3281947e-008    +1.3744992e-007
+6.9800000e+002    +8.1963584e-008    +1.3057685e-007
+6.9900000e+002    +8.3754465e-008    +1.2596026e-007
+7.0000000e+002    +8.8732833e-008    +1.3384971e-007
+7.0100000e+002    +8.8062272e-008    +1.3799050e-007
+7.0200000e+002    +7.9115843e-008    +1.3408903e-007
+7.0300000e+002    +7.8165634e-008    +1.3215417e-007
+7.0400000e+002    +7.5586080e-008    +1.3585861e-007
+7.0500000e+002    +7.7595288e-008    +1.3395247e-007
+7.0600000e+002    +7.2940210e-008    +1.3637121e-007
+7.0700000e+002    +7.3346889e-008    +1.4894047e-007
+7.0800000e+002    +7.4373624e-008    +1.4995618e-007
+7.0900000e+002    +6.9100906e-008    +1.5193932e-007
+7.1000000e+002    +7.0742736e-008    +1.3496462e-007
+7.1100000e+002    +7.7532782e-008    +1.3268529e-007
+7.1200000e+002    +9.2658873e-008    +1.3227974e-007
+7.1300000e+002    +1.0303398e-007    +1.2795299e-007
+7.1400000e+002    +1.0119841e-007    +1.3830721e-007
+7.1500000e+002    +1.0427298e-007    +1.3639023e-007
+7.1600000e+002    +9.9427410e-008    +1.3309032e-007
+7.1700000e+002    +9.4336954e-008    +1.5258212e-007
+7.1800000e+002    +1.0748651e-007    +1.5551130e-007
+7.1900000e+002    +1.0637492e-007    +1.4763505e-007
+7.2000000e+002    +9.7869595e-008    +1.4985528e-007
+7.2100000e+002    +8.1339984e-008    +1.6445688e-007
+7.2200000e+002    +7.0096824e-008    +1.4981431e-007
+7.2300000e+002    +6.3668914e-008    +1.4297515e-007
+7.2400000e+002    +5.6207590e-008    +1.4589938e-007
+7.2500000e+002    +5.5903488e-008    +1.4542310e-007
+7.2600000e+002    +5.6399351e-008    +1.5110020e-007
+7.2700000e+002    +4.7104287e-008    +1.4857071e-007
+7.2800000e+002    +4.6612648e-008    +1.5011646e-007
+7.2900000e+002    +4.4503786e-008    +1.5982712e-007
+7.3000000e+002    +4.8553567e-008    +1.4758659e-007
+7.3100000e+002    +5.0939438e-008    +1.3992967e-007
+7.3200000e+002    +4.4041418e-008    +1.4840131e-007
+7.3300000e+002    +4.0236877e-008    +1.5131403e-007
+7.3400000e+002    +4.0080263e-008    +1.5587935e-007
+7.3500000e+002    +3.9250388e-008    +1.4652434e-007
+7.3600000e+002    +4.1796095e-008    +1.4955678e-007
+7.3700000e+002    +4.3795062e-008    +1.4568680e-007
+7.3800000e+002    +4.3094310e-008    +1.4010476e-007
+7.3900000e+002    +4.2606988e-008    +1.3823646e-007
+7.4000000e+002    +4.4345459e-008    +1.5102556e-007
+7.4100000e+002    +4.5158238e-008    +1.5053652e-007
+7.4200000e+002    +4.4391982e-008    +1.5171378e-007
+7.4300000e+002    +4.3208395e-008    +1.4840865e-007
+7.4400000e+002    +4.5861626e-008    +1.5152750e-007
+7.4500000e+002    +4.7595048e-008    +1.5962299e-007
+7.4600000e+002    +4.7610726e-008    +1.5355317e-007
+7.4700000e+002    +4.8837521e-008    +1.6512688e-007
+7.4800000e+002    +5.3057374e-008    +1.6596553e-007
+7.4900000e+002    +5.4741541e-008    +1.4697436e-007
+7.5000000e+002    +6.1240783e-008    +1.4671720e-007
+7.5100000e+002    +6.2085370e-008    +1.4567112e-007
+7.5200000e+002    +5.3424888e-008    +1.4743887e-007
+7.5300000e+002    +4.6207749e-008    +1.5358150e-007
+7.5400000e+002    +4.3368711e-008    +1.4891660e-007
+7.5500000e+002    +4.4274916e-008    +1.4579096e-007
+7.5600000e+002    +4.8419516e-008    +1.4695274e-007
+7.5700000e+002    +4.5683667e-008    +1.5032361e-007
+7.5800000e+002    +4.4666848e-008    +1.6039459e-007
+7.5900000e+002    +4.4235801e-008    +1.7104333e-007
+7.6000000e+002    +4.5703082e-008    +1.6724583e-007
+7.6100000e+002    +4.3432280e-008    +1.5516883e-007
+7.6200000e+002    +4.3566104e-008    +1.5464549e-007
+7.6300000e+002    +4.5986774e-008    +1.5963106e-007
+7.6400000e+002    +4.2588326e-008    +1.4163972e-007
+7.6500000e+002    +4.3281421e-008    +1.4638846e-007
+7.6600000e+002    +4.1472951e-008    +1.4099811e-007
+7.6700000e+002    +4.2316120e-008    +1.5381860e-007
+7.6800000e+002    +4.1287809e-008    +1.7127128e-007
+7.6900000e+002    +3.8377181e-008    +1.5343200e-007
+7.7000000e+002    +3.2155874e-008    +1.5232769e-007
+7.7100000e+002    +3.4133528e-008    +1.6229004e-007
+7.7200000e+002    +3.5702929e-008    +1.6730625e-007
+7.7300000e+002    +3.7429214e-008    +1.6638445e-007
+7.7400000e+002    +3.7225156e-008    +1.5377859e-007
+7.7500000e+002    +3.6222232e-008    +1.5099771e-007
+7.7600000e+002    +3.7000877e-008    +1.5831932e-007
+7.7700000e+002    +3.7934704e-008    +1.5456452e-007
+7.7800000e+002    +3.6858275e-008    +1.5894443e-007
+7.7900000e+002    +4.6177217e-008    +1.5757068e-007
+7.8000000e+002    +6.0451008e-008    +1.6101639e-007
+7.8100000e+002    +4.3780542e-008    +1.6466973e-007
+7.8200000e+002    +3.5911455e-008    +1.7266055e-007
+7.8300000e+002    +3.7231903e-008    +1.7189882e-007
+7.8400000e+002    +3.8446515e-008    +1.6803084e-007
+7.8500000e+002    +3.6707391e-008    +1.6142742e-007
+7.8600000e+002    +3.9267196e-008    +1.6100066e-007
+7.8700000e+002    +3.9654577e-008    +1.4788424e-007
+7.8800000e+002    +3.8100588e-008    +1.5216169e-007
+7.8900000e+002    +3.3490078e-008    +1.7005593e-007
+7.9000000e+002    +3.5218982e-008    +1.5913861e-007
+7.9100000e+002    +3.7694562e-008    +1.6468600e-007
+7.9200000e+002    +3.5802600e-008    +1.6836012e-007
+7.9300000e+002    +3.3708655e-008    +1.6482710e-007
+7.9400000e+002    +3.7441382e-008    +1.6759785e-007
+7.9500000e+002    +3.4753111e-008    +1.7745872e-007
+7.9600000e+002    +3.7049336e-008    +1.8024438e-007
+7.9700000e+002    +3.8875960e-008    +1.7554235e-007
+7.9800000e+002    +3.7445080e-008    +1.7741975e-007
+7.9900000e+002    +4.0744528e-008    +1.7463708e-007
#
#
# North DC Val: 0.51148905 VoltsSouth DC Val: 0.52746921 Volts
# SR785 Measurement - Timestamp: Aug 31 2020 - 11:52:52
# Parameter File: /home/controls/Git/cit_ctnlab/ctn_scripts/TransRINSpecShort.yml
#---------- Measurement Setup ------------
# Start Frequency (Hz): 0.000000
# Frequency Span (Hz): 102400.000000
# Frequency Resolution: 800
# Number of Averages: 100
# Averaging Mode: RMS
# Window function: Hanning
#---------- Measurement Parameters ----------
# Measurement Group:  "FFT" "FFT"
# Measurements:  "FFT 1" "FFT 2"
# View:  "Log Magnitude" "Log Magnitude"
# Unit:  "Vrms/rtHz" "Vrms/rtHz"
#---------- Input Parameters ----------
# Input Source: Analog
# Input Mode: Single ended, Single ended
# Input Grounding: Float, Float
# Input Coupling: AC, AC
# Input Range: -36.0dBVpk, -36.0dBVpk
# Auto Range: Off, Off
# Auto Range Mode: Tracking, Tracking
# Anti-Aliasing Filter: On, On
#---------- Source Parameters ----------
# Source Type: Sine
# Source Amplitude: 500.0mVpk
# Source On: 0

#---------- Measurement Data ----------
# [Freq(Hz) Display 0(Vrms/rtHz) Display 1(Vrms/rtHz) ]
+8.9600000e+002    +8.9208271e-008    +2.3054200e-007
+1.0240000e+003    +7.3863866e-008    +2.5286030e-007
+1.1520000e+003    +4.4013188e-008    +2.6469846e-007
+1.2800000e+003    +3.6079896e-008    +3.0642238e-007
+1.4080000e+003    +3.8499234e-008    +3.2175475e-007
+1.5360000e+003    +3.8252324e-008    +3.2582670e-007
+1.6640000e+003    +4.1241915e-008    +3.6896051e-007
+1.7920000e+003    +4.7847909e-008    +3.5491172e-007
+1.9200000e+003    +5.2940354e-008    +3.4869956e-007
+2.0480000e+003    +5.8268174e-008    +3.4794576e-007
+2.1760000e+003    +6.1276161e-008    +3.5803305e-007
+2.3040000e+003    +6.6836854e-008    +3.8214375e-007
+2.4320000e+003    +7.6962827e-008    +3.7385064e-007
+2.5600000e+003    +8.8888854e-008    +3.6938002e-007
+2.6880000e+003    +8.7211490e-008    +3.4442266e-007
+2.8160000e+003    +9.2016812e-008    +3.5386660e-007
+2.9440000e+003    +1.0450324e-007    +3.6443714e-007
+3.0720000e+003    +9.6877457e-008    +3.8182290e-007
+3.2000000e+003    +1.1273251e-007    +3.9703588e-007
+3.3280000e+003    +1.1898309e-007    +3.7432667e-007
+3.4560000e+003    +1.2791632e-007    +3.6824619e-007
+3.5840000e+003    +1.3216113e-007    +3.7188352e-007
+3.7120000e+003    +1.3754850e-007    +3.7262205e-007
+3.8400000e+003    +1.4928855e-007    +3.6922515e-007
+3.9680000e+003    +1.5622598e-007    +3.8993565e-007
+4.0960000e+003    +1.6171161e-007    +3.9102204e-007
+4.2240000e+003    +1.6657216e-007    +3.7127194e-007
+4.3520000e+003    +1.8098268e-007    +3.6738842e-007
+4.4800000e+003    +1.8024775e-007    +3.7921296e-007
+4.6080000e+003    +1.7849891e-007    +4.2049163e-007
+4.7360000e+003    +1.8643415e-007    +4.1727361e-007
+4.8640000e+003    +2.3032669e-007    +3.8316929e-007
+4.9920000e+003    +2.2957255e-007    +3.6457800e-007
+5.1200000e+003    +2.2714602e-007    +3.5219600e-007
+5.2480000e+003    +2.0971869e-007    +3.7841440e-007
+5.3760000e+003    +2.0691732e-007    +4.0098439e-007
+5.5040000e+003    +2.4850178e-007    +4.1610059e-007
+5.6320000e+003    +2.6756788e-007    +4.0794259e-007
+5.7600000e+003    +2.7921152e-007    +3.8575902e-007
+5.8880000e+003    +2.8953013e-007    +3.8158402e-007
+6.0160000e+003    +3.1365440e-007    +4.1769670e-007
+6.1440000e+003    +3.0844566e-007    +4.2613632e-007
+6.2720000e+003    +3.1384249e-007    +3.9028771e-007
+6.4000000e+003    +3.1599939e-007    +3.9916497e-007
+6.5280000e+003    +3.4030958e-007    +4.1043063e-007
+6.6560000e+003    +3.3113801e-007    +3.9201805e-007
+6.7840000e+003    +3.3626148e-007    +3.7960453e-007
+6.9120000e+003    +3.5615543e-007    +3.7540585e-007
+7.0400000e+003    +3.8459518e-007    +3.4290844e-007
+7.1680000e+003    +4.0430891e-007    +3.5513625e-007
+7.2960000e+003    +3.8930594e-007    +3.6610430e-007
+7.4240000e+003    +3.8514750e-007    +3.6741545e-007
+7.5520000e+003    +4.0440835e-007    +3.4403263e-007
+7.6800000e+003    +3.9608494e-007    +3.3833280e-007
+7.8080000e+003    +3.8982776e-007    +3.3553789e-007
+7.9360000e+003    +3.8435331e-007    +3.0624412e-007
+8.0640000e+003    +4.3949927e-007    +2.9563870e-007
+8.1920000e+003    +4.8106978e-007    +2.9168194e-007
+8.3200000e+003    +4.5683765e-007    +2.6784298e-007
+8.4480000e+003    +4.5651376e-007    +2.5364000e-007
+8.5760000e+003    +4.7275992e-007    +2.5783629e-007
+8.7040000e+003    +4.9399142e-007    +2.6293475e-007
+8.8320000e+003    +5.0232904e-007    +2.4895346e-007
+8.9600000e+003    +4.8464938e-007    +2.4077181e-007
+9.0880000e+003    +5.2005834e-007    +2.3834593e-007
+9.2160000e+003    +5.7172213e-007    +2.2495300e-007
+9.3440000e+003    +5.4526072e-007    +2.3455669e-007
+9.4720000e+003    +5.1619622e-007    +2.3482160e-007
+9.6000000e+003    +5.2578076e-007    +2.1737911e-007
+9.7280000e+003    +6.1877671e-007    +2.0835768e-007
+9.8560000e+003    +6.3942690e-007    +1.9910264e-007
+9.9840000e+003    +5.5652947e-007    +2.1834549e-007
+1.0112000e+004    +5.8162902e-007    +1.9603456e-007
+1.0240000e+004    +6.2420696e-007    +1.9004138e-007
+1.0368000e+004    +5.9468078e-007    +1.8705438e-007
+1.0496000e+004    +5.9494459e-007    +1.8054386e-007
+1.0624000e+004    +6.2355758e-007    +1.7409511e-007
+1.0752000e+004    +6.4352884e-007    +1.8522424e-007
+1.0880000e+004    +6.3979348e-007    +1.8445466e-007
+1.1008000e+004    +6.5642831e-007    +1.9217384e-007
+1.1136000e+004    +6.1344082e-007    +1.8855718e-007
+1.1264000e+004    +6.2316678e-007    +1.9894357e-007
+1.1392000e+004    +6.6833996e-007    +1.9342107e-007
+1.1520000e+004    +6.6826806e-007    +1.7826055e-007
+1.1648000e+004    +7.0778322e-007    +1.7280905e-007
+1.1776000e+004    +6.7081970e-007    +1.7846951e-007
+1.1904000e+004    +6.2788098e-007    +1.8499864e-007
+1.2032000e+004    +6.4793159e-007    +1.8726728e-007
+1.2160000e+004    +6.9474282e-007    +1.8225532e-007
+1.2288000e+004    +6.4002040e-007    +1.7626758e-007
+1.2416000e+004    +6.4939519e-007    +1.6523479e-007
+1.2544000e+004    +6.6782576e-007    +1.6979678e-007
+1.2672000e+004    +6.9975869e-007    +1.8440910e-007
+1.2800000e+004    +6.5077347e-007    +1.9027731e-007
+1.2928000e+004    +6.1396031e-007    +1.7866361e-007
+1.3056000e+004    +6.4084736e-007    +1.6845682e-007
+1.3184000e+004    +6.1517289e-007    +1.8208451e-007
+1.3312000e+004    +6.7513042e-007    +1.7788614e-007
+1.3440000e+004    +6.5850878e-007    +1.6738323e-007
+1.3568000e+004    +6.3634110e-007    +1.7878233e-007
+1.3696000e+004    +6.2097297e-007    +1.7220408e-007
+1.3824000e+004    +6.1266405e-007    +1.8424882e-007
+1.3952000e+004    +6.4759661e-007    +1.8852820e-007
+1.4080000e+004    +6.3232454e-007    +2.0036053e-007
+1.4208000e+004    +5.9337958e-007    +2.0991129e-007
+1.4336000e+004    +6.1376011e-007    +2.0946372e-007
+1.4464000e+004    +6.4554428e-007    +2.0598365e-007
+1.4592000e+004    +6.1806173e-007    +2.0309811e-007
+1.4720000e+004    +6.1135506e-007    +1.9244072e-007
+1.4848000e+004    +6.0151615e-007    +1.8634103e-007
+1.4976000e+004    +6.2274819e-007    +1.8057023e-007
+1.5104000e+004    +6.3258148e-007    +1.8783356e-007
+1.5232000e+004    +5.6851093e-007    +2.1354866e-007
+1.5360000e+004    +5.9770036e-007    +2.2751442e-007
+1.5488000e+004    +6.1947821e-007    +2.2703182e-007
+1.5616000e+004    +5.8845973e-007    +1.9715483e-007
+1.5744000e+004    +5.7010612e-007    +1.9857869e-007
+1.5872000e+004    +5.8976758e-007    +1.9981526e-007
+1.6000000e+004    +6.2509923e-007    +1.9870147e-007
+1.6128000e+004    +6.2445855e-007    +1.9389395e-007
+1.6256000e+004    +6.3796756e-007    +1.8972594e-007
+1.6384000e+004    +5.8697617e-007    +1.9981395e-007
+1.6512000e+004    +5.9332484e-007    +2.0700776e-007
+1.6640000e+004    +5.9400929e-007    +2.0180775e-007
+1.6768000e+004    +5.6263531e-007    +1.8431842e-007
+1.6896000e+004    +5.4608932e-007    +2.1347107e-007
+1.7024000e+004    +5.5514170e-007    +2.2235643e-007
+1.7152000e+004    +5.5766168e-007    +2.0600537e-007
+1.7280000e+004    +5.5571797e-007    +2.0800431e-007
+1.7408000e+004    +5.0363349e-007    +2.0927178e-007
+1.7536000e+004    +4.9848308e-007    +1.9558115e-007
+1.7664000e+004    +5.1467276e-007    +2.0753437e-007
+1.7792000e+004    +5.5454711e-007    +2.1899422e-007
+1.7920000e+004    +5.6278418e-007    +2.3656447e-007
+1.8048000e+004    +5.0414963e-007    +2.3802714e-007
+1.8176000e+004    +4.9939848e-007    +2.1589227e-007
+1.8304000e+004    +5.3086802e-007    +2.2488632e-007
+1.8432000e+004    +5.0332665e-007    +2.3112695e-007
+1.8560000e+004    +4.8669864e-007    +2.2535100e-007
+1.8688000e+004    +5.1217268e-007    +2.2670426e-007
+1.8816000e+004    +5.2940760e-007    +2.1441160e-007
+1.8944000e+004    +5.1362503e-007    +2.2975057e-007
+1.9072000e+004    +4.7219604e-007    +2.3640401e-007
+1.9200000e+004    +4.8229623e-007    +2.4333721e-007
+1.9328000e+004    +4.8097576e-007    +2.4795750e-007
+1.9456000e+004    +4.9031695e-007    +2.4438276e-007
+1.9584000e+004    +5.1256927e-007    +2.5060194e-007
+1.9712000e+004    +4.9206915e-007    +2.3641778e-007
+1.9840000e+004    +5.0400797e-007    +2.4055063e-007
+1.9968000e+004    +4.9294840e-007    +2.5421181e-007
+2.0096000e+004    +4.5016361e-007    +2.6868273e-007
+2.0224000e+004    +4.6287673e-007    +2.7154107e-007
+2.0352000e+004    +4.5384053e-007    +2.6155439e-007
+2.0480000e+004    +4.7058381e-007    +2.5013051e-007
+2.0608000e+004    +4.8605409e-007    +2.4964379e-007
+2.0736000e+004    +4.1835443e-007    +2.5995570e-007
+2.0864000e+004    +4.2786678e-007    +2.6554758e-007
+2.0992000e+004    +4.4923141e-007    +2.6559482e-007
+2.1120000e+004    +4.7856895e-007    +2.9331338e-007
+2.1248000e+004    +4.3539180e-007    +2.9201712e-007
+2.1376000e+004    +4.7157067e-007    +2.7491836e-007
+2.1504000e+004    +4.8800376e-007    +2.6523989e-007
+2.1632000e+004    +4.5099918e-007    +2.4537408e-007
+2.1760000e+004    +4.3136393e-007    +2.4402590e-007
+2.1888000e+004    +4.3116648e-007    +2.5701408e-007
+2.2016000e+004    +4.1176804e-007    +2.4588999e-007
+2.2144000e+004    +4.2047040e-007    +2.7318458e-007
+2.2272000e+004    +4.3151883e-007    +3.0396953e-007
+2.2400000e+004    +4.4589871e-007    +3.1034901e-007
+2.2528000e+004    +4.4085832e-007    +2.7710212e-007
+2.2656000e+004    +4.2584961e-007    +2.6837756e-007
+2.2784000e+004    +4.1580327e-007    +2.9538432e-007
+2.2912000e+004    +4.2365630e-007    +2.9681055e-007
+2.3040000e+004    +4.0125261e-007    +3.0409336e-007
+2.3168000e+004    +4.0434529e-007    +3.0220184e-007
+2.3296000e+004    +4.1655633e-007    +2.8226677e-007
+2.3424000e+004    +3.7210856e-007    +3.0445685e-007
+2.3552000e+004    +3.8555706e-007    +3.1098142e-007
+2.3680000e+004    +4.1498186e-007    +3.0574151e-007
+2.3808000e+004    +4.4970764e-007    +3.1628889e-007
+2.3936000e+004    +4.2977786e-007    +2.8960929e-007
+2.4064000e+004    +4.0931278e-007    +2.7548157e-007
+2.4192000e+004    +3.9205852e-007    +3.0199951e-007
+2.4320000e+004    +3.6852529e-007    +3.2554919e-007
+2.4448000e+004    +3.6578527e-007    +4.1159538e-007
+2.4576000e+004    +3.7400912e-007    +4.1417027e-007
+2.4704000e+004    +3.6528400e-007    +3.4822091e-007
+2.4832000e+004    +3.7451250e-007    +3.3423885e-007
+2.4960000e+004    +3.5197758e-007    +3.4122249e-007
+2.5088000e+004    +3.7740944e-007    +3.3903152e-007
+2.5216000e+004    +3.7421532e-007    +3.1609932e-007
+2.5344000e+004    +4.2252285e-007    +3.2823348e-007
+2.5472000e+004    +4.3519157e-007    +3.2421477e-007
+2.5600000e+004    +3.8479160e-007    +3.2750128e-007
+2.5728000e+004    +3.8547790e-007    +3.4386835e-007
+2.5856000e+004    +3.9381484e-007    +3.2501205e-007
+2.5984000e+004    +3.6536665e-007    +3.2581309e-007
+2.6112000e+004    +3.4571082e-007    +3.1451756e-007
+2.6240000e+004    +3.5029666e-007    +3.1454900e-007
+2.6368000e+004    +3.5970885e-007    +3.1373568e-007
+2.6496000e+004    +3.5564585e-007    +3.3186924e-007
+2.6624000e+004    +3.8540679e-007    +5.3714564e-007
+2.6752000e+004    +3.7395327e-007    +4.8211939e-007
+2.6880000e+004    +3.5484939e-007    +3.8317603e-007
+2.7008000e+004    +3.4949258e-007    +3.5156236e-007
+2.7136000e+004    +3.3480262e-007    +3.4223103e-007
+2.7264000e+004    +3.4298225e-007    +3.3030864e-007
+2.7392000e+004    +3.5883707e-007    +3.4048486e-007
+2.7520000e+004    +3.9057494e-007    +3.6824295e-007
+2.7648000e+004    +3.7287089e-007    +3.6586118e-007
+2.7776000e+004    +3.4635784e-007    +3.4587484e-007
+2.7904000e+004    +3.3285195e-007    +3.6239618e-007
+2.8032000e+004    +3.4849936e-007    +3.7418448e-007
+2.8160000e+004    +3.3226411e-007    +3.6169376e-007
+2.8288000e+004    +3.3154294e-007    +3.3850296e-007
+2.8416000e+004    +3.3403890e-007    +3.4856291e-007
+2.8544000e+004    +3.7410356e-007    +3.5319664e-007
+2.8672000e+004    +3.6591140e-007    +3.6561502e-007
+2.8800000e+004    +3.1719100e-007    +3.7850580e-007
+2.8928000e+004    +3.1859690e-007    +3.9454585e-007
+2.9056000e+004    +3.3001720e-007    +3.9341984e-007
+2.9184000e+004    +3.3672367e-007    +3.8109121e-007
+2.9312000e+004    +3.3698925e-007    +3.9427650e-007
+2.9440000e+004    +3.4973402e-007    +4.0527112e-007
+2.9568000e+004    +3.7112318e-007    +4.1523026e-007
+2.9696000e+004    +3.5006479e-007    +4.2298655e-007
+2.9824000e+004    +3.2218958e-007    +4.1550024e-007
+2.9952000e+004    +3.3991338e-007    +4.1455789e-007
+3.0080000e+004    +3.4686857e-007    +3.9394675e-007
+3.0208000e+004    +3.2798960e-007    +3.9811931e-007
+3.0336000e+004    +3.1713108e-007    +3.8901666e-007
+3.0464000e+004    +3.2114136e-007    +4.1895612e-007
+3.0592000e+004    +3.1743556e-007    +4.2217366e-007
+3.0720000e+004    +3.3100460e-007    +4.2542715e-007
+3.0848000e+004    +3.1761405e-007    +4.1742621e-007
+3.0976000e+004    +3.1534640e-007    +3.9055263e-007
+3.1104000e+004    +3.4444082e-007    +4.1101688e-007
+3.1232000e+004    +3.3793071e-007    +4.0806219e-007
+3.1360000e+004    +3.0775658e-007    +4.1416300e-007
+3.1488000e+004    +2.9234306e-007    +4.5669523e-007
+3.1616000e+004    +3.0538791e-007    +4.2954011e-007
+3.1744000e+004    +3.0335073e-007    +4.4414458e-007
+3.1872000e+004    +2.9623658e-007    +4.3660151e-007
+3.2000000e+004    +3.0622226e-007    +4.2485252e-007
+3.2128000e+004    +3.2027722e-007    +4.6768901e-007
+3.2256000e+004    +3.0817517e-007    +4.1808534e-007
+3.2384000e+004    +3.0145088e-007    +3.7981633e-007
+3.2512000e+004    +2.8407908e-007    +4.0817824e-007
+3.2640000e+004    +2.8868641e-007    +4.7149871e-007
+3.2768000e+004    +2.9558353e-007    +4.9800991e-007
+3.2896000e+004    +2.8348427e-007    +4.8445787e-007
+3.3024000e+004    +2.9439261e-007    +4.5750878e-007
+3.3152000e+004    +2.9073234e-007    +4.3712146e-007
+3.3280000e+004    +2.8461761e-007    +4.6522607e-007
+3.3408000e+004    +2.7715291e-007    +4.3650803e-007
+3.3536000e+004    +2.8537426e-007    +4.1067992e-007
+3.3664000e+004    +2.8277364e-007    +4.4568725e-007
+3.3792000e+004    +2.9697387e-007    +4.8052129e-007
+3.3920000e+004    +2.9941071e-007    +4.5830012e-007
+3.4048000e+004    +3.0474547e-007    +4.4050702e-007
+3.4176000e+004    +3.0843313e-007    +4.6113379e-007
+3.4304000e+004    +2.9237967e-007    +4.8717607e-007
+3.4432000e+004    +2.8650823e-007    +5.0556150e-007
+3.4560000e+004    +2.6706570e-007    +4.4189440e-007
+3.4688000e+004    +2.6358364e-007    +4.5654332e-007
+3.4816000e+004    +2.7473882e-007    +4.8910499e-007
+3.4944000e+004    +2.7486311e-007    +5.4427738e-007
+3.5072000e+004    +2.6051316e-007    +5.1595254e-007
+3.5200000e+004    +2.5957837e-007    +4.8154800e-007
+3.5328000e+004    +2.8046418e-007    +4.6443043e-007
+3.5456000e+004    +2.7757136e-007    +5.0761560e-007
+3.5584000e+004    +2.9688096e-007    +5.3482933e-007
+3.5712000e+004    +2.8046233e-007    +4.8910982e-007
+3.5840000e+004    +3.0007848e-007    +4.7146972e-007
+3.5968000e+004    +2.9403759e-007    +4.7450931e-007
+3.6096000e+004    +2.8377451e-007    +4.4813135e-007
+3.6224000e+004    +2.9365205e-007    +4.3897217e-007
+3.6352000e+004    +2.8957876e-007    +5.1234815e-007
+3.6480000e+004    +2.7153061e-007    +4.9548629e-007
+3.6608000e+004    +2.5416659e-007    +5.0329572e-007
+3.6736000e+004    +2.5262611e-007    +5.6425984e-007
+3.6864000e+004    +2.6691765e-007    +5.2707082e-007
+3.6992000e+004    +2.6004162e-007    +5.0401241e-007
+3.7120000e+004    +2.5345096e-007    +5.4556011e-007
+3.7248000e+004    +2.5118896e-007    +5.4014168e-007
+3.7376000e+004    +2.5873982e-007    +5.6706210e-007
+3.7504000e+004    +2.4047932e-007    +5.5316849e-007
+3.7632000e+004    +2.6159947e-007    +4.8832374e-007
+3.7760000e+004    +2.6605628e-007    +5.2086921e-007
+3.7888000e+004    +2.6440307e-007    +5.2487002e-007
+3.8016000e+004    +2.6287498e-007    +5.6248518e-007
+3.8144000e+004    +2.4900760e-007    +5.8626898e-007
+3.8272000e+004    +2.4205761e-007    +5.8607782e-007
+3.8400000e+004    +2.4784563e-007    +6.3955889e-007
+3.8528000e+004    +2.4494366e-007    +5.8190750e-007
+3.8656000e+004    +2.4936764e-007    +5.4716361e-007
+3.8784000e+004    +2.6694286e-007    +5.6281880e-007
+3.8912000e+004    +2.3796521e-007    +5.5979712e-007
+3.9040000e+004    +2.3643568e-007    +5.9262106e-007
+3.9168000e+004    +2.7857430e-007    +6.0199051e-007
+3.9296000e+004    +2.6179629e-007    +5.7599146e-007
+3.9424000e+004    +2.5329518e-007    +6.0210556e-007
+3.9552000e+004    +2.5798781e-007    +6.3712196e-007
+3.9680000e+004    +2.3907063e-007    +5.8231461e-007
+3.9808000e+004    +2.2823399e-007    +5.7320295e-007
+3.9936000e+004    +2.3631473e-007    +5.9584153e-007
+4.0064000e+004    +2.4384002e-007    +6.0470990e-007
+4.0192000e+004    +2.4223283e-007    +5.7629569e-007
+4.0320000e+004    +2.2750244e-007    +5.7192995e-007
+4.0448000e+004    +2.5359347e-007    +6.0203348e-007
+4.0576000e+004    +2.5192918e-007    +5.7413831e-007
+4.0704000e+004    +2.4272776e-007    +5.6635588e-007
+4.0832000e+004    +2.5512531e-007    +5.6830061e-007
+4.0960000e+004    +2.4102997e-007    +5.7955788e-007
+4.1088000e+004    +2.5472141e-007    +6.2011992e-007
+4.1216000e+004    +2.5453608e-007    +6.2856799e-007
+4.1344000e+004    +2.4125447e-007    +5.8518538e-007
+4.1472000e+004    +2.4439055e-007    +5.8732172e-007
+4.1600000e+004    +2.3844069e-007    +5.5630221e-007
+4.1728000e+004    +2.2246707e-007    +5.8173055e-007
+4.1856000e+004    +2.0521975e-007    +6.3130273e-007
+4.1984000e+004    +2.2952013e-007    +6.7567913e-007
+4.2112000e+004    +2.3038537e-007    +6.7989720e-007
+4.2240000e+004    +2.4018590e-007    +6.0854501e-007
+4.2368000e+004    +2.3912443e-007    +5.8344034e-007
+4.2496000e+004    +2.3579275e-007    +6.2172410e-007
+4.2624000e+004    +2.3757389e-007    +6.0830786e-007
+4.2752000e+004    +2.4670561e-007    +6.2891655e-007
+4.2880000e+004    +2.2519865e-007    +6.8009876e-007
+4.3008000e+004    +2.3482494e-007    +6.3172496e-007
+4.3136000e+004    +2.4280291e-007    +6.2462175e-007
+4.3264000e+004    +2.2658631e-007    +6.4948716e-007
+4.3392000e+004    +2.2213828e-007    +5.9182389e-007
+4.3520000e+004    +2.1583445e-007    +6.3163623e-007
+4.3648000e+004    +2.1805801e-007    +6.3047497e-007
+4.3776000e+004    +2.1501889e-007    +6.3547463e-007
+4.3904000e+004    +2.2851508e-007    +6.9901461e-007
+4.4032000e+004    +2.1710696e-007    +6.7640434e-007
+4.4160000e+004    +2.3907114e-007    +6.4824042e-007
+4.4288000e+004    +2.3343679e-007    +6.8810255e-007
+4.4416000e+004    +2.2868650e-007    +6.6363089e-007
+4.4544000e+004    +2.1026929e-007    +6.5760560e-007
+4.4672000e+004    +1.9930934e-007    +6.3545298e-007
+4.4800000e+004    +2.0868072e-007    +6.9134677e-007
+4.4928000e+004    +2.0669049e-007    +6.6927987e-007
+4.5056000e+004    +2.1585056e-007    +7.0055586e-007
+4.5184000e+004    +2.2393942e-007    +7.5703520e-007
+4.5312000e+004    +2.1796799e-007    +7.8380833e-007
+4.5440000e+004    +2.1449944e-007    +7.5181589e-007
+4.5568000e+004    +2.2114614e-007    +6.8622541e-007
+4.5696000e+004    +2.0424440e-007    +7.2220615e-007
+4.5824000e+004    +2.0351442e-007    +7.4587388e-007
+4.5952000e+004    +2.0720059e-007    +7.0302775e-007
+4.6080000e+004    +2.0733030e-007    +7.7282652e-007
+4.6208000e+004    +1.9737034e-007    +7.2311065e-007
+4.6336000e+004    +2.0822596e-007    +6.9654686e-007
+4.6464000e+004    +2.0923433e-007    +7.5066691e-007
+4.6592000e+004    +2.0605219e-007    +7.7616761e-007
+4.6720000e+004    +2.0149800e-007    +7.3907023e-007
+4.6848000e+004    +1.9205825e-007    +7.5272447e-007
+4.6976000e+004    +2.1189624e-007    +7.9533203e-007
+4.7104000e+004    +2.0417870e-007    +7.1922528e-007
+4.7232000e+004    +1.8113218e-007    +6.9886727e-007
+4.7360000e+004    +1.8661375e-007    +7.7038919e-007
+4.7488000e+004    +2.0631570e-007    +8.1756502e-007
+4.7616000e+004    +2.0871188e-007    +7.5393535e-007
+4.7744000e+004    +2.2275964e-007    +7.0793163e-007
+4.7872000e+004    +2.1407945e-007    +7.6598644e-007
+4.8000000e+004    +2.0940601e-007    +7.7879514e-007
+4.8128000e+004    +2.0666121e-007    +7.5631573e-007
+4.8256000e+004    +2.1015204e-007    +7.1018781e-007
+4.8384000e+004    +2.1657507e-007    +7.1178493e-007
+4.8512000e+004    +2.1383514e-007    +7.5282941e-007
+4.8640000e+004    +1.9820925e-007    +7.1966917e-007
+4.8768000e+004    +1.9079906e-007    +7.3798452e-007
+4.8896000e+004    +1.8090481e-007    +7.8980531e-007
+4.9024000e+004    +1.9505124e-007    +7.9932136e-007
+4.9152000e+004    +2.0050049e-007    +7.7840190e-007
+4.9280000e+004    +2.0121833e-007    +8.1016526e-007
+4.9408000e+004    +1.9512537e-007    +8.3841411e-007
+4.9536000e+004    +1.8180323e-007    +8.3773779e-007
+4.9664000e+004    +1.8159774e-007    +8.4150452e-007
+4.9792000e+004    +1.9547575e-007    +7.7417434e-007
+4.9920000e+004    +1.9112888e-007    +8.1323907e-007
+5.0048000e+004    +1.9167589e-007    +8.8180116e-007
+5.0176000e+004    +1.9229287e-007    +1.2688499e-006
+5.0304000e+004    +1.8708478e-007    +1.3416826e-006
+5.0432000e+004    +1.9004868e-007    +9.1477483e-007
+5.0560000e+004    +2.0538791e-007    +7.9850292e-007
+5.0688000e+004    +1.8644828e-007    +7.7805925e-007
+5.0816000e+004    +1.7457880e-007    +7.5075678e-007
+5.0944000e+004    +1.8348713e-007    +8.2677894e-007
+5.1072000e+004    +1.8278115e-007    +8.1474502e-007
+5.1200000e+004    +1.7503272e-007    +8.5429377e-007
+5.1328000e+004    +1.8045210e-007    +9.0024355e-007
+5.1456000e+004    +1.8929148e-007    +8.7722293e-007
+5.1584000e+004    +1.8573724e-007    +8.6992486e-007
+5.1712000e+004    +1.7885360e-007    +8.5795125e-007
+5.1840000e+004    +1.6775120e-007    +9.0633301e-007
+5.1968000e+004    +1.7342241e-007    +8.5868822e-007
+5.2096000e+004    +1.8293997e-007    +8.8626803e-007
+5.2224000e+004    +1.7817817e-007    +8.7009965e-007
+5.2352000e+004    +1.7359044e-007    +1.0719599e-006
+5.2480000e+004    +1.7919581e-007    +1.0995813e-006
+5.2608000e+004    +1.8122189e-007    +9.3119246e-007
+5.2736000e+004    +1.7684506e-007    +8.5002824e-007
+5.2864000e+004    +1.7710369e-007    +7.7190725e-007
+5.2992000e+004    +1.6823169e-007    +8.5718199e-007
+5.3120000e+004    +1.8183518e-007    +8.7203921e-007
+5.3248000e+004    +1.8268585e-007    +8.1751210e-007
+5.3376000e+004    +1.7716378e-007    +9.6572990e-007
+5.3504000e+004    +1.6250257e-007    +9.9541671e-007
+5.3632000e+004    +1.5883766e-007    +9.6799522e-007
+5.3760000e+004    +1.8426580e-007    +9.2823825e-007
+5.3888000e+004    +1.8630094e-007    +8.7999831e-007
+5.4016000e+004    +1.7932335e-007    +9.1643255e-007
+5.4144000e+004    +1.6219973e-007    +9.2679625e-007
+5.4272000e+004    +1.6592017e-007    +9.4527525e-007
+5.4400000e+004    +1.8054605e-007    +8.5887211e-007
+5.4528000e+004    +1.7125059e-007    +8.9501219e-007
+5.4656000e+004    +1.7210409e-007    +9.2102323e-007
+5.4784000e+004    +1.6688648e-007    +9.4576939e-007
+5.4912000e+004    +1.8411413e-007    +9.1217117e-007
+5.5040000e+004    +2.2012361e-007    +9.2352542e-007
+5.5168000e+004    +2.7795988e-007    +9.5554321e-007
+5.5296000e+004    +2.0454310e-007    +9.1799956e-007
+5.5424000e+004    +1.9882324e-007    +9.2824234e-007
+5.5552000e+004    +4.3411873e-007    +1.0494016e-006
+5.5680000e+004    +3.5662890e-007    +1.1382089e-006
+5.5808000e+004    +1.6622960e-007    +9.6957376e-007
+5.5936000e+004    +1.6938360e-007    +1.0084547e-006
+5.6064000e+004    +1.7108728e-007    +1.0161169e-006
+5.6192000e+004    +1.6127241e-007    +9.7796976e-007
+5.6320000e+004    +1.5999919e-007    +9.2471663e-007
+5.6448000e+004    +1.5627469e-007    +9.3149100e-007
+5.6576000e+004    +1.5944100e-007    +9.2843703e-007
+5.6704000e+004    +1.5451242e-007    +9.8384044e-007
+5.6832000e+004    +1.5933092e-007    +9.5889175e-007
+5.6960000e+004    +1.7072063e-007    +9.7160273e-007
+5.7088000e+004    +1.6631668e-007    +1.0247361e-006
+5.7216000e+004    +1.7085394e-007    +9.6141230e-007
+5.7344000e+004    +1.6726806e-007    +1.0118008e-006
+5.7472000e+004    +1.7345079e-007    +1.0354681e-006
+5.7600000e+004    +1.6953244e-007    +9.8729345e-007
+5.7728000e+004    +1.4956122e-007    +9.8872215e-007
+5.7856000e+004    +1.4875759e-007    +9.7811801e-007
+5.7984000e+004    +1.6086867e-007    +1.0383644e-006
+5.8112000e+004    +1.6791041e-007    +1.0356159e-006
+5.8240000e+004    +1.6354737e-007    +1.0321831e-006
+5.8368000e+004    +1.5798091e-007    +1.0188965e-006
+5.8496000e+004    +1.5704597e-007    +1.0692328e-006
+5.8624000e+004    +1.7860339e-007    +1.0868224e-006
+5.8752000e+004    +2.6218694e-007    +1.0478818e-006
+5.8880000e+004    +2.0814595e-007    +9.9294755e-007
+5.9008000e+004    +1.5023089e-007    +1.0235947e-006
+5.9136000e+004    +1.4695225e-007    +9.9826457e-007
+5.9264000e+004    +1.5325723e-007    +1.0527854e-006
+5.9392000e+004    +1.5603689e-007    +1.0247350e-006
+5.9520000e+004    +1.5606277e-007    +1.0771050e-006
+5.9648000e+004    +1.4931429e-007    +1.0815489e-006
+5.9776000e+004    +1.4802150e-007    +1.0359116e-006
+5.9904000e+004    +1.4273643e-007    +1.0575480e-006
+6.0032000e+004    +1.5225010e-007    +1.0399961e-006
+6.0160000e+004    +1.4541241e-007    +9.8264866e-007
+6.0288000e+004    +1.5420787e-007    +9.6123074e-007
+6.0416000e+004    +1.6346209e-007    +9.8387829e-007
+6.0544000e+004    +1.5720347e-007    +1.0732024e-006
+6.0672000e+004    +1.5754958e-007    +1.1084530e-006
+6.0800000e+004    +1.5989171e-007    +1.1652577e-006
+6.0928000e+004    +1.4920498e-007    +1.2021203e-006
+6.1056000e+004    +1.5333534e-007    +1.1188844e-006
+6.1184000e+004    +1.6312789e-007    +1.0170623e-006
+6.1312000e+004    +1.6152812e-007    +1.0275041e-006
+6.1440000e+004    +1.6422538e-007    +1.0145696e-006
+6.1568000e+004    +1.7593752e-007    +1.0735406e-006
+6.1696000e+004    +1.6834089e-007    +1.1575239e-006
+6.1824000e+004    +1.6024954e-007    +1.1404480e-006
+6.1952000e+004    +1.5137319e-007    +1.1394843e-006
+6.2080000e+004    +1.5139928e-007    +1.0812759e-006
+6.2208000e+004    +1.5110417e-007    +9.9444003e-007
+6.2336000e+004    +1.5067609e-007    +1.0451425e-006
+6.2464000e+004    +1.4727109e-007    +1.0620885e-006
+6.2592000e+004    +1.4061501e-007    +1.0630289e-006
+6.2720000e+004    +1.4979770e-007    +1.0867508e-006
+6.2848000e+004    +1.5907257e-007    +1.1906463e-006
+6.2976000e+004    +1.6038895e-007    +1.1309488e-006
+6.3104000e+004    +1.5361978e-007    +1.0796044e-006
+6.3232000e+004    +1.4463060e-007    +1.0948661e-006
+6.3360000e+004    +1.4700002e-007    +1.1726518e-006
+6.3488000e+004    +1.5105043e-007    +1.1523792e-006
+6.3616000e+004    +1.4782060e-007    +1.1173756e-006
+6.3744000e+004    +1.5494240e-007    +1.1631524e-006
+6.3872000e+004    +1.5276584e-007    +1.0685627e-006
+6.4000000e+004    +1.4730473e-007    +1.1144093e-006
+6.4128000e+004    +1.4082484e-007    +1.1451659e-006
+6.4256000e+004    +1.3980957e-007    +1.0981938e-006
+6.4384000e+004    +1.4893705e-007    +1.1227276e-006
+6.4512000e+004    +1.4636291e-007    +1.0862127e-006
+6.4640000e+004    +1.3459925e-007    +1.0861805e-006
+6.4768000e+004    +1.4247448e-007    +1.1920381e-006
+6.4896000e+004    +1.5572728e-007    +1.1972835e-006
+6.5024000e+004    +1.4867318e-007    +1.1464516e-006
+6.5152000e+004    +1.3236139e-007    +1.1843840e-006
+6.5280000e+004    +1.3527156e-007    +1.1556559e-006
+6.5408000e+004    +1.5318943e-007    +1.1468344e-006
+6.5536000e+004    +1.7808956e-007    +1.1585525e-006
+6.5664000e+004    +1.4857559e-007    +1.2104299e-006
+6.5792000e+004    +1.4454615e-007    +1.2868391e-006
+6.5920000e+004    +1.3427746e-007    +1.2175075e-006
+6.6048000e+004    +1.3222355e-007    +1.0546827e-006
+6.6176000e+004    +1.3284679e-007    +1.1322111e-006
+6.6304000e+004    +1.4212746e-007    +1.1488370e-006
+6.6432000e+004    +1.5256335e-007    +1.1634118e-006
+6.6560000e+004    +1.3789887e-007    +1.1239622e-006
+6.6688000e+004    +1.3070380e-007    +1.1052775e-006
+6.6816000e+004    +1.3418138e-007    +1.1459470e-006
+6.6944000e+004    +1.4091191e-007    +1.1619780e-006
+6.7072000e+004    +1.4639842e-007    +1.2318466e-006
+6.7200000e+004    +1.6360897e-007    +1.2459277e-006
+6.7328000e+004    +1.6006683e-007    +1.2788416e-006
+6.7456000e+004    +1.2195612e-007    +1.3285847e-006
+6.7584000e+004    +1.1836053e-007    +1.1440976e-006
+6.7712000e+004    +1.3308374e-007    +1.1132964e-006
+6.7840000e+004    +1.4501366e-007    +1.2045977e-006
+6.7968000e+004    +1.3904980e-007    +1.2220314e-006
+6.8096000e+004    +1.2612632e-007    +1.2138236e-006
+6.8224000e+004    +1.2975836e-007    +1.1603106e-006
+6.8352000e+004    +1.2744781e-007    +1.1964885e-006
+6.8480000e+004    +1.8026023e-007    +1.2213300e-006
+6.8608000e+004    +2.1569467e-007    +1.1162438e-006
+6.8736000e+004    +1.4179547e-007    +1.1915631e-006
+6.8864000e+004    +1.2254307e-007    +1.2008026e-006
+6.8992000e+004    +1.1894259e-007    +1.2242419e-006
+6.9120000e+004    +1.3349717e-007    +1.2165427e-006
+6.9248000e+004    +1.2702954e-007    +1.3067681e-006
+6.9376000e+004    +1.2132146e-007    +1.3005774e-006
+6.9504000e+004    +1.3019205e-007    +1.2495842e-006
+6.9632000e+004    +1.2281099e-007    +1.2472320e-006
+6.9760000e+004    +1.2449800e-007    +1.2777315e-006
+6.9888000e+004    +1.4266450e-007    +1.2930453e-006
+7.0016000e+004    +1.3829263e-007    +1.2669497e-006
+7.0144000e+004    +6.2651469e-007    +1.3755289e-006
+7.0272000e+004    +9.8264434e-007    +1.5993174e-006
+7.0400000e+004    +4.0528090e-007    +1.4431906e-006
+7.0528000e+004    +1.2439143e-007    +1.2640290e-006
+7.0656000e+004    +2.8055751e-007    +1.2133598e-006
+7.0784000e+004    +5.8197588e-007    +1.2372237e-006
+7.0912000e+004    +3.4745520e-007    +1.3086290e-006
+7.1040000e+004    +1.3040764e-007    +1.2596262e-006
+7.1168000e+004    +1.2414802e-007    +1.2469719e-006
+7.1296000e+004    +1.2591532e-007    +1.2984600e-006
+7.1424000e+004    +1.2406026e-007    +1.2278402e-006
+7.1552000e+004    +1.2954995e-007    +1.2898549e-006
+7.1680000e+004    +1.3453837e-007    +1.2813505e-006
+7.1808000e+004    +1.4258057e-007    +1.3098206e-006
+7.1936000e+004    +1.3257970e-007    +1.3186212e-006
+7.2064000e+004    +1.2289124e-007    +1.2768592e-006
+7.2192000e+004    +1.3022020e-007    +1.1327434e-006
+7.2320000e+004    +1.3860684e-007    +1.1918444e-006
+7.2448000e+004    +1.3780956e-007    +1.2616940e-006
+7.2576000e+004    +1.2819076e-007    +1.2878864e-006
+7.2704000e+004    +1.3193105e-007    +1.3416604e-006
+7.2832000e+004    +1.3236023e-007    +1.2970081e-006
+7.2960000e+004    +1.3542136e-007    +1.3279722e-006
+7.3088000e+004    +1.3585189e-007    +1.2904882e-006
+7.3216000e+004    +1.3130503e-007    +1.2526915e-006
+7.3344000e+004    +1.1858075e-007    +1.2318006e-006
+7.3472000e+004    +1.3057455e-007    +1.2437326e-006
+7.3600000e+004    +1.3096250e-007    +1.1278835e-006
+7.3728000e+004    +1.1927294e-007    +1.1786566e-006
+7.3856000e+004    +1.1749612e-007    +1.3776721e-006
+7.3984000e+004    +1.2505532e-007    +1.2947231e-006
+7.4112000e+004    +1.3786132e-007    +1.2967048e-006
+7.4240000e+004    +1.2947700e-007    +1.3018819e-006
+7.4368000e+004    +1.2644732e-007    +1.3274051e-006
+7.4496000e+004    +1.2884296e-007    +1.1322695e-006
+7.4624000e+004    +1.2280020e-007    +1.1117403e-006
+7.4752000e+004    +1.2068905e-007    +1.3034967e-006
+7.4880000e+004    +1.2330523e-007    +1.3614560e-006
+7.5008000e+004    +1.2844323e-007    +1.3142143e-006
+7.5136000e+004    +1.2135970e-007    +1.2697349e-006
+7.5264000e+004    +1.2935665e-007    +1.2545124e-006
+7.5392000e+004    +1.2522446e-007    +1.3933084e-006
+7.5520000e+004    +1.1838392e-007    +1.4558958e-006
+7.5648000e+004    +1.2315667e-007    +1.3853853e-006
+7.5776000e+004    +1.2617508e-007    +1.3152189e-006
+7.5904000e+004    +1.2259072e-007    +1.2553392e-006
+7.6032000e+004    +1.1646758e-007    +1.2274817e-006
+7.6160000e+004    +1.1996296e-007    +1.3585652e-006
+7.6288000e+004    +1.2459044e-007    +1.4061641e-006
+7.6416000e+004    +1.2010899e-007    +1.3116497e-006
+7.6544000e+004    +1.2329413e-007    +1.3812283e-006
+7.6672000e+004    +1.1874230e-007    +1.4691885e-006
+7.6800000e+004    +1.1622333e-007    +5.1381903e-006
+7.6928000e+004    +1.2078304e-007    +9.2444661e-006
+7.7056000e+004    +1.2086198e-007    +4.3372092e-006
+7.7184000e+004    +1.1897446e-007    +1.4384005e-006
+7.7312000e+004    +1.2451919e-007    +1.4805986e-006
+7.7440000e+004    +1.2607178e-007    +1.3687524e-006
+7.7568000e+004    +3.5888988e-007    +1.3507670e-006
+7.7696000e+004    +7.3027473e-007    +1.3585219e-006
+7.7824000e+004    +4.0307668e-007    +1.4255396e-006
+7.7952000e+004    +1.1754477e-007    +1.3656780e-006
+7.8080000e+004    +1.1414703e-007    +1.3425343e-006
+7.8208000e+004    +1.4119966e-007    +1.3728749e-006
+7.8336000e+004    +2.3237300e-007    +1.3375158e-006
+7.8464000e+004    +1.7960532e-007    +1.2707111e-006
+7.8592000e+004    +1.3056854e-007    +1.2885258e-006
+7.8720000e+004    +1.2304069e-007    +1.4200486e-006
+7.8848000e+004    +1.1734773e-007    +1.4586942e-006
+7.8976000e+004    +1.2585755e-007    +1.3266241e-006
+7.9104000e+004    +1.2705590e-007    +1.3859619e-006
+7.9232000e+004    +1.2449445e-007    +1.3980527e-006
+7.9360000e+004    +1.9462853e-007    +1.3662659e-006
+7.9488000e+004    +3.6641234e-007    +1.3413364e-006
+7.9616000e+004    +2.4995123e-007    +1.3899469e-006
+7.9744000e+004    +1.2831849e-007    +1.3171048e-006
+7.9872000e+004    +1.2408111e-007    +1.2397884e-006
+8.0000000e+004    +1.2575285e-007    +1.3558472e-006
+8.0128000e+004    +1.3183374e-007    +1.3955146e-006
+8.0256000e+004    +1.3055276e-007    +1.3299289e-006
+8.0384000e+004    +1.3773862e-007    +1.3690124e-006
+8.0512000e+004    +1.2844804e-007    +1.4048169e-006
+8.0640000e+004    +1.3209107e-007    +1.5036488e-006
+8.0768000e+004    +1.4419852e-007    +1.5087275e-006
+8.0896000e+004    +1.4871759e-007    +1.3765350e-006
+8.1024000e+004    +1.4887786e-007    +1.3788464e-006
+8.1152000e+004    +1.4405499e-007    +1.3816287e-006
+8.1280000e+004    +1.3938133e-007    +1.3223487e-006
+8.1408000e+004    +1.4099425e-007    +1.3650739e-006
+8.1536000e+004    +1.4847025e-007    +1.4740245e-006
+8.1664000e+004    +1.5055404e-007    +1.4730603e-006
+8.1792000e+004    +1.4651468e-007    +1.3944210e-006
+8.1920000e+004    +1.4089211e-007    +1.3823236e-006
+8.2048000e+004    +1.5087357e-007    +1.4430495e-006
+8.2176000e+004    +1.5346552e-007    +1.4096623e-006
+8.2304000e+004    +1.5729775e-007    +1.3678825e-006
+8.2432000e+004    +1.5270865e-007    +1.4475484e-006
+8.2560000e+004    +1.4431352e-007    +1.4290766e-006
+8.2688000e+004    +1.4596043e-007    +1.4182646e-006
+8.2816000e+004    +1.4878978e-007    +1.4595354e-006
+8.2944000e+004    +1.4815515e-007    +1.4343301e-006
+8.3072000e+004    +1.4754121e-007    +1.3734477e-006
+8.3200000e+004    +1.4984985e-007    +1.3794323e-006
+8.3328000e+004    +1.5165598e-007    +1.4474069e-006
+8.3456000e+004    +1.3634592e-007    +1.4127829e-006
+8.3584000e+004    +1.3533143e-007    +1.4727303e-006
+8.3712000e+004    +1.4780144e-007    +1.3939159e-006
+8.3840000e+004    +1.5425985e-007    +1.3886443e-006
+8.3968000e+004    +1.5331968e-007    +1.3690063e-006
+8.4096000e+004    +1.6244960e-007    +1.2332215e-006
+8.4224000e+004    +1.6084994e-007    +1.3466724e-006
+8.4352000e+004    +1.5963350e-007    +1.4370272e-006
+8.4480000e+004    +1.7067151e-007    +1.4369672e-006
+8.4608000e+004    +1.6711073e-007    +1.3690334e-006
+8.4736000e+004    +1.7290887e-007    +1.4067479e-006
+8.4864000e+004    +1.9269699e-007    +1.4871383e-006
+8.4992000e+004    +2.0869149e-007    +1.5108161e-006
+8.5120000e+004    +2.1831097e-007    +1.3923877e-006
+8.5248000e+004    +2.5133355e-007    +1.4780469e-006
+8.5376000e+004    +2.7309792e-007    +1.3863272e-006
+8.5504000e+004    +3.1653414e-007    +1.3463945e-006
+8.5632000e+004    +3.6409037e-007    +1.3249778e-006
+8.5760000e+004    +4.1128095e-007    +1.3786420e-006
+8.5888000e+004    +4.5491612e-007    +1.4295287e-006
+8.6016000e+004    +5.0039301e-007    +1.4060097e-006
+8.6144000e+004    +5.1830261e-007    +1.3688997e-006
+8.6272000e+004    +5.0715931e-007    +1.2894415e-006
+8.6400000e+004    +4.6019909e-007    +1.2866880e-006
+8.6528000e+004    +4.1361039e-007    +1.3628425e-006
+8.6656000e+004    +3.6709085e-007    +1.3836219e-006
+8.6784000e+004    +3.8234100e-007    +1.2637764e-006
+8.6912000e+004    +4.3867922e-007    +1.3529444e-006
+8.7040000e+004    +4.9165061e-007    +1.4149221e-006
+8.7168000e+004    +5.2097960e-007    +1.3906078e-006
+8.7296000e+004    +4.7549969e-007    +1.4204510e-006
+8.7424000e+004    +4.1100017e-007    +1.4005201e-006
+8.7552000e+004    +4.1399022e-007    +1.4364688e-006
+8.7680000e+004    +4.4749709e-007    +1.4888619e-006
+8.7808000e+004    +4.8854093e-007    +1.6012871e-006
+8.7936000e+004    +5.2804222e-007    +1.6198313e-006
+8.8064000e+004    +4.5387938e-007    +1.4733384e-006
+8.8192000e+004    +4.7937880e-007    +1.3470155e-006
+8.8320000e+004    +5.2042390e-007    +1.2850206e-006
+8.8448000e+004    +4.7549136e-007    +1.2873959e-006
+8.8576000e+004    +4.6771365e-007    +1.2950615e-006
+8.8704000e+004    +4.7864461e-007    +1.2723179e-006
+8.8832000e+004    +4.6117682e-007    +1.3708278e-006
+8.8960000e+004    +4.7770538e-007    +1.4571959e-006
+8.9088000e+004    +4.7648641e-007    +1.5095626e-006
+8.9216000e+004    +4.6202777e-007    +1.3794460e-006
+8.9344000e+004    +4.8904860e-007    +1.3946828e-006
+8.9472000e+004    +4.6956757e-007    +1.4395729e-006
+8.9600000e+004    +4.6221399e-007    +1.5106818e-006
+8.9728000e+004    +4.7702241e-007    +1.4314417e-006
+8.9856000e+004    +4.6809228e-007    +1.4161172e-006
+8.9984000e+004    +4.9054688e-007    +1.3791795e-006
+9.0112000e+004    +5.0283563e-007    +1.3771020e-006
+9.0240000e+004    +4.9282067e-007    +1.3861688e-006
+9.0368000e+004    +4.9255345e-007    +1.4125270e-006
+9.0496000e+004    +4.7820492e-007    +1.2476128e-006
+9.0624000e+004    +4.7980166e-007    +1.3395630e-006
+9.0752000e+004    +4.9374790e-007    +1.4089644e-006
+9.0880000e+004    +4.6869192e-007    +1.3409094e-006
+9.1008000e+004    +4.8205055e-007    +1.4720563e-006
+9.1136000e+004    +4.8068011e-007    +1.4725202e-006
+9.1264000e+004    +4.9206807e-007    +1.4109305e-006
+9.1392000e+004    +4.8543916e-007    +1.4249450e-006
+9.1520000e+004    +5.0836798e-007    +1.5672283e-006
+9.1648000e+004    +5.2399133e-007    +1.4285417e-006
+9.1776000e+004    +5.4209397e-007    +1.4494234e-006
+9.1904000e+004    +5.2827937e-007    +1.4930429e-006
+9.2032000e+004    +5.3899123e-007    +1.4652096e-006
+9.2160000e+004    +5.5278480e-007    +1.4193581e-006
+9.2288000e+004    +5.3386015e-007    +1.4616056e-006
+9.2416000e+004    +5.3612513e-007    +1.4679615e-006
+9.2544000e+004    +5.1431118e-007    +1.4064158e-006
+9.2672000e+004    +5.2954249e-007    +1.4676859e-006
+9.2800000e+004    +5.5878019e-007    +1.3996977e-006
+9.2928000e+004    +4.8543438e-007    +1.4045949e-006
+9.3056000e+004    +5.1699027e-007    +1.4717411e-006
+9.3184000e+004    +5.6729874e-007    +1.3590426e-006
+9.3312000e+004    +5.2518129e-007    +1.3078576e-006
+9.3440000e+004    +5.4723694e-007    +1.3374408e-006
+9.3568000e+004    +5.9687932e-007    +1.3220961e-006
+9.3696000e+004    +5.1154547e-007    +1.3702740e-006
+9.3824000e+004    +4.4303607e-007    +1.3727964e-006
+9.3952000e+004    +5.3418262e-007    +1.2950942e-006
+9.4080000e+004    +5.7862195e-007    +1.4170193e-006
+9.4208000e+004    +4.9898415e-007    +1.3655700e-006
+9.4336000e+004    +4.5625168e-007    +1.3839774e-006
+9.4464000e+004    +6.6484080e-007    +1.4587519e-006
+9.4592000e+004    +6.5742080e-007    +1.4402654e-006
+9.4720000e+004    +6.0287090e-007    +1.4413015e-006
+9.4848000e+004    +5.3085751e-007    +1.4580729e-006
+9.4976000e+004    +3.8707299e-007    +1.4850367e-006
+9.5104000e+004    +4.5188148e-007    +1.3788615e-006
+9.5232000e+004    +5.7896511e-007    +1.4020756e-006
+9.5360000e+004    +6.9458645e-007    +1.4516897e-006
+9.5488000e+004    +7.7729504e-007    +1.4137528e-006
+9.5616000e+004    +7.6980155e-007    +1.3336488e-006
+9.5744000e+004    +7.0111298e-007    +1.3800080e-006
+9.5872000e+004    +6.1384503e-007    +1.3528122e-006
+9.6000000e+004    +5.1843352e-007    +1.4267877e-006
+9.6128000e+004    +4.3569403e-007    +1.5949632e-006
+9.6256000e+004    +3.4439620e-007    +1.4805433e-006
+9.6384000e+004    +2.9021248e-007    +1.3635685e-006
+9.6512000e+004    +2.7014428e-007    +1.3681769e-006
+9.6640000e+004    +2.7192922e-007    +1.4529910e-006
+9.6768000e+004    +2.6724229e-007    +1.3935930e-006
+9.6896000e+004    +2.4211451e-007    +1.4643267e-006
+9.7024000e+004    +2.6057123e-007    +1.5346840e-006
+9.7152000e+004    +2.5962768e-007    +1.4400661e-006
+9.7280000e+004    +2.0319446e-007    +1.3048827e-006
+9.7408000e+004    +1.9150235e-007    +1.3384074e-006
+9.7536000e+004    +2.2131543e-007    +1.3453069e-006
+9.7664000e+004    +2.3033857e-007    +1.4110900e-006
+9.7792000e+004    +2.5906900e-007    +1.4961903e-006
+9.7920000e+004    +3.4705522e-007    +1.4218787e-006
+9.8048000e+004    +3.2042072e-007    +1.3555629e-006
+9.8176000e+004    +2.7860611e-007    +1.3334951e-006
+9.8304000e+004    +2.5514771e-007    +1.3596994e-006
+9.8432000e+004    +2.4578770e-007    +1.2940096e-006
+9.8560000e+004    +2.3672531e-007    +1.4183673e-006
+9.8688000e+004    +2.2342687e-007    +1.3551863e-006
+9.8816000e+004    +2.2873924e-007    +1.3200176e-006
+9.8944000e+004    +2.2491349e-007    +1.4174036e-006
+9.9072000e+004    +1.9710116e-007    +1.3823054e-006
+9.9200000e+004    +2.0539535e-007    +1.3202553e-006
+9.9328000e+004    +2.0365323e-007    +1.3591649e-006
+9.9456000e+004    +2.0521072e-007    +1.3610436e-006
+9.9584000e+004    +1.9178600e-007    +1.3170990e-006
+9.9712000e+004    +1.7912284e-007    +1.2706944e-006
+9.9840000e+004    +1.8380450e-007    +1.3017103e-006
+9.9968000e+004    +1.7531045e-007    +1.3073953e-006
+1.0009600e+005    +1.8136839e-007    +1.2916888e-006
+1.0022400e+005    +1.9064473e-007    +1.3511333e-006
+1.0035200e+005    +1.8743759e-007    +1.2457868e-006
+1.0048000e+005    +1.7618031e-007    +1.3399807e-006
+1.0060800e+005    +1.7193864e-007    +1.4650632e-006
+1.0073600e+005    +1.7509441e-007    +1.3845429e-006
+1.0086400e+005    +1.8147138e-007    +1.2549492e-006
+1.0099200e+005    +1.7287698e-007    +1.3336737e-006
+1.0112000e+005    +1.7180278e-007    +1.3496640e-006
+1.0124800e+005    +1.6639706e-007    +1.2572482e-006
+1.0137600e+005    +1.6670683e-007    +1.2194701e-006
+1.0150400e+005    +1.6296231e-007    +1.2789877e-006
+1.0163200e+005    +1.7638955e-007    +1.3313971e-006
+1.0176000e+005    +1.7747334e-007    +1.3274372e-006
+1.0188800e+005    +1.5652593e-007    +1.3063019e-006
+1.0201600e+005    +1.7639303e-007    +1.3444460e-006
+1.0214400e+005    +1.7931212e-007    +1.3588844e-006
+1.0227200e+005    +1.8702029e-007    +1.2572992e-006
