# Comments from moku data file:% Moku:Phasemeter 
# 
# % Ch 1 - DC coupling, 50 Ohm impedance, 1 V range
# 
# % Ch 1 bandwidth = 1.0000000000e+04 (Hz)
# 
# % Acquisition rate: 1.5625000000e+04 Hz
# 
# % External 10 MHz clock
# 
# % Acquired 2020-02-06 T 23:59:40 -0800
# 
# % Time, Set frequency 1 (Hz), Frequency 1 (Hz), Phase 1 (cyc), I 1 (V), Q 1 (V)
# 
# #########################################################
# ASD calculated by mokuReadFreqNoise.py
# Frequency [Hz]         Freq ASD1 [Hz/rtHz]      Freq ASDlb1 [Hz/rtHz]    Freq ASDub1 [Hz/rtHz]    
# 
0.000000000000000000e+00 2.086331116809292610e+02 7.558032218446571449e+01 5.783662388430490182e+02
1.000000000000000056e-01 4.220797395672995549e+02 2.500358904189258737e+02 6.939506288372178915e+02
2.000000000000000111e-01 2.726042259226469469e+02 1.952563983271957113e+02 3.410810266243017281e+02
3.000000000000000444e-01 1.745812171428047179e+02 9.943510051634341096e+01 3.349599380459454778e+02
4.000000000000000222e-01 1.359829361736145756e+02 9.636588843314297037e+01 3.313186998614251593e+02
5.000000000000000000e-01 2.475317442637347654e+02 9.310506348570780233e+01 3.599204277691097218e+02
6.000000000000000888e-01 2.608459560499259737e+02 1.511873006543322049e+02 3.344976681752602303e+02
7.000000000000000666e-01 1.923995672750065751e+02 1.532105583391445975e+02 2.846461164588626502e+02
8.000000000000000444e-01 1.465139838032271484e+02 1.095275129219824350e+02 2.258738587954345292e+02
9.000000000000000222e-01 1.679889186367120715e+02 1.179502230995838943e+02 2.252670608877126313e+02
1.000000000000000000e+00 1.385375145702902273e+02 1.115305022190231483e+02 1.746575573992881800e+02
1.100000000000000089e+00 1.204828024154315216e+02 7.680043977027196433e+01 1.961101173876712664e+02
1.200000000000000178e+00 8.681458338302125810e+01 6.894748257130676450e+01 1.550933562636388956e+02
1.300000000000000044e+00 1.223484558306462446e+02 6.924074515024959453e+01 1.632674118431530133e+02
1.400000000000000133e+00 9.092309734066155613e+01 5.210541222698073227e+01 1.729033474873517378e+02
1.500000000000000000e+00 9.391997151735959903e+01 7.298334189736917210e+01 1.612128427521607250e+02
1.600000000000000089e+00 9.330296199341873375e+01 6.173697386869410764e+01 1.258992489309418801e+02
1.700000000000000178e+00 9.168785210265789942e+01 6.826924752040578426e+01 1.222832339868103873e+02
1.800000000000000044e+00 9.141225256557120815e+01 5.090811361426639792e+01 1.221149298769838794e+02
1.900000000000000133e+00 6.202854251711112710e+01 3.549318023091066721e+01 8.766879112515832162e+01
2.000000000000000000e+00 9.517645648548702297e+01 3.666380895120180838e+01 1.522744522340421724e+02
2.100000000000000089e+00 1.032903683813588174e+02 4.715345936819055339e+01 1.541090137733500569e+02
2.200000000000000178e+00 9.251427708603928579e+01 6.778746343650882977e+01 1.546283524272002126e+02
2.300000000000000266e+00 8.115709258471251530e+01 5.589108300746386959e+01 1.139692664813393890e+02
2.400000000000000355e+00 4.502428730566641946e+01 3.819347123315791492e+01 9.612379598619925503e+01
2.500000000000000000e+00 9.508678798901621576e+01 5.945506948592677077e+01 1.457846814075855377e+02
2.600000000000000089e+00 9.553736503051048601e+01 7.669909761058262632e+01 1.318396811042727279e+02
2.700000000000000178e+00 7.816045627965078779e+01 4.591979330189167285e+01 1.617596003830294649e+02
2.800000000000000266e+00 1.098199717098861186e+02 5.772412657891454302e+01 1.719378158898434776e+02
2.900000000000000355e+00 9.215067684910751211e+01 4.577161288988678933e+01 1.432416040326993993e+02
3.000000000000000000e+00 7.506986033563273963e+01 4.990461510790006372e+01 8.604359122268084548e+01
3.100000000000000089e+00 8.111036733055267689e+01 6.035326082765998734e+01 1.078158137965504153e+02
3.200000000000000178e+00 8.173763311654035135e+01 4.549858170680674618e+01 1.177747345909743473e+02
3.300000000000000266e+00 6.413471332875170106e+01 2.994294030708395482e+01 1.013418280664141378e+02
3.400000000000000355e+00 5.759609792867429690e+01 3.119991879081487340e+01 1.102388347303704705e+02
3.500000000000000000e+00 6.094428645238757980e+01 3.909617119739549196e+01 9.901234666258332595e+01
3.600000000000000089e+00 5.864554480363748468e+01 2.583268491481585372e+01 9.836710080275220491e+01
3.700000000000000178e+00 4.464104197397256968e+01 2.640568032745902016e+01 8.783588083804782798e+01
3.800000000000000266e+00 4.370341518795992641e+01 1.917777545412649332e+01 9.733209419592870404e+01
3.900000000000000355e+00 6.384746911767255284e+01 4.056617643464058176e+01 8.602198270313856199e+01
4.000000000000000000e+00 5.278059511196268971e+01 3.648421306786674734e+01 8.502339856307580135e+01
4.100000000000000533e+00 5.098088075639428496e+01 2.274756758776231536e+01 7.134956158931213110e+01
4.200000000000000178e+00 3.071247911037460554e+01 1.931690986465136817e+01 6.139543492162331972e+01
4.299999999999999822e+00 2.887528262458781825e+01 1.849113005746501415e+01 7.949353337960006627e+01
4.400000000000000355e+00 3.583734643657427199e+01 1.361495433705773550e+01 8.092440893541592573e+01
4.500000000000000000e+00 5.039368824849250217e+01 2.276634882735337584e+01 5.969108191078531434e+01
4.600000000000000533e+00 3.678470178873824636e+01 1.527250399218763022e+01 6.512283404325606284e+01
4.700000000000000178e+00 5.086192998268268894e+01 2.938311035817507033e+01 7.262309189918732955e+01
4.800000000000000711e+00 3.753505373162275305e+01 2.919217396477140625e+01 6.245102591703069095e+01
4.900000000000000355e+00 4.024293229011221484e+01 1.987852621949558696e+01 6.782444804906545244e+01
5.000000000000000000e+00 3.194635887257165408e+01 1.676116666071702710e+01 5.309629979071275585e+01
5.100000000000000533e+00 3.335991917063456924e+01 1.901052428754739054e+01 4.638295577833558525e+01
5.200000000000000178e+00 3.480723291059110380e+01 2.510429036901410171e+01 4.895834843031948225e+01
5.300000000000000711e+00 4.192127003849974898e+01 2.133059985979404161e+01 5.926696677084477471e+01
5.400000000000000355e+00 3.541923271299798159e+01 1.744362862709627748e+01 5.286072491605191459e+01
5.500000000000000000e+00 4.464164994286484500e+01 2.965770867491395890e+01 5.879379469005285586e+01
5.600000000000000533e+00 5.078902306978731218e+01 3.455047067979715081e+01 6.885654436057932060e+01
5.700000000000000178e+00 3.341081654640142773e+01 1.784207433798993492e+01 5.880710930823500604e+01
5.800000000000000711e+00 3.802670744681734760e+01 1.852746166646885939e+01 5.353701183089118132e+01
5.900000000000000355e+00 2.600085527210684688e+01 1.780168160207945860e+01 6.166248119235702774e+01
6.000000000000000000e+00 3.248557244788327836e+01 1.884748004524891130e+01 5.054255381027505223e+01
6.100000000000000533e+00 2.859572465196585966e+01 2.461553902348299872e+01 6.000526227812505908e+01
6.200000000000000178e+00 2.834295101497826153e+01 1.691670549191504236e+01 5.080483382609752852e+01
6.300000000000000711e+00 3.059466378416951926e+01 1.926075785455090283e+01 4.885054507816922609e+01
6.400000000000000355e+00 3.667859012637698868e+01 2.372908702005793202e+01 6.220743649164955968e+01
6.500000000000000000e+00 3.203454878726203958e+01 1.639418854052704333e+01 5.185621183554895453e+01
6.600000000000000533e+00 3.574415576714902443e+01 1.672300762508359639e+01 5.229628628629328801e+01
6.700000000000000178e+00 3.459014083836402165e+01 1.923432366455435627e+01 3.852801301474205786e+01
6.800000000000000711e+00 3.168747389425229599e+01 1.863791688506477939e+01 4.512049574387800277e+01
6.900000000000000355e+00 2.377778871885023193e+01 1.533542243365557489e+01 3.782968103565651319e+01
7.000000000000000000e+00 2.827735596613064217e+01 1.706849153279006615e+01 4.117736993582720118e+01
7.100000000000000533e+00 2.803496747702073577e+01 1.990857260729937650e+01 5.810444877613077352e+01
7.200000000000000178e+00 3.918265613236327027e+01 1.625374676980909072e+01 4.434140461317143433e+01
7.300000000000000711e+00 2.168632653317506254e+01 6.309168951247223767e+00 4.136177648225464765e+01
7.400000000000000355e+00 3.826916905336917551e+01 2.343075735285549044e+01 5.006706165460143865e+01
7.500000000000000000e+00 3.741110912792090915e+01 2.482774864442454898e+01 4.630397824081134672e+01
7.600000000000000533e+00 3.389047862434971137e+01 1.376874745571198844e+01 4.235800099125669504e+01
7.700000000000000178e+00 2.503222906853103069e+01 1.647264113509537964e+01 3.517123046041889012e+01
7.800000000000000711e+00 2.360187666609518686e+01 1.644837749655289016e+01 3.422647852586275263e+01
7.900000000000000355e+00 2.746664565513911072e+01 8.613664636717762946e+00 3.448677330745205438e+01
8.000000000000000000e+00 1.865114373307516971e+01 1.064332403537014216e+01 2.779313826624080619e+01
8.099999999999999645e+00 1.810563857404226340e+01 1.416893345563560658e+01 3.588982580451438054e+01
8.200000000000001066e+00 2.262203862988916470e+01 1.105031180498687604e+01 3.127955429365597695e+01
8.300000000000000711e+00 1.797179742850730122e+01 1.250505795003553722e+01 2.951829904774862356e+01
8.400000000000000355e+00 2.125769627659944305e+01 8.924049212608021975e+00 2.916318088296474542e+01
8.500000000000000000e+00 2.068336863857462760e+01 1.482148679400826552e+01 3.523541800453462258e+01
8.599999999999999645e+00 2.414714387668220041e+01 1.725231834919093643e+01 3.517208127499480952e+01
8.700000000000001066e+00 2.218857575677385086e+01 1.537992166298125518e+01 3.210828082715482878e+01
8.800000000000000711e+00 3.468156812383544718e+01 1.594067296887243934e+01 4.312900330559186557e+01
8.900000000000000355e+00 2.631207895453789902e+01 1.041214253051423810e+01 4.089102636615937314e+01
9.000000000000000000e+00 2.216141947259741229e+01 1.486378332224660070e+01 3.884566659765035723e+01
9.099999999999999645e+00 1.758848667054196468e+01 1.127007026562494652e+01 3.303973640342101703e+01
9.200000000000001066e+00 2.382380754538129608e+01 1.622431211208292723e+01 3.368525797828579726e+01
9.300000000000000711e+00 1.771099420671373537e+01 6.582009969472137456e+00 3.216660319777150079e+01
9.400000000000000355e+00 2.541892597040751056e+01 1.379034600196214733e+01 4.218502921830875607e+01
9.500000000000000000e+00 2.356090125463696694e+01 1.154688289570358428e+01 3.154272489540035096e+01
9.600000000000001421e+00 1.658884748871607684e+01 1.389091019574262909e+01 2.426792478258415642e+01
9.700000000000001066e+00 1.840255325564470112e+01 9.814881253375741466e+00 2.430867595692912531e+01
9.800000000000000711e+00 1.684627421248150014e+01 9.354496359048084742e+00 2.828133304767588641e+01
9.900000000000000355e+00 2.259606771901165700e+01 1.188792030470958494e+01 2.873933994326815977e+01
1.000000000000000000e+01 1.826466594516632114e+01 6.293976158222839956e+00 2.915936699595662773e+01
1.000000000000000000e+01 1.943604184547819713e+01 1.117594959293957224e+01 2.956775314812012567e+01
1.100000000000000000e+01 1.867340142134228387e+01 9.182294337955605457e+00 2.804165895912544926e+01
1.200000000000000000e+01 1.547409993458612298e+01 8.343489995623880162e+00 2.351784250822428746e+01
1.300000000000000000e+01 1.387524338694621839e+01 7.013661904319711482e+00 2.135974900862833792e+01
1.400000000000000000e+01 1.329077049258084564e+01 7.593219249881768107e+00 2.007240544292381657e+01
1.500000000000000000e+01 1.190724597524590855e+01 5.107490510712169751e+00 1.907280694797501752e+01
1.600000000000000000e+01 9.736962568101933613e+00 5.328219649022587490e+00 1.589150320883875089e+01
1.700000000000000000e+01 8.370106805092452973e+00 3.767945741151600192e+00 1.591500488918507017e+01
1.800000000000000000e+01 8.752053856820683819e+00 4.021670194971319390e+00 1.528557369389151610e+01
1.900000000000000000e+01 7.615128519103861571e+00 4.353711971641536671e+00 1.436244696171652890e+01
2.000000000000000000e+01 7.501062937450305945e+00 4.322868519256747533e+00 1.260918890812586390e+01
2.100000000000000000e+01 7.471336302445905631e+00 4.126858660665083889e+00 1.311542563851053700e+01
2.200000000000000000e+01 7.174646623062803208e+00 3.551204381469623694e+00 1.153432630246925505e+01
2.300000000000000000e+01 6.135559463389028245e+00 3.022490145178237331e+00 1.112218883611783937e+01
2.400000000000000000e+01 6.586958060111020252e+00 3.128867973351384002e+00 1.139573926200987053e+01
2.500000000000000000e+01 6.638750761429416336e+00 3.618423531770434298e+00 1.089486230803453637e+01
2.600000000000000000e+01 6.047304540223371383e+00 3.232822587955427096e+00 1.027818658047201161e+01
2.700000000000000000e+01 5.357917976505240709e+00 2.804177776125658994e+00 1.016279203295228228e+01
2.800000000000000000e+01 5.414216246230092899e+00 3.014159418717764272e+00 9.228231803692489521e+00
2.900000000000000000e+01 4.856279287939027078e+00 2.636735379423981840e+00 8.996419346548352181e+00
3.000000000000000000e+01 4.376414861169735993e+00 2.256189349625159934e+00 8.014029815601713125e+00
3.100000000000000000e+01 4.520547247442060268e+00 1.919336734085303142e+00 7.606519108361444736e+00
3.200000000000000000e+01 4.694968451355880035e+00 2.262208154943651017e+00 7.321595224346864939e+00
3.300000000000000000e+01 3.672557170330009502e+00 1.766987266017596259e+00 8.023835778421759102e+00
3.400000000000000000e+01 3.230567169613005163e+00 1.755937532336183882e+00 6.967726063545483406e+00
3.500000000000000000e+01 3.463098412212529453e+00 1.496602482676157031e+00 7.091069967252629169e+00
3.600000000000000000e+01 3.273466167605583621e+00 1.785023712410744423e+00 6.068977522514886758e+00
3.700000000000000000e+01 3.004183166597897525e+00 1.599340919088797053e+00 6.460911652720302989e+00
3.800000000000000000e+01 2.893789519247107478e+00 1.476443902477664771e+00 6.598618242071624174e+00
3.900000000000000000e+01 3.219171189652194176e+00 1.334487543117306219e+00 6.372001345222078506e+00
4.000000000000000000e+01 2.930351044906075675e+00 1.284527595622817930e+00 5.810161572490324389e+00
4.100000000000000000e+01 2.680857728062998824e+00 1.050633199328712131e+00 5.305807516352178510e+00
4.200000000000000000e+01 2.332169164375760939e+00 1.112418332238476415e+00 5.774041443084697356e+00
4.300000000000000000e+01 2.479146144179421363e+00 9.918741054926697442e-01 5.130906068344138760e+00
4.400000000000000000e+01 2.036102408745917636e+00 1.064588175264230996e+00 5.670202799190362519e+00
4.500000000000000000e+01 2.268977942380416835e+00 9.159771988959237721e-01 5.695007661501779950e+00
4.600000000000000000e+01 1.880270284920323665e+00 9.119023307408316015e-01 4.624509047799737260e+00
4.700000000000000000e+01 1.847113008129689149e+00 1.002075594308622586e+00 4.308948190792929900e+00
4.800000000000000000e+01 1.861246312146754844e+00 8.774519771418938241e-01 4.227671505376167538e+00
4.900000000000000000e+01 1.883805109843647685e+00 7.791258120872825987e-01 4.717940415180291502e+00
5.000000000000000000e+01 1.729498819247044628e+00 7.975050485062830097e-01 3.832824992033217359e+00
5.100000000000000000e+01 1.555725355214258920e+00 7.166181692310613638e-01 3.764889409768368722e+00
5.200000000000000000e+01 1.608097391294378120e+00 6.427045713827118645e-01 3.736338485663763365e+00
5.300000000000000000e+01 1.485750326402656363e+00 6.791116186143691946e-01 3.198089069865656331e+00
5.400000000000000000e+01 1.289457595290749659e+00 5.639449234090577745e-01 3.348486842113989059e+00
5.500000000000000000e+01 1.363658995190921264e+00 5.953711864338531168e-01 3.007603367508271841e+00
5.600000000000000000e+01 1.269516028897532456e+00 5.930451085442433046e-01 2.783549986606558058e+00
5.700000000000000000e+01 1.225127231590120713e+00 5.065745559208802984e-01 2.309926528294033332e+00
5.800000000000000000e+01 1.212677484272883355e+00 4.467873513787332662e-01 2.432524996558040442e+00
5.900000000000000000e+01 1.151169258438272669e+00 5.816398242954344822e-01 2.345730830761001862e+00
6.000000000000000000e+01 1.121970992021185998e+00 4.991092922489395178e-01 2.442635829564918204e+00
6.100000000000000000e+01 9.837845661442186085e-01 4.447116766034829860e-01 1.959894694793385739e+00
6.200000000000000000e+01 1.060751274470985495e+00 4.592010786733498606e-01 2.120093282276790170e+00
6.300000000000000000e+01 8.748564697703083981e-01 4.141802250216982673e-01 1.699564989942888626e+00
6.400000000000000000e+01 7.266394026737942324e-01 4.082015705367166847e-01 1.613968552408110657e+00
6.500000000000000000e+01 8.037372439487330267e-01 3.779767649013169861e-01 1.580696679357517898e+00
6.600000000000000000e+01 7.741891599898060861e-01 3.819255601103582198e-01 1.635902224392539406e+00
6.700000000000000000e+01 8.218974131975679276e-01 3.693531287352611603e-01 1.977459528080295348e+00
6.800000000000000000e+01 8.365629124018407747e-01 4.226136970566755635e-01 1.564449827038153495e+00
6.900000000000000000e+01 7.526544661245879730e-01 3.555320302545373345e-01 1.361304422976435502e+00
7.000000000000000000e+01 6.667221683287689604e-01 3.565053428214967068e-01 1.265363720746380372e+00
7.100000000000000000e+01 7.260623742498062416e-01 3.143446899943292960e-01 1.263507060016403338e+00
7.200000000000000000e+01 7.095855425168848818e-01 3.273578004216760595e-01 1.225077275860775305e+00
7.300000000000000000e+01 6.752561522798279370e-01 3.309221691600069959e-01 1.130375180734452867e+00
7.400000000000000000e+01 5.988540478306383363e-01 3.112736649637665720e-01 1.230954219033772779e+00
7.500000000000000000e+01 5.345341410954675965e-01 2.765144745989098207e-01 1.099626892593263960e+00
7.600000000000000000e+01 5.445906179177296691e-01 2.472719972483023998e-01 9.007886836610026204e-01
7.700000000000000000e+01 5.190657881329123757e-01 2.864960880891516681e-01 9.306956877790878435e-01
7.800000000000000000e+01 5.623181262377978662e-01 2.744203778604167865e-01 9.018313801785501349e-01
7.900000000000000000e+01 5.242436140848371062e-01 2.783581042208727041e-01 8.066815527047461742e-01
8.000000000000000000e+01 5.120884281279148853e-01 2.454008788041932565e-01 9.119359200278717159e-01
8.100000000000000000e+01 5.040658971663898313e-01 3.086787435694990922e-01 8.648401878921747610e-01
8.200000000000000000e+01 5.114170935122619444e-01 2.210869547235131960e-01 9.064450895170381717e-01
8.300000000000000000e+01 4.802878620743152860e-01 2.135159795367894686e-01 7.836103186794588504e-01
8.400000000000000000e+01 4.363113250969509194e-01 2.067679056327459963e-01 7.724625663837357825e-01
8.500000000000000000e+01 4.841894439430460273e-01 2.123801441440141269e-01 7.170879691810904122e-01
8.600000000000000000e+01 4.505868464192558376e-01 2.100109424664551583e-01 7.813043073137609928e-01
8.700000000000000000e+01 4.227788134714537960e-01 1.830496177719096451e-01 7.585343635694921094e-01
8.800000000000000000e+01 3.681524757770495149e-01 2.006574809227198164e-01 7.410476703103563434e-01
8.900000000000000000e+01 3.980119860448197433e-01 2.123681681731058868e-01 7.196317705612369497e-01
9.000000000000000000e+01 3.973858911535826932e-01 2.265812930319619778e-01 6.407178997260749576e-01
9.100000000000000000e+01 3.805456058221742266e-01 1.566933724523364435e-01 6.397716079135888911e-01
9.200000000000000000e+01 3.969962762381661903e-01 1.786136684289214849e-01 6.044453075314408785e-01
9.300000000000000000e+01 4.001045215943643818e-01 1.603251440238336600e-01 6.234400296464576163e-01
9.400000000000000000e+01 3.436518843956405389e-01 1.780498970567941097e-01 5.954734422978703590e-01
9.500000000000000000e+01 3.193974653717674417e-01 1.496971330027548064e-01 5.829253959027758114e-01
9.600000000000000000e+01 3.541493482005285132e-01 1.581293714862753996e-01 5.666249452112943619e-01
9.700000000000000000e+01 3.468904822089852180e-01 2.008045306731852664e-01 5.859237221965772902e-01
9.800000000000000000e+01 3.513586656356030846e-01 1.745098993531483678e-01 5.747591642073772711e-01
9.900000000000000000e+01 3.366956126453437559e-01 1.627423290024518077e-01 5.885827782363783900e-01
1.000000000000000000e+02 3.124696733342334221e-01 1.457215176080537689e-01 5.495809817643833028e-01
1.000320102432778526e+02 2.868979531489857515e-01 1.269307061154371086e-01 5.501094281012985920e-01
1.100352112676056322e+02 2.566384251614363676e-01 1.125369296233176275e-01 4.860075896154568698e-01
1.200384122919334118e+02 2.189902332130972684e-01 1.040707131018810683e-01 4.203360445772472143e-01
1.300416133162611914e+02 1.887112990824801884e-01 8.592548570923162765e-02 3.555266035055459906e-01
1.400448143405889994e+02 1.695117000393934203e-01 7.658366084866838341e-02 3.164003899453373125e-01
1.500480153649167789e+02 1.512139808312671363e-01 6.714095274685868975e-02 2.833537650221392146e-01
1.600512163892445585e+02 1.272948680770187579e-01 6.377523460533363053e-02 2.462274674356112747e-01
1.700544174135723381e+02 1.073756778047932209e-01 4.892050637195267948e-02 2.086969609008020587e-01
1.800576184379001177e+02 9.092023216960551379e-02 4.033856519154938730e-02 1.822669000083590174e-01
1.900608194622279257e+02 7.930745219764141762e-02 3.534581673204830604e-02 1.721695539760860760e-01
2.000640204865557052e+02 7.677772811641894735e-02 3.531347297041777245e-02 1.463022579270408796e-01
2.100672215108834848e+02 7.030718048941815568e-02 3.194883355355396942e-02 1.359905740095334603e-01
2.200704225352112644e+02 6.621099602339459989e-02 2.980164233560719453e-02 1.316486898601050837e-01
2.300736235595390440e+02 6.494432506370166613e-02 3.073933565640512428e-02 1.269803207643578624e-01
2.400768245838668236e+02 6.892851088570979556e-02 3.524416312854238703e-02 1.262558568636296674e-01
2.500800256081946316e+02 5.639722670363807311e-02 2.656061812340418729e-02 1.010655989056423731e-01
2.600832266325223827e+02 4.631636790238144452e-02 2.143643651432042968e-02 8.788627207427339438e-02
2.700864276568502191e+02 4.164017081268274467e-02 1.974004834099908623e-02 7.641632029664872927e-02
2.800896286811779987e+02 3.899564208664980935e-02 1.970533016275670402e-02 7.018698496063793812e-02
2.900928297055057783e+02 3.431812900011444595e-02 1.701204092994198364e-02 6.152573351117159028e-02
3.000960307298335579e+02 3.392094492592587218e-02 1.682693746062213433e-02 5.824899069227960913e-02
3.100992317541613374e+02 3.394877002250962922e-02 1.658932672453386492e-02 5.542735086670146777e-02
3.201024327784891170e+02 3.018894547280525503e-02 1.494617296498348957e-02 5.081617941021596141e-02
3.301056338028168966e+02 3.126015044431534884e-02 1.547460311006666929e-02 5.183142859710278966e-02
3.401088348271446762e+02 3.472887344645941843e-02 1.706309194861414802e-02 5.693894186038592903e-02
3.501120358514724558e+02 3.439560141544987376e-02 1.699512196319435606e-02 5.817935154939776060e-02
3.601152368758002353e+02 3.585577080489812246e-02 1.865779285949322255e-02 5.910516589921045727e-02
3.701184379001280149e+02 4.125660932046442547e-02 2.038061459993105798e-02 7.063126558042842618e-02
3.801216389244558513e+02 5.864573498593540074e-02 2.887161919447770592e-02 9.531033890499565620e-02
3.901248399487836309e+02 7.012757102746704219e-02 3.476133904551403919e-02 1.164927127541830199e-01
4.001280409731114105e+02 6.366570378806790664e-02 3.203309583166414481e-02 1.014611680975672503e-01
4.101312419974391901e+02 4.838764560919369545e-02 2.327259310219738364e-02 7.682660576860565749e-02
4.201344430217669697e+02 4.303416950674923691e-02 2.005594820771366277e-02 6.930859423133767239e-02
4.301376440460947492e+02 3.643962150909000469e-02 1.856095960873548750e-02 5.880972890304284051e-02
4.401408450704225288e+02 2.989951227407531414e-02 1.527375429844899865e-02 4.917529899025208096e-02
4.501440460947503084e+02 2.867223459996241092e-02 1.365367936489591573e-02 4.790486381572456320e-02
4.601472471190780880e+02 2.573952098217575229e-02 1.293278104926878953e-02 4.339092586095626841e-02
4.701504481434058675e+02 2.624149573830849430e-02 1.297391886867605391e-02 4.311673740315513648e-02
4.801536491677336471e+02 2.789245538790198140e-02 1.374407868584768058e-02 4.769052777368486262e-02
4.901568501920614835e+02 2.626653994902852091e-02 1.209209302497360992e-02 4.236548246427696701e-02
5.001600512163892631e+02 2.299181368478095747e-02 1.165151810131745055e-02 3.787845016570438872e-02
5.101632522407170427e+02 2.280447266495463574e-02 1.145333075820339358e-02 3.688193640695873465e-02
5.201664532650447654e+02 2.476705738767801673e-02 1.318410161764882113e-02 4.086879513517824303e-02
5.301696542893726019e+02 2.897830462601093393e-02 1.356822682754570131e-02 4.767265014963259495e-02
5.401728553137004383e+02 2.988253230971566615e-02 1.545935379517874783e-02 4.952721471027846101e-02
5.501760563380281610e+02 2.953010178276712500e-02 1.425314940543219618e-02 4.858597697061890069e-02
5.601792573623559974e+02 2.989540462692179962e-02 1.439453781370068908e-02 4.894922543023079442e-02
5.701824583866837202e+02 3.237678010691089070e-02 1.445365375521808458e-02 5.410653624490427416e-02
5.801856594110115566e+02 3.258932586875500081e-02 1.560563199999927264e-02 5.522187763034373115e-02
5.901888604353392793e+02 2.999769735225864264e-02 1.482311442294226636e-02 4.944780359189884789e-02
6.001920614596671157e+02 2.749528566063631080e-02 1.391941097526220097e-02 4.450043947823745932e-02
6.101952624839948385e+02 2.617406177582886143e-02 1.287176843098287136e-02 4.208670330127119857e-02
6.201984635083226749e+02 6.351508486948391485e-02 3.229362792432604462e-02 1.018919203452720301e-01
6.302016645326503976e+02 2.582060607832531995e-01 1.364179969025141881e-01 4.156750709755099304e-01
6.402048655569782341e+02 2.574432140345744857e-01 1.317852092707454958e-01 4.253478222098219796e-01
6.502080665813060705e+02 1.526744518171227194e-01 7.884667194811029178e-02 2.497401462287974494e-01
6.602112676056337932e+02 1.444035292862873299e-01 7.189334242711743761e-02 2.384382088722661330e-01
6.702144686299616296e+02 1.022759539785210725e-01 5.055455329117070767e-02 1.671534992580026024e-01
6.802176696542893524e+02 9.416928763692103410e-02 4.889023380613550379e-02 1.510643212622083675e-01
6.902208706786171888e+02 8.959704735351843585e-02 4.579936694364203364e-02 1.436720937203292137e-01
7.002240717029449115e+02 6.278815101277707145e-02 3.183358229391929778e-02 1.027818230076736200e-01
7.102272727272727479e+02 4.405702289106236402e-02 2.320614649352235187e-02 6.951953451088639657e-02
7.202304737516004707e+02 6.255615998781133280e-02 3.089083099876090491e-02 1.043050094633389546e-01
7.302336747759283071e+02 4.874253747629590794e-02 2.369019542280166590e-02 8.193462854052693811e-02
7.402368758002560298e+02 2.339896828820908770e-02 1.187458036809563126e-02 3.733906056919040345e-02
7.502400768245838663e+02 2.487180972871849000e-02 1.184689959416575580e-02 3.852755348911079958e-02
7.602432778489117027e+02 2.718817114492686968e-02 1.387107221176826083e-02 4.404236072948988778e-02
7.702464788732394254e+02 3.157110765981295530e-02 1.612707263129574756e-02 5.058226056060430298e-02
7.802496798975672618e+02 5.083681986127233654e-02 2.541181600058146223e-02 8.497345859451976846e-02
7.902528809218949846e+02 1.491880637732213022e-01 7.155534777469339802e-02 2.471176447818008715e-01
8.002560819462228210e+02 2.795032639656155338e-01 1.355492245381092198e-01 4.550801390524237822e-01
8.102592829705505437e+02 1.912457697339645935e-01 9.521263446443832545e-02 3.136842978481926281e-01
8.202624839948783801e+02 9.490117543140132172e-02 4.772409237195920917e-02 1.572159448863370279e-01
8.302656850192061029e+02 1.711980278908241393e-01 9.402858782330014709e-02 2.585080620786410210e-01
8.402688860435339393e+02 4.229887883147369632e-01 2.932344401951369472e-01 5.637856058012693516e-01
8.502720870678616620e+02 3.431119370300477756e-01 1.907718563629474950e-01 4.962239445671676186e-01
8.602752880921894985e+02 2.228990881485051478e-01 1.152975872701545862e-01 3.660896630451330735e-01
8.702784891165173349e+02 1.803102670174399347e-01 8.328475380782759951e-02 2.835597618000277875e-01
8.802816901408450576e+02 1.078085857860536789e-01 4.941906030994627080e-02 1.741087853640899685e-01
8.902848911651728940e+02 7.034791039375444532e-02 3.404489321722306561e-02 1.115593205795287896e-01
9.002880921895006168e+02 5.934034064678265358e-02 2.951669274017909919e-02 9.709069584050337987e-02
9.102912932138284532e+02 8.178876926386380308e-02 4.168419790278809350e-02 1.371042179518603410e-01
9.202944942381561759e+02 7.985842933119291498e-02 4.049889765244479856e-02 1.290183976665472965e-01
9.302976952624840123e+02 5.793005339945255655e-02 3.059719622608892201e-02 9.692183712765671533e-02
9.403008962868117351e+02 5.293492073555892963e-02 2.734781387358563992e-02 8.501482503604786134e-02
9.503040973111395715e+02 4.656734873593836033e-02 2.373016455601743152e-02 7.637371157299203961e-02
9.603072983354672942e+02 4.285176934221374134e-02 2.203009104330163823e-02 7.198458966773466083e-02
9.703104993597951307e+02 5.071591865475077315e-02 2.449294896808929672e-02 8.395285782423816956e-02
9.803137003841229671e+02 6.672075469300063622e-02 3.165329468882341346e-02 1.087158741694388836e-01
9.903169014084506898e+02 8.848530307175508924e-02 4.676783193248664622e-02 1.513842417105003002e-01
1.000320102432778526e+03 1.390840909791621338e-01 6.777723776894786778e-02 2.295984943917728227e-01
1.010323303457106249e+03 1.207493589488156938e-01 6.186212810944298479e-02 2.004880971404602030e-01
1.020326504481434085e+03 1.341440922708389549e-01 6.571272800378144541e-02 2.224757916421629123e-01
1.030329705505761922e+03 1.964194484639996130e-01 9.395458696542659249e-02 3.253096383160917204e-01
1.040332906530089531e+03 2.129506317066824639e-01 1.004522282952400453e-01 3.508599529255959637e-01
1.050336107554417367e+03 1.746148639189386287e-01 8.964941511350167647e-02 2.850908064104764050e-01
1.060339308578745204e+03 1.001017189435379900e-01 4.870416152267645349e-02 1.663508625352162762e-01
1.070342509603073040e+03 5.874208445594222144e-02 3.056911201697118385e-02 9.643231834799384505e-02
1.080345710627400877e+03 4.993926340019033683e-02 2.547947795291935144e-02 8.081448365012514068e-02
1.090348911651728486e+03 5.232189925668279812e-02 2.539505034996555194e-02 8.549489632213139179e-02
1.100352112676056322e+03 5.021156827753278651e-02 2.472381360466829187e-02 8.278304838005094701e-02
1.110355313700384158e+03 4.673403745762985673e-02 2.330313259045416197e-02 7.780532542191478940e-02
1.120358514724711995e+03 5.243009896655804331e-02 2.614553680656499235e-02 8.225163736300215855e-02
1.130361715749039604e+03 5.387690722734353455e-02 2.852113685093777065e-02 8.604556896236979779e-02
1.140364916773367440e+03 7.266096796049067996e-02 3.615454508763953079e-02 1.181258086188471945e-01
1.150368117797695277e+03 1.077407733231635495e-01 5.344941783152102471e-02 1.786458011589129868e-01
1.160371318822023113e+03 1.447490496826746575e-01 7.245625739336640503e-02 2.371293858204717164e-01
1.170374519846350722e+03 1.306041810071274512e-01 6.504130833695377645e-02 2.136742217897831808e-01
1.180377720870678559e+03 9.099010437934768047e-02 4.509956351416878617e-02 1.455876608519040827e-01
1.190380921895006395e+03 6.004443511994420751e-02 3.051208298877323630e-02 9.972556120192065110e-02
1.200384122919334231e+03 4.647983817908887816e-02 2.314544972005598555e-02 7.648056834307370710e-02
1.210387323943662068e+03 4.103717505740742816e-02 1.972584911283570969e-02 6.712597784734390671e-02
1.220390524967989677e+03 4.231168409514497047e-02 2.008121863964604584e-02 6.678059810738601332e-02
1.230393725992317513e+03 4.291904513767405560e-02 2.083740891963551181e-02 6.926914565590479300e-02
1.240396927016645350e+03 4.322200860589483357e-02 2.265940016983594707e-02 7.145912546938106014e-02
1.250400128040973186e+03 5.218574943523335286e-02 2.594795150042846638e-02 8.264438520416764189e-02
1.260403329065300795e+03 5.284919128018210344e-02 2.749031624446138938e-02 8.553963325321191358e-02
1.270406530089628632e+03 6.087174867417920188e-02 3.045086844295478296e-02 9.697753776615110344e-02
1.280409731113956468e+03 7.142742679277652718e-02 3.669918303751161515e-02 1.161781833286975596e-01
1.290412932138284305e+03 7.504477962891854814e-02 3.839574139640058309e-02 1.171113382371441053e-01
1.300416133162612141e+03 7.476861760007172397e-02 3.916997778168708477e-02 1.210315593978476961e-01
1.310419334186939750e+03 7.566727324167925317e-02 4.023619222417427338e-02 1.253362231162883644e-01
1.320422535211267586e+03 6.064884708300428973e-02 3.006359188633991181e-02 1.019337024119218449e-01
1.330425736235595423e+03 4.770560678412710115e-02 2.434996796946423125e-02 7.591682160271395752e-02
1.340428937259923259e+03 3.944100708303839575e-02 1.972288159205968713e-02 6.445293715075946228e-02
1.350432138284250868e+03 3.700898608505736459e-02 1.779232170034808838e-02 6.090962613834258882e-02
1.360435339308578705e+03 4.136870548037833301e-02 2.188423668897119048e-02 6.605115715952872280e-02
1.370438540332906541e+03 4.646660460585694263e-02 2.290574173661739238e-02 7.857547566332950817e-02
1.380441741357234378e+03 4.977480432071782618e-02 2.578576265829320840e-02 8.286758190664741952e-02
1.390444942381562214e+03 4.880712176492420229e-02 2.454214784209831843e-02 7.646914448928442132e-02
1.400448143405889823e+03 4.539765679562982742e-02 2.330334496606126932e-02 7.086717293572941667e-02
1.410451344430217659e+03 4.299219197731963399e-02 2.180041822763378878e-02 7.040926428148593097e-02
1.420454545454545496e+03 4.105530708851425764e-02 2.089630725649900544e-02 6.817045035792979046e-02
1.430457746478873332e+03 4.307436899959404125e-02 2.215743819132872175e-02 6.749853122402933725e-02
1.440460947503200941e+03 4.573624639756689730e-02 2.320062529737266718e-02 7.270935267125799850e-02
1.450464148527528778e+03 4.837408786961500812e-02 2.388176006633203896e-02 7.933583002926987426e-02
1.460467349551856614e+03 5.554452241299689258e-02 2.798849445875997016e-02 8.972180486207452510e-02
1.470470550576184451e+03 6.392012724301977811e-02 3.238976591241970321e-02 1.065388554869495380e-01
1.480473751600512060e+03 7.429989924696867032e-02 3.655570284614772375e-02 1.191791426520621561e-01
1.490476952624839896e+03 7.616695431218067913e-02 4.002531540563397661e-02 1.234761397401688832e-01
1.500480153649167733e+03 7.163284577047253354e-02 3.625352428902578472e-02 1.169863687943553804e-01
1.510483354673495569e+03 6.641560584371565545e-02 3.161753890494568842e-02 1.106635304453555541e-01
1.520486555697823405e+03 7.120236593411390091e-02 3.522062862898043406e-02 1.124007335521378798e-01
1.530489756722151014e+03 6.864803299100258327e-02 3.709283902861197635e-02 1.083682482600281521e-01
1.540492957746478851e+03 6.265488502529056869e-02 2.916161144332792346e-02 1.040291787930196776e-01
1.550496158770806687e+03 6.017451525236700710e-02 3.026755520762114057e-02 9.996648503405533570e-02
1.560499359795134524e+03 5.772682248854400788e-02 2.970484107236186222e-02 9.577208298585279667e-02
1.570502560819462133e+03 4.939850776004153787e-02 2.322922565741597847e-02 8.076806537596697977e-02
1.580505761843789969e+03 4.031036653611257126e-02 2.022353239252020277e-02 6.565923353166880361e-02
1.590508962868117806e+03 3.665904677384233812e-02 1.839729745117249515e-02 5.936936440619371841e-02
1.600512163892445642e+03 3.133090824644605560e-02 1.590328572157450465e-02 5.145644534182445412e-02
1.610515364916773478e+03 3.128384905800885712e-02 1.513656287153445669e-02 5.012234763116053815e-02
1.620518565941101087e+03 2.900931026389041989e-02 1.413253170950925022e-02 4.788783349742008894e-02
1.630521766965428924e+03 2.560885802551747525e-02 1.280291377191474476e-02 4.424890171772193070e-02
1.640524967989756760e+03 2.537873784690912807e-02 1.255140895528863466e-02 4.216874549490848972e-02
1.650528169014084597e+03 2.555706743391415736e-02 1.313481659303738364e-02 4.029820087101501636e-02
1.660531370038412206e+03 2.553740245451024266e-02 1.184434961046512691e-02 4.126803279639126854e-02
1.670534571062740042e+03 2.523543946287818904e-02 1.308906596951038732e-02 4.162007000608432955e-02
1.680537772087067879e+03 2.554492219304361003e-02 1.311613002212855435e-02 4.067325351792513977e-02
1.690540973111395715e+03 2.491759364878219293e-02 1.262049711848748333e-02 4.033521047174602053e-02
1.700544174135723324e+03 2.552524317561670128e-02 1.313955873217722420e-02 4.110693115848913087e-02
1.710547375160051160e+03 2.639451638772273567e-02 1.370596534995946816e-02 4.395845763560713576e-02
1.720550576184378997e+03 2.498263149500189878e-02 1.261855861639410437e-02 3.956900542938660698e-02
1.730553777208706833e+03 2.386549920792441562e-02 1.207397788122930964e-02 3.814546708773704220e-02
1.740556978233034670e+03 2.447075764193261393e-02 1.223072854834262278e-02 3.890424581234227380e-02
1.750560179257362279e+03 2.402207332760811914e-02 1.261955111572618006e-02 3.936906309888255767e-02
1.760563380281690115e+03 2.442319903953418109e-02 1.220012831813258557e-02 3.942059721992183241e-02
1.770566581306017952e+03 2.421610675558009615e-02 1.238782987978165676e-02 4.001426929156279289e-02
1.780569782330345788e+03 2.544686795286190892e-02 1.226855606792728523e-02 4.161477827656828721e-02
1.790572983354673397e+03 2.484928653860123127e-02 1.181965006911459524e-02 4.141010721305697639e-02
1.800576184379001234e+03 2.595630536998930551e-02 1.210570342184666935e-02 4.204587823651335932e-02
1.810579385403329070e+03 2.664666667901736952e-02 1.401946866826184537e-02 4.365395489983207866e-02
1.820582586427656906e+03 2.584820904701453162e-02 1.244669105637830411e-02 4.058520997468431646e-02
1.830585787451984743e+03 2.453199816078626902e-02 1.287683406585494669e-02 4.039849945349399674e-02
1.840588988476312352e+03 2.406913911886039009e-02 1.195450369625925338e-02 3.957107115586203788e-02
1.850592189500640188e+03 2.396581872964139923e-02 1.177010700493709948e-02 3.928672471290031720e-02
1.860595390524968025e+03 2.733590430698103202e-02 1.381369926702625400e-02 4.457106239662456809e-02
1.870598591549295861e+03 2.932318839001102698e-02 1.464113989917006572e-02 4.668866653369757591e-02
1.880601792573623470e+03 2.637834204518754028e-02 1.369820618397168607e-02 4.219074933347408823e-02
1.890604993597951307e+03 2.638554766304431615e-02 1.318996178486285878e-02 4.230213376023846811e-02
1.900608194622279143e+03 2.558907214495685298e-02 1.274833386467466925e-02 4.127825814726796688e-02
1.910611395646606979e+03 2.623871855515737955e-02 1.195376855013635664e-02 4.178078951839477723e-02
1.920614596670934588e+03 2.598339413010630414e-02 1.338478872209289579e-02 4.289146276855423934e-02
1.930617797695262425e+03 2.585512691699444823e-02 1.380514611009570937e-02 4.332667532998187021e-02
1.940620998719590261e+03 2.903905059472398215e-02 1.495924226491449419e-02 4.612217256599499687e-02
1.950624199743918098e+03 2.580682005020240241e-02 1.263186170038567424e-02 4.340708732108687629e-02
1.960627400768245934e+03 2.375548827953190278e-02 1.200240586710564494e-02 3.978806123609040374e-02
1.970630601792573543e+03 2.339659714348955172e-02 1.203634034130101997e-02 3.834599886175435457e-02
1.980633802816901380e+03 2.375625634487217933e-02 1.194392465513457145e-02 3.884501524864591993e-02
1.990637003841229216e+03 2.472439596620374519e-02 1.250951345415755867e-02 3.970678840907190810e-02
2.000640204865557052e+03 2.463001839022344389e-02 1.294613654656700044e-02 3.841960986383458065e-02
2.010643405889884662e+03 2.453858275068117323e-02 1.201515855508155338e-02 4.082913349542632853e-02
2.020646606914212498e+03 2.412034975221488686e-02 1.223577452905997946e-02 3.867285837879060051e-02
2.030649807938540334e+03 2.462335915372832612e-02 1.212157653130409123e-02 3.883626018730352430e-02
2.040653008962868171e+03 2.491411966558470387e-02 1.186211857211691943e-02 4.126451424485937797e-02
2.050656209987195780e+03 2.544642520434433133e-02 1.312475329715129257e-02 4.216925796943812171e-02
2.060659411011523844e+03 2.554285320975728177e-02 1.261580169204060478e-02 4.282771191074731532e-02
2.070662612035851453e+03 2.544807415248635449e-02 1.265259199127988753e-02 4.185125028590797741e-02
2.080665813060179062e+03 2.449415747388752201e-02 1.231819974705887152e-02 4.048891989318263718e-02
2.090669014084507126e+03 2.626324686405991787e-02 1.349475694347727905e-02 4.201818414538806279e-02
2.100672215108834735e+03 2.690067319363480605e-02 1.372040617754668491e-02 4.353293649747577709e-02
2.110675416133162798e+03 2.778250177944807664e-02 1.492998775436759316e-02 4.489935993752402349e-02
2.120678617157490407e+03 2.872592698253354296e-02 1.419892511667694181e-02 4.641272158873573778e-02
2.130681818181818016e+03 2.747768719739316148e-02 1.314631643191105197e-02 4.645205491351175192e-02
2.140685019206146080e+03 2.776862853836633074e-02 1.312464347899568520e-02 4.551044900870993698e-02
2.150688220230473689e+03 2.624565033747398857e-02 1.308429214554924017e-02 4.356894282718616618e-02
2.160691421254801753e+03 2.539261857614999798e-02 1.258953776091743110e-02 4.258432206635059253e-02
2.170694622279129362e+03 2.645012964799208985e-02 1.367815970599237790e-02 4.299221224141706876e-02
2.180697823303456971e+03 2.618926285880413332e-02 1.252542932440239842e-02 4.346423583126526879e-02
2.190701024327785035e+03 2.655342673058123243e-02 1.283326789192367617e-02 4.193420524720995607e-02
2.200704225352112644e+03 2.555181610952794030e-02 1.272533380535504841e-02 4.233108478147003945e-02
2.210707426376440253e+03 2.545666502488523608e-02 1.313440611060269318e-02 4.329034566170428949e-02
2.220710627400768317e+03 2.694717608402326381e-02 1.363454331717900772e-02 4.451896938738939685e-02
2.230713828425095926e+03 2.645051593816104274e-02 1.398094396262823669e-02 4.356541494315675084e-02
2.240717029449423990e+03 2.688788827908995469e-02 1.344929538217493059e-02 4.267273495844371711e-02
2.250720230473751599e+03 2.518038630022502444e-02 1.330629286254707278e-02 4.304517739189540199e-02
2.260723431498079208e+03 2.648362071107975002e-02 1.256119993995845341e-02 4.447254786339319144e-02
2.270726632522407272e+03 2.661811983226100575e-02 1.250952490237618349e-02 4.437986462569055990e-02
2.280729833546734881e+03 2.572325447873476806e-02 1.309420411610765986e-02 4.428483853238111834e-02
2.290733034571062944e+03 2.708795731905735277e-02 1.341788362250476846e-02 4.482745776758673140e-02
2.300736235595390553e+03 2.652741039593136882e-02 1.325083867756916139e-02 4.357262323598713738e-02
2.310739436619718163e+03 2.643544988282573935e-02 1.264902329863464535e-02 4.336604972103198785e-02
2.320742637644046226e+03 2.578729488988913687e-02 1.284990217096455660e-02 4.372778944938876533e-02
2.330745838668373835e+03 2.692146494867818027e-02 1.417404339324439266e-02 4.423733111641717231e-02
2.340749039692701444e+03 2.796892512340630813e-02 1.364306700753782110e-02 4.626174310540535212e-02
2.350752240717029508e+03 2.827111114354012578e-02 1.414206199255021827e-02 4.799778316453041233e-02
2.360755441741357117e+03 2.872594266112305297e-02 1.393517064732425516e-02 4.567221783922310180e-02
2.370758642765685181e+03 2.784665752487903642e-02 1.475489277879109447e-02 4.668412819615599951e-02
2.380761843790012790e+03 2.820481601025921770e-02 1.425944367409401857e-02 4.623038069616071388e-02
2.390765044814340399e+03 2.715783625625173975e-02 1.379122448647031665e-02 4.413327707207077844e-02
2.400768245838668463e+03 2.674081315357012059e-02 1.353412581963795401e-02 4.472015620877226039e-02
2.410771446862996072e+03 2.715792897833609748e-02 1.404303543352182319e-02 4.427306640659253029e-02
2.420774647887324136e+03 2.713098413709308376e-02 1.404175049630437301e-02 4.409540889726086543e-02
2.430777848911651745e+03 2.871339391047194461e-02 1.381857874275741610e-02 4.616765772365256926e-02
2.440781049935979354e+03 2.725356146175841876e-02 1.424547430200081427e-02 4.485852324067685082e-02
2.450784250960307418e+03 2.757815229610487834e-02 1.393360818902713606e-02 4.500494326808928552e-02
2.460787451984635027e+03 2.756691571074655275e-02 1.324993138797992721e-02 4.489322886344689761e-02
2.470790653008963091e+03 2.689147377053519028e-02 1.267102802457812163e-02 4.437923838540874799e-02
2.480793854033290700e+03 2.651206884599340702e-02 1.310351792421704693e-02 4.530304402969904248e-02
2.490797055057618309e+03 2.743277548458953122e-02 1.328387098781066110e-02 4.461595489796253006e-02
2.500800256081946372e+03 2.694866729416962522e-02 1.368807891141873324e-02 4.578677922223123309e-02
2.510803457106273981e+03 2.745181717983942449e-02 1.438899725979305745e-02 4.624644997319755924e-02
2.520806658130601591e+03 2.779930886586337233e-02 1.415689214848671329e-02 4.489799020450158107e-02
2.530809859154929654e+03 2.772162255262991537e-02 1.432382790588018068e-02 4.629602076851218467e-02
2.540813060179257263e+03 2.908893083958170866e-02 1.472274742387699384e-02 4.574882154953516938e-02
2.550816261203585327e+03 2.897206370387381616e-02 1.479117886878701833e-02 4.716920214321125571e-02
2.560819462227912936e+03 2.993418726726253948e-02 1.488675109295007487e-02 4.773138367107231106e-02
2.570822663252240545e+03 2.961146414471613197e-02 1.508633947437541291e-02 5.019876517111899333e-02
2.580825864276568609e+03 3.013821419712480951e-02 1.465171151079110688e-02 4.980213497036995590e-02
2.590829065300896218e+03 3.030851896068161716e-02 1.540054916930847818e-02 4.894744079831323674e-02
2.600832266325224282e+03 3.193378608385499112e-02 1.601876335803849999e-02 5.042056363105514721e-02
2.610835467349551891e+03 3.219784837821088042e-02 1.646931175457995444e-02 5.162690681528393777e-02
2.620838668373879500e+03 3.118237879585997532e-02 1.529440661174442072e-02 5.215201517764527644e-02
2.630841869398207564e+03 3.376272759050719108e-02 1.723270601777885866e-02 5.572474778881919555e-02
2.640845070422535173e+03 3.729427732095146747e-02 1.921798778726722945e-02 5.932733928150342451e-02
2.650848271446862782e+03 3.893887514026538044e-02 2.172602252568020878e-02 6.278946810614374763e-02
2.660851472471190846e+03 3.872958602304835823e-02 1.911619360973588685e-02 6.052386290178655981e-02
2.670854673495518455e+03 3.768365597901564279e-02 1.945603867174698978e-02 6.004561633257946007e-02
2.680857874519846519e+03 3.465549429818891303e-02 1.782873973710408580e-02 5.606755512530187113e-02
2.690861075544174128e+03 3.326187934516795786e-02 1.764113382813246866e-02 5.567432045564361248e-02
2.700864276568501737e+03 3.374119998043093038e-02 1.643436457395362066e-02 5.516783618588818466e-02
2.710867477592829800e+03 3.316261277191599049e-02 1.747533357376924654e-02 5.457144488885858763e-02
2.720870678617157409e+03 3.189499569218841313e-02 1.611858799597227360e-02 5.161665845011845222e-02
2.730873879641485473e+03 3.133905943682951251e-02 1.506810491476966510e-02 5.146992382315192932e-02
2.740877080665813082e+03 3.193611117317102233e-02 1.528179491309649730e-02 5.179372144244833581e-02
2.750880281690140691e+03 3.201228656912323556e-02 1.513097507805761903e-02 5.035463487465676596e-02
2.760883482714468755e+03 2.958735320762481691e-02 1.480383858898371569e-02 4.985161201260614877e-02
2.770886683738796364e+03 2.972000165114552575e-02 1.568218571933776770e-02 4.928869937460562956e-02
2.780889884763124428e+03 3.062677707655385093e-02 1.488606857220216642e-02 4.822167975681600216e-02
2.790893085787452037e+03 2.868217174793801644e-02 1.477973335002892227e-02 4.989776165934468877e-02
2.800896286811779646e+03 3.010553993705299136e-02 1.479196042377529940e-02 4.947913965258762120e-02
2.810899487836107710e+03 3.005039944247007641e-02 1.518342009717520147e-02 4.976054977188350964e-02
2.820902688860435319e+03 3.009529849051562067e-02 1.463452726603831945e-02 4.912666566172908117e-02
2.830905889884762928e+03 2.837558138536719690e-02 1.424313287803204500e-02 4.824122160985645086e-02
2.840909090909090992e+03 2.950571871564034235e-02 1.534240709927442090e-02 4.755569732614094852e-02
2.850912291933418601e+03 2.978098319342512360e-02 1.559372725524617656e-02 4.807977172800873000e-02
2.860915492957746665e+03 2.950624067178581750e-02 1.462725617881272498e-02 4.850217205940667714e-02
2.870918693982074274e+03 2.941971011349093709e-02 1.440098214949813750e-02 4.785895620229912995e-02
2.880921895006401883e+03 2.919423686256686010e-02 1.452861361588171987e-02 4.794036149272315472e-02
2.890925096030729947e+03 2.935558910602576246e-02 1.516361894617784811e-02 4.931556465627129349e-02
2.900928297055057556e+03 3.204208303820188508e-02 1.630935926639523123e-02 5.180704247882258334e-02
2.910931498079385619e+03 3.670566779304230282e-02 1.920301617964399396e-02 5.984253884912581201e-02
2.920934699103713228e+03 3.319405238470474889e-02 1.701196534272774244e-02 5.287953049598559385e-02
2.930937900128040837e+03 3.070058929546708171e-02 1.472337482535988201e-02 4.840191625442248624e-02
2.940941101152368901e+03 2.952492635032956045e-02 1.449261939276638191e-02 4.942597116314523947e-02
2.950944302176696510e+03 2.923527720174402475e-02 1.504117779385436872e-02 4.794386257492858072e-02
2.960947503201024119e+03 2.905392797251891285e-02 1.619526831521989410e-02 4.962699877519132635e-02
2.970950704225352183e+03 3.089317887044127492e-02 1.529638304277177764e-02 4.909132721147824174e-02
2.980953905249679792e+03 3.012186138625343179e-02 1.444487970761724159e-02 4.891882199162814193e-02
2.990957106274007856e+03 3.023148455812292579e-02 1.477901324225709342e-02 4.821158848703580024e-02
3.000960307298335465e+03 2.957267453141854824e-02 1.434232654963681422e-02 4.859027336956348031e-02
3.010963508322663074e+03 2.970678216168923941e-02 1.474649614011403626e-02 4.723491409553025322e-02
3.020966709346991138e+03 2.939242173696651403e-02 1.466844685736993711e-02 5.020479785169115056e-02
3.030969910371318747e+03 3.092872820302407233e-02 1.450889525229009762e-02 5.020009150456621744e-02
3.040973111395646811e+03 2.986068522842272310e-02 1.564021918281341753e-02 4.955814111597460492e-02
3.050976312419974420e+03 2.926527939157552369e-02 1.452325713546047219e-02 4.902246877056248148e-02
3.060979513444302029e+03 3.015497638681414322e-02 1.568328331185107893e-02 4.988059304724441756e-02
3.070982714468630093e+03 3.011851797677219528e-02 1.526438262187550937e-02 5.003511176392250875e-02
3.080985915492957702e+03 3.104264409702480604e-02 1.558878395968619351e-02 5.014706494303840939e-02
3.090989116517285311e+03 3.140399359215062525e-02 1.586277445910267564e-02 5.017155532616496272e-02
3.100992317541613374e+03 3.117999797963487071e-02 1.494157933004550479e-02 5.191048262668623847e-02
3.110995518565940984e+03 3.060138967323631359e-02 1.531347650717098698e-02 5.145782401617022411e-02
3.120998719590269047e+03 3.167154143183664727e-02 1.513574463165991320e-02 5.008700472434553241e-02
3.131001920614596656e+03 3.065549789746510254e-02 1.583670724158797380e-02 5.059776629491403305e-02
3.141005121638924265e+03 3.114049910296912138e-02 1.557152075722576488e-02 5.156814084103365781e-02
3.151008322663252329e+03 3.129138140242091609e-02 1.584542149644475525e-02 5.093367994117647263e-02
3.161011523687579938e+03 3.042786984889497143e-02 1.569984385862104037e-02 5.154204508958359215e-02
3.171014724711908002e+03 3.144343697757871758e-02 1.485762847464478648e-02 5.059701009644358011e-02
3.181017925736235611e+03 3.107185248650148890e-02 1.466559775076510357e-02 5.061110293969501434e-02
3.191021126760563220e+03 3.122209458985318251e-02 1.555364321318888216e-02 5.211035565630083022e-02
3.201024327784891284e+03 3.222589678958527604e-02 1.643545079588785290e-02 5.202557464760321909e-02
3.211027528809218893e+03 3.230264090529973847e-02 1.601296518918104289e-02 5.157771677495980034e-02
3.221030729833546957e+03 3.190561041461913855e-02 1.576792383689316554e-02 5.199545827198468612e-02
3.231033930857874566e+03 3.191139084921788133e-02 1.641584060257537947e-02 5.070395094449976769e-02
3.241037131882202175e+03 3.270166907640598836e-02 1.686169043179915408e-02 5.241795277624888144e-02
3.251040332906530239e+03 3.444969465904413469e-02 1.676669201054953318e-02 5.622958489163447371e-02
3.261043533930857848e+03 3.619634648448805808e-02 1.804644646815455403e-02 5.944211703680430531e-02
3.271046734955185457e+03 3.472153540830275054e-02 1.786239555690115680e-02 5.669062604807884043e-02
3.281049935979513521e+03 3.384988723685611323e-02 1.609526515978631708e-02 5.614917637733311817e-02
3.291053137003841130e+03 3.494537151923383239e-02 1.648026351615668531e-02 5.868058559615103170e-02
3.301056338028169193e+03 3.724140166011680186e-02 1.875855628167846095e-02 6.314439018209683230e-02
3.311059539052496802e+03 4.271474640364248537e-02 2.290464894898113640e-02 6.833711769542299974e-02
3.321062740076824412e+03 4.714890736343239214e-02 2.461913572617737203e-02 7.598050010369354623e-02
3.331065941101152475e+03 4.730116146233962621e-02 2.580733568965810215e-02 7.879062140197959363e-02
3.341069142125480084e+03 4.607165789189521243e-02 2.374081124889446809e-02 7.877873504164763230e-02
3.351072343149808148e+03 4.071507890324554957e-02 2.128849315439816300e-02 7.084489939283700188e-02
3.361075544174135757e+03 3.809225680019347193e-02 1.862114427659284852e-02 6.201634740536994539e-02
3.371078745198463366e+03 3.608845747452959357e-02 1.759402764866368346e-02 5.839601529214375614e-02
3.381081946222791430e+03 3.593197217943497335e-02 1.764341380290632491e-02 5.946391530592660957e-02
3.391085147247119039e+03 3.553899358872961850e-02 1.780754906469836363e-02 5.831858674863060060e-02
3.401088348271446648e+03 3.531197306350819520e-02 1.785665025306566386e-02 5.782750793745493334e-02
3.411091549295774712e+03 3.491257096118858400e-02 1.739935262331345975e-02 5.572105744324587495e-02
3.421094750320102321e+03 3.332774540867939478e-02 1.673351479788878771e-02 5.459538402170387161e-02
3.431097951344430385e+03 3.350923035991325988e-02 1.577803629901490534e-02 5.567360381686316251e-02
3.441101152368757994e+03 3.385115337026101817e-02 1.675497283245469884e-02 5.594084116482354874e-02
3.451104353393085603e+03 3.368313668279253326e-02 1.679238055152841927e-02 5.603860122735479510e-02
3.461107554417413667e+03 3.350971881992918788e-02 1.746437007416098627e-02 5.270607845641709505e-02
3.471110755441741276e+03 3.371367654957715260e-02 1.633361520943792805e-02 5.455835987461801068e-02
3.481113956466069340e+03 3.372166905730908382e-02 1.633761405917066173e-02 5.561712556548212977e-02
3.491117157490396949e+03 3.457102219453035002e-02 1.728791449395467028e-02 5.541747810894856463e-02
3.501120358514724558e+03 3.565635263793125176e-02 1.888725826511745282e-02 5.609296208054375538e-02
3.511123559539052621e+03 3.473217407729776302e-02 1.678601642854792714e-02 5.574801363454704589e-02
3.521126760563380230e+03 3.575567135540917707e-02 1.888064098315079403e-02 5.820671745480490711e-02
3.531129961587708294e+03 3.901536116853861202e-02 1.955761888316118538e-02 6.527974821995029264e-02
3.541133162612035903e+03 3.623335589815904895e-02 1.637521387239100276e-02 6.169122472377433497e-02
3.551136363636363512e+03 3.680903035334324308e-02 1.740917579905288531e-02 6.077324342679478464e-02
3.561139564660691576e+03 3.718502039469978593e-02 1.848892044446271907e-02 6.179419021760218511e-02
3.571142765685019185e+03 3.668311809399014273e-02 1.956544035714240931e-02 6.397204578458018376e-02
3.581145966709346794e+03 4.262770001760746857e-02 2.013010822972093397e-02 7.019355600487992008e-02
3.591149167733674858e+03 4.432537164051176398e-02 2.227994018337934798e-02 7.301455026392943137e-02
3.601152368758002467e+03 4.196196700756933684e-02 2.013042181023562069e-02 7.421084602880988201e-02
3.611155569782330531e+03 4.489403655938485616e-02 2.211961745620288217e-02 7.818630985326754934e-02
3.621158770806658140e+03 4.760474432913068543e-02 2.347235785166687516e-02 8.178962016196936191e-02
3.631161971830985749e+03 4.937821108866426167e-02 2.411328629506503951e-02 8.496262629146454637e-02
3.641165172855313813e+03 5.103572857571851695e-02 2.405756593747628708e-02 9.073263351106868047e-02
3.651168373879641422e+03 5.299632100391293843e-02 2.504198988251954069e-02 9.280905446878805198e-02
3.661171574903969486e+03 5.257164450744580830e-02 2.575360406859879270e-02 9.181136493847051605e-02
3.671174775928297095e+03 5.349718015610131078e-02 2.640372432464033539e-02 9.234887543643656438e-02
3.681177976952624704e+03 4.816789914062260397e-02 2.351066293103866792e-02 8.576593739142471251e-02
3.691181177976952767e+03 4.584508165625222204e-02 2.253112005140795945e-02 8.203196460746439711e-02
3.701184379001280377e+03 4.368529986828797312e-02 2.078058551146189439e-02 7.815846035870815944e-02
3.711187580025607986e+03 4.312846411185005530e-02 2.138579098803183517e-02 7.914331491247537931e-02
3.721190781049936049e+03 3.237831100627016068e-01 2.767294313902783354e-01 3.957009692370646592e-01
3.731193982074263658e+03 5.835824851453340623e-01 5.467178231855984727e-01 6.189790094450182689e-01
3.741197183098591722e+03 2.711177145035212899e-01 1.970221241506399101e-01 3.186764141208610623e-01
3.751200384122919331e+03 3.752483040836101374e-02 1.908192768705921361e-02 6.274775748221587957e-02
3.761203585147246940e+03 3.636983342732609537e-02 1.816288828171404995e-02 6.031208249292556445e-02
3.771206786171575004e+03 3.503865406903288598e-02 1.706216643680253872e-02 5.788222856163952046e-02
3.781209987195902613e+03 3.626313206807987161e-02 1.840875707474435435e-02 6.053496729063034126e-02
3.791213188220230677e+03 4.055500017748280700e-02 2.012759939651596539e-02 6.703319402650591285e-02
3.801216389244558286e+03 3.728753214240907582e-02 1.828307421241323963e-02 5.861462764068740838e-02
3.811219590268885895e+03 3.506617277708037883e-02 1.806800763852360256e-02 5.877615302739831044e-02
3.821222791293213959e+03 3.494173614580322468e-02 1.710326000563221552e-02 5.777214613939441606e-02
3.831225992317541568e+03 3.398653860595364506e-02 1.680947869738189451e-02 5.479261053476189303e-02
3.841229193341869177e+03 3.515360655178552396e-02 1.777584400237130699e-02 5.523105520531813861e-02
3.851232394366197241e+03 3.600647486639930311e-02 1.774202354912484542e-02 5.867858881394158455e-02
3.861235595390524850e+03 3.485048731640476988e-02 1.803696277641331919e-02 5.792422210119677756e-02
3.871238796414852914e+03 3.610663368086732689e-02 1.819351569142149683e-02 5.771606045251085476e-02
3.881241997439180523e+03 3.520770204942461068e-02 1.746356615244834543e-02 5.714872991238024308e-02
3.891245198463508132e+03 3.583263744546100887e-02 1.861945364227182362e-02 5.779285205217327137e-02
3.901248399487836195e+03 3.632767658794080340e-02 1.765648385778424007e-02 5.873196200814760626e-02
3.911251600512163805e+03 3.548694244651544316e-02 1.728428317682324106e-02 5.956298955222531777e-02
3.921254801536491868e+03 3.580097948580270723e-02 1.905701593702850000e-02 5.966579991088850204e-02
3.931258002560819477e+03 3.593659242821739541e-02 1.743650110404271550e-02 5.798715994793299244e-02
3.941261203585147086e+03 3.603607081681305113e-02 1.719963196967099275e-02 5.720165890688823362e-02
3.951264404609475150e+03 3.571739603277280378e-02 1.785893465800132696e-02 5.795023403804124007e-02
3.961267605633802759e+03 3.532779527133116798e-02 1.684496593163698971e-02 5.806578148913536797e-02
3.971270806658130823e+03 3.504551787465377821e-02 1.725484629417572621e-02 5.721772195257134042e-02
3.981274007682458432e+03 3.542699324546953743e-02 1.729975663170961464e-02 5.692564484296214200e-02
3.991277208706786041e+03 3.497115025595259885e-02 1.736351166581278846e-02 5.784141494657135674e-02
4.001280409731114105e+03 3.710837008068462034e-02 1.865262614774910316e-02 5.926296491656458248e-02
4.011283610755441714e+03 3.774922597512805900e-02 2.012286317719131495e-02 5.900501088238037373e-02
4.021286811779769323e+03 3.537177410725499127e-02 1.697735226700475969e-02 5.723593686068846609e-02
4.031290012804097387e+03 3.485345385948680069e-02 1.795123882783362587e-02 5.926738721812297578e-02
4.041293213828424996e+03 3.663914605425176718e-02 1.809674521051302110e-02 5.928265351641964082e-02
4.051296414852753060e+03 3.608049505610584629e-02 1.745656430053019875e-02 5.765943525337081932e-02
4.061299615877080669e+03 3.701219739355813415e-02 1.793726526254517742e-02 6.064865448430767358e-02
4.071302816901408278e+03 3.713310887314273667e-02 1.923554880648894669e-02 6.132634542912714093e-02
4.081306017925736342e+03 3.613177092297824300e-02 1.752079244665308982e-02 5.947958720177885100e-02
4.091309218950063951e+03 3.641609840110984070e-02 1.893662929423429314e-02 5.861245776492562953e-02
4.101312419974391560e+03 3.617280803554071000e-02 1.802667470324437887e-02 5.914820835843189600e-02
4.111315620998719169e+03 3.768668025472667049e-02 1.855192540847075758e-02 6.120446639319866017e-02
4.121318822023047687e+03 3.692096841602664214e-02 1.746804441980500874e-02 5.960102403891744116e-02
4.131322023047375296e+03 3.621611058501356117e-02 1.820523682865190368e-02 6.105765731057656576e-02
4.141325224071702905e+03 3.624299314166067737e-02 1.854644115002837546e-02 5.935230738360992159e-02
4.151328425096030514e+03 3.689664739381260522e-02 1.854299113312179656e-02 6.077364435926325276e-02
4.161331626120358123e+03 3.735684659187765710e-02 1.814408119017300869e-02 6.024608766713905605e-02
4.171334827144686642e+03 3.818947560457781887e-02 1.932732660358712704e-02 6.183171966834611483e-02
4.181338028169014251e+03 3.738438384301951550e-02 1.823261282474136075e-02 6.290822771487013243e-02
4.191341229193341860e+03 3.770487449731912966e-02 1.868694088645892620e-02 6.150998615146031911e-02
4.201344430217669469e+03 3.851251138078765068e-02 1.930748189348742774e-02 6.144439960317173849e-02
4.211347631241997078e+03 3.771292956302669391e-02 1.858309208368138024e-02 6.383180832141784056e-02
4.221350832266325597e+03 3.779749698246961942e-02 1.899955452714308796e-02 6.277252594366526661e-02
4.231354033290653206e+03 3.895988419514937601e-02 1.945879594630877535e-02 6.425928883474069098e-02
4.241357234314980815e+03 3.807883992346022817e-02 1.959596346860783406e-02 6.348133457165483495e-02
4.251360435339308424e+03 3.803642434973102809e-02 1.822541352454115984e-02 6.340251601191188024e-02
4.261363636363636033e+03 3.948663138149989538e-02 2.050590365370730597e-02 6.470592445267890624e-02
4.271366837387964551e+03 3.924689294906217457e-02 1.902674833523130757e-02 6.514372604212800844e-02
4.281370038412292161e+03 3.931753742997223799e-02 1.938938643944324719e-02 6.356185897249524985e-02
4.291373239436619770e+03 3.999141374106482405e-02 1.977217383996064670e-02 6.447729195162761606e-02
4.301376440460947379e+03 3.979482398792549835e-02 2.008928567695080283e-02 6.487801170299524467e-02
4.311379641485274988e+03 4.017268082495097786e-02 1.906233726724844771e-02 6.539012065089704062e-02
4.321382842509603506e+03 3.949303676992081680e-02 1.988717001088068786e-02 6.647086490632669875e-02
4.331386043533931115e+03 3.949859388665970944e-02 1.969701388028504904e-02 6.691785534861965923e-02
4.341389244558258724e+03 4.050146475905560400e-02 1.985499849640274053e-02 6.707637268762717264e-02
4.351392445582586333e+03 4.124072291877075441e-02 2.031133930619409556e-02 7.002283974455601745e-02
4.361395646606913942e+03 4.089267491260831916e-02 2.014344091646852464e-02 7.200011743329826075e-02
4.371398847631241551e+03 4.211736550805968843e-02 2.053286031473672626e-02 7.094090025337909666e-02
4.381402048655570070e+03 4.448394821634754637e-02 2.244374865219161269e-02 7.570176606241219019e-02
4.391405249679897679e+03 4.354035372658546926e-02 2.148270975548619011e-02 7.656422540728677339e-02
4.401408450704225288e+03 4.415837404614255529e-02 2.187514315669358833e-02 7.677249080500356260e-02
4.411411651728552897e+03 4.372977209109584623e-02 2.226213465239593181e-02 7.823019479682630228e-02
4.421414852752880506e+03 4.876956776587958176e-02 2.398878245039071447e-02 8.351219578915314301e-02
4.431418053777209025e+03 6.286516370586454905e-02 2.974198034372207630e-02 1.074195742530170833e-01
4.441421254801536634e+03 5.730686956183189684e-02 2.684865592096801271e-02 1.018530570447382932e-01
4.451424455825864243e+03 4.875863099251284694e-02 2.465256594059736170e-02 8.762939069456084085e-02
4.461427656850191852e+03 4.782908687744379106e-02 2.300823795189642709e-02 9.295031544577216087e-02
4.471430857874519461e+03 4.950057647442793890e-02 2.449616937638262118e-02 9.788253751740300102e-02
4.481434058898847979e+03 5.329393548466930530e-02 2.552881321965685610e-02 1.006424445676855489e-01
4.491437259923175588e+03 5.297339969211279503e-02 2.505680324808670645e-02 1.038693975634724376e-01
4.501440460947503198e+03 5.328344012977603850e-02 2.484357580389949180e-02 1.046005150605029549e-01
4.511443661971830807e+03 5.406954287597415948e-02 2.557021247550002319e-02 1.069300948975956955e-01
4.521446862996158416e+03 5.762501446759968338e-02 2.686954233749170098e-02 1.167044962694430005e-01
4.531450064020486934e+03 6.062623759657401190e-02 2.750987406289341977e-02 1.211078098029949313e-01
4.541453265044814543e+03 6.205264058869445348e-02 2.763862781388174913e-02 1.260016024982326677e-01
4.551456466069142152e+03 6.334776862449890966e-02 2.943322960660384180e-02 1.328686015945091392e-01
4.561459667093469761e+03 6.656615399883954176e-02 2.941673285486977665e-02 1.364068975723560229e-01
4.571462868117797370e+03 6.793635086725810512e-02 3.133920281782627548e-02 1.392151096142268674e-01
4.581466069142125889e+03 7.083363908558651389e-02 3.201338531371341473e-02 1.371001116001118736e-01
4.591469270166453498e+03 7.281477701262202562e-02 3.321332596531706427e-02 1.424653036580571519e-01
4.601472471190781107e+03 7.371734666557944182e-02 3.384752827171100265e-02 1.464570035882810650e-01
4.611475672215108716e+03 7.424055011846879271e-02 3.527739352044069465e-02 1.438603686232695633e-01
4.621478873239436325e+03 7.589911491903861274e-02 3.361223102525718459e-02 1.444739383062309257e-01
4.631482074263764844e+03 8.087599205287963888e-02 3.640642267270068760e-02 1.502505348452884693e-01
4.641485275288092453e+03 8.188893081853579337e-02 3.542539368248091847e-02 1.500968723819439132e-01
4.651488476312420062e+03 8.050127893704037141e-02 3.634456366242582587e-02 1.558291994564722227e-01
4.661491677336747671e+03 8.134700490924533234e-02 3.682766925710066752e-02 1.519531170428962408e-01
4.671494878361075280e+03 7.899615887867939001e-02 3.732499118175836711e-02 1.521974567466478911e-01
4.681498079385402889e+03 8.317775519357356595e-02 3.848546330101149798e-02 1.539638846986566556e-01
4.691501280409731407e+03 8.306178523471703656e-02 4.002868324546846740e-02 1.584701146112440229e-01
4.701504481434059016e+03 8.030145775628122484e-02 3.695945189823647559e-02 1.557131894163467367e-01
4.711507682458386626e+03 8.355381152948235246e-02 3.536323905316888366e-02 1.633520403126511311e-01
4.721510883482714235e+03 7.993796184318714693e-02 3.521157655827227700e-02 1.591029271089062225e-01
4.731514084507041844e+03 8.070773590858972002e-02 3.485095989976394470e-02 1.585210364639521585e-01
4.741517285531370362e+03 7.880874603177707993e-02 3.705097623116491989e-02 1.474974496093737486e-01
4.751520486555697971e+03 7.614719295241362262e-02 3.421586887685786754e-02 1.505940920580198517e-01
4.761523687580025580e+03 7.079798828921582410e-02 3.327600108671346230e-02 1.484872534537786948e-01
4.771526888604353189e+03 7.422902562041200358e-02 2.979044153213945834e-02 1.506671151440004963e-01
4.781530089628680798e+03 7.130381637665199335e-02 3.157343012554136852e-02 1.578343644937512391e-01
4.791533290653009317e+03 6.772312105032396445e-02 3.065516102820254468e-02 1.563600543048944413e-01
4.801536491677336926e+03 6.598292505706845890e-02 3.107585470824389060e-02 1.444118684903115679e-01
4.811539692701664535e+03 6.488500147180716049e-02 3.062615763945768579e-02 1.468160677545262416e-01
4.821542893725992144e+03 6.967358227424114148e-02 3.149942072439155388e-02 1.506279819923409813e-01
4.831546094750319753e+03 7.321013811273255345e-02 3.412876089428062282e-02 1.496218121175527660e-01
4.841549295774648272e+03 7.479423942925028657e-02 3.539838704631041721e-02 1.463892092610013518e-01
4.851552496798975881e+03 7.914382177173905075e-02 3.570098692060475615e-02 1.498370433338500618e-01
4.861555697823303490e+03 8.044361213440373581e-02 3.586000504878158329e-02 1.496409058693592142e-01
4.871558898847631099e+03 8.057407321246681797e-02 3.915559806859268688e-02 1.462584104404852370e-01
4.881562099871958708e+03 7.788066748490105051e-02 3.812271293059882327e-02 1.416379372315197949e-01
4.891565300896287226e+03 7.714562754021365987e-02 3.660020075734999462e-02 1.429498637977036080e-01
4.901568501920614835e+03 7.331235604142169460e-02 3.312735811304386851e-02 1.392939112275623226e-01
4.911571702944942444e+03 7.035020787419882238e-02 3.235699030579532870e-02 1.284872954618663521e-01
4.921574903969270053e+03 6.906541519788757244e-02 3.165959903307956347e-02 1.258554044967503949e-01
4.931578104993597663e+03 6.504367037809710705e-02 3.175579033962613873e-02 1.235526197096437906e-01
4.941581306017926181e+03 6.256525845919388984e-02 2.885622344154088401e-02 1.107429244616856684e-01
4.951584507042253790e+03 5.835510411020922855e-02 2.820641325664618310e-02 1.059509132101470463e-01
4.961587708066581399e+03 5.677503252724197536e-02 2.816000510768810680e-02 9.867937291266423716e-02
4.971590909090909008e+03 5.552082598351152504e-02 2.672627636047635036e-02 1.018542815483298308e-01
4.981594110115236617e+03 5.540466616331019001e-02 2.898869422341568067e-02 9.855094298716722545e-02
4.991597311139564226e+03 5.329298341774459102e-02 2.671868685595539875e-02 9.197338084418778259e-02
5.001600512163892745e+03 5.054611537811721372e-02 2.485669134832319341e-02 9.149329553475907262e-02
5.011603713188220354e+03 4.996092189712738468e-02 2.489396092337569852e-02 8.501050467534426724e-02
5.021606914212547963e+03 4.946286194407717440e-02 2.590051353243746912e-02 8.453595239162768615e-02
5.031610115236875572e+03 4.825270249730016087e-02 2.577515376144356996e-02 8.184755994909635735e-02
5.041613316261203181e+03 4.860989127739271526e-02 2.377160686731912692e-02 8.262269180143677616e-02
5.051616517285531700e+03 4.777199661056150820e-02 2.307046027974303873e-02 8.086000506442160563e-02
5.061619718309859309e+03 4.740906029115796172e-02 2.366413379123809974e-02 7.891389784137312069e-02
5.071622919334186918e+03 4.756037373665644025e-02 2.371330354152708167e-02 7.941697021090594888e-02
5.081626120358514527e+03 4.752848937694078429e-02 2.379725788076587217e-02 7.783407516730973807e-02
5.091629321382842136e+03 4.751524362651197292e-02 2.369495883768216529e-02 7.804654550148182324e-02
5.101632522407170654e+03 4.807854642277186591e-02 2.385394751651932072e-02 7.709089795151100044e-02
5.111635723431498263e+03 4.744343206327499701e-02 2.366757321806239878e-02 7.964903733152965681e-02
5.121638924455825872e+03 4.697754874822551024e-02 2.356547312315720663e-02 7.713349917443450277e-02
5.131642125480153481e+03 4.803138155665710035e-02 2.422079556036638159e-02 7.938746913444127973e-02
5.141645326504481091e+03 4.800853201058325609e-02 2.263480184940362336e-02 7.903984478815857806e-02
5.151648527528809609e+03 4.688175594345703190e-02 2.254286065815170118e-02 7.795053272285493162e-02
5.161651728553137218e+03 4.791516768025471523e-02 2.176833313527598221e-02 7.872772574954266245e-02
5.171654929577464827e+03 4.727169947948009487e-02 2.402844311062561286e-02 7.615834166454565901e-02
5.181658130601792436e+03 4.630060384462841849e-02 2.310682209992757918e-02 7.502853542533326203e-02
5.191661331626120045e+03 4.788528827030483215e-02 2.396525785255708418e-02 7.801024179605516029e-02
5.201664532650448564e+03 5.071475451042914417e-02 2.516291701449160575e-02 7.976373600740196967e-02
5.211667733674776173e+03 4.953582918051380179e-02 2.520925189016235898e-02 7.898084787245576721e-02
5.221670934699103782e+03 4.678929856012110228e-02 2.242081931565574268e-02 7.817721740058286573e-02
5.231674135723431391e+03 4.687872228934562152e-02 2.469679882649809463e-02 7.922599962330081902e-02
5.241677336747759000e+03 4.944985961089495841e-02 2.396758055116898420e-02 8.139087029270594686e-02
5.251680537772087519e+03 5.093615171194736807e-02 2.476095569193379614e-02 8.055374157876668550e-02
5.261683738796415128e+03 4.943431709143598224e-02 2.506358731190320988e-02 8.090328526795201314e-02
5.271686939820742737e+03 4.740164004201102149e-02 2.341644943167323772e-02 7.595632626554703337e-02
5.281690140845070346e+03 4.845448632964673846e-02 2.594864303150917761e-02 7.964688182521943716e-02
5.291693341869397955e+03 5.071327424276386026e-02 2.455208613685136432e-02 8.278626471725097913e-02
5.301696542893725564e+03 4.749605662483006446e-02 2.425699591176671763e-02 8.179714456096294495e-02
5.311699743918054082e+03 5.080956908395564686e-02 2.603737279344784175e-02 8.266068076417688870e-02
5.321702944942381691e+03 5.147640921141283937e-02 2.476034628435169749e-02 8.409417673272856497e-02
5.331706145966709300e+03 5.152613215135504882e-02 2.406757815505115167e-02 8.178507975461291046e-02
5.341709346991036909e+03 4.972398879764662605e-02 2.356089428579623973e-02 8.241900430107478026e-02
5.351712548015364519e+03 5.124620829517656517e-02 2.583426155916396932e-02 8.300854338745544680e-02
5.361715749039693037e+03 4.944881221930592236e-02 2.406947021178832205e-02 8.162378171999346010e-02
5.371718950064020646e+03 5.223947295403962021e-02 2.475059754379902582e-02 8.521725356067405555e-02
5.381722151088348255e+03 5.107905887455444632e-02 2.450977886014986049e-02 8.298526780411144554e-02
5.391725352112675864e+03 5.125391639680427353e-02 2.553412159714532961e-02 8.527907857057545615e-02
5.401728553137003473e+03 5.204133341676527025e-02 2.668900592148637854e-02 8.628987948352444259e-02
5.411731754161331992e+03 5.136045861575783134e-02 2.578523091489687280e-02 8.354241216860026908e-02
5.421734955185659601e+03 5.367305568132964971e-02 2.602331389699023834e-02 8.522498994596199029e-02
5.431738156209987210e+03 5.247602039311554528e-02 2.636105155084969218e-02 8.380382954359179293e-02
5.441741357234314819e+03 5.185840939063506017e-02 2.653604530115546978e-02 8.800877854589370108e-02
5.451744558258642428e+03 5.331762798115734225e-02 2.706772695054666944e-02 8.823524994380162190e-02
5.461747759282970947e+03 5.366010349535314111e-02 2.557290311915918699e-02 8.691079384694670729e-02
5.471750960307298556e+03 5.371985642904280461e-02 2.656885251820600979e-02 8.530457165513859186e-02
5.481754161331626165e+03 5.490177363212739997e-02 2.774449578007333675e-02 8.815006900248943678e-02
5.491757362355953774e+03 5.391678667660625840e-02 2.702570242363063618e-02 8.680605070022286152e-02
5.501760563380281383e+03 5.402396630996129934e-02 2.653940453546833889e-02 8.631640216154562451e-02
5.511763764404609901e+03 5.294969378696156442e-02 2.617715146630830367e-02 8.671233224240677828e-02
5.521766965428937510e+03 5.435336102581737189e-02 2.691240303021395774e-02 9.177098627259533403e-02
5.531770166453265119e+03 6.184983322978177683e-02 3.152555426678273209e-02 1.012844156471581492e-01
5.541773367477592728e+03 6.313474981871165792e-02 3.151718152419903662e-02 1.024473689642487056e-01
5.551776568501920337e+03 5.940245639733560123e-02 3.131761394311276259e-02 9.695034537557323251e-02
5.561779769526248856e+03 5.696855223353049918e-02 2.827730975125036447e-02 9.308791446728779950e-02
5.571782970550576465e+03 5.894625881132587591e-02 2.953668278825920257e-02 9.692016601921919772e-02
5.581786171574904074e+03 1.707763565866623201e-01 1.050059550287172211e-01 2.797287316069263508e-01
5.591789372599231683e+03 6.530255080736582229e-01 5.816570501372677615e-01 7.204668856298397372e-01
5.601792573623559292e+03 5.797298579287576414e-01 4.510131322146152533e-01 6.489591157035969893e-01
5.611795774647886901e+03 1.058044108228667485e-01 5.385189718139687942e-02 1.708305159556080810e-01
5.621798975672215420e+03 5.746960979026061872e-02 3.103605339798848339e-02 9.807493591008382972e-02
5.631802176696543029e+03 5.651398234327458664e-02 2.747646113731990955e-02 9.338190321706067720e-02
5.641805377720870638e+03 6.070691930728056712e-02 2.885017701071694932e-02 9.624209279064625810e-02
5.651808578745198247e+03 7.008936862234596554e-02 3.525568580883698538e-02 1.097329122255726180e-01
5.661811779769525856e+03 6.665453691550653204e-02 3.384298402823679441e-02 1.082532381361791113e-01
5.671814980793854374e+03 5.925834585959056239e-02 3.049735314517686147e-02 1.023677516724166153e-01
5.681818181818181984e+03 6.178250970494955641e-02 3.112026950889913712e-02 1.027341415524497814e-01
5.691821382842509593e+03 6.349052501066419774e-02 3.194091893793587350e-02 1.053089585551910401e-01
5.701824583866837202e+03 6.277174526501917706e-02 2.958336087167344128e-02 1.053093024496627034e-01
5.711827784891164811e+03 6.144180003445789268e-02 2.865851839360999270e-02 1.064075475683348843e-01
5.721830985915493329e+03 6.302660601893379788e-02 2.934751527897530229e-02 1.026796556499783020e-01
5.731834186939820938e+03 6.304212633519898357e-02 2.982890431537467413e-02 1.101623665690068671e-01
5.741837387964148547e+03 6.456297458203628936e-02 3.220536490348026998e-02 1.107161973174015102e-01
5.751840588988476156e+03 6.508582910685910272e-02 3.174033830014299368e-02 1.112098486131100211e-01
5.761843790012803765e+03 6.771858844487942120e-02 3.221813687880802080e-02 1.147991803123842719e-01
5.771846991037132284e+03 6.897022174460111510e-02 3.440285605024921006e-02 1.171943972160317954e-01
5.781850192061459893e+03 7.129391382192815096e-02 3.552807116960467887e-02 1.172785167997868888e-01
5.791853393085787502e+03 7.125261588983025640e-02 3.532538250527378354e-02 1.163873709251148220e-01
5.801856594110115111e+03 7.059094682121777597e-02 3.410101554714151800e-02 1.199936264357848031e-01
5.811859795134442720e+03 7.159346176540132278e-02 3.511300621968851954e-02 1.191832846588483652e-01
5.821862996158771239e+03 7.014014801296764023e-02 3.371765749026258557e-02 1.218109763480518248e-01
5.831866197183098848e+03 7.709434822683722266e-02 3.896314249753655284e-02 1.346980613294456730e-01
5.841869398207426457e+03 8.921581016911302175e-02 4.430118725124877060e-02 1.522275839256214125e-01
5.851872599231754066e+03 7.982862618129470123e-02 3.940527372812345497e-02 1.319859427823423248e-01
5.861875800256081675e+03 7.830836582261573031e-02 3.728087799470660574e-02 1.320705903099834710e-01
5.871879001280410193e+03 7.432133753170515333e-02 3.645710693739742658e-02 1.305633275215679345e-01
5.881882202304737802e+03 7.252779295380315516e-02 3.666073569254656161e-02 1.287612220003028773e-01
5.891885403329065412e+03 7.444124701011881062e-02 3.786342213549192398e-02 1.278164269720689361e-01
5.901888604353393021e+03 7.701474134450267406e-02 3.753595916692838153e-02 1.318743026994642908e-01
5.911891805377720630e+03 8.038404260618842168e-02 4.032652695723184383e-02 1.311734542941322967e-01
5.921895006402048239e+03 8.021431908240288233e-02 3.999015583405164664e-02 1.350644085296415220e-01
5.931898207426376757e+03 7.864638026491338474e-02 3.818260957799145955e-02 1.305517615654958052e-01
5.941901408450704366e+03 7.531571345299264975e-02 3.669588445192632081e-02 1.316620389444786987e-01
5.951904609475031975e+03 7.563076225461953794e-02 3.594212420016485582e-02 1.232467199910194933e-01
5.961907810499359584e+03 7.609147196273961800e-02 3.791680188906437071e-02 1.268656576522887436e-01
5.971911011523687193e+03 7.494652847766543335e-02 3.714018770295574728e-02 1.250406290794423281e-01
5.981914212548015712e+03 7.248042139372630477e-02 3.657821152486311761e-02 1.251815914766899185e-01
5.991917413572343321e+03 7.435134044574470691e-02 3.730368228794808672e-02 1.218319789179338197e-01
6.001920614596670930e+03 7.565284529286009363e-02 3.586808113029175960e-02 1.231641407279211869e-01
6.011923815620998539e+03 7.415411768560431494e-02 3.584811970062531938e-02 1.228644640876665195e-01
6.021927016645326148e+03 7.440476891116337699e-02 3.606621849433106625e-02 1.230084099031497485e-01
6.031930217669654667e+03 7.498951755941128672e-02 3.697633443560414263e-02 1.217184803970383089e-01
6.041933418693982276e+03 7.290542613274134109e-02 3.786505040476109696e-02 1.201291586433323733e-01
6.051936619718309885e+03 8.095981907177482451e-02 3.824562676110231790e-02 1.348457959428986386e-01
6.061939820742637494e+03 8.078618887344299337e-02 3.975529618682662608e-02 1.332676094546529078e-01
6.071943021766965103e+03 7.182668256084431824e-02 3.503642745451174267e-02 1.177385938917143993e-01
6.081946222791293621e+03 7.027581790957354579e-02 3.545631478941388415e-02 1.121248423906258534e-01
6.091949423815621230e+03 7.014187825688272815e-02 3.324875880352607532e-02 1.150401460454715669e-01
6.101952624839948840e+03 6.774815334053536919e-02 3.421480978487433100e-02 1.137187608618748236e-01
6.111955825864276449e+03 6.905694788190494537e-02 3.442558010848476013e-02 1.139699602263548328e-01
6.121959026888604058e+03 7.061388912415668406e-02 3.577451993933012525e-02 1.144237945424152886e-01
6.131962227912932576e+03 7.152289817030363372e-02 3.709682177395386138e-02 1.161334659191871899e-01
6.141965428937260185e+03 6.982787040273148726e-02 3.729980772255812177e-02 1.151189618238852158e-01
6.151968629961587794e+03 7.023959262700657513e-02 3.739479467747952590e-02 1.125806162810314148e-01
6.161971830985915403e+03 7.137819882918414183e-02 3.675636084555117256e-02 1.155733693551931757e-01
6.171975032010243012e+03 7.125220569079533661e-02 3.597330400328935252e-02 1.138657161861853923e-01
6.181978233034570621e+03 6.973603398582146895e-02 3.484686286410352413e-02 1.128587874351282966e-01
6.191981434058899140e+03 6.736318124416028341e-02 3.334709421049767558e-02 1.125201171413735268e-01
6.201984635083226749e+03 6.920747036182919865e-02 3.473967217957125292e-02 1.104479820087884145e-01
6.211987836107554358e+03 6.941981378292834404e-02 3.188881568163041968e-02 1.142489940448975921e-01
6.221991037131881967e+03 6.966174191087959322e-02 3.574900147663490763e-02 1.105666204923607954e-01
6.231994238156209576e+03 6.951297860729366285e-02 3.390067449255345505e-02 1.110195685701921564e-01
6.241997439180538095e+03 6.727946130967570049e-02 3.347378887886540144e-02 1.093249456490514721e-01
6.252000640204865704e+03 6.885564036209917971e-02 3.372697162276507704e-02 1.141181722062375448e-01
6.262003841229193313e+03 7.076425705127892263e-02 3.711104691363739660e-02 1.126187148190366943e-01
6.272007042253520922e+03 6.951823381395252910e-02 3.492900713438568810e-02 1.151109620234970904e-01
6.282010243277848531e+03 6.895053754188423811e-02 3.695467491865518650e-02 1.150871307448992908e-01
6.292013444302177049e+03 7.069117829718547796e-02 3.498378360388153946e-02 1.145341691541436335e-01
6.302016645326504658e+03 7.158253899464674108e-02 3.497021238592148279e-02 1.183022362843347275e-01
6.312019846350832267e+03 7.130238618366427361e-02 3.535960868717457489e-02 1.142404029605062071e-01
6.322023047375159877e+03 7.318699607965653553e-02 3.485121303826136524e-02 1.122293356838517803e-01
6.332026248399487486e+03 7.054629664930334165e-02 3.479101536707345649e-02 1.161208345184437940e-01
6.342029449423816004e+03 7.156606574350053707e-02 3.699415608539134703e-02 1.143838619145463031e-01
6.352032650448143613e+03 7.464176299162850192e-02 3.506297070906601310e-02 1.232487169150956463e-01
6.362035851472471222e+03 7.724130429184040969e-02 3.891646751336200194e-02 1.250032113600602068e-01
6.372039052496798831e+03 7.357825028742166762e-02 3.696118593719921464e-02 1.173584644445022779e-01
6.382042253521126440e+03 7.137849980795434035e-02 3.493573556012754405e-02 1.169785419636716201e-01
6.392045454545454959e+03 7.387184566289695109e-02 3.681020671504140612e-02 1.205565367185549158e-01
6.402048655569782568e+03 7.376625076394328906e-02 3.736067776021126385e-02 1.205326229715199260e-01
6.412051856594110177e+03 7.429400841165025027e-02 3.671664182165417650e-02 1.188310944534815700e-01
6.422055057618437786e+03 7.346308671596782358e-02 3.444837545829518982e-02 1.193239043276481670e-01
6.432058258642765395e+03 6.977172860638783392e-02 3.541789669927430939e-02 1.147516722874750983e-01
6.442061459667093914e+03 7.142054889100163395e-02 3.491450275812035819e-02 1.173461467158847665e-01
6.452064660691421523e+03 7.294028337376858018e-02 3.418166146288299789e-02 1.180652014825786245e-01
6.462067861715749132e+03 7.554581236548280065e-02 3.737302274069224245e-02 1.208012027856125020e-01
6.472071062740076741e+03 7.371900032629730148e-02 3.778115463613121450e-02 1.194044930301707413e-01
6.482074263764404350e+03 7.407500352508394892e-02 3.648337381441408428e-02 1.188847959335234961e-01
6.492077464788731959e+03 7.239067768294761562e-02 3.770943916287364944e-02 1.211515344586689413e-01
6.502080665813060477e+03 7.252837045747927147e-02 3.669652027507699227e-02 1.189059483929781613e-01
6.512083866837388086e+03 7.309554043863511485e-02 3.721216705745128417e-02 1.206028933117395119e-01
6.522087067861715695e+03 7.556738654175892966e-02 3.908581986399971980e-02 1.184635387448859795e-01
6.532090268886043305e+03 7.353087549897588393e-02 3.841017120671091217e-02 1.220236671199520229e-01
6.542093469910370914e+03 7.351342915114505994e-02 3.698747740554732960e-02 1.196345817326689848e-01
6.552096670934699432e+03 7.360408800284605479e-02 3.699057269984163537e-02 1.198831597055966397e-01
6.562099871959027041e+03 7.311763324897804783e-02 3.595568914003005601e-02 1.202505700094585045e-01
6.572103072983354650e+03 7.317790638366883371e-02 4.029578881699451970e-02 1.235459071563491801e-01
6.582106274007682259e+03 7.770535238728230876e-02 3.880383912866836038e-02 1.250203397374744785e-01
6.592109475032009868e+03 7.926414115608421129e-02 3.613229541374112647e-02 1.259405421274987502e-01
6.602112676056338387e+03 7.543502906275470488e-02 3.637136757885318927e-02 1.253701769414055922e-01
6.612115877080665996e+03 7.423410032291367922e-02 3.712471776255510392e-02 1.224240169225348784e-01
6.622119078104993605e+03 7.599449364582974709e-02 3.647236952932159104e-02 1.237599051774952580e-01
6.632122279129321214e+03 7.776923711167120501e-02 3.871676516462294743e-02 1.282057863907490047e-01
6.642125480153648823e+03 7.797840082011529839e-02 3.823751776075479808e-02 1.244062343925775582e-01
6.652128681177977342e+03 7.527877791397853680e-02 3.542863902763578737e-02 1.236245096129730547e-01
6.662131882202304951e+03 7.664857319116258338e-02 3.937992365896200719e-02 1.246392660319887019e-01
6.672135083226632560e+03 7.512505844877660766e-02 3.737120221798648917e-02 1.281811286367789682e-01
6.682138284250960169e+03 7.916929723355056736e-02 3.824808582704409404e-02 1.298884734054218670e-01
6.692141485275287778e+03 7.557949337924056710e-02 3.938721622655237675e-02 1.279842502353686906e-01
6.702144686299616296e+03 8.056618007726561170e-02 3.764603425741517434e-02 1.318936371919450234e-01
6.712147887323943905e+03 7.682429985604129208e-02 3.916636844278375412e-02 1.248729783260375537e-01
6.722151088348271514e+03 7.746266414274323442e-02 3.773875668022851071e-02 1.256106931839110208e-01
6.732154289372599123e+03 7.693570456588662287e-02 3.916110055581120686e-02 1.282704081961684173e-01
6.742157490396926733e+03 8.077606188164455914e-02 4.053032084298884702e-02 1.317436434942805823e-01
6.752160691421255251e+03 8.413596906504530737e-02 4.050207586802324899e-02 1.345479922180778110e-01
6.762163892445582860e+03 8.337397579673842818e-02 3.955468375498760736e-02 1.341776327234676103e-01
6.772167093469910469e+03 8.063952655486585075e-02 3.956983680202807996e-02 1.324800283299785997e-01
6.782170294494238078e+03 8.018023798992522655e-02 4.105112570643158071e-02 1.336088351034633581e-01
6.792173495518565687e+03 8.631353880646536192e-02 4.330169884810443348e-02 1.407622222666329026e-01
6.802176696542893296e+03 8.447991623421749474e-02 4.292802398642357742e-02 1.398490775145008469e-01
6.812179897567221815e+03 9.186670846646441402e-02 4.135677768238175261e-02 1.469535551649306104e-01
6.822183098591549424e+03 2.396274742328455831e-01 1.189215581448090364e-01 4.048288355096132940e-01
6.832186299615877033e+03 4.378130168077914997e-01 2.164001253253745871e-01 7.344289022857376503e-01
6.842189500640204642e+03 2.403585686342613881e-01 1.184603276318736548e-01 4.047599838845862830e-01
6.852192701664532251e+03 9.379913376287929427e-02 4.413784668951387796e-02 1.573008930554218310e-01
6.862195902688860770e+03 9.018253352258302769e-02 4.398576761545767294e-02 1.501574338758212002e-01
6.872199103713188379e+03 8.884362985534138835e-02 4.396912865073052817e-02 1.504424715290330894e-01
6.882202304737515988e+03 9.180903885992609814e-02 4.407321827211667375e-02 1.577622914198422710e-01
6.892205505761843597e+03 1.623182140603921519e-01 8.136264237698023760e-02 2.749658920662493844e-01
6.902208706786171206e+03 4.379141482103131588e-01 2.276635136101437529e-01 7.243241458878606487e-01
6.912211907810499724e+03 3.596216757399652297e-01 1.836067945989768024e-01 5.980940085463472000e-01
6.922215108834827333e+03 1.129898323159348322e-01 5.875794445393000415e-02 1.994176872146142809e-01
6.932218309859154942e+03 1.023360282380529479e-01 4.891988895946801363e-02 1.887996812429335869e-01
6.942221510883482551e+03 9.854004651660182301e-02 4.412577407902588955e-02 1.962451571288193475e-01
6.952224711907810160e+03 9.862926672087872493e-02 4.771813774765189253e-02 1.982555791533621992e-01
6.962227912932138679e+03 1.063047580888335231e-01 4.989768589492699774e-02 2.048925879497733860e-01
6.972231113956466288e+03 1.102381497037324548e-01 5.262645179829587849e-02 2.244973141031561814e-01
6.982234314980793897e+03 1.139410638607635251e-01 5.374800175075321318e-02 2.354982578803644644e-01
6.992237516005121506e+03 1.190680526852180149e-01 5.710592993721512467e-02 2.496326234813011635e-01
7.002240717029449115e+03 1.224271415443928118e-01 5.507701201974556093e-02 2.582849505717092486e-01
7.012243918053777634e+03 1.265471629095689110e-01 5.793418160980341042e-02 2.631725838618446667e-01
7.022247119078105243e+03 1.312807716803052471e-01 6.032791838932013984e-02 2.775535581594211210e-01
7.032250320102432852e+03 1.394025337407236165e-01 6.119241220110778479e-02 2.838795458916511527e-01
7.042253521126760461e+03 1.441033190943263598e-01 6.193926228542136897e-02 2.854969131888254741e-01
7.052256722151088070e+03 1.512961989501216131e-01 6.727116984890729734e-02 2.931763257221772778e-01
7.062259923175416588e+03 1.529835165171714306e-01 7.017829238958428473e-02 3.057582664929272553e-01
7.072263124199744198e+03 1.540778599831370277e-01 6.922848976653438180e-02 3.115129839424228830e-01
7.082266325224071807e+03 1.657201821387609131e-01 7.187604690603441315e-02 3.097440460568620657e-01
7.092269526248399416e+03 1.623942183003822259e-01 7.821880566722143324e-02 3.056206172019581002e-01
7.102272727272727025e+03 1.655235175085811583e-01 8.026690676598818852e-02 3.036846537376938215e-01
7.112275928297054634e+03 1.605840695563975906e-01 7.881681403460115420e-02 3.020099814117988557e-01
7.122279129321383152e+03 1.666078282189905335e-01 7.165097462335054401e-02 3.120189380536785850e-01
7.132282330345710761e+03 1.649830154180323694e-01 7.423433185546067514e-02 3.176927079110198338e-01
7.142285531370038370e+03 1.565030371304330370e-01 7.141549254804563374e-02 3.141842377936026609e-01
7.152288732394365979e+03 1.567055786700329301e-01 6.918919774092892327e-02 2.995259209814348234e-01
7.162291933418693588e+03 1.491521162619369456e-01 6.933972962322858258e-02 2.853885835170856256e-01
7.172295134443022107e+03 1.441202041482663454e-01 6.630152095205324447e-02 2.953909126554715159e-01
7.182298335467349716e+03 1.429579774257167812e-01 6.707853589294537899e-02 2.977459062418997826e-01
7.192301536491677325e+03 1.337262795618062716e-01 6.173801373131442699e-02 2.835038094763645544e-01
7.202304737516004934e+03 1.254396394306822593e-01 5.957554321141052267e-02 2.754848365740331650e-01
7.212307938540332543e+03 1.231650678514224773e-01 5.639746922141535002e-02 2.596368978692275564e-01
7.222311139564661062e+03 1.225965468233131128e-01 5.625206567713382511e-02 2.642099379816565397e-01
7.232314340588988671e+03 1.230292761832429554e-01 5.542670703935258236e-02 2.490792247059372966e-01
7.242317541613316280e+03 1.208261387784502483e-01 5.582452776383452220e-02 2.487821726431416469e-01
7.252320742637643889e+03 1.172140513730488554e-01 5.576478081253425506e-02 2.408111377201990477e-01
7.262323943661971498e+03 1.181356268548561100e-01 6.011747457806314310e-02 2.276487648950863696e-01
7.272327144686300016e+03 1.210438905814743282e-01 5.960609068927811421e-02 2.212270231571184520e-01
7.282330345710627626e+03 1.198155189014429439e-01 5.781618780052544954e-02 2.131805122953352449e-01
7.292333546734955235e+03 1.131467416418402150e-01 5.368507467551096590e-02 2.012740295283453329e-01
7.302336747759282844e+03 1.182344921342037697e-01 5.669857982629908366e-02 2.048279843256679000e-01
7.312339948783610453e+03 1.235078948231115442e-01 5.854590592883044536e-02 2.141532093220172017e-01
7.322343149807938971e+03 2.145730863048661841e-01 1.058940559931072778e-01 3.627538713677647131e-01
7.332346350832266580e+03 2.628174955150654468e-01 1.278775354687600174e-01 4.455625339271893082e-01
7.342349551856594189e+03 1.854574307446062442e-01 9.088298613879854104e-02 3.053848554632157541e-01
7.352352752880921798e+03 1.130160145453741188e-01 5.571934988719152299e-02 1.879758218619355381e-01
7.362355953905249407e+03 1.046128206900264340e-01 4.957439195305510943e-02 1.770022815551224871e-01
7.372359154929577926e+03 9.903097081650304168e-02 5.055638422632910411e-02 1.751411038636155049e-01
7.382362355953905535e+03 9.523197566253684132e-02 4.820346440264909604e-02 1.688366406394346819e-01
7.392365556978233144e+03 9.644673630106744000e-02 4.714182544798293378e-02 1.668404283459928583e-01
7.402368758002560753e+03 1.000577493012046598e-01 4.961701450545025899e-02 1.635240063070759475e-01
7.412371959026888362e+03 9.390140855658295205e-02 4.614787423835168406e-02 1.577817781867791036e-01
7.422375160051215971e+03 9.330159736123389003e-02 4.548503135706499084e-02 1.618098782780425515e-01
7.432378361075544490e+03 9.404547865573864573e-02 4.988312627136877453e-02 1.588285574619383855e-01
7.442381562099872099e+03 9.522230450834817672e-02 4.673225419711292405e-02 1.585455428350366902e-01
7.452384763124199708e+03 2.378322689259549372e-01 1.531634906758940484e-01 3.354879162772471668e-01
7.462387964148527317e+03 3.633033277914494152e-01 2.877691894526662186e-01 4.375895434515841842e-01
7.472391165172854926e+03 1.691307816097307737e-01 9.219922361955221191e-02 2.544568575992775528e-01
7.482394366197183444e+03 8.551455341702371427e-02 4.154007146596518790e-02 1.449703395770760017e-01
7.492397567221511054e+03 8.522273920573512906e-02 4.208520408739926943e-02 1.384526631201683233e-01
7.502400768245838663e+03 8.865756703245282477e-02 4.503862127630953865e-02 1.412102654636006038e-01
7.512403969270166272e+03 8.948977001927310715e-02 4.609424222575685820e-02 1.495846359552706339e-01
7.522407170294493881e+03 8.846676870311993846e-02 4.525309816317287653e-02 1.429021888125188988e-01
7.532410371318822399e+03 8.528969473277590863e-02 4.120128601816887282e-02 1.388456359595821865e-01
7.542413572343150008e+03 8.208725659400650798e-02 4.209024056829537702e-02 1.382862482205082233e-01
7.552416773367477617e+03 8.145284641794958702e-02 4.191483831681309946e-02 1.315887098546289768e-01
7.562419974391805226e+03 8.686002532565363643e-02 4.246744324191084607e-02 1.386328121106808475e-01
7.572423175416132835e+03 8.765148365585519186e-02 4.474802320188893401e-02 1.398241877901184316e-01
7.582426376440461354e+03 8.358813146413647532e-02 4.233792151594276132e-02 1.387718549994831352e-01
7.592429577464788963e+03 8.630550329826329470e-02 4.297786306660070915e-02 1.404040524270371570e-01
7.602432778489116572e+03 8.367322748574927693e-02 4.127353678513647622e-02 1.395538666167172037e-01
7.612435979513444181e+03 8.132230846207874619e-02 3.959903230723976764e-02 1.389020682765126080e-01
7.622439180537771790e+03 7.926071981425329704e-02 3.920966315840796607e-02 1.369072617618621035e-01
7.632442381562100309e+03 8.057254570519663261e-02 4.059613443941315070e-02 1.331770339585454099e-01
7.642445582586427918e+03 8.392509637388893828e-02 4.384925359427437053e-02 1.388333825321892145e-01
7.652448783610755527e+03 8.582145209570118949e-02 4.283111982744126911e-02 1.369112636484518530e-01
7.662451984635083136e+03 8.579870673204341436e-02 4.323885928463305078e-02 1.344430921966053016e-01
7.672455185659410745e+03 8.391246655835030155e-02 4.300831276338641651e-02 1.349147493619898552e-01
7.682458386683738354e+03 8.287313163492882051e-02 4.103277099867333466e-02 1.380619319214398122e-01
7.692461587708066872e+03 8.301047374426111236e-02 4.262324071487948868e-02 1.350470470646642218e-01
7.702464788732394481e+03 8.488484443835089821e-02 4.366216497248257000e-02 1.362088335996954613e-01
7.712467989756722091e+03 8.402521648738521531e-02 3.810908096248429716e-02 1.405445641084461239e-01
7.722471190781049700e+03 8.434846164458814632e-02 4.170576843718525051e-02 1.403444129461968448e-01
7.732474391805377309e+03 8.347443222808145769e-02 4.036313432000252638e-02 1.372675830068793568e-01
7.742477592829705827e+03 8.511747030865084163e-02 4.243608585457778887e-02 1.336076375892100432e-01
7.752480793854033436e+03 8.391404148046033296e-02 4.063530384392992356e-02 1.346324694327456495e-01
7.762483994878361045e+03 7.997675172445790903e-02 4.127442698906528401e-02 1.375628985905723023e-01
7.772487195902688654e+03 8.477369756278227420e-02 4.187230103558347433e-02 1.432024914639800917e-01
7.782490396927016263e+03 8.467010550033228500e-02 4.361771606000827001e-02 1.410997083522665396e-01
7.792493597951344782e+03 8.609405289707960929e-02 4.025592911899970872e-02 1.378028826319745714e-01
7.802496798975672391e+03 8.398770968570769269e-02 4.213432506390529103e-02 1.365200128873875762e-01
7.812500000000000000e+03 5.020264641267905420e-02 1.435171944219771484e-02 1.039966488309640447e-01
