# Comments from moku data file:% Moku:Phasemeter 
# 
# % Ch 1 - DC coupling, 50 Ohm impedance, 1 V range
# 
# % Ch 1 bandwidth = 1.0000000000e+04 (Hz)
# 
# % Acquisition rate: 1.5625000000e+04 Hz
# 
# % External 10 MHz clock
# 
# % Acquired 2020-02-07 T 01:39:47 -0800
# 
# % Time, Set frequency 1 (Hz), Frequency 1 (Hz), Phase 1 (cyc), I 1 (V), Q 1 (V)
# 
# #########################################################
# ASD calculated by mokuReadFreqNoise.py
# Frequency [Hz]         Freq ASD1 [Hz/rtHz]      Freq ASDlb1 [Hz/rtHz]    Freq ASDub1 [Hz/rtHz]    
# 
0.000000000000000000e+00 2.831401997607566159e+02 5.269324753368437086e+01 3.325935160525543210e+02
1.000000000000000056e-01 2.724829283294563425e+02 1.545694693449383124e+02 3.330789026738510188e+02
2.000000000000000111e-01 3.345098914252232021e+02 2.319099271867754908e+02 4.298337680800109410e+02
3.000000000000000444e-01 2.931204268392099266e+02 1.096156448131037848e+02 4.956761089814970660e+02
4.000000000000000222e-01 2.023827005422469369e+02 1.684878625920390789e+02 2.631402618632108101e+02
5.000000000000000000e-01 2.342420843093812266e+02 1.175848262637763355e+02 2.753573779070438263e+02
6.000000000000000888e-01 1.947922078822764433e+02 1.060561463489062106e+02 2.692871329836737004e+02
7.000000000000000666e-01 1.238981067843787258e+02 7.831312029951240561e+01 2.493442768347177889e+02
8.000000000000000444e-01 1.495096911469981080e+02 6.153543833897023063e+01 3.118217607935134765e+02
9.000000000000000222e-01 1.617025246880805014e+02 9.334227904128447051e+01 2.236285562350080909e+02
1.000000000000000000e+00 1.165837088893298272e+02 8.439830332874763030e+01 2.047472698988124193e+02
1.100000000000000089e+00 1.345296981551778117e+02 4.628864412802007422e+01 1.642630898542630291e+02
1.200000000000000178e+00 9.787219911193075461e+01 6.241594892238247638e+01 1.892711528867452557e+02
1.300000000000000044e+00 9.398679721983387481e+01 5.635136765498112510e+01 1.530963632821912768e+02
1.400000000000000133e+00 9.798914628204741462e+01 3.298920049950731226e+01 1.870991407190428220e+02
1.500000000000000000e+00 1.097074336521089890e+02 6.922288987890304668e+01 1.913197711184380694e+02
1.600000000000000089e+00 7.827824899880870646e+01 2.524469529202789886e+01 1.390675768091294913e+02
1.700000000000000178e+00 9.196870817560370881e+01 6.295474192160007476e+01 1.427113782996055136e+02
1.800000000000000044e+00 6.205343070135038630e+01 5.143868643214663194e+01 1.510641026264990785e+02
1.900000000000000133e+00 5.760557851337463831e+01 2.848392375009342814e+01 9.988449685666245159e+01
2.000000000000000000e+00 8.585862723052839840e+01 4.428121200052461859e+01 1.220901065363891860e+02
2.100000000000000089e+00 8.751888842728740769e+01 3.945122892512327439e+01 1.433395376640231689e+02
2.200000000000000178e+00 9.601493462333387185e+01 5.460913672042202904e+01 1.146532578610809026e+02
2.300000000000000266e+00 5.635659948909239603e+01 3.230828021414713191e+01 8.990018444013014687e+01
2.400000000000000355e+00 8.997718224337889126e+01 6.481339740947977646e+01 1.336309253032910931e+02
2.500000000000000000e+00 1.387473391793808162e+02 6.791973521987441131e+01 1.662824842654412976e+02
2.600000000000000089e+00 6.800521734048484745e+01 4.962299067007201359e+01 1.270550935116185229e+02
2.700000000000000178e+00 9.227209685125319538e+01 6.186054072150309935e+01 1.287593474592325435e+02
2.800000000000000266e+00 1.172733994585336035e+02 6.414750161746455603e+01 1.359208649690893651e+02
2.900000000000000355e+00 8.141195556201536476e+01 3.417332905813557886e+01 1.402395813668252629e+02
3.000000000000000000e+00 6.323043889060472367e+01 4.129707788128342827e+01 1.252806116585698106e+02
3.100000000000000089e+00 9.472466818744801742e+01 3.867127868070259211e+01 1.128806974023428182e+02
3.200000000000000178e+00 6.836315502234214136e+01 4.677361619449042962e+01 1.033271248072765189e+02
3.300000000000000266e+00 6.812234307403379319e+01 3.600344255404777272e+01 8.994565711363058824e+01
3.400000000000000355e+00 6.045782988826577053e+01 2.800769440004691546e+01 1.124730858294990981e+02
3.500000000000000000e+00 4.390510025885217260e+01 3.123311758366599733e+01 7.356314974637227522e+01
3.600000000000000089e+00 5.124523989681996028e+01 2.828093129316713927e+01 6.138008212696007604e+01
3.700000000000000178e+00 3.609200218311408292e+01 1.740909018874625147e+01 5.586515377557691409e+01
3.800000000000000266e+00 4.141420491606865539e+01 1.962414833336785591e+01 6.900110403546507598e+01
3.900000000000000355e+00 3.903962213226463973e+01 2.936737880048476868e+01 5.369368416306163994e+01
4.000000000000000000e+00 4.487032345675127942e+01 1.994270379662281201e+01 6.274241038563663153e+01
4.100000000000000533e+00 5.443354806787026234e+01 2.514325601303576008e+01 8.504840248269111669e+01
4.200000000000000178e+00 6.181965762435439160e+01 3.058939630464337966e+01 7.411402982626947278e+01
4.299999999999999822e+00 5.129751078596531499e+01 2.012533273037039194e+01 6.931454012352446625e+01
4.400000000000000355e+00 3.624791838343651307e+01 1.122792819739652259e+01 7.768833415961216815e+01
4.500000000000000000e+00 4.470860360971244063e+01 2.851049917113607890e+01 5.782020488023139393e+01
4.600000000000000533e+00 3.858935632955525108e+01 2.969434848263932025e+01 5.766317399930981225e+01
4.700000000000000178e+00 5.005296500853105357e+01 1.766804968346203353e+01 7.613225065241070411e+01
4.800000000000000711e+00 4.004507902727700497e+01 1.487030083492276056e+01 7.997403483680004399e+01
4.900000000000000355e+00 4.004165096931481571e+01 2.250364458817115221e+01 5.174605924173376081e+01
5.000000000000000000e+00 3.081717513672093389e+01 1.832287520645991918e+01 5.578252273325943378e+01
5.100000000000000533e+00 3.388337524947230861e+01 1.906080448999615840e+01 4.453695632722873654e+01
5.200000000000000178e+00 4.691228357145519823e+01 3.566923188773840536e+01 5.559316911465053579e+01
5.300000000000000711e+00 3.324917378531089440e+01 2.672569176586128492e+01 5.946785879740480851e+01
5.400000000000000355e+00 2.956432443944994404e+01 2.220868396091625030e+01 5.329319710199887083e+01
5.500000000000000000e+00 3.422275761920225534e+01 1.865788212046265571e+01 4.883728500672315676e+01
5.600000000000000533e+00 2.805408469806108585e+01 1.061064670339913185e+01 4.965960739868312857e+01
5.700000000000000178e+00 2.646726391583263549e+01 1.763073268723386633e+01 4.384825303370732286e+01
5.800000000000000711e+00 2.349116464496611201e+01 1.479929830536174684e+01 4.749745851259633156e+01
5.900000000000000355e+00 3.522372010154842314e+01 1.889732094083969827e+01 6.780917762681248462e+01
6.000000000000000000e+00 3.739809919322478038e+01 2.890446259968943821e+01 4.622777609734452398e+01
6.100000000000000533e+00 2.706800549340715278e+01 1.548074016417837306e+01 3.706227049449950073e+01
6.200000000000000178e+00 2.288908835327743674e+01 1.625865817048291007e+01 3.748562497492587653e+01
6.300000000000000711e+00 3.196622639250736952e+01 2.348872412086859285e+01 4.317010729933674895e+01
6.400000000000000355e+00 2.978819260083585974e+01 1.828854809583016561e+01 5.228538269248587511e+01
6.500000000000000000e+00 2.792036972304219944e+01 1.740804763746325534e+01 3.530667101164235078e+01
6.600000000000000533e+00 2.954863676034464248e+01 1.671549126810634078e+01 3.477012779066483716e+01
6.700000000000000178e+00 2.697584958885655837e+01 2.089236512042636562e+01 4.087708674021688182e+01
6.800000000000000711e+00 3.236441938188802681e+01 2.316138968625828554e+01 4.969850571207614820e+01
6.900000000000000355e+00 3.932718320977634363e+01 3.178293507423396491e+01 5.855377309923954954e+01
7.000000000000000000e+00 3.259199835776479404e+01 2.369115087540874143e+01 5.801735482547529443e+01
7.100000000000000533e+00 3.143517653074486162e+01 1.523366729182892776e+01 4.306447720181267869e+01
7.200000000000000178e+00 2.488698376068768781e+01 1.560709152556490409e+01 3.883948892932413344e+01
7.300000000000000711e+00 2.394407542964423996e+01 1.585781918651253264e+01 4.720610256994793019e+01
7.400000000000000355e+00 2.756687339871452025e+01 1.748621960403778886e+01 4.203568597499136672e+01
7.500000000000000000e+00 2.477929589134544841e+01 1.515564428872074387e+01 3.189851747204057375e+01
7.600000000000000533e+00 3.009179872769660946e+01 1.279882987629700253e+01 4.439469419348679935e+01
7.700000000000000178e+00 2.668940987044797808e+01 1.849389045762437789e+01 3.972683958841494700e+01
7.800000000000000711e+00 2.944758156535897697e+01 2.024351410349026636e+01 4.429541691594514674e+01
7.900000000000000355e+00 2.588177992582628306e+01 1.995550323219829991e+01 3.198130922663695230e+01
8.000000000000000000e+00 2.056749739157183754e+01 1.275624554028544466e+01 3.341422083204449223e+01
8.099999999999999645e+00 3.079670236220579582e+01 1.750020548982911350e+01 4.349954439133622230e+01
8.200000000000001066e+00 2.608083407314153845e+01 1.028033104630392813e+01 4.658462630009784533e+01
8.300000000000000711e+00 1.737872862893313908e+01 1.116840559342884553e+01 2.948461104319515158e+01
8.400000000000000355e+00 1.826046583121325995e+01 7.267219053326440914e+00 2.515719462114658000e+01
8.500000000000000000e+00 2.129195313655939970e+01 1.148863626278237859e+01 3.035629685847287362e+01
8.599999999999999645e+00 2.482121087583873020e+01 1.386262419128076395e+01 3.105603781228335691e+01
8.700000000000001066e+00 2.020763145946978412e+01 1.576705773584559189e+01 3.119152126164890149e+01
8.800000000000000711e+00 2.424740570384013338e+01 1.593879448593427384e+01 3.055835063220444781e+01
8.900000000000000355e+00 1.868074835014752821e+01 1.370888270358566352e+01 2.741071933329430266e+01
9.000000000000000000e+00 2.083616610229216448e+01 7.343198133982546061e+00 2.478673478482425452e+01
9.099999999999999645e+00 2.401982318024574781e+01 6.321362307847590678e+00 2.935221395043027215e+01
9.200000000000001066e+00 1.478359306685498709e+01 8.369938595891877497e+00 2.131125360666194624e+01
9.300000000000000711e+00 2.011466134882378398e+01 1.159236627970226863e+01 3.461749558236532209e+01
9.400000000000000355e+00 2.121970398367362520e+01 1.247275289760879424e+01 2.556776470584513561e+01
9.500000000000000000e+00 1.573418401413614376e+01 9.382105061671961010e+00 2.432345002472350970e+01
9.600000000000001421e+00 1.194459093964786689e+01 7.400975989347474027e+00 2.604734323250600880e+01
9.700000000000001066e+00 1.518649770010871514e+01 1.065037409843343852e+01 2.082346678919918759e+01
9.800000000000000711e+00 1.607505471980369904e+01 9.376443066148292260e+00 2.627225460869541607e+01
9.900000000000000355e+00 2.075408289388417415e+01 1.069877948286534775e+01 3.315261190635106914e+01
1.000000000000000000e+01 1.383094691323177727e+01 9.682333925973676259e+00 2.311790169227509040e+01
1.000000000000000000e+01 1.585294064334034658e+01 7.510034963604627301e+00 2.715680601394603855e+01
1.100000000000000000e+01 1.441470106471971313e+01 7.431437357933679877e+00 2.465750309503560089e+01
1.200000000000000000e+01 1.317587616497962522e+01 5.849260227784736088e+00 2.221664664489656360e+01
1.300000000000000000e+01 1.259894464225272159e+01 6.311805475518438513e+00 2.063455967388341605e+01
1.400000000000000000e+01 1.310785429851731543e+01 5.489324100559890951e+00 2.154339404465766705e+01
1.500000000000000000e+01 1.201112019525585950e+01 5.975079166738261449e+00 1.992655615745260178e+01
1.600000000000000000e+01 1.040484288418005221e+01 5.085834429737057683e+00 1.760196287694211748e+01
1.700000000000000000e+01 9.121064173914927409e+00 4.259886535608848668e+00 1.492973060732949975e+01
1.800000000000000000e+01 8.884083173993561289e+00 4.305091552958637990e+00 1.281512629002447490e+01
1.900000000000000000e+01 8.625747953491693210e+00 4.406464834801791852e+00 1.266441450121131673e+01
2.000000000000000000e+01 7.398910100585601946e+00 4.336511186684175456e+00 1.419260496081332157e+01
2.100000000000000000e+01 7.907929377407985072e+00 3.456347051467264730e+00 1.242510164065577705e+01
2.200000000000000000e+01 9.017125070905853690e+00 4.396319664182117393e+00 1.404358678403254501e+01
2.300000000000000000e+01 7.643800496585932969e+00 3.837850350493253515e+00 1.284416494536402276e+01
2.400000000000000000e+01 6.451152865569290462e+00 3.571360458599117660e+00 9.985607243176501058e+00
2.500000000000000000e+01 5.561757657270823607e+00 2.750291500502398012e+00 9.862560595409989972e+00
2.600000000000000000e+01 5.621704982144926532e+00 2.982156659659958464e+00 9.757953752432575456e+00
2.700000000000000000e+01 5.230993041030607138e+00 1.948888198981306052e+00 1.069633078108867075e+01
2.800000000000000000e+01 4.464206520225110886e+00 2.492271924254241267e+00 8.451975917298385710e+00
2.900000000000000000e+01 4.501014015125261558e+00 2.549235943346342292e+00 8.988036080862537247e+00
3.000000000000000000e+01 4.349420017030709573e+00 1.688171703053837236e+00 8.665708978021230635e+00
3.100000000000000000e+01 4.623475134887000237e+00 2.245210653136934020e+00 8.643429758907739568e+00
3.200000000000000000e+01 3.600647151736690255e+00 2.029332863979849577e+00 7.484795194470580171e+00
3.300000000000000000e+01 3.587735767533260400e+00 1.795470159345086358e+00 6.703009499117158931e+00
3.400000000000000000e+01 3.325021658925506163e+00 1.716160875675011077e+00 6.356882486615246464e+00
3.500000000000000000e+01 3.385718659755517113e+00 1.525058034376439053e+00 6.597606569614208993e+00
3.600000000000000000e+01 3.301255424560250784e+00 1.535702118941371985e+00 6.045639581721840905e+00
3.700000000000000000e+01 2.806930747042332364e+00 1.476558763919596284e+00 5.427987613795056454e+00
3.800000000000000000e+01 2.866339110806944035e+00 1.263211467084965012e+00 5.336500912001853614e+00
3.900000000000000000e+01 2.377374609127429039e+00 1.213670896071558314e+00 5.879019631689085479e+00
4.000000000000000000e+01 2.219692378982382142e+00 1.035959429833282153e+00 4.735731642728983282e+00
4.100000000000000000e+01 2.119680279296656256e+00 1.051451487699172516e+00 5.221457834175051715e+00
4.200000000000000000e+01 2.066864341560904705e+00 1.162640397040958673e+00 4.958571599664770346e+00
4.300000000000000000e+01 2.086654633112687840e+00 1.056838522748754672e+00 4.117438507285050342e+00
4.400000000000000000e+01 2.006257181456861272e+00 8.265712289118405387e-01 4.715428960750510434e+00
4.500000000000000000e+01 2.074020579528050856e+00 1.017715521580028204e+00 4.516569369821576529e+00
4.600000000000000000e+01 1.830052267884492379e+00 8.724516089000247110e-01 4.384808933145716736e+00
4.700000000000000000e+01 1.564017584798762739e+00 7.478330924735019369e-01 4.666770983822899233e+00
4.800000000000000000e+01 1.482622558310510152e+00 6.925080576340030269e-01 4.100325829973034963e+00
4.900000000000000000e+01 1.659934894952326712e+00 7.057561151844190528e-01 3.849436527833283606e+00
5.000000000000000000e+01 1.563109036937012641e+00 6.142481066652397681e-01 3.205821962986354023e+00
5.100000000000000000e+01 1.525105886931311439e+00 5.899355428036768823e-01 3.213633472916883171e+00
5.200000000000000000e+01 1.408914241880673712e+00 7.003227637774300796e-01 2.567559699419616148e+00
5.300000000000000000e+01 1.351751475691036708e+00 6.136666608305376691e-01 3.038530540708614502e+00
5.400000000000000000e+01 1.307866321988308655e+00 5.350235993951562019e-01 3.156503648618148361e+00
5.500000000000000000e+01 1.121040414866700585e+00 5.405505711076645792e-01 2.302158799736630179e+00
5.600000000000000000e+01 1.195438044218308793e+00 4.988060873635267178e-01 2.191315460243546731e+00
5.700000000000000000e+01 1.109458734994322127e+00 5.474791272228636263e-01 2.285256770289108896e+00
5.800000000000000000e+01 1.089991188535384792e+00 4.888534028857109970e-01 2.404334186991321065e+00
5.900000000000000000e+01 9.923658458926402082e-01 4.303956968258539906e-01 2.258845785177098442e+00
6.000000000000000000e+01 9.441387825303497738e-01 4.448887427453507848e-01 2.018184565028281696e+00
6.100000000000000000e+01 8.414489468595365285e-01 4.623465206167792219e-01 1.799544734018215575e+00
6.200000000000000000e+01 8.558689623693108706e-01 3.731894451024757586e-01 1.605341768753490106e+00
6.300000000000000000e+01 8.456046038146478594e-01 3.814673358877065379e-01 1.648122127185290164e+00
6.400000000000000000e+01 7.970572533756984379e-01 4.155254833128410041e-01 1.569569822952793903e+00
6.500000000000000000e+01 7.757907097452149126e-01 3.081162558413795827e-01 1.658658122093868093e+00
6.600000000000000000e+01 8.141221669371234704e-01 3.504562031543931866e-01 1.675993853644314413e+00
6.700000000000000000e+01 7.609790261766631314e-01 4.094326519533766362e-01 1.334684119610029640e+00
6.800000000000000000e+01 6.913496676850227063e-01 3.156120850616094820e-01 1.419913071804886240e+00
6.900000000000000000e+01 6.304589363284178738e-01 3.431476414704224265e-01 1.193346876965666770e+00
7.000000000000000000e+01 6.284215163353963352e-01 3.579188428144078338e-01 1.094887206959928250e+00
7.100000000000000000e+01 6.581968994485030144e-01 3.014587165857245399e-01 1.156150578851708799e+00
7.200000000000000000e+01 7.115583330602204271e-01 2.975243274082218226e-01 1.164703604803394521e+00
7.300000000000000000e+01 6.449905785480061216e-01 3.116007008245922361e-01 1.140535378561565505e+00
7.400000000000000000e+01 6.367595664018053103e-01 3.140537002726647153e-01 1.053368142942246344e+00
7.500000000000000000e+01 5.660976805637971676e-01 2.992416977016926216e-01 9.349618677976836434e-01
7.600000000000000000e+01 5.378790539433470075e-01 2.371377828559573242e-01 9.646323566145468265e-01
7.700000000000000000e+01 5.095010772891687134e-01 2.687897448483935192e-01 1.017572035970433442e+00
7.800000000000000000e+01 4.899599991270358612e-01 2.202443567604986108e-01 8.658921710547760053e-01
7.900000000000000000e+01 4.617406066275231424e-01 2.303093787416440885e-01 8.307843487871531263e-01
8.000000000000000000e+01 5.209168467530124191e-01 2.617767082794479339e-01 8.499807147284565989e-01
8.100000000000000000e+01 4.989866755046059588e-01 2.580638955170748705e-01 8.526534684887279170e-01
8.200000000000000000e+01 4.676092001258686515e-01 2.265592723993424262e-01 8.547199009982215934e-01
8.300000000000000000e+01 3.698592818479520261e-01 1.942137758586505170e-01 7.328262259463448336e-01
8.400000000000000000e+01 4.388949838030398176e-01 2.347197546613784547e-01 6.793038196972507325e-01
8.500000000000000000e+01 4.424107587433406819e-01 1.753540616295014010e-01 8.002499189776743904e-01
8.600000000000000000e+01 4.242493989625205630e-01 2.108588847631853447e-01 7.764045732643057862e-01
8.700000000000000000e+01 4.109236230406440593e-01 1.675365972358373312e-01 7.018622885594053562e-01
8.800000000000000000e+01 4.005873039300698046e-01 2.023963219119289114e-01 6.546955829295895146e-01
8.900000000000000000e+01 3.630369658017577050e-01 1.486454014385156508e-01 6.572566953147834790e-01
9.000000000000000000e+01 4.146608011376458625e-01 1.943130233802735085e-01 6.569704846245046914e-01
9.100000000000000000e+01 3.605766360883574384e-01 1.598809101904588581e-01 6.803462440429303149e-01
9.200000000000000000e+01 3.733409603967725032e-01 1.865429591228992545e-01 6.874241746414142540e-01
9.300000000000000000e+01 3.835269645793346616e-01 1.753808854939831463e-01 6.517638651654119597e-01
9.400000000000000000e+01 3.805707659899711381e-01 2.204460708365793831e-01 6.611693225350855352e-01
9.500000000000000000e+01 3.976647730414745174e-01 1.793630538362612770e-01 5.649202474613836955e-01
9.600000000000000000e+01 3.160216999321526776e-01 1.330025853428263849e-01 5.406543981111449071e-01
9.700000000000000000e+01 3.522147215839062651e-01 1.712452503517602198e-01 5.431021682068170042e-01
9.800000000000000000e+01 3.205528773412054666e-01 1.602295501937598954e-01 5.959335436328734303e-01
9.900000000000000000e+01 3.360342748088607778e-01 1.755921614494166949e-01 5.768795842626468495e-01
1.000000000000000000e+02 3.837083016438777028e-01 1.763954661024902670e-01 5.712395322360376282e-01
1.000320102432778526e+02 2.776749365507204526e-01 1.205873550734892635e-01 5.515585230965486252e-01
1.100352112676056322e+02 2.435767172278817116e-01 1.092587358134884806e-01 4.764810971921377702e-01
1.200384122919334118e+02 2.203644423974062960e-01 9.811490330852887243e-02 4.402031429116293748e-01
1.300416133162611914e+02 2.037842135064127924e-01 8.965195444718876416e-02 3.795727288613998107e-01
1.400448143405889994e+02 1.826467236037435105e-01 8.362816838668990505e-02 3.327931542206951088e-01
1.500480153649167789e+02 1.522460623421576786e-01 7.065670897244202830e-02 2.953932846371735699e-01
1.600512163892445585e+02 1.385579439826840065e-01 6.673314247176954928e-02 2.577919763416613996e-01
1.700544174135723381e+02 1.126737587054217754e-01 4.907810735625404985e-02 2.230751115040637833e-01
1.800576184379001177e+02 9.181887123953985652e-02 3.872813396248484669e-02 1.923394262175144587e-01
1.900608194622279257e+02 7.495386270663251249e-02 3.386464577635412559e-02 1.613267905759010468e-01
2.000640204865557052e+02 6.972812846114759266e-02 3.312404901561404047e-02 1.427767025920134436e-01
2.100672215108834848e+02 6.975960452154905678e-02 3.337295252937114848e-02 1.352340626307312887e-01
2.200704225352112644e+02 6.578702663754883162e-02 2.810481051783056405e-02 1.301131023296813460e-01
2.300736235595390440e+02 6.530535631073799974e-02 3.151084786169017909e-02 1.245017599587667084e-01
2.400768245838668236e+02 6.702728498161211745e-02 3.240225928140543638e-02 1.195577691512015595e-01
2.500800256081946316e+02 5.518891303518444480e-02 2.579217509773083089e-02 1.038280357274758703e-01
2.600832266325223827e+02 4.572531530309392050e-02 2.184598675957308625e-02 8.786709352276379781e-02
2.700864276568502191e+02 4.059771688755048347e-02 1.816445754763687873e-02 7.303786788016604359e-02
2.800896286811779987e+02 3.882845682733587073e-02 2.036277802684567997e-02 6.955884715404575536e-02
2.900928297055057783e+02 3.631504296994284009e-02 1.719483461760814777e-02 6.281335698765051767e-02
3.000960307298335579e+02 3.291179458436047089e-02 1.629385371444735248e-02 5.921565103095478844e-02
3.100992317541613374e+02 3.304000341072155233e-02 1.654662680597153435e-02 5.777104922902703138e-02
3.201024327784891170e+02 2.955743492426061297e-02 1.530103550030445514e-02 4.987423518546875434e-02
3.301056338028168966e+02 2.982956463619675785e-02 1.411797715657589838e-02 5.149647374071004285e-02
3.401088348271446762e+02 3.408007767487583606e-02 1.516844770068710366e-02 5.537518342959936446e-02
3.501120358514724558e+02 3.401126750866668991e-02 1.644829068632993122e-02 5.579772980651657305e-02
3.601152368758002353e+02 3.565083329308551402e-02 1.738310228247244224e-02 5.730201346237828730e-02
3.701184379001280149e+02 4.168783760985091819e-02 1.998417724853083360e-02 6.609626963887391127e-02
3.801216389244558513e+02 5.788197706227010686e-02 2.884458041266661429e-02 9.337191125986107898e-02
3.901248399487836309e+02 7.105175259770785123e-02 3.436699720721431150e-02 1.187198284456839892e-01
4.001280409731114105e+02 6.493511324555478748e-02 3.060903090834045728e-02 1.064804723661602337e-01
4.101312419974391901e+02 4.936838077481323084e-02 2.362354935257297145e-02 8.006094888364403972e-02
4.201344430217669697e+02 4.094114554426544345e-02 2.119459895367194896e-02 6.674065554010101542e-02
4.301376440460947492e+02 3.485234840294132441e-02 1.765983734936720645e-02 5.599740686592082073e-02
4.401408450704225288e+02 3.034076556995520327e-02 1.476532559924995103e-02 4.847944946076609279e-02
4.501440460947503084e+02 2.910171827979671916e-02 1.511042708781088970e-02 4.795031271617956892e-02
4.601472471190780880e+02 2.685485025564326653e-02 1.392088245473851148e-02 4.286404980394751402e-02
4.701504481434058675e+02 2.727670544016822310e-02 1.356479334942352691e-02 4.403365891077650612e-02
4.801536491677336471e+02 2.915415247637627091e-02 1.489920752369627496e-02 4.772305661198333188e-02
4.901568501920614835e+02 2.662629356620063725e-02 1.313220210860982333e-02 4.129800797360758113e-02
5.001600512163892631e+02 2.188044119297005013e-02 1.119260180901592884e-02 3.680396019770078297e-02
5.101632522407170427e+02 2.211368347130806059e-02 1.073077186849434421e-02 3.567305027117626676e-02
5.201664532650447654e+02 2.515630305570033115e-02 1.206604863635919213e-02 4.005922945440325983e-02
5.301696542893726019e+02 2.833454310773466864e-02 1.478188869167669679e-02 4.748102804576279784e-02
5.401728553137004383e+02 2.889513847629097965e-02 1.423857053392084231e-02 4.720869396150628727e-02
5.501760563380281610e+02 2.963681191681212523e-02 1.355075744523018093e-02 4.801572876225405906e-02
5.601792573623559974e+02 2.908980206698060650e-02 1.449778400277251973e-02 4.873500714743830148e-02
5.701824583866837202e+02 3.165548864850160210e-02 1.630708272198001449e-02 5.173997372585294879e-02
5.801856594110115566e+02 3.411026947274146265e-02 1.722968168895206223e-02 5.563664264079028893e-02
5.901888604353392793e+02 3.120472422627560555e-02 1.542311395422950489e-02 4.902568207907179176e-02
6.001920614596671157e+02 2.859042641978344623e-02 1.419241013189320201e-02 4.550151711220491724e-02
6.101952624839948385e+02 2.546046948555471742e-02 1.283693924680842126e-02 4.167847112049388736e-02
6.201984635083226749e+02 6.391771897016308712e-02 3.344413080557933488e-02 1.021805612488389525e-01
6.302016645326503976e+02 2.656111098758573430e-01 1.348919672700794326e-01 4.103310117019777215e-01
6.402048655569782341e+02 2.638885174909422204e-01 1.387872416165944756e-01 4.226619408098311603e-01
6.502080665813060705e+02 1.532572073700800008e-01 7.812038500453478973e-02 2.465706418504664266e-01
6.602112676056337932e+02 1.474329219243766254e-01 6.826819268918309092e-02 2.425384778202685776e-01
6.702144686299616296e+02 1.051754347185270555e-01 5.073945354553850706e-02 1.680441022175393762e-01
6.802176696542893524e+02 9.292007242874415762e-02 4.882061231437341553e-02 1.539002150727890872e-01
6.902208706786171888e+02 9.142342649872821359e-02 4.601844534697244193e-02 1.459746717857005327e-01
7.002240717029449115e+02 6.382191705740315746e-02 3.330829724589805252e-02 1.057541513189229343e-01
7.102272727272727479e+02 4.453255946656907438e-02 2.205899784103926980e-02 7.021896921737942610e-02
7.202304737516004707e+02 6.854662951832260487e-02 3.388404740726232156e-02 1.113934069071827598e-01
7.302336747759283071e+02 5.363087038133233092e-02 2.693709975995906697e-02 8.647848116248647854e-02
7.402368758002560298e+02 2.177410428482142932e-02 1.044927220193125547e-02 3.753350211703879169e-02
7.502400768245838663e+02 2.248414337467838017e-02 1.178361142483016523e-02 3.770908622113974124e-02
7.602432778489117027e+02 2.539304150921407877e-02 1.265571836915117300e-02 4.306389841834877552e-02
7.702464788732394254e+02 3.058751771069499747e-02 1.552413352138750161e-02 4.999611620871017431e-02
7.802496798975672618e+02 5.128454689717438370e-02 2.393982318916602903e-02 8.190803832373715065e-02
7.902528809218949846e+02 1.396078555411924271e-01 7.067941004247654813e-02 2.326811256502702985e-01
8.002560819462228210e+02 2.614432575520529989e-01 1.363133399024085424e-01 4.203749574858535731e-01
8.102592829705505437e+02 1.906738013078348171e-01 9.318166826521893931e-02 3.000303827596410011e-01
8.202624839948783801e+02 9.884226041208295233e-02 5.020848544256872881e-02 1.608704613784446291e-01
8.302656850192061029e+02 1.653528439676794914e-01 8.794600462137777686e-02 2.524780820690228911e-01
8.402688860435339393e+02 4.188425776209813711e-01 2.666191202819372941e-01 5.523667336212313428e-01
8.502720870678616620e+02 3.195971794660542042e-01 1.726846797446130455e-01 4.966734744641511656e-01
8.602752880921894985e+02 2.124226851474461109e-01 1.098744235417779269e-01 3.541746196432105642e-01
8.702784891165173349e+02 1.739242648348141851e-01 8.822588499588233935e-02 2.713652517083731119e-01
8.802816901408450576e+02 1.089110519832338780e-01 5.278609508704939363e-02 1.774881194399118844e-01
8.902848911651728940e+02 7.203681871821199234e-02 3.653730409136243806e-02 1.139813936339936495e-01
9.002880921895006168e+02 5.946865923144276783e-02 3.128266611956163207e-02 9.622403042542587714e-02
9.102912932138284532e+02 8.694155114859497546e-02 4.194998777150768521e-02 1.413444699530391757e-01
9.202944942381561759e+02 8.188918027793982979e-02 4.194533112530779428e-02 1.382068146168397849e-01
9.302976952624840123e+02 5.990337418936257652e-02 2.953573172946355810e-02 9.640500188942469073e-02
9.403008962868117351e+02 5.162156945134106084e-02 2.656204107669674769e-02 8.434692055824309642e-02
9.503040973111395715e+02 4.769704720769528394e-02 2.286277643162261050e-02 7.718347085405130592e-02
9.603072983354672942e+02 4.529271903888976852e-02 2.159150797740097549e-02 7.332218326317901935e-02
9.703104993597951307e+02 5.101520465800690740e-02 2.579845347467606478e-02 8.379115485350635550e-02
9.803137003841229671e+02 6.849001784913176516e-02 3.475087186882223206e-02 1.063614978678068118e-01
9.903169014084506898e+02 9.158106199031126882e-02 4.441363825877718552e-02 1.469121839282869768e-01
1.000320102432778526e+03 1.346977719682626584e-01 6.668871061708439574e-02 2.215174019457830934e-01
1.010323303457106249e+03 1.211821417421148628e-01 6.083998382763960294e-02 2.050075529940785790e-01
1.020326504481434085e+03 1.422364716172066779e-01 6.965576324255455531e-02 2.307663178907549961e-01
1.030329705505761922e+03 2.023643695194720371e-01 9.708048921764569905e-02 3.259963182379466695e-01
1.040332906530089531e+03 2.108717271712216290e-01 1.026971187263207158e-01 3.443628616863603775e-01
1.050336107554417367e+03 1.750135627296926510e-01 9.083755600005663511e-02 2.946669039808422208e-01
1.060339308578745204e+03 1.020862171126000195e-01 5.276923887169338023e-02 1.657438199104070975e-01
1.070342509603073040e+03 5.950901187003514864e-02 3.005097258799444351e-02 9.568872316056123428e-02
1.080345710627400877e+03 4.790060500569180701e-02 2.314441796643988691e-02 8.052651869303793786e-02
1.090348911651728486e+03 4.876746928475447773e-02 2.501101577400101361e-02 7.789858346244475651e-02
1.100352112676056322e+03 4.772269469617345522e-02 2.476118592592500833e-02 7.660117303732295879e-02
1.110355313700384158e+03 4.668673084513919741e-02 2.263693292916674898e-02 7.474429815822908330e-02
1.120358514724711995e+03 4.903982010370649958e-02 2.447134840477100878e-02 8.211034573240347245e-02
1.130361715749039604e+03 5.017941006195411613e-02 2.490304205472404844e-02 8.410355844752731569e-02
1.140364916773367440e+03 7.291160955446795988e-02 3.691841243732297412e-02 1.145841967175066783e-01
1.150368117797695277e+03 1.010535393938640780e-01 4.964305383318525638e-02 1.718603838887854951e-01
1.160371318822023113e+03 1.449490023399865601e-01 7.199720128443889977e-02 2.373080868223372275e-01
1.170374519846350722e+03 1.310701935216000147e-01 6.203442102913930140e-02 2.134721949635096649e-01
1.180377720870678559e+03 8.959296765117671923e-02 4.490827964557391611e-02 1.444709525031593889e-01
1.190380921895006395e+03 5.812885558475972686e-02 2.843398077037096600e-02 9.823624400926128653e-02
1.200384122919334231e+03 4.703006498258938128e-02 2.280907580937606774e-02 7.726415314851176053e-02
1.210387323943662068e+03 4.167671088836435306e-02 2.162908956122214579e-02 6.763380822742018350e-02
1.220390524967989677e+03 4.144897259233077530e-02 2.140079792716709922e-02 6.857668564951056867e-02
1.230393725992317513e+03 4.259716018607218047e-02 1.909240463524584930e-02 6.947971240171069152e-02
1.240396927016645350e+03 4.195841990017296075e-02 2.177598355333550464e-02 6.849237987645129255e-02
1.250400128040973186e+03 5.183852536636384539e-02 2.676857734668709743e-02 8.459388702646503111e-02
1.260403329065300795e+03 5.067221734361091606e-02 2.525898996163418453e-02 8.222327404997741007e-02
1.270406530089628632e+03 5.952968703560310854e-02 2.908704393597565802e-02 9.536178122166875937e-02
1.280409731113956468e+03 6.914312325337484966e-02 3.529631370214297154e-02 1.144334121357664519e-01
1.290412932138284305e+03 7.092296223598103244e-02 3.533586886109200270e-02 1.159114479411336440e-01
1.300416133162612141e+03 6.930760018387827071e-02 3.578446765973138100e-02 1.152016645600279915e-01
1.310419334186939750e+03 7.264481794819543925e-02 3.914795647409127083e-02 1.214535749625931388e-01
1.320422535211267586e+03 6.190534041086274974e-02 3.086793935153763282e-02 9.880575458197093930e-02
1.330425736235595423e+03 4.578157872342142332e-02 2.316482588960814756e-02 7.538210424544794508e-02
1.340428937259923259e+03 3.857351277920541971e-02 1.883686776395095824e-02 6.126550924822533883e-02
1.350432138284250868e+03 3.606797591265881175e-02 1.701205554195273084e-02 5.814312336397409187e-02
1.360435339308578705e+03 3.985398776014461436e-02 1.930951467082955841e-02 6.590113102091427200e-02
1.370438540332906541e+03 4.599707652092129700e-02 2.141920955916673530e-02 7.375778923918625829e-02
1.380441741357234378e+03 4.697312011845735519e-02 2.355513193131237443e-02 7.992648232157566202e-02
1.390444942381562214e+03 4.656546091814917077e-02 2.270655212356278985e-02 7.384715742039149600e-02
1.400448143405889823e+03 4.441885842662199324e-02 2.113754354663785473e-02 7.196717178770051238e-02
1.410451344430217659e+03 4.178070265561637658e-02 2.030307044210719405e-02 6.625474729801793250e-02
1.420454545454545496e+03 3.986994595034843575e-02 1.942845663881891463e-02 6.453556280748574958e-02
1.430457746478873332e+03 4.064005740285681761e-02 1.999810837741622035e-02 6.441939583638990607e-02
1.440460947503200941e+03 4.264970698514238684e-02 2.189441730072386183e-02 6.802649609275189524e-02
1.450464148527528778e+03 4.525514273225944573e-02 2.182463696632604491e-02 7.389277784596397225e-02
1.460467349551856614e+03 5.332570855303355589e-02 2.778152871340062308e-02 8.741435445783599101e-02
1.470470550576184451e+03 6.263559971057020004e-02 3.152960329894258229e-02 1.031045076743841438e-01
1.480473751600512060e+03 6.946341421306632957e-02 3.581896122405128779e-02 1.134789333517372684e-01
1.490476952624839896e+03 7.309692724860336610e-02 3.792791883065019243e-02 1.195039928608668672e-01
1.500480153649167733e+03 6.872443848703271851e-02 3.305049678290516296e-02 1.184576830832608785e-01
1.510483354673495569e+03 7.069735422341891229e-02 3.446713398598828804e-02 1.131764680196790662e-01
1.520486555697823405e+03 6.766878521421393344e-02 3.349418009726994744e-02 1.089389792341731861e-01
1.530489756722151014e+03 6.575304549038192559e-02 3.115232631079885989e-02 1.092197739044217658e-01
1.540492957746478851e+03 6.239012151142522833e-02 3.028493526280546036e-02 1.026857918795336111e-01
1.550496158770806687e+03 6.037523571168164349e-02 2.989613841322726062e-02 9.694006903009758092e-02
1.560499359795134524e+03 5.780583355188664840e-02 2.890427248146297187e-02 9.215543820246974160e-02
1.570502560819462133e+03 5.050711202844144349e-02 2.412460578631466304e-02 8.253645535317988280e-02
1.580505761843789969e+03 4.212080498596092182e-02 2.116859551152678112e-02 6.772400320952670638e-02
1.590508962868117806e+03 3.467158929959895247e-02 1.752906997013064030e-02 5.632307242560612159e-02
1.600512163892445642e+03 3.067961041197924191e-02 1.509247529422825043e-02 4.922449583787698313e-02
1.610515364916773478e+03 2.962336101025676502e-02 1.437787655306323707e-02 4.875833649698403660e-02
1.620518565941101087e+03 2.763191774519153238e-02 1.413955470289963295e-02 4.482315056239391526e-02
1.630521766965428924e+03 2.508942389883143248e-02 1.253633999785190058e-02 4.163315088767729349e-02
1.640524967989756760e+03 2.382203336985602368e-02 1.248727444568038629e-02 3.826741816250416733e-02
1.650528169014084597e+03 2.287346074945731736e-02 1.124399638847063156e-02 3.801967678933218520e-02
1.660531370038412206e+03 2.342756042768517205e-02 1.147986461706595497e-02 3.669874906890321919e-02
1.670534571062740042e+03 2.326293200457182214e-02 1.109055578712320710e-02 3.872741345209117919e-02
1.680537772087067879e+03 2.363969612497870271e-02 1.100876725434501817e-02 3.866745891688744274e-02
1.690540973111395715e+03 2.261268228315641005e-02 1.164055215731273248e-02 3.882381329477396087e-02
1.700544174135723324e+03 2.241119596789221263e-02 1.118719259226047882e-02 3.691515640754308020e-02
1.710547375160051160e+03 2.310790944613506231e-02 1.169548224709305272e-02 3.730012995497460765e-02
1.720550576184378997e+03 2.289539982696148918e-02 1.153255943800754642e-02 3.790810218803485759e-02
1.730553777208706833e+03 2.160581158133087140e-02 1.038790202545356207e-02 3.542590790428634673e-02
1.740556978233034670e+03 2.150742732846826905e-02 1.107506526001359251e-02 3.403563559312559189e-02
1.750560179257362279e+03 2.146165910844378272e-02 1.018956821498150263e-02 3.421528614689428593e-02
1.760563380281690115e+03 2.178111121755263446e-02 1.044078352109347602e-02 3.384546399237387676e-02
1.770566581306017952e+03 2.083422216433227642e-02 1.031248210118436946e-02 3.367219262741113356e-02
1.780569782330345788e+03 2.060272986817485510e-02 1.023670081983087121e-02 3.412406864703561998e-02
1.790572983354673397e+03 2.094655918902825140e-02 1.044567249441636335e-02 3.479902620796614110e-02
1.800576184379001234e+03 2.246775416129849490e-02 1.099950419119118811e-02 3.649507359576726478e-02
1.810579385403329070e+03 2.177647015540639525e-02 1.096596014753540953e-02 3.693280090531364523e-02
1.820582586427656906e+03 2.187702690042087408e-02 1.045237933829573120e-02 3.574094689226001847e-02
1.830585787451984743e+03 2.165403673405552273e-02 1.124465726996012882e-02 3.631450028301060756e-02
1.840588988476312352e+03 2.131885144401420365e-02 1.031977413772632371e-02 3.529202269801441638e-02
1.850592189500640188e+03 2.182595001263279086e-02 1.061877774238728644e-02 3.627727246882041928e-02
1.860595390524968025e+03 2.528422032433166530e-02 1.280017603610279428e-02 4.009246141050332168e-02
1.870598591549295861e+03 2.359655992717679326e-02 1.225512501883167446e-02 3.827681708414055334e-02
1.880601792573623470e+03 2.335399502707781808e-02 1.183481953628346718e-02 3.836985330712589654e-02
1.890604993597951307e+03 2.371411527600151073e-02 1.179340302380946226e-02 3.928505289270419615e-02
1.900608194622279143e+03 2.366783550456633481e-02 1.119648056669438063e-02 3.853396960525521525e-02
1.910611395646606979e+03 2.286031695410438436e-02 1.202047050399360911e-02 3.710067089708037752e-02
1.920614596670934588e+03 2.267624117043029811e-02 1.089131449422487373e-02 3.619969739485991156e-02
1.930617797695262425e+03 2.310700843858760900e-02 1.152360450406500654e-02 3.785163919151128542e-02
1.940620998719590261e+03 2.486014296610326163e-02 1.232115691945726184e-02 3.889916776373510826e-02
1.950624199743918098e+03 2.196281534974614189e-02 1.104745999042330146e-02 3.540744060462956005e-02
1.960627400768245934e+03 2.134022635757160807e-02 1.070342716861229573e-02 3.410547983909038849e-02
1.970630601792573543e+03 2.037206424715075348e-02 1.052812179429882949e-02 3.384210652663201951e-02
1.980633802816901380e+03 2.118933281983665512e-02 1.049366336640181023e-02 3.433682913669411363e-02
1.990637003841229216e+03 2.075543196926540879e-02 1.026419293384278966e-02 3.460154352751158846e-02
2.000640204865557052e+03 2.114361571830042363e-02 1.049028570853894303e-02 3.412554999669087374e-02
2.010643405889884662e+03 2.121702563188179042e-02 9.918325900911892368e-03 3.453459464149456759e-02
2.020646606914212498e+03 2.100777753024352448e-02 1.101516177192850970e-02 3.456255466327597808e-02
2.030649807938540334e+03 2.122471274993021836e-02 1.009265284269321092e-02 3.384742504067516505e-02
2.040653008962868171e+03 2.133586781608206098e-02 1.083917047478418980e-02 3.549926174255162853e-02
2.050656209987195780e+03 2.168850716627571118e-02 1.063839234975199818e-02 3.586151239369311100e-02
2.060659411011523844e+03 2.158388486746328980e-02 1.075959692262280082e-02 3.635044895981839191e-02
2.070662612035851453e+03 2.154920860778397965e-02 1.079993600746313731e-02 3.550156908001746853e-02
2.080665813060179062e+03 2.164007649011262177e-02 1.048516678749649052e-02 3.466564543791752356e-02
2.090669014084507126e+03 2.174297790497975794e-02 1.043065884281088249e-02 3.566653886230033293e-02
2.100672215108834735e+03 2.282403182926793367e-02 1.156990893901182343e-02 3.767475956931581188e-02
2.110675416133162798e+03 2.317688942939540725e-02 1.089274475214971165e-02 3.841427106329154545e-02
2.120678617157490407e+03 2.427915950910944018e-02 1.187000470129080318e-02 4.001068195651077963e-02
2.130681818181818016e+03 2.449369306322147014e-02 1.321093342954249121e-02 4.038976614746286886e-02
2.140685019206146080e+03 2.388115712095743165e-02 1.257598206273486015e-02 4.066265535496203787e-02
2.150688220230473689e+03 2.325220966466459357e-02 1.236225821504284041e-02 3.809853053542312795e-02
2.160691421254801753e+03 2.175959354329015660e-02 1.098718756360783123e-02 3.599391834571769033e-02
2.170694622279129362e+03 2.233526178598265952e-02 1.139267611649358476e-02 3.672214929523343746e-02
2.180697823303456971e+03 2.183545941953239644e-02 1.098864194963552858e-02 3.495688572155668944e-02
2.190701024327785035e+03 2.101030848062072562e-02 1.013300577554961980e-02 3.470079104039154594e-02
2.200704225352112644e+03 2.162942996197010984e-02 1.132440203546051030e-02 3.447981275924203587e-02
2.210707426376440253e+03 2.098179067272263124e-02 1.083847224149143106e-02 3.489597806597101448e-02
2.220710627400768317e+03 2.193587389557219436e-02 1.133123796223746947e-02 3.577173365958353363e-02
2.230713828425095926e+03 2.242768374820871408e-02 1.167296562320250912e-02 3.573733427418956943e-02
2.240717029449423990e+03 2.225906096150669783e-02 1.136623470315438304e-02 3.648614583967421665e-02
2.250720230473751599e+03 2.216775800179555597e-02 1.082954677013237520e-02 3.526150842686221615e-02
2.260723431498079208e+03 2.150576065756882108e-02 1.062083357817899219e-02 3.455145888092337608e-02
2.270726632522407272e+03 2.127601035368218221e-02 1.069367887336290270e-02 3.449958971648289796e-02
2.280729833546734881e+03 2.142184804986776298e-02 1.024771305000355716e-02 3.531018427770682422e-02
2.290733034571062944e+03 2.148644985013845043e-02 1.100828001895310000e-02 3.580614948529865088e-02
2.300736235595390553e+03 2.244018899687371185e-02 1.094965172983797946e-02 3.654662861653180245e-02
2.310739436619718163e+03 2.211072334829694563e-02 1.121120697621214371e-02 3.674085284449533917e-02
2.320742637644046226e+03 2.291658821292823917e-02 1.096983609122312124e-02 3.627244444508394283e-02
2.330745838668373835e+03 2.281974718481784292e-02 1.073273793930080121e-02 3.821072662206059095e-02
2.340749039692701444e+03 2.432963519555241330e-02 1.230482013731460690e-02 4.026183825302970948e-02
2.350752240717029508e+03 2.503419145401478835e-02 1.193241206200633571e-02 4.203396757095103492e-02
2.360755441741357117e+03 2.351369661512043435e-02 1.117400901797449726e-02 3.940766256570177317e-02
2.370758642765685181e+03 2.383203453284691090e-02 1.194464535771889123e-02 3.891051185989839734e-02
2.380761843790012790e+03 2.360440832792980864e-02 1.125674151268529939e-02 3.834115456303859720e-02
2.390765044814340399e+03 2.130755373622987905e-02 1.095703828838760253e-02 3.574695337688305052e-02
2.400768245838668463e+03 2.339243186885519785e-02 1.172933608322722018e-02 3.838343361172218138e-02
2.410771446862996072e+03 2.309561129051986364e-02 1.240261577896882746e-02 3.784826750392875083e-02
2.420774647887324136e+03 2.292963180317702035e-02 1.162939363483014854e-02 3.743115766736140881e-02
2.430777848911651745e+03 2.374229016557183325e-02 1.168640479132750619e-02 3.751787757518144223e-02
2.440781049935979354e+03 2.231505038342336544e-02 1.113027697668487505e-02 3.627272126724652435e-02
2.450784250960307418e+03 2.138192165508340931e-02 1.063484445190761643e-02 3.695874142319673789e-02
2.460787451984635027e+03 2.249209841707880755e-02 1.131716589780872549e-02 3.682476031327481386e-02
2.470790653008963091e+03 2.188800471287294380e-02 1.099142534832177505e-02 3.531274295610956765e-02
2.480793854033290700e+03 2.226013549658527324e-02 1.090763335423776924e-02 3.651367300859768850e-02
2.490797055057618309e+03 2.220726882467123284e-02 1.024985191444209923e-02 3.617426972467263635e-02
2.500800256081946372e+03 2.278068231463295165e-02 1.100862242480993639e-02 3.686618432174866566e-02
2.510803457106273981e+03 2.201377205695003933e-02 1.079150568225483407e-02 3.677675621264156480e-02
2.520806658130601591e+03 2.355881362568648663e-02 1.142395252230582817e-02 3.691606615010456505e-02
2.530809859154929654e+03 2.357777773787536960e-02 1.226719961515758059e-02 3.829450416966342918e-02
2.540813060179257263e+03 2.360416211713256204e-02 1.187398573051578511e-02 3.897368996445397388e-02
2.550816261203585327e+03 2.402922509008591570e-02 1.193987060585276379e-02 3.911208988228172950e-02
2.560819462227912936e+03 2.434817853263913923e-02 1.257800863111057689e-02 3.914154672070244145e-02
2.570822663252240545e+03 2.462964990183854133e-02 1.219961766937725095e-02 4.046514049517732636e-02
2.580825864276568609e+03 2.504358350928440405e-02 1.249275021833902953e-02 4.095160419402032320e-02
2.590829065300896218e+03 2.530421655250937596e-02 1.227241264493163751e-02 4.190523382000029690e-02
2.600832266325224282e+03 2.738892393537608119e-02 1.383652808639083097e-02 4.335574107067265842e-02
2.610835467349551891e+03 2.654288152720208141e-02 1.351184986182674477e-02 4.441889287632996147e-02
2.620838668373879500e+03 2.670104735450565953e-02 1.374067886097733032e-02 4.324956238354995403e-02
2.630841869398207564e+03 2.942974411087131287e-02 1.407639504311267685e-02 4.718265308138832465e-02
2.640845070422535173e+03 3.287990080401691217e-02 1.578579025522798898e-02 5.482360636676915366e-02
2.650848271446862782e+03 3.277863483818524437e-02 1.654934479907404360e-02 5.365768957040497472e-02
2.660851472471190846e+03 3.410427249884819684e-02 1.693142252503556863e-02 5.383034576563618806e-02
2.670854673495518455e+03 3.206700240986820605e-02 1.629454541283564817e-02 5.294707256420459057e-02
2.680857874519846519e+03 3.060239343612271637e-02 1.552106067509443320e-02 5.041144968075234739e-02
2.690861075544174128e+03 2.959034742097630885e-02 1.517790865725841647e-02 4.893859615876867269e-02
2.700864276568501737e+03 2.995047356777848224e-02 1.556704472194770164e-02 4.940366535488676519e-02
2.710867477592829800e+03 2.977772039947846131e-02 1.478386022949259963e-02 4.856802492812972716e-02
2.720870678617157409e+03 2.897172853110098825e-02 1.483717471321769482e-02 4.819158254320527607e-02
2.730873879641485473e+03 2.740653973340733199e-02 1.367650434550454590e-02 4.469235984340690082e-02
2.740877080665813082e+03 2.587901416045380529e-02 1.372539933563692895e-02 4.333174320271954150e-02
2.750880281690140691e+03 2.646151050089002449e-02 1.241282451621703725e-02 4.224336961957719100e-02
2.760883482714468755e+03 2.494807517935566585e-02 1.247450136213582722e-02 4.129355605287584469e-02
2.770886683738796364e+03 2.478137413899243052e-02 1.170768994552342894e-02 4.188419364411132689e-02
2.780889884763124428e+03 2.504674771650678908e-02 1.226213259430323013e-02 4.077547391767165352e-02
2.790893085787452037e+03 2.491097554312414128e-02 1.327590519103789141e-02 3.990412012832184052e-02
2.800896286811779646e+03 2.477845109250590566e-02 1.216549930792964335e-02 4.073758325655786605e-02
2.810899487836107710e+03 2.463991928989237717e-02 1.233839933108234546e-02 4.046792996288322425e-02
2.820902688860435319e+03 2.461469875288014794e-02 1.258667255801132825e-02 4.079699362918969008e-02
2.830905889884762928e+03 2.350359126052041156e-02 1.177905408515411874e-02 3.852651143652193605e-02
2.840909090909090992e+03 2.245184945255212366e-02 1.116940914302043397e-02 3.793398459627873864e-02
2.850912291933418601e+03 2.261827869603883281e-02 1.081041682505912496e-02 3.844958085561926697e-02
2.860915492957746665e+03 2.299240552625609474e-02 1.157819269450324068e-02 3.820656310436558456e-02
2.870918693982074274e+03 2.262083907615393061e-02 1.176704120954338503e-02 3.657209181879529647e-02
2.880921895006401883e+03 2.365366585279658415e-02 1.152694317686940237e-02 3.840369242136005418e-02
2.890925096030729947e+03 2.385279941761930811e-02 1.246338283476321890e-02 3.814090226493511288e-02
2.900928297055057556e+03 2.767076126044408502e-02 1.448597151191323429e-02 4.505275383659743810e-02
2.910931498079385619e+03 2.913834233218925637e-02 1.465346618548839068e-02 4.694489118141007694e-02
2.920934699103713228e+03 2.399961779259897343e-02 1.225015343041615384e-02 3.854811062948263617e-02
2.930937900128040837e+03 2.248445661080188465e-02 1.110084010371685526e-02 3.814916690015059814e-02
2.940941101152368901e+03 2.381008392779589491e-02 1.149865749495252235e-02 3.866859763000418670e-02
2.950944302176696510e+03 2.352926371800625333e-02 1.121528074936018436e-02 3.868713010026200716e-02
2.960947503201024119e+03 2.426251221545544512e-02 1.204755207743522620e-02 3.834843245222561980e-02
2.970950704225352183e+03 2.365572688333217322e-02 1.214623615354343440e-02 4.008212495958184823e-02
2.980953905249679792e+03 2.323875563883863807e-02 1.097804830106533826e-02 3.712498623307691759e-02
2.990957106274007856e+03 2.298744274929494930e-02 1.130843347392678465e-02 3.734260565107028890e-02
3.000960307298335465e+03 2.381350328564812643e-02 1.226665896787397861e-02 3.765472200493938382e-02
3.010963508322663074e+03 2.329076953111678880e-02 1.152902005061309625e-02 3.810638590566940015e-02
3.020966709346991138e+03 2.342654626747981902e-02 1.138717031874417196e-02 3.880437823791535457e-02
3.030969910371318747e+03 2.460060739100028773e-02 1.278195304468433997e-02 3.910398568847266165e-02
3.040973111395646811e+03 2.336110226736376125e-02 1.242393193210220015e-02 3.937564551652929234e-02
3.050976312419974420e+03 2.469335128902869561e-02 1.297532934578472970e-02 3.931666709788377012e-02
3.060979513444302029e+03 2.382018382255084860e-02 1.158469613625085111e-02 3.818458506609007097e-02
3.070982714468630093e+03 2.305007090767432695e-02 1.126245723353974312e-02 3.711313185427353445e-02
3.080985915492957702e+03 2.428610564836149871e-02 1.230832504524571012e-02 3.825700757481518416e-02
3.090989116517285311e+03 2.377827523035606905e-02 1.204246253000546864e-02 3.900219927712837015e-02
3.100992317541613374e+03 2.348567794475788645e-02 1.139336453318069362e-02 3.883888543527771325e-02
3.110995518565940984e+03 2.463939571263150732e-02 1.153577709119784668e-02 3.981910636064916326e-02
3.120998719590269047e+03 2.392431682066551921e-02 1.310287526551322246e-02 3.903262704945293510e-02
3.131001920614596656e+03 2.364328496683292674e-02 1.230002857846195126e-02 3.854347381493088837e-02
3.141005121638924265e+03 2.416303603801258498e-02 1.200875066544263882e-02 3.829698826851865578e-02
3.151008322663252329e+03 2.415806794045678371e-02 1.231984156102963225e-02 3.917754219017327566e-02
3.161011523687579938e+03 2.392393574442417889e-02 1.235119379502975373e-02 3.880189301970377036e-02
3.171014724711908002e+03 2.400593535781483587e-02 1.190178961412620244e-02 3.805404013788479811e-02
3.181017925736235611e+03 2.461927316267057200e-02 1.242455625861211242e-02 4.054486686209428370e-02
3.191021126760563220e+03 2.537154277070765088e-02 1.286112348144980225e-02 4.024749934826653969e-02
3.201024327784891284e+03 2.486648784216439687e-02 1.257882809152049454e-02 4.035365042800683616e-02
3.211027528809218893e+03 2.437991646464201384e-02 1.176388495996256826e-02 4.056859759218995470e-02
3.221030729833546957e+03 2.498541189477357025e-02 1.237560245624073213e-02 4.087439147489116409e-02
3.231033930857874566e+03 2.561257136934754972e-02 1.223293928577230683e-02 3.997693438567979235e-02
3.241037131882202175e+03 2.528859041959270401e-02 1.225822693335491993e-02 4.146732692573461970e-02
3.251040332906530239e+03 2.564349922418393199e-02 1.258507672412487177e-02 4.275806248986853408e-02
3.261043533930857848e+03 2.802011731546435319e-02 1.395564325660857488e-02 4.450970239944304629e-02
3.271046734955185457e+03 2.786454548267426265e-02 1.396330789232911283e-02 4.569552873847774338e-02
3.281049935979513521e+03 2.851900806505072369e-02 1.511289331984400942e-02 4.652695994173604993e-02
3.291053137003841130e+03 3.007273283473535855e-02 1.506893740531051358e-02 4.969979162398537736e-02
3.301056338028169193e+03 3.219528546776995875e-02 1.581929163432788110e-02 5.337603087704423377e-02
3.311059539052496802e+03 3.618905211649336290e-02 1.834210076810458001e-02 6.055716571564045969e-02
3.321062740076824412e+03 4.314086977028528530e-02 2.053016057377130346e-02 7.100220797854575605e-02
3.331065941101152475e+03 4.396833497854555489e-02 2.213100964426615441e-02 7.286032268868029849e-02
3.341069142125480084e+03 4.077684070862137855e-02 2.110990204969890455e-02 6.740888162394043093e-02
3.351072343149808148e+03 3.785846312995046897e-02 1.812838633936463342e-02 5.967644531932015523e-02
3.361075544174135757e+03 3.254482352684096719e-02 1.643490073321814821e-02 5.189109230004428086e-02
3.371078745198463366e+03 3.121873678376121258e-02 1.593602830920825414e-02 4.907681558421805867e-02
3.381081946222791430e+03 2.991388506569640782e-02 1.507077020041890959e-02 4.851419724537640865e-02
3.391085147247119039e+03 2.920404336512537682e-02 1.452628852771686505e-02 4.656104587134318740e-02
3.401088348271446648e+03 2.920152770908643683e-02 1.419729050588049504e-02 4.492143547477086413e-02
3.411091549295774712e+03 2.740521875922311695e-02 1.385659397203501536e-02 4.733549159935729334e-02
3.421094750320102321e+03 2.794197797908609671e-02 1.474754558774389948e-02 4.465552063559737744e-02
3.431097951344430385e+03 2.726511306073003266e-02 1.341563498535453848e-02 4.374092803416038122e-02
3.441101152368757994e+03 2.649806492887891302e-02 1.385129930292571150e-02 4.288620767776161330e-02
3.451104353393085603e+03 2.634164056619203373e-02 1.399557691143357707e-02 4.310704427693991952e-02
3.461107554417413667e+03 2.633848795241072391e-02 1.314316565012996381e-02 4.279171092513441021e-02
3.471110755441741276e+03 2.672594144039173655e-02 1.326505964412545008e-02 4.368613537289278009e-02
3.481113956466069340e+03 2.718400148464846997e-02 1.408180738577944138e-02 4.320156018991058722e-02
3.491117157490396949e+03 2.552019747474816233e-02 1.234271786977089724e-02 4.132740541462757988e-02
3.501120358514724558e+03 2.529399564603197412e-02 1.272453717720171962e-02 4.201781125115497395e-02
3.511123559539052621e+03 2.584396948883838085e-02 1.254632302176162534e-02 4.293071525932623533e-02
3.521126760563380230e+03 2.759877688865877352e-02 1.342464589662920732e-02 4.630177165021896746e-02
3.531129961587708294e+03 3.087744086867714663e-02 1.547244075788404075e-02 5.198947024567545511e-02
3.541133162612035903e+03 2.942146777410844030e-02 1.458297089698280813e-02 4.893519108189073319e-02
3.551136363636363512e+03 2.872367011600062900e-02 1.407165332567288617e-02 4.747870734539410414e-02
3.561139564660691576e+03 2.922481835332444572e-02 1.455465516761504478e-02 5.018022442786370524e-02
3.571142765685019185e+03 2.915166406413554484e-02 1.447648815841194592e-02 5.236669396323136855e-02
3.581145966709346794e+03 3.317033215291636389e-02 1.593259716716352928e-02 6.073224446491496537e-02
3.591149167733674858e+03 3.790106908630255095e-02 1.984300212449917333e-02 6.460140732601461766e-02
3.601152368758002467e+03 3.635237549534858781e-02 1.788718432580771803e-02 6.488870730423794420e-02
3.611155569782330531e+03 3.760403734995452357e-02 1.695604617518080975e-02 7.177666053519105027e-02
3.621158770806658140e+03 4.074591278173179260e-02 1.864386168299123417e-02 7.728148450359552390e-02
3.631161971830985749e+03 4.158585241070864719e-02 2.049647159779548200e-02 7.883832037447531527e-02
3.641165172855313813e+03 4.198602597665569702e-02 2.128962057706499517e-02 7.801919082029039332e-02
3.651168373879641422e+03 4.411304599876945259e-02 2.104251648168094235e-02 7.909048147699868081e-02
3.661171574903969486e+03 4.885241071191744749e-02 2.307099204015264013e-02 8.396664932640834911e-02
3.671174775928297095e+03 4.413580987044844750e-02 2.090548913510402798e-02 8.100664098285761949e-02
3.681177976952624704e+03 4.091188677480796232e-02 1.852624672965549196e-02 7.563757025273368240e-02
3.691181177976952767e+03 3.846953192798595322e-02 1.914341505841178626e-02 7.223580716816420388e-02
3.701184379001280377e+03 3.841160620381858792e-02 1.873025686903274575e-02 7.053641343265333596e-02
3.711187580025607986e+03 2.239887049989476298e-01 1.862446981577720873e-01 2.631576705825658391e-01
3.721190781049936049e+03 5.800390901105429986e-01 5.505029396003006115e-01 6.094241854613551279e-01
3.731193982074263658e+03 3.758171314240332239e-01 3.360069128601492205e-01 4.086753076833731790e-01
3.741197183098591722e+03 3.655473478706713214e-02 1.789182555956365939e-02 6.238114905001587718e-02
3.751200384122919331e+03 2.908065715134803761e-02 1.469766805929661156e-02 4.860637444637969096e-02
3.761203585147246940e+03 2.688675342782841440e-02 1.274053921608968819e-02 4.492026139843589144e-02
3.771206786171575004e+03 2.735259766859228850e-02 1.289992840326686929e-02 4.639339645116396377e-02
3.781209987195902613e+03 3.324556154096595245e-02 1.654555788258066026e-02 5.333104275506707348e-02
3.791213188220230677e+03 2.822710018583776334e-02 1.396322027907936740e-02 4.787960488774912343e-02
3.801216389244558286e+03 2.645599652657329090e-02 1.324790431725929134e-02 4.371172568744793180e-02
3.811219590268885895e+03 2.606996445880607402e-02 1.273227307685656506e-02 4.260572363009726415e-02
3.821222791293213959e+03 2.527359112334906857e-02 1.305128914497951514e-02 4.222486795850097924e-02
3.831225992317541568e+03 2.555640062264566068e-02 1.290945700675003721e-02 4.225200924924873980e-02
3.841229193341869177e+03 2.675824233122986451e-02 1.287996808649768260e-02 4.332794681753339427e-02
3.851232394366197241e+03 2.643808269765851246e-02 1.346568194205521006e-02 4.395997022698788781e-02
3.861235595390524850e+03 2.706712724611576304e-02 1.287798784758924057e-02 4.202354160635754510e-02
3.871238796414852914e+03 2.607726799951844490e-02 1.339866885391458387e-02 4.425008921222370328e-02
3.881241997439180523e+03 2.717447470950441757e-02 1.343381720011498949e-02 4.429973692512335220e-02
3.891245198463508132e+03 2.794890911530412830e-02 1.383348495898473370e-02 4.435116079060615751e-02
3.901248399487836195e+03 2.772175816954126210e-02 1.325650507978056759e-02 4.507754212162407015e-02
3.911251600512163805e+03 2.704149865345832973e-02 1.324652116864614808e-02 4.434423120562636100e-02
3.921254801536491868e+03 2.735692165467033810e-02 1.423724525399056549e-02 4.543995464963782732e-02
3.931258002560819477e+03 2.762987761406131976e-02 1.356001125898189177e-02 4.490618988095925607e-02
3.941261203585147086e+03 2.779695841525838679e-02 1.438863988915343138e-02 4.490166176853441909e-02
3.951264404609475150e+03 2.713644150777915626e-02 1.322181027652383385e-02 4.476463752862167023e-02
3.961267605633802759e+03 2.684509797584866062e-02 1.307049607952915846e-02 4.412657258143450750e-02
3.971270806658130823e+03 2.675121960087914127e-02 1.396278437895974098e-02 4.512177144496946207e-02
3.981274007682458432e+03 2.769137789612629436e-02 1.318740759752420368e-02 4.434699119066638079e-02
3.991277208706786041e+03 2.794295655176577339e-02 1.362243546369722169e-02 4.641646677612885907e-02
4.001280409731114105e+03 2.725355890616187535e-02 1.310554090248581410e-02 4.527347719723282676e-02
4.011283610755441714e+03 2.831022476515605846e-02 1.505501321159083243e-02 4.499352036138228733e-02
4.021286811779769323e+03 2.776410687728343013e-02 1.423469439540970931e-02 4.549637625731119128e-02
4.031290012804097387e+03 2.702965624241630144e-02 1.319875951577653694e-02 4.518445901097636191e-02
4.041293213828424996e+03 2.752417213703948692e-02 1.318003443481262187e-02 4.633790849593417277e-02
4.051296414852753060e+03 2.823169231413812097e-02 1.332258383360492536e-02 4.569663867482825353e-02
4.061299615877080669e+03 2.704412621669898681e-02 1.355430811806180615e-02 4.429310859263869971e-02
4.071302816901408278e+03 2.763944968091956722e-02 1.345417158680120746e-02 4.400270759748915739e-02
4.081306017925736342e+03 2.768747862605959106e-02 1.394411683494340901e-02 4.594688617896008909e-02
4.091309218950063951e+03 2.894090358328060830e-02 1.491320904603540311e-02 4.650520485486970418e-02
4.101312419974391560e+03 2.826919710417378356e-02 1.393040701906821284e-02 4.653692212994185035e-02
4.111315620998719169e+03 2.809620446416373832e-02 1.321264372624613923e-02 4.623720073056294955e-02
4.121318822023047687e+03 2.749705358046063142e-02 1.305710406017292387e-02 4.516991578809822355e-02
4.131322023047375296e+03 2.881008154222121365e-02 1.453431277808285398e-02 4.634297349294571461e-02
4.141325224071702905e+03 2.853274041082493398e-02 1.472919173835522851e-02 4.644190574907954006e-02
4.151328425096030514e+03 2.825819544877386860e-02 1.357362916319799183e-02 4.703252034106064627e-02
4.161331626120358123e+03 2.757962387091755438e-02 1.413930915189660562e-02 4.548825229664428538e-02
4.171334827144686642e+03 2.825113319594657960e-02 1.443724092970381789e-02 4.626233857407724415e-02
4.181338028169014251e+03 2.788512081060862818e-02 1.302016896973804544e-02 4.668798335311957065e-02
4.191341229193341860e+03 2.826610689990260994e-02 1.430941684882993704e-02 4.601383536897947490e-02
4.201344430217669469e+03 2.807732505984173940e-02 1.444521743476017382e-02 4.737791791283643000e-02
4.211347631241997078e+03 2.890117481971288954e-02 1.456423336052993685e-02 4.640064261026969478e-02
4.221350832266325597e+03 2.906552230685242530e-02 1.471716901314896499e-02 4.770657100636523096e-02
4.231354033290653206e+03 2.883506696984071763e-02 1.454835292209189467e-02 4.787091110539150318e-02
4.241357234314980815e+03 2.948345990911686865e-02 1.528586489714662405e-02 4.831341977784257835e-02
4.251360435339308424e+03 3.008339697053656267e-02 1.494123956596041421e-02 4.755404184594659578e-02
4.261363636363636033e+03 2.919590423598545162e-02 1.435410154192131617e-02 4.821870223905569408e-02
4.271366837387964551e+03 2.932234382729797389e-02 1.472380075760936630e-02 4.911992617779316339e-02
4.281370038412292161e+03 2.960581886724156925e-02 1.452126275126098404e-02 4.868452174207163474e-02
4.291373239436619770e+03 2.912790100674909899e-02 1.488243990069874727e-02 4.916162648002413149e-02
4.301376440460947379e+03 3.080048539914431380e-02 1.548527418681178158e-02 5.090268599830694712e-02
4.311379641485274988e+03 3.151059512980542571e-02 1.562935439472129887e-02 5.183106129957373853e-02
4.321382842509603506e+03 3.042339968512591808e-02 1.569041641636578777e-02 5.209045506902916511e-02
4.331386043533931115e+03 3.061895620751414054e-02 1.530667798480886063e-02 5.337902560807489261e-02
4.341389244558258724e+03 3.113545396710735644e-02 1.481329618679239936e-02 5.429493654599026192e-02
4.351392445582586333e+03 3.309116296606910701e-02 1.641610076946837735e-02 5.534944893612675498e-02
4.361395646606913942e+03 3.274802054796887435e-02 1.609549270531066348e-02 5.700965412396664933e-02
4.371398847631241551e+03 3.250950634495660546e-02 1.578163521547614259e-02 5.918389882163080373e-02
4.381402048655570070e+03 3.294616205826203514e-02 1.623088264480190140e-02 5.876054003879763871e-02
4.391405249679897679e+03 3.390053716013772395e-02 1.688400469008220078e-02 6.037823846833072911e-02
4.401408450704225288e+03 3.342763425459217841e-02 1.748714007515280583e-02 6.389889621516227358e-02
4.411411651728552897e+03 3.437761884610960467e-02 1.569258776328791988e-02 6.694053899305957289e-02
4.421414852752880506e+03 3.419526678779846729e-02 1.617815111323579746e-02 6.934303292929783202e-02
4.431418053777209025e+03 3.646843160793830640e-02 1.772522927047376004e-02 7.674797640625327655e-02
4.441421254801536634e+03 3.997688098561696934e-02 1.823372999557643093e-02 8.264009502700982168e-02
4.451424455825864243e+03 5.755993688731146640e-02 2.968442642533569362e-02 9.841446281414779895e-02
4.461427656850191852e+03 5.708634605614700680e-02 3.126081179384158915e-02 9.954875018355158200e-02
4.471430857874519461e+03 4.178168322245344457e-02 1.915023521037653720e-02 9.819487331645655737e-02
4.481434058898847979e+03 4.300027141597301261e-02 2.026004978193379075e-02 9.586860124373682013e-02
4.491437259923175588e+03 4.480005764262393747e-02 2.124376070623070628e-02 9.668073143633680588e-02
4.501440460947503198e+03 4.582855359011613755e-02 2.154063463674096499e-02 1.031851078545938660e-01
4.511443661971830807e+03 4.645388671724075963e-02 1.990438289916814443e-02 1.048696371198408334e-01
4.521446862996158416e+03 4.649472767971755266e-02 2.109277127059995538e-02 1.057622232771322224e-01
4.531450064020486934e+03 5.041352297041516023e-02 2.091411142611932297e-02 1.134823379788546943e-01
4.541453265044814543e+03 5.021849920735436262e-02 2.270610164594774952e-02 1.130633693198700995e-01
4.551456466069142152e+03 5.171087055364503859e-02 2.391112073499252616e-02 1.170564446436476586e-01
4.561459667093469761e+03 5.544288297545057337e-02 2.375842428175023446e-02 1.254075864860809131e-01
4.571462868117797370e+03 5.937401574370981122e-02 2.373253355977450810e-02 1.323801401291823387e-01
4.581466069142125889e+03 6.085880904876451308e-02 2.673715144270277441e-02 1.326869444530973385e-01
4.591469270166453498e+03 6.294869742089084785e-02 2.675072801721471716e-02 1.431327032501968355e-01
4.601472471190781107e+03 6.573908295613285768e-02 2.606495930393489327e-02 1.421604939005800261e-01
4.611475672215108716e+03 6.724039531747105780e-02 2.713126858633214261e-02 1.432157659797188010e-01
4.621478873239436325e+03 6.796057835018176618e-02 2.923435771441430797e-02 1.412577670578045175e-01
4.631482074263764844e+03 7.120487341253023406e-02 3.101585830774502076e-02 1.333308682237783760e-01
4.641485275288092453e+03 6.891045396636123754e-02 3.197957093788490052e-02 1.317930599557200211e-01
4.651488476312420062e+03 7.168389001861295851e-02 3.063210029785023644e-02 1.367401358769214093e-01
4.661491677336747671e+03 7.138943003232148254e-02 3.142429089918418600e-02 1.488019188659392977e-01
4.671494878361075280e+03 7.235358056189351850e-02 3.169153047226299508e-02 1.562421285109575342e-01
4.681498079385402889e+03 7.482305554201144904e-02 3.187785954022059887e-02 1.477998176855422341e-01
4.691501280409731407e+03 7.186828919652528402e-02 2.904868241820560137e-02 1.442576405012066521e-01
4.701504481434059016e+03 6.872133188305748486e-02 3.054450479539370239e-02 1.368617419080991326e-01
4.711507682458386626e+03 6.789472068499600999e-02 3.109535378772096403e-02 1.311023149593559811e-01
4.721510883482714235e+03 7.155385677782578890e-02 3.031269941075976498e-02 1.362055456221455685e-01
4.731514084507041844e+03 7.246031785613221698e-02 3.005355881409735655e-02 1.433267347373940737e-01
4.741517285531370362e+03 6.957594650618054155e-02 2.956455424548435143e-02 1.465685054559444922e-01
4.751520486555697971e+03 6.857361741656417542e-02 3.028983045706034466e-02 1.496703901631652733e-01
4.761523687580025580e+03 6.866614312638971707e-02 2.779001134650384980e-02 1.531863360165443833e-01
4.771526888604353189e+03 6.600512489226557922e-02 2.714865579785037328e-02 1.505189574043978018e-01
4.781530089628680798e+03 6.220603820463516814e-02 2.615950709648807992e-02 1.466754794280725471e-01
4.791533290653009317e+03 6.018814325252307834e-02 2.525430630942109705e-02 1.449017657604883269e-01
4.801536491677336926e+03 5.717066187099827806e-02 2.511891472578773807e-02 1.425323229708649331e-01
4.811539692701664535e+03 5.633302613864062808e-02 2.479397843412512251e-02 1.422343167337562497e-01
4.821542893725992144e+03 6.288242705668362076e-02 2.621442869921168997e-02 1.516309290606451810e-01
4.831546094750319753e+03 6.907861849957756817e-02 2.848701441224975317e-02 1.587488961589136605e-01
4.841549295774648272e+03 7.158578698014253505e-02 3.029837306569889074e-02 1.509639238335783451e-01
4.851552496798975881e+03 7.256520067893877657e-02 2.918509514954444051e-02 1.458325395353714526e-01
4.861555697823303490e+03 7.044556902859290537e-02 3.111583792357363806e-02 1.417532461161796487e-01
4.871558898847631099e+03 7.350014572229310317e-02 3.374449334082057356e-02 1.347136927248238636e-01
4.881562099871958708e+03 7.330654519656766566e-02 3.240339807724411381e-02 1.380043807022172664e-01
4.891565300896287226e+03 7.163885351375676169e-02 3.142085672154656256e-02 1.352581531088969946e-01
4.901568501920614835e+03 6.804372855488877159e-02 3.221214397737645618e-02 1.325132258452897394e-01
4.911571702944942444e+03 6.543404726774433577e-02 2.971428270748191144e-02 1.268808043066201319e-01
4.921574903969270053e+03 6.136314666767141851e-02 2.662302592591061362e-02 1.151445578172514278e-01
4.931578104993597663e+03 5.658170354972946042e-02 2.487998556417141821e-02 1.122815702404027782e-01
4.941581306017926181e+03 5.464683969710548012e-02 2.341868849002964534e-02 1.105609365763869645e-01
4.951584507042253790e+03 4.919438749518395548e-02 2.251443159211876863e-02 1.035003752985508424e-01
4.961587708066581399e+03 4.610986147447314332e-02 2.227908939912836422e-02 9.485652332005006793e-02
4.971590909090909008e+03 4.270454760895360524e-02 2.012897739747088188e-02 8.601816174163369466e-02
4.981594110115236617e+03 4.225137642999569898e-02 1.954436040128014473e-02 8.133874604499820304e-02
4.991597311139564226e+03 4.095149808639198669e-02 2.137776279369689100e-02 8.005542168974029427e-02
5.001600512163892745e+03 4.032800127419271241e-02 1.899482505186322542e-02 7.474621762280184156e-02
5.011603713188220354e+03 3.893848991676096549e-02 1.931306469898366046e-02 6.840621443424604875e-02
5.021606914212547963e+03 3.681224083233816669e-02 1.752197085958837747e-02 6.562933742763009393e-02
5.031610115236875572e+03 3.658297105589622400e-02 1.891615134533656747e-02 6.150233429928460976e-02
5.041613316261203181e+03 3.555744290376056105e-02 1.775691242309734852e-02 6.027385580969808060e-02
5.051616517285531700e+03 3.701870171408883081e-02 1.818284570829312163e-02 6.106927446761867273e-02
5.061619718309859309e+03 3.637845197832062505e-02 1.832391457913923327e-02 6.154585287217465700e-02
5.071622919334186918e+03 3.673564582982961901e-02 1.772830471669593205e-02 6.016603096287901492e-02
5.081626120358514527e+03 3.475960698807042254e-02 1.769243757308481754e-02 5.722982918844629618e-02
5.091629321382842136e+03 3.442029679246971785e-02 1.715500311238037784e-02 5.715086463735239569e-02
5.101632522407170654e+03 3.458057426560606079e-02 1.758166458798170531e-02 5.672365442983572786e-02
5.111635723431498263e+03 3.378344782484689335e-02 1.741055769222587396e-02 5.655401970417411189e-02
5.121638924455825872e+03 3.445640021130518676e-02 1.748944986858952041e-02 5.758652591535322329e-02
5.131642125480153481e+03 3.534834396915844529e-02 1.804898964098280295e-02 5.633730137460644938e-02
5.141645326504481091e+03 3.460181655486516128e-02 1.780892094383971364e-02 5.562504285646156094e-02
5.151648527528809609e+03 3.355724919003808676e-02 1.662281441749026423e-02 5.666504406602812516e-02
5.161651728553137218e+03 3.488136018241654035e-02 1.742227593660725105e-02 5.678125618490478116e-02
5.171654929577464827e+03 3.352044715677000158e-02 1.680895432999231220e-02 5.602818482190298488e-02
5.181658130601792436e+03 3.456962487315379945e-02 1.666609577266255429e-02 5.752871656975996201e-02
5.191661331626120045e+03 3.439375910354703497e-02 1.702417866295083751e-02 5.735794252970270041e-02
5.201664532650448564e+03 3.405374504050914103e-02 1.682506422842798555e-02 5.717549540999032620e-02
5.211667733674776173e+03 3.578099313664962616e-02 1.792918752727104548e-02 5.791247227142330700e-02
5.221670934699103782e+03 3.581881295721807412e-02 1.849717638582937251e-02 5.816284921248045248e-02
5.231674135723431391e+03 3.441273510958412635e-02 1.836636629082151126e-02 5.681796017157278444e-02
5.241677336747759000e+03 3.504431484284192821e-02 1.765050521112139850e-02 5.606368423842608001e-02
5.251680537772087519e+03 3.522195835188022400e-02 1.753983546872591240e-02 5.652398816344231941e-02
5.261683738796415128e+03 3.410358200553470498e-02 1.675910176701872131e-02 5.699964042086082261e-02
5.271686939820742737e+03 3.557691411078301585e-02 1.842318285820004550e-02 5.899084903275880754e-02
5.281690140845070346e+03 3.527614416641292744e-02 1.732540980069818132e-02 5.847523391105292206e-02
5.291693341869397955e+03 3.566123301797523293e-02 1.817849558363670431e-02 5.849637540893981580e-02
5.301696542893725564e+03 3.510856033721369840e-02 1.812349738214894673e-02 5.691463414902988432e-02
5.311699743918054082e+03 3.496439540364891518e-02 1.776251829413506844e-02 5.644959990646115922e-02
5.321702944942381691e+03 3.536406231797691035e-02 1.739811773232146502e-02 5.836010964356398018e-02
5.331706145966709300e+03 3.660861718329031650e-02 1.872449700184183538e-02 5.992704507393169233e-02
5.341709346991036909e+03 3.702698588246640388e-02 1.717633903711120874e-02 5.957529993210412822e-02
5.351712548015364519e+03 3.620364446409252146e-02 1.859275274033906494e-02 5.808224055448906603e-02
5.361715749039693037e+03 3.607672434799364530e-02 1.737653872315053638e-02 5.926027406579594675e-02
5.371718950064020646e+03 3.699745797764124322e-02 1.844351030568152153e-02 5.884120126850993227e-02
5.381722151088348255e+03 3.650328972874637007e-02 1.904373162153964738e-02 5.771022489036793657e-02
5.391725352112675864e+03 3.514062975380138898e-02 1.738234347566888771e-02 5.910528405593958035e-02
5.401728553137003473e+03 3.686537635463252999e-02 1.798209170717565697e-02 6.246543176015784821e-02
5.411731754161331992e+03 3.654776788580499369e-02 1.952122755526456560e-02 5.730398241904025719e-02
5.421734955185659601e+03 3.682607728259448127e-02 1.883637278243711216e-02 5.864263736281387362e-02
5.431738156209987210e+03 3.838010155196926870e-02 1.906814081785682471e-02 6.091718687203449140e-02
5.441741357234314819e+03 3.666574728695001090e-02 1.781993446809894063e-02 5.893641258578448394e-02
5.451744558258642428e+03 3.661864840952325922e-02 1.687876409848580728e-02 5.957456291375057972e-02
5.461747759282970947e+03 3.776099608502065524e-02 1.935697874736614504e-02 5.959483293258405895e-02
5.471750960307298556e+03 3.859889503381114945e-02 1.815687086224521823e-02 6.122143514183667895e-02
5.481754161331626165e+03 3.738963338152229143e-02 1.874366764009141248e-02 6.110947367238898226e-02
5.491757362355953774e+03 3.743854021122006853e-02 1.908483968896480462e-02 6.105562860063649955e-02
5.501760563380281383e+03 3.630488645722287910e-02 1.811941224045276327e-02 6.012968535833582845e-02
5.511763764404609901e+03 3.736185978366021038e-02 1.750766359648836881e-02 6.471800500234256570e-02
5.521766965428937510e+03 5.051657093717790842e-02 2.592875518813708008e-02 8.029348998411543759e-02
5.531770166453265119e+03 4.525396226340967082e-02 2.361415500815541510e-02 7.321789053354653409e-02
5.541773367477592728e+03 4.106963966510876474e-02 2.082388227089121413e-02 6.961388078358157760e-02
5.551776568501920337e+03 4.587653047231077946e-02 2.288090612325186304e-02 7.548403257254429621e-02
5.561779769526248856e+03 4.636017923946484515e-02 2.204419780176426757e-02 7.476970278444375340e-02
5.571782970550576465e+03 2.263467997812559918e-01 1.807125384404215385e-01 2.807832043403543643e-01
5.581786171574904074e+03 6.947938631127944520e-01 6.571781142344658155e-01 7.340282307203134238e-01
5.591789372599231683e+03 5.093382590906231355e-01 4.546798418339285108e-01 5.542752479315979919e-01
5.601792573623559292e+03 6.271950399484509109e-02 3.284169327482416856e-02 1.007868426248381410e-01
5.611795774647886901e+03 4.397424447305059436e-02 2.289308773887279227e-02 7.018322074400235033e-02
5.621798975672215420e+03 4.283219363996673690e-02 2.139823066542396665e-02 7.036196460515747875e-02
5.631802176696543029e+03 4.288483243518373400e-02 2.117806701909364167e-02 7.212333953947687448e-02
5.641805377720870638e+03 5.507279147380530343e-02 2.783347351205509371e-02 8.818940509187492283e-02
5.651808578745198247e+03 4.810911251889907203e-02 2.324202961519264421e-02 8.255684496843761211e-02
5.661811779769525856e+03 4.397025503602187274e-02 2.067011163127788556e-02 7.420916606848310115e-02
5.671814980793854374e+03 4.227672625654756849e-02 2.132352859438136489e-02 7.349786503756283729e-02
5.681818181818181984e+03 4.321691991146256462e-02 2.042447146054199303e-02 7.639544891654374836e-02
5.691821382842509593e+03 4.540382402687655194e-02 2.279020808192390793e-02 7.861641502959580696e-02
5.701824583866837202e+03 4.701307014871742435e-02 2.323072872289261986e-02 7.744871045061792192e-02
5.711827784891164811e+03 4.637648355714830972e-02 2.255953991568786579e-02 8.048377179401380865e-02
5.721830985915493329e+03 4.772186645792454024e-02 2.196093322276752510e-02 8.120202722955763286e-02
5.731834186939820938e+03 4.686269320546450345e-02 2.250814876631125963e-02 8.130717462822263653e-02
5.741837387964148547e+03 4.623339061228426417e-02 2.190703985819361654e-02 8.706993206870150548e-02
5.751840588988476156e+03 4.933057904240592539e-02 2.390471859892564360e-02 8.504284439745753155e-02
5.761843790012803765e+03 4.925769366720936931e-02 2.417772136793917143e-02 8.811062809686361075e-02
5.771846991037132284e+03 4.958182695420681324e-02 2.448072211260267361e-02 8.556271946719445909e-02
5.781850192061459893e+03 5.068070091176059971e-02 2.501414329709294657e-02 9.274741963572868952e-02
5.791853393085787502e+03 5.311975569924650559e-02 2.567385850803491354e-02 9.478941844547739137e-02
5.801856594110115111e+03 5.422097678928097103e-02 2.604194912424142097e-02 9.872198731841119734e-02
5.811859795134442720e+03 5.664770728658866800e-02 2.776805586207102203e-02 9.983627494018847137e-02
5.821862996158771239e+03 5.660437457449311871e-02 2.801224596824818808e-02 1.017282262379709951e-01
5.831866197183098848e+03 6.608164484027667651e-02 3.304441017158134264e-02 1.112327892344127794e-01
5.841869398207426457e+03 7.398297373591013193e-02 3.656799949609338546e-02 1.221546953256984203e-01
5.851872599231754066e+03 5.985402988019564163e-02 2.936776858152216965e-02 9.980048264842113215e-02
5.861875800256081675e+03 5.468566263209064665e-02 2.674643013734421745e-02 9.876665293293018788e-02
5.871879001280410193e+03 5.826745955655345671e-02 2.728911573885572581e-02 1.008925753953329590e-01
5.881882202304737802e+03 5.889412529020891102e-02 2.995143526851094459e-02 1.075676437272866798e-01
5.891885403329065412e+03 5.831287439588944688e-02 2.851825162371831104e-02 1.045302578833191415e-01
5.901888604353393021e+03 5.783422030389583079e-02 2.834784556511083659e-02 1.003810607947208944e-01
5.911891805377720630e+03 5.811964764200950456e-02 2.809558774121672514e-02 9.999840321619808681e-02
5.921895006402048239e+03 5.686330157671052460e-02 2.688160296628306495e-02 9.625898849217763564e-02
5.931898207426376757e+03 5.558536566463088274e-02 2.735548589439269068e-02 9.804407575593150626e-02
5.941901408450704366e+03 5.778450676982100492e-02 2.812736065021170448e-02 1.011119837441242925e-01
5.951904609475031975e+03 5.896836045558549733e-02 2.702686745702383153e-02 1.029276331596681165e-01
5.961907810499359584e+03 5.763980933076997409e-02 2.781258459688743662e-02 1.006666982774748753e-01
5.971911011523687193e+03 5.556707967264187809e-02 2.622342098264459839e-02 1.010517521542626529e-01
5.981914212548015712e+03 5.455317379964622071e-02 2.650177447216440357e-02 9.808493600031027715e-02
5.991917413572343321e+03 5.728797271962273591e-02 2.727910939846844851e-02 9.567207853618581170e-02
6.001920614596670930e+03 5.414940012657162849e-02 2.624814137536906483e-02 9.348217749558593304e-02
6.011923815620998539e+03 5.274739323513055050e-02 2.687537217592449873e-02 9.199103896604220176e-02
6.021927016645326148e+03 5.322750031833570206e-02 2.694240819010730592e-02 9.455342404557516567e-02
6.031930217669654667e+03 5.118619333421851880e-02 2.513881197865983422e-02 9.358276271073012742e-02
6.041933418693982276e+03 5.323656385670066243e-02 2.529080976486261165e-02 9.060517548448165925e-02
6.051936619718309885e+03 6.089402906807326460e-02 3.034196010509955174e-02 1.070311057635163071e-01
6.061939820742637494e+03 6.203692160491908886e-02 3.115091404169266151e-02 1.089847631499240160e-01
6.071943021766965103e+03 5.050790498448355648e-02 2.492102361513240730e-02 8.339650370095638698e-02
6.081946222791293621e+03 4.820266007350413467e-02 2.320125986450025449e-02 8.151437987648806061e-02
6.091949423815621230e+03 4.905376412747028403e-02 2.395707790102447748e-02 8.317048791953446374e-02
6.101952624839948840e+03 5.007453492400697898e-02 2.423199974606048135e-02 8.324478099905079087e-02
6.111955825864276449e+03 4.871795156152673723e-02 2.430034149547297476e-02 8.136832668789956147e-02
6.121959026888604058e+03 4.727853579921417054e-02 2.315505705794653965e-02 7.985088898019657155e-02
6.131962227912932576e+03 4.610925165862837793e-02 2.367737671207182162e-02 7.635100009677263377e-02
6.141965428937260185e+03 4.575844278638752094e-02 2.266271090750746758e-02 7.967842907950684062e-02
6.151968629961587794e+03 4.525609723016543740e-02 2.191810203561519663e-02 7.648969622643929378e-02
6.161971830985915403e+03 4.361960490274013197e-02 2.185786602478562851e-02 7.389637266989029785e-02
6.171975032010243012e+03 4.517620565695610463e-02 2.371285410317131026e-02 7.569463630664577392e-02
6.181978233034570621e+03 4.539784366404908678e-02 2.263386223312882292e-02 7.420510885388147126e-02
6.191981434058899140e+03 4.394613362007346313e-02 2.263682985740223322e-02 7.388199520016200395e-02
6.201984635083226749e+03 4.454503943509125624e-02 2.060692983319422841e-02 7.448266361248964684e-02
6.211987836107554358e+03 4.333306071230186296e-02 2.200968661659974054e-02 7.025580881111401221e-02
6.221991037131881967e+03 4.403482532091185925e-02 2.029085599167493661e-02 7.132109298778011031e-02
6.231994238156209576e+03 4.381442935315497944e-02 2.100244553851601803e-02 7.284595941266529262e-02
6.241997439180538095e+03 4.451087139587316110e-02 2.206194415090560398e-02 7.508342570766497748e-02
6.252000640204865704e+03 4.377892397951018560e-02 2.366293133750711764e-02 7.297494781842522871e-02
6.262003841229193313e+03 4.457563005049980376e-02 2.200850372036205690e-02 7.134649973104983944e-02
6.272007042253520922e+03 4.363852542396744194e-02 1.979160395350329851e-02 7.130049703204235922e-02
6.282010243277848531e+03 4.315750332529649097e-02 2.187413026196873000e-02 6.945071082671294693e-02
6.292013444302177049e+03 4.362796058749132677e-02 2.319442340601650734e-02 7.309078717590483665e-02
6.302016645326504658e+03 4.477185133191240868e-02 2.320625976670364146e-02 7.400842895584040793e-02
6.312019846350832267e+03 4.247294343034814512e-02 2.160143097138177495e-02 7.179885142951213106e-02
6.322023047375159877e+03 4.432782970832964409e-02 2.206363639939941737e-02 7.059412009040479108e-02
6.332026248399487486e+03 4.415629823831402484e-02 2.286601685277071805e-02 7.434454237319915171e-02
6.342029449423816004e+03 4.462079135926389634e-02 2.239808711587779749e-02 7.147553711561874246e-02
6.352032650448143613e+03 4.730169111241899760e-02 2.384747245083344847e-02 7.350694625870105026e-02
6.362035851472471222e+03 5.067802052036004395e-02 2.470167813486891240e-02 7.950261771432177993e-02
6.372039052496798831e+03 4.376984770569473243e-02 2.203520626716421252e-02 7.293218858510372438e-02
6.382042253521126440e+03 4.445388964674491794e-02 2.183615096952599977e-02 7.072530930134469929e-02
6.392045454545454959e+03 4.279429352420949934e-02 2.189319816956723785e-02 7.051890953965186948e-02
6.402048655569782568e+03 4.350597848829645259e-02 2.211265184261530098e-02 7.138060121394732005e-02
6.412051856594110177e+03 4.364788471428863309e-02 2.217157173374220344e-02 7.240017611225746386e-02
6.422055057618437786e+03 4.393382353039320537e-02 2.269910166845260854e-02 7.453372836670066337e-02
6.432058258642765395e+03 4.483749642071777758e-02 2.333885974528633958e-02 7.354503786861471548e-02
6.442061459667093914e+03 4.698598487264543655e-02 2.204808658707461955e-02 7.495768410522607450e-02
6.452064660691421523e+03 4.721760358024022081e-02 2.380858491192394330e-02 7.372816362429222836e-02
6.462067861715749132e+03 4.478320636410411393e-02 2.184852142880817222e-02 7.326254193651966784e-02
6.472071062740076741e+03 4.466407783848110741e-02 2.189674530671651201e-02 7.427088570532520972e-02
6.482074263764404350e+03 4.495456585685563000e-02 2.287411766997422477e-02 7.300062698881064349e-02
6.492077464788731959e+03 4.572912720253246438e-02 2.301597808098616513e-02 7.173257478104025364e-02
6.502080665813060477e+03 4.530426750581770939e-02 2.357633254143508272e-02 7.372298114263325930e-02
6.512083866837388086e+03 4.434317342694656799e-02 2.090068819125815922e-02 7.205545380633510133e-02
6.522087067861715695e+03 4.423500391174844254e-02 2.107769245700573391e-02 7.149573199606837348e-02
6.532090268886043305e+03 4.376808832862699034e-02 2.204699700688119227e-02 7.481248801343205745e-02
6.542093469910370914e+03 4.651085028881416644e-02 2.254099081249017617e-02 7.487658775501532249e-02
6.552096670934699432e+03 4.525901592802762663e-02 2.278529660605568136e-02 7.276139904712516926e-02
6.562099871959027041e+03 4.567026553791173754e-02 2.089868619834193281e-02 7.282754003463494386e-02
6.572103072983354650e+03 4.416015544097286194e-02 2.287224993050690838e-02 7.340925141605020299e-02
6.582106274007682259e+03 4.458627345774921619e-02 2.240455335320609351e-02 7.406761166606545821e-02
6.592109475032009868e+03 4.313798707071880151e-02 2.030241056910146030e-02 7.332993028233578126e-02
6.602112676056338387e+03 4.549478583270603199e-02 2.354303060412038517e-02 7.495855376298610206e-02
6.612115877080665996e+03 4.461755713336293394e-02 2.234523760544969082e-02 7.227918447720382833e-02
6.622119078104993605e+03 4.491645476189057989e-02 2.264390219753397229e-02 7.230568247435756324e-02
6.632122279129321214e+03 4.573754214916819771e-02 2.181774659897980570e-02 7.301207637916683202e-02
6.642125480153648823e+03 4.261779089647940721e-02 2.229791717793900424e-02 7.394651542506452957e-02
6.652128681177977342e+03 4.589701054635988292e-02 2.223029917958598695e-02 7.439156029240301393e-02
6.662131882202304951e+03 4.693354594570822713e-02 2.309533246261119208e-02 7.450597071360232082e-02
6.672135083226632560e+03 4.576405529370369818e-02 2.167767793698457263e-02 7.343799910341665405e-02
6.682138284250960169e+03 4.565458402975374613e-02 2.385349327402890018e-02 7.586368820724397055e-02
6.692141485275287778e+03 4.629818539467523558e-02 2.316688814176586994e-02 7.614144873729418450e-02
6.702144686299616296e+03 4.601258102224956709e-02 2.444155144742584523e-02 7.562736625545937730e-02
6.712147887323943905e+03 4.691870574766646151e-02 2.467732966924453611e-02 7.598524847116516767e-02
6.722151088348271514e+03 4.791615730084166497e-02 2.331460403461282568e-02 7.672686683018503651e-02
6.732154289372599123e+03 4.687579449446215019e-02 2.255432339679395645e-02 7.536390968943894320e-02
6.742157490396926733e+03 4.778427575618545559e-02 2.244074834336417384e-02 7.744198676826523353e-02
6.752160691421255251e+03 4.883765818667236414e-02 2.446845851413498654e-02 7.909263132245358818e-02
6.762163892445582860e+03 4.790920653513195543e-02 2.388018503840403164e-02 7.833704082365766652e-02
6.772167093469910469e+03 4.773899450632494712e-02 2.357139060655370419e-02 8.018171434190285440e-02
6.782170294494238078e+03 5.088664849611880536e-02 2.579608209916280093e-02 8.330084745496543763e-02
6.792173495518565687e+03 5.094155528686773737e-02 2.514447680667022261e-02 8.518357309428686852e-02
6.802176696542893296e+03 5.715397358324531690e-02 2.746495275921640930e-02 9.265089061629122602e-02
6.812179897567221815e+03 6.556898989346936213e-02 3.283218539389681778e-02 1.090458975110850659e-01
6.822183098591549424e+03 2.385854212788090511e-01 1.211142646863725691e-01 3.957869848029140214e-01
6.832186299615877033e+03 4.535816227551000557e-01 2.293784945966201028e-01 7.538964835953881893e-01
6.842189500640204642e+03 2.477796268521507139e-01 1.234123584735632995e-01 4.089861138963526432e-01
6.852192701664532251e+03 6.537744874631221115e-02 3.424141797966399892e-02 1.143502220240100314e-01
6.862195902688860770e+03 5.645208354491341313e-02 2.822839819551720836e-02 1.022168436899928701e-01
6.872199103713188379e+03 5.745887744638921574e-02 2.878735848810385842e-02 1.041900682137722189e-01
6.882202304737515988e+03 6.238101013563052133e-02 3.055251572292514567e-02 1.177434212309029643e-01
6.892205505761843597e+03 1.447687589120679741e-01 7.249573109290681494e-02 2.364715336514940924e-01
6.902208706786171206e+03 4.192341167540694080e-01 2.037082506913325541e-01 6.583386576324344874e-01
6.912211907810499724e+03 3.295008171600262714e-01 1.683207885845510454e-01 5.360316860304095155e-01
6.922215108834827333e+03 8.368280983118060734e-02 3.931673688325161564e-02 1.668944088914907087e-01
6.932218309859154942e+03 6.961006970955120610e-02 3.050290489999277210e-02 1.679865362144107310e-01
6.942221510883482551e+03 6.697605109860510497e-02 3.196352083614664719e-02 1.803458228047605527e-01
6.952224711907810160e+03 6.970269114760040130e-02 3.045023859807487188e-02 1.872440668159696120e-01
6.962227912932138679e+03 7.280719321738333971e-02 3.454610197273993988e-02 1.867212905682360813e-01
6.972231113956466288e+03 7.757497008971400709e-02 3.466607384950051718e-02 2.030158548784712913e-01
6.982234314980793897e+03 7.958990343508121068e-02 3.495196492434416574e-02 2.192437299504899351e-01
6.992237516005121506e+03 8.097276933932155696e-02 3.747158725424800524e-02 2.172135673353025043e-01
7.002240717029449115e+03 9.112187875878342835e-02 3.674284164612692111e-02 2.177655624334825513e-01
7.012243918053777634e+03 9.859086607770983779e-02 3.730720133958182611e-02 2.273390179375875120e-01
7.022247119078105243e+03 1.061154565767228469e-01 4.193641517010128494e-02 2.471616147199035274e-01
7.032250320102432852e+03 1.100161519103707020e-01 4.288396000330781110e-02 2.483622086033149823e-01
7.042253521126760461e+03 1.212619637969611364e-01 5.076425341468925045e-02 2.814392262139196466e-01
7.052256722151088070e+03 1.290613957564597791e-01 5.117837414236795640e-02 2.820406784745383977e-01
7.062259923175416588e+03 1.309640528897133838e-01 5.111029686757911916e-02 2.684698628062197057e-01
7.072263124199744198e+03 1.352123795629938674e-01 5.936808248820665823e-02 2.785330857254452730e-01
7.082266325224071807e+03 1.375312048771837881e-01 5.923460978682561912e-02 2.709548517065669127e-01
7.092269526248399416e+03 1.424389458323626623e-01 5.839122621311777783e-02 2.779588325425828010e-01
7.102272727272727025e+03 1.468422670461831947e-01 5.900848928717324082e-02 2.992829935303698563e-01
7.112275928297054634e+03 1.412656126963760528e-01 5.313952538737497233e-02 2.957029450575254237e-01
7.122279129321383152e+03 1.362517767851165740e-01 5.307511910792250126e-02 2.716675775115554581e-01
7.132282330345710761e+03 1.413205388231791870e-01 5.579768993963988427e-02 2.602093094359542724e-01
7.142285531370038370e+03 1.332736276621905858e-01 5.321549693038781642e-02 2.636424643620265962e-01
7.152288732394365979e+03 1.360692431760973375e-01 5.389895820775621876e-02 2.750873436174295916e-01
7.162291933418693588e+03 1.310112958469182576e-01 5.020849535148962095e-02 2.827651237980311483e-01
7.172295134443022107e+03 1.230516508623434868e-01 5.056536085563811261e-02 2.855501635752334399e-01
7.182298335467349716e+03 1.142940547503951548e-01 4.512719231476627901e-02 2.689755045641687992e-01
7.192301536491677325e+03 1.114400146670886105e-01 4.036848480575356418e-02 2.702714379552963453e-01
7.202304737516004934e+03 1.000643184596013285e-01 4.018864378828424649e-02 2.544481711439311455e-01
7.212307938540332543e+03 8.878108988326155471e-02 3.958357258171647797e-02 2.374664028559537732e-01
7.222311139564661062e+03 8.852863982601562320e-02 3.626528209855274520e-02 2.371438799953695942e-01
7.232314340588988671e+03 9.104952427803372772e-02 3.768959178077344041e-02 2.416568742033534667e-01
7.242317541613316280e+03 9.701414199884174361e-02 4.148214490908318924e-02 2.321458127356526291e-01
7.252320742637643889e+03 9.419246965950557604e-02 4.164698911273197190e-02 2.248071858342431117e-01
7.262323943661971498e+03 9.392737641420952077e-02 3.861655704682798868e-02 2.137739359249452020e-01
7.272327144686300016e+03 9.110705531452430173e-02 4.126526662266355450e-02 1.949424808318220015e-01
7.282330345710627626e+03 9.179140463717387621e-02 4.281698258397235307e-02 1.866684468642375860e-01
7.292333546734955235e+03 9.093616336024915037e-02 4.068374522475110000e-02 1.884109295718555954e-01
7.302336747759282844e+03 9.247689620175507386e-02 4.268421948355371337e-02 1.869344629690771198e-01
7.312339948783610453e+03 9.262776898800319236e-02 4.372865087845455995e-02 1.842948931734998685e-01
7.322343149807938971e+03 1.992502292978845513e-01 9.574707926199621522e-02 3.291337291101009144e-01
7.332346350832266580e+03 2.560629548242542852e-01 1.333898458633528128e-01 4.103625774833620787e-01
7.342349551856594189e+03 1.798525682441312334e-01 9.132966662111587086e-02 2.885551293080172441e-01
7.352352752880921798e+03 9.330950314241406862e-02 4.554310254347168629e-02 1.627729516549772659e-01
7.362355953905249407e+03 7.756069819548759570e-02 3.908665311248489538e-02 1.416770912747175593e-01
7.372359154929577926e+03 7.222973075934789600e-02 3.587943945213728503e-02 1.334747668565496315e-01
7.382362355953905535e+03 7.246222200087867882e-02 3.572683546911015195e-02 1.350871530881043725e-01
7.392365556978233144e+03 6.896523385706386511e-02 3.368675496868298730e-02 1.265524366511662502e-01
7.402368758002560753e+03 6.486460950814033899e-02 3.109938252542204448e-02 1.177756932989353772e-01
7.412371959026888362e+03 6.116259640265121755e-02 2.935124272458631070e-02 1.132644288114637021e-01
7.422375160051215971e+03 6.206769212710624289e-02 2.828925208406447150e-02 1.088966229602929270e-01
7.432378361075544490e+03 1.117629993189101084e-01 6.101517383895276730e-02 1.754610631087877015e-01
7.442381562099872099e+03 3.476097298131757829e-01 2.954085206260308460e-01 3.987392850144059198e-01
7.452384763124199708e+03 2.867399787180973103e-01 2.263249384709820622e-01 3.387077720183042651e-01
7.462387964148527317e+03 6.595863190082768002e-02 3.161044590957590855e-02 1.108748988742387087e-01
7.472391165172854926e+03 5.490674291082736636e-02 2.632455662467378041e-02 9.422415429215177940e-02
7.482394366197183444e+03 5.263893427924986462e-02 2.577521906056985668e-02 9.166889851601221773e-02
7.492397567221511054e+03 5.392064293673040631e-02 2.762675019263257509e-02 9.155530882868953557e-02
7.502400768245838663e+03 5.862740103912206929e-02 2.832863482570446151e-02 9.700151110096545681e-02
7.512403969270166272e+03 5.549976944076181334e-02 2.654315195417482690e-02 9.426761648282751260e-02
7.522407170294493881e+03 5.513484385039103819e-02 2.663448139408453041e-02 8.959113509535765463e-02
7.532410371318822399e+03 5.445806166495038153e-02 2.730923503881567405e-02 9.010900046827970133e-02
7.542413572343150008e+03 5.120423400919694307e-02 2.597040095665882620e-02 8.493788103675935230e-02
7.552416773367477617e+03 5.015347818680446212e-02 2.454209569662508389e-02 8.176052894280037842e-02
7.562419974391805226e+03 5.003926357025802879e-02 2.528598272966129518e-02 8.012693766292440511e-02
7.572423175416132835e+03 5.064139751239296605e-02 2.569042308114226000e-02 8.080781981146729909e-02
7.582426376440461354e+03 5.130438429320042376e-02 2.453941835633217938e-02 8.400288382456647107e-02
7.592429577464788963e+03 4.932479435509184301e-02 2.570413544150964777e-02 8.308130839559103864e-02
7.602432778489116572e+03 4.910204721868745292e-02 2.539804441826362669e-02 8.248080334790988677e-02
7.612435979513444181e+03 4.803423702844631521e-02 2.516282098830624481e-02 8.150406589241419864e-02
7.622439180537771790e+03 4.838387700858023249e-02 2.290809093298423749e-02 8.117086218831859323e-02
7.632442381562100309e+03 4.686113928932472000e-02 2.346605584556227600e-02 8.223704906690322558e-02
7.642445582586427918e+03 4.780539569285591900e-02 2.435746500195990621e-02 7.947694499945331947e-02
7.652448783610755527e+03 4.875830547216238042e-02 2.433027380287770478e-02 7.790134349946034598e-02
7.662451984635083136e+03 4.804221958471635578e-02 2.340065533989434121e-02 7.956435288638805114e-02
7.672455185659410745e+03 5.060673251962351238e-02 2.459992556616396805e-02 8.132138521669973752e-02
7.682458386683738354e+03 5.226244726121073020e-02 2.834084250661894622e-02 8.489526704579176963e-02
7.692461587708066872e+03 5.163051357344632109e-02 2.606732663881125914e-02 8.536070545173882196e-02
7.702464788732394481e+03 5.218946309413966672e-02 2.424665156777923436e-02 8.271393289653962422e-02
7.712467989756722091e+03 4.943586821620052363e-02 2.609235788431292502e-02 8.172509474233434490e-02
7.722471190781049700e+03 4.815447743795456259e-02 2.350975461954695617e-02 7.976904147967210645e-02
7.732474391805377309e+03 5.011563909931052857e-02 2.597274253576171629e-02 7.995834289465016120e-02
7.742477592829705827e+03 5.015182171624188445e-02 2.573990342213323262e-02 8.304978340160690253e-02
7.752480793854033436e+03 4.827329407766600688e-02 2.467290426127403610e-02 8.200793717205988320e-02
7.762483994878361045e+03 5.198433593977893480e-02 2.528705590003255121e-02 8.947966373596080714e-02
7.772487195902688654e+03 5.654226675635155158e-02 2.874558285449255526e-02 9.355897065842397331e-02
7.782490396927016263e+03 5.103203556372704064e-02 2.672162059941109169e-02 8.411689592288740247e-02
7.792493597951344782e+03 5.026379132258776417e-02 2.574550126176467987e-02 8.285419449598374619e-02
7.802496798975672391e+03 4.772749122152892404e-02 2.305292200471716069e-02 8.011428677089478534e-02
7.812500000000000000e+03 2.684646509277067994e-02 7.837884864671393337e-03 5.918952145625929612e-02
