7.100000000000000000e+01 -5.276791554490044334e+00 1.222816196482811701e+00 -2.224195063821297058e+00 2.064343501427746919e+00
7.200000000000000000e+01 -5.266884741269962866e+00 1.117389023376156754e+00 -2.467363599247750727e+00 1.683806932129913392e+00
7.300000000000000000e+01 -5.346049541481511014e+00 1.111621219738633037e+00 -2.777089265677243901e+00 1.759609579295416060e+00
7.400000000000000000e+01 -5.206466957373248050e+00 1.362281516027423978e+00 -3.744047418502950642e+00 2.086819704421474686e+00
7.500000000000000000e+01 -5.687413937537404429e+00 8.993206611303843356e-01 -9.035960948784992341e-01 1.747543831984326834e+00
7.600000000000000000e+01 -5.673243487318023526e+00 8.833453106877583449e-01 -1.083267550440679017e+00 1.881648027579462035e+00
7.700000000000000000e+01 -5.481479457603148475e+00 1.120460854938398976e+00 -2.417204742228943548e+00 1.872344742568962328e+00
7.800000000000000000e+01 -5.572479820654902660e+00 1.036308358265211282e+00 -1.925234366856327872e+00 1.859217702530760574e+00
7.900000000000000000e+01 -5.648403772820020485e+00 8.885629124098982645e-01 -1.634701638897318343e+00 1.568770177938152655e+00
8.000000000000000000e+01 -5.580534683295521603e+00 1.130839946082511149e+00 -2.097730679173060775e+00 1.913517410583314149e+00
8.100000000000000000e+01 -5.565350293413984240e+00 1.144607342214792656e+00 -2.488900399343033865e+00 1.881133978368731086e+00
8.200000000000000000e+01 -6.276187477794640479e+00 8.110737139185727473e-01 -2.204446886693020857e-01 2.224950072146338442e+00
8.300000000000000000e+01 -5.798187700422967161e+00 9.447187128436395076e-01 -1.130561073269519268e+00 1.962078751165403423e+00
8.400000000000000000e+01 -6.993076242385551922e+00 9.950007739224669967e-01 1.186127856694693117e+00 1.945857638212869611e+00
8.500000000000000000e+01 -5.741641090431296668e+00 1.001025772051720386e+00 -1.535544277690825021e+00 1.897073934923136251e+00
8.600000000000000000e+01 -5.736936910671002643e+00 9.127216908980959609e-01 -1.380775815976032606e+00 1.861103706870881114e+00
8.700000000000000000e+01 -5.600965857219609489e+00 1.191967829028480086e+00 -2.438584425933091104e+00 1.997665291304390633e+00
8.800000000000000000e+01 -5.693231515155835254e+00 1.028110357748006853e+00 -2.383786462309920751e+00 1.581019178628244815e+00
8.900000000000000000e+01 -5.602973576177677550e+00 1.284195208193502191e+00 -3.508781989130905554e+00 1.851354499806050047e+00
9.000000000000000000e+01 -5.687551184676941318e+00 1.113766919487268359e+00 -1.998292404479754758e+00 1.773823919994178100e+00
9.100000000000000000e+01 -5.975627175540892289e+00 8.528878523369142206e-01 -1.142216648602134565e+00 1.610156348451114994e+00
9.200000000000000000e+01 -6.895131320214085591e+00 8.690106514824634809e-01 8.929587485065878516e-01 1.696596409633654323e+00
9.300000000000000000e+01 -5.816404718117040851e+00 1.039080078750537206e+00 -1.620178732531599053e+00 1.824623159829778407e+00
9.400000000000000000e+01 -5.840690469160390030e+00 1.065425344204704139e+00 -1.457812541327792699e+00 1.974989602701017644e+00
9.500000000000000000e+01 -5.822843680361026841e+00 9.620415866506427660e-01 -1.643135645790612998e+00 1.832219359970816308e+00
9.600000000000000000e+01 -5.914970746556897474e+00 9.103928492502990633e-01 -1.334711453723623098e+00 1.715030860125257961e+00
9.700000000000000000e+01 -5.797617805646930300e+00 1.040261092619647387e+00 -2.053499606240204223e+00 1.721891279035131284e+00
9.800000000000000000e+01 -5.674890835431449787e+00 1.193484196485321336e+00 -2.089088223093963137e+00 2.070248827849232143e+00
9.900000000000000000e+01 -5.778684932559661647e+00 1.052590811287028361e+00 -2.008983313665857917e+00 1.685569270490649751e+00
1.000000000000000000e+02 -5.695158844049710289e+00 1.138993125215784330e+00 -2.374579166974881250e+00 1.713638999910397809e+00
1.100070404505888462e+02 -5.712883657026820217e+00 1.033154299428992617e+00 -1.681835713174927305e+00 1.799552379996478546e+00
1.200076804915514685e+02 -4.686726882593469590e+00 8.863524475166946193e-01 -1.554110629166642665e+00 1.680047248354150646e+00
1.300083205325141193e+02 -5.725968175714065467e+00 1.137931384782097322e+00 -2.130427892748119501e+00 1.960971429847108372e+00
1.400089605734767133e+02 -5.905088153522465078e+00 1.080460757082816636e+00 -1.828332626228726054e+00 1.896531492396292373e+00
1.500096006144393357e+02 -6.082395735717651242e+00 9.892058613699240555e-01 -1.304192284537322166e+00 1.892466389396081805e+00
1.600102406554019581e+02 -6.014848227905792655e+00 1.072446943677164422e+00 -1.970445827318659138e+00 1.932734859773232783e+00
1.700108806963645804e+02 -6.178230409464761763e+00 9.925952520888825514e-01 -1.515425635022239481e+00 1.836925242267367864e+00
1.800115207373272028e+02 -6.085358455095627228e+00 1.063471247485518356e+00 -1.828954540409170271e+00 1.819916772575810970e+00
1.900121607782898252e+02 -6.163965599841338516e+00 1.064395286501780724e+00 -1.704707820863851309e+00 1.935639580013070793e+00
2.000128008192524476e+02 -6.133066404678777950e+00 1.123690046789550534e+00 -2.156982488984772406e+00 1.903175563617090837e+00
2.100134408602150984e+02 -6.281796009793682245e+00 1.014181592530171594e+00 -1.471816567492573391e+00 1.900225829587769200e+00
2.200140809011776923e+02 -6.220452621941603866e+00 1.063453198193141658e+00 -1.654153095498578585e+00 1.889721972184129184e+00
2.300147209421403147e+02 -6.301303970352836181e+00 9.998310855619529924e-01 -1.357506393847638382e+00 1.974641024875805728e+00
2.400153609831029371e+02 -5.683598667464164755e+00 9.220534862060073555e-01 -1.623903899211267543e+00 1.646102642527162763e+00
2.500160010240655879e+02 -6.261966868864250912e+00 1.054585264853288962e+00 -2.001385561319581008e+00 1.761845978909611476e+00
2.600166410650281819e+02 -6.172924336572203963e+00 1.104451898829118317e+00 -2.054695786928380841e+00 1.949161117407017141e+00
2.700172811059908327e+02 -5.355201170682600598e+00 1.146362469053991084e+00 -1.801103894526344007e+00 2.034071184153487533e+00
2.800179211469534266e+02 -5.702014032441670821e+00 8.244007671728094122e-01 -1.698141030723774019e-03 2.088701542687534385e+00
2.900185611879160774e+02 -6.208839412003224645e+00 1.036477655161949896e+00 -1.401117767895890376e+00 1.954205579476563814e+00
3.000192012288786714e+02 -6.374573992086416396e+00 1.040183054078573255e+00 -1.848490791213246220e+00 1.782222397423931293e+00
3.100198412698413222e+02 -6.322573285608530824e+00 1.133079509926559370e+00 -2.138119512023335389e+00 1.909729396366369292e+00
3.200204813108039161e+02 -6.460369342137920690e+00 1.032049460229827575e+00 -1.507798279295947896e+00 1.949195229256636130e+00
3.300211213517665669e+02 -6.402763501632001919e+00 1.087117850147033105e+00 -1.802657430754944556e+00 1.896993578679079029e+00
3.400217613927291609e+02 -6.405287788530964477e+00 1.072754903819523209e+00 -1.876377305870800871e+00 1.854801209830385211e+00
3.500224014336917548e+02 -6.442936077192881861e+00 1.070364540845911039e+00 -1.912291163924638049e+00 1.837573006406678644e+00
3.600230414746544056e+02 -5.741811187625883939e+00 9.266878323887518532e-01 -1.668305459307939609e+00 1.696736502717056894e+00
3.700236815156170564e+02 -6.536337417769681579e+00 1.006224861178072194e+00 -1.547816788499162710e+00 1.919408477245321265e+00
3.800243215565796504e+02 -6.455484962194570464e+00 1.069457911943495487e+00 -1.767180101596829811e+00 2.010488617091458430e+00
3.900249615975423012e+02 -6.344308767629502910e+00 1.082803672309204268e+00 -1.944103479023048253e+00 1.875429147372429384e+00
4.000256016385049520e+02 -6.335160737010800958e+00 1.033587273866684919e+00 -1.673399689996201145e+00 1.953749896702595912e+00
4.100262416794674891e+02 -6.415230038155327108e+00 1.082533325809380109e+00 -1.914153649572884142e+00 1.946596512649228172e+00
4.200268817204301968e+02 -6.310513875529301764e+00 1.111777605107977518e+00 -1.855146325643342031e+00 1.948409054527471707e+00
4.300275217613928476e+02 -6.385610221016291277e+00 1.087770444963424898e+00 -2.003232093932972635e+00 1.970632817062836883e+00
4.400281618023553847e+02 -6.363861359617070335e+00 1.064643515232134297e+00 -1.810588551780671684e+00 1.982502803940275005e+00
4.500288018433180923e+02 -6.467165731570389653e+00 1.068622619949471719e+00 -1.961855285682585048e+00 1.963333481811346370e+00
4.600294418842806294e+02 -6.621455178376156603e+00 1.010306884431922292e+00 -1.421195163714307874e+00 1.977981298656124043e+00
4.700300819252432802e+02 -6.461655014808314945e+00 1.151000176548590881e+00 -2.389395657810428730e+00 1.966745983853148250e+00
4.800307219662058742e+02 -6.193071298025417448e+00 1.006610376661360995e+00 -1.704911016366910337e+00 1.830644572784144275e+00
4.900313620071685250e+02 -6.607901148718818618e+00 1.069688553253020036e+00 -1.821974154649569577e+00 1.908203585501586419e+00
5.000320020481311190e+02 -6.619247061805734411e+00 1.076046807059835242e+00 -1.873987204094130998e+00 1.875718583667241424e+00
5.100326420890936561e+02 -6.582026969790319093e+00 1.113786328074094278e+00 -2.309210737138415404e+00 1.799528333862228102e+00
5.200332821300563637e+02 -6.681533803844271091e+00 1.026452073150006861e+00 -1.614592656325628761e+00 1.980341534385072988e+00
5.300339221710189577e+02 -6.653761582341550351e+00 1.054806225010396892e+00 -1.779378956511058929e+00 1.965533936508918611e+00
5.400345622119815516e+02 -6.584816112806341160e+00 1.097351756340807727e+00 -1.973890327829399105e+00 1.871340752469661695e+00
5.500352022529442593e+02 -6.607408598065869221e+00 1.077468709041614181e+00 -1.879628027841752091e+00 1.887608794161770298e+00
5.600358422939068532e+02 -6.620260922566166606e+00 1.054272351379786254e+00 -1.660892886891637943e+00 1.991974098423478612e+00
5.700364823348694472e+02 -6.539560559588892374e+00 1.132275829003869694e+00 -2.074284865297689073e+00 1.997769251816625680e+00
5.800371223758321548e+02 -6.658978120354048791e+00 1.003152708515593350e+00 -1.416102137813917805e+00 2.032821915753962649e+00
5.900377624167947488e+02 -6.630867590826939661e+00 1.068850939297028013e+00 -1.998735352196696180e+00 1.951805256437742830e+00
