$time(s) data(V)
0.000000000000000000e+00 8.951295000000000779e-02
1.000834028356964167e-01 9.200985000000000413e-02
2.001668056713928334e-01 9.400737000000000676e-02
3.002502085070892779e-01 9.650427000000000310e-02
4.003336113427856668e-01 9.800240999999999814e-02
5.004170141784820558e-01 9.900116999999999945e-02
6.005004170141785558e-01 9.950055000000000704e-02
7.005838198498749447e-01 9.999993000000000076e-02
8.006672226855713337e-01 9.999993000000000076e-02
9.007506255212677226e-01 9.950055000000000704e-02
1.000834028356964112e+00 9.850179000000000573e-02
1.100917431192660612e+00 9.750303000000000442e-02
1.201000834028357112e+00 9.600489000000000939e-02
1.301084236864053389e+00 9.350798999999999916e-02
1.401167639699749889e+00 9.151046999999999654e-02
1.501251042535446167e+00 8.901357000000000019e-02
1.601334445371142667e+00 8.601728999999999625e-02
1.701417848206839167e+00 8.202225000000000488e-02
1.801501251042535445e+00 7.852659000000000722e-02
1.901584653878231945e+00 7.503093000000000956e-02
2.001668056713928223e+00 7.103589000000000431e-02
2.101751459549624723e+00 6.604208999999999774e-02
2.201834862385321223e+00 6.054891000000000439e-02
2.301918265221017723e+00 5.605449000000000542e-02
2.402001668056714223e+00 5.106069000000000579e-02
2.502085070892410279e+00 4.506813000000000485e-02
2.602168473728106779e+00 3.907557000000000391e-02
2.702251876563803279e+00 3.158487000000000100e-02
2.802335279399499779e+00 2.509292999999999940e-02
2.902418682235196279e+00 1.910036999999999846e-02
3.002502085070892335e+00 1.310781000000000099e-02
3.102585487906588835e+00 6.615870000000000258e-03
3.202668890742285335e+00 1.122689999999999973e-03
3.302752293577981835e+00 -4.869870000000000101e-03
3.402835696413678335e+00 -1.086242999999999931e-02
3.502919099249374391e+00 -1.735437000000000091e-02
3.603002502085070891e+00 -2.334693000000000185e-02
3.703085904920767391e+00 -2.884011000000000213e-02
3.803169307756463891e+00 -3.533204999999999679e-02
3.903252710592160390e+00 -4.132460999999999773e-02
4.003336113427856446e+00 -4.681778999999999802e-02
4.103419516263553390e+00 -5.181158999999999765e-02
4.203502919099249446e+00 -5.730476999999999793e-02
4.303586321934945502e+00 -6.279795000000000516e-02
4.403669724770642446e+00 -6.729237000000000413e-02
4.503753127606338502e+00 -7.178679000000000310e-02
4.603836530442035446e+00 -7.678058999999999579e-02
4.703919933277731502e+00 -8.027624999999999345e-02
4.804003336113428446e+00 -8.377191000000000498e-02
4.904086738949124502e+00 -8.726757000000000264e-02
5.004170141784820558e+00 -9.026384999999999270e-02
5.104253544620517502e+00 -9.276075000000000292e-02
5.204336947456213558e+00 -9.475827000000000555e-02
5.304420350291910502e+00 -9.675578999999999430e-02
5.404503753127606558e+00 -9.825393000000000321e-02
5.504587155963302614e+00 -9.925269000000000452e-02
5.604670558798999558e+00 -1.002514500000000058e-01
5.704753961634695614e+00 -1.002514500000000058e-01
5.804837364470392558e+00 -1.002514500000000058e-01
5.904920767306088614e+00 -9.975206999999999824e-02
6.005004170141784670e+00 -9.875330999999999693e-02
6.105087572977481614e+00 -9.775454999999999561e-02
6.205170975813177670e+00 -9.625641000000000058e-02
6.305254378648874614e+00 -9.375951000000000424e-02
6.405337781484570669e+00 -9.126260999999999401e-02
6.505421184320266725e+00 -8.826633000000000395e-02
6.605504587155963669e+00 -8.576942999999999373e-02
6.705587989991659725e+00 -8.227376999999999607e-02
6.805671392827356669e+00 -7.877810999999999841e-02
6.905754795663052725e+00 -7.428368999999999944e-02
7.005838198498748781e+00 -7.028864999999999419e-02
7.105921601334445725e+00 -6.529485000000000150e-02
7.206005004170141781e+00 -6.080042999999999559e-02
7.306088407005838725e+00 -5.480787000000000159e-02
7.406171809841534781e+00 -4.981407000000000196e-02
7.506255212677230837e+00 -4.432089000000000167e-02
7.606338615512927781e+00 -3.882771000000000139e-02
7.706422018348623837e+00 -3.233576999999999979e-02
7.806505421184320781e+00 -2.634321000000000232e-02
7.906588824020016837e+00 -2.085003000000000203e-02
8.006672226855712893e+00 -1.435809000000000044e-02
8.106755629691409837e+00 -7.866150000000000572e-03
8.206839032527106781e+00 -1.374210000000000058e-03
8.306922435362801949e+00 3.120209999999999997e-03
8.407005838198498893e+00 9.112770000000000939e-03
8.507089241034195837e+00 1.610408999999999799e-02
8.607172643869891004e+00 2.209664999999999893e-02
8.707256046705587949e+00 2.808920999999999987e-02
8.807339449541284893e+00 3.408177000000000428e-02
8.907422852376981837e+00 4.057370999999999894e-02
9.007506255212677004e+00 4.556751000000000551e-02
9.107589658048373948e+00 5.156006999999999951e-02
9.207673060884070892e+00 5.655387000000000608e-02
9.307756463719766060e+00 6.154767000000000571e-02
9.407839866555463004e+00 6.604208999999999774e-02
9.507923269391159948e+00 7.153526999999999803e-02
9.608006672226856892e+00 7.702844999999999831e-02
9.708090075062552060e+00 8.052410999999999597e-02
9.808173477898249004e+00 8.401977000000000750e-02
9.908256880733945948e+00 8.751543000000000516e-02
1.000834028356964112e+01 9.001233000000000151e-02
1.010842368640533806e+01 9.250922999999999785e-02
1.020850708924103500e+01 9.450675000000000048e-02
1.030859049207673017e+01 9.700364999999999682e-02
1.040867389491242712e+01 9.850179000000000573e-02
1.050875729774812406e+01 9.900116999999999945e-02
1.060884070058382100e+01 9.999993000000000076e-02
1.070892410341951617e+01 9.999993000000000076e-02
1.080900750625521312e+01 9.999993000000000076e-02
1.090909090909091006e+01 9.950055000000000704e-02
1.100917431192660523e+01 9.850179000000000573e-02
1.110925771476230217e+01 9.700364999999999682e-02
1.120934111759799912e+01 9.550551000000000179e-02
1.130942452043369428e+01 9.350798999999999916e-02
1.140950792326939123e+01 9.101109000000000282e-02
1.150959132610508817e+01 8.801480999999999888e-02
1.160967472894078512e+01 8.501853000000000882e-02
1.170975813177648028e+01 8.152286999999999728e-02
1.180984153461217723e+01 7.752783000000000591e-02
1.190992493744787417e+01 7.353279000000000065e-02
1.201000834028356934e+01 6.953775000000000928e-02
1.211009174311926628e+01 6.404457000000000899e-02
1.221017514595496323e+01 5.955015000000000308e-02
1.231025854879065839e+01 5.455635000000000345e-02
1.241034195162635534e+01 4.956255000000000382e-02
1.251042535446205228e+01 4.307061000000000223e-02
1.261050875729774923e+01 3.757743000000000194e-02
1.271059216013344439e+01 3.108549000000000034e-02
1.281067556296914134e+01 2.559231000000000006e-02
1.291075896580483828e+01 1.959974999999999912e-02
1.301084236864053345e+01 1.360718999999999991e-02
1.311092577147623039e+01 6.615870000000000258e-03
1.321100917431192734e+01 1.122689999999999973e-03
1.331109257714762428e+01 -3.871109999999999655e-03
1.341117597998331945e+01 -1.136180999999999996e-02
1.351125938281901639e+01 -1.735437000000000091e-02
1.361134278565471334e+01 -2.334693000000000185e-02
1.371142618849040851e+01 -2.933949000000000279e-02
1.381150959132610545e+01 -3.533204999999999679e-02
1.391159299416180239e+01 -4.082522999999999708e-02
1.401167639699749756e+01 -4.731716999999999868e-02
1.411175979983319451e+01 -5.231096999999999830e-02
1.421184320266889145e+01 -5.730476999999999793e-02
1.431192660550458839e+01 -6.229856999999999756e-02
1.441201000834028356e+01 -6.729237000000000413e-02
1.451209341117598051e+01 -7.178679000000000310e-02
1.461217681401167745e+01 -7.578182999999999447e-02
1.471226021684737262e+01 -8.027624999999999345e-02
1.481234361968306956e+01 -8.327252999999999739e-02
1.491242702251876651e+01 -8.676818999999999504e-02
1.501251042535446167e+01 -8.926509000000000527e-02
1.511259382819015862e+01 -9.226136999999999533e-02
1.521267723102585556e+01 -9.475827000000000555e-02
1.531276063386155251e+01 -9.625641000000000058e-02
1.541284403669724767e+01 -9.775454999999999561e-02
1.551292743953294462e+01 -9.875330999999999693e-02
1.561301084236864156e+01 -9.975206999999999824e-02
1.571309424520433673e+01 -9.975206999999999824e-02
1.581317764804003367e+01 -9.975206999999999824e-02
1.591326105087573062e+01 -9.925269000000000452e-02
1.601334445371142579e+01 -9.825393000000000321e-02
1.611342785654712273e+01 -9.725517000000000190e-02
1.621351125938281967e+01 -9.575702999999999299e-02
1.631359466221851662e+01 -9.126260999999999401e-02
1.641367806505421356e+01 -8.826633000000000395e-02
1.651376146788991051e+01 -8.826633000000000395e-02
1.661384487072560390e+01 -8.177439000000000235e-02
1.671392827356130084e+01 -7.827873000000000470e-02
1.681401167639699779e+01 -7.378431000000000572e-02
1.691409507923269473e+01 -6.978927000000000047e-02
1.701417848206839167e+01 -6.529485000000000150e-02
1.711426188490408862e+01 -5.980167000000000121e-02
1.721434528773978201e+01 -5.480787000000000159e-02
1.731442869057547895e+01 -4.831592999999999999e-02
1.741451209341117590e+01 -4.282274999999999970e-02
1.751459549624687284e+01 -3.583142999999999745e-02
1.761467889908256979e+01 -3.033825000000000063e-02
1.771476230191826673e+01 -2.434569000000000316e-02
1.781484570475396367e+01 -1.885251000000000288e-02
1.791492910758965706e+01 -1.236056999999999954e-02
1.801501251042535401e+01 -5.369249999999999891e-03
1.811509591326105095e+01 1.239299999999999603e-04
1.821517931609674790e+01 5.117730000000000022e-03
1.831526271893244484e+01 1.210904999999999967e-02
1.841534612176814178e+01 1.810160999999999715e-02
1.851542952460383873e+01 2.409416999999999809e-02
1.861551292743953212e+01 2.958734999999999837e-02
1.871559633027522906e+01 3.607928999999999997e-02
1.881567973311092601e+01 4.207185000000000091e-02
1.891576313594662295e+01 4.756503000000000120e-02
1.901584653878231990e+01 5.355759000000000214e-02
1.911592994161801684e+01 5.805201000000000111e-02
1.921601334445371378e+01 6.304580999999999380e-02
1.931609674728940718e+01 6.803961000000000037e-02
1.941618015012510412e+01 7.253402999999999934e-02
1.951626355296080106e+01 7.652907000000000459e-02
1.961634695579649801e+01 8.052410999999999597e-02
1.971643035863219495e+01 8.401977000000000750e-02
1.981651376146789190e+01 8.701604999999999757e-02
1.991659716430358529e+01 9.001233000000000151e-02
2.001668056713928223e+01 9.250922999999999785e-02
2.011676396997497918e+01 9.450675000000000048e-02
2.021684737281067612e+01 9.650427000000000310e-02
2.031693077564637306e+01 9.800240999999999814e-02
2.041701417848207001e+01 9.900116999999999945e-02
2.051709758131776695e+01 9.999993000000000076e-02
2.061718098415346034e+01 9.999993000000000076e-02
2.071726438698915729e+01 9.999993000000000076e-02
2.081734778982485423e+01 9.950055000000000704e-02
2.091743119266055118e+01 9.850179000000000573e-02
2.101751459549624812e+01 9.700364999999999682e-02
2.111759799833194506e+01 9.500613000000000807e-02
2.121768140116764201e+01 9.350798999999999916e-02
2.131776480400333540e+01 9.051171000000000910e-02
2.141784820683903234e+01 8.801480999999999888e-02
2.151793160967472929e+01 8.501853000000000882e-02
2.161801501251042623e+01 8.102349000000000356e-02
2.171809841534612318e+01 7.802720999999999962e-02
2.181818181818182012e+01 7.403217000000000825e-02
2.191826522101751351e+01 6.953775000000000928e-02
2.201834862385321046e+01 6.404457000000000899e-02
2.211843202668890740e+01 5.955015000000000308e-02
2.221851542952460434e+01 5.455635000000000345e-02
2.231859883236030129e+01 4.856379000000000251e-02
2.241868223519599823e+01 4.307061000000000223e-02
2.251876563803169518e+01 3.757743000000000194e-02
2.261884904086738857e+01 3.108549000000000034e-02
2.271893244370308551e+01 2.559231000000000006e-02
2.281901584653878245e+01 1.910036999999999846e-02
2.291909924937447940e+01 1.260843000000000033e-02
2.301918265221017634e+01 6.615870000000000258e-03
2.311926605504587329e+01 6.233099999999999665e-04
2.321934945788157023e+01 -4.370489999999999445e-03
2.331943286071726362e+01 -1.136180999999999996e-02
2.341951626355296057e+01 -1.735437000000000091e-02
2.351959966638865751e+01 -2.334693000000000185e-02
2.361968306922435445e+01 -2.933949000000000279e-02
2.371976647206005140e+01 -3.583142999999999745e-02
2.381984987489574834e+01 -4.182398999999999839e-02
2.391993327773144529e+01 -4.731716999999999868e-02
2.402001668056713868e+01 -5.231096999999999830e-02
2.412010008340283562e+01 -5.730476999999999793e-02
2.422018348623853257e+01 -6.279795000000000516e-02
2.432026688907422951e+01 -6.779174999999999784e-02
2.442035029190992645e+01 -7.228616999999999682e-02
2.452043369474562340e+01 -7.628121000000000207e-02
2.462051709758131679e+01 -8.027624999999999345e-02
2.472060050041701373e+01 -8.427128999999999870e-02
2.482068390325271068e+01 -8.726757000000000264e-02
2.492076730608840762e+01 -8.976446999999999898e-02
2.502085070892410457e+01 -9.276075000000000292e-02
2.512093411175980151e+01 -9.525764999999999927e-02
2.522101751459549845e+01 -9.675578999999999430e-02
2.532110091743119185e+01 -9.825393000000000321e-02
2.542118432026688879e+01 -9.925269000000000452e-02
2.552126772310258573e+01 -1.002514500000000058e-01
2.562135112593828268e+01 -1.002514500000000058e-01
2.572143452877397962e+01 -1.002514500000000058e-01
2.582151793160967657e+01 -9.975206999999999824e-02
2.592160133444537351e+01 -9.875330999999999693e-02
2.602168473728106690e+01 -9.775454999999999561e-02
2.612176814011676385e+01 -9.625641000000000058e-02
2.622185154295246079e+01 -9.375951000000000424e-02
2.632193494578815773e+01 -9.126260999999999401e-02
2.642201834862385468e+01 -8.876570999999999767e-02
2.652210175145955162e+01 -8.527005000000000001e-02
2.662218515429524857e+01 -8.077563000000000104e-02
2.672226855713094196e+01 -7.678058999999999579e-02
2.682235195996663890e+01 -7.278555000000000441e-02
2.692243536280233585e+01 -6.829113000000000544e-02
2.702251876563803279e+01 -6.329732999999999887e-02
2.712260216847372973e+01 -5.880290999999999990e-02
2.722268557130942668e+01 -5.281034999999999896e-02
2.732276897414512007e+01 -4.781654999999999933e-02
2.742285237698081701e+01 -4.282274999999999970e-02
2.752293577981651396e+01 -3.633080999999999811e-02
2.762301918265221090e+01 -3.083763000000000129e-02
2.772310258548790785e+01 -2.434569000000000316e-02
2.782318598832360479e+01 -1.835313000000000222e-02
2.792326939115930173e+01 -1.186119000000000062e-02
2.802335279399499512e+01 -5.868629999999999680e-03
2.812343619683069207e+01 1.239299999999999603e-04
2.822351959966638901e+01 6.116490000000000468e-03
2.832360300250208596e+01 1.160967000000000075e-02
2.842368640533778290e+01 1.810160999999999715e-02
2.852376980817347984e+01 2.459354999999999875e-02
2.862385321100917679e+01 3.058610999999999969e-02
2.872393661384487018e+01 3.607928999999999997e-02
2.882402001668056712e+01 4.157247000000000026e-02
2.892410341951626407e+01 4.806441000000000185e-02
2.902418682235196101e+01 5.305821000000000148e-02
2.912427022518765796e+01 5.805201000000000111e-02
2.922435362802335490e+01 6.354519000000000140e-02
2.932443703085905184e+01 6.803961000000000037e-02
2.942452043369474524e+01 7.253402999999999934e-02
2.952460383653044218e+01 7.652907000000000459e-02
2.962468723936613912e+01 8.052410999999999597e-02
2.972477064220183607e+01 8.401977000000000750e-02
2.982485404503753301e+01 8.751543000000000516e-02
2.992493744787322996e+01 9.001233000000000151e-02
3.002502085070892335e+01 9.300861000000000545e-02
3.012510425354462029e+01 9.500613000000000807e-02
3.022518765638031724e+01 9.700364999999999682e-02
3.032527105921601418e+01 9.800240999999999814e-02
3.042535446205171112e+01 9.900116999999999945e-02
3.052543786488740807e+01 9.999993000000000076e-02
3.062552126772310501e+01 9.999993000000000076e-02
3.072560467055879840e+01 9.999993000000000076e-02
3.082568807339449535e+01 9.950055000000000704e-02
3.092577147623019229e+01 9.850179000000000573e-02
3.102585487906588924e+01 9.700364999999999682e-02
3.112593828190158618e+01 9.500613000000000807e-02
3.122602168473728312e+01 9.300861000000000545e-02
3.132610508757298007e+01 9.051171000000000910e-02
3.142618849040867346e+01 8.801480999999999888e-02
3.152627189324437040e+01 8.501853000000000882e-02
3.162635529608006735e+01 8.152286999999999728e-02
3.172643869891576429e+01 7.752783000000000591e-02
3.182652210175146124e+01 7.353279000000000065e-02
3.192660550458715818e+01 6.903837000000000168e-02
3.202668890742285157e+01 6.454395000000000271e-02
3.212677231025855207e+01 5.905077000000000242e-02
3.222685571309424546e+01 5.405697000000000280e-02
3.232693911592994596e+01 4.906317000000000317e-02
3.242702251876563935e+01 4.406937000000000354e-02
3.252710592160133274e+01 3.557990999999999931e-02
3.262718932443703324e+01 2.958734999999999837e-02
3.272727272727272663e+01 2.409416999999999809e-02
3.282735613010842712e+01 1.810160999999999715e-02
3.292743953294412051e+01 1.111029000000000010e-02
3.302752293577982101e+01 5.117730000000000022e-03
3.312760633861551440e+01 1.239299999999999603e-04
3.322768974145120779e+01 -5.868629999999999680e-03
3.332777314428690829e+01 -1.285995000000000020e-02
3.342785654712260168e+01 -1.885251000000000288e-02
3.352793994995830218e+01 -2.434569000000000316e-02
3.362802335279399557e+01 -3.033825000000000063e-02
3.372810675562968896e+01 -3.683018999999999876e-02
3.382819015846538946e+01 -4.232336999999999905e-02
3.392827356130108285e+01 -4.781654999999999933e-02
3.402835696413678335e+01 -5.380911000000000027e-02
3.412844036697247674e+01 -5.880290999999999990e-02
3.422852376980817724e+01 -6.329732999999999887e-02
3.432860717264387063e+01 -6.829113000000000544e-02
3.442869057547956402e+01 -7.228616999999999682e-02
3.452877397831526451e+01 -7.727997000000000338e-02
3.462885738115095791e+01 -8.077563000000000104e-02
3.472894078398665840e+01 -8.427128999999999870e-02
3.482902418682235179e+01 -8.726757000000000264e-02
3.492910758965805229e+01 -9.026384999999999270e-02
3.502919099249374568e+01 -9.276075000000000292e-02
3.512927439532943907e+01 -9.525764999999999927e-02
3.522935779816513957e+01 -9.675578999999999430e-02
3.532944120100083296e+01 -9.825393000000000321e-02
3.542952460383653346e+01 -9.925269000000000452e-02
3.552960800667222685e+01 -9.975206999999999824e-02
3.562969140950792735e+01 -9.975206999999999824e-02
3.572977481234362074e+01 -9.975206999999999824e-02
3.582985821517931413e+01 -9.925269000000000452e-02
3.592994161801501463e+01 -9.825393000000000321e-02
3.603002502085070802e+01 -9.675578999999999430e-02
3.613010842368640851e+01 -9.525764999999999927e-02
3.623019182652210191e+01 -9.276075000000000292e-02
3.633027522935780240e+01 -9.076323000000000030e-02
3.643035863219349579e+01 -8.776694999999999636e-02
3.653044203502918919e+01 -8.427128999999999870e-02
3.663052543786488968e+01 -8.127500999999999476e-02
3.673060884070058307e+01 -7.678058999999999579e-02
3.683069224353628357e+01 -7.278555000000000441e-02
3.693077564637197696e+01 -6.879050999999999916e-02
3.703085904920767746e+01 -6.329732999999999887e-02
3.713094245204337085e+01 -5.880290999999999990e-02
3.723102585487906424e+01 -5.380911000000000027e-02
3.733110925771476474e+01 -4.881531000000000065e-02
3.743119266055045813e+01 -4.332213000000000036e-02
3.753127606338615863e+01 -3.633080999999999811e-02
3.763135946622185202e+01 -3.083763000000000129e-02
3.773144286905755251e+01 -2.534445000000000101e-02
3.783152627189324591e+01 -1.935189000000000006e-02
3.793160967472893930e+01 -1.335933000000000086e-02
3.803169307756463979e+01 -6.368010000000000337e-03
3.813177648040033318e+01 -3.754500000000000458e-04
3.823185988323603368e+01 6.615870000000000258e-03
3.833194328607172707e+01 1.260843000000000033e-02
3.843202668890742757e+01 1.959974999999999912e-02
3.853211009174312096e+01 2.559231000000000006e-02
3.863219349457881435e+01 3.208425000000000166e-02
3.873227689741451485e+01 3.757743000000000194e-02
3.883236030025020824e+01 4.307061000000000223e-02
3.893244370308590874e+01 4.856379000000000251e-02
3.903252710592160213e+01 5.405697000000000280e-02
3.913261050875729552e+01 5.955015000000000308e-02
3.923269391159299602e+01 6.404457000000000899e-02
3.933277731442868941e+01 6.853899000000000796e-02
3.943286071726438990e+01 7.303341000000000693e-02
3.953294412010008330e+01 7.752783000000000591e-02
3.963302752293578379e+01 8.102349000000000356e-02
3.973311092577147718e+01 8.501853000000000882e-02
3.983319432860717058e+01 8.801480999999999888e-02
3.993327773144287107e+01 9.051171000000000910e-02
4.003336113427856446e+01 9.300861000000000545e-02
4.013344453711426496e+01 9.500613000000000807e-02
4.023352793994995835e+01 9.700364999999999682e-02
4.033361134278565885e+01 9.850179000000000573e-02
4.043369474562135224e+01 9.950055000000000704e-02
4.053377814845704563e+01 9.999993000000000076e-02
4.063386155129274613e+01 9.999993000000000076e-02
4.073394495412843952e+01 9.999993000000000076e-02
4.083402835696414002e+01 9.950055000000000704e-02
4.093411175979983341e+01 9.850179000000000573e-02
4.103419516263553390e+01 9.700364999999999682e-02
4.113427856547122730e+01 9.500613000000000807e-02
4.123436196830692069e+01 9.300861000000000545e-02
4.133444537114262118e+01 9.051171000000000910e-02
4.143452877397831458e+01 8.801480999999999888e-02
4.153461217681401507e+01 8.451915000000000122e-02
4.163469557964970846e+01 8.102349000000000356e-02
4.173477898248540896e+01 7.702844999999999831e-02
4.183486238532110235e+01 7.353279000000000065e-02
4.193494578815679574e+01 6.903837000000000168e-02
4.203502919099249624e+01 6.404457000000000899e-02
4.213511259382818963e+01 5.855139000000000177e-02
4.223519599666389013e+01 5.405697000000000280e-02
4.233527939949958352e+01 4.906317000000000317e-02
4.243536280233528402e+01 4.257123000000000157e-02
4.253544620517097741e+01 3.707805000000000129e-02
4.263552960800667080e+01 3.108549000000000034e-02
4.273561301084237130e+01 2.459354999999999875e-02
4.283569641367806469e+01 1.910036999999999846e-02
4.293577981651376518e+01 1.260843000000000033e-02
4.303586321934945857e+01 6.615870000000000258e-03
4.313594662218515907e+01 6.233099999999999665e-04
4.323603002502085246e+01 -4.869870000000000101e-03
4.333611342785654585e+01 -1.086242999999999931e-02
4.343619683069224635e+01 -1.935189000000000006e-02
4.353628023352793974e+01 -2.634321000000000232e-02
4.363636363636364024e+01 -3.183638999999999913e-02
4.373644703919933363e+01 -3.732956999999999942e-02
4.383653044203502702e+01 -4.332213000000000036e-02
4.393661384487072752e+01 -4.881531000000000065e-02
4.403669724770642091e+01 -5.480787000000000159e-02
4.413678065054212141e+01 -5.980167000000000121e-02
4.423686405337781480e+01 -6.429609000000000019e-02
4.433694745621351530e+01 -6.928988999999999288e-02
4.443703085904920869e+01 -7.378431000000000572e-02
4.453711426188490208e+01 -7.827873000000000470e-02
4.463719766472060257e+01 -8.177439000000000235e-02
4.473728106755629597e+01 -8.527005000000000001e-02
4.483736447039199646e+01 -8.826633000000000395e-02
4.493744787322768985e+01 -9.076323000000000030e-02
4.503753127606339035e+01 -9.326012999999999664e-02
4.513761467889908374e+01 -9.575702999999999299e-02
4.523769808173477713e+01 -9.775454999999999561e-02
4.533778148457047763e+01 -9.875330999999999693e-02
4.543786488740617102e+01 -9.975206999999999824e-02
4.553794829024187152e+01 -1.002514500000000058e-01
4.563803169307756491e+01 -1.002514500000000058e-01
4.573811509591326541e+01 -1.002514500000000058e-01
4.583819849874895880e+01 -9.975206999999999824e-02
4.593828190158465219e+01 -9.825393000000000321e-02
4.603836530442035269e+01 -9.725517000000000190e-02
4.613844870725604608e+01 -9.525764999999999927e-02
4.623853211009174657e+01 -9.276075000000000292e-02
4.633861551292743997e+01 -9.026384999999999270e-02
4.643869891576314046e+01 -8.726757000000000264e-02
4.653878231859883385e+01 -8.427128999999999870e-02
4.663886572143452725e+01 -8.127500999999999476e-02
4.673894912427022774e+01 -7.678058999999999579e-02
4.683903252710592113e+01 -7.328492999999999813e-02
4.693911592994162163e+01 -6.829113000000000544e-02
4.703919933277731502e+01 -6.329732999999999887e-02
4.713928273561301552e+01 -5.830352999999999924e-02
4.723936613844870891e+01 -5.380911000000000027e-02
4.733944954128440230e+01 -4.781654999999999933e-02
4.743953294412010280e+01 -4.232336999999999905e-02
4.753961634695579619e+01 -3.633080999999999811e-02
4.763969974979149669e+01 -3.083763000000000129e-02
4.773978315262719008e+01 -2.384631000000000250e-02
4.783986655546289057e+01 -1.835313000000000222e-02
4.793994995829858397e+01 -1.186119000000000062e-02
4.804003336113427736e+01 -5.868629999999999680e-03
4.814011676396997785e+01 1.239299999999999603e-04
4.824020016680567124e+01 5.617109999999999811e-03
4.834028356964137174e+01 1.160967000000000075e-02
4.844036697247706513e+01 1.860098999999999780e-02
4.854045037531276563e+01 2.459354999999999875e-02
4.864053377814845902e+01 3.058610999999999969e-02
4.874061718098415241e+01 3.607928999999999997e-02
4.884070058381985291e+01 4.257123000000000157e-02
4.894078398665554630e+01 4.806441000000000185e-02
4.904086738949124680e+01 5.305821000000000148e-02
4.914095079232694019e+01 6.004953000000000374e-02
4.924103419516263358e+01 6.454395000000000271e-02
4.934111759799833408e+01 7.003713000000000299e-02
4.944120100083402747e+01 7.403217000000000825e-02
4.954128440366972796e+01 7.802720999999999962e-02
4.964136780650542136e+01 8.152286999999999728e-02
4.974145120934112185e+01 8.551791000000000254e-02
4.984153461217681524e+01 8.851419000000000648e-02
4.994161801501250864e+01 9.101109000000000282e-02
5.004170141784820913e+01 9.350798999999999916e-02
5.014178482068390252e+01 9.550551000000000179e-02
5.024186822351960302e+01 9.750303000000000442e-02
5.034195162635529641e+01 9.850179000000000573e-02
5.044203502919099691e+01 9.950055000000000704e-02
5.054211843202669030e+01 9.999993000000000076e-02
5.064220183486238369e+01 9.999993000000000076e-02
5.074228523769808419e+01 9.999993000000000076e-02
5.084236864053377758e+01 9.900116999999999945e-02
5.094245204336947808e+01 9.800240999999999814e-02
5.104253544620517147e+01 9.650427000000000310e-02
5.114261884904087196e+01 9.450675000000000048e-02
5.124270225187656536e+01 9.250922999999999785e-02
5.134278565471225875e+01 8.951295000000000779e-02
5.144286905754795924e+01 8.701604999999999757e-02
5.154295246038365264e+01 8.352038999999999991e-02
5.164303586321935313e+01 8.002473000000000225e-02
5.174311926605504652e+01 7.652907000000000459e-02
5.184320266889074702e+01 7.203465000000000562e-02
5.194328607172644041e+01 6.704084999999999905e-02
5.204336947456213380e+01 6.254643000000000008e-02
5.214345287739783430e+01 5.805201000000000111e-02
5.224353628023352769e+01 5.255883000000000083e-02
5.234361968306922819e+01 4.756503000000000120e-02
5.244370308590492158e+01 4.157247000000000026e-02
5.254378648874062208e+01 3.607928999999999997e-02
5.264386989157631547e+01 3.008672999999999903e-02
5.274395329441200886e+01 2.309541000000000024e-02
5.284403669724770936e+01 1.710284999999999930e-02
5.294412010008340275e+01 1.160967000000000075e-02
5.304420350291910324e+01 5.117730000000000022e-03
5.314428690575479663e+01 -3.754500000000000458e-04
5.324437030859049713e+01 -6.368010000000000337e-03
5.334445371142619052e+01 -1.236056999999999954e-02
5.344453711426188391e+01 -1.835313000000000222e-02
5.354462051709758441e+01 -2.484507000000000035e-02
5.364470391993327780e+01 -3.083763000000000129e-02
5.374478732276897830e+01 -3.633080999999999811e-02
5.384487072560467169e+01 -4.232336999999999905e-02
5.394495412844036508e+01 -4.831592999999999999e-02
5.404503753127606558e+01 -5.330972999999999962e-02
5.414512093411175897e+01 -5.830352999999999924e-02
5.424520433694745947e+01 -6.329732999999999887e-02
5.434528773978315286e+01 -6.879050999999999916e-02
5.444537114261885336e+01 -7.278555000000000441e-02
5.454545454545454675e+01 -7.678058999999999579e-02
5.464553794829024014e+01 -8.077563000000000104e-02
5.474562135112594063e+01 -8.427128999999999870e-02
5.484570475396163403e+01 -8.726757000000000264e-02
5.494578815679733452e+01 -9.026384999999999270e-02
5.504587155963302791e+01 -9.375951000000000424e-02
5.514595496246872841e+01 -9.575702999999999299e-02
5.524603836530442180e+01 -9.725517000000000190e-02
5.534612176814011519e+01 -9.825393000000000321e-02
5.544620517097581569e+01 -9.925269000000000452e-02
5.554628857381150908e+01 -9.975206999999999824e-02
5.564637197664720958e+01 -9.975206999999999824e-02
5.574645537948290297e+01 -9.975206999999999824e-02
5.584653878231860347e+01 -9.925269000000000452e-02
5.594662218515429686e+01 -9.775454999999999561e-02
5.604670558798999025e+01 -9.625641000000000058e-02
5.614678899082569075e+01 -9.475827000000000555e-02
5.624687239366138414e+01 -9.226136999999999533e-02
5.634695579649708463e+01 -8.976446999999999898e-02
5.644703919933277803e+01 -8.626881000000000133e-02
5.654712260216847852e+01 -8.327252999999999739e-02
5.664720600500417191e+01 -7.977686999999999973e-02
5.674728940783986531e+01 -7.578182999999999447e-02
5.684737281067556580e+01 -7.178679000000000310e-02
5.694745621351125919e+01 -6.729237000000000413e-02
5.704753961634695969e+01 -6.229856999999999756e-02
5.714762301918265308e+01 -5.730476999999999793e-02
5.724770642201835358e+01 -5.231096999999999830e-02
5.734778982485404697e+01 -4.681778999999999802e-02
5.744787322768974036e+01 -4.182398999999999839e-02
5.754795663052544086e+01 -3.483266999999999614e-02
5.764804003336113425e+01 -2.933949000000000279e-02
5.774812343619683475e+01 -2.334693000000000185e-02
5.784820683903252814e+01 -1.735437000000000091e-02
5.794829024186822863e+01 -1.036305000000000039e-02
5.804837364470392203e+01 -4.370489999999999445e-03
5.814845704753961542e+01 6.233099999999999665e-04
5.824854045037531591e+01 6.116490000000000468e-03
5.834862385321100930e+01 1.310781000000000099e-02
5.844870725604670980e+01 1.910036999999999846e-02
5.854879065888240319e+01 2.509292999999999940e-02
5.864887406171810369e+01 3.158487000000000100e-02
5.874895746455379708e+01 3.707805000000000129e-02
5.884904086738949047e+01 4.307061000000000223e-02
5.894912427022519097e+01 4.806441000000000185e-02
5.904920767306088436e+01 5.455635000000000345e-02
5.914929107589658486e+01 5.905077000000000242e-02
5.924937447873227825e+01 6.404457000000000899e-02
5.934945788156797164e+01 6.853899000000000796e-02
5.944954128440367214e+01 7.353279000000000065e-02
5.954962468723936553e+01 7.752783000000000591e-02
5.964970809007506602e+01 8.102349000000000356e-02
5.974979149291075942e+01 8.451915000000000122e-02
5.984987489574645991e+01 8.801480999999999888e-02
5.994995829858215330e+01 9.051171000000000910e-02
6.005004170141784670e+01 9.300861000000000545e-02
6.015012510425354719e+01 9.500613000000000807e-02
6.025020850708924058e+01 9.700364999999999682e-02
6.035029190992494108e+01 9.850179000000000573e-02
6.045037531276063447e+01 9.950055000000000704e-02
6.055045871559633497e+01 9.999993000000000076e-02
6.065054211843202836e+01 9.999993000000000076e-02
6.075062552126772175e+01 9.999993000000000076e-02
6.085070892410342225e+01 9.950055000000000704e-02
6.095079232693911564e+01 9.800240999999999814e-02
6.105087572977481614e+01 9.700364999999999682e-02
6.115095913261050953e+01 9.400737000000000676e-02
6.125104253544621002e+01 9.200985000000000413e-02
6.135112593828190342e+01 8.951295000000000779e-02
6.145120934111759681e+01 8.651667000000000385e-02
6.155129274395329730e+01 8.352038999999999991e-02
6.165137614678899070e+01 7.952535000000000853e-02
6.175145954962469119e+01 7.553031000000000328e-02
6.185154295246038458e+01 7.153526999999999803e-02
6.195162635529608508e+01 6.604208999999999774e-02
6.205170975813177847e+01 6.204704999999999943e-02
6.215179316096747186e+01 5.705324999999999980e-02
6.225187656380317236e+01 5.156006999999999951e-02
6.235195996663886575e+01 4.656626999999999988e-02
6.245204336947456625e+01 4.057370999999999894e-02
6.255212677231025964e+01 3.408177000000000428e-02
6.265221017514596014e+01 2.858859000000000053e-02
6.275229357798165353e+01 2.309541000000000024e-02
6.285237698081734692e+01 1.610408999999999799e-02
6.295246038365304742e+01 9.612149999999999861e-03
6.305254378648874081e+01 3.619589999999999787e-03
6.315262718932444130e+01 -8.748300000000000520e-04
6.325271059216013469e+01 -7.866150000000000572e-03
6.335279399499583519e+01 -1.385870999999999978e-02
6.345287739783152858e+01 -1.985127000000000072e-02
6.355296080066722197e+01 -2.584383000000000166e-02
6.365304420350292247e+01 -3.233576999999999979e-02
6.375312760633861586e+01 -3.782895000000000008e-02
6.385321100917431636e+01 -4.382151000000000102e-02
6.395329441201000975e+01 -4.931469000000000130e-02
6.405337781484570314e+01 -5.430849000000000093e-02
6.415346121768139653e+01 -6.030105000000000187e-02
6.425354462051710414e+01 -6.479546999999999390e-02
6.435362802335279753e+01 -6.978927000000000047e-02
6.445371142618849092e+01 -7.378431000000000572e-02
6.455379482902418431e+01 -7.827873000000000470e-02
6.465387823185989191e+01 -8.177439000000000235e-02
6.475396163469558530e+01 -8.527005000000000001e-02
6.485404503753127869e+01 -8.876570999999999767e-02
6.495412844036697209e+01 -9.126260999999999401e-02
6.505421184320266548e+01 -9.375951000000000424e-02
6.515429524603837308e+01 -9.625641000000000058e-02
6.525437864887406647e+01 -9.775454999999999561e-02
6.535446205170975986e+01 -9.875330999999999693e-02
6.545454545454545325e+01 -9.975206999999999824e-02
6.555462885738114664e+01 -1.002514500000000058e-01
6.565471226021685425e+01 -1.002514500000000058e-01
6.575479566305254764e+01 -1.002514500000000058e-01
6.585487906588824103e+01 -9.925269000000000452e-02
6.595496246872393442e+01 -9.825393000000000321e-02
6.605504587155964202e+01 -9.725517000000000190e-02
6.615512927439533541e+01 -9.525764999999999927e-02
6.625521267723102881e+01 -9.276075000000000292e-02
6.635529608006672220e+01 -9.026384999999999270e-02
6.645537948290241559e+01 -8.726757000000000264e-02
6.655546288573812319e+01 -8.427128999999999870e-02
6.665554628857381658e+01 -8.027624999999999345e-02
6.675562969140950997e+01 -7.678058999999999579e-02
6.685571309424520337e+01 -7.228616999999999682e-02
6.695579649708089676e+01 -6.779174999999999784e-02
6.705587989991660436e+01 -6.179918999999999690e-02
6.715596330275229775e+01 -5.680538999999999727e-02
6.725604670558799114e+01 -5.081282999999999633e-02
6.735613010842368453e+01 -4.581902999999999671e-02
6.745621351125937792e+01 -4.032584999999999642e-02
6.755629691409508553e+01 -3.433328999999999548e-02
6.765638031693077892e+01 -2.834073000000000148e-02
6.775646371976647231e+01 -2.234817000000000053e-02
6.785654712260216570e+01 -1.585623000000000241e-02
6.795663052543787330e+01 -9.364289999999999073e-03
6.805671392827356669e+01 -3.371729999999999866e-03
6.815679733110926009e+01 1.622069999999999979e-03
6.825688073394495348e+01 8.114009999999999626e-03
6.835696413678064687e+01 1.460595000000000122e-02
6.845704753961635447e+01 2.059850999999999696e-02
6.855713094245204786e+01 2.709044999999999856e-02
6.865721434528774125e+01 3.308301000000000297e-02
6.875729774812343464e+01 3.857619000000000326e-02
6.885738115095912804e+01 4.406937000000000354e-02
6.895746455379483564e+01 4.956255000000000382e-02
6.905754795663052903e+01 5.505573000000000411e-02
6.915763135946622242e+01 6.054891000000000439e-02
6.925771476230191581e+01 6.504332999999999643e-02
6.935779816513762341e+01 7.003713000000000299e-02
6.945788156797331681e+01 7.453155000000000197e-02
6.955796497080901020e+01 7.852659000000000722e-02
6.965804837364470359e+01 8.202225000000000488e-02
6.975813177648039698e+01 8.551791000000000254e-02
6.985821517931610458e+01 8.851419000000000648e-02
6.995829858215179797e+01 9.101109000000000282e-02
7.005838198498749136e+01 9.350798999999999916e-02
7.015846538782318476e+01 9.550551000000000179e-02
7.025854879065887815e+01 9.750303000000000442e-02
7.035863219349458575e+01 9.850179000000000573e-02
7.045871559633027914e+01 9.950055000000000704e-02
7.055879899916597253e+01 9.999993000000000076e-02
7.065888240200166592e+01 9.999993000000000076e-02
7.075896580483737353e+01 9.999993000000000076e-02
7.085904920767306692e+01 9.900116999999999945e-02
7.095913261050876031e+01 9.800240999999999814e-02
7.105921601334445370e+01 9.650427000000000310e-02
7.115929941618014709e+01 9.450675000000000048e-02
7.125938281901585469e+01 9.250922999999999785e-02
7.135946622185154808e+01 8.951295000000000779e-02
7.145954962468724148e+01 8.651667000000000385e-02
7.155963302752293487e+01 8.352038999999999991e-02
7.165971643035862826e+01 8.002473000000000225e-02
7.175979983319433586e+01 7.553031000000000328e-02
7.185988323603002925e+01 7.153526999999999803e-02
7.195996663886572264e+01 6.704084999999999905e-02
7.206005004170141603e+01 6.204704999999999943e-02
7.216013344453710943e+01 5.705324999999999980e-02
7.226021684737281703e+01 5.205945000000000017e-02
7.236030025020851042e+01 4.606688999999999923e-02
7.246038365304420381e+01 4.057370999999999894e-02
7.256046705587989720e+01 3.508053000000000560e-02
7.266055045871560480e+01 2.958734999999999837e-02
7.276063386155129820e+01 2.259602999999999959e-02
7.286071726438699159e+01 1.660346999999999865e-02
7.296080066722268498e+01 1.061090999999999944e-02
7.306088407005837837e+01 3.619589999999999787e-03
7.316096747289408597e+01 -8.748300000000000520e-04
7.326105087572977936e+01 -6.867390000000000126e-03
7.336113427856547275e+01 -1.335933000000000086e-02
7.346121768140116615e+01 -1.985127000000000072e-02
7.356130108423685954e+01 -2.534445000000000101e-02
7.366138448707256714e+01 -3.133700999999999848e-02
7.376146788990826053e+01 -3.982646999999999576e-02
7.386155129274395392e+01 -4.531964999999999605e-02
7.396163469557964731e+01 -5.031344999999999568e-02
7.406171809841535492e+01 -5.530725000000000224e-02
7.416180150125104831e+01 -6.129980999999999625e-02
7.426188490408674170e+01 -6.579422999999999522e-02
7.436196830692243509e+01 -7.028864999999999419e-02
7.446205170975812848e+01 -7.428368999999999944e-02
7.456213511259383608e+01 -7.877810999999999841e-02
7.466221851542952948e+01 -8.227376999999999607e-02
7.476230191826522287e+01 -8.876570999999999767e-02
7.486238532110091626e+01 -9.126260999999999401e-02
7.496246872393660965e+01 -9.375951000000000424e-02
7.506255212677231725e+01 -9.575702999999999299e-02
7.516263552960801064e+01 -9.725517000000000190e-02
7.526271893244370403e+01 -9.875330999999999693e-02
7.536280233527939743e+01 -9.925269000000000452e-02
7.546288573811510503e+01 -9.975206999999999824e-02
7.556296914095079842e+01 -9.975206999999999824e-02
7.566305254378649181e+01 -9.925269000000000452e-02
7.576313594662218520e+01 -9.875330999999999693e-02
7.586321934945787859e+01 -9.775454999999999561e-02
7.596330275229358620e+01 -9.625641000000000058e-02
7.606338615512927959e+01 -9.425888999999999796e-02
7.616346955796497298e+01 -9.126260999999999401e-02
7.626355296080066637e+01 -8.876570999999999767e-02
7.636363636363635976e+01 -8.626881000000000133e-02
7.646371976647206736e+01 -8.327252999999999739e-02
7.656380316930776075e+01 -7.927748999999999213e-02
7.666388657214345415e+01 -7.528245000000000076e-02
7.676396997497914754e+01 -7.128740999999999550e-02
7.686405337781485514e+01 -6.679298999999999653e-02
7.696413678065054853e+01 -6.129980999999999625e-02
7.706422018348624192e+01 -5.680538999999999727e-02
7.716430358632193531e+01 -5.131220999999999699e-02
7.726438698915762870e+01 -4.531964999999999605e-02
7.736447039199333631e+01 -3.982646999999999576e-02
7.746455379482902970e+01 -3.433328999999999548e-02
7.756463719766472309e+01 -2.884011000000000213e-02
7.766472060050041648e+01 -2.284755000000000119e-02
7.776480400333610987e+01 -1.585623000000000241e-02
7.786488740617181747e+01 -9.863669999999999730e-03
7.796497080900751087e+01 -3.871109999999999655e-03
7.806505421184320426e+01 1.622069999999999979e-03
7.816513761467889765e+01 7.614630000000000704e-03
7.826522101751459104e+01 1.360718999999999991e-02
7.836530442035029864e+01 1.959974999999999912e-02
7.846538782318599203e+01 2.609168999999999725e-02
7.856547122602168542e+01 3.208425000000000166e-02
7.866555462885737882e+01 3.757743000000000194e-02
7.876563803169308642e+01 4.356999000000000288e-02
7.886572143452877981e+01 4.906317000000000317e-02
7.896580483736447320e+01 5.455635000000000345e-02
7.906588824020016659e+01 5.955015000000000308e-02
7.916597164303585998e+01 6.454395000000000271e-02
7.926605504587156759e+01 7.003713000000000299e-02
7.936613844870726098e+01 7.403217000000000825e-02
7.946622185154295437e+01 7.902597000000000094e-02
7.956630525437864776e+01 8.252162999999999859e-02
7.966638865721434115e+01 8.601728999999999625e-02
7.976647206005004875e+01 8.901357000000000019e-02
7.986655546288574214e+01 9.151046999999999654e-02
7.996663886572143554e+01 9.400737000000000676e-02
8.006672226855712893e+01 9.600489000000000939e-02
8.016680567139283653e+01 9.750303000000000442e-02
8.026688907422852992e+01 9.900116999999999945e-02
8.036697247706422331e+01 9.950055000000000704e-02
8.046705587989991670e+01 9.999993000000000076e-02
8.056713928273561010e+01 9.999993000000000076e-02
8.066722268557131770e+01 9.950055000000000704e-02
8.076730608840701109e+01 9.900116999999999945e-02
8.086738949124270448e+01 9.800240999999999814e-02
8.096747289407839787e+01 9.600489000000000939e-02
8.106755629691409126e+01 9.400737000000000676e-02
8.116763969974979887e+01 9.200985000000000413e-02
8.126772310258549226e+01 8.951295000000000779e-02
8.136780650542118565e+01 8.601728999999999625e-02
8.146788990825687904e+01 8.302101000000000619e-02
8.156797331109258664e+01 7.952535000000000853e-02
8.166805671392828003e+01 7.503093000000000956e-02
8.176814011676397342e+01 7.103589000000000431e-02
8.186822351959966682e+01 6.604208999999999774e-02
8.196830692243536021e+01 6.154767000000000571e-02
8.206839032527106781e+01 5.705324999999999980e-02
8.216847372810676120e+01 5.106069000000000579e-02
8.226855713094245459e+01 4.606688999999999923e-02
8.236864053377814798e+01 4.007433000000000523e-02
8.246872393661384137e+01 3.458115000000000494e-02
8.256880733944954898e+01 2.808920999999999987e-02
8.266889074228524237e+01 2.209664999999999893e-02
8.276897414512093576e+01 1.610408999999999799e-02
8.286905754795662915e+01 1.011153000000000052e-02
8.296914095079232254e+01 3.120209999999999997e-03
8.306922435362803014e+01 -1.374210000000000058e-03
8.316930775646372354e+01 -7.366769999999999916e-03
8.326939115929941693e+01 -1.385870999999999978e-02
8.336947456213511032e+01 -2.085003000000000203e-02
8.346955796497081792e+01 -2.634321000000000232e-02
8.356964136780651131e+01 -3.233576999999999979e-02
8.366972477064220470e+01 -3.882771000000000139e-02
8.376980817347789809e+01 -4.432089000000000167e-02
8.386989157631359149e+01 -4.981407000000000196e-02
8.396997497914929909e+01 -5.480787000000000159e-02
8.407005838198499248e+01 -6.080042999999999559e-02
8.417014178482068587e+01 -6.479546999999999390e-02
8.427022518765637926e+01 -6.978927000000000047e-02
8.437030859049207265e+01 -7.428368999999999944e-02
8.447039199332778026e+01 -7.827873000000000470e-02
8.457047539616347365e+01 -8.227376999999999607e-02
8.467055879899916704e+01 -8.576942999999999373e-02
8.477064220183486043e+01 -8.876570999999999767e-02
8.487072560467056803e+01 -9.176199000000000161e-02
8.497080900750626142e+01 -9.475827000000000555e-02
8.507089241034195481e+01 -9.625641000000000058e-02
8.517097581317764821e+01 -9.825393000000000321e-02
8.527105921601334160e+01 -9.925269000000000452e-02
8.537114261884904920e+01 -9.975206999999999824e-02
8.547122602168474259e+01 -1.002514500000000058e-01
8.557130942452043598e+01 -1.002514500000000058e-01
8.567139282735612937e+01 -9.975206999999999824e-02
8.577147623019182276e+01 -9.925269000000000452e-02
8.587155963302753037e+01 -9.775454999999999561e-02
8.597164303586322376e+01 -9.625641000000000058e-02
8.607172643869891715e+01 -9.425888999999999796e-02
8.617180984153461054e+01 -9.176199000000000161e-02
8.627189324437031814e+01 -8.926509000000000527e-02
8.637197664720601153e+01 -8.626881000000000133e-02
8.647206005004170493e+01 -8.327252999999999739e-02
8.657214345287739832e+01 -7.877810999999999841e-02
8.667222685571309171e+01 -7.528245000000000076e-02
8.677231025854879931e+01 -7.078803000000000178e-02
8.687239366138449270e+01 -6.629361000000000281e-02
8.697247706422018609e+01 -6.080042999999999559e-02
8.707256046705587949e+01 -5.580662999999999596e-02
8.717264386989157288e+01 -5.081282999999999633e-02
8.727272727272728048e+01 -4.482026999999999539e-02
8.737281067556297387e+01 -3.932708999999999511e-02
8.747289407839866726e+01 -3.333453000000000110e-02
8.757297748123436065e+01 -2.784135000000000082e-02
8.767306088407005404e+01 -2.134941000000000269e-02
8.777314428690576165e+01 -1.535685000000000001e-02
8.787322768974145504e+01 -8.864910000000000151e-03
8.797331109257714843e+01 -2.872350000000000077e-03
8.807339449541284182e+01 2.121449999999999985e-03
8.817347789824854942e+01 8.613390000000000282e-03
8.827356130108424281e+01 1.510533000000000015e-02
8.837364470391993621e+01 2.109788999999999762e-02
8.847372810675562960e+01 2.709044999999999856e-02
8.857381150959132299e+01 3.258363000000000231e-02
8.867389491242703059e+01 3.907557000000000391e-02
8.877397831526272398e+01 4.506813000000000485e-02
8.887406171809841737e+01 5.006193000000000448e-02
8.897414512093411076e+01 5.555511000000000477e-02
8.907422852376980416e+01 6.054891000000000439e-02
8.917431192660551176e+01 6.554271000000000402e-02
8.927439532944120515e+01 7.003713000000000299e-02
8.937447873227689854e+01 7.503093000000000956e-02
8.947456213511259193e+01 7.852659000000000722e-02
8.957464553794829953e+01 8.252162999999999859e-02
8.967472894078399293e+01 8.551791000000000254e-02
8.977481234361968632e+01 8.901357000000000019e-02
8.987489574645537971e+01 9.151046999999999654e-02
8.997497914929107310e+01 9.350798999999999916e-02
9.007506255212678070e+01 9.550551000000000179e-02
9.017514595496247409e+01 9.750303000000000442e-02
9.027522935779816748e+01 9.900116999999999945e-02
9.037531276063386088e+01 9.950055000000000704e-02
9.047539616346955427e+01 9.999993000000000076e-02
9.057547956630526187e+01 9.999993000000000076e-02
9.067556296914095526e+01 9.950055000000000704e-02
9.077564637197664865e+01 9.900116999999999945e-02
9.087572977481234204e+01 9.800240999999999814e-02
9.097581317764804965e+01 9.650427000000000310e-02
9.107589658048374304e+01 9.350798999999999916e-02
9.117597998331943643e+01 9.151046999999999654e-02
9.127606338615512982e+01 8.851419000000000648e-02
9.137614678899082321e+01 8.551791000000000254e-02
9.147623019182653081e+01 8.202225000000000488e-02
9.157631359466222420e+01 7.852659000000000722e-02
9.167639699749791760e+01 7.503093000000000956e-02
9.177648040033361099e+01 7.003713000000000299e-02
9.187656380316930438e+01 6.554271000000000402e-02
9.197664720600501198e+01 6.054891000000000439e-02
9.207673060884070537e+01 5.555511000000000477e-02
9.217681401167639876e+01 5.056131000000000514e-02
9.227689741451209215e+01 4.456875000000000420e-02
9.237698081734778555e+01 3.857619000000000326e-02
9.247706422018349315e+01 3.308301000000000297e-02
9.257714762301918654e+01 2.709044999999999856e-02
9.267723102585487993e+01 2.159726999999999827e-02
9.277731442869057332e+01 1.460595000000000122e-02
9.287739783152628092e+01 8.114009999999999626e-03
9.297748123436197432e+01 2.620830000000000208e-03
9.307756463719766771e+01 -2.372970000000000287e-03
9.317764804003336110e+01 -9.364289999999999073e-03
9.327773144286905449e+01 -1.535685000000000001e-02
9.337781484570476209e+01 -2.134941000000000269e-02
9.347789824854045548e+01 -2.784135000000000082e-02
9.357798165137614887e+01 -3.383391000000000176e-02
9.367806505421184227e+01 -3.932708999999999511e-02
9.377814845704753566e+01 -4.482026999999999539e-02
9.387823185988324326e+01 -5.081282999999999633e-02
9.397831526271893665e+01 -5.580662999999999596e-02
9.407839866555463004e+01 -6.080042999999999559e-02
9.417848206839032343e+01 -6.529485000000000150e-02
9.427856547122603104e+01 -7.028864999999999419e-02
9.437864887406172443e+01 -7.478306999999999316e-02
9.447873227689741782e+01 -7.877810999999999841e-02
9.457881567973311121e+01 -8.227376999999999607e-02
9.467889908256880460e+01 -8.527005000000000001e-02
9.477898248540451220e+01 -8.876570999999999767e-02
9.487906588824020560e+01 -9.126260999999999401e-02
9.497914929107589899e+01 -9.375951000000000424e-02
9.507923269391159238e+01 -9.575702999999999299e-02
9.517931609674728577e+01 -9.725517000000000190e-02
9.527939949958299337e+01 -9.875330999999999693e-02
9.537948290241868676e+01 -9.925269000000000452e-02
9.547956630525438015e+01 -9.975206999999999824e-02
9.557964970809007355e+01 -9.975206999999999824e-02
9.567973311092578115e+01 -9.975206999999999824e-02
9.577981651376147454e+01 -9.875330999999999693e-02
9.587989991659716793e+01 -9.775454999999999561e-02
9.597998331943286132e+01 -9.625641000000000058e-02
9.608006672226855471e+01 -9.425888999999999796e-02
9.618015012510426232e+01 -9.176199000000000161e-02
9.628023352793995571e+01 -8.926509000000000527e-02
9.638031693077564910e+01 -8.626881000000000133e-02
9.648040033361134249e+01 -8.327252999999999739e-02
9.658048373644703588e+01 -7.777934999999999710e-02
9.668056713928274348e+01 -7.428368999999999944e-02
9.678065054211843687e+01 -6.978927000000000047e-02
9.688073394495413027e+01 -6.529485000000000150e-02
9.698081734778982366e+01 -5.980167000000000121e-02
9.708090075062553126e+01 -5.480787000000000159e-02
9.718098415346122465e+01 -4.981407000000000196e-02
9.728106755629691804e+01 -4.382151000000000102e-02
9.738115095913261143e+01 -3.832833000000000073e-02
9.748123436196830482e+01 -3.233576999999999979e-02
9.758131776480401243e+01 -2.684259000000000298e-02
9.768140116763970582e+01 -1.985127000000000072e-02
9.778148457047539921e+01 -1.385870999999999978e-02
9.788156797331109260e+01 -7.866150000000000572e-03
9.798165137614678599e+01 -1.873589999999999848e-03
9.808173477898249359e+01 3.619589999999999787e-03
9.818181818181818699e+01 9.612149999999999861e-03
9.828190158465388038e+01 1.610408999999999799e-02
9.838198498748957377e+01 2.209664999999999893e-02
9.848206839032526716e+01 2.808920999999999987e-02
9.858215179316097476e+01 3.408177000000000428e-02
9.868223519599666815e+01 3.957495000000000457e-02
9.878231859883236154e+01 4.606688999999999923e-02
9.888240200166805494e+01 5.156006999999999951e-02
9.898248540450376254e+01 5.605449000000000542e-02
9.908256880733945593e+01 6.204704999999999943e-02
9.918265221017514932e+01 6.654147000000000534e-02
9.928273561301084271e+01 7.103589000000000431e-02
9.938281901584653610e+01 7.503093000000000956e-02
9.948290241868224371e+01 7.952535000000000853e-02
9.958298582151793710e+01 8.302101000000000619e-02
9.968306922435363049e+01 8.601728999999999625e-02
9.978315262718932388e+01 8.901357000000000019e-02
9.988323603002501727e+01 9.200985000000000413e-02
9.998331943286072487e+01 9.400737000000000676e-02
1.000834028356964183e+02 9.600489000000000939e-02
1.001834862385321117e+02 9.750303000000000442e-02
1.002835696413678050e+02 9.900116999999999945e-02
1.003836530442035126e+02 9.950055000000000704e-02
1.004837364470392060e+02 9.999993000000000076e-02
1.005838198498748994e+02 9.999993000000000076e-02
1.006839032527105928e+02 9.950055000000000704e-02
1.007839866555462862e+02 9.900116999999999945e-02
1.008840700583819938e+02 9.750303000000000442e-02
1.009841534612176872e+02 9.650427000000000310e-02
1.010842368640533806e+02 9.400737000000000676e-02
1.011843202668890740e+02 9.200985000000000413e-02
1.012844036697247674e+02 8.901357000000000019e-02
1.013844870725604750e+02 8.651667000000000385e-02
1.014845704753961684e+02 8.302101000000000619e-02
1.015846538782318618e+02 7.902597000000000094e-02
1.016847372810675552e+02 7.503093000000000956e-02
1.017848206839032628e+02 7.103589000000000431e-02
1.018849040867389562e+02 6.654147000000000534e-02
1.019849874895746495e+02 6.204704999999999943e-02
1.020850708924103429e+02 5.655387000000000608e-02
1.021851542952460363e+02 4.956255000000000382e-02
1.022852376980817439e+02 4.406937000000000354e-02
1.023853211009174373e+02 3.807681000000000260e-02
1.024854045037531307e+02 3.208425000000000166e-02
1.025854879065888241e+02 2.609168999999999725e-02
1.026855713094245175e+02 2.009912999999999977e-02
1.027856547122602251e+02 1.410657000000000057e-02
1.028857381150959185e+02 7.115250000000000047e-03
1.029858215179316119e+02 1.122689999999999973e-03
1.030859049207673053e+02 -3.871109999999999655e-03
1.031859883236029987e+02 -9.863669999999999730e-03
1.032860717264387063e+02 -1.635561000000000306e-02
1.033861551292743997e+02 -2.284755000000000119e-02
1.034862385321100930e+02 -2.884011000000000213e-02
1.035863219349457864e+02 -3.433328999999999548e-02
1.036864053377814940e+02 -4.082522999999999708e-02
1.037864887406171874e+02 -4.631840999999999736e-02
1.038865721434528808e+02 -5.181158999999999765e-02
1.039866555462885742e+02 -5.680538999999999727e-02
1.040867389491242676e+02 -6.229856999999999756e-02
1.041868223519599752e+02 -6.729237000000000413e-02
1.042869057547956686e+02 -7.178679000000000310e-02
1.043869891576313620e+02 -7.578182999999999447e-02
1.044870725604670554e+02 -7.977686999999999973e-02
1.045871559633027488e+02 -8.327252999999999739e-02
1.046872393661384564e+02 -8.626881000000000133e-02
1.047873227689741498e+02 -8.976446999999999898e-02
1.048874061718098432e+02 -9.226136999999999533e-02
1.049874895746455365e+02 -9.475827000000000555e-02
1.050875729774812442e+02 -9.625641000000000058e-02
1.051876563803169375e+02 -9.825393000000000321e-02
1.052877397831526309e+02 -9.925269000000000452e-02
1.053878231859883243e+02 -9.975206999999999824e-02
1.054879065888240177e+02 -1.002514500000000058e-01
1.055879899916597253e+02 -1.002514500000000058e-01
1.056880733944954187e+02 -9.975206999999999824e-02
1.057881567973311121e+02 -9.925269000000000452e-02
1.058882402001668055e+02 -9.825393000000000321e-02
1.059883236030024989e+02 -9.625641000000000058e-02
1.060884070058382065e+02 -9.425888999999999796e-02
1.061884904086738999e+02 -9.176199000000000161e-02
1.062885738115095933e+02 -8.926509000000000527e-02
1.063886572143452867e+02 -8.576942999999999373e-02
1.064887406171809943e+02 -8.277315000000000367e-02
1.065888240200166877e+02 -7.927748999999999213e-02
1.066889074228523810e+02 -7.528245000000000076e-02
1.067889908256880744e+02 -7.078803000000000178e-02
1.068890742285237678e+02 -6.629361000000000281e-02
1.069891576313594754e+02 -6.129980999999999625e-02
1.070892410341951688e+02 -5.630600999999999662e-02
1.071893244370308622e+02 -5.031344999999999568e-02
1.072894078398665556e+02 -4.332213000000000036e-02
1.073894912427022490e+02 -3.782895000000000008e-02
1.074895746455379566e+02 -3.233576999999999979e-02
1.075896580483736500e+02 -2.634321000000000232e-02
1.076897414512093434e+02 -1.935189000000000006e-02
1.077898248540450368e+02 -1.335933000000000086e-02
1.078899082568807302e+02 -6.867390000000000126e-03
1.079899916597164378e+02 -8.748300000000000520e-04
1.080900750625521312e+02 4.618350000000000233e-03
1.081901584653878245e+02 1.061090999999999944e-02
1.082902418682235179e+02 1.660346999999999865e-02
1.083903252710592255e+02 2.359478999999999743e-02
1.084904086738949189e+02 2.908796999999999772e-02
1.085904920767306123e+02 3.508053000000000560e-02
1.086905754795663057e+02 4.057370999999999894e-02
1.087906588824019991e+02 4.706565000000000054e-02
1.088907422852377067e+02 5.205945000000000017e-02
1.089908256880734001e+02 5.705324999999999980e-02
1.090909090909090935e+02 6.204704999999999943e-02
1.091909924937447869e+02 6.704084999999999905e-02
1.092910758965804803e+02 7.153526999999999803e-02
1.093911592994161879e+02 7.602968999999999700e-02
1.094912427022518813e+02 7.952535000000000853e-02
1.095913261050875747e+02 8.302101000000000619e-02
1.096914095079232681e+02 8.701604999999999757e-02
1.097914929107589757e+02 8.951295000000000779e-02
1.098915763135946690e+02 9.200985000000000413e-02
1.099916597164303624e+02 9.400737000000000676e-02
1.100917431192660558e+02 9.650427000000000310e-02
1.101918265221017492e+02 9.800240999999999814e-02
1.102919099249374568e+02 9.900116999999999945e-02
1.103919933277731502e+02 9.950055000000000704e-02
1.104920767306088436e+02 9.999993000000000076e-02
1.105921601334445370e+02 9.999993000000000076e-02
1.106922435362802304e+02 9.950055000000000704e-02
1.107923269391159380e+02 9.900116999999999945e-02
1.108924103419516314e+02 9.750303000000000442e-02
1.109924937447873248e+02 9.550551000000000179e-02
1.110925771476230182e+02 9.350798999999999916e-02
1.111926605504587258e+02 9.151046999999999654e-02
1.112927439532944192e+02 8.851419000000000648e-02
1.113928273561301125e+02 8.551791000000000254e-02
1.114929107589658059e+02 8.252162999999999859e-02
1.115929941618014993e+02 7.902597000000000094e-02
1.116930775646372069e+02 7.503093000000000956e-02
1.117931609674729003e+02 7.053650999999999671e-02
1.118932443703085937e+02 6.554271000000000402e-02
1.119933277731442871e+02 6.104829000000000505e-02
1.120934111759799805e+02 5.555511000000000477e-02
1.121934945788156881e+02 5.006193000000000448e-02
1.122935779816513815e+02 4.506813000000000485e-02
1.123936613844870749e+02 3.907557000000000391e-02
1.124937447873227683e+02 3.358239000000000363e-02
1.125938281901584759e+02 2.709044999999999856e-02
1.126939115929941693e+02 2.109788999999999762e-02
1.127939949958298627e+02 1.460595000000000122e-02
1.128940783986655561e+02 8.114009999999999626e-03
1.129941618015012494e+02 2.121449999999999985e-03
1.130942452043369570e+02 -2.372970000000000287e-03
1.131943286071726504e+02 -8.365529999999999494e-03
1.132944120100083438e+02 -1.785375000000000156e-02
1.133944954128440372e+02 -2.384631000000000250e-02
1.134945788156797306e+02 -2.933949000000000279e-02
1.135946622185154382e+02 -3.533204999999999679e-02
1.136947456213511316e+02 -4.082522999999999708e-02
1.137948290241868250e+02 -4.681778999999999802e-02
1.138949124270225184e+02 -5.231096999999999830e-02
1.139949958298582118e+02 -5.730476999999999793e-02
1.140950792326939194e+02 -6.229856999999999756e-02
1.141951626355296128e+02 -6.779174999999999784e-02
1.142952460383653062e+02 -7.178679000000000310e-02
1.143953294412009996e+02 -7.578182999999999447e-02
1.144954128440367072e+02 -7.977686999999999973e-02
1.145954962468724005e+02 -8.327252999999999739e-02
1.146955796497080939e+02 -8.676818999999999504e-02
1.147956630525437873e+02 -8.976446999999999898e-02
1.148957464553794807e+02 -9.176199000000000161e-02
1.149958298582151883e+02 -9.475827000000000555e-02
1.150959132610508817e+02 -9.625641000000000058e-02
1.151959966638865751e+02 -9.775454999999999561e-02
1.152960800667222685e+02 -9.875330999999999693e-02
1.153961634695579619e+02 -9.975206999999999824e-02
1.154962468723936695e+02 -9.975206999999999824e-02
1.155963302752293629e+02 -9.975206999999999824e-02
1.156964136780650563e+02 -9.925269000000000452e-02
1.157964970809007497e+02 -9.875330999999999693e-02
1.158965804837364573e+02 -9.725517000000000190e-02
1.159966638865721507e+02 -9.575702999999999299e-02
1.160967472894078441e+02 -9.326012999999999664e-02
1.161968306922435374e+02 -9.126260999999999401e-02
1.162969140950792308e+02 -8.826633000000000395e-02
1.163969974979149384e+02 -8.576942999999999373e-02
1.164970809007506318e+02 -8.177439000000000235e-02
1.165971643035863252e+02 -7.827873000000000470e-02
1.166972477064220186e+02 -7.428368999999999944e-02
1.167973311092577120e+02 -7.028864999999999419e-02
1.168974145120934196e+02 -6.479546999999999390e-02
1.169974979149291130e+02 -6.030105000000000187e-02
1.170975813177648064e+02 -5.530725000000000224e-02
1.171976647206004998e+02 -5.031344999999999568e-02
1.172977481234362074e+02 -4.432089000000000167e-02
1.173978315262719008e+02 -3.882771000000000139e-02
1.174979149291075942e+02 -3.283515000000000045e-02
1.175979983319432876e+02 -2.634321000000000232e-02
1.176980817347789809e+02 -2.035065000000000138e-02
1.177981651376146885e+02 -1.435809000000000044e-02
1.178982485404503819e+02 -8.365529999999999494e-03
1.179983319432860753e+02 -1.873589999999999848e-03
1.180984153461217687e+02 3.120209999999999997e-03
1.181984987489574621e+02 9.112770000000000939e-03
1.182985821517931697e+02 1.560471000000000080e-02
1.183986655546288631e+02 2.209664999999999893e-02
1.184987489574645565e+02 2.808920999999999987e-02
1.185988323603002499e+02 3.358239000000000363e-02
1.186989157631359433e+02 3.957495000000000457e-02
1.187989991659716509e+02 4.506813000000000485e-02
1.188990825688073443e+02 5.156006999999999951e-02
1.189991659716430377e+02 5.805201000000000111e-02
1.190992493744787311e+02 6.304580999999999380e-02
1.191993327773144387e+02 6.803961000000000037e-02
1.192994161801501320e+02 7.253402999999999934e-02
1.193994995829858254e+02 7.652907000000000459e-02
1.194995829858215188e+02 8.052410999999999597e-02
1.195996663886572122e+02 8.401977000000000750e-02
1.196997497914929198e+02 8.701604999999999757e-02
1.197998331943286132e+02 9.001233000000000151e-02
1.198999165971643066e+02 9.250922999999999785e-02
1.200000000000000000e+02 9.450675000000000048e-02
