# SR785 Measurement - Timestamp: Nov 10 2017 - 23:50:31
#---------- Measurement Setup ------------
# Start Frequency (Hz): 0.000000
# Frequency Span (Hz): 6400.000000
# Frequency Resolution: 400
# Number of Averages: 24
# Averaging Mode: RMS
# Window function: BMH
#---------- Measurement Parameters ----------
# Measurement Group:  "FFT" "FFT"
# Measurements:  "FFT 1" "FFT 2"
# View:  "Log Magnitude" "Log Magnitude"
# Unit:  "Vrms/rtHz" "dBVpk"
#---------- Input Parameters ----------
# Input Source: Analog
# Input Mode: Single ended, Single ended
# Input Grounding: Float, Float
# Input Coupling: DC, DC
# Input Range: 4.0dBVpk, -14.0dBVpk
# Auto Range: On, On
# Auto Range Mode: Up Only, Normal
# Anti-Aliasing Filter: On, On
#---------- Source Parameters ----------
# Source Type: Sine
# Source Amplitude: 500.0mVpk
# Source On: 0

#---------- Measurement Data ----------
# [Freq(Hz) Display 0(Vrms/rtHz) Display 1(dBVpk) ]
+0.0000000e+000    +1.8261182e-001
+1.6000000e+001    +1.2221541e-001
+3.2000000e+001    +3.5129767e-002
+4.8000000e+001    +3.0646799e-003
+6.4000000e+001    +7.4325828e-004
+8.0000000e+001    +4.0667431e-004
+9.6000000e+001    +1.7876859e-004
+1.1200000e+002    +8.8426765e-005
+1.2800000e+002    +5.3140393e-005
+1.4400000e+002    +6.1055616e-005
+1.6000000e+002    +6.2582170e-005
+1.7600000e+002    +5.8808961e-005
+1.9200000e+002    +5.0193983e-005
+2.0800000e+002    +3.8182290e-005
+2.2400000e+002    +4.3368043e-005
+2.4000000e+002    +4.1755549e-005
+2.5600000e+002    +3.3112457e-005
+2.7200000e+002    +2.3724415e-005
+2.8800000e+002    +1.7799475e-005
+3.0400000e+002    +1.4722922e-005
+3.2000000e+002    +1.6418086e-005
+3.3600000e+002    +2.0295276e-005
+3.5200000e+002    +2.3620138e-005
+3.6800000e+002    +2.3471128e-005
+3.8400000e+002    +1.9481175e-005
+4.0000000e+002    +1.4066258e-005
+4.1600000e+002    +1.0551877e-005
+4.3200000e+002    +8.0640248e-006
+4.4800000e+002    +7.3685583e-006
+4.6400000e+002    +7.8889443e-006
+4.8000000e+002    +8.6295177e-006
+4.9600000e+002    +7.9493038e-006
+5.1200000e+002    +7.4151194e-006
+5.2800000e+002    +7.9854854e-006
+5.4400000e+002    +8.7432381e-006
+5.6000000e+002    +8.4725807e-006
+5.7600000e+002    +7.7613868e-006
+5.9200000e+002    +7.8960675e-006
+6.0800000e+002    +9.3347626e-006
+6.2400000e+002    +1.5872050e-005
+6.4000000e+002    +1.9603736e-005
+6.5600000e+002    +1.5343403e-005
+6.7200000e+002    +1.1233601e-005
+6.8800000e+002    +9.9824047e-006
+7.0400000e+002    +1.0209212e-005
+7.2000000e+002    +1.0021136e-005
+7.3600000e+002    +9.3631961e-006
+7.5200000e+002    +8.2713486e-006
+7.6800000e+002    +8.2476517e-006
+7.8400000e+002    +8.2816168e-006
+8.0000000e+002    +9.0479980e-006
+8.1600000e+002    +1.0240533e-005
+8.3200000e+002    +1.0036794e-005
+8.4800000e+002    +8.6371483e-006
+8.6400000e+002    +8.0472191e-006
+8.8000000e+002    +8.0401014e-006
+8.9600000e+002    +7.9941528e-006
+9.1200000e+002    +8.2564229e-006
+9.2800000e+002    +8.7529106e-006
+9.4400000e+002    +1.0403169e-005
+9.6000000e+002    +1.1911445e-005
+9.7600000e+002    +1.2408574e-005
+9.9200000e+002    +1.3065401e-005
+1.0080000e+003    +1.5132416e-005
+1.0240000e+003    +1.9615729e-005
+1.0400000e+003    +2.8463106e-005
+1.0560000e+003    +3.0184834e-005
+1.0720000e+003    +2.2657412e-005
+1.0880000e+003    +1.4825556e-005
+1.1040000e+003    +1.1437598e-005
+1.1200000e+003    +1.1870046e-005
+1.1360000e+003    +1.4898300e-005
+1.1520000e+003    +1.7282669e-005
+1.1680000e+003    +1.6746155e-005
+1.1840000e+003    +1.3139733e-005
+1.2000000e+003    +1.0657565e-005
+1.2160000e+003    +9.3976259e-006
+1.2320000e+003    +8.7141043e-006
+1.2480000e+003    +8.1726348e-006
+1.2640000e+003    +7.8349258e-006
+1.2800000e+003    +9.5931609e-006
+1.2960000e+003    +1.0905866e-005
+1.3120000e+003    +1.1683914e-005
+1.3280000e+003    +1.2796816e-005
+1.3440000e+003    +1.1842292e-005
+1.3600000e+003    +9.1994079e-006
+1.3760000e+003    +8.2992301e-006
+1.3920000e+003    +8.7666358e-006
+1.4080000e+003    +9.4237985e-006
+1.4240000e+003    +9.7539405e-006
+1.4400000e+003    +1.1445487e-005
+1.4560000e+003    +1.3119292e-005
+1.4720000e+003    +1.1612638e-005
+1.4880000e+003    +8.8841916e-006
+1.5040000e+003    +8.6031323e-006
+1.5200000e+003    +8.7139315e-006
+1.5360000e+003    +8.7520366e-006
+1.5520000e+003    +8.7473672e-006
+1.5680000e+003    +8.6495611e-006
+1.5840000e+003    +9.0405110e-006
+1.6000000e+003    +9.1341590e-006
+1.6160000e+003    +8.5333850e-006
+1.6320000e+003    +8.0975979e-006
+1.6480000e+003    +8.0490490e-006
+1.6640000e+003    +8.7888111e-006
+1.6800000e+003    +9.0229587e-006
+1.6960000e+003    +8.4054791e-006
+1.7120000e+003    +8.7013595e-006
+1.7280000e+003    +8.6147211e-006
+1.7440000e+003    +8.1561047e-006
+1.7600000e+003    +8.3392015e-006
+1.7760000e+003    +8.4377589e-006
+1.7920000e+003    +9.5810665e-006
+1.8080000e+003    +1.0176353e-005
+1.8240000e+003    +9.5225878e-006
+1.8400000e+003    +9.3361150e-006
+1.8560000e+003    +8.9044361e-006
+1.8720000e+003    +7.6296137e-006
+1.8880000e+003    +7.7857794e-006
+1.9040000e+003    +8.4933972e-006
+1.9200000e+003    +8.6678619e-006
+1.9360000e+003    +8.4980984e-006
+1.9520000e+003    +9.5747673e-006
+1.9680000e+003    +1.0522768e-005
+1.9840000e+003    +9.5108535e-006
+2.0000000e+003    +9.6268514e-006
+2.0160000e+003    +1.0270643e-005
+2.0320000e+003    +9.5627065e-006
+2.0480000e+003    +8.6481459e-006
+2.0640000e+003    +9.6149461e-006
+2.0800000e+003    +1.0368811e-005
+2.0960000e+003    +9.8161345e-006
+2.1120000e+003    +8.9747036e-006
+2.1280000e+003    +9.2080481e-006
+2.1440000e+003    +9.2891223e-006
+2.1600000e+003    +8.8979959e-006
+2.1760000e+003    +8.0057644e-006
+2.1920000e+003    +8.9780442e-006
+2.2080000e+003    +9.4502311e-006
+2.2240000e+003    +1.0033235e-005
+2.2400000e+003    +1.0076290e-005
+2.2560000e+003    +1.0438994e-005
+2.2720000e+003    +9.8691962e-006
+2.2880000e+003    +9.4309198e-006
+2.3040000e+003    +1.0240983e-005
+2.3200000e+003    +1.1700075e-005
+2.3360000e+003    +1.2214037e-005
+2.3520000e+003    +1.1738150e-005
+2.3680000e+003    +1.2018063e-005
+2.3840000e+003    +1.1645274e-005
+2.4000000e+003    +1.0489167e-005
+2.4160000e+003    +9.3299668e-006
+2.4320000e+003    +9.8784003e-006
+2.4480000e+003    +1.0980033e-005
+2.4640000e+003    +1.0777047e-005
+2.4800000e+003    +1.1357346e-005
+2.4960000e+003    +1.1797273e-005
+2.5120000e+003    +1.1841513e-005
+2.5280000e+003    +1.1007107e-005
+2.5440000e+003    +1.0519591e-005
+2.5600000e+003    +1.0970188e-005
+2.5760000e+003    +1.1630682e-005
+2.5920000e+003    +1.0881955e-005
+2.6080000e+003    +9.7801276e-006
+2.6240000e+003    +1.0800561e-005
+2.6400000e+003    +1.1382638e-005
+2.6560000e+003    +1.1784301e-005
+2.6720000e+003    +1.2211073e-005
+2.6880000e+003    +1.2292322e-005
+2.7040000e+003    +1.2446247e-005
+2.7200000e+003    +1.2241479e-005
+2.7360000e+003    +1.0575004e-005
+2.7520000e+003    +1.0575445e-005
+2.7680000e+003    +1.1380164e-005
+2.7840000e+003    +1.1389940e-005
+2.8000000e+003    +1.0841717e-005
+2.8160000e+003    +1.0787785e-005
+2.8320000e+003    +1.0713904e-005
+2.8480000e+003    +1.2142141e-005
+2.8640000e+003    +1.2666854e-005
+2.8800000e+003    +1.2666270e-005
+2.8960000e+003    +1.3063722e-005
+2.9120000e+003    +1.2327653e-005
+2.9280000e+003    +1.1618582e-005
+2.9440000e+003    +1.2135170e-005
+2.9600000e+003    +1.2232329e-005
+2.9760000e+003    +1.2850573e-005
+2.9920000e+003    +1.3400529e-005
+3.0080000e+003    +1.2267393e-005
+3.0240000e+003    +1.2335005e-005
+3.0400000e+003    +1.3245778e-005
+3.0560000e+003    +1.3106765e-005
+3.0720000e+003    +1.2224998e-005
+3.0880000e+003    +1.1730664e-005
+3.1040000e+003    +1.1852426e-005
+3.1200000e+003    +1.3554810e-005
+3.1360000e+003    +1.4810978e-005
+3.1520000e+003    +1.4540698e-005
+3.1680000e+003    +1.4946289e-005
+3.1840000e+003    +1.4307770e-005
+3.2000000e+003    +1.3546449e-005
+3.2160000e+003    +1.4145384e-005
+3.2320000e+003    +1.4697549e-005
+3.2480000e+003    +1.4412081e-005
+3.2640000e+003    +1.3336561e-005
+3.2800000e+003    +1.3292996e-005
+3.2960000e+003    +1.4149360e-005
+3.3120000e+003    +1.3953843e-005
+3.3280000e+003    +1.3602235e-005
+3.3440000e+003    +1.3563415e-005
+3.3600000e+003    +1.3840169e-005
+3.3760000e+003    +1.4282061e-005
+3.3920000e+003    +1.4691886e-005
+3.4080000e+003    +1.4765936e-005
+3.4240000e+003    +1.3818047e-005
+3.4400000e+003    +1.5544063e-005
+3.4560000e+003    +1.5380409e-005
+3.4720000e+003    +1.3735895e-005
+3.4880000e+003    +1.4053445e-005
+3.5040000e+003    +1.4418095e-005
+3.5200000e+003    +1.4652691e-005
+3.5360000e+003    +1.4712193e-005
+3.5520000e+003    +1.4788147e-005
+3.5680000e+003    +1.4509393e-005
+3.5840000e+003    +1.4529447e-005
+3.6000000e+003    +1.5291871e-005
+3.6160000e+003    +1.5817164e-005
+3.6320000e+003    +1.6124071e-005
+3.6480000e+003    +1.5901775e-005
+3.6640000e+003    +1.5547375e-005
+3.6800000e+003    +1.5795766e-005
+3.6960000e+003    +1.5411224e-005
+3.7120000e+003    +1.5336564e-005
+3.7280000e+003    +1.7217440e-005
+3.7440000e+003    +1.7502811e-005
+3.7600000e+003    +1.7218706e-005
+3.7760000e+003    +1.7097460e-005
+3.7920000e+003    +1.8270270e-005
+3.8080000e+003    +1.8231876e-005
+3.8240000e+003    +1.7155433e-005
+3.8400000e+003    +1.5478598e-005
+3.8560000e+003    +1.5934475e-005
+3.8720000e+003    +1.6888165e-005
+3.8880000e+003    +1.7274626e-005
+3.9040000e+003    +1.6526672e-005
+3.9200000e+003    +1.6605358e-005
+3.9360000e+003    +1.8402461e-005
+3.9520000e+003    +1.8115086e-005
+3.9680000e+003    +1.6742422e-005
+3.9840000e+003    +1.6704689e-005
+4.0000000e+003    +1.7877113e-005
+4.0160000e+003    +1.6868522e-005
+4.0320000e+003    +1.7212735e-005
+4.0480000e+003    +1.7706285e-005
+4.0640000e+003    +1.7885026e-005
+4.0800000e+003    +1.9020525e-005
+4.0960000e+003    +1.8978011e-005
+4.1120000e+003    +1.7408631e-005
+4.1280000e+003    +1.7201814e-005
+4.1440000e+003    +1.8253648e-005
+4.1600000e+003    +2.0262391e-005
+4.1760000e+003    +2.0197489e-005
+4.1920000e+003    +1.9977688e-005
+4.2080000e+003    +2.1315911e-005
+4.2240000e+003    +2.1931761e-005
+4.2400000e+003    +2.1098875e-005
+4.2560000e+003    +2.0981244e-005
+4.2720000e+003    +2.1997164e-005
+4.2880000e+003    +2.1151758e-005
+4.3040000e+003    +1.9537983e-005
+4.3200000e+003    +2.0110723e-005
+4.3360000e+003    +2.0754258e-005
+4.3520000e+003    +1.9810874e-005
+4.3680000e+003    +1.9198320e-005
+4.3840000e+003    +1.9744621e-005
+4.4000000e+003    +2.0411393e-005
+4.4160000e+003    +2.2070684e-005
+4.4320000e+003    +2.3054807e-005
+4.4480000e+003    +2.1421676e-005
+4.4640000e+003    +2.3653876e-005
+4.4800000e+003    +2.5667483e-005
+4.4960000e+003    +2.3475792e-005
+4.5120000e+003    +2.1338670e-005
+4.5280000e+003    +2.2046150e-005
+4.5440000e+003    +2.3278080e-005
+4.5600000e+003    +2.3008100e-005
+4.5760000e+003    +2.4661136e-005
+4.5920000e+003    +2.5723089e-005
+4.6080000e+003    +2.3782939e-005
+4.6240000e+003    +2.0263593e-005
+4.6400000e+003    +2.1572760e-005
+4.6560000e+003    +2.5768348e-005
+4.6720000e+003    +2.7093174e-005
+4.6880000e+003    +2.6894984e-005
+4.7040000e+003    +2.5937667e-005
+4.7200000e+003    +2.5150799e-005
+4.7360000e+003    +2.7009595e-005
+4.7520000e+003    +2.6420110e-005
+4.7680000e+003    +2.4207622e-005
+4.7840000e+003    +2.2857856e-005
+4.8000000e+003    +2.1726362e-005
+4.8160000e+003    +2.2557702e-005
+4.8320000e+003    +2.1749060e-005
+4.8480000e+003    +2.3892813e-005
+4.8640000e+003    +2.7115822e-005
+4.8800000e+003    +2.8722163e-005
+4.8960000e+003    +2.7456874e-005
+4.9120000e+003    +2.4048515e-005
+4.9280000e+003    +2.3290761e-005
+4.9440000e+003    +2.2609451e-005
+4.9600000e+003    +2.3569362e-005
+4.9760000e+003    +2.7736023e-005
+4.9920000e+003    +2.8143555e-005
+5.0080000e+003    +2.7014488e-005
+5.0240000e+003    +2.6426520e-005
+5.0400000e+003    +2.7455246e-005
+5.0560000e+003    +2.6564148e-005
+5.0720000e+003    +2.7928880e-005
+5.0880000e+003    +2.9923718e-005
+5.1040000e+003    +2.8886967e-005
+5.1200000e+003    +2.5026593e-005
+5.1360000e+003    +2.7434575e-005
+5.1520000e+003    +2.8738030e-005
+5.1680000e+003    +2.7497965e-005
+5.1840000e+003    +2.8184219e-005
+5.2000000e+003    +2.9294262e-005
+5.2160000e+003    +3.1060707e-005
+5.2320000e+003    +3.0181485e-005
+5.2480000e+003    +3.3070963e-005
+5.2640000e+003    +3.2932476e-005
+5.2800000e+003    +3.3250020e-005
+5.2960000e+003    +3.4904468e-005
+5.3120000e+003    +3.1358210e-005
+5.3280000e+003    +3.0200878e-005
+5.3440000e+003    +3.1354939e-005
+5.3600000e+003    +3.1603548e-005
+5.3760000e+003    +3.4823086e-005
+5.3920000e+003    +3.3599725e-005
+5.4080000e+003    +3.1066029e-005
+5.4240000e+003    +3.2357926e-005
+5.4400000e+003    +3.2537268e-005
+5.4560000e+003    +3.4349931e-005
+5.4720000e+003    +3.7665806e-005
+5.4880000e+003    +3.9514020e-005
+5.5040000e+003    +3.8690941e-005
+5.5200000e+003    +3.6960882e-005
+5.5360000e+003    +3.6864549e-005
+5.5520000e+003    +3.5171255e-005
+5.5680000e+003    +3.5376328e-005
+5.5840000e+003    +3.5907433e-005
+5.6000000e+003    +3.4917346e-005
+5.6160000e+003    +3.4254117e-005
+5.6320000e+003    +3.6089048e-005
+5.6480000e+003    +3.7790785e-005
+5.6640000e+003    +3.6671983e-005
+5.6800000e+003    +3.8827377e-005
+5.6960000e+003    +3.9792703e-005
+5.7120000e+003    +3.7023434e-005
+5.7280000e+003    +3.6984467e-005
+5.7440000e+003    +3.9785889e-005
+5.7600000e+003    +3.6030531e-005
+5.7760000e+003    +3.2837805e-005
+5.7920000e+003    +3.6007317e-005
+5.8080000e+003    +4.1781230e-005
+5.8240000e+003    +4.7536450e-005
+5.8400000e+003    +4.9169976e-005
+5.8560000e+003    +4.5453718e-005
+5.8720000e+003    +4.6061763e-005
+5.8880000e+003    +4.5588713e-005
+5.9040000e+003    +4.1647218e-005
+5.9200000e+003    +3.9036913e-005
+5.9360000e+003    +3.8115148e-005
+5.9520000e+003    +4.5740933e-005
+5.9680000e+003    +4.7130772e-005
+5.9840000e+003    +4.6575249e-005
+6.0000000e+003    +4.6497993e-005
+6.0160000e+003    +4.3325639e-005
+6.0320000e+003    +3.9827672e-005
+6.0480000e+003    +3.9231989e-005
+6.0640000e+003    +4.1703959e-005
+6.0800000e+003    +4.3159085e-005
+6.0960000e+003    +4.5338827e-005
+6.1120000e+003    +4.7299462e-005
+6.1280000e+003    +4.7567253e-005
+6.1440000e+003    +4.3737062e-005
+6.1600000e+003    +3.9019902e-005
+6.1760000e+003    +4.1588635e-005
+6.1920000e+003    +5.0712868e-005
+6.2080000e+003    +5.4100707e-005
+6.2240000e+003    +5.4005039e-005
+6.2400000e+003    +5.3913740e-005
+6.2560000e+003    +4.7888854e-005
+6.2720000e+003    +4.5912308e-005
+6.2880000e+003    +4.5932175e-005
+6.3040000e+003    +4.7544072e-005
+6.3200000e+003    +5.1109691e-005
+6.3360000e+003    +5.0504939e-005
+6.3520000e+003    +5.1164658e-005
+6.3680000e+003    +5.2317791e-005
+6.3840000e+003    +5.0615799e-005
