# AG4395A Measurement - Timestamp: Oct 05 2018 - 18:44:18
#---------- Measurement Parameters ------------
# Start Frequency (Hz): 10000.0, 10000.0
# Stop Frequency (Hz): 1000000.0, 1000000.0
# Frequency Points: 801, 801
# Measurement Format: LINM, PHAS
# Measuremed Input: AB, AB
#---------- Analyzer Settings ----------
# Number of Averages: 1
# Auto Bandwidth: Off, Off
# IF Bandwidth: 10000.0, 10000.0
# Input Attenuators (R,A,B): 20dB 20dB 20dB 
# Excitation amplitude = -20.0dBm
#---------- Measurement Data ----------
# [Freq(Hz) Chan 1 Chan 2 ]
10000.0    1.24578    44.43576
10066.704    1.574667    56.61942
10133.409    0.8718831    25.17441
10200.113    1.266398    -34.48618
10266.817    0.3792166    175.0124
10333.521    0.5585796    -109.9931
10400.226    2.296052    -8.822861
10466.93    0.8949998    -26.23799
10533.634    0.9563515    -54.04366
10600.339    1.097396    -55.43103
10667.043    1.013399    -69.36149
10733.747    0.8617662    -83.43521
10800.451    0.8623676    -81.575
10867.156    1.434621    -105.9467
10933.86    1.295313    -124.1754
11000.564    0.8381276    -137.2803
11067.268    0.9759029    -146.9894
11133.973    0.9477444    -159.6648
11200.677    1.027822    -167.549
11267.381    1.102188    -172.1514
11334.086    0.8637951    172.0557
11400.79    1.151545    154.4246
11467.494    0.9992986    154.8167
11534.198    0.9749549    125.6032
11600.903    0.9270259    130.5114
11667.607    1.099725    102.4111
11734.311    0.9156957    88.80337
11801.016    0.8933623    78.59642
11867.72    0.8729486    78.43657
11934.424    0.9905441    65.19882
12001.128    1.044003    54.48337
12067.833    0.9557779    41.34888
12134.537    0.8423695    28.70812
12201.241    0.9030067    10.753
12267.946    1.012667    -0.4932484
12334.65    0.8784972    -9.717944
12401.354    0.9622439    -24.11115
12468.058    0.8435475    -32.46722
12534.763    1.022725    -49.31778
12601.467    0.84925    -61.51766
12668.171    0.9120832    -64.98832
12734.875    0.9173217    -77.44833
12801.58    0.9223705    -92.13863
12868.284    0.9259841    -104.4222
12934.988    0.9894776    -120.7833
13001.693    1.005121    -131.2372
13068.397    1.05221    -142.1754
13135.101    0.9146675    -147.4032
13201.805    0.8171451    -161.3544
13268.51    0.8842388    172.9859
13335.214    1.023684    175.665
13412.199    0.8771431    161.9944
13501.395    0.9353583    138.2896
13590.591    0.8332431    127.679
13679.786    0.8111547    113.2904
13768.982    0.8531721    102.4569
13858.178    0.8204563    80.39565
13947.374    0.8274325    60.78926
14036.57    0.9656789    37.3382
14125.766    1.043109    36.3518
14214.961    0.7928512    9.85134
14304.157    0.9936218    -3.959781
14393.353    0.8540897    -23.66622
14482.549    0.7994441    -37.53629
14571.745    0.8519997    -44.19675
14660.94    0.9522815    -62.9829
14750.136    0.9447495    -73.80308
14839.332    0.8397772    -94.28926
14928.528    0.8243107    -119.3833
15017.724    1.033703    -133.853
15106.92    1.050096    -141.8847
15196.115    0.790252    -169.4831
15285.311    0.9220788    -167.087
15374.507    1.273685    161.1753
15463.703    0.9079598    135.5234
15552.899    0.7757119    136.404
15642.094    0.6763922    115.8812
15731.29    0.7627184    94.10937
15820.486    0.8777694    69.85046
15909.682    1.122914    75.55325
15998.878    0.8210481    65.52782
16088.073    0.7094395    32.49333
16177.269    0.8980672    46.93505
16266.465    1.032046    -11.77936
16355.661    0.7554212    -21.03003
16444.857    0.7043436    -33.01814
16534.053    0.7043182    -35.96837
16623.248    0.6618937    -57.92203
16712.444    0.6766859    -88.49776
16801.64    1.672898    -107.273
16890.836    0.7619798    -83.0368
16980.032    0.9619742    -147.6992
17069.227    0.9755472    -110.5271
17158.423    1.340828    -161.2543
17247.619    0.6065085    164.9496
17336.815    0.4416579    177.2906
17426.011    0.4629325    173.4921
17515.207    0.5369446    144.9113
17604.402    0.5691876    98.02053
17693.598    1.49966    23.44254
17782.794    0.6847056    166.3283
17885.455    0.3373427    106.7224
18004.4    1.704328    172.1046
18123.344    0.4591332    3.322631
18242.289    0.2334831    28.72771
18361.233    0.2937956    8.28511
18480.178    0.2208321    -39.54479
18599.122    0.2112494    -60.76455
18718.067    0.100279    -98.42965
18837.011    0.12128    -61.83913
18955.956    0.2080642    -61.91317
19074.9    0.1381649    -61.8231
19193.845    0.07828319    17.81281
19312.789    0.1997032    8.388741
19431.734    0.3548223    -34.10867
19550.678    0.4527493    -116.4561
19669.623    0.1341959    94.59104
19788.567    0.5329141    -84.91331
19907.512    0.1593959    64.51895
20026.457    0.2734272    127.1912
20145.401    0.5015454    166.574
20264.346    0.2275219    100.2846
20383.29    0.3864758    11.19048
20502.235    0.339558    -43.04252
20621.179    0.4137981    161.6072
20740.124    0.3074278    -76.38902
20859.068    0.4521378    -9.713681
20978.013    0.5849308    75.84258
21096.957    0.6990396    111.4448
21215.902    1.283571    47.57314
21334.846    0.5701535    -73.92496
21453.791    0.1499799    -160.0695
21572.735    0.6013139    25.49507
21691.68    0.2403162    146.8563
21810.625    0.4164569    -129.3404
21929.569    0.5123407    -83.34148
22048.514    0.4744044    -59.30355
22167.458    0.4347256    -142.0878
22286.403    0.2350433    67.41908
22405.347    0.2999348    -29.78686
22524.292    0.3539281    106.5838
22643.236    0.2985155    -62.81092
22762.181    0.2299169    -46.44535
22881.125    0.2788949    -24.48369
23000.07    0.231063    -38.61072
23119.014    0.2115067    -72.48975
23237.959    0.06175096    -46.195
23356.903    0.1549303    10.54367
23475.848    0.1639222    -49.6196
23594.792    0.09018404    -5.105401
23713.737    0.06290755    57.38638
23850.638    0.07499642    -40.54435
24009.253    0.09952626    -52.44253
24167.868    0.09126864    -33.05883
24326.483    0.1878988    -53.25957
24485.098    0.08205041    24.08891
24643.713    0.2135278    -30.85306
24802.328    0.1786713    -4.694397
24960.944    0.2376779    -56.80365
25119.559    0.04300751    -109.7094
25278.174    0.2612445    -36.57446
25436.789    0.2552837    72.65559
25595.404    0.1607322    -124.7799
25754.019    0.3264555    -40.83214
25912.634    0.4182824    -38.67353
26071.249    0.3652583    -76.06602
26229.864    0.2159911    108.6585
26388.479    0.3651156    -11.58948
26547.094    0.2444259    56.65548
26705.709    0.3472006    140.0715
26864.325    0.2883417    -175.5261
27022.94    0.5569071    89.82616
27181.555    0.4826399    -39.76843
27340.17    0.1451771    162.7788
27498.785    0.3281514    -90.17828
27657.4    0.5246742    -20.78444
27816.015    0.5713643    -25.16493
27974.63    0.3078556    -81.95864
28133.245    0.2525165    6.959104
28291.86    0.2427703    38.89821
28450.475    0.2911636    36.72143
28609.09    0.2957348    -4.823046
28767.706    0.2684077    -90.33229
28926.321    0.4274994    30.88442
29084.936    0.133034    -167.9464
29243.551    0.1646135    -105.0613
29402.166    0.475754    -37.02109
29560.781    0.7673212    25.31645
29719.396    0.341196    -25.4398
29878.011    0.1291065    106.8723
30036.626    0.160035    -97.27966
30195.241    0.2958846    -40.90187
30353.856    0.2639376    -72.87045
30512.471    0.1013443    88.73365
30671.087    0.2600035    -10.59071
30829.702    0.05861935    89.47125
30988.317    0.1320852    -75.10971
31146.932    0.2952623    -0.7383488
31305.547    0.1540091    86.39957
31464.162    0.08948781    67.27633
31622.777    0.2089211    30.35533
31805.337    0.2225355    7.084534
32016.854    0.1513406    23.62756
32228.37    0.1785332    -4.081732
32439.887    0.1343528    -48.55429
32651.403    0.1416961    2.409019
32862.92    0.09006235    31.83236
33074.437    0.1031278    26.27475
33285.953    0.1234089    12.21126
33497.47    0.1150829    -15.8134
33708.986    0.1364135    9.704614
33920.503    0.09609102    -16.47813
34132.02    0.1265388    3.302413
34343.536    0.1256092    2.738794
34555.053    0.1075413    -15.92919
34766.569    0.09752933    17.124
34978.086    0.07019784    -9.686343
35189.602    0.150031    23.88003
35401.119    0.1258421    12.16894
35612.636    0.09963282    -0.7523317
35824.152    0.1327634    -5.451697
36035.669    0.1083886    0.5763748
36247.185    0.1362413    22.67569
36458.702    0.1303934    17.12783
36670.219    0.1472354    10.49881
36881.735    0.1149807    -12.39508
37093.252    0.1059653    8.039739
37304.768    0.1225921    12.98793
37516.285    0.09293146    11.19521
37727.802    0.140639    -16.41825
37939.318    0.1761782    -11.76788
38150.835    0.1392477    19.06094
38362.351    0.1342931    -3.958818
38573.868    0.1347457    26.07713
38785.385    0.130437    13.65794
38996.901    0.1375721    8.785213
39208.418    0.1164547    -7.988569
39419.934    0.1145312    9.035411
39631.451    0.1058159    17.10341
39842.967    0.1139053    18.06325
40054.484    0.1079686    23.86374
40266.001    0.1153293    31.48622
40477.517    0.1706015    14.36654
40689.034    0.1212108    5.017096
40900.55    0.1222087    8.271682
41112.067    0.1525199    9.053197
41323.584    0.1510025    22.75516
41535.1    0.1651987    24.17413
41746.617    0.1065612    37.45131
41958.133    0.2019504    21.26632
42169.65    0.1032939    23.08401
42413.098    0.1082551    8.151752
42695.16    0.1138237    15.43296
42977.222    0.1087679    12.53263
43259.284    0.1394881    12.00154
43541.346    0.1335629    11.40469
43823.408    0.172601    23.68889
44105.47    0.136057    31.64405
44387.532    0.1342703    17.44772
44669.594    0.1306012    40.29243
44951.655    0.1691426    16.25648
45233.717    0.1399868    19.29388
45515.779    0.1496997    15.87323
45797.841    0.1531094    18.96179
46079.903    0.1352346    24.73876
46361.965    0.1231617    23.4162
46644.027    0.1776091    20.21957
46926.089    0.1672239    25.16429
47208.151    0.1637791    28.29886
47490.213    0.1285599    39.75851
47772.275    0.1409335    18.36083
48054.337    0.1319214    27.68941
48336.399    0.1280099    34.65041
48618.461    0.1804855    28.30535
48900.523    0.1326988    17.83593
49182.585    0.1844491    26.58627
49464.646    0.1336536    24.91781
49746.708    0.1507264    23.46998
50028.77    0.1288227    41.631
50310.832    0.1478627    16.67175
50592.894    0.1749036    19.88789
50874.956    0.158065    35.473
51157.018    0.1431676    36.44754
51439.08    0.142889    24.02949
51721.142    0.1441751    20.8814
52003.204    0.1649452    32.10885
52285.266    0.1570095    28.97598
52567.328    0.1616172    28.40563
52849.39    0.1821628    31.3452
53131.452    0.166025    22.70825
53413.514    0.1424226    29.59723
53695.576    0.1591106    36.14281
53977.637    0.147275    21.28835
54259.699    0.141657    23.87468
54541.761    0.1657928    38.18583
54823.823    0.1495903    34.90049
55105.885    0.1521537    33.58878
55387.947    0.1673222    18.9956
55670.009    0.1531928    29.62815
55952.071    0.2089525    39.87313
56234.133    0.1550168    32.16574
56558.776    0.1720331    37.65326
56934.912    0.1621235    28.01351
57311.047    0.1709543    29.51822
57687.183    0.1482029    43.76825
58063.318    0.1995153    30.18635
58439.454    0.1773517    34.12798
58815.59    0.1711786    36.62196
59191.725    0.1993861    36.3586
59567.861    0.1606177    29.85976
59943.997    0.1618308    41.19279
60320.132    0.1951515    46.4111
60696.268    0.1725621    30.71199
61072.403    0.1944744    33.64826
61448.539    0.1866994    48.86566
61824.675    0.1863863    31.53584
62200.81    0.1847264    35.58036
62576.946    0.1817916    34.67871
62953.081    0.1554767    40.66387
63329.217    0.2040834    40.28156
63705.353    0.2159707    40.85641
64081.488    0.1691695    27.41059
64457.624    0.1756823    44.47521
64833.759    0.1949179    50.21972
65209.895    0.133831    34.14163
65586.031    0.185591    54.50042
65962.166    0.2120042    48.2458
66338.302    0.1700868    46.03323
66714.438    0.1745563    43.90992
67090.573    0.2048176    37.28817
67466.709    0.1481453    40.77139
67842.844    0.1993944    38.84692
68218.98    0.1688072    49.0262
68595.116    0.1752615    36.71861
68971.251    0.2063512    38.94658
69347.387    0.233541    41.52572
69723.522    0.2146838    40.1521
70099.658    0.250176    46.56086
70475.794    0.1755021    44.99648
70851.929    0.1782675    49.63883
71228.065    0.1922646    48.22321
71604.2    0.2387273    40.97662
71980.336    0.1961067    51.26458
72356.472    0.2413452    45.99866
72732.607    0.2003136    46.02714
73108.743    0.2292223    49.98669
73484.879    0.2224346    48.42641
73861.014    0.2117272    50.50267
74237.15    0.2207643    41.54483
74613.285    0.1833991    41.69515
74989.421    0.2042316    43.58347
75422.34    0.2396457    41.07618
75923.925    0.1905305    49.3185
76425.51    0.212025    43.04578
76927.095    0.2168014    44.74028
77428.68    0.2388852    38.6292
77930.264    0.2077317    41.45163
78431.849    0.1968186    38.60634
78933.434    0.226039    27.35628
79435.019    0.2438545    45.46563
79936.604    0.2102849    54.25165
80438.189    0.2207115    45.94342
80939.774    0.2181763    49.59795
81441.359    0.21558    50.05385
81942.944    0.2113511    46.53574
82444.529    0.2450382    58.69266
82946.113    0.2248531    49.95401
83447.698    0.2252521    54.51945
83949.283    0.2114109    46.30255
84450.868    0.2211317    58.38472
84952.453    0.2518265    42.94911
85454.038    0.2338794    51.85002
85955.623    0.271478    46.09752
86457.208    0.234088    56.64171
86958.793    0.2526971    49.62069
87460.378    0.2567446    44.39146
87961.962    0.2321461    46.04623
88463.547    0.2324173    40.25703
88965.132    0.2554854    43.85315
89466.717    0.2267905    53.62824
89968.302    0.2530161    54.00238
90469.887    0.2787832    49.17639
90971.472    0.237079    56.2439
91473.057    0.227602    49.51214
91974.642    0.2101632    67.28117
92476.227    0.2354981    46.4492
92977.811    0.199707    51.38809
93479.396    0.2045505    46.53688
93980.981    0.253722    55.96557
94482.566    0.2500408    55.49166
94984.151    0.2417245    49.14407
95485.736    0.2612677    45.85026
95987.321    0.2231992    54.58674
96488.906    0.2478081    49.88494
96990.491    0.2599768    47.91446
97492.076    0.2462522    46.99173
97993.66    0.2459884    43.27291
98495.245    0.2715876    54.59435
98996.83    0.2397185    54.34796
99498.415    0.255219    51.69333
100000.0    0.2340452    54.02747
100577.306    0.2374419    49.35353
101246.18    0.2551867    50.80143
101915.054    0.2504223    53.21292
102583.929    0.2629949    49.03835
103252.803    0.2469927    55.68006
103921.677    0.2719257    54.44511
104590.551    0.2910159    53.09492
105259.426    0.2732905    43.63799
105928.3    0.2283051    56.30462
106597.174    0.2800867    62.19271
107266.048    0.2565024    55.4711
107934.922    0.2507759    57.19212
108603.797    0.2800234    57.35396
109272.671    0.2651537    56.92093
109941.545    0.2753257    55.8868
110610.419    0.2850307    50.77464
111279.294    0.2608604    57.94999
111948.168    0.2713745    45.86422
112617.042    0.3019684    55.63356
113285.916    0.2770249    54.91327
113954.79    0.2734964    59.72053
114623.665    0.2926425    51.85134
115292.539    0.2762985    59.27198
115961.413    0.3075004    57.56264
116630.287    0.2625442    56.31456
117299.162    0.3120018    57.33488
117968.036    0.3220815    60.0295
118636.91    0.3194791    52.60418
119305.784    0.2839551    57.92177
119974.659    0.2750946    53.56942
120643.533    0.3337601    53.65397
121312.407    0.3094755    59.31897
121981.281    0.3246064    65.72628
122650.155    0.3128639    54.74928
123319.03    0.2717161    55.69268
123987.904    0.2642273    51.48217
124656.778    0.3039548    56.60498
125325.652    0.2878956    46.38864
125994.527    0.301028    54.99155
126663.401    0.3015023    52.32956
127332.275    0.3027342    50.56548
128001.149    0.3425753    53.30381
128670.023    0.3250496    64.55958
129338.898    0.3251749    57.42179
130007.772    0.3168845    58.74023
130676.646    0.3060182    52.64709
131345.52    0.3560368    55.17753
132014.395    0.3666844    63.53741
132683.269    0.3345191    58.28024
133352.143    0.31468    56.85372
134121.994    0.3526491    57.57163
135013.952    0.3633579    50.69924
135905.91    0.3575523    62.07753
136797.868    0.3206192    57.51635
137689.826    0.3540729    55.13352
138581.785    0.3798433    51.75866
139473.743    0.341311    57.78643
140365.701    0.3622145    58.67741
141257.659    0.3377473    53.66077
142149.617    0.3579815    64.02753
143041.575    0.3373168    62.50669
143933.533    0.4089765    57.70655
144825.491    0.4167956    59.36934
145717.449    0.3531495    62.20025
146609.407    0.3769868    62.48808
147501.366    0.3500143    61.41508
148393.324    0.342336    55.55125
149285.282    0.3399856    58.63584
150177.24    0.314956    57.75663
151069.198    0.3723863    59.17651
151961.156    0.4090559    59.18668
152853.114    0.3681866    58.29798
153745.072    0.3381837    58.8099
154637.03    0.4249542    63.67625
155528.988    0.3855891    65.38624
156420.947    0.4059879    56.11921
157312.905    0.3764404    63.81757
158204.863    0.4012736    56.61662
159096.821    0.397763    57.56408
159988.779    0.3966034    60.43549
160880.737    0.3597573    53.96601
161772.695    0.4082124    62.79446
162664.653    0.4162621    62.86514
163556.611    0.3715222    52.80973
164448.569    0.3768705    58.61249
165340.528    0.4160635    65.02873
166232.486    0.4359415    58.60793
167124.444    0.3755166    58.64733
168016.402    0.4160257    59.18236
168908.36    0.4029924    63.70301
169800.318    0.3755966    59.46144
170692.276    0.4628404    62.3423
171584.234    0.4323419    62.33584
172476.192    0.3727785    64.23505
173368.15    0.4200174    64.37432
174260.109    0.4451243    57.73285
175152.067    0.416706    70.75971
176044.025    0.4128636    58.34111
176935.983    0.4231539    71.59023
177827.941    0.4057982    64.1931
178854.553    0.3752921    55.14172
180043.998    0.4132222    62.13147
181233.444    0.4741879    58.59214
182422.889    0.4114649    59.69763
183612.334    0.4302591    57.37404
184801.779    0.4540013    66.07059
185991.225    0.444024    60.68885
187180.67    0.3977609    64.797
188370.115    0.435637    61.71857
189559.56    0.4540609    63.25392
190749.006    0.4277925    63.4624
191938.451    0.4630434    63.01567
193127.896    0.4562565    66.15379
194317.341    0.4703679    66.32545
195506.787    0.4486226    64.89742
196696.232    0.4800664    70.93315
197885.677    0.4868755    58.26978
199075.123    0.4596611    70.36218
200264.568    0.4606266    65.45273
201454.013    0.4442207    62.28056
202643.458    0.4607741    63.48422
203832.904    0.4904545    66.43398
205022.349    0.5140175    64.82561
206211.794    0.467244    65.0604
207401.239    0.5363081    66.29138
208590.685    0.4996757    65.24015
209780.13    0.4852537    62.37654
210969.575    0.4775264    72.90644
212159.02    0.4782639    63.93094
213348.466    0.5056636    58.81004
214537.911    0.5196963    66.48538
215727.356    0.520268    69.67552
216916.801    0.5292755    66.77383
218106.247    0.5180229    66.49679
219295.692    0.5088427    61.64531
220485.137    0.538923    58.85408
221674.583    0.5117115    66.51009
222864.028    0.5356701    65.98177
224053.473    0.5142384    69.05109
225242.918    0.5135706    66.79671
226432.364    0.4655112    63.01617
227621.809    0.5280611    64.56032
228811.254    0.4990889    71.92028
230000.699    0.5308574    67.55466
231190.145    0.5198199    69.98122
232379.59    0.5743632    65.45275
233569.035    0.5819604    66.00804
234758.48    0.51957    72.62849
235947.926    0.5132098    69.54177
237137.371    0.5320263    66.319
238506.38    0.5523612    66.51363
240092.531    0.5520954    68.44296
241678.681    0.5711532    66.42187
243264.832    0.5484294    68.47512
244850.983    0.6187093    71.47849
246437.134    0.6103725    69.46846
248023.284    0.6229952    69.43803
249609.435    0.5598049    67.35969
251195.586    0.6338627    70.81214
252781.737    0.57582    62.84075
254367.887    0.5918784    68.28757
255954.038    0.5973933    70.01164
257540.189    0.6260303    64.10658
259126.34    0.5865276    70.58994
260712.49    0.6341993    67.93587
262298.641    0.6302189    75.02246
263884.792    0.6371642    72.42879
265470.942    0.6028041    68.14088
267057.093    0.6693648    68.82127
268643.244    0.5938144    68.15807
270229.395    0.6917596    71.58466
271815.545    0.6494337    68.79458
273401.696    0.664628    68.92967
274987.847    0.6195281    70.56498
276573.998    0.6397522    67.87233
278160.148    0.6141926    72.56435
279746.299    0.6473074    70.77684
281332.45    0.6813381    71.72432
282918.601    0.62535    68.55785
284504.751    0.645542    68.10265
286090.902    0.6404193    72.80792
287677.053    0.6705301    75.7763
289263.204    0.6844102    66.0031
290849.354    0.633743    69.08309
292435.505    0.6632814    73.20139
294021.656    0.7170188    71.94266
295607.806    0.7011195    70.2007
297193.957    0.665534    68.18418
298780.108    0.6766032    69.77711
300366.259    0.723771    68.52428
301952.409    0.6438459    76.57122
303538.56    0.7397491    71.29561
305124.711    0.7430799    72.07248
306710.862    0.7719424    67.42655
308297.012    0.6838699    70.9052
309883.163    0.7031093    76.27419
311469.314    0.6863019    72.67276
313055.465    0.7278743    68.7815
314641.615    0.7190645    70.50784
316227.766    0.7406085    66.45468
318053.369    0.6830161    72.05587
320168.535    0.7215674    67.13769
322283.701    0.8180298    72.85141
324398.867    0.7361627    69.2338
326514.033    0.8382107    69.96515
328629.199    0.8217493    75.21398
330744.365    0.7335429    74.47424
332859.531    0.7577527    76.60593
334974.697    0.7917305    75.38187
337089.863    0.8166607    73.22848
339205.029    0.7684143    73.02951
341320.195    0.8116235    70.47502
343435.361    0.7987704    73.13744
345550.527    0.7780242    71.92757
347665.693    0.8695162    71.92126
349780.859    0.8956754    76.02728
351896.025    0.7737883    70.85142
354011.191    0.8193686    77.35619
356126.357    0.8382654    73.74281
358241.523    0.770951    73.50084
360356.689    0.8178959    71.24932
362471.855    0.8449987    75.62311
364587.021    0.9051625    73.57101
366702.187    0.8506646    76.76929
368817.353    0.9085639    76.14319
370932.519    0.8475643    75.12223
373047.685    0.8823129    71.81348
375162.851    0.8366607    68.59155
377278.017    0.8656757    74.2
379393.183    0.9180828    70.3658
381508.349    0.8919452    68.95221
383623.515    0.8952279    74.16055
385738.681    0.9040579    75.36646
387853.847    0.9503741    73.20267
389969.013    0.9265239    78.15434
392084.179    0.9014806    71.15215
394199.345    1.026989    77.60826
396314.511    0.8967897    75.22058
398429.677    0.9279295    75.32513
400544.843    0.9339642    73.18839
402660.009    0.9554071    76.26055
404775.175    0.9893588    77.10595
406890.341    0.9486294    75.93065
409005.507    0.9493272    72.33957
411120.673    0.9107276    74.78356
413235.839    0.9975896    78.27694
415351.005    0.9751711    77.31236
417466.171    0.9898705    78.42499
419581.337    1.025945    73.11286
421696.503    1.008639    69.71486
424130.984    1.041187    72.15505
426951.603    1.139558    75.99504
429772.222    1.01353    72.18452
432592.842    1.033875    66.45669
435413.461    1.052042    70.92199
438234.08    1.042936    72.27422
441054.699    1.061014    73.32192
443875.318    1.065763    73.67254
446695.938    1.189623    75.69833
449516.557    1.155001    71.99504
452337.176    1.120362    74.69995
455157.795    1.080942    72.97065
457978.414    1.076366    72.53697
460799.034    1.110239    72.55591
463619.653    1.097617    76.52749
466440.272    1.181106    73.12551
469260.891    1.179378    72.81007
472081.51    1.194397    73.63092
474902.13    1.050525    74.25639
477722.749    1.19647    75.92616
480543.368    1.172094    73.38654
483363.987    1.1928    71.99529
486184.606    1.249161    71.15469
489005.226    1.187267    74.34447
491825.845    1.195385    75.02941
494646.464    1.167112    72.34014
497467.083    1.172456    71.30151
500287.703    1.298821    71.76781
503108.322    1.217309    71.61709
505928.941    1.267433    72.35711
508749.56    1.306637    73.72512
511570.179    1.288796    72.7574
514390.799    1.278263    71.179
517211.418    1.242445    74.73426
520032.037    1.265493    73.26646
522852.656    1.366478    74.38873
525673.275    1.449826    76.57597
528493.895    1.430384    75.71223
531314.514    1.330819    75.35291
534135.133    1.329468    70.70163
536955.752    1.412556    73.38948
539776.371    1.347691    74.18671
542596.991    1.447364    74.09097
545417.61    1.330863    71.73484
548238.229    1.381074    70.27827
551058.848    1.375558    70.74188
553879.467    1.363304    67.57674
556700.087    1.450776    68.46233
559520.706    1.484366    71.94216
562341.325    1.491697    73.8867
565587.757    1.39889    71.72954
569349.113    1.36055    68.45927
573110.469    1.469589    70.83038
576871.825    1.564527    65.72332
580633.182    1.636554    73.84718
584394.538    1.601878    69.14748
588155.894    1.508275    71.55075
591917.25    1.558634    71.09631
595678.606    1.574196    73.97266
599439.962    1.544553    68.03164
603201.319    1.629468    69.84543
606962.675    1.640633    65.27533
610724.031    1.601547    66.73202
614485.387    1.587116    68.44187
618246.743    1.626614    69.81087
622008.099    1.672135    69.42487
625769.456    1.639515    71.10499
629530.812    1.656902    68.24915
633292.168    1.686723    67.49976
637053.524    1.668877    65.52154
640814.88    1.592693    67.75089
644576.236    1.761351    67.70453
648337.593    1.68282    69.4459
652098.949    1.799938    66.17816
655860.305    1.764712    68.74026
659621.661    1.664    67.72834
663383.017    1.778807    70.85821
667144.373    1.611392    67.07866
670905.73    1.756492    69.29623
674667.086    1.824704    64.95718
678428.442    1.826756    65.19865
682189.798    1.889092    67.64382
685951.154    1.720324    68.46619
689712.51    1.754882    62.37453
693473.867    1.844527    70.22938
697235.223    1.889702    60.53098
700996.579    1.870221    65.49044
704757.935    2.086969    64.05083
708519.291    1.845301    64.04504
712280.647    1.972885    63.47458
716042.004    1.941739    65.14551
719803.36    1.96546    66.72854
723564.716    1.988828    65.41013
727326.072    2.030947    62.32941
731087.428    2.027939    63.67857
734848.784    1.885287    62.68858
738610.141    2.084023    58.78769
742371.497    2.127676    62.6149
746132.853    2.100651    60.9976
749894.209    2.167337    61.89402
754223.396    2.023921    67.31238
759239.245    2.189754    65.4386
764255.094    2.217885    58.61377
769270.943    2.020546    57.58825
774286.792    2.136114    62.18933
779302.641    2.098882    61.88118
784318.49    2.087538    62.56181
789334.339    2.218232    61.14558
794350.188    2.227605    59.97351
799366.038    2.325245    59.75676
804381.887    2.300307    59.20197
809397.736    2.381459    58.83313
814413.585    2.263731    60.18675
819429.434    2.233607    58.0938
824445.283    2.445449    57.73618
829461.132    2.151908    56.73063
834476.981    2.422991    60.07121
839492.83    2.557829    56.37966
844508.679    2.488579    59.63157
849524.528    2.298138    54.20673
854540.377    2.416548    55.44843
859556.226    2.431165    54.36341
864572.075    2.398821    55.64977
869587.924    2.671065    56.78814
874603.773    2.601664    53.18168
879619.623    2.603338    54.67108
884635.472    2.57189    52.55516
889651.321    2.343682    55.43251
894667.17    2.728333    52.40783
899683.019    2.647775    55.91541
904698.868    2.547034    50.395
909714.717    2.692695    49.77812
914730.566    2.746679    51.96594
919746.415    2.809088    52.87789
924762.264    2.831167    50.04276
929778.113    2.944585    51.71151
934793.962    2.865692    49.96437
939809.811    2.677256    47.86692
944825.66    2.859062    49.47292
949841.509    2.675613    48.87475
954857.358    2.883317    47.98937
959873.208    3.003202    47.44011
964889.057    2.842246    48.29012
969904.906    2.920301    50.3632
974920.755    2.839913    47.42368
979936.604    2.868412    48.00121
984952.453    3.294636    45.8516
989968.302    2.76644    43.6447
994984.151    2.818563    48.75462
# AG4395A Measurement - Timestamp: Oct 05 2018 - 19:01:16
#---------- Measurement Parameters ------------
# Start Frequency (Hz): 1000000.0, 1000000.0
# Stop Frequency (Hz): 100000000.0, 100000000.0
# Frequency Points: 801, 801
# Measurement Format: LINM, PHAS
# Measuremed Input: AB, AB
#---------- Analyzer Settings ----------
# Number of Averages: 1
# Auto Bandwidth: Off, Off
# IF Bandwidth: 30000.0, 30000.0
# Input Attenuators (R,A,B): 20dB 20dB 20dB 
# Excitation amplitude = -20.0dBm
#---------- Measurement Data ----------
# [Freq(Hz) Chan 1 Chan 2 ]
1000000.0    2.860284    53.19409
1006670.429    3.132673    42.22869
1013340.857    3.769524    46.9016
1020011.286    3.179114    41.38848
1026681.715    3.576414    42.02249
1033352.143    3.215976    48.35311
1040022.572    2.80943    41.76693
1046693.0    2.980619    41.74701
1053363.429    3.404271    43.69989
1060033.858    3.234501    41.47949
1066704.286    3.179269    35.36604
1073374.715    3.242409    42.69003
1080045.144    3.117481    39.04158
1086715.572    3.058087    36.2655
1093386.001    3.264291    36.37302
1100056.43    3.355699    37.2475
1106726.858    3.161668    30.93837
1113397.287    3.122316    37.21844
1120067.716    3.044004    35.0127
1126738.144    3.076564    33.2266
1133408.573    3.165286    27.17299
1140079.001    3.615297    31.3922
1146749.43    3.240581    40.09839
1153419.859    3.221742    29.87907
1160090.287    3.257114    27.5376
1166760.716    3.349967    26.2909
1173431.145    3.146846    23.31824
1180101.573    3.84708    31.72169
1186772.002    3.720217    27.83392
1193442.431    3.153161    25.05704
1200112.859    3.100852    27.21182
1206783.288    3.251397    29.54956
1213453.716    3.330659    25.57177
1220124.145    3.13908    31.49307
1226794.574    3.376087    19.06371
1233465.002    3.13333    20.30765
1240135.431    3.039034    16.48812
1246805.86    3.450473    16.91854
1253476.288    2.900384    20.29391
1260146.717    3.577272    21.17973
1266817.146    3.368216    22.45763
1273487.574    3.253413    15.00223
1280158.003    3.056387    15.45426
1286828.432    3.509811    14.92103
1293498.86    2.980716    16.37512
1300169.289    3.277179    14.71397
1306839.717    3.298979    16.44797
1313510.146    2.990717    16.79029
1320180.575    3.204256    11.99024
1326851.003    3.152195    5.9307
1333521.432    3.086637    21.73901
1341219.935    2.821651    9.761041
1350139.516    3.230888    16.58017
1359059.097    3.274597    4.323879
1367978.678    2.849588    10.18388
1376898.259    3.136257    11.00069
1385817.841    2.908876    19.76431
1394737.422    2.749835    5.661685
1403657.003    2.553692    3.844893
1412576.584    2.922745    3.85973
1421496.165    2.772895    11.83138
1430415.746    2.833905    3.084022
1439335.327    2.482257    8.453542
1448254.908    2.585676    6.161982
1457174.49    2.531039    2.344699
1466094.071    2.851696    7.085521
1475013.652    2.758388    4.946597
1483933.233    2.183289    4.916943
1492852.814    2.487888    -0.8881556
1501772.395    2.636061    7.932243
1510691.976    2.239604    -3.374977
1519611.557    2.485592    -0.4572081
1528531.139    2.361652    0.8239675
1537450.72    2.466785    -8.691992
1546370.301    2.391351    3.993946
1555289.882    2.037914    3.939158
1564209.463    2.298486    2.426175
1573129.044    2.278215    1.406178
1582048.625    2.31168    -1.043875
1590968.206    2.072347    -4.026483
1599887.788    2.346973    -0.4738407
1608807.369    2.261829    -6.634717
1617726.95    2.016226    0.5001463
1626646.531    1.947006    1.081254
1635566.112    1.777659    -4.781099
1644485.693    2.090775    -8.674154
1653405.274    1.948602    -9.341074
1662324.855    1.85849    -0.8784392
1671244.437    2.02253    -5.712139
1680164.018    2.136227    -2.032776
1689083.599    2.124604    -2.43111
1698003.18    1.703084    -13.12703
1706922.761    1.966162    -6.573767
1715842.342    1.64022    6.458936
1724761.923    2.102968    -1.110004
1733681.504    1.690149    -0.965744
1742601.086    1.616356    3.565822
1751520.667    1.85605    -7.659489
1760440.248    1.788803    -4.082
1769359.829    1.687369    -5.772481
1778279.41    1.64274    -8.029531
1788545.529    1.597668    1.644342
1800439.982    1.83262    -3.413951
1812334.434    1.49051    -8.246329
1824228.887    1.636641    -3.994435
1836123.339    1.932102    -5.892478
1848017.792    1.586155    -18.29952
1859912.245    1.665434    -0.7941691
1871806.697    1.462582    2.138667
1883701.15    1.395201    -6.805841
1895595.602    1.321465    -2.309808
1907490.055    1.509884    -0.8575191
1919384.508    1.403078    -0.3990391
1931278.96    1.490165    -3.784221
1943173.413    1.557417    4.044238
1955067.865    1.40414    5.094954
1966962.318    1.284041    -4.560921
1978856.77    1.225315    -2.305554
1990751.223    1.384371    1.394661
2002645.676    1.395036    4.842748
2014540.128    1.076836    7.55545
2026434.581    1.270439    0.7138063
2038329.033    1.263044    2.272703
2050223.486    1.222258    1.91468
2062117.939    1.30248    0.840548
2074012.391    1.256111    5.162397
2085906.844    1.252612    14.79362
2097801.296    1.265114    3.197497
2109695.749    1.360382    12.34802
2121590.202    1.055604    16.09889
2133484.654    1.085077    11.40777
2145379.107    1.113454    7.353384
2157273.559    1.000101    13.18588
2169168.012    1.019565    16.87116
2181062.465    0.9139732    15.25872
2192956.917    1.118158    8.456635
2204851.37    1.091341    13.48363
2216745.822    0.991646    19.03858
2228640.275    1.05856    15.61197
2240534.727    1.016897    20.16092
2252429.18    1.125139    24.54491
2264323.633    1.018015    10.21187
2276218.085    0.9782444    18.83178
2288112.538    1.044409    26.03417
2300006.99    1.057323    18.10123
2311901.443    1.015309    16.07391
2323795.896    1.110315    25.58316
2335690.348    1.024661    21.58749
2347584.801    0.8593243    27.96467
2359479.253    1.02051    20.1483
2371373.706    0.9232463    25.40618
2385063.795    0.9490299    30.10227
2400925.302    0.922151    33.58766
2416786.81    0.849314    31.54837
2432648.317    0.8550935    23.25544
2448509.825    0.9027644    30.87519
2464371.332    0.9747899    36.43209
2480232.84    0.9465511    32.02494
2496094.347    1.034931    37.04065
2511955.855    1.060007    39.24073
2527817.362    0.7981089    34.67011
2543678.869    0.9800101    44.31837
2559540.377    0.8861462    33.39495
2575401.884    1.193256    52.50787
2591263.392    0.9903178    42.97729
2607124.899    1.201425    44.09969
2622986.407    0.953777    34.55737
2638847.914    0.7713195    40.39921
2654709.422    1.189578    51.95572
2670570.929    1.112313    43.53348
2686432.437    1.172898    54.16811
2702293.944    1.276678    51.68837
2718155.451    1.160228    45.42356
2734016.959    0.933024    49.99267
2749878.466    1.190537    52.51877
2765739.974    1.29867    49.1222
2781601.481    1.001443    59.00454
2797462.989    1.193772    50.48079
2813324.496    1.080079    61.00349
2829186.004    1.199339    56.24088
2845047.511    1.217564    51.85937
2860909.018    1.460597    56.67102
2876770.526    1.122087    60.57071
2892632.033    1.16714    58.73015
2908493.541    1.276623    51.28658
2924355.048    1.223399    50.50071
2940216.556    1.456188    57.80269
2956078.063    1.263875    56.20916
2971939.571    1.241848    57.78029
2987801.078    1.175484    55.36479
3003662.586    1.468408    67.53326
3019524.093    1.182487    55.04718
3035385.6    1.43672    71.67612
3051247.108    1.34907    65.8321
3067108.615    1.545542    63.95943
3082970.123    1.296767    59.95565
3098831.63    1.288464    64.93217
3114693.138    1.364444    63.87223
3130554.645    1.380401    66.8858
3146416.153    1.432286    66.49964
3162277.66    1.411274    68.09174
3180533.688    1.553339    70.68512
3201685.348    1.365947    60.96651
3222837.008    1.336829    75.87631
3243988.668    1.317001    66.65672
3265140.328    1.386781    70.92747
3286291.989    1.619294    75.6776
3307443.649    1.73608    68.0413
3328595.309    1.510553    71.19798
3349746.969    1.585899    67.42741
3370898.629    1.431791    68.27833
3392050.289    1.695476    72.86426
3413201.949    1.511414    73.36872
3434353.609    1.60759    67.68736
3455505.27    1.980712    71.75105
3476656.93    1.518544    71.88076
3497808.59    1.829576    72.15164
3518960.25    1.920987    72.86077
3540111.91    1.678484    72.9822
3561263.57    1.849409    73.29279
3582415.23    1.712306    79.26554
3603566.89    2.025541    72.15437
3624718.551    1.824827    76.68812
3645870.211    1.823364    67.15464
3667021.871    2.0454    75.48404
3688173.531    1.904107    70.15092
3709325.191    2.034538    83.50971
3730476.851    1.580862    71.79742
3751628.511    2.098568    67.74768
3772780.171    2.010456    69.99313
3793931.832    1.954431    79.60042
3815083.492    2.141    79.43147
3836235.152    1.983279    78.0844
3857386.812    1.91242    75.66509
3878538.472    2.226128    74.18267
3899690.132    2.131298    74.64991
3920841.792    2.112594    76.4684
3941993.452    2.177501    79.82552
3963145.113    2.343415    82.42223
3984296.773    2.242021    76.50809
4005448.433    2.578742    84.43556
4026600.093    2.253792    75.08756
4047751.753    2.105021    75.49027
4068903.413    2.384408    87.938
4090055.073    2.435035    75.64285
4111206.733    2.23317    82.82568
4132358.394    2.290104    80.71755
4153510.054    2.333763    75.20251
4174661.714    2.401046    85.96354
4195813.374    2.478949    81.7915
4216965.034    2.458963    83.92744
4241309.839    2.60013    81.37572
4269516.031    2.554996    76.15286
4297722.223    2.650825    71.27716
4325928.415    2.847163    86.07159
4354134.607    2.375385    74.92097
4382340.8    2.900564    78.80031
4410546.992    3.016233    77.16785
4438753.184    2.583428    79.30804
4466959.376    2.601063    84.62302
4495165.568    2.344588    74.6967
4523371.76    2.988211    80.53902
4551577.952    2.857047    72.23361
4579784.144    2.680738    74.44811
4607990.336    2.644589    83.60751
4636196.528    2.737544    72.23174
4664402.721    3.319085    84.82964
4692608.913    3.15537    79.50529
4720815.105    3.006678    81.98631
4749021.297    3.098998    73.15446
4777227.489    2.614775    80.22205
4805433.681    2.908965    76.4791
4833639.873    3.16176    87.20681
4861846.065    2.676864    84.02975
4890052.257    3.113331    78.46698
4918258.449    3.279555    77.70153
4946464.642    3.083266    78.81471
4974670.834    3.176762    88.15137
5002877.026    3.58692    70.11799
5031083.218    3.497336    86.88678
5059289.41    3.336313    76.77004
5087495.602    3.126423    81.6525
5115701.794    3.557825    81.29935
5143907.986    3.585206    75.5181
5172114.178    3.682747    83.10934
5200320.37    3.895021    85.589
5228526.563    3.226264    75.26554
5256732.755    3.532346    79.39494
5284938.947    3.363986    80.61903
5313145.139    3.287594    84.06644
5341351.331    4.279867    82.22269
5369557.523    3.835972    82.86096
5397763.715    3.223422    88.32612
5425969.907    3.22501    81.92641
5454176.099    3.557581    78.3764
5482382.291    3.820233    80.96105
5510588.484    3.703899    81.60389
5538794.676    3.527435    80.06545
5567000.868    3.478404    85.12296
5595207.06    4.062392    81.85103
5623413.252    3.680741    82.59447
5655877.571    4.133468    81.51083
5693491.133    3.771013    73.79189
5731104.694    3.896218    83.41795
5768718.256    4.179526    76.2999
5806331.818    4.110088    89.30978
5843945.379    4.128928    81.44778
5881558.941    4.409886    78.52306
5919172.503    4.598802    89.74695
5956786.064    4.081071    84.22117
5994399.626    4.304583    87.36067
6032013.188    3.805324    77.88174
6069626.749    4.539504    81.8062
6107240.311    4.825492    84.52308
6144853.873    4.522517    80.93284
6182467.434    4.375544    87.27544
6220080.996    4.671788    80.7513
6257694.558    4.382763    79.79191
6295308.119    4.901634    84.70263
6332921.681    4.346056    79.44643
6370535.243    4.455122    79.6627
6408148.804    4.337088    75.43618
6445762.366    4.636985    77.21433
6483375.928    4.770611    74.55528
6520989.489    4.732967    77.4258
6558603.051    4.807393    80.39478
6596216.613    4.387051    81.99473
6633830.175    5.030857    74.43024
6671443.736    4.901022    75.29798
6709057.298    5.26647    78.33765
6746670.86    4.927953    88.01753
6784284.421    5.657448    80.87393
6821897.983    5.643514    77.36221
6859511.545    4.968921    81.99004
6897125.106    4.718277    79.2121
6934738.668    5.029551    79.0373
6972352.23    4.785324    82.14477
7009965.791    5.328655    82.20291
7047579.353    5.451932    75.29661
7085192.915    5.312425    82.14001
7122806.476    5.797101    70.91424
7160420.038    5.764367    85.09383
7198033.6    5.902402    80.72598
7235647.161    6.143391    79.64836
7273260.723    6.495219    80.82497
7310874.285    6.172724    81.24879
7348487.846    5.462234    79.95241
7386101.408    5.159645    81.32777
7423714.97    5.908972    84.5239
7461328.531    6.348774    80.05876
7498942.093    6.027369    85.98257
7542233.958    5.724179    82.28953
7592392.449    7.512507    80.42335
7642550.939    6.01    72.95005
7692709.43    5.547473    85.2221
7742867.921    6.182033    81.89377
7793026.411    6.019579    74.64854
7843184.902    6.642322    76.93057
7893343.393    5.434864    80.96781
7943501.883    6.079771    79.87225
7993660.374    7.312765    69.95207
8043818.865    6.22114    75.90367
8093977.355    6.54542    75.41602
8144135.846    6.469504    83.95306
8194294.336    7.721483    77.2226
8244452.827    6.580988    81.35838
8294611.318    6.602583    76.71014
8344769.808    7.006542    76.3523
8394928.299    7.639446    80.90469
8445086.79    7.722676    67.82152
8495245.28    6.149142    77.43646
8545403.771    7.026573    73.462
8595562.262    7.758242    87.93067
8645720.752    7.327854    72.88673
8695879.243    7.438585    64.84401
8746037.734    6.819117    81.60116
8796196.224    7.996755    83.88664
8846354.715    7.572292    78.89137
8896513.206    8.165893    84.33002
8946671.696    6.640353    81.20681
8996830.187    7.913056    85.31764
9046988.678    8.122369    71.01133
9097147.168    7.808518    77.64743
9147305.659    7.587523    78.8178
9197464.15    7.462352    78.88314
9247622.64    7.749929    77.13888
9297781.131    8.677743    81.03653
9347939.622    7.992397    76.47691
9398098.112    8.246855    68.95242
9448256.603    8.157297    81.09992
9498415.093    8.122434    76.62702
9548573.584    8.344718    77.91886
9598732.075    8.321314    77.12709
9648890.565    8.139063    72.4437
9699049.056    9.188599    79.16077
9749207.547    8.503718    76.8958
9799366.037    8.307235    81.16177
9849524.528    9.338191    77.7009
9899683.019    8.520491    78.99466
9949841.509    11.26975    72.76358
10000000.0    9.287568    72.89861
10057730.63    9.768909    81.43615
10124618.052    9.760653    77.47735
10191505.475    10.03587    73.81874
10258392.897    8.282235    75.50696
10325280.319    8.672699    71.41774
10392167.741    10.49059    82.19527
10459055.164    11.54311    72.04161
10525942.586    10.10738    76.14958
10592830.008    10.79946    75.52518
10659717.431    10.73273    72.6572
10726604.853    9.72845    76.87108
10793492.275    10.32021    71.76539
10860379.697    9.833703    67.69467
10927267.12    10.30226    73.37994
10994154.542    10.89276    77.12534
11061041.964    9.573836    74.02622
11127929.387    11.77934    73.81212
11194816.809    11.04817    72.0229
11261704.231    10.44381    72.39271
11328591.653    10.57637    76.30162
11395479.076    10.84955    77.71121
11462366.498    10.79763    73.25146
11529253.92    11.94887    68.17133
11596141.343    10.91258    81.1199
11663028.765    13.12965    70.18053
11729916.187    13.25102    69.59145
11796803.609    12.74229    70.78594
11863691.032    13.34189    70.52321
11930578.454    11.55637    73.42522
11997465.876    12.90195    72.24443
12064353.299    14.0646    65.29706
12131240.721    12.9241    69.43099
12198128.143    12.72924    72.75095
12265015.565    13.0787    73.14802
12331902.988    13.98162    68.26495
12398790.41    14.1432    68.51353
12465677.832    13.03793    76.25776
12532565.255    14.72051    69.78635
12599452.677    13.40532    69.21478
12666340.099    14.1772    68.17726
12733227.521    13.70535    70.68114
12800114.944    15.62311    71.19284
12867002.366    15.42018    70.17765
12933889.788    16.22146    67.38094
13000777.211    16.43504    75.07458
13067664.633    15.36192    67.43919
13134552.055    15.66399    61.623
13201439.477    14.61461    71.97939
13268326.9    14.88911    69.65938
13335214.322    15.05098    69.09155
13412199.354    15.71707    67.1127
13501395.165    16.81815    66.37215
13590590.976    15.30279    72.02464
13679786.787    15.23833    64.147
13768982.599    18.39351    65.50146
13858178.41    16.17669    65.74756
13947374.221    16.29699    64.66653
14036570.032    20.90508    63.74495
14125765.843    16.18396    70.06019
14214961.654    18.92154    60.97682
14304157.465    16.60483    66.59842
14393353.277    19.36858    65.43015
14482549.088    20.82077    60.16577
14571744.899    19.50106    66.7373
14660940.71    23.95241    64.73671
14750136.521    20.15516    68.52428
14839332.332    19.58624    62.83461
14928528.143    20.45808    68.9133
15017723.955    21.57342    59.2303
15106919.766    22.96946    54.43246
15196115.577    21.24866    62.15538
15285311.388    23.11651    62.20874
15374507.199    23.06742    50.69749
15463703.01    22.03578    68.98913
15552898.821    22.74852    64.65788
15642094.633    24.84527    57.37321
15731290.444    23.56164    62.02481
15820486.255    24.50883    63.85741
15909682.066    23.18505    55.75063
15998877.877    27.30175    65.70187
16088073.688    24.34984    61.56231
16177269.499    31.2905    52.50938
16266465.311    26.14221    61.80801
16355661.122    26.78379    55.37465
16444856.933    27.91172    57.13762
16534052.744    26.60516    55.94725
16623248.555    29.80084    53.33794
16712444.366    30.16547    53.74686
16801640.177    25.43569    51.81956
16890835.989    28.2936    51.53938
16980031.8    31.90146    51.81764
17069227.611    37.12508    51.2177
17158423.422    31.58974    48.078
17247619.233    32.58187    47.9134
17336815.044    33.72674    47.54075
17426010.855    40.3212    51.8802
17515206.667    34.93884    54.21242
17604402.478    32.83845    47.83998
17693598.289    37.21415    48.09948
17782794.1    31.90989    40.88261
17885455.291    36.19982    45.49642
18004399.817    38.51665    46.24909
18123344.343    37.09444    53.02097
18242288.869    41.12916    37.47474
18361233.394    39.24574    40.40657
18480177.92    42.52291    44.65215
18599122.446    43.4052    33.50933
18718066.972    48.12643    41.26595
18837011.498    43.94102    37.53441
18955956.024    45.48149    32.78634
19074900.549    47.07177    31.98056
19193845.075    55.2468    27.80169
19312789.601    52.08543    27.42373
19431734.127    53.90788    34.15858
19550678.653    53.42833    26.25619
19669623.179    58.07891    27.96247
19788567.704    50.30157    26.03492
19907512.23    69.25253    13.18512
20026456.756    59.66727    19.28141
20145401.282    63.73394    7.682517
20264345.808    61.51752    14.78862
20383290.334    68.11739    19.31047
20502234.859    65.65936    7.242353
20621179.385    66.27199    11.98577
20740123.911    66.01613    5.085975
20859068.437    71.92569    3.742445
20978012.963    68.5218    -7.643672
21096957.489    73.44656    -14.30977
21215902.014    70.66413    -4.729452
21334846.54    71.54167    -16.4797
21453791.066    76.82121    -13.51317
21572735.592    66.31413    -13.50108
21691680.118    67.68395    -12.77692
21810624.644    70.79216    -12.83372
21929569.169    68.75356    -24.10412
22048513.695    70.2844    -29.46001
22167458.221    61.63773    -26.58792
22286402.747    68.66734    -32.35677
22405347.273    71.50405    -34.38527
22524291.799    64.75363    -37.48156
22643236.324    72.97441    -45.84878
22762180.85    65.61939    -40.28362
22881125.376    77.34544    -48.67111
23000069.902    59.32199    -46.25365
23119014.428    62.01717    -43.70449
23237958.954    59.16558    -53.98201
23356903.479    61.9394    -52.85086
23475848.005    57.31279    -56.04836
23594792.531    50.67629    -47.8453
23713737.057    53.80139    -56.13229
23850637.955    57.73092    -58.34905
24009253.029    51.93323    -61.15519
24167868.104    49.70715    -63.72071
24326483.178    51.46792    -60.93456
24485098.253    46.66637    -67.3131
24643713.327    49.67093    -59.32599
24802328.402    47.69802    -72.98045
24960943.476    43.62864    -69.54005
25119558.55    42.16142    -72.80219
25278173.625    40.03099    -72.38676
25436788.699    47.75405    -73.96289
25595403.774    39.36223    -75.15981
25754018.848    39.09977    -78.22466
25912633.923    42.40258    -76.23703
26071248.997    39.5974    -79.8055
26229864.071    40.36541    -74.77267
26388479.146    36.05993    -78.72684
26547094.22    37.9319    -77.15353
26705709.295    32.48344    -83.50351
26864324.369    35.08381    -88.47569
27022939.444    31.60867    -85.10754
27181554.518    29.61584    -83.75259
27340169.592    30.50662    -87.51415
27498784.667    31.62165    -78.80682
27657399.741    29.89105    -84.40058
27816014.816    31.30025    -88.69755
27974629.89    25.64049    -91.43133
28133244.965    25.79313    -85.89539
28291860.039    29.42227    -87.53238
28450475.113    27.53563    -82.34931
28609090.188    23.30005    -88.46864
28767705.262    28.67847    -94.56161
28926320.337    24.54268    -93.6778
29084935.411    24.78148    -96.29924
29243550.486    22.44006    -91.59904
29402165.56    23.31078    -88.98676
29560780.634    26.6081    -96.55984
29719395.709    23.42988    -84.32066
29878010.783    22.72869    -104.697
30036625.858    21.00989    -95.53699
30195240.932    22.99264    -100.654
30353856.007    24.70425    -103.1614
30512471.081    24.28813    -102.5786
30671086.155    20.48418    -101.4557
30829701.23    20.23367    -106.2367
30988316.304    20.45189    -103.168
31146931.379    20.49525    -92.97723
31305546.453    18.91247    -99.84672
31464161.528    19.10894    -100.6661
31622776.602    18.95782    -98.50238
31805336.883    18.46907    -95.08778
32016853.484    18.69154    -90.9509
32228370.085    17.68491    -97.2805
32439886.687    17.87764    -106.3831
32651403.288    20.01305    -97.21766
32862919.889    19.6745    -98.40999
33074436.49    15.99159    -98.99665
33285953.092    18.16224    -96.49206
33497469.693    16.95648    -102.8654
33708986.294    15.61376    -101.2986
33920502.895    16.32019    -106.4758
34132019.496    14.88879    -109.2282
34343536.098    14.69525    -111.9796
34555052.699    14.54931    -105.6578
34766569.3    15.91705    -104.9363
34978085.901    13.80242    -100.2654
35189602.503    14.57585    -105.6192
35401119.104    14.21229    -100.896
35612635.705    12.12875    -107.3839
35824152.306    11.83548    -107.9819
36035668.907    14.22547    -105.947
36247185.509    12.91584    -109.2169
36458702.11    14.71737    -109.997
36670218.711    12.69886    -109.1435
36881735.312    12.3118    -105.6226
37093251.914    14.79304    -104.188
37304768.515    12.91613    -109.4459
37516285.116    9.97732    -113.6716
37727801.717    11.24425    -113.2371
37939318.319    10.58601    -114.3046
38150834.92    11.17427    -111.1991
38362351.521    9.314777    -110.7096
38573868.122    10.3304    -106.8939
38785384.723    11.28444    -114.4824
38996901.325    10.66019    -103.938
39208417.926    9.444885    -111.5229
39419934.527    10.1577    -120.464
39631451.128    9.324609    -115.1398
39842967.73    8.377998    -108.3625
40054484.331    6.903711    -113.1997
40266000.932    8.36247    -113.6678
40477517.533    6.192158    -111.0548
40689034.134    6.428164    -112.8007
40900550.736    7.484228    -117.1418
41112067.337    5.528866    -105.735
41323583.938    5.43336    -120.1678
41535100.539    4.754014    -113.256
41746617.141    5.348619    -95.59438
41958133.742    4.49176    -100.7825
42169650.343    4.472201    -91.83643
42413098.391    3.533489    -72.74532
42695160.312    4.184796    -53.80354
42977222.233    3.919084    -42.87598
43259284.154    5.213204    -24.65433
43541346.075    7.364387    -31.02258
43823407.996    9.610838    -33.26162
44105469.917    11.47485    -27.46055
44387531.838    15.15968    -39.47086
44669593.759    17.15433    -55.75132
44951655.68    16.45439    -61.01138
45233717.601    19.67449    -67.92471
45515779.522    17.44717    -68.82925
45797841.443    17.70458    -74.68671
46079903.364    18.7172    -80.02466
46361965.285    19.15268    -80.49721
46644027.206    18.30522    -85.5351
46926089.127    18.63112    -94.99223
47208151.048    20.51327    -95.70834
47490212.969    15.3518    -103.9354
47772274.89    14.71776    -114.7323
48054336.811    13.57439    -106.4887
48336398.732    14.57861    -107.9888
48618460.653    15.81838    -110.7767
48900522.574    14.06515    -105.2662
49182584.495    13.88954    -100.278
49464646.415    15.11835    -106.786
49746708.336    13.07273    -107.371
50028770.257    13.76    -105.9539
50310832.178    12.62284    -111.215
50592894.099    12.25185    -108.5593
50874956.02    12.51808    -103.0914
51157017.941    12.45805    -113.2857
51439079.862    12.5784    -108.818
51721141.783    10.46411    -110.569
52003203.704    11.55356    -108.0089
52285265.625    10.52217    -110.5542
52567327.546    11.44995    -111.4723
52849389.467    10.53837    -109.3395
53131451.388    13.67704    -114.2534
53413513.309    12.39458    -115.9912
53695575.23    10.29817    -119.4227
53977637.151    10.97345    -117.1823
54259699.072    10.4883    -114.8251
54541760.993    11.35654    -120.4745
54823822.914    9.346169    -119.3784
55105884.835    10.40918    -104.0752
55387946.756    11.65093    -115.8385
55670008.677    10.04637    -118.2607
55952070.598    8.75587    -115.4373
56234132.519    9.573024    -120.2784
56558775.709    8.928488    -113.6879
56934911.326    9.400266    -121.1141
57311046.943    8.870229    -114.6611
57687182.559    9.059937    -122.7029
58063318.176    9.060517    -124.3112
58439453.793    10.07696    -124.5312
58815589.41    10.61726    -121.7494
59191725.027    10.9037    -127.3898
59567860.644    8.317262    -127.04
59943996.26    7.391771    -123.9427
60320131.877    9.946121    -126.1836
60696267.494    9.122005    -122.3625
61072403.111    8.109021    -128.1771
61448538.728    9.24112    -119.3985
61824674.344    8.915168    -124.3166
62200809.961    8.222481    -128.7941
62576945.578    9.092834    -136.3534
62953081.195    9.526757    -125.2689
63329216.812    9.191451    -118.9012
63705352.429    8.112575    -113.3422
64081488.045    8.50857    -127.8913
64457623.662    10.62813    -129.67
64833759.279    7.843276    -131.1037
65209894.896    8.686201    -130.429
65586030.513    7.604577    -133.233
65962166.129    6.909897    -135.5661
66338301.746    8.341947    -120.6325
66714437.363    7.966774    -129.8203
67090572.98    8.657621    -135.6082
67466708.597    8.409518    -137.6021
67842844.213    7.836726    -127.4276
68218979.83    7.601989    -134.9827
68595115.447    7.615294    -128.6136
68971251.064    8.141088    -147.2928
69347386.681    5.981451    -146.0397
69723522.298    7.937581    -135.8579
70099657.914    8.309753    -128.9596
70475793.531    7.676235    -128.4469
70851929.148    7.589256    -139.4911
71228064.765    8.329636    -128.2091
71604200.382    7.828826    -132.4775
71980335.998    7.209783    -137.8747
72356471.615    8.755606    -132.3689
72732607.232    8.167783    -138.9321
73108742.849    5.919278    -138.22
73484878.466    6.902798    -143.0687
73861014.083    6.754099    -142.8511
74237149.699    7.333527    -144.6656
74613285.316    6.668645    -148.0156
74989420.933    7.113814    -148.2714
75422339.585    7.617778    -136.8125
75923924.491    6.474524    -137.4545
76425509.398    7.492295    -130.761
76927094.304    7.62798    -134.2633
77428679.211    6.152571    -141.7441
77930264.117    8.141634    -140.9269
78431849.024    8.078246    -142.3481
78933433.93    6.578547    -139.3805
79435018.836    7.621944    -138.1467
79936603.743    6.143625    -145.8273
80438188.649    8.042219    -143.6016
80939773.556    6.162262    -142.5818
81441358.462    8.473662    -157.1945
81942943.369    6.084371    -145.388
82444528.275    6.822112    -147.7362
82946113.181    6.273195    -148.3516
83447698.088    6.57201    -153.3017
83949282.994    6.870754    -154.9254
84450867.901    6.36128    -149.8805
84952452.807    6.235396    -157.7687
85454037.714    6.144521    -153.328
85955622.62    7.496968    -145.1991
86457207.526    6.173702    -152.965
86958792.433    5.269125    -144.2666
87460377.339    6.071618    -145.239
87961962.246    5.567986    -150.4249
88463547.152    6.608298    -156.0937
88965132.059    5.538672    -156.9904
89466716.965    5.602117    -147.0235
89968301.871    6.411036    -132.1582
90469886.778    6.157694    -153.8432
90971471.684    4.684334    -155.8585
91473056.591    5.409804    -155.504
91974641.497    5.944668    -160.472
92476226.404    5.737208    -160.7774
92977811.31    5.641303    -152.2009
93479396.216    7.390639    -160.8846
93980981.123    7.043873    -163.2252
94482566.029    5.947925    -165.5535
94984150.936    6.398676    -171.3216
95485735.842    5.502422    -164.1132
95987320.749    6.507756    -160.0678
96488905.655    5.61276    -160.1475
96990490.561    5.83442    -167.3763
97492075.468    5.264802    -157.5348
97993660.374    5.343331    -164.6405
98495245.281    5.717969    -164.7762
98996830.187    5.91886    -165.6986
99498415.094    5.540196    -160.9508
100000000.0    7.077009    -165.2135
