# AG4395A Measurement - Timestamp: Oct 05 2018 - 18:59:22
#---------- Measurement Parameters ------------
# Start Frequency (Hz): 1000000.0, 1000000.0
# Stop Frequency (Hz): 100000000.0, 100000000.0
# Frequency Points: 801, 801
# Measurement Format: LINM, PHAS
# Measuremed Input: AB, AB
#---------- Analyzer Settings ----------
# Number of Averages: 1
# Auto Bandwidth: Off, Off
# IF Bandwidth: 30000.0, 30000.0
# Input Attenuators (R,A,B): 20dB 20dB 20dB 
# Excitation amplitude = -20.0dBm
#---------- Measurement Data ----------
# [Freq(Hz) Chan 1 Chan 2 ]
1000000.0    2.874437    51.89164
1006670.429    2.658728    45.75241
1013340.857    2.687478    48.53094
1020011.286    2.983146    44.24828
1026681.715    2.744373    49.21705
1033352.143    2.530265    40.00422
1040022.572    3.026028    48.55241
1046693.0    2.66046    41.2862
1053363.429    2.757586    47.91903
1060033.858    2.837178    43.11602
1066704.286    2.72067    36.49249
1073374.715    3.129435    45.08522
1080045.144    2.700696    34.62122
1086715.572    2.780176    34.5925
1093386.001    2.787033    45.17013
1100056.43    3.070299    42.38495
1106726.858    3.440588    32.81586
1113397.287    2.568799    30.75204
1120067.716    2.63946    30.2993
1126738.144    3.088094    34.61733
1133408.573    2.746306    37.22649
1140079.001    2.769511    36.0411
1146749.43    2.71913    33.9715
1153419.859    3.099913    40.05773
1160090.287    3.29461    30.30726
1166760.716    2.950311    32.36878
1173431.145    2.951191    34.10101
1180101.573    3.186063    30.61578
1186772.002    2.969494    31.49223
1193442.431    2.762914    33.62556
1200112.859    3.208653    38.59691
1206783.288    2.846676    29.62923
1213453.716    3.274826    22.11451
1220124.145    3.297509    34.68711
1226794.574    3.329272    24.71631
1233465.002    3.901442    19.29782
1240135.431    3.557147    22.309
1246805.86    3.220103    28.16398
1253476.288    3.194588    22.37615
1260146.717    3.064486    21.00183
1266817.146    3.239896    22.6726
1273487.574    3.451757    23.96865
1280158.003    3.006531    19.28281
1286828.432    2.821479    21.46765
1293498.86    3.023915    23.06089
1300169.289    3.040114    21.26573
1306839.717    2.755897    16.87744
1313510.146    3.012333    19.72011
1320180.575    3.089397    19.01838
1326851.003    2.979695    24.33987
1333521.432    3.201734    15.38193
1341219.935    2.893646    24.68848
1350139.516    3.609194    19.50541
1359059.097    3.023813    14.11972
1367978.678    2.794523    12.26942
1376898.259    2.415993    10.59124
1385817.841    2.989308    15.42599
1394737.422    3.089832    6.716192
1403657.003    3.064336    11.41041
1412576.584    2.774984    9.317902
1421496.165    2.942742    3.316334
1430415.746    3.156973    16.68059
1439335.327    2.792289    10.96725
1448254.908    2.90139    0.9463259
1457174.49    2.677896    8.004406
1466094.071    2.823218    6.906519
1475013.652    2.208847    5.602193
1483933.233    2.895699    2.908993
1492852.814    2.723063    11.0823
1501772.395    2.276503    3.222635
1510691.976    2.547101    7.25291
1519611.557    2.204526    7.03502
1528531.139    2.405049    0.9954049
1537450.72    2.393952    3.057979
1546370.301    2.30714    -1.754922
1555289.882    2.250141    -3.741313
1564209.463    2.438838    9.444666
1573129.044    2.324194    4.344784
1582048.625    2.315264    1.615298
1590968.206    2.537787    6.809571
1599887.788    1.931586    2.438032
1608807.369    2.120093    0.4832363
1617726.95    2.616524    -9.210848
1626646.531    1.938568    1.382501
1635566.112    2.315929    1.767867
1644485.693    1.995943    0.9552603
1653405.274    2.087743    -1.783327
1662324.855    1.954312    7.812611
1671244.437    2.045411    0.1709197
1680164.018    1.9628    -1.488906
1689083.599    1.785006    4.184868
1698003.18    2.066206    1.482007
1706922.761    1.893889    0.9631076
1715842.342    2.308388    -1.061482
1724761.923    1.792757    -2.725552
1733681.504    1.721237    3.542414
1742601.086    2.055894    0.9074881
1751520.667    1.906307    -9.602224
1760440.248    1.830858    -3.044682
1769359.829    1.819373    -4.499334
1778279.41    1.71347    -3.505135
1788545.529    1.877829    1.034586
1800439.982    1.813665    0.290199
1812334.434    1.777203    6.302594
1824228.887    1.703517    -0.5678955
1836123.339    1.756148    1.838237
1848017.792    1.377228    2.045273
1859912.245    1.684277    5.723695
1871806.697    1.463302    -1.99268
1883701.15    1.48151    5.127281
1895595.602    1.596215    -0.1536944
1907490.055    1.469141    1.596561
1919384.508    1.399517    10.13309
1931278.96    1.351073    -1.990791
1943173.413    1.374565    -1.299463
1955067.865    1.367272    3.716228
1966962.318    1.324948    4.593667
1978856.77    1.192629    -0.1041216
1990751.223    1.349574    -1.526084
2002645.676    1.471481    5.517472
2014540.128    1.308735    2.52742
2026434.581    1.38866    3.227436
2038329.033    1.302775    1.763703
2050223.486    1.247069    8.807163
2062117.939    1.181977    11.23098
2074012.391    1.327559    12.86537
2085906.844    1.439608    9.263708
2097801.296    1.478302    9.123846
2109695.749    1.304192    8.914227
2121590.202    1.091451    7.78981
2133484.654    1.122123    14.35102
2145379.107    1.324914    20.47676
2157273.559    1.055308    15.4707
2169168.012    1.218628    12.01179
2181062.465    0.9731347    10.76957
2192956.917    1.240999    20.16343
2204851.37    1.104992    12.30513
2216745.822    1.033067    13.47378
2228640.275    1.169705    15.60274
2240534.727    1.230453    19.66871
2252429.18    1.041257    17.71317
2264323.633    1.008006    16.20893
2276218.085    0.9357739    23.05623
2288112.538    1.040444    19.0575
2300006.99    1.108781    26.72845
2311901.443    1.007158    30.4666
2323795.896    1.09698    26.20769
2335690.348    1.062436    19.14857
2347584.801    1.142671    32.02968
2359479.253    1.195834    30.70231
2371373.706    1.002942    25.82534
2385063.795    1.071127    34.50802
2400925.302    1.091569    39.71115
2416786.81    1.094267    35.66215
2432648.317    0.997163    36.86219
2448509.825    0.9836917    31.5775
2464371.332    0.9096162    42.52059
2480232.84    1.081201    47.49947
2496094.347    1.1398    31.13559
2511955.855    0.9181233    41.18592
2527817.362    1.1653    40.02966
2543678.869    1.102634    38.32889
2559540.377    1.036138    36.0778
2575401.884    1.069219    47.05596
2591263.392    1.240932    40.3922
2607124.899    0.984523    39.3523
2622986.407    1.039551    53.30883
2638847.914    1.032202    39.33035
2654709.422    1.355627    51.70792
2670570.929    1.06331    51.96342
2686432.437    1.114944    53.92196
2702293.944    1.25651    51.04568
2718155.451    1.184832    58.54919
2734016.959    1.228907    51.22746
2749878.466    1.327675    53.50047
2765739.974    1.143231    55.55629
2781601.481    1.222305    50.18711
2797462.989    1.164323    59.82561
2813324.496    1.159117    58.68126
2829186.004    1.239529    48.4067
2845047.511    1.16012    49.8248
2860909.018    1.365902    55.49833
2876770.526    1.313872    53.32626
2892632.033    1.319483    59.02036
2908493.541    1.248224    54.44574
2924355.048    1.508831    65.65786
2940216.556    1.486694    57.16668
2956078.063    1.377267    53.1514
2971939.571    1.367024    56.70175
2987801.078    1.405379    71.0362
3003662.586    1.631869    66.95625
3019524.093    1.294706    59.96957
3035385.6    1.57102    60.07383
3051247.108    1.275917    74.36234
3067108.615    1.494099    64.51485
3082970.123    1.425756    65.9915
3098831.63    1.660427    71.85006
3114693.138    1.77349    55.78997
3130554.645    1.642394    67.15784
3146416.153    1.622966    75.55196
3162277.66    1.728494    68.83947
3180533.688    1.517155    70.54765
3201685.348    1.481197    70.93719
3222837.008    1.787121    71.18404
3243988.668    1.678006    74.24303
3265140.328    1.897733    67.52511
3286291.989    1.987131    66.584
3307443.649    1.824961    76.85877
3328595.309    1.56376    64.44192
3349746.969    1.764002    70.24308
3370898.629    1.684487    68.77312
3392050.289    1.972538    77.00104
3413201.949    1.460976    70.60592
3434353.609    1.64934    73.62695
3455505.27    1.602625    72.2988
3476656.93    1.975619    74.0336
3497808.59    2.136248    78.60845
3518960.25    1.884095    78.08227
3540111.91    2.09035    72.98573
3561263.57    1.842223    76.86431
3582415.23    1.753451    74.31965
3603566.89    2.050059    75.27353
3624718.551    2.161061    71.36287
3645870.211    2.141139    70.9887
3667021.871    2.024692    76.23829
3688173.531    2.049733    74.49441
3709325.191    2.160513    74.15778
3730476.851    1.938219    78.30509
3751628.511    2.236297    71.5564
3772780.171    2.557831    67.7542
3793931.832    2.247324    73.76492
3815083.492    1.946916    77.63276
3836235.152    1.950382    67.33797
3857386.812    2.307869    72.04501
3878538.472    2.206785    67.243
3899690.132    1.99755    76.0537
3920841.792    2.338562    77.89272
3941993.452    2.312244    73.91159
3963145.113    1.95389    75.13356
3984296.773    2.16038    82.22256
4005448.433    1.927034    70.52768
4026600.093    2.576084    79.80331
4047751.753    2.524083    79.83211
4068903.413    2.28997    72.70879
4090055.073    2.324869    75.89886
4111206.733    2.457692    80.8577
4132358.394    2.438627    73.18848
4153510.054    2.21478    75.69281
4174661.714    2.104311    87.02058
4195813.374    2.551207    81.80553
4216965.034    2.799217    81.63171
4241309.839    2.537108    78.55715
4269516.031    2.73393    75.1508
4297722.223    2.545673    78.14726
4325928.415    2.542385    79.95256
4354134.607    2.980513    75.0724
4382340.8    2.267498    76.93954
4410546.992    2.349283    79.72489
4438753.184    3.006959    76.20395
4466959.376    2.734768    86.03397
4495165.568    2.688596    77.71148
4523371.76    2.853713    76.51513
4551577.952    3.015693    82.0598
4579784.144    2.619092    78.21919
4607990.336    2.952073    80.21804
4636196.528    2.888296    82.06464
4664402.721    2.709418    85.63815
4692608.913    3.142561    85.84773
4720815.105    3.220706    79.10697
4749021.297    2.888336    80.03048
4777227.489    3.233316    89.00206
4805433.681    2.915004    87.70557
4833639.873    3.005258    77.74323
4861846.065    3.139871    77.47838
4890052.257    3.541951    86.94456
4918258.449    3.059155    85.23219
4946464.642    3.311432    82.07035
4974670.834    2.882694    83.98528
5002877.026    2.903299    85.84703
5031083.218    3.337109    71.37156
5059289.41    3.235742    79.31715
5087495.602    3.083339    83.18725
5115701.794    2.921081    79.93156
5143907.986    2.877346    79.97608
5172114.178    3.384445    83.25329
5200320.37    3.324081    89.14887
5228526.563    3.745938    89.25053
5256732.755    3.437262    79.88906
5284938.947    3.977173    74.07828
5313145.139    3.51949    76.18547
5341351.331    3.64501    87.44099
5369557.523    3.892861    85.80007
5397763.715    3.757607    81.31268
5425969.907    3.963787    86.96402
5454176.099    3.316458    79.16295
5482382.291    4.231621    74.06232
5510588.484    3.471297    79.21893
5538794.676    3.836926    77.9344
5567000.868    3.704041    79.82327
5595207.06    3.838935    86.52847
5623413.252    3.629218    81.38393
5655877.571    4.006328    83.96942
5693491.133    4.189367    73.42359
5731104.694    4.24819    75.42935
5768718.256    4.253241    80.52119
5806331.818    3.729057    86.35111
5843945.379    4.20157    83.53385
5881558.941    3.926576    76.81167
5919172.503    4.345082    77.96097
5956786.064    3.831577    78.63976
5994399.626    4.020228    85.17096
6032013.188    4.289772    80.21201
6069626.749    4.305881    81.33488
6107240.311    4.556982    76.22147
6144853.873    4.972937    89.32867
6182467.434    4.22071    84.50635
6220080.996    4.468994    77.60537
6257694.558    4.749455    88.14741
6295308.119    4.361573    82.90125
6332921.681    4.574883    82.44276
6370535.243    4.973849    75.65936
6408148.804    4.791554    81.39542
6445762.366    4.859011    78.80504
6483375.928    5.077443    86.35247
6520989.489    4.992948    79.69292
6558603.051    5.093297    79.12963
6596216.613    5.773884    75.50509
6633830.175    5.102978    88.07685
6671443.736    5.012506    79.4313
6709057.298    5.180384    81.14613
6746670.86    4.90192    74.64062
6784284.421    4.770123    76.12392
6821897.983    4.840925    82.22712
6859511.545    4.904921    83.09768
6897125.106    5.479027    75.39603
6934738.668    5.199125    82.71999
6972352.23    5.551339    78.12307
7009965.791    5.071856    77.24945
7047579.353    5.11233    78.8347
7085192.915    5.475711    94.06431
7122806.476    5.138999    78.08366
7160420.038    4.750465    80.12552
7198033.6    5.532969    80.33796
7235647.161    6.130919    83.30449
7273260.723    5.67979    80.46837
7310874.285    6.362062    78.19382
7348487.846    5.638895    77.4355
7386101.408    5.464791    81.15788
7423714.97    5.590142    80.72468
7461328.531    5.530345    82.74996
7498942.093    5.972661    85.14143
7542233.958    6.23038    83.35125
7592392.449    6.27856    80.2661
7642550.939    6.067151    82.64446
7692709.43    6.13982    86.73633
7742867.921    6.255683    76.20653
7793026.411    5.841104    84.87586
7843184.902    6.848978    68.884
7893343.393    6.164685    79.60943
7943501.883    7.053642    85.29343
7993660.374    6.195569    81.89213
8043818.865    6.939739    83.12991
8093977.355    7.376544    77.7828
8144135.846    7.147051    73.69227
8194294.336    7.137357    72.9794
8244452.827    6.796132    77.80379
8294611.318    7.658443    86.53494
8344769.808    7.247951    76.60712
8394928.299    7.297011    83.45168
8445086.79    6.615723    84.50446
8495245.28    7.375997    77.5441
8545403.771    7.501898    66.23488
8595562.262    7.110805    81.7083
8645720.752    7.681267    75.74337
8695879.243    7.576894    90.56089
8746037.734    7.721852    80.08842
8796196.224    7.541522    76.89331
8846354.715    7.260216    74.43517
8896513.206    6.968566    73.75412
8946671.696    9.013888    74.09562
8996830.187    7.976282    77.29381
9046988.678    7.535552    80.12708
9097147.168    8.832375    74.54539
9147305.659    7.484784    72.00189
9197464.15    7.729218    76.22244
9247622.64    7.912988    85.8969
9297781.131    9.186509    78.26907
9347939.622    9.558337    84.34057
9398098.112    8.832822    81.28579
9448256.603    8.810344    74.36701
9498415.093    8.900915    80.48135
9548573.584    8.69568    81.64474
9598732.075    9.299295    85.47844
9648890.565    9.641301    77.09838
9699049.056    9.814786    74.97949
9749207.547    9.190019    79.28642
9799366.037    9.206452    68.58559
9849524.528    8.922317    81.95583
9899683.019    9.306725    79.74048
9949841.509    9.043706    76.13528
10000000.0    10.17428    72.46405
10057730.63    9.621777    72.74947
10124618.052    8.38518    78.05047
10191505.475    9.029141    73.13662
10258392.897    9.771476    76.35024
10325280.319    8.239531    77.16049
10392167.741    10.48208    73.1959
10459055.164    11.44143    78.90372
10525942.586    10.5749    79.42402
10592830.008    10.79676    68.91958
10659717.431    10.67195    76.56637
10726604.853    10.4207    72.7438
10793492.275    10.63704    86.0661
10860379.697    10.01281    79.64201
10927267.12    11.70799    79.31969
10994154.542    13.03428    86.63907
11061041.964    11.19088    71.29029
11127929.387    10.51008    75.16786
11194816.809    12.35566    83.36855
11261704.231    12.50179    76.62144
11328591.653    11.07272    75.95761
11395479.076    11.35883    72.94105
11462366.498    12.7694    67.60803
11529253.92    11.92509    78.13101
11596141.343    10.66193    70.38336
11663028.765    11.69102    70.6601
11729916.187    11.66408    70.9993
11796803.609    11.80527    64.66309
11863691.032    12.38377    79.18946
11930578.454    11.5933    72.86363
11997465.876    12.91678    76.40489
12064353.299    12.71616    67.49458
12131240.721    13.52102    70.40594
12198128.143    13.21632    79.04308
12265015.565    12.9746    70.12817
12331902.988    12.38744    62.4012
12398790.41    13.89455    77.47755
12465677.832    16.29413    72.46838
12532565.255    13.33979    71.94006
12599452.677    14.49999    72.35181
12666340.099    14.24879    59.69194
12733227.521    16.68602    77.85506
12800114.944    13.75963    67.67818
12867002.366    16.05862    71.31903
12933889.788    14.69767    74.05093
13000777.211    14.39962    67.76665
13067664.633    13.89652    70.16379
13134552.055    15.26587    68.6115
13201439.477    15.72151    67.33879
13268326.9    14.69644    71.01435
13335214.322    16.41165    71.06134
13412199.354    14.68271    75.7003
13501395.165    15.33036    69.29132
13590590.976    15.3874    69.04411
13679786.787    15.08861    70.30875
13768982.599    15.96698    74.88024
13858178.41    16.41985    67.40697
13947374.221    18.42381    67.67819
14036570.032    15.03171    71.84126
14125765.843    18.86577    66.37216
14214961.654    19.76561    62.29361
14304157.465    18.86352    71.35247
14393353.277    19.94029    61.3457
14482549.088    21.48538    64.78323
14571744.899    18.13361    69.48239
14660940.71    20.49703    67.02489
14750136.521    20.81223    62.45348
14839332.332    18.78608    59.67554
14928528.143    22.30012    66.67471
15017723.955    22.42227    61.58571
15106919.766    21.5055    63.09262
15196115.577    21.34353    62.66383
15285311.388    21.56827    62.73127
15374507.199    25.72647    70.62296
15463703.01    22.48948    65.27328
15552898.821    21.37336    66.42497
15642094.633    24.74906    57.38428
15731290.444    24.25694    59.4826
15820486.255    25.49863    57.16109
15909682.066    26.531    56.15955
15998877.877    24.13991    53.84341
16088073.688    26.07968    59.86703
16177269.499    27.04978    53.15753
16266465.311    28.37512    60.01387
16355661.122    27.12115    59.50714
16444856.933    25.33917    52.38083
16534052.744    31.77767    55.68988
16623248.555    25.78005    55.19302
16712444.366    30.80808    55.35354
16801640.177    29.10363    50.83044
16890835.989    30.45035    51.81789
16980031.8    30.58629    50.03819
17069227.611    30.29788    60.64265
17158423.422    31.56813    49.99129
17247619.233    30.17876    49.62822
17336815.044    32.62656    59.14587
17426010.855    37.61709    55.08046
17515206.667    34.54987    50.55569
17604402.478    34.16145    45.62492
17693598.289    36.51548    42.46467
17782794.1    40.02238    47.24948
17885455.291    40.8378    51.61713
18004399.817    38.86356    48.00698
18123344.343    35.1087    45.21517
18242288.869    38.04374    42.8591
18361233.394    38.52148    46.33164
18480177.92    44.55904    36.22779
18599122.446    48.6887    46.87384
18718066.972    45.97198    36.91149
18837011.498    53.08645    37.88186
18955956.024    50.22063    44.87014
19074900.549    44.79835    30.87656
19193845.075    48.81081    28.94235
19312789.601    48.19677    24.72559
19431734.127    51.45956    19.96807
19550678.653    50.85315    25.11158
19669623.179    61.78903    22.43975
19788567.704    59.03637    29.21647
19907512.23    46.3092    23.79993
20026456.756    59.8045    21.09134
20145401.282    65.0738    12.86324
20264345.808    65.91979    15.56733
20383290.334    68.6285    3.403696
20502234.859    64.08111    10.2734
20621179.385    71.36441    5.713967
20740123.911    69.9082    -0.01505953
20859068.437    68.62154    -1.212464
20978012.963    71.70089    -2.765743
21096957.489    71.95875    -8.835075
21215902.014    71.01385    -15.3071
21334846.54    68.85017    -4.497971
21453791.066    74.21455    -13.36826
21572735.592    74.55417    -15.26737
21691680.118    77.51498    -7.846196
21810624.644    72.1306    -23.03497
21929569.169    72.46941    -27.38199
22048513.695    70.42791    -23.57794
22167458.221    65.05547    -24.46587
22286402.747    68.35198    -33.54207
22405347.273    89.00128    -37.34956
22524291.799    67.65334    -40.47675
22643236.324    70.0771    -31.5534
22762180.85    71.39764    -49.76234
22881125.376    60.20708    -41.37962
23000069.902    66.60173    -46.43227
23119014.428    65.36553    -47.3613
23237958.954    59.04057    -48.24514
23356903.479    61.45396    -60.54922
23475848.005    53.04063    -55.12452
23594792.531    52.48444    -55.18393
23713737.057    50.22635    -53.90009
23850637.955    54.74477    -60.09896
24009253.029    52.0982    -58.94448
24167868.104    50.9609    -62.05304
24326483.178    44.83825    -60.13142
24485098.253    53.99764    -66.60091
24643713.327    48.02092    -62.20749
24802328.402    39.23314    -72.17409
24960943.476    43.8175    -79.3922
25119558.55    41.66108    -70.03613
25278173.625    37.9996    -74.59524
25436788.699    38.96222    -79.35387
25595403.774    39.78784    -78.09611
25754018.848    41.09099    -82.16685
25912633.923    34.28856    -74.57281
26071248.997    34.73488    -79.54097
26229864.071    33.33838    -87.3082
26388479.146    33.98428    -77.68754
26547094.22    33.07326    -86.71901
26705709.295    30.67163    -85.18884
26864324.369    37.49105    -79.99107
27022939.444    32.08963    -80.98432
27181554.518    29.93102    -83.34161
27340169.592    32.33525    -74.49586
27498784.667    27.13165    -80.04726
27657399.741    30.01505    -90.47192
27816014.816    28.48426    -80.46741
27974629.89    26.4235    -92.03973
28133244.965    29.79942    -93.02669
28291860.039    25.59711    -85.45043
28450475.113    25.0032    -89.40953
28609090.188    25.0951    -91.66298
28767705.262    26.2296    -93.83431
28926320.337    24.76021    -91.1891
29084935.411    24.54427    -90.51251
29243550.486    24.7049    -91.71449
29402165.56    22.09012    -88.43095
29560780.634    22.84885    -95.19704
29719395.709    26.88693    -88.68198
29878010.783    22.86141    -94.39745
30036625.858    21.96363    -91.92041
30195240.932    21.68438    -101.6726
30353856.007    23.78828    -106.9897
30512471.081    22.40337    -95.46612
30671086.155    20.68485    -93.68383
30829701.23    22.36747    -94.25082
30988316.304    21.75095    -95.97288
31146931.379    21.24755    -99.91422
31305546.453    18.42763    -99.78802
31464161.528    19.62359    -98.71524
31622776.602    20.37987    -101.1702
31805336.883    17.94732    -103.992
32016853.484    19.3344    -101.0731
32228370.085    17.6313    -92.98942
32439886.687    18.41657    -96.34924
32651403.288    15.1028    -104.8959
32862919.889    15.91926    -95.31812
33074436.49    16.17337    -100.1967
33285953.092    17.17686    -99.07657
33497469.693    16.64256    -100.34
33708986.294    17.57608    -107.3519
33920502.895    16.19117    -104.8678
34132019.496    16.30412    -97.87138
34343536.098    13.40051    -102.9717
34555052.699    15.21411    -104.7692
34766569.3    14.23979    -106.8894
34978085.901    14.54708    -107.7034
35189602.503    15.70817    -105.343
35401119.104    13.12245    -109.0971
35612635.705    12.20613    -103.7487
35824152.306    13.79493    -107.4804
36035668.907    14.72124    -96.77514
36247185.509    12.28734    -109.1516
36458702.11    13.50942    -110.1347
36670218.711    12.61127    -117.6276
36881735.312    13.9084    -110.9554
37093251.914    12.74853    -112.3114
37304768.515    11.05977    -111.2446
37516285.116    10.69873    -108.3755
37727801.717    12.96714    -117.1956
37939318.319    10.19124    -113.3616
38150834.92    10.97842    -119.0668
38362351.521    10.32082    -116.9025
38573868.122    10.99991    -114.6765
38785384.723    10.23983    -110.6122
38996901.325    9.153648    -114.8809
39208417.926    9.811816    -114.7655
39419934.527    9.31429    -114.2721
39631451.128    10.65179    -108.5055
39842967.73    7.941376    -114.8979
40054484.331    8.318666    -114.3906
40266000.932    6.901265    -111.1323
40477517.533    7.223798    -111.3868
40689034.134    7.623713    -116.8663
40900550.736    5.66085    -119.1052
41112067.337    6.068598    -100.206
41323583.938    5.33528    -118.5809
41535100.539    5.211298    -95.52146
41746617.141    4.33358    -94.81097
41958133.742    4.156723    -86.72013
42169650.343    3.920473    -84.65705
42413098.391    3.252696    -70.31787
42695160.312    3.61089    -58.35627
42977222.233    4.145661    -41.78733
43259284.154    5.492954    -25.54011
43541346.075    7.512935    -29.81618
43823407.996    9.863141    -33.12176
44105469.917    12.86279    -36.70049
44387531.838    15.95502    -36.07446
44669593.759    14.69807    -48.97667
44951655.68    18.55969    -50.89316
45233717.601    17.80251    -63.04351
45515779.522    17.55689    -63.2106
45797841.443    19.84934    -77.80671
46079903.364    18.4779    -85.07219
46361965.285    19.41075    -90.72881
46644027.206    17.87066    -99.97993
46926089.127    13.76299    -94.51494
47208151.048    16.41991    -99.05415
47490212.969    14.94952    -103.9639
47772274.89    13.60455    -96.48328
48054336.811    12.98794    -102.3483
48336398.732    14.78211    -103.1208
48618460.653    14.52547    -105.3668
48900522.574    16.45542    -103.6817
49182584.495    12.55362    -94.63906
49464646.415    13.02672    -105.235
49746708.336    16.0123    -104.9413
50028770.257    12.46804    -111.6334
50310832.178    12.31181    -103.3652
50592894.099    12.34447    -115.3246
50874956.02    12.30605    -107.6123
51157017.941    11.69545    -102.9087
51439079.862    11.98195    -115.509
51721141.783    12.50219    -111.0811
52003203.704    12.38473    -111.1172
52285265.625    11.95099    -111.2484
52567327.546    9.786226    -118.1046
52849389.467    13.36148    -117.351
53131451.388    10.34025    -107.863
53413513.309    11.78483    -114.0159
53695575.23    9.694832    -120.2337
53977637.151    10.21343    -117.8283
54259699.072    10.93918    -112.6322
54541760.993    9.532703    -119.4133
54823822.914    11.18586    -114.3008
55105884.835    9.838931    -109.9292
55387946.756    11.27787    -115.9078
55670008.677    10.07768    -121.3595
55952070.598    9.143909    -111.7367
56234132.519    12.23349    -100.3919
56558775.709    9.112955    -116.9366
56934911.326    9.173217    -112.4163
57311046.943    10.06434    -121.3618
57687182.559    8.723619    -129.1967
58063318.176    9.761385    -113.1513
58439453.793    9.160109    -119.9555
58815589.41    10.04286    -121.9655
59191725.027    9.731778    -126.0002
59567860.644    9.310376    -120.4868
59943996.26    9.961429    -121.2414
60320131.877    7.772983    -124.41
60696267.494    10.68846    -125.5986
61072403.111    7.592755    -128.1417
61448538.728    9.439322    -122.1424
61824674.344    9.100849    -128.7286
62200809.961    9.279965    -119.2287
62576945.578    8.188702    -122.3126
62953081.195    7.688212    -132.3249
63329216.812    7.500717    -126.5025
63705352.429    10.60232    -133.5508
64081488.045    9.354046    -129.7693
64457623.662    8.465788    -128.2575
64833759.279    6.69846    -138.3815
65209894.896    6.633094    -127.9485
65586030.513    7.6756    -125.5327
65962166.129    8.601949    -126.3462
66338301.746    8.653923    -134.0189
66714437.363    8.493348    -135.1876
67090572.98    7.781727    -135.3746
67466708.597    7.281509    -129.4638
67842844.213    8.556196    -136.1395
68218979.83    7.271567    -136.5716
68595115.447    7.392844    -142.2976
68971251.064    8.082937    -131.6347
69347386.681    7.483224    -126.9967
69723522.298    9.66992    -143.941
70099657.914    7.341819    -132.4418
70475793.531    7.256512    -134.9513
70851929.148    6.40914    -130.6059
71228064.765    10.47466    -139.8945
71604200.382    7.515786    -125.626
71980335.998    6.303535    -138.8722
72356471.615    7.765658    -140.0175
72732607.232    6.114617    -144.729
73108742.849    6.924313    -133.7252
73484878.466    7.053947    -136.0794
73861014.083    7.408114    -139.9697
74237149.699    7.769614    -123.4779
74613285.316    6.500805    -151.3716
74989420.933    8.032704    -135.0025
75422339.585    6.988883    -136.5461
75923924.491    6.395979    -134.3026
76425509.398    6.72761    -142.5025
76927094.304    7.08988    -145.064
77428679.211    7.969955    -134.3584
77930264.117    5.962846    -141.6703
78431849.024    6.435532    -137.6685
78933433.93    6.468055    -134.956
79435018.836    6.739564    -135.7898
79936603.743    6.825001    -137.8356
80438188.649    9.797024    -143.2087
80939773.556    8.05621    -140.9135
81441358.462    6.323934    -132.951
81942943.369    6.169122    -152.8948
82444528.275    7.656316    -141.4412
82946113.181    7.073333    -156.358
83447698.088    6.225768    -145.4236
83949282.994    7.466121    -151.1288
84450867.901    6.471011    -142.9565
84952452.807    6.762329    -143.3926
85454037.714    5.939781    -157.5769
85955622.62    5.820226    -152.7682
86457207.526    6.733513    -157.6206
86958792.433    6.993674    -155.2908
87460377.339    7.147371    -142.6296
87961962.246    7.026243    -153.5204
88463547.152    5.268884    -155.6836
88965132.059    8.643356    -145.514
89466716.965    5.953259    -148.5212
89968301.871    6.868699    -164.0706
90469886.778    5.811293    -161.4051
90971471.684    5.063177    -157.165
91473056.591    5.858951    -149.862
91974641.497    8.489209    -168.7285
92476226.404    7.27826    -159.5161
92977811.31    6.264506    -162.5345
93479396.216    6.893347    -154.5897
93980981.123    4.805181    -156.1928
94482566.029    5.932347    -165.2026
94984150.936    5.724802    -158.5516
95485735.842    5.980981    -158.5919
95987320.749    5.049756    -148.5545
96488905.655    6.388156    -156.0676
96990490.561    5.3646    -152.6845
97492075.468    6.270365    -171.355
97993660.374    5.388292    -167.7383
98495245.281    6.932606    -177.5482
98996830.187    7.130294    -161.6609
99498415.094    5.427076    -168.065
100000000.0    6.494371    -173.7486
