# AG4395A Measurement - Timestamp: Oct 05 2018 - 18:34:08
#---------- Measurement Parameters ------------
# Start Frequency (Hz): 10000.0, 10000.0
# Stop Frequency (Hz): 1000000.0, 1000000.0
# Frequency Points: 801, 801
# Measurement Format: LINM, PHAS
# Measuremed Input: AB, AB
#---------- Analyzer Settings ----------
# Number of Averages: 1
# Auto Bandwidth: Off, Off
# IF Bandwidth: 10000.0, 10000.0
# Input Attenuators (R,A,B): 20dB 20dB 20dB 
# Excitation amplitude = -20.0dBm
#---------- Measurement Data ----------
# [Freq(Hz) Chan 1 Chan 2 ]
10000.0    1.334168    53.61598
10066.704    0.8820635    37.49371
10133.409    0.8032565    48.2617
10200.113    1.656144    61.44402
10266.817    0.4687288    -107.945
10333.521    0.5434841    51.42317
10400.226    1.07849    35.15474
10466.93    0.8433676    -1.434326
10533.634    1.100934    -53.18733
10600.339    0.8195063    -31.58932
10667.043    0.9065882    -74.50049
10733.747    1.09763    -69.54025
10800.451    1.178454    -95.23459
10867.156    0.9039918    -110.6168
10933.86    0.8626919    -120.0219
11000.564    0.856608    -126.7105
11067.268    0.8208569    -136.2544
11133.973    0.9405956    -151.664
11200.677    0.8750364    -173.101
11267.381    1.048973    178.2581
11334.086    1.12492    176.9475
11400.79    0.8614388    152.221
11467.494    0.9156425    143.1637
11534.198    0.84733    134.1062
11600.903    1.013655    119.8809
11667.607    0.9273639    98.01455
11734.311    0.8134896    98.05048
11801.016    0.9615579    86.70636
11867.72    0.9446793    71.19187
11934.424    0.9530618    51.86185
12001.128    0.9738024    42.23875
12067.833    0.9422871    34.49523
12134.537    0.9501192    21.44516
12201.241    1.052599    9.619492
12267.946    0.9722892    5.551727
12334.65    0.8119864    -8.069826
12401.354    0.9914445    -23.19859
12468.058    0.8541441    -34.55559
12534.763    0.9569042    -46.58442
12601.467    0.8972822    -63.38087
12668.171    0.8343019    -71.31364
12734.875    0.8921549    -76.24351
12801.58    0.9069809    -93.01856
12868.284    0.9454088    -104.5104
12934.988    0.9047578    -113.3037
13001.693    0.9956217    -125.0992
13068.397    0.9714326    -139.8581
13135.101    0.8290288    -152.5664
13201.805    0.9067535    -171.2722
13268.51    0.9541961    -173.4979
13335.214    0.8194386    168.8191
13412.199    0.9923055    153.5738
13501.395    0.8681898    137.5723
13590.591    0.8225876    127.0052
13679.786    0.8577467    114.307
13768.982    0.9456687    98.11166
13858.178    0.85539    83.64342
13947.374    0.8012518    63.433
14036.57    0.8631986    37.78554
14125.766    1.043238    29.63647
14214.961    0.8229206    13.50702
14304.157    0.9785329    -9.037155
14393.353    0.8308536    -20.00281
14482.549    0.8996829    -30.06265
14571.745    1.018581    -50.08267
14660.94    1.002335    -70.66447
14750.136    1.061023    -88.7523
14839.332    1.055941    -102.3027
14928.528    0.9574447    -113.1002
15017.724    0.8021274    -129.9036
15106.92    1.042328    -155.2194
15196.115    0.967132    -150.59
15285.311    1.070072    174.5135
15374.507    0.7647024    168.8074
15463.703    0.7592366    165.2129
15552.899    0.8776953    149.5851
15642.094    0.9306057    132.233
15731.29    0.764899    115.2982
15820.486    0.7272068    83.66008
15909.682    0.8907731    53.84999
15998.878    0.9424149    71.02712
16088.073    0.879532    21.74783
16177.269    0.8616452    32.48163
16266.465    1.465707    9.692189
16355.661    0.7966944    -24.55858
16444.857    0.7371868    -33.35031
16534.053    0.8198448    -38.52579
16623.248    0.7290866    -63.44461
16712.444    0.9380702    -97.78316
16801.64    1.780881    -71.74219
16890.836    0.837852    -82.51175
16980.032    1.171167    -158.0632
17069.227    0.6390527    -119.9375
17158.423    1.223573    -141.6252
17247.619    0.794328    159.1495
17336.815    0.5244208    154.6305
17426.011    0.5064455    -173.0679
17515.207    0.4920101    159.8528
17604.402    0.5300263    111.9795
17693.598    0.8077559    61.7371
17782.794    1.381145    164.5954
17885.455    0.4516369    138.9969
18004.4    1.041663    -20.23316
18123.344    0.3802887    19.73865
18242.289    0.3219449    48.35089
18361.233    0.1897234    41.01302
18480.178    0.2547528    -21.37038
18599.122    0.1466406    -40.00193
18718.067    0.17969    -64.0415
18837.011    0.1646903    -51.61403
18955.956    0.1570219    -61.77737
19074.9    0.06726573    -23.80126
19193.845    0.1149213    42.36755
19312.789    0.1650607    70.40948
19431.734    0.1262695    100.1818
19550.678    0.2088048    84.37479
19669.623    0.471759    -86.27695
19788.567    0.1453958    54.10394
19907.512    0.2427564    -153.4688
20026.457    0.6972477    -117.4485
20145.401    0.4904329    -46.90294
20264.346    0.8423741    -48.55452
20383.29    0.5952227    -167.7932
20502.235    0.369669    13.42767
20621.179    0.3951704    -99.75884
20740.124    0.3394391    -7.201119
20859.068    0.3278842    162.393
20978.013    0.3396817    -146.0656
21096.957    0.3657936    -82.00319
21215.902    0.279991    -113.8218
21334.846    0.2228767    153.708
21453.791    0.6972722    10.62644
21572.735    0.2583792    -168.2955
21691.68    0.4388232    71.14003
21810.625    0.1800979    117.0312
21929.569    0.368026    159.6839
22048.514    0.2818528    133.4598
22167.458    0.2303695    93.7204
22286.403    0.2712055    -4.850056
22405.347    0.3565034    -116.4509
22524.292    0.2983067    -0.1525954
22643.236    0.2229582    150.5886
22762.181    0.2463614    -97.65811
22881.125    0.2346237    -92.38638
23000.07    0.1568376    -90.32372
23119.014    0.1006431    -148.987
23237.959    0.2456578    3.769203
23356.903    0.1637222    -70.21279
23475.848    0.1625695    17.30763
23594.792    0.03205449    -1.466956
23713.737    0.1429175    -62.59428
23850.638    0.1839146    -41.86113
24009.253    0.1375284    -22.82054
24167.868    0.1381065    -1.945664
24326.483    0.1352612    5.338313
24485.098    0.01177424    -3.25906
24643.713    0.05709991    -155.6458
24802.328    0.02912696    11.70027
24960.944    0.1333796    61.71535
25119.559    0.2483633    -48.95693
25278.174    0.09969489    142.6772
25436.789    0.199335    -106.7949
25595.404    0.35039    -77.82239
25754.019    0.3816131    -79.8297
25912.634    0.1532975    -165.0479
26071.249    0.1679122    31.52147
26229.864    0.3948383    -42.88076
26388.479    0.2574978    2.416291
26547.094    0.3787498    10.45999
26705.709    0.2838649    -11.56596
26864.325    0.316245    -57.86381
27022.94    0.3318861    111.7331
27181.555    0.2550234    -77.91651
27340.17    0.6847998    -27.81895
27498.785    1.185271    -0.7693581
27657.4    0.8806722    -43.73521
27816.015    0.2614468    -139.2402
27974.63    0.4068538    28.93866
28133.245    0.2222892    162.073
28291.86    0.2636545    -115.48
28450.475    0.2930234    -85.35416
28609.09    0.1532326    -174.104
28767.706    0.2787211    23.5154
28926.321    0.1890253    -91.48228
29084.936    0.3318058    -43.19268
29243.551    0.4576974    21.52591
29402.166    0.4153871    21.0906
29560.781    0.3426156    -58.72371
29719.396    0.1198178    -179.0004
29878.011    0.3488428    -9.939775
30036.626    0.1775577    43.23116
30195.241    0.2066141    61.21834
30353.856    0.2020988    42.76287
30512.471    0.2204854    2.385696
30671.087    0.1025251    -99.99782
30829.702    0.2123653    2.155435
30988.317    0.2823204    44.62851
31146.932    0.1640024    57.10464
31305.547    0.2660553    44.27901
31464.162    0.3052247    -29.12505
31622.777    0.03153555    -36.48003
31805.337    0.1861228    38.52507
32016.854    0.06444471    60.52649
32228.37    0.1459881    36.99937
32439.887    0.1097999    -3.061547
32651.403    0.129068    32.59937
32862.92    0.09670322    -32.30393
33074.437    0.07198197    0.3617362
33285.953    0.1063536    -37.41007
33497.47    0.1389781    25.64282
33708.986    0.04554107    37.68223
33920.503    0.09837218    -15.12151
34132.02    0.06835705    -0.006118629
34343.536    0.08903939    -7.429766
34555.053    0.1351209    -4.323704
34766.569    0.1241436    19.81848
34978.086    0.07190263    29.83923
35189.602    0.1114332    14.65763
35401.119    0.1645197    -10.2854
35612.636    0.1282077    14.39464
35824.152    0.1224074    2.898729
36035.669    0.1153756    -7.79672
36247.185    0.154876    34.90384
36458.702    0.1335078    22.29618
36670.219    0.1016819    11.37301
36881.735    0.134528    10.68978
37093.252    0.1266389    2.56595
37304.768    0.1168743    3.336158
37516.285    0.1437263    3.302509
37727.802    0.1076045    18.04438
37939.318    0.08439174    24.12515
38150.835    0.1439856    4.618161
38362.351    0.1312931    7.134109
38573.868    0.1254501    2.186228
38785.385    0.1226909    27.01161
38996.901    0.1473171    5.732758
39208.418    0.1413493    10.7191
39419.934    0.125628    20.24421
39631.451    0.1298786    2.839148
39842.967    0.1101943    0.9959143
40054.484    0.144987    28.79916
40266.001    0.1228843    12.78485
40477.517    0.1421844    12.29926
40689.034    0.1713764    11.62187
40900.55    0.1394335    19.50744
41112.067    0.1557424    2.881835
41323.584    0.1337228    25.18214
41535.1    0.1535423    18.63995
41746.617    0.1228412    7.436917
41958.133    0.1384462    26.61311
42169.65    0.1071407    21.58946
42413.098    0.1476278    18.00945
42695.16    0.159087    15.32507
42977.222    0.1329846    22.57735
43259.284    0.1371417    18.04148
43541.346    0.1596988    18.24088
43823.408    0.1524901    13.11553
44105.47    0.1182145    14.69604
44387.532    0.1507912    16.9862
44669.594    0.14169    15.9981
44951.655    0.1072698    30.20932
45233.717    0.149721    30.02652
45515.779    0.1334841    20.09414
45797.841    0.1295234    20.70391
46079.903    0.1717914    12.56099
46361.965    0.1215938    23.75424
46644.027    0.1113358    37.62131
46926.089    0.1218087    21.22577
47208.151    0.1310664    11.01892
47490.213    0.1370915    24.98055
47772.275    0.1108055    21.52754
48054.337    0.1156532    36.55362
48336.399    0.1462718    26.58779
48618.461    0.1593813    20.70738
48900.523    0.1496697    42.16278
49182.585    0.163893    37.7146
49464.646    0.1393771    29.66214
49746.708    0.1449546    18.98093
50028.77    0.1584382    26.9479
50310.832    0.1491924    27.49103
50592.894    0.1703826    33.41444
50874.956    0.1513332    39.22919
51157.018    0.188087    29.35421
51439.08    0.1676877    24.79346
51721.142    0.2011893    28.72466
52003.204    0.1119342    26.04936
52285.266    0.166228    23.23782
52567.328    0.1498429    21.73689
52849.39    0.1113323    30.60722
53131.452    0.1404335    46.17651
53413.514    0.1496189    30.74585
53695.576    0.1801412    36.50363
53977.637    0.1671535    35.81549
54259.699    0.1443407    32.1972
54541.761    0.1759162    36.87935
54823.823    0.1611363    43.21219
55105.885    0.1524779    24.16207
55387.947    0.1664323    39.6292
55670.009    0.1875508    44.49522
55952.071    0.1707876    43.99275
56234.133    0.2134056    30.84175
56558.776    0.1873358    36.25283
56934.912    0.1605254    29.266
57311.047    0.160456    30.35792
57687.183    0.176043    40.09961
58063.318    0.1309777    24.51197
58439.454    0.173456    33.60612
58815.59    0.1351622    36.49504
59191.725    0.1616406    24.80709
59567.861    0.1835524    20.74632
59943.997    0.1935174    32.71743
60320.132    0.2052528    41.40871
60696.268    0.1780738    38.90769
61072.403    0.1623895    29.76343
61448.539    0.1503838    38.3172
61824.675    0.1588959    33.4915
62200.81    0.1872958    22.93433
62576.946    0.1816197    39.86572
62953.081    0.1536268    42.60685
63329.217    0.1761777    28.16014
63705.353    0.1897226    32.19703
64081.488    0.2148705    31.68421
64457.624    0.2093624    36.9957
64833.759    0.2045085    40.05759
65209.895    0.1910512    37.75346
65586.031    0.1746277    34.68105
65962.166    0.1797431    39.03199
66338.302    0.1834511    35.01977
66714.438    0.1834679    46.25977
67090.573    0.1991743    44.58526
67466.709    0.1759786    40.92841
67842.844    0.1533997    34.32373
68218.98    0.2100639    38.31305
68595.116    0.2238577    44.56603
68971.251    0.1846344    46.5334
69347.387    0.19207    48.36362
69723.522    0.1932483    32.97356
70099.658    0.1496901    37.88011
70475.794    0.1948193    46.72964
70851.929    0.197546    39.40316
71228.065    0.1898906    34.61865
71604.2    0.2229236    45.18042
71980.336    0.1734395    33.25907
72356.472    0.2196102    40.38974
72732.607    0.2069573    31.40211
73108.743    0.2367152    45.21957
73484.879    0.185232    37.92864
73861.014    0.2074322    56.21282
74237.15    0.2159307    53.12241
74613.285    0.2149476    35.49863
74989.421    0.1967904    42.10603
75422.34    0.2105466    43.51719
75923.925    0.2087797    54.46013
76425.51    0.2001342    41.40969
76927.095    0.2023239    42.41029
77428.68    0.1870407    48.71769
77930.264    0.1894002    45.59134
78431.849    0.1859421    46.8239
78933.434    0.1981496    40.13522
79435.019    0.210126    52.09726
79936.604    0.227881    46.26543
80438.189    0.2077228    44.27316
80939.774    0.2303561    41.8449
81441.359    0.2115103    32.03521
81942.944    0.2378243    47.27584
82444.529    0.2254984    56.198
82946.113    0.2475111    42.30532
83447.698    0.2260572    51.50523
83949.283    0.2151459    49.8187
84450.868    0.2096883    49.85113
84952.453    0.2375456    51.93795
85454.038    0.2538098    39.83073
85955.623    0.2322742    50.24194
86457.208    0.21643    42.87245
86958.793    0.2176576    51.09657
87460.378    0.2268337    51.16999
87961.962    0.2658819    48.18061
88463.547    0.2594334    48.61576
88965.132    0.2218769    52.19299
89466.717    0.2160277    48.46503
89968.302    0.2622357    54.85489
90469.887    0.2138466    49.4837
90971.472    0.1985223    50.72269
91473.057    0.2530983    48.22879
91974.642    0.22744    51.90652
92476.227    0.2573424    57.84359
92977.811    0.2604119    56.91387
93479.396    0.227356    46.48206
93980.981    0.2528689    51.9382
94482.566    0.2398566    50.9103
94984.151    0.2323939    46.51651
95485.736    0.2390155    49.62863
95987.321    0.2787022    47.52514
96488.906    0.2316576    54.24035
96990.491    0.2723643    47.7329
97492.076    0.215427    47.02393
97993.66    0.2313173    48.292
98495.245    0.2444774    57.1781
98996.83    0.2451489    50.35622
99498.415    0.235761    54.0343
100000.0    0.239346    57.16021
100577.306    0.2306259    54.75542
101246.18    0.2471753    52.44965
101915.054    0.2806933    59.87327
102583.929    0.2782368    59.27788
103252.803    0.2515592    44.92498
103921.677    0.2328342    48.60336
104590.551    0.2434355    52.04588
105259.426    0.2900434    44.68319
105928.3    0.2872581    56.95544
106597.174    0.2488576    52.5295
107266.048    0.262193    53.0707
107934.922    0.2590041    55.84889
108603.797    0.2851743    57.86971
109272.671    0.2575211    51.51001
109941.545    0.2961516    49.97273
110610.419    0.2775991    47.91684
111279.294    0.2158633    52.34119
111948.168    0.2560233    62.31596
112617.042    0.2927914    51.69564
113285.916    0.2868434    49.57491
113954.79    0.2500078    49.69921
114623.665    0.2880297    54.81533
115292.539    0.300969    54.06348
115961.413    0.2705712    51.18335
116630.287    0.2544724    57.24514
117299.162    0.2870606    55.87661
117968.036    0.3000732    50.08466
118636.91    0.2730721    60.61048
119305.784    0.2917727    55.99799
119974.659    0.2609433    50.2159
120643.533    0.2819251    58.08971
121312.407    0.3002637    58.08853
121981.281    0.2846398    51.66405
122650.155    0.30702    47.59986
123319.03    0.3322546    55.92678
123987.904    0.2943532    52.77156
124656.778    0.3019914    60.19078
125325.652    0.3241718    57.45779
125994.527    0.3238199    56.42948
126663.401    0.3043776    54.12091
127332.275    0.3125517    53.67609
128001.149    0.3130263    59.49101
128670.023    0.2984997    62.99834
129338.898    0.2999483    54.19099
130007.772    0.3095537    52.30119
130676.646    0.2668953    52.75597
131345.52    0.3145938    67.82137
132014.395    0.3083511    63.58853
132683.269    0.3151014    59.61782
133352.143    0.3267044    52.24718
134121.994    0.3256401    63.36765
135013.952    0.3036435    56.04055
135905.91    0.3251618    61.82429
136797.868    0.3326613    55.21251
137689.826    0.3231316    52.42051
138581.785    0.3706402    57.09907
139473.743    0.3523535    60.5102
140365.701    0.3256296    62.70898
141257.659    0.3476069    54.8504
142149.617    0.3261189    65.57403
143041.575    0.3497589    59.52888
143933.533    0.3372479    54.38721
144825.491    0.3432967    49.24358
145717.449    0.369731    58.21541
146609.407    0.3897015    57.24237
147501.366    0.3203963    62.08867
148393.324    0.3359482    58.7043
149285.282    0.3078189    56.74836
150177.24    0.3636597    66.84217
151069.198    0.3507632    53.93952
151961.156    0.3938783    65.76476
152853.114    0.3440268    63.13461
153745.072    0.3859619    58.7407
154637.03    0.3725462    59.90488
155528.988    0.3354999    61.06144
156420.947    0.3961201    58.34966
157312.905    0.3508046    58.49971
158204.863    0.3572756    64.34424
159096.821    0.331923    54.64163
159988.779    0.3224177    61.8955
160880.737    0.3527279    67.69315
161772.695    0.3527721    57.435
162664.653    0.3976506    57.27139
163556.611    0.406697    67.9976
164448.569    0.3655292    61.03144
165340.528    0.3904982    56.14459
166232.486    0.4085208    63.05938
167124.444    0.395868    61.07918
168016.402    0.3874516    67.55807
168908.36    0.4069677    60.56774
169800.318    0.3958568    56.45894
170692.276    0.3881671    66.97948
171584.234    0.382115    61.68311
172476.192    0.3610034    64.26982
173368.15    0.4233759    57.73999
174260.109    0.4136894    61.38329
175152.067    0.3283493    63.98807
176044.025    0.42088    65.52972
176935.983    0.3797075    66.83863
177827.941    0.35721    72.01483
178854.553    0.4043867    66.91963
180043.998    0.4042587    62.72426
181233.444    0.4234438    68.41238
182422.889    0.3826744    62.48572
183612.334    0.4288347    61.00269
184801.779    0.4078694    59.33949
185991.225    0.3805327    63.72913
187180.67    0.3764876    71.7617
188370.115    0.4219115    66.11334
189559.56    0.4713265    67.06816
190749.006    0.3795153    66.45619
191938.451    0.4964658    69.18108
193127.896    0.4328219    63.73338
194317.341    0.4322322    66.28691
195506.787    0.4354731    66.63831
196696.232    0.4425547    66.57106
197885.677    0.4505159    68.73722
199075.123    0.428523    65.34255
200264.568    0.4329941    65.54718
201454.013    0.4350852    67.83231
202643.458    0.4939746    61.65808
203832.904    0.4103756    68.01443
205022.349    0.4370263    64.31812
206211.794    0.4851024    62.49567
207401.239    0.4744475    69.57005
208590.685    0.4552233    65.55589
209780.13    0.5102408    68.04442
210969.575    0.4680814    65.22317
212159.02    0.5176717    66.57607
213348.466    0.4427975    67.85942
214537.911    0.4162544    77.08072
215727.356    0.4619052    67.18335
216916.801    0.4392274    67.90533
218106.247    0.4755201    60.97615
219295.692    0.4938861    69.51116
220485.137    0.4767167    63.95391
221674.583    0.4625953    64.18131
222864.028    0.4652631    72.81746
224053.473    0.5543484    63.54228
225242.918    0.5174704    65.88362
226432.364    0.4956298    63.5708
227621.809    0.4400205    64.52391
228811.254    0.485276    66.64391
230000.699    0.5319027    72.42686
231190.145    0.4877721    70.11272
232379.59    0.500208    61.20715
233569.035    0.4748357    69.26531
234758.48    0.5393175    68.72513
235947.926    0.5117337    69.06036
237137.371    0.5400185    68.14923
238506.38    0.5339424    67.17963
240092.531    0.564371    68.8979
241678.681    0.5823176    68.70746
243264.832    0.5106353    65.64797
244850.983    0.483594    67.71793
246437.134    0.5353234    69.96032
248023.284    0.5100797    70.30566
249609.435    0.5657313    71.37373
251195.586    0.6281205    67.69938
252781.737    0.5742452    65.75751
254367.887    0.5798646    68.95242
255954.038    0.5541177    69.83631
257540.189    0.5911515    68.57944
259126.34    0.5472981    69.22006
260712.49    0.5878004    72.49779
262298.641    0.5792657    70.40229
263884.792    0.6281493    68.8026
265470.942    0.556361    67.91898
267057.093    0.6526374    70.58817
268643.244    0.6168652    69.72034
270229.395    0.6616662    68.74867
271815.545    0.6168498    67.71528
273401.696    0.6000113    67.37115
274987.847    0.5937863    73.55592
276573.998    0.6427828    70.6998
278160.148    0.6134056    69.98215
279746.299    0.6154341    68.87058
281332.45    0.6470819    68.69878
282918.601    0.6479773    69.46135
284504.751    0.6659089    70.25209
286090.902    0.6045808    71.06503
287677.053    0.6884168    74.88853
289263.204    0.6347219    66.46492
290849.354    0.5823617    70.60666
292435.505    0.7123544    69.51501
294021.656    0.6743622    67.90401
295607.806    0.6342537    72.7349
297193.957    0.6747057    69.61404
298780.108    0.5924841    72.48184
300366.259    0.5913029    67.6193
301952.409    0.7063807    67.78111
303538.56    0.6857788    65.69286
305124.711    0.6701609    70.34758
306710.862    0.6406903    68.85095
308297.012    0.6761891    71.00457
309883.163    0.7223418    69.78921
311469.314    0.7111622    69.01375
313055.465    0.709641    66.13145
314641.615    0.6926044    71.92318
316227.766    0.6888971    70.57286
318053.369    0.6978314    66.3995
320168.535    0.6555385    71.02115
322283.701    0.723738    73.11296
324398.867    0.7887676    68.43621
326514.033    0.7261596    70.78471
328629.199    0.6898001    67.84206
330744.365    0.701898    65.82048
332859.531    0.7839524    69.39691
334974.697    0.687825    67.7165
337089.863    0.6640064    71.58506
339205.029    0.7324684    68.38567
341320.195    0.790633    74.90791
343435.361    0.7042974    73.7043
345550.527    0.7681336    67.65625
347665.693    0.782785    71.35714
349780.859    0.6926217    69.37859
351896.025    0.8612071    69.93119
354011.191    0.8220574    73.49738
356126.357    0.7502997    73.37238
358241.523    0.7851156    68.64305
360356.689    0.7894045    67.74789
362471.855    0.8045382    68.62828
364587.021    0.7608503    69.90495
366702.187    0.8080875    70.51112
368817.353    0.8392237    68.35584
370932.519    0.9004318    70.33179
373047.685    0.751873    65.68542
375162.851    0.8117496    68.7764
377278.017    0.8110335    71.35041
379393.183    0.8821567    73.37335
381508.349    0.8143021    69.32647
383623.515    0.8226722    68.74046
385738.681    0.8387287    65.52315
387853.847    0.8884976    74.02741
389969.013    0.8820077    72.34008
392084.179    0.8440241    68.07422
394199.345    0.8340694    69.22758
396314.511    0.8818442    73.4844
398429.677    0.8936238    67.40771
400544.843    0.9616094    70.36895
402660.009    0.8420212    69.39676
404775.175    0.8062482    73.30034
406890.341    0.861423    67.21478
409005.507    0.851213    71.27052
411120.673    0.9375226    73.11927
413235.839    0.9649938    70.06973
415351.005    0.8896407    68.50636
417466.171    0.9516014    69.44094
419581.337    0.9077179    68.73312
421696.503    0.9872429    71.22646
424130.984    0.9382582    69.7581
426951.603    0.9139413    74.08209
429772.222    0.9899486    68.98794
432592.842    1.038908    73.71621
435413.461    0.9320464    67.1918
438234.08    0.9594441    72.59985
441054.699    1.001962    74.0564
443875.318    1.045224    72.80957
446695.938    1.029721    66.43523
449516.557    0.9921832    71.21285
452337.176    1.035719    70.76736
455157.795    1.024117    67.60463
457978.414    1.001681    65.72534
460799.034    1.059666    72.21648
463619.653    1.010088    67.27806
466440.272    1.019389    71.70184
469260.891    1.077684    68.83205
472081.51    1.034806    71.09746
474902.13    1.055626    71.76711
477722.749    1.074888    69.19704
480543.368    1.102306    71.27342
483363.987    1.03203    71.70658
486184.606    1.060709    73.64519
489005.226    1.008281    69.13647
491825.845    1.119294    68.98145
494646.464    1.105343    67.77901
497467.083    1.051718    71.00954
500287.703    1.20108    71.9939
503108.322    1.144516    68.39048
505928.941    1.134824    68.46054
508749.56    1.189975    71.8454
511570.179    1.140248    70.23554
514390.799    1.127562    71.25473
517211.418    1.153873    74.74874
520032.037    1.13892    70.71257
522852.656    1.179626    68.60176
525673.275    1.162131    71.18137
528493.895    1.201637    70.51951
531314.514    1.193002    66.02739
534135.133    1.260463    70.03717
536955.752    1.170179    73.96128
539776.371    1.268489    73.57101
542596.991    1.198115    71.65808
545417.61    1.268286    72.17304
548238.229    1.25911    71.91035
551058.848    1.288204    74.39201
553879.467    1.264541    71.37477
556700.087    1.330194    75.1039
559520.706    1.351472    75.0936
562341.325    1.297039    69.62136
565587.757    1.402042    70.88847
569349.113    1.27241    65.87868
573110.469    1.370375    66.95208
576871.825    1.306272    70.52596
580633.182    1.396159    72.16799
584394.538    1.345416    66.56535
588155.894    1.546993    72.20786
591917.25    1.438333    70.88945
595678.606    1.475316    68.12133
599439.962    1.452616    70.89155
603201.319    1.452894    68.97848
606962.675    1.495344    69.3903
610724.031    1.510693    70.58321
614485.387    1.506043    71.13213
618246.743    1.439394    66.02641
622008.099    1.586777    72.69252
625769.456    1.450311    68.19635
629530.812    1.572372    68.35884
633292.168    1.657001    67.7318
637053.524    1.640115    69.69153
640814.88    1.659781    71.17294
644576.236    1.672056    71.80051
648337.593    1.755652    71.99622
652098.949    1.67967    71.16312
655860.305    1.763633    66.36427
659621.661    1.673173    70.20277
663383.017    1.758973    66.72988
667144.373    1.629297    71.21416
670905.73    1.783889    73.39088
674667.086    1.621999    71.31145
678428.442    1.692886    72.93554
682189.798    1.695554    63.64707
685951.154    1.805589    65.1621
689712.51    1.766986    67.44528
693473.867    1.841678    68.72354
697235.223    1.858047    70.36947
700996.579    1.767597    68.20851
704757.935    1.782584    67.86022
708519.291    1.912778    71.03326
712280.647    1.916966    69.35728
716042.004    1.879944    67.07858
719803.36    1.851614    69.39711
723564.716    1.933044    65.33766
727326.072    1.770604    65.42744
731087.428    1.953556    69.87501
734848.784    1.881437    68.7976
738610.141    1.986217    64.32129
742371.497    1.790838    67.45401
746132.853    1.966096    65.72086
749894.209    2.106244    64.85426
754223.396    1.872121    64.99168
759239.245    1.965795    67.13064
764255.094    1.98742    64.58815
769270.943    2.021808    67.51153
774286.792    2.014567    63.22699
779302.641    1.950299    67.85081
784318.49    2.054243    68.19321
789334.339    2.06094    65.9948
794350.188    2.276496    61.92146
799366.038    1.955913    65.4716
804381.887    2.173226    67.63176
809397.736    2.103718    62.1599
814413.585    2.072006    63.37309
819429.434    2.338631    61.12596
824445.283    2.303241    59.51245
829461.132    2.034036    58.23211
834476.981    2.301093    66.05478
839492.83    2.237725    60.62626
844508.679    2.186723    62.66594
849524.528    2.404879    59.2072
854540.377    2.275097    60.38372
859556.226    2.32938    62.69965
864572.075    2.274697    60.10669
869587.924    2.174529    62.82986
874603.773    2.427405    58.34525
879619.623    2.393485    55.57343
884635.472    2.526999    59.3355
889651.321    2.336112    59.7483
894667.17    2.495986    59.24822
899683.019    2.223761    57.69751
904698.868    2.430341    56.9096
909714.717    2.608846    52.93512
914730.566    2.659949    59.90844
919746.415    2.390582    53.10789
924762.264    2.458987    57.98678
929778.113    2.591932    55.86883
934793.962    2.630543    54.37587
939809.811    2.632981    53.42305
944825.66    2.647091    55.96588
949841.509    2.526465    53.7252
954857.358    2.578699    59.50994
959873.208    2.606978    50.29428
964889.057    2.625576    50.05066
969904.906    2.755409    52.00739
974920.755    2.865906    50.44442
979936.604    2.575458    51.74177
984952.453    2.632786    52.88971
989968.302    2.763438    49.34579
994984.151    2.800096    49.09592
1000000.0    2.743294    49.07972
