# North DC Val: 0.6812782500000001 VoltsSouth DC Val: 0.5764084500000001 Volts
# SR785 Measurement - Timestamp: Jul 14 2020 - 19:30:17
# Parameter File: /home/controls/Git/cit_ctnlab/ctn_scripts/TransRINSpecLong.yml
#---------- Measurement Setup ------------
# Start Frequency (Hz): 0.000000
# Frequency Span (Hz): 800.000000
# Frequency Resolution: 800
# Number of Averages: 100
# Averaging Mode: RMS
# Window function: Hanning
#---------- Measurement Parameters ----------
# Measurement Group:  "FFT" "FFT"
# Measurements:  "FFT 1" "FFT 2"
# View:  "Log Magnitude" "Log Magnitude"
# Unit:  "Vrms/rtHz" "Vrms/rtHz"
#---------- Input Parameters ----------
# Input Source: Analog
# Input Mode: Single ended, Single ended
# Input Grounding: Float, Float
# Input Coupling: AC, AC
# Input Range: -36.0dBVpk, -36.0dBVpk
# Auto Range: Off, Off
# Auto Range Mode: Tracking, Tracking
# Anti-Aliasing Filter: On, On
#---------- Source Parameters ----------
# Source Type: Sine
# Source Amplitude: 500.0mVpk
# Source On: 0

#---------- Measurement Data ----------
# [Freq(Hz) Display 0(Vrms/rtHz) Display 1(Vrms/rtHz) ]
+0.0000000e+000    +7.1197178e-004    +1.7250385e-004
+1.0000000e+000    +4.9784203e-004    +1.0616898e-004
+2.0000000e+000    +2.7171790e-004    +3.3695705e-005
+3.0000000e+000    +1.9639487e-004    +1.7138847e-005
+4.0000000e+000    +8.4994237e-005    +7.7610794e-006
+5.0000000e+000    +3.6740941e-005    +4.3850009e-006
+6.0000000e+000    +2.3193075e-005    +3.0604378e-006
+7.0000000e+000    +1.9428009e-005    +2.1108351e-006
+8.0000000e+000    +1.3623891e-005    +1.7419605e-006
+9.0000000e+000    +1.0315600e-005    +1.4376758e-006
+1.0000000e+001    +9.6740023e-006    +1.2652579e-006
+1.1000000e+001    +9.5835385e-006    +1.2067024e-006
+1.2000000e+001    +5.6675462e-006    +1.0109369e-006
+1.3000000e+001    +4.6707014e-006    +8.3088582e-007
+1.4000000e+001    +4.4034118e-006    +8.0733531e-007
+1.5000000e+001    +3.1988925e-006    +6.9416177e-007
+1.6000000e+001    +2.1060362e-006    +6.5761213e-007
+1.7000000e+001    +1.9555303e-006    +5.8586744e-007
+1.8000000e+001    +2.1021781e-006    +5.3126627e-007
+1.9000000e+001    +1.8436983e-006    +5.3545801e-007
+2.0000000e+001    +1.7191335e-006    +5.1854056e-007
+2.1000000e+001    +1.5671268e-006    +4.8493467e-007
+2.2000000e+001    +1.0775213e-006    +4.3780636e-007
+2.3000000e+001    +7.6893480e-007    +3.9675393e-007
+2.4000000e+001    +6.6123147e-007    +3.6999049e-007
+2.5000000e+001    +6.7985167e-007    +3.4725954e-007
+2.6000000e+001    +8.2552077e-007    +3.1431424e-007
+2.7000000e+001    +6.6278983e-007    +3.0582177e-007
+2.8000000e+001    +6.6398292e-007    +2.9718458e-007
+2.9000000e+001    +8.8644418e-007    +2.8925561e-007
+3.0000000e+001    +9.5150841e-007    +2.7425116e-007
+3.1000000e+001    +5.7842379e-007    +2.4994080e-007
+3.2000000e+001    +5.2843370e-007    +2.3867040e-007
+3.3000000e+001    +6.2422549e-007    +2.4440129e-007
+3.4000000e+001    +1.0938039e-006    +2.3419025e-007
+3.5000000e+001    +6.8922765e-007    +2.1837114e-007
+3.6000000e+001    +3.8383712e-007    +2.0317550e-007
+3.7000000e+001    +4.0344597e-007    +2.0523484e-007
+3.8000000e+001    +4.1537345e-007    +1.9787265e-007
+3.9000000e+001    +4.3996567e-007    +1.9691990e-007
+4.0000000e+001    +3.4374568e-007    +2.0099465e-007
+4.1000000e+001    +3.4570058e-007    +1.8516994e-007
+4.2000000e+001    +3.0304813e-007    +1.8119046e-007
+4.3000000e+001    +3.0277374e-007    +1.7412664e-007
+4.4000000e+001    +3.2501956e-007    +1.6437546e-007
+4.5000000e+001    +3.3116530e-007    +1.6625535e-007
+4.6000000e+001    +3.4340164e-007    +1.5877855e-007
+4.7000000e+001    +3.8328460e-007    +1.3928128e-007
+4.8000000e+001    +3.7219681e-007    +1.4569960e-007
+4.9000000e+001    +3.5874055e-007    +1.4874927e-007
+5.0000000e+001    +3.7665561e-007    +1.4965173e-007
+5.1000000e+001    +3.8113515e-007    +1.4095090e-007
+5.2000000e+001    +4.0040410e-007    +1.3687223e-007
+5.3000000e+001    +3.9952539e-007    +1.3402588e-007
+5.4000000e+001    +4.2079506e-007    +1.3609778e-007
+5.5000000e+001    +4.4041030e-007    +1.2767610e-007
+5.6000000e+001    +4.2616486e-007    +1.1899524e-007
+5.7000000e+001    +4.1096769e-007    +1.1725809e-007
+5.8000000e+001    +4.2550749e-007    +1.2348555e-007
+5.9000000e+001    +4.7315874e-007    +1.3268412e-007
+6.0000000e+001    +6.6620066e-007    +1.6013838e-007
+6.1000000e+001    +5.5514471e-007    +1.2284268e-007
+6.2000000e+001    +4.9785734e-007    +1.0073912e-007
+6.3000000e+001    +5.5571189e-007    +9.8564826e-008
+6.4000000e+001    +5.3967159e-007    +9.7653739e-008
+6.5000000e+001    +5.1947393e-007    +9.3915610e-008
+6.6000000e+001    +5.0297973e-007    +8.9124271e-008
+6.7000000e+001    +5.1072834e-007    +9.1003237e-008
+6.8000000e+001    +5.4274733e-007    +9.5806662e-008
+6.9000000e+001    +4.7935248e-007    +9.1847845e-008
+7.0000000e+001    +3.8619086e-007    +8.8400945e-008
+7.1000000e+001    +3.5424094e-007    +9.5209366e-008
+7.2000000e+001    +3.4689674e-007    +8.8086061e-008
+7.3000000e+001    +3.3178580e-007    +8.6931188e-008
+7.4000000e+001    +3.1842308e-007    +8.5032134e-008
+7.5000000e+001    +2.9707073e-007    +8.1658271e-008
+7.6000000e+001    +2.8119280e-007    +7.8175852e-008
+7.7000000e+001    +2.4473479e-007    +8.6221490e-008
+7.8000000e+001    +2.0721197e-007    +8.7126978e-008
+7.9000000e+001    +2.0721697e-007    +7.8579014e-008
+8.0000000e+001    +2.1479025e-007    +7.6929965e-008
+8.1000000e+001    +2.1612755e-007    +7.8433516e-008
+8.2000000e+001    +1.8640242e-007    +7.7768604e-008
+8.3000000e+001    +1.7649532e-007    +7.4684579e-008
+8.4000000e+001    +1.6364741e-007    +7.8062456e-008
+8.5000000e+001    +1.6279242e-007    +7.3766934e-008
+8.6000000e+001    +1.6043474e-007    +6.9428602e-008
+8.7000000e+001    +1.5874038e-007    +6.9774863e-008
+8.8000000e+001    +1.4894849e-007    +7.0688699e-008
+8.9000000e+001    +1.3530052e-007    +7.2980583e-008
+9.0000000e+001    +1.4071155e-007    +7.6427519e-008
+9.1000000e+001    +1.3774437e-007    +7.4229717e-008
+9.2000000e+001    +1.3429575e-007    +7.0774199e-008
+9.3000000e+001    +1.3228511e-007    +6.8974771e-008
+9.4000000e+001    +1.3682055e-007    +6.8682013e-008
+9.5000000e+001    +1.2523697e-007    +6.8584498e-008
+9.6000000e+001    +1.2450033e-007    +6.8478329e-008
+9.7000000e+001    +1.2847680e-007    +6.6175147e-008
+9.8000000e+001    +1.2828004e-007    +6.4849601e-008
+9.9000000e+001    +1.3657680e-007    +6.6649257e-008
+1.0000000e+002    +1.4303497e-007    +6.8381560e-008
+1.0100000e+002    +1.2696233e-007    +6.5895790e-008
+1.0200000e+002    +1.1366253e-007    +6.7125512e-008
+1.0300000e+002    +1.1711090e-007    +6.1993617e-008
+1.0400000e+002    +1.1218329e-007    +6.3202123e-008
+1.0500000e+002    +1.0886592e-007    +6.1091015e-008
+1.0600000e+002    +1.1183489e-007    +5.6490702e-008
+1.0700000e+002    +1.1012123e-007    +5.5939406e-008
+1.0800000e+002    +1.1095185e-007    +5.7789943e-008
+1.0900000e+002    +1.1995019e-007    +5.9199611e-008
+1.1000000e+002    +1.1535173e-007    +5.8356846e-008
+1.1100000e+002    +1.1003361e-007    +6.1750683e-008
+1.1200000e+002    +1.1595247e-007    +5.8772621e-008
+1.1300000e+002    +1.1845778e-007    +5.4304415e-008
+1.1400000e+002    +1.2431934e-007    +5.7122076e-008
+1.1500000e+002    +1.2164959e-007    +5.2711307e-008
+1.1600000e+002    +1.1941485e-007    +5.2986351e-008
+1.1700000e+002    +1.2151369e-007    +6.2094841e-008
+1.1800000e+002    +1.1420657e-007    +6.3514115e-008
+1.1900000e+002    +5.9174329e-007    +6.2739723e-008
+1.2000000e+002    +1.1797390e-006    +6.3398602e-008
+1.2100000e+002    +6.0184448e-007    +5.9014070e-008
+1.2200000e+002    +1.2597354e-007    +5.5715613e-008
+1.2300000e+002    +1.5789662e-007    +5.7231059e-008
+1.2400000e+002    +1.6881638e-007    +4.8262674e-008
+1.2500000e+002    +1.7478767e-007    +5.3420489e-008
+1.2600000e+002    +1.7875759e-007    +5.3232426e-008
+1.2700000e+002    +1.7887874e-007    +5.3189659e-008
+1.2800000e+002    +1.8199935e-007    +5.5793667e-008
+1.2900000e+002    +1.8366934e-007    +5.2721440e-008
+1.3000000e+002    +1.7660135e-007    +5.1764516e-008
+1.3100000e+002    +1.5666261e-007    +5.1920310e-008
+1.3200000e+002    +1.5029688e-007    +4.9977260e-008
+1.3300000e+002    +1.2963632e-007    +5.3802452e-008
+1.3400000e+002    +1.3633588e-007    +5.6755855e-008
+1.3500000e+002    +1.2613201e-007    +5.3803337e-008
+1.3600000e+002    +1.3264304e-007    +5.3935587e-008
+1.3700000e+002    +1.3189252e-007    +5.3803099e-008
+1.3800000e+002    +1.1642167e-007    +5.5119934e-008
+1.3900000e+002    +1.1098486e-007    +6.0332582e-008
+1.4000000e+002    +1.1907862e-007    +5.6478175e-008
+1.4100000e+002    +1.3744902e-007    +5.4862362e-008
+1.4200000e+002    +1.7818169e-007    +5.6307098e-008
+1.4300000e+002    +2.6414946e-007    +5.4950920e-008
+1.4400000e+002    +3.9749690e-007    +5.2683653e-008
+1.4500000e+002    +6.6563695e-007    +5.3186099e-008
+1.4600000e+002    +7.2607816e-007    +5.4567696e-008
+1.4700000e+002    +5.5404138e-007    +5.6128158e-008
+1.4800000e+002    +3.6209627e-007    +5.6196914e-008
+1.4900000e+002    +2.3036691e-007    +5.4388970e-008
+1.5000000e+002    +1.9736210e-007    +5.2461708e-008
+1.5100000e+002    +2.4211982e-007    +5.2356693e-008
+1.5200000e+002    +1.6896864e-007    +5.1505261e-008
+1.5300000e+002    +1.5197486e-007    +5.2336979e-008
+1.5400000e+002    +1.2841912e-007    +5.7602431e-008
+1.5500000e+002    +1.1555366e-007    +5.3534340e-008
+1.5600000e+002    +9.8447153e-008    +5.1097178e-008
+1.5700000e+002    +8.2198895e-008    +5.2918210e-008
+1.5800000e+002    +8.5424219e-008    +5.3011664e-008
+1.5900000e+002    +8.7083365e-008    +5.1957091e-008
+1.6000000e+002    +9.0511080e-008    +5.1302361e-008
+1.6100000e+002    +8.7286786e-008    +5.9345908e-008
+1.6200000e+002    +8.8187186e-008    +5.8475504e-008
+1.6300000e+002    +8.7618147e-008    +5.3227108e-008
+1.6400000e+002    +8.2316035e-008    +5.2542585e-008
+1.6500000e+002    +8.0584485e-008    +5.3515357e-008
+1.6600000e+002    +8.1964842e-008    +5.1653750e-008
+1.6700000e+002    +7.9119232e-008    +5.0863875e-008
+1.6800000e+002    +8.0237690e-008    +5.2042388e-008
+1.6900000e+002    +7.9059490e-008    +5.2012513e-008
+1.7000000e+002    +7.9630105e-008    +5.1898709e-008
+1.7100000e+002    +7.8027668e-008    +5.3784436e-008
+1.7200000e+002    +7.5210238e-008    +5.5873237e-008
+1.7300000e+002    +7.4131897e-008    +5.5205089e-008
+1.7400000e+002    +7.7365769e-008    +5.7479930e-008
+1.7500000e+002    +7.3718518e-008    +5.4584174e-008
+1.7600000e+002    +6.8967729e-008    +5.8326421e-008
+1.7700000e+002    +6.8431127e-008    +5.5495338e-008
+1.7800000e+002    +7.6613112e-008    +5.0981850e-008
+1.7900000e+002    +2.5420650e-007    +6.9066921e-008
+1.8000000e+002    +4.9769943e-007    +1.0600509e-007
+1.8100000e+002    +2.5731509e-007    +6.8217410e-008
+1.8200000e+002    +7.9359353e-008    +5.3708195e-008
+1.8300000e+002    +7.5680660e-008    +5.6427904e-008
+1.8400000e+002    +7.8216118e-008    +5.2575306e-008
+1.8500000e+002    +8.2075346e-008    +4.9632533e-008
+1.8600000e+002    +7.8551928e-008    +5.2721902e-008
+1.8700000e+002    +8.1254292e-008    +5.3853633e-008
+1.8800000e+002    +7.6039228e-008    +5.3063257e-008
+1.8900000e+002    +7.5843786e-008    +5.1837659e-008
+1.9000000e+002    +8.3322732e-008    +5.2628035e-008
+1.9100000e+002    +8.0327247e-008    +5.2537452e-008
+1.9200000e+002    +8.3543412e-008    +5.3360051e-008
+1.9300000e+002    +8.0328128e-008    +4.9561525e-008
+1.9400000e+002    +7.2312496e-008    +5.5856553e-008
+1.9500000e+002    +7.8615258e-008    +5.9646723e-008
+1.9600000e+002    +7.7511245e-008    +5.9246883e-008
+1.9700000e+002    +7.5488877e-008    +5.3271485e-008
+1.9800000e+002    +7.6331332e-008    +5.1677464e-008
+1.9900000e+002    +8.8503015e-008    +5.3642779e-008
+2.0000000e+002    +8.6157620e-008    +5.0088278e-008
+2.0100000e+002    +7.1726163e-008    +5.4818045e-008
+2.0200000e+002    +7.3349064e-008    +5.7364808e-008
+2.0300000e+002    +6.7727605e-008    +5.5494485e-008
+2.0400000e+002    +6.8489236e-008    +5.5484431e-008
+2.0500000e+002    +7.3441257e-008    +5.9414234e-008
+2.0600000e+002    +7.1819386e-008    +5.6753176e-008
+2.0700000e+002    +6.7002397e-008    +5.3540159e-008
+2.0800000e+002    +6.4076922e-008    +5.4652119e-008
+2.0900000e+002    +6.4833507e-008    +5.8258451e-008
+2.1000000e+002    +6.6135129e-008    +5.7672995e-008
+2.1100000e+002    +7.5391881e-008    +5.4089540e-008
+2.1200000e+002    +7.6621099e-008    +5.2312735e-008
+2.1300000e+002    +7.4241456e-008    +5.5422937e-008
+2.1400000e+002    +7.5321637e-008    +6.1935033e-008
+2.1500000e+002    +7.2203171e-008    +6.2399387e-008
+2.1600000e+002    +7.3549707e-008    +5.9648301e-008
+2.1700000e+002    +1.0902980e-007    +5.6718605e-008
+2.1800000e+002    +9.2136311e-008    +5.4654699e-008
+2.1900000e+002    +6.7644002e-008    +5.5394160e-008
+2.2000000e+002    +6.3504494e-008    +5.6693700e-008
+2.2100000e+002    +6.0980447e-008    +5.4650858e-008
+2.2200000e+002    +6.9019620e-008    +6.1555191e-008
+2.2300000e+002    +6.9648110e-008    +6.3835571e-008
+2.2400000e+002    +7.0026822e-008    +6.5342540e-008
+2.2500000e+002    +7.3110030e-008    +6.1045490e-008
+2.2600000e+002    +7.2475125e-008    +6.2212905e-008
+2.2700000e+002    +6.8238606e-008    +6.0043796e-008
+2.2800000e+002    +6.7654916e-008    +6.1579932e-008
+2.2900000e+002    +6.6226391e-008    +6.3002240e-008
+2.3000000e+002    +6.5648599e-008    +6.7082560e-008
+2.3100000e+002    +6.9359729e-008    +6.4665947e-008
+2.3200000e+002    +6.5545969e-008    +6.0773907e-008
+2.3300000e+002    +6.1907095e-008    +5.8207043e-008
+2.3400000e+002    +6.5854493e-008    +5.7259090e-008
+2.3500000e+002    +6.6895005e-008    +6.2006272e-008
+2.3600000e+002    +6.4950285e-008    +6.6466420e-008
+2.3700000e+002    +6.3590456e-008    +6.3485466e-008
+2.3800000e+002    +6.6390641e-008    +6.2362062e-008
+2.3900000e+002    +1.7794669e-007    +6.0075912e-008
+2.4000000e+002    +3.4430280e-007    +5.9399753e-008
+2.4100000e+002    +1.8558679e-007    +6.0691690e-008
+2.4200000e+002    +6.7598862e-008    +6.5378643e-008
+2.4300000e+002    +6.5977453e-008    +6.5951738e-008
+2.4400000e+002    +6.3370976e-008    +6.6438403e-008
+2.4500000e+002    +6.7326354e-008    +6.6497584e-008
+2.4600000e+002    +6.6185464e-008    +6.5210955e-008
+2.4700000e+002    +6.7400094e-008    +6.5068342e-008
+2.4800000e+002    +6.7169971e-008    +6.8181464e-008
+2.4900000e+002    +6.8448564e-008    +6.1734823e-008
+2.5000000e+002    +7.1143255e-008    +5.6651075e-008
+2.5100000e+002    +7.2200635e-008    +6.2261421e-008
+2.5200000e+002    +6.7052440e-008    +6.4945723e-008
+2.5300000e+002    +6.4925970e-008    +6.7711177e-008
+2.5400000e+002    +5.9583037e-008    +6.1480080e-008
+2.5500000e+002    +6.6083011e-008    +6.4667006e-008
+2.5600000e+002    +7.3801445e-008    +6.5609328e-008
+2.5700000e+002    +7.0747085e-008    +6.2796850e-008
+2.5800000e+002    +6.5530209e-008    +6.1637969e-008
+2.5900000e+002    +6.5975350e-008    +6.7674385e-008
+2.6000000e+002    +7.8321555e-008    +7.4047541e-008
+2.6100000e+002    +8.0028116e-008    +6.7878283e-008
+2.6200000e+002    +8.3006427e-008    +6.8725839e-008
+2.6300000e+002    +9.0942507e-008    +7.0422672e-008
+2.6400000e+002    +8.5522480e-008    +6.9471383e-008
+2.6500000e+002    +1.0200909e-007    +6.8595199e-008
+2.6600000e+002    +1.2585920e-007    +6.7908921e-008
+2.6700000e+002    +1.4674458e-007    +6.4244304e-008
+2.6800000e+002    +2.2560650e-007    +6.3485672e-008
+2.6900000e+002    +2.3011006e-007    +6.6353834e-008
+2.7000000e+002    +2.4061035e-007    +6.8357991e-008
+2.7100000e+002    +2.4369041e-007    +6.9793863e-008
+2.7200000e+002    +2.6502329e-007    +7.0091282e-008
+2.7300000e+002    +3.2455526e-007    +7.0453304e-008
+2.7400000e+002    +5.1279386e-007    +7.0472566e-008
+2.7500000e+002    +1.0020663e-006    +7.2332426e-008
+2.7600000e+002    +1.0171987e-006    +7.2552432e-008
+2.7700000e+002    +8.0280779e-007    +7.0939990e-008
+2.7800000e+002    +6.2691515e-007    +7.4321711e-008
+2.7900000e+002    +5.0271473e-007    +7.6101792e-008
+2.8000000e+002    +4.7335672e-007    +7.3490057e-008
+2.8100000e+002    +4.2324533e-007    +7.3687040e-008
+2.8200000e+002    +4.0879897e-007    +6.9594371e-008
+2.8300000e+002    +3.5858935e-007    +6.8587589e-008
+2.8400000e+002    +2.5766198e-007    +6.7104139e-008
+2.8500000e+002    +2.1573138e-007    +7.7682834e-008
+2.8600000e+002    +1.6365514e-007    +7.3862410e-008
+2.8700000e+002    +1.4034232e-007    +7.2663802e-008
+2.8800000e+002    +1.3121107e-007    +7.2078500e-008
+2.8900000e+002    +1.1988134e-007    +7.8728242e-008
+2.9000000e+002    +1.1231073e-007    +7.1535204e-008
+2.9100000e+002    +1.0259147e-007    +7.5149160e-008
+2.9200000e+002    +9.4489749e-008    +7.3580082e-008
+2.9300000e+002    +8.0331041e-008    +7.1909653e-008
+2.9400000e+002    +7.2395750e-008    +7.7250753e-008
+2.9500000e+002    +7.3985291e-008    +8.6032081e-008
+2.9600000e+002    +7.3867760e-008    +8.1175735e-008
+2.9700000e+002    +7.6500307e-008    +8.2290732e-008
+2.9800000e+002    +7.2914347e-008    +7.7932462e-008
+2.9900000e+002    +1.1473344e-007    +8.1125123e-008
+3.0000000e+002    +1.8348511e-007    +8.2181835e-008
+3.0100000e+002    +1.1244509e-007    +7.3725644e-008
+3.0200000e+002    +6.8552808e-008    +8.3188901e-008
+3.0300000e+002    +6.5965281e-008    +8.1218616e-008
+3.0400000e+002    +6.2134603e-008    +8.2599406e-008
+3.0500000e+002    +5.8925430e-008    +8.0719261e-008
+3.0600000e+002    +6.1502092e-008    +8.3076905e-008
+3.0700000e+002    +5.8967437e-008    +8.6513566e-008
+3.0800000e+002    +5.7526716e-008    +8.2789988e-008
+3.0900000e+002    +6.0136159e-008    +8.9915986e-008
+3.1000000e+002    +6.4728738e-008    +8.6649123e-008
+3.1100000e+002    +7.0214909e-008    +8.9471449e-008
+3.1200000e+002    +7.2068609e-008    +8.6862109e-008
+3.1300000e+002    +6.3623631e-008    +8.6365510e-008
+3.1400000e+002    +6.1294799e-008    +8.6456872e-008
+3.1500000e+002    +5.9397014e-008    +7.9816900e-008
+3.1600000e+002    +6.0592278e-008    +8.7948642e-008
+3.1700000e+002    +6.2590964e-008    +9.2098986e-008
+3.1800000e+002    +6.2917763e-008    +8.7843063e-008
+3.1900000e+002    +6.2218710e-008    +8.6022546e-008
+3.2000000e+002    +6.3279337e-008    +9.0565457e-008
+3.2100000e+002    +6.6769964e-008    +8.6254062e-008
+3.2200000e+002    +7.2619535e-008    +8.4725528e-008
+3.2300000e+002    +7.0774590e-008    +9.0133440e-008
+3.2400000e+002    +6.6378391e-008    +9.6602044e-008
+3.2500000e+002    +6.6780302e-008    +8.8918817e-008
+3.2600000e+002    +7.1560976e-008    +8.8921652e-008
+3.2700000e+002    +6.3584800e-008    +9.1531028e-008
+3.2800000e+002    +5.8245913e-008    +9.1484409e-008
+3.2900000e+002    +6.0066938e-008    +9.5200164e-008
+3.3000000e+002    +6.2842716e-008    +9.4750725e-008
+3.3100000e+002    +6.4657705e-008    +9.3594132e-008
+3.3200000e+002    +6.3825276e-008    +9.3672575e-008
+3.3300000e+002    +5.6106654e-008    +9.1479087e-008
+3.3400000e+002    +5.2889053e-008    +1.0107293e-007
+3.3500000e+002    +5.9107641e-008    +1.0207788e-007
+3.3600000e+002    +6.1820153e-008    +9.5349442e-008
+3.3700000e+002    +6.7041029e-008    +9.8690442e-008
+3.3800000e+002    +6.5248841e-008    +1.0356352e-007
+3.3900000e+002    +6.3912019e-008    +1.0177080e-007
+3.4000000e+002    +7.2100661e-008    +9.9521891e-008
+3.4100000e+002    +7.5901767e-008    +1.0183865e-007
+3.4200000e+002    +7.6412583e-008    +1.0610383e-007
+3.4300000e+002    +7.4167559e-008    +1.0415547e-007
+3.4400000e+002    +8.3001417e-008    +9.8063531e-008
+3.4500000e+002    +8.9570527e-008    +9.6603316e-008
+3.4600000e+002    +9.3865509e-008    +9.6714110e-008
+3.4700000e+002    +1.1658195e-007    +9.8242751e-008
+3.4800000e+002    +1.7920938e-007    +1.0340593e-007
+3.4900000e+002    +2.7591415e-007    +1.0773640e-007
+3.5000000e+002    +2.1851938e-007    +1.0351589e-007
+3.5100000e+002    +2.4292959e-007    +1.0241320e-007
+3.5200000e+002    +2.5294307e-007    +1.0470860e-007
+3.5300000e+002    +1.9074355e-007    +1.1130276e-007
+3.5400000e+002    +1.2926380e-007    +1.1525589e-007
+3.5500000e+002    +1.0972549e-007    +1.1412823e-007
+3.5600000e+002    +1.0987136e-007    +1.0691342e-007
+3.5700000e+002    +9.7281969e-008    +1.0165343e-007
+3.5800000e+002    +7.9763545e-008    +1.0502869e-007
+3.5900000e+002    +9.7516917e-008    +1.0335508e-007
+3.6000000e+002    +1.3521128e-007    +1.1177498e-007
+3.6100000e+002    +8.7350728e-008    +1.0167542e-007
+3.6200000e+002    +6.2999128e-008    +1.0255048e-007
+3.6300000e+002    +6.3518648e-008    +1.0782456e-007
+3.6400000e+002    +5.9683018e-008    +1.0168669e-007
+3.6500000e+002    +6.1714694e-008    +1.0530489e-007
+3.6600000e+002    +5.7031833e-008    +1.1207557e-007
+3.6700000e+002    +5.5340728e-008    +1.1593415e-007
+3.6800000e+002    +5.5827982e-008    +1.1153078e-007
+3.6900000e+002    +5.9571263e-008    +1.0933105e-007
+3.7000000e+002    +6.1041874e-008    +1.1087379e-007
+3.7100000e+002    +6.5445867e-008    +1.1263452e-007
+3.7200000e+002    +6.5369093e-008    +1.1843073e-007
+3.7300000e+002    +6.6262395e-008    +1.1408162e-007
+3.7400000e+002    +6.4983240e-008    +1.1047037e-007
+3.7500000e+002    +6.8471188e-008    +1.1207791e-007
+3.7600000e+002    +6.8040720e-008    +1.1246831e-007
+3.7700000e+002    +6.6864899e-008    +1.1358119e-007
+3.7800000e+002    +6.6991213e-008    +1.2479073e-007
+3.7900000e+002    +6.5042272e-008    +1.2087750e-007
+3.8000000e+002    +6.4397625e-008    +1.1296234e-007
+3.8100000e+002    +6.1766620e-008    +1.0133762e-007
+3.8200000e+002    +6.0391102e-008    +1.1365817e-007
+3.8300000e+002    +6.1408436e-008    +1.1916324e-007
+3.8400000e+002    +6.1925718e-008    +1.1748516e-007
+3.8500000e+002    +6.3211353e-008    +1.0863153e-007
+3.8600000e+002    +5.8595365e-008    +1.1961430e-007
+3.8700000e+002    +5.5459704e-008    +1.2583240e-007
+3.8800000e+002    +6.0706419e-008    +1.3611945e-007
+3.8900000e+002    +5.8422110e-008    +1.3854964e-007
+3.9000000e+002    +5.4960395e-008    +1.3629877e-007
+3.9100000e+002    +5.9381822e-008    +1.2427485e-007
+3.9200000e+002    +6.1799931e-008    +1.1902569e-007
+3.9300000e+002    +5.9861065e-008    +1.2363981e-007
+3.9400000e+002    +5.8100287e-008    +1.2920519e-007
+3.9500000e+002    +5.7301353e-008    +1.1859702e-007
+3.9600000e+002    +6.4666089e-008    +1.1289898e-007
+3.9700000e+002    +6.2136309e-008    +1.1748245e-007
+3.9800000e+002    +6.0121508e-008    +1.1999973e-007
+3.9900000e+002    +6.3048674e-008    +1.3549825e-007
+4.0000000e+002    +6.0487658e-008    +1.4294000e-007
+4.0100000e+002    +5.7728236e-008    +1.3663605e-007
+4.0200000e+002    +5.9265293e-008    +1.2824637e-007
+4.0300000e+002    +6.2216316e-008    +1.2023091e-007
+4.0400000e+002    +5.8902856e-008    +1.2444484e-007
+4.0500000e+002    +5.8939602e-008    +1.3167332e-007
+4.0600000e+002    +5.9706942e-008    +1.3745988e-007
+4.0700000e+002    +5.8299914e-008    +1.3396895e-007
+4.0800000e+002    +6.0388913e-008    +1.4020355e-007
+4.0900000e+002    +5.6533391e-008    +1.3903529e-007
+4.1000000e+002    +5.6574311e-008    +1.3702018e-007
+4.1100000e+002    +5.8183787e-008    +1.3342860e-007
+4.1200000e+002    +5.8174269e-008    +1.3376126e-007
+4.1300000e+002    +5.8926144e-008    +1.3480867e-007
+4.1400000e+002    +6.0135960e-008    +1.3212370e-007
+4.1500000e+002    +5.5020106e-008    +1.2290096e-007
+4.1600000e+002    +5.5971846e-008    +1.2856104e-007
+4.1700000e+002    +5.7783978e-008    +1.2579787e-007
+4.1800000e+002    +6.2084275e-008    +1.1996349e-007
+4.1900000e+002    +7.7368405e-008    +1.3739636e-007
+4.2000000e+002    +1.0576061e-007    +1.4232282e-007
+4.2100000e+002    +6.8428875e-008    +1.4575815e-007
+4.2200000e+002    +5.3452112e-008    +1.4354391e-007
+4.2300000e+002    +5.9033251e-008    +1.3913578e-007
+4.2400000e+002    +5.7390196e-008    +1.3757251e-007
+4.2500000e+002    +6.2351994e-008    +1.4547069e-007
+4.2600000e+002    +5.9774109e-008    +1.4510141e-007
+4.2700000e+002    +6.0312843e-008    +1.5020483e-007
+4.2800000e+002    +5.7614386e-008    +1.4881772e-007
+4.2900000e+002    +6.0420483e-008    +1.4655394e-007
+4.3000000e+002    +6.3554715e-008    +1.4922824e-007
+4.3100000e+002    +5.9800428e-008    +1.4393611e-007
+4.3200000e+002    +5.7931931e-008    +1.6385778e-007
+4.3300000e+002    +6.6747830e-008    +1.6137886e-007
+4.3400000e+002    +1.1563755e-007    +1.4867449e-007
+4.3500000e+002    +1.1279181e-007    +1.4962906e-007
+4.3600000e+002    +7.2477434e-008    +1.5966715e-007
+4.3700000e+002    +7.9148769e-008    +1.4983800e-007
+4.3800000e+002    +7.6772004e-008    +1.3809841e-007
+4.3900000e+002    +7.1045839e-008    +1.4897122e-007
+4.4000000e+002    +8.3151193e-008    +1.5172411e-007
+4.4100000e+002    +8.6301334e-008    +1.5612189e-007
+4.4200000e+002    +8.1752916e-008    +1.5543262e-007
+4.4300000e+002    +8.0006856e-008    +1.5831341e-007
+4.4400000e+002    +7.3740374e-008    +1.4408884e-007
+4.4500000e+002    +6.4942583e-008    +1.4643652e-007
+4.4600000e+002    +6.0571729e-008    +1.5402190e-007
+4.4700000e+002    +6.2031610e-008    +1.5314151e-007
+4.4800000e+002    +5.8943549e-008    +1.5468437e-007
+4.4900000e+002    +6.0187880e-008    +1.5734024e-007
+4.5000000e+002    +5.8863098e-008    +1.5237636e-007
+4.5100000e+002    +5.8590992e-008    +1.5271117e-007
+4.5200000e+002    +5.3893441e-008    +1.5858464e-007
+4.5300000e+002    +5.1240441e-008    +1.4954759e-007
+4.5400000e+002    +5.8362936e-008    +1.4864641e-007
+4.5500000e+002    +5.7264057e-008    +1.4981268e-007
+4.5600000e+002    +5.7924233e-008    +1.5558389e-007
+4.5700000e+002    +6.2863286e-008    +1.7290621e-007
+4.5800000e+002    +5.6985954e-008    +1.7353823e-007
+4.5900000e+002    +5.5856738e-008    +1.6811296e-007
+4.6000000e+002    +5.2556260e-008    +1.4689725e-007
+4.6100000e+002    +5.3773750e-008    +1.5810636e-007
+4.6200000e+002    +6.0554370e-008    +1.6952127e-007
+4.6300000e+002    +5.5836317e-008    +1.7195563e-007
+4.6400000e+002    +5.2638612e-008    +1.6522209e-007
+4.6500000e+002    +5.5900848e-008    +1.5884167e-007
+4.6600000e+002    +5.6048901e-008    +1.6584349e-007
+4.6700000e+002    +5.6857459e-008    +1.6872096e-007
+4.6800000e+002    +5.7817360e-008    +1.6898905e-007
+4.6900000e+002    +5.5734336e-008    +1.6409543e-007
+4.7000000e+002    +5.5153411e-008    +1.6475165e-007
+4.7100000e+002    +5.5658081e-008    +1.8102979e-007
+4.7200000e+002    +5.3594857e-008    +1.6528760e-007
+4.7300000e+002    +5.5478768e-008    +1.4475611e-007
+4.7400000e+002    +6.3533300e-008    +1.5814942e-007
+4.7500000e+002    +6.1726958e-008    +1.7039160e-007
+4.7600000e+002    +5.5845575e-008    +1.7514152e-007
+4.7700000e+002    +5.7770656e-008    +1.6746118e-007
+4.7800000e+002    +5.9929391e-008    +1.6269378e-007
+4.7900000e+002    +1.5593447e-007    +1.5971766e-007
+4.8000000e+002    +2.9153114e-007    +1.6963727e-007
+4.8100000e+002    +1.5647885e-007    +1.7214094e-007
+4.8200000e+002    +6.4482172e-008    +1.7263666e-007
+4.8300000e+002    +6.2772038e-008    +1.5732418e-007
+4.8400000e+002    +6.6971580e-008    +1.7817777e-007
+4.8500000e+002    +7.2328376e-008    +1.7193204e-007
+4.8600000e+002    +6.9701969e-008    +1.5871302e-007
+4.8700000e+002    +7.3543653e-008    +1.6475273e-007
+4.8800000e+002    +7.7804643e-008    +1.7909707e-007
+4.8900000e+002    +7.7637814e-008    +1.8552363e-007
+4.9000000e+002    +7.6504762e-008    +1.7380270e-007
+4.9100000e+002    +7.5008522e-008    +1.6712541e-007
+4.9200000e+002    +8.1039659e-008    +1.7729514e-007
+4.9300000e+002    +8.2364849e-008    +1.7513499e-007
+4.9400000e+002    +8.0730338e-008    +1.6367329e-007
+4.9500000e+002    +7.6419880e-008    +1.7189014e-007
+4.9600000e+002    +7.6269757e-008    +1.6737920e-007
+4.9700000e+002    +7.3416501e-008    +1.5906593e-007
+4.9800000e+002    +7.9076152e-008    +1.6455442e-007
+4.9900000e+002    +8.4867978e-008    +1.6664772e-007
+5.0000000e+002    +9.0833339e-008    +1.7390082e-007
+5.0100000e+002    +8.7410307e-008    +1.6950322e-007
+5.0200000e+002    +8.4540332e-008    +1.8714518e-007
+5.0300000e+002    +8.5904183e-008    +1.9087554e-007
+5.0400000e+002    +8.7833321e-008    +2.0698458e-007
+5.0500000e+002    +1.0276644e-007    +1.9715181e-007
+5.0600000e+002    +1.0224658e-007    +1.9887717e-007
+5.0700000e+002    +1.0244132e-007    +1.9414639e-007
+5.0800000e+002    +1.0173170e-007    +1.8862676e-007
+5.0900000e+002    +1.1596610e-007    +1.9984971e-007
+5.1000000e+002    +1.3640745e-007    +2.0238245e-007
+5.1100000e+002    +1.2123225e-007    +1.9275009e-007
+5.1200000e+002    +1.0496863e-007    +1.9754182e-007
+5.1300000e+002    +8.4819071e-008    +2.0216214e-007
+5.1400000e+002    +8.0868382e-008    +1.9310384e-007
+5.1500000e+002    +8.2044622e-008    +1.9008917e-007
+5.1600000e+002    +7.4982012e-008    +1.9827976e-007
+5.1700000e+002    +7.0276229e-008    +1.9155303e-007
+5.1800000e+002    +6.5181965e-008    +1.8710307e-007
+5.1900000e+002    +6.3973310e-008    +1.8232016e-007
+5.2000000e+002    +6.2817122e-008    +1.8454845e-007
+5.2100000e+002    +5.8963227e-008    +1.7652884e-007
+5.2200000e+002    +6.2147159e-008    +1.8293414e-007
+5.2300000e+002    +5.7639696e-008    +1.9286928e-007
+5.2400000e+002    +5.7301857e-008    +1.9393228e-007
+5.2500000e+002    +6.6755746e-008    +1.8938795e-007
+5.2600000e+002    +6.9134295e-008    +1.9814789e-007
+5.2700000e+002    +7.2936210e-008    +1.9128234e-007
+5.2800000e+002    +9.0843713e-008    +1.9298324e-007
+5.2900000e+002    +1.2412566e-007    +1.8475363e-007
+5.3000000e+002    +1.6792885e-007    +1.7682700e-007
+5.3100000e+002    +1.9405242e-007    +1.8619379e-007
+5.3200000e+002    +1.8799037e-007    +2.0967403e-007
+5.3300000e+002    +2.0187822e-007    +2.0094942e-007
+5.3400000e+002    +1.9966899e-007    +1.7778225e-007
+5.3500000e+002    +1.7297249e-007    +1.9056102e-007
+5.3600000e+002    +1.6238076e-007    +1.9307035e-007
+5.3700000e+002    +1.6189939e-007    +2.0251115e-007
+5.3800000e+002    +1.6567333e-007    +1.8896651e-007
+5.3900000e+002    +2.0443061e-007    +1.9012590e-007
+5.4000000e+002    +2.8203598e-007    +2.1085373e-007
+5.4100000e+002    +1.8996023e-007    +2.0335069e-007
+5.4200000e+002    +1.4646916e-007    +2.0591672e-007
+5.4300000e+002    +1.5663200e-007    +2.1565441e-007
+5.4400000e+002    +1.7920840e-007    +2.0973367e-007
+5.4500000e+002    +2.5556548e-007    +2.2220098e-007
+5.4600000e+002    +3.7152068e-007    +2.1688324e-007
+5.4700000e+002    +6.2273796e-007    +2.1302738e-007
+5.4800000e+002    +1.0334929e-006    +2.0866766e-007
+5.4900000e+002    +1.2209800e-006    +2.0865575e-007
+5.5000000e+002    +1.3986700e-006    +1.9587536e-007
+5.5100000e+002    +1.4378636e-006    +2.0675404e-007
+5.5200000e+002    +1.3816682e-006    +2.1955830e-007
+5.5300000e+002    +1.6929379e-006    +2.0961947e-007
+5.5400000e+002    +9.6402425e-007    +2.1477823e-007
+5.5500000e+002    +4.7212293e-007    +2.1155985e-007
+5.5600000e+002    +4.0922964e-007    +1.9674073e-007
+5.5700000e+002    +3.1428317e-007    +2.1696540e-007
+5.5800000e+002    +2.3411236e-007    +2.1766212e-007
+5.5900000e+002    +2.1318579e-007    +2.1614605e-007
+5.6000000e+002    +1.9867770e-007    +2.0855062e-007
+5.6100000e+002    +1.7215417e-007    +1.9136741e-007
+5.6200000e+002    +1.5447816e-007    +2.0555100e-007
+5.6300000e+002    +1.3736000e-007    +2.1346122e-007
+5.6400000e+002    +1.2241465e-007    +1.9814549e-007
+5.6500000e+002    +1.0086296e-007    +2.0369862e-007
+5.6600000e+002    +1.0009161e-007    +2.0599022e-007
+5.6700000e+002    +1.1914728e-007    +2.3148937e-007
+5.6800000e+002    +1.2252008e-007    +2.3329510e-007
+5.6900000e+002    +1.2101972e-007    +2.2745247e-007
+5.7000000e+002    +1.3131599e-007    +2.0876115e-007
+5.7100000e+002    +1.4479775e-007    +2.3135139e-007
+5.7200000e+002    +1.4860986e-007    +2.4408939e-007
+5.7300000e+002    +1.8365482e-007    +2.2290129e-007
+5.7400000e+002    +2.0846751e-007    +2.2408381e-007
+5.7500000e+002    +2.1536266e-007    +2.4932987e-007
+5.7600000e+002    +2.3001736e-007    +2.4561720e-007
+5.7700000e+002    +2.5467079e-007    +2.3474503e-007
+5.7800000e+002    +2.8327176e-007    +2.2685366e-007
+5.7900000e+002    +2.5427155e-007    +2.2127510e-007
+5.8000000e+002    +2.2576558e-007    +2.3230029e-007
+5.8100000e+002    +1.9235897e-007    +2.4555249e-007
+5.8200000e+002    +1.4965090e-007    +2.2312460e-007
+5.8300000e+002    +1.4720740e-007    +2.1804578e-007
+5.8400000e+002    +1.3615936e-007    +2.1632579e-007
+5.8500000e+002    +1.2472169e-007    +2.3165437e-007
+5.8600000e+002    +1.0553511e-007    +2.3660630e-007
+5.8700000e+002    +9.1041919e-008    +2.3393558e-007
+5.8800000e+002    +7.9293685e-008    +2.3479865e-007
+5.8900000e+002    +7.0043590e-008    +2.4110196e-007
+5.9000000e+002    +6.2304089e-008    +2.1596577e-007
+5.9100000e+002    +6.5058842e-008    +2.0795841e-007
+5.9200000e+002    +6.8648767e-008    +2.2063028e-007
+5.9300000e+002    +6.3774628e-008    +2.4295306e-007
+5.9400000e+002    +6.7472577e-008    +2.4966599e-007
+5.9500000e+002    +6.8202802e-008    +2.3855878e-007
+5.9600000e+002    +6.2438311e-008    +2.3933720e-007
+5.9700000e+002    +6.1911578e-008    +2.2082223e-007
+5.9800000e+002    +6.6709141e-008    +2.3509659e-007
+5.9900000e+002    +1.3771337e-007    +2.3884368e-007
+6.0000000e+002    +2.4144316e-007    +2.3058098e-007
+6.0100000e+002    +1.6513286e-007    +2.2700789e-007
+6.0200000e+002    +1.5153049e-007    +2.2984040e-007
+6.0300000e+002    +1.8563692e-007    +2.6165407e-007
+6.0400000e+002    +2.1800437e-007    +2.4937859e-007
+6.0500000e+002    +2.0760730e-007    +2.4360881e-007
+6.0600000e+002    +1.3504452e-007    +2.4510805e-007
+6.0700000e+002    +7.8006423e-008    +2.3063922e-007
+6.0800000e+002    +6.4978529e-008    +2.1900384e-007
+6.0900000e+002    +6.0828178e-008    +2.4367836e-007
+6.1000000e+002    +6.3778614e-008    +2.2465385e-007
+6.1100000e+002    +6.4617822e-008    +2.4118748e-007
+6.1200000e+002    +5.8831308e-008    +2.3152469e-007
+6.1300000e+002    +5.6535065e-008    +2.2988254e-007
+6.1400000e+002    +6.1598051e-008    +2.4603179e-007
+6.1500000e+002    +6.5713792e-008    +2.6134310e-007
+6.1600000e+002    +6.0021449e-008    +2.5706518e-007
+6.1700000e+002    +5.3712203e-008    +2.2700914e-007
+6.1800000e+002    +5.5037024e-008    +2.3822376e-007
+6.1900000e+002    +5.7351329e-008    +2.4996359e-007
+6.2000000e+002    +6.2362062e-008    +2.4707643e-007
+6.2100000e+002    +6.2814159e-008    +2.3022530e-007
+6.2200000e+002    +6.4789106e-008    +2.3203850e-007
+6.2300000e+002    +6.1688681e-008    +2.5242147e-007
+6.2400000e+002    +6.3497033e-008    +2.5075744e-007
+6.2500000e+002    +6.7633160e-008    +2.6470778e-007
+6.2600000e+002    +6.2473013e-008    +2.2335550e-007
+6.2700000e+002    +6.0379364e-008    +2.3765320e-007
+6.2800000e+002    +6.2605402e-008    +2.5711006e-007
+6.2900000e+002    +6.0603455e-008    +2.4438680e-007
+6.3000000e+002    +6.1707446e-008    +2.6072260e-007
+6.3100000e+002    +6.5258945e-008    +2.5445615e-007
+6.3200000e+002    +6.4305276e-008    +2.5137547e-007
+6.3300000e+002    +6.4756108e-008    +2.5700027e-007
+6.3400000e+002    +6.5756808e-008    +2.6446608e-007
+6.3500000e+002    +5.9021652e-008    +2.5366560e-007
+6.3600000e+002    +5.9476303e-008    +2.5488927e-007
+6.3700000e+002    +6.1520460e-008    +2.7074708e-007
+6.3800000e+002    +5.8175992e-008    +2.7451870e-007
+6.3900000e+002    +5.9589972e-008    +2.6330943e-007
+6.4000000e+002    +6.8174501e-008    +2.5313142e-007
+6.4100000e+002    +6.6390641e-008    +2.6272005e-007
+6.4200000e+002    +7.3708399e-008    +2.6050171e-007
+6.4300000e+002    +8.5246484e-008    +2.4748451e-007
+6.4400000e+002    +1.0196262e-007    +2.5443018e-007
+6.4500000e+002    +1.2881792e-007    +2.5125186e-007
+6.4600000e+002    +1.2031569e-007    +2.4114166e-007
+6.4700000e+002    +9.4176542e-008    +2.4867316e-007
+6.4800000e+002    +7.9851432e-008    +2.6900949e-007
+6.4900000e+002    +7.2424214e-008    +2.7897926e-007
+6.5000000e+002    +7.2678240e-008    +2.8297490e-007
+6.5100000e+002    +8.6381725e-008    +2.6747566e-007
+6.5200000e+002    +9.5385353e-008    +2.4532829e-007
+6.5300000e+002    +7.6608316e-008    +2.5041106e-007
+6.5400000e+002    +6.9706942e-008    +2.7538178e-007
+6.5500000e+002    +6.7381073e-008    +2.5490664e-007
+6.5600000e+002    +6.3134848e-008    +2.6416339e-007
+6.5700000e+002    +5.6102529e-008    +2.7775030e-007
+6.5800000e+002    +5.4902074e-008    +2.6806040e-007
+6.5900000e+002    +1.2374615e-007    +2.6395145e-007
+6.6000000e+002    +2.2814480e-007    +2.6263928e-007
+6.6100000e+002    +1.2869282e-007    +2.5369431e-007
+6.6200000e+002    +5.8327444e-008    +2.6002621e-007
+6.6300000e+002    +6.1547219e-008    +2.6539456e-007
+6.6400000e+002    +6.0223115e-008    +2.8441519e-007
+6.6500000e+002    +5.8212414e-008    +2.6545169e-007
+6.6600000e+002    +6.0062590e-008    +2.6825856e-007
+6.6700000e+002    +6.4590374e-008    +2.6036074e-007
+6.6800000e+002    +6.2926404e-008    +2.5150578e-007
+6.6900000e+002    +6.0555898e-008    +2.6517785e-007
+6.7000000e+002    +5.9121597e-008    +2.4722024e-007
+6.7100000e+002    +6.2299847e-008    +2.6405522e-007
+6.7200000e+002    +6.9338256e-008    +2.8394933e-007
+6.7300000e+002    +7.0645868e-008    +2.9422426e-007
+6.7400000e+002    +6.6419950e-008    +2.6083944e-007
+6.7500000e+002    +6.3016216e-008    +2.6695986e-007
+6.7600000e+002    +6.4233021e-008    +2.7504183e-007
+6.7700000e+002    +6.5283743e-008    +2.6436155e-007
+6.7800000e+002    +6.6928060e-008    +2.9610942e-007
+6.7900000e+002    +6.8936991e-008    +3.0394651e-007
+6.8000000e+002    +7.1863170e-008    +2.9401630e-007
+6.8100000e+002    +6.8426246e-008    +2.7617145e-007
+6.8200000e+002    +7.1832481e-008    +2.7607354e-007
+6.8300000e+002    +7.0473959e-008    +2.7431773e-007
+6.8400000e+002    +7.0517146e-008    +2.5543756e-007
+6.8500000e+002    +7.8237932e-008    +2.7413225e-007
+6.8600000e+002    +9.1167855e-008    +2.9247983e-007
+6.8700000e+002    +1.0213315e-007    +3.0320754e-007
+6.8800000e+002    +9.2023583e-008    +2.9865262e-007
+6.8900000e+002    +8.7329155e-008    +2.7818734e-007
+6.9000000e+002    +8.9567578e-008    +2.5456038e-007
+6.9100000e+002    +1.0001142e-007    +2.6849105e-007
+6.9200000e+002    +1.1400049e-007    +2.9456137e-007
+6.9300000e+002    +1.2337212e-007    +2.8443830e-007
+6.9400000e+002    +1.2877055e-007    +2.7602263e-007
+6.9500000e+002    +1.1096574e-007    +2.7385099e-007
+6.9600000e+002    +1.0181540e-007    +2.7470352e-007
+6.9700000e+002    +1.0225276e-007    +2.5264413e-007
+6.9800000e+002    +9.6670796e-008    +2.7346638e-007
+6.9900000e+002    +1.0831009e-007    +2.9600540e-007
+7.0000000e+002    +1.0600986e-007    +2.8218992e-007
+7.0100000e+002    +1.0253854e-007    +2.7912233e-007
+7.0200000e+002    +9.6602150e-008    +2.7806976e-007
+7.0300000e+002    +8.9149523e-008    +2.6743569e-007
+7.0400000e+002    +9.0148980e-008    +2.8010197e-007
+7.0500000e+002    +9.9547464e-008    +2.9520731e-007
+7.0600000e+002    +9.0218293e-008    +2.9492901e-007
+7.0700000e+002    +8.1391349e-008    +3.0419588e-007
+7.0800000e+002    +8.9606431e-008    +3.2006386e-007
+7.0900000e+002    +9.2970090e-008    +2.8733865e-007
+7.1000000e+002    +8.8755925e-008    +2.6720795e-007
+7.1100000e+002    +9.5702163e-008    +2.8537769e-007
+7.1200000e+002    +1.0560269e-007    +2.9492739e-007
+7.1300000e+002    +1.0382242e-007    +2.9301501e-007
+7.1400000e+002    +1.0242962e-007    +2.9037665e-007
+7.1500000e+002    +1.0644000e-007    +2.9667859e-007
+7.1600000e+002    +1.0497519e-007    +2.9081087e-007
+7.1700000e+002    +9.7467137e-008    +2.6892297e-007
+7.1800000e+002    +9.1502393e-008    +2.8151035e-007
+7.1900000e+002    +1.2396958e-007    +2.9676821e-007
+7.2000000e+002    +1.9946499e-007    +2.9704105e-007
+7.2100000e+002    +1.1726389e-007    +3.0305344e-007
+7.2200000e+002    +7.4176846e-008    +3.0657651e-007
+7.2300000e+002    +7.1306076e-008    +3.1383524e-007
+7.2400000e+002    +7.1420786e-008    +3.2791507e-007
+7.2500000e+002    +7.3596645e-008    +3.0877908e-007
+7.2600000e+002    +7.1495002e-008    +2.9866411e-007
+7.2700000e+002    +7.1947170e-008    +2.8813983e-007
+7.2800000e+002    +8.0530619e-008    +2.9504497e-007
+7.2900000e+002    +7.4237214e-008    +3.0570192e-007
+7.3000000e+002    +6.0690624e-008    +2.9540703e-007
+7.3100000e+002    +6.4018842e-008    +3.0230370e-007
+7.3200000e+002    +6.3802638e-008    +3.1024987e-007
+7.3300000e+002    +6.8234783e-008    +2.9218904e-007
+7.3400000e+002    +6.9915352e-008    +2.9622129e-007
+7.3500000e+002    +6.5676858e-008    +3.1341273e-007
+7.3600000e+002    +6.6337520e-008    +3.0297693e-007
+7.3700000e+002    +7.1308811e-008    +2.8332462e-007
+7.3800000e+002    +7.3445285e-008    +2.8849121e-007
+7.3900000e+002    +7.2048984e-008    +3.1692747e-007
+7.4000000e+002    +6.9471994e-008    +3.1648167e-007
+7.4100000e+002    +7.1224932e-008    +3.1701552e-007
+7.4200000e+002    +7.3092288e-008    +3.1742093e-007
+7.4300000e+002    +7.6446739e-008    +3.0191262e-007
+7.4400000e+002    +7.3285953e-008    +2.7163648e-007
+7.4500000e+002    +7.1920233e-008    +2.8607823e-007
+7.4600000e+002    +7.2482123e-008    +3.0844973e-007
+7.4700000e+002    +7.5000457e-008    +2.9714707e-007
+7.4800000e+002    +8.3426080e-008    +3.3028508e-007
+7.4900000e+002    +9.3668355e-008    +3.0818163e-007
+7.5000000e+002    +1.1199906e-007    +2.9809078e-007
+7.5100000e+002    +1.0414998e-007    +3.0326913e-007
+7.5200000e+002    +8.2741003e-008    +3.0144989e-007
+7.5300000e+002    +8.5040163e-008    +3.0694028e-007
+7.5400000e+002    +7.9830919e-008    +3.0296394e-007
+7.5500000e+002    +8.0370562e-008    +3.0691635e-007
+7.5600000e+002    +8.4175774e-008    +2.7804626e-007
+7.5700000e+002    +7.9811201e-008    +3.1070360e-007
+7.5800000e+002    +7.2863131e-008    +3.1891048e-007
+7.5900000e+002    +7.8387885e-008    +3.1592134e-007
+7.6000000e+002    +9.1322939e-008    +3.1307499e-007
+7.6100000e+002    +7.5571471e-008    +3.0313296e-007
+7.6200000e+002    +6.8311543e-008    +3.0611639e-007
+7.6300000e+002    +6.8720027e-008    +3.2043025e-007
+7.6400000e+002    +7.1040851e-008    +2.8379475e-007
+7.6500000e+002    +7.7642760e-008    +2.8401482e-007
+7.6600000e+002    +7.0556410e-008    +3.0479131e-007
+7.6700000e+002    +6.2215975e-008    +3.1869766e-007
+7.6800000e+002    +6.5566695e-008    +3.1976492e-007
+7.6900000e+002    +6.5196282e-008    +3.2242914e-007
+7.7000000e+002    +6.6105144e-008    +3.2405248e-007
+7.7100000e+002    +6.4022352e-008    +3.5139604e-007
+7.7200000e+002    +6.8255019e-008    +3.4869456e-007
+7.7300000e+002    +6.8496981e-008    +3.3195633e-007
+7.7400000e+002    +6.0594409e-008    +3.3211236e-007
+7.7500000e+002    +5.8679447e-008    +3.0340402e-007
+7.7600000e+002    +6.4640105e-008    +3.0896084e-007
+7.7700000e+002    +6.2290887e-008    +3.3115182e-007
+7.7800000e+002    +6.1962240e-008    +3.0797290e-007
+7.7900000e+002    +1.4585677e-007    +3.0628885e-007
+7.8000000e+002    +2.6140279e-007    +3.1932532e-007
+7.8100000e+002    +1.4426709e-007    +3.5171411e-007
+7.8200000e+002    +6.2066214e-008    +3.3081858e-007
+7.8300000e+002    +6.5814881e-008    +3.4901592e-007
+7.8400000e+002    +7.0412163e-008    +3.2211105e-007
+7.8500000e+002    +6.6008027e-008    +3.2208382e-007
+7.8600000e+002    +6.5886169e-008    +3.4546608e-007
+7.8700000e+002    +6.5971292e-008    +3.1384801e-007
+7.8800000e+002    +7.1363246e-008    +3.2881351e-007
+7.8900000e+002    +6.7907131e-008    +3.2008634e-007
+7.9000000e+002    +6.5874374e-008    +3.0507422e-007
+7.9100000e+002    +6.8808141e-008    +3.1891292e-007
+7.9200000e+002    +6.9638780e-008    +3.6626071e-007
+7.9300000e+002    +7.0048358e-008    +3.3619688e-007
+7.9400000e+002    +6.8279974e-008    +3.1597719e-007
+7.9500000e+002    +7.0371506e-008    +3.1952803e-007
+7.9600000e+002    +7.3450693e-008    +3.4137426e-007
+7.9700000e+002    +7.0227635e-008    +3.4239227e-007
+7.9800000e+002    +6.8747802e-008    +3.3215576e-007
+7.9900000e+002    +7.2835931e-008    +3.4708685e-007
#
#
# North DC Val: 0.68177763 VoltsSouth DC Val: 0.5764084500000001 Volts
# SR785 Measurement - Timestamp: Jul 14 2020 - 19:29:27
# Parameter File: /home/controls/Git/cit_ctnlab/ctn_scripts/TransRINSpecShort.yml
#---------- Measurement Setup ------------
# Start Frequency (Hz): 0.000000
# Frequency Span (Hz): 102400.000000
# Frequency Resolution: 800
# Number of Averages: 100
# Averaging Mode: RMS
# Window function: Hanning
#---------- Measurement Parameters ----------
# Measurement Group:  "FFT" "FFT"
# Measurements:  "FFT 1" "FFT 2"
# View:  "Log Magnitude" "Log Magnitude"
# Unit:  "Vrms/rtHz" "Vrms/rtHz"
#---------- Input Parameters ----------
# Input Source: Analog
# Input Mode: Single ended, Single ended
# Input Grounding: Float, Float
# Input Coupling: AC, AC
# Input Range: -36.0dBVpk, -36.0dBVpk
# Auto Range: Off, Off
# Auto Range Mode: Tracking, Tracking
# Anti-Aliasing Filter: On, On
#---------- Source Parameters ----------
# Source Type: Sine
# Source Amplitude: 500.0mVpk
# Source On: 0

#---------- Measurement Data ----------
# [Freq(Hz) Display 0(Vrms/rtHz) Display 1(Vrms/rtHz) ]
+8.9600000e+002    +1.2886065e-007    +4.0350088e-007
+1.0240000e+003    +1.3317700e-007    +4.4898832e-007
+1.1520000e+003    +1.2153399e-007    +5.1784411e-007
+1.2800000e+003    +1.2539685e-007    +5.5509173e-007
+1.4080000e+003    +1.3997223e-007    +5.9445290e-007
+1.5360000e+003    +1.7328328e-007    +6.4724190e-007
+1.6640000e+003    +2.4965419e-007    +7.3394983e-007
+1.7920000e+003    +3.3079499e-007    +7.6246226e-007
+1.9200000e+003    +2.7976358e-007    +8.3519564e-007
+2.0480000e+003    +2.6897789e-007    +9.3349672e-007
+2.1760000e+003    +3.0486160e-007    +9.3819762e-007
+2.3040000e+003    +3.3370969e-007    +9.2069058e-007
+2.4320000e+003    +3.5587163e-007    +1.0112288e-006
+2.5600000e+003    +4.1415481e-007    +1.0991093e-006
+2.6880000e+003    +4.4036099e-007    +1.2053439e-006
+2.8160000e+003    +4.3677457e-007    +1.3641614e-006
+2.9440000e+003    +4.8195528e-007    +1.4258871e-006
+3.0720000e+003    +5.4901591e-007    +1.5342661e-006
+3.2000000e+003    +5.5767271e-007    +1.5747331e-006
+3.3280000e+003    +5.4011144e-007    +1.6798141e-006
+3.4560000e+003    +5.7525261e-007    +1.9139998e-006
+3.5840000e+003    +6.4753476e-007    +1.9466615e-006
+3.7120000e+003    +6.7876493e-007    +1.9659715e-006
+3.8400000e+003    +7.0052818e-007    +2.2233032e-006
+3.9680000e+003    +7.3219923e-007    +2.5207860e-006
+4.0960000e+003    +7.9448279e-007    +3.0274516e-006
+4.2240000e+003    +8.0565906e-007    +3.4980815e-006
+4.3520000e+003    +8.8773277e-007    +3.4384798e-006
+4.4800000e+003    +9.3162504e-007    +3.4315251e-006
+4.6080000e+003    +9.5292398e-007    +3.3669151e-006
+4.7360000e+003    +9.5228182e-007    +3.6624583e-006
+4.8640000e+003    +9.6769554e-007    +4.0599125e-006
+4.9920000e+003    +1.0403854e-006    +4.1185758e-006
+5.1200000e+003    +1.0965443e-006    +4.1829976e-006
+5.2480000e+003    +1.1574718e-006    +4.1035719e-006
+5.3760000e+003    +1.1651566e-006    +4.0536011e-006
+5.5040000e+003    +1.1672757e-006    +4.0492196e-006
+5.6320000e+003    +1.1715373e-006    +3.5403098e-006
+5.7600000e+003    +1.3663889e-006    +3.4196773e-006
+5.8880000e+003    +1.3850248e-006    +2.9864802e-006
+6.0160000e+003    +1.3620870e-006    +3.0334741e-006
+6.1440000e+003    +1.3249545e-006    +2.9986834e-006
+6.2720000e+003    +1.4810067e-006    +2.7139799e-006
+6.4000000e+003    +1.4930511e-006    +2.5419172e-006
+6.5280000e+003    +1.4687143e-006    +2.3238269e-006
+6.6560000e+003    +1.5225311e-006    +2.1873877e-006
+6.7840000e+003    +1.5876008e-006    +2.1841311e-006
+6.9120000e+003    +1.5328231e-006    +1.9992849e-006
+7.0400000e+003    +1.6845755e-006    +1.8089667e-006
+7.1680000e+003    +1.7745599e-006    +1.7865360e-006
+7.2960000e+003    +1.6664186e-006    +1.7125868e-006
+7.4240000e+003    +1.7181485e-006    +1.6181568e-006
+7.5520000e+003    +1.9226227e-006    +1.5621208e-006
+7.6800000e+003    +1.7756299e-006    +1.4856157e-006
+7.8080000e+003    +1.6797679e-006    +1.5112458e-006
+7.9360000e+003    +1.7375729e-006    +1.4383579e-006
+8.0640000e+003    +1.9417773e-006    +1.5023963e-006
+8.1920000e+003    +2.0345522e-006    +1.4421753e-006
+8.3200000e+003    +2.0561354e-006    +1.3856865e-006
+8.4480000e+003    +2.1252229e-006    +1.3659060e-006
+8.5760000e+003    +2.1741946e-006    +1.2864732e-006
+8.7040000e+003    +2.2260413e-006    +1.2688206e-006
+8.8320000e+003    +2.1817032e-006    +1.3074613e-006
+8.9600000e+003    +2.2138593e-006    +1.2817501e-006
+9.0880000e+003    +2.2659103e-006    +1.3776539e-006
+9.2160000e+003    +2.1886008e-006    +1.3311238e-006
+9.3440000e+003    +2.2580698e-006    +1.2632049e-006
+9.4720000e+003    +2.3639493e-006    +1.2299046e-006
+9.6000000e+003    +2.4320473e-006    +1.2187794e-006
+9.7280000e+003    +2.2968575e-006    +1.2520122e-006
+9.8560000e+003    +2.2127801e-006    +1.2529611e-006
+9.9840000e+003    +2.2756963e-006    +1.2151356e-006
+1.0112000e+004    +2.2453598e-006    +1.1629072e-006
+1.0240000e+004    +2.5056947e-006    +1.2599470e-006
+1.0368000e+004    +2.9963960e-006    +1.2819260e-006
+1.0496000e+004    +2.7868932e-006    +1.0915149e-006
+1.0624000e+004    +2.6646790e-006    +1.1185748e-006
+1.0752000e+004    +2.9444564e-006    +1.1206720e-006
+1.0880000e+004    +2.6762311e-006    +9.9274587e-007
+1.1008000e+004    +2.8362933e-006    +9.5582027e-007
+1.1136000e+004    +3.0307840e-006    +9.5536279e-007
+1.1264000e+004    +2.7946180e-006    +9.2082303e-007
+1.1392000e+004    +2.6513972e-006    +9.4146770e-007
+1.1520000e+004    +2.9577734e-006    +1.0247439e-006
+1.1648000e+004    +3.2221469e-006    +9.3343522e-007
+1.1776000e+004    +3.1681334e-006    +7.9908705e-007
+1.1904000e+004    +2.9634784e-006    +8.5601954e-007
+1.2032000e+004    +2.7030719e-006    +8.5744648e-007
+1.2160000e+004    +2.8107856e-006    +7.9194234e-007
+1.2288000e+004    +2.9927005e-006    +7.1953332e-007
+1.2416000e+004    +3.0129604e-006    +7.1351025e-007
+1.2544000e+004    +2.7899364e-006    +7.6763916e-007
+1.2672000e+004    +2.6109874e-006    +7.6640367e-007
+1.2800000e+004    +2.6454361e-006    +6.7240876e-007
+1.2928000e+004    +2.6572316e-006    +6.7145930e-007
+1.3056000e+004    +2.9111884e-006    +6.6385974e-007
+1.3184000e+004    +2.6684381e-006    +5.9268808e-007
+1.3312000e+004    +2.8485022e-006    +5.5865632e-007
+1.3440000e+004    +2.8522920e-006    +5.8990940e-007
+1.3568000e+004    +2.8102024e-006    +5.7816726e-007
+1.3696000e+004    +2.8700001e-006    +5.4372191e-007
+1.3824000e+004    +2.7516719e-006    +5.5433952e-007
+1.3952000e+004    +2.8435618e-006    +5.8563273e-007
+1.4080000e+004    +2.8306717e-006    +5.5425130e-007
+1.4208000e+004    +2.7043779e-006    +5.0943129e-007
+1.4336000e+004    +2.5538932e-006    +5.2199647e-007
+1.4464000e+004    +2.7347089e-006    +5.1030008e-007
+1.4592000e+004    +2.9583159e-006    +4.5561592e-007
+1.4720000e+004    +2.7784515e-006    +4.5867566e-007
+1.4848000e+004    +2.8118538e-006    +5.0660447e-007
+1.4976000e+004    +2.7093829e-006    +5.0809956e-007
+1.5104000e+004    +2.5213037e-006    +4.4827408e-007
+1.5232000e+004    +2.5353306e-006    +4.2578415e-007
+1.5360000e+004    +2.5811898e-006    +4.3639685e-007
+1.5488000e+004    +2.4958567e-006    +4.5297233e-007
+1.5616000e+004    +2.6644800e-006    +4.5609542e-007
+1.5744000e+004    +2.7678891e-006    +4.4382918e-007
+1.5872000e+004    +2.4915062e-006    +4.5117898e-007
+1.6000000e+004    +2.4818873e-006    +4.1876342e-007
+1.6128000e+004    +2.4566737e-006    +4.1135863e-007
+1.6256000e+004    +2.3174900e-006    +3.9748383e-007
+1.6384000e+004    +2.5542633e-006    +4.2130961e-007
+1.6512000e+004    +2.4535602e-006    +4.1160530e-007
+1.6640000e+004    +2.3627013e-006    +4.1559196e-007
+1.6768000e+004    +2.1256944e-006    +4.0728514e-007
+1.6896000e+004    +2.2107574e-006    +3.6961370e-007
+1.7024000e+004    +2.4533663e-006    +3.6444155e-007
+1.7152000e+004    +2.3102750e-006    +3.7401117e-007
+1.7280000e+004    +2.1473036e-006    +3.7203216e-007
+1.7408000e+004    +2.1861608e-006    +4.0642925e-007
+1.7536000e+004    +2.3293753e-006    +3.9598797e-007
+1.7664000e+004    +2.2952063e-006    +3.7227446e-007
+1.7792000e+004    +2.2231397e-006    +3.7856609e-007
+1.7920000e+004    +2.0450491e-006    +4.0545314e-007
+1.8048000e+004    +2.2062543e-006    +4.0073309e-007
+1.8176000e+004    +2.2823524e-006    +3.8364962e-007
+1.8304000e+004    +2.0840641e-006    +3.5688194e-007
+1.8432000e+004    +2.0062294e-006    +3.8917301e-007
+1.8560000e+004    +2.2186871e-006    +4.0700976e-007
+1.8688000e+004    +2.2009872e-006    +3.7637656e-007
+1.8816000e+004    +2.0735399e-006    +3.6327580e-007
+1.8944000e+004    +2.0659043e-006    +3.6228278e-007
+1.9072000e+004    +2.0833527e-006    +3.2911728e-007
+1.9200000e+004    +2.0908965e-006    +3.3887372e-007
+1.9328000e+004    +1.8816155e-006    +3.4960004e-007
+1.9456000e+004    +1.7315851e-006    +3.6746829e-007
+1.9584000e+004    +1.8557558e-006    +3.6059816e-007
+1.9712000e+004    +1.8895572e-006    +3.6881227e-007
+1.9840000e+004    +1.8769275e-006    +3.6144763e-007
+1.9968000e+004    +1.7265694e-006    +3.6402761e-007
+2.0096000e+004    +1.7288040e-006    +3.5875198e-007
+2.0224000e+004    +1.8756133e-006    +3.5542843e-007
+2.0352000e+004    +1.9103929e-006    +3.5717986e-007
+2.0480000e+004    +1.9186730e-006    +3.6841078e-007
+2.0608000e+004    +1.7974656e-006    +3.5509336e-007
+2.0736000e+004    +1.7807354e-006    +3.4094725e-007
+2.0864000e+004    +1.9317806e-006    +3.6546092e-007
+2.0992000e+004    +1.9615406e-006    +3.5060870e-007
+2.1120000e+004    +1.7594911e-006    +3.4669989e-007
+2.1248000e+004    +1.6890075e-006    +3.4403453e-007
+2.1376000e+004    +1.6476396e-006    +3.7082097e-007
+2.1504000e+004    +1.5483901e-006    +4.0893678e-007
+2.1632000e+004    +1.7863418e-006    +3.9044545e-007
+2.1760000e+004    +1.8556213e-006    +3.5644334e-007
+2.1888000e+004    +1.8175493e-006    +3.7849915e-007
+2.2016000e+004    +1.6630866e-006    +3.6678787e-007
+2.2144000e+004    +1.6647216e-006    +3.7014857e-007
+2.2272000e+004    +1.7194242e-006    +3.8163554e-007
+2.2400000e+004    +1.7027957e-006    +3.7047789e-007
+2.2528000e+004    +1.7075249e-006    +3.3792961e-007
+2.2656000e+004    +1.7030818e-006    +3.6753045e-007
+2.2784000e+004    +1.6418896e-006    +3.9179989e-007
+2.2912000e+004    +1.6577030e-006    +3.7940620e-007
+2.3040000e+004    +1.6244246e-006    +3.6139286e-007
+2.3168000e+004    +1.5704184e-006    +3.6978460e-007
+2.3296000e+004    +1.6895416e-006    +3.4873938e-007
+2.3424000e+004    +1.7284528e-006    +3.5333741e-007
+2.3552000e+004    +1.4925380e-006    +3.6978460e-007
+2.3680000e+004    +1.4870926e-006    +3.7181246e-007
+2.3808000e+004    +1.6174854e-006    +3.7041974e-007
+2.3936000e+004    +1.7991321e-006    +3.7737504e-007
+2.4064000e+004    +1.9087638e-006    +3.9029800e-007
+2.4192000e+004    +1.7870441e-006    +4.0271217e-007
+2.4320000e+004    +1.5507753e-006    +3.9312621e-007
+2.4448000e+004    +1.5356278e-006    +3.7175124e-007
+2.4576000e+004    +1.5005812e-006    +4.1428669e-007
+2.4704000e+004    +1.5335352e-006    +3.8843407e-007
+2.4832000e+004    +1.5152084e-006    +3.9841450e-007
+2.4960000e+004    +1.4755564e-006    +3.8854114e-007
+2.5088000e+004    +1.5393214e-006    +3.8834537e-007
+2.5216000e+004    +1.4741443e-006    +4.0123192e-007
+2.5344000e+004    +1.4804767e-006    +3.9598885e-007
+2.5472000e+004    +1.4621899e-006    +3.9198275e-007
+2.5600000e+004    +1.4661574e-006    +4.1790773e-007
+2.5728000e+004    +1.6247153e-006    +4.4008354e-007
+2.5856000e+004    +1.6295479e-006    +3.8399773e-007
+2.5984000e+004    +1.4604699e-006    +3.6008620e-007
+2.6112000e+004    +1.4218803e-006    +3.9616063e-007
+2.6240000e+004    +1.5245300e-006    +3.8524814e-007
+2.6368000e+004    +1.5158673e-006    +3.5508907e-007
+2.6496000e+004    +1.5132798e-006    +3.7480373e-007
+2.6624000e+004    +1.4495077e-006    +4.4738459e-007
+2.6752000e+004    +1.4555617e-006    +4.4142647e-007
+2.6880000e+004    +1.3115346e-006    +4.0658367e-007
+2.7008000e+004    +1.3180842e-006    +4.4997731e-007
+2.7136000e+004    +1.3471205e-006    +4.3190514e-007
+2.7264000e+004    +1.4297547e-006    +4.2176595e-007
+2.7392000e+004    +1.3103341e-006    +3.8544786e-007
+2.7520000e+004    +1.3461816e-006    +4.0399738e-007
+2.7648000e+004    +1.4073905e-006    +4.2010217e-007
+2.7776000e+004    +1.3457811e-006    +4.2484226e-007
+2.7904000e+004    +1.3943445e-006    +4.4040064e-007
+2.8032000e+004    +1.3909927e-006    +3.9563508e-007
+2.8160000e+004    +1.3375892e-006    +4.0061519e-007
+2.8288000e+004    +1.3283804e-006    +4.3986665e-007
+2.8416000e+004    +1.3897928e-006    +4.5064081e-007
+2.8544000e+004    +1.3982799e-006    +4.8056717e-007
+2.8672000e+004    +1.3680162e-006    +4.7804116e-007
+2.8800000e+004    +1.2760224e-006    +4.5183532e-007
+2.8928000e+004    +1.3078647e-006    +4.3990914e-007
+2.9056000e+004    +1.3666109e-006    +4.3489970e-007
+2.9184000e+004    +1.3978424e-006    +4.3429083e-007
+2.9312000e+004    +1.3358339e-006    +4.8043529e-007
+2.9440000e+004    +1.3616295e-006    +4.6261661e-007
+2.9568000e+004    +1.3263591e-006    +4.4960939e-007
+2.9696000e+004    +1.3180812e-006    +4.3606971e-007
+2.9824000e+004    +1.3679411e-006    +4.4470522e-007
+2.9952000e+004    +1.2676189e-006    +4.5880108e-007
+3.0080000e+004    +1.3165525e-006    +4.4621555e-007
+3.0208000e+004    +1.4341837e-006    +4.4138091e-007
+3.0336000e+004    +1.3053728e-006    +4.7119235e-007
+3.0464000e+004    +1.3355963e-006    +4.6592743e-007
+3.0592000e+004    +1.3488374e-006    +4.6695220e-007
+3.0720000e+004    +1.3914922e-006    +4.5889982e-007
+3.0848000e+004    +1.3577361e-006    +4.7139724e-007
+3.0976000e+004    +1.2604382e-006    +4.9406140e-007
+3.1104000e+004    +1.2752354e-006    +4.8642249e-007
+3.1232000e+004    +1.3453837e-006    +4.6922432e-007
+3.1360000e+004    +1.3319309e-006    +4.8669921e-007
+3.1488000e+004    +1.3334424e-006    +4.6199378e-007
+3.1616000e+004    +1.3856317e-006    +4.8655011e-007
+3.1744000e+004    +1.3440018e-006    +5.1341016e-007
+3.1872000e+004    +1.3034409e-006    +4.8504916e-007
+3.2000000e+004    +1.2611414e-006    +4.8598901e-007
+3.2128000e+004    +1.4060066e-006    +4.8806430e-007
+3.2256000e+004    +1.3280611e-006    +4.6539517e-007
+3.2384000e+004    +1.3622486e-006    +4.7851165e-007
+3.2512000e+004    +1.3687132e-006    +5.3240143e-007
+3.2640000e+004    +1.2013854e-006    +5.1353476e-007
+3.2768000e+004    +1.2791534e-006    +5.0034248e-007
+3.2896000e+004    +1.2974682e-006    +5.4254355e-007
+3.3024000e+004    +1.3154977e-006    +5.2850100e-007
+3.3152000e+004    +1.2547673e-006    +5.8283143e-007
+3.3280000e+004    +1.2630774e-006    +5.7455384e-007
+3.3408000e+004    +1.2597036e-006    +5.3208993e-007
+3.3536000e+004    +1.2129029e-006    +5.6043854e-007
+3.3664000e+004    +1.2246331e-006    +5.6577289e-007
+3.3792000e+004    +1.3033507e-006    +5.3468665e-007
+3.3920000e+004    +1.2237890e-006    +5.3338908e-007
+3.4048000e+004    +1.1283541e-006    +5.8389855e-007
+3.4176000e+004    +1.2257148e-006    +6.0906638e-007
+3.4304000e+004    +1.3379358e-006    +5.8616729e-007
+3.4432000e+004    +1.2367293e-006    +5.3885395e-007
+3.4560000e+004    +1.1846233e-006    +5.5059752e-007
+3.4688000e+004    +1.1074835e-006    +5.9546085e-007
+3.4816000e+004    +1.2009884e-006    +6.0787255e-007
+3.4944000e+004    +1.2755462e-006    +5.8288202e-007
+3.5072000e+004    +1.2795945e-006    +5.5169340e-007
+3.5200000e+004    +1.2365230e-006    +5.6202282e-007
+3.5328000e+004    +1.2420869e-006    +5.3192463e-007
+3.5456000e+004    +1.2325758e-006    +5.6344021e-007
+3.5584000e+004    +1.2695564e-006    +5.8863742e-007
+3.5712000e+004    +1.3123412e-006    +5.3825670e-007
+3.5840000e+004    +1.2180464e-006    +5.4093522e-007
+3.5968000e+004    +1.1951545e-006    +6.0640667e-007
+3.6096000e+004    +1.1490690e-006    +6.3133734e-007
+3.6224000e+004    +1.2451563e-006    +6.0636205e-007
+3.6352000e+004    +1.2610570e-006    +5.9583363e-007
+3.6480000e+004    +1.2360234e-006    +5.8227369e-007
+3.6608000e+004    +1.2729118e-006    +5.7466616e-007
+3.6736000e+004    +1.3267800e-006    +6.0012422e-007
+3.6864000e+004    +1.2973328e-006    +6.2605329e-007
+3.6992000e+004    +1.2172201e-006    +6.1735432e-007
+3.7120000e+004    +1.2470485e-006    +6.0543334e-007
+3.7248000e+004    +1.1971310e-006    +5.8952742e-007
+3.7376000e+004    +1.0933177e-006    +6.1311152e-007
+3.7504000e+004    +1.1351749e-006    +6.3652135e-007
+3.7632000e+004    +1.2560988e-006    +6.0663240e-007
+3.7760000e+004    +1.2924322e-006    +6.5357398e-007
+3.7888000e+004    +1.2820175e-006    +6.3832908e-007
+3.8016000e+004    +1.2265009e-006    +6.4821478e-007
+3.8144000e+004    +1.2562285e-006    +6.4263071e-007
+3.8272000e+004    +1.3316034e-006    +6.2666743e-007
+3.8400000e+004    +1.2418986e-006    +6.9949522e-007
+3.8528000e+004    +1.1578633e-006    +6.7068862e-007
+3.8656000e+004    +1.1735791e-006    +6.5871990e-007
+3.8784000e+004    +1.1439231e-006    +5.9870268e-007
+3.8912000e+004    +1.1293605e-006    +5.5473652e-007
+3.9040000e+004    +1.1479997e-006    +6.0535825e-007
+3.9168000e+004    +1.1656070e-006    +6.1176866e-007
+3.9296000e+004    +1.2472389e-006    +6.7013065e-007
+3.9424000e+004    +1.2225911e-006    +6.9065936e-007
+3.9552000e+004    +1.2590841e-006    +7.0329099e-007
+3.9680000e+004    +1.1884704e-006    +6.9965648e-007
+3.9808000e+004    +1.1622780e-006    +6.7424367e-007
+3.9936000e+004    +1.1726260e-006    +7.0278617e-007
+4.0064000e+004    +1.2284700e-006    +7.4629986e-007
+4.0192000e+004    +1.2030024e-006    +7.0492916e-007
+4.0320000e+004    +1.2135077e-006    +7.1928923e-007
+4.0448000e+004    +1.1336081e-006    +7.3120543e-007
+4.0576000e+004    +1.1399986e-006    +6.7657743e-007
+4.0704000e+004    +1.1202537e-006    +6.6428555e-007
+4.0832000e+004    +1.1937683e-006    +6.6080327e-007
+4.0960000e+004    +1.2297101e-006    +6.7536911e-007
+4.1088000e+004    +1.1729569e-006    +6.6815431e-007
+4.1216000e+004    +1.2166722e-006    +7.0242749e-007
+4.1344000e+004    +1.2043305e-006    +6.9767123e-007
+4.1472000e+004    +1.2002541e-006    +6.5980134e-007
+4.1600000e+004    +1.1624120e-006    +6.7548928e-007
+4.1728000e+004    +1.1636506e-006    +6.6442414e-007
+4.1856000e+004    +1.1637592e-006    +7.0691181e-007
+4.1984000e+004    +1.0892390e-006    +7.2343704e-007
+4.2112000e+004    +1.1311897e-006    +6.8823550e-007
+4.2240000e+004    +1.1423166e-006    +6.9719721e-007
+4.2368000e+004    +1.1768889e-006    +7.0974500e-007
+4.2496000e+004    +1.1372770e-006    +7.1858511e-007
+4.2624000e+004    +1.1363958e-006    +7.1034918e-007
+4.2752000e+004    +1.0601312e-006    +7.2915151e-007
+4.2880000e+004    +1.0520170e-006    +7.7206153e-007
+4.3008000e+004    +1.0667106e-006    +7.9382619e-007
+4.3136000e+004    +1.0960640e-006    +7.6808431e-007
+4.3264000e+004    +1.1841616e-006    +7.5898350e-007
+4.3392000e+004    +1.2047127e-006    +7.5582341e-007
+4.3520000e+004    +1.1175142e-006    +7.4918233e-007
+4.3648000e+004    +1.0452849e-006    +7.8164862e-007
+4.3776000e+004    +1.0482823e-006    +7.4981023e-007
+4.3904000e+004    +1.0933620e-006    +7.4788301e-007
+4.4032000e+004    +1.0847147e-006    +8.0582981e-007
+4.4160000e+004    +1.1391015e-006    +7.8096235e-007
+4.4288000e+004    +1.1142258e-006    +7.3668838e-007
+4.4416000e+004    +1.0848433e-006    +7.0316361e-007
+4.4544000e+004    +1.1569306e-006    +7.5981643e-007
+4.4672000e+004    +1.1447235e-006    +7.9863531e-007
+4.4800000e+004    +1.1938470e-006    +7.9135475e-007
+4.4928000e+004    +1.1822701e-006    +7.1946931e-007
+4.5056000e+004    +1.2003055e-006    +7.7484952e-007
+4.5184000e+004    +1.2573324e-006    +8.3244367e-007
+4.5312000e+004    +1.2749764e-006    +8.0744968e-007
+4.5440000e+004    +1.2182402e-006    +7.7941786e-007
+4.5568000e+004    +1.2160953e-006    +7.4555624e-007
+4.5696000e+004    +1.2456542e-006    +7.8878622e-007
+4.5824000e+004    +1.1917135e-006    +7.7178862e-007
+4.5952000e+004    +1.0980383e-006    +7.8699549e-007
+4.6080000e+004    +1.1428322e-006    +7.5713740e-007
+4.6208000e+004    +1.1801484e-006    +7.7288848e-007
+4.6336000e+004    +1.1388314e-006    +7.9664557e-007
+4.6464000e+004    +1.1901798e-006    +8.4741157e-007
+4.6592000e+004    +1.1735856e-006    +8.0661943e-007
+4.6720000e+004    +1.1437862e-006    +7.5750330e-007
+4.6848000e+004    +1.2208674e-006    +7.9007162e-007
+4.6976000e+004    +1.2259624e-006    +8.6035107e-007
+4.7104000e+004    +1.1188979e-006    +8.6815010e-007
+4.7232000e+004    +1.1335782e-006    +8.0590411e-007
+4.7360000e+004    +1.1481245e-006    +8.5803134e-007
+4.7488000e+004    +1.1926088e-006    +8.4033007e-007
+4.7616000e+004    +1.1435401e-006    +8.6109856e-007
+4.7744000e+004    +1.2185626e-006    +8.6075642e-007
+4.7872000e+004    +1.1792611e-006    +9.2464455e-007
+4.8000000e+004    +1.1464705e-006    +8.0732201e-007
+4.8128000e+004    +1.0978598e-006    +7.8362848e-007
+4.8256000e+004    +1.1104240e-006    +8.3442478e-007
+4.8384000e+004    +1.1757871e-006    +8.5855248e-007
+4.8512000e+004    +1.0856106e-006    +8.6305408e-007
+4.8640000e+004    +1.1030469e-006    +8.8669725e-007
+4.8768000e+004    +1.1439595e-006    +8.7628825e-007
+4.8896000e+004    +1.0438707e-006    +9.0173529e-007
+4.9024000e+004    +1.0231902e-006    +9.4251851e-007
+4.9152000e+004    +1.0182703e-006    +8.7100864e-007
+4.9280000e+004    +9.8302633e-007    +8.3862494e-007
+4.9408000e+004    +1.0596065e-006    +8.3352649e-007
+4.9536000e+004    +1.0073347e-006    +8.6000256e-007
+4.9664000e+004    +1.0039021e-006    +9.0980063e-007
+4.9792000e+004    +9.7943018e-007    +8.5189873e-007
+4.9920000e+004    +9.2119717e-007    +8.2862101e-007
+5.0048000e+004    +9.5348076e-007    +9.6969086e-007
+5.0176000e+004    +1.0073094e-006    +1.0656207e-006
+5.0304000e+004    +9.5056964e-007    +9.1660462e-007
+5.0432000e+004    +8.8513218e-007    +9.1774052e-007
+5.0560000e+004    +8.4324705e-007    +9.7196130e-007
+5.0688000e+004    +9.0312147e-007    +9.6837903e-007
+5.0816000e+004    +8.8277375e-007    +9.1813462e-007
+5.0944000e+004    +8.8372025e-007    +9.5776375e-007
+5.1072000e+004    +8.5890508e-007    +9.3140613e-007
+5.1200000e+004    +8.6370250e-007    +9.3043104e-007
+5.1328000e+004    +8.5780152e-007    +8.4822329e-007
+5.1456000e+004    +8.9304211e-007    +9.0478989e-007
+5.1584000e+004    +8.5176782e-007    +9.5692178e-007
+5.1712000e+004    +8.1270173e-007    +9.6837368e-007
+5.1840000e+004    +8.0705348e-007    +9.4651318e-007
+5.1968000e+004    +8.2551992e-007    +9.0007649e-007
+5.2096000e+004    +8.0790994e-007    +8.8242007e-007
+5.2224000e+004    +8.1549587e-007    +9.3709707e-007
+5.2352000e+004    +8.0229142e-007    +9.3866544e-007
+5.2480000e+004    +7.8409147e-007    +9.1420048e-007
+5.2608000e+004    +8.1568305e-007    +9.1837757e-007
+5.2736000e+004    +7.9843193e-007    +9.8145608e-007
+5.2864000e+004    +8.0358916e-007    +9.4975178e-007
+5.2992000e+004    +8.0085425e-007    +9.5223476e-007
+5.3120000e+004    +7.3456738e-007    +9.4472426e-007
+5.3248000e+004    +7.3699988e-007    +1.0321729e-006
+5.3376000e+004    +7.8996663e-007    +9.8060082e-007
+5.3504000e+004    +7.8149588e-007    +9.3008788e-007
+5.3632000e+004    +7.8973773e-007    +9.2543672e-007
+5.3760000e+004    +8.0459387e-007    +9.2077755e-007
+5.3888000e+004    +7.8285535e-007    +9.7188979e-007
+5.4016000e+004    +7.7610798e-007    +9.8585065e-007
+5.4144000e+004    +7.6640202e-007    +1.0064139e-006
+5.4272000e+004    +7.5816143e-007    +1.0207194e-006
+5.4400000e+004    +7.6392450e-007    +9.7885822e-007
+5.4528000e+004    +7.6874659e-007    +1.0087913e-006
+5.4656000e+004    +7.2940134e-007    +9.3684093e-007
+5.4784000e+004    +6.9735722e-007    +1.0208606e-006
+5.4912000e+004    +7.4421087e-007    +1.1008980e-006
+5.5040000e+004    +7.9478292e-007    +1.0913400e-006
+5.5168000e+004    +9.7153554e-007    +1.0787571e-006
+5.5296000e+004    +8.2393433e-007    +1.0904200e-006
+5.5424000e+004    +8.5456583e-007    +1.0061918e-006
+5.5552000e+004    +1.5195667e-006    +9.7723887e-007
+5.5680000e+004    +1.2730740e-006    +1.0614741e-006
+5.5808000e+004    +7.5269389e-007    +1.1072987e-006
+5.5936000e+004    +7.2877532e-007    +1.0762396e-006
+5.6064000e+004    +7.2994209e-007    +1.0302538e-006
+5.6192000e+004    +7.3270024e-007    +1.0244806e-006
+5.6320000e+004    +7.2561670e-007    +1.0529934e-006
+5.6448000e+004    +7.0702669e-007    +1.1344137e-006
+5.6576000e+004    +7.1420470e-007    +1.0374732e-006
+5.6704000e+004    +7.2316385e-007    +1.0059675e-006
+5.6832000e+004    +7.1926632e-007    +1.0265998e-006
+5.6960000e+004    +7.3156519e-007    +1.0909662e-006
+5.7088000e+004    +7.0530621e-007    +1.1366103e-006
+5.7216000e+004    +6.7755872e-007    +1.1240807e-006
+5.7344000e+004    +6.9160870e-007    +1.1170125e-006
+5.7472000e+004    +6.8962129e-007    +1.0133706e-006
+5.7600000e+004    +6.8590526e-007    +1.0819017e-006
+5.7728000e+004    +6.9189048e-007    +1.0959149e-006
+5.7856000e+004    +7.0153880e-007    +1.0621725e-006
+5.7984000e+004    +6.7804092e-007    +1.0828453e-006
+5.8112000e+004    +6.6382768e-007    +1.2108353e-006
+5.8240000e+004    +6.7339658e-007    +1.1473520e-006
+5.8368000e+004    +6.9170136e-007    +1.1413224e-006
+5.8496000e+004    +6.9790417e-007    +1.1594726e-006
+5.8624000e+004    +6.8302023e-007    +1.0698587e-006
+5.8752000e+004    +6.8375255e-007    +1.1230345e-006
+5.8880000e+004    +6.6900583e-007    +1.1160735e-006
+5.9008000e+004    +6.4124220e-007    +1.0714575e-006
+5.9136000e+004    +6.4393595e-007    +1.0466733e-006
+5.9264000e+004    +6.6303295e-007    +1.1293370e-006
+5.9392000e+004    +6.6088887e-007    +1.1703712e-006
+5.9520000e+004    +6.3977097e-007    +1.1560988e-006
+5.9648000e+004    +6.2879440e-007    +1.1904882e-006
+5.9776000e+004    +6.4724475e-007    +1.1530615e-006
+5.9904000e+004    +6.3147741e-007    +1.1439269e-006
+6.0032000e+004    +6.1355865e-007    +1.1195332e-006
+6.0160000e+004    +6.2124849e-007    +1.2034621e-006
+6.0288000e+004    +6.4254459e-007    +1.1387551e-006
+6.0416000e+004    +6.2324068e-007    +1.0748604e-006
+6.0544000e+004    +6.4832159e-007    +1.0756384e-006
+6.0672000e+004    +6.6165774e-007    +1.1383738e-006
+6.0800000e+004    +6.3755863e-007    +1.3255379e-006
+6.0928000e+004    +6.1532353e-007    +1.2208687e-006
+6.1056000e+004    +6.0261215e-007    +1.1479631e-006
+6.1184000e+004    +6.1467665e-007    +1.1593720e-006
+6.1312000e+004    +6.1121347e-007    +1.1994387e-006
+6.1440000e+004    +6.1304019e-007    +1.2055715e-006
+6.1568000e+004    +5.9700579e-007    +1.2207669e-006
+6.1696000e+004    +5.8223151e-007    +1.1625588e-006
+6.1824000e+004    +5.8400946e-007    +1.1909405e-006
+6.1952000e+004    +6.1409042e-007    +1.2459934e-006
+6.2080000e+004    +6.3849103e-007    +1.1397370e-006
+6.2208000e+004    +6.3257590e-007    +1.2898790e-006
+6.2336000e+004    +5.9716643e-007    +1.3360774e-006
+6.2464000e+004    +5.7306073e-007    +1.3114222e-006
+6.2592000e+004    +5.7306573e-007    +1.3706893e-006
+6.2720000e+004    +6.0073734e-007    +1.3006188e-006
+6.2848000e+004    +6.0114775e-007    +1.2438829e-006
+6.2976000e+004    +5.8988672e-007    +1.1979423e-006
+6.3104000e+004    +5.6439865e-007    +1.2189721e-006
+6.3232000e+004    +5.6135246e-007    +1.2934245e-006
+6.3360000e+004    +5.8097737e-007    +1.2341602e-006
+6.3488000e+004    +5.8603086e-007    +1.2446438e-006
+6.3616000e+004    +5.7553251e-007    +1.2611207e-006
+6.3744000e+004    +5.8357875e-007    +1.1875156e-006
+6.3872000e+004    +5.8916373e-007    +1.3545020e-006
+6.4000000e+004    +5.7116370e-007    +1.3485901e-006
+6.4128000e+004    +5.5405172e-007    +1.2020280e-006
+6.4256000e+004    +5.7432931e-007    +1.2797364e-006
+6.4384000e+004    +5.6078881e-007    +1.3231403e-006
+6.4512000e+004    +5.6236667e-007    +1.2120217e-006
+6.4640000e+004    +5.6765765e-007    +1.2675647e-006
+6.4768000e+004    +5.4657397e-007    +1.3110493e-006
+6.4896000e+004    +5.5866059e-007    +1.3257636e-006
+6.5024000e+004    +5.7144723e-007    +1.3653781e-006
+6.5152000e+004    +5.9529810e-007    +1.3220250e-006
+6.5280000e+004    +6.0367699e-007    +1.3376141e-006
+6.5408000e+004    +5.7230994e-007    +1.3566572e-006
+6.5536000e+004    +5.5540386e-007    +1.2371327e-006
+6.5664000e+004    +5.5358652e-007    +1.1613467e-006
+6.5792000e+004    +5.3962185e-007    +1.1975530e-006
+6.5920000e+004    +5.4009780e-007    +1.3069504e-006
+6.6048000e+004    +5.4604794e-007    +1.3369975e-006
+6.6176000e+004    +5.3956973e-007    +1.3260315e-006
+6.6304000e+004    +5.3744532e-007    +1.2471937e-006
+6.6432000e+004    +5.5093375e-007    +1.2847286e-006
+6.6560000e+004    +5.5534650e-007    +1.3594216e-006
+6.6688000e+004    +5.6554870e-007    +1.3666605e-006
+6.6816000e+004    +5.5202486e-007    +1.4739566e-006
+6.6944000e+004    +5.4229878e-007    +1.4629992e-006
+6.7072000e+004    +5.2740660e-007    +1.3151351e-006
+6.7200000e+004    +5.2266176e-007    +1.3098364e-006
+6.7328000e+004    +5.3708374e-007    +1.3017018e-006
+6.7456000e+004    +5.2905892e-007    +1.2251738e-006
+6.7584000e+004    +5.2017708e-007    +1.2202871e-006
+6.7712000e+004    +5.2269388e-007    +1.3730693e-006
+6.7840000e+004    +5.1881904e-007    +1.4650825e-006
+6.7968000e+004    +5.2343358e-007    +1.5056479e-006
+6.8096000e+004    +5.0971664e-007    +1.4470685e-006
+6.8224000e+004    +5.0954878e-007    +1.4204541e-006
+6.8352000e+004    +5.2105969e-007    +1.4559294e-006
+6.8480000e+004    +5.3842342e-007    +1.4232672e-006
+6.8608000e+004    +5.3242712e-007    +1.3730693e-006
+6.8736000e+004    +5.1674056e-007    +1.3578434e-006
+6.8864000e+004    +5.1451849e-007    +1.5328702e-006
+6.8992000e+004    +5.1219291e-007    +1.4358096e-006
+6.9120000e+004    +5.2371871e-007    +1.3678180e-006
+6.9248000e+004    +5.2312220e-007    +1.3471797e-006
+6.9376000e+004    +5.1826277e-007    +1.3216984e-006
+6.9504000e+004    +5.1285411e-007    +1.3543266e-006
+6.9632000e+004    +4.9137645e-007    +1.4783147e-006
+6.9760000e+004    +4.9907402e-007    +1.4775781e-006
+6.9888000e+004    +5.1231211e-007    +1.4427882e-006
+7.0016000e+004    +5.2271628e-007    +1.3648371e-006
+7.0144000e+004    +1.0745453e-006    +1.3326388e-006
+7.0272000e+004    +1.2894089e-006    +1.4645212e-006
+7.0400000e+004    +6.1162359e-007    +1.4116432e-006
+7.0528000e+004    +4.9358533e-007    +1.3893518e-006
+7.0656000e+004    +5.7582702e-007    +1.4332203e-006
+7.0784000e+004    +8.3168175e-007    +1.4671268e-006
+7.0912000e+004    +6.2733523e-007    +1.3895792e-006
+7.1040000e+004    +4.9207779e-007    +1.4401704e-006
+7.1168000e+004    +4.8004034e-007    +1.5144999e-006
+7.1296000e+004    +4.6102494e-007    +1.4611628e-006
+7.1424000e+004    +4.6622628e-007    +1.2725736e-006
+7.1552000e+004    +4.8315167e-007    +1.4552469e-006
+7.1680000e+004    +4.9876996e-007    +1.4804897e-006
+7.1808000e+004    +5.0223474e-007    +1.4753085e-006
+7.1936000e+004    +4.9353002e-007    +1.4214806e-006
+7.2064000e+004    +4.8980417e-007    +1.4968393e-006
+7.2192000e+004    +5.0076346e-007    +1.5113172e-006
+7.2320000e+004    +5.1201971e-007    +1.4453758e-006
+7.2448000e+004    +4.8742277e-007    +1.6380274e-006
+7.2576000e+004    +4.7242472e-007    +1.6840133e-006
+7.2704000e+004    +4.7210531e-007    +1.7629061e-006
+7.2832000e+004    +4.7104388e-007    +1.5814525e-006
+7.2960000e+004    +4.7701093e-007    +1.5441491e-006
+7.3088000e+004    +4.7263640e-007    +1.5458505e-006
+7.3216000e+004    +4.7873027e-007    +1.3969679e-006
+7.3344000e+004    +4.6948406e-007    +1.4293889e-006
+7.3472000e+004    +4.6637015e-007    +1.7121130e-006
+7.3600000e+004    +4.5871596e-007    +1.6861688e-006
+7.3728000e+004    +4.6009399e-007    +1.4781004e-006
+7.3856000e+004    +4.6675331e-007    +1.5889766e-006
+7.3984000e+004    +4.6142955e-007    +1.5863670e-006
+7.4112000e+004    +4.7308498e-007    +1.6611867e-006
+7.4240000e+004    +4.7833254e-007    +1.6118053e-006
+7.4368000e+004    +4.6916097e-007    +1.4458361e-006
+7.4496000e+004    +4.8314371e-007    +1.4717573e-006
+7.4624000e+004    +4.8417922e-007    +1.6354072e-006
+7.4752000e+004    +4.6189996e-007    +1.6178549e-006
+7.4880000e+004    +4.6077446e-007    +1.6626648e-006
+7.5008000e+004    +4.6539978e-007    +1.7029172e-006
+7.5136000e+004    +4.6065912e-007    +1.6489099e-006
+7.5264000e+004    +4.6389991e-007    +1.5980993e-006
+7.5392000e+004    +4.5201941e-007    +1.6325081e-006
+7.5520000e+004    +4.5788519e-007    +1.6230572e-006
+7.5648000e+004    +4.5267501e-007    +1.5966716e-006
+7.5776000e+004    +4.4423237e-007    +1.6300078e-006
+7.5904000e+004    +4.5310711e-007    +1.6769043e-006
+7.6032000e+004    +4.7172242e-007    +1.7234330e-006
+7.6160000e+004    +4.5639297e-007    +1.5921534e-006
+7.6288000e+004    +4.4983159e-007    +1.4930166e-006
+7.6416000e+004    +4.4702369e-007    +1.5332726e-006
+7.6544000e+004    +4.3955768e-007    +1.6187699e-006
+7.6672000e+004    +4.4711746e-007    +1.6667736e-006
+7.6800000e+004    +4.5366664e-007    +5.1462471e-006
+7.6928000e+004    +4.4832919e-007    +9.3941599e-006
+7.7056000e+004    +4.5008849e-007    +4.8818329e-006
+7.7184000e+004    +4.4303070e-007    +1.6373117e-006
+7.7312000e+004    +4.4828195e-007    +1.6414408e-006
+7.7440000e+004    +4.3787512e-007    +1.6784497e-006
+7.7568000e+004    +5.4576503e-007    +1.6730955e-006
+7.7696000e+004    +8.4268618e-007    +1.6816317e-006
+7.7824000e+004    +5.8663858e-007    +1.7977538e-006
+7.7952000e+004    +4.3951954e-007    +1.6678299e-006
+7.8080000e+004    +4.4318833e-007    +1.5429458e-006
+7.8208000e+004    +4.4710666e-007    +1.5219310e-006
+7.8336000e+004    +4.6190402e-007    +1.5229374e-006
+7.8464000e+004    +4.5752989e-007    +1.6762546e-006
+7.8592000e+004    +4.4570388e-007    +1.6652115e-006
+7.8720000e+004    +4.5392176e-007    +1.6393803e-006
+7.8848000e+004    +4.4748285e-007    +1.6919104e-006
+7.8976000e+004    +4.4112898e-007    +1.8886840e-006
+7.9104000e+004    +4.3691799e-007    +1.7868597e-006
+7.9232000e+004    +4.4466032e-007    +1.6929361e-006
+7.9360000e+004    +4.5557340e-007    +1.7117014e-006
+7.9488000e+004    +4.6386424e-007    +1.6171125e-006
+7.9616000e+004    +4.5744852e-007    +1.6282190e-006
+7.9744000e+004    +4.4259508e-007    +1.6969539e-006
+7.9872000e+004    +4.3307520e-007    +1.6842149e-006
+8.0000000e+004    +4.3288551e-007    +1.7441404e-006
+8.0128000e+004    +4.6315023e-007    +1.6415687e-006
+8.0256000e+004    +4.5125773e-007    +1.6901261e-006
+8.0384000e+004    +4.4461541e-007    +1.6938378e-006
+8.0512000e+004    +4.3739652e-007    +1.5337760e-006
+8.0640000e+004    +4.3329541e-007    +1.6891539e-006
+8.0768000e+004    +4.3244989e-007    +1.6950787e-006
+8.0896000e+004    +4.4254696e-007    +1.6716982e-006
+8.1024000e+004    +4.3895000e-007    +1.7447112e-006
+8.1152000e+004    +4.3639542e-007    +1.7063029e-006
+8.1280000e+004    +4.4533701e-007    +1.6625497e-006
+8.1408000e+004    +4.5605134e-007    +1.6709386e-006
+8.1536000e+004    +4.6284168e-007    +1.7134500e-006
+8.1664000e+004    +4.4659149e-007    +1.6827510e-006
+8.1792000e+004    +4.3418927e-007    +1.7279633e-006
+8.1920000e+004    +4.4923240e-007    +1.6272414e-006
+8.2048000e+004    +4.4560457e-007    +1.7686292e-006
+8.2176000e+004    +4.3466244e-007    +1.8100474e-006
+8.2304000e+004    +4.1921243e-007    +1.8826570e-006
+8.2432000e+004    +4.1750275e-007    +1.8956082e-006
+8.2560000e+004    +4.3116978e-007    +1.8194680e-006
+8.2688000e+004    +4.3090523e-007    +1.6473447e-006
+8.2816000e+004    +4.2881726e-007    +1.5458929e-006
+8.2944000e+004    +4.2570514e-007    +1.6153149e-006
+8.3072000e+004    +4.3436285e-007    +1.7775629e-006
+8.3200000e+004    +4.2701262e-007    +1.8915645e-006
+8.3328000e+004    +4.0962388e-007    +1.7702650e-006
+8.3456000e+004    +4.0936672e-007    +1.7090254e-006
+8.3584000e+004    +4.2643916e-007    +1.7741157e-006
+8.3712000e+004    +4.0472861e-007    +1.8610385e-006
+8.3840000e+004    +4.2042331e-007    +1.8808905e-006
+8.3968000e+004    +4.1357316e-007    +1.6263609e-006
+8.4096000e+004    +3.9508078e-007    +1.6491634e-006
+8.4224000e+004    +4.0798020e-007    +1.5982502e-006
+8.4352000e+004    +4.1194485e-007    +1.6627178e-006
+8.4480000e+004    +4.1392204e-007    +1.7146376e-006
+8.4608000e+004    +3.9139186e-007    +1.7766010e-006
+8.4736000e+004    +3.8222262e-007    +1.7897460e-006
+8.4864000e+004    +4.0434529e-007    +1.6703203e-006
+8.4992000e+004    +3.9581931e-007    +1.8908812e-006
+8.5120000e+004    +3.8730383e-007    +1.8565038e-006
+8.5248000e+004    +3.8003949e-007    +1.7115492e-006
+8.5376000e+004    +3.8450062e-007    +1.7361522e-006
+8.5504000e+004    +3.7707352e-007    +1.8560961e-006
+8.5632000e+004    +3.6995638e-007    +1.8279400e-006
+8.5760000e+004    +3.7833215e-007    +1.8584331e-006
+8.5888000e+004    +3.7454043e-007    +1.6834126e-006
+8.6016000e+004    +3.6834487e-007    +1.6769375e-006
+8.6144000e+004    +3.7738539e-007    +1.6356030e-006
+8.6272000e+004    +3.4931688e-007    +1.6486981e-006
+8.6400000e+004    +3.4410894e-007    +1.6804228e-006
+8.6528000e+004    +3.5201273e-007    +1.6910950e-006
+8.6656000e+004    +3.3255461e-007    +1.7378495e-006
+8.6784000e+004    +3.3795743e-007    +1.5756342e-006
+8.6912000e+004    +3.4064939e-007    +1.7020088e-006
+8.7040000e+004    +3.3739573e-007    +1.7485216e-006
+8.7168000e+004    +3.5078969e-007    +1.7411880e-006
+8.7296000e+004    +3.5133394e-007    +1.6060359e-006
+8.7424000e+004    +3.2597842e-007    +1.6585860e-006
+8.7552000e+004    +3.3562449e-007    +1.6283764e-006
+8.7680000e+004    +3.3446756e-007    +1.6893988e-006
+8.7808000e+004    +3.6932974e-007    +1.8005945e-006
+8.7936000e+004    +3.7031523e-007    +1.7165796e-006
+8.8064000e+004    +3.5115963e-007    +1.8524192e-006
+8.8192000e+004    +3.9050505e-007    +1.8710327e-006
+8.8320000e+004    +4.2163632e-007    +1.9718752e-006
+8.8448000e+004    +4.1611017e-007    +1.7615014e-006
+8.8576000e+004    +4.4980047e-007    +1.7102286e-006
+8.8704000e+004    +5.0702289e-007    +1.8979762e-006
+8.8832000e+004    +4.7441085e-007    +1.8925055e-006
+8.8960000e+004    +4.2045147e-007    +1.6343607e-006
+8.9088000e+004    +3.9133212e-007    +1.6905808e-006
+8.9216000e+004    +3.9681623e-007    +1.7446364e-006
+8.9344000e+004    +4.1727773e-007    +1.8577721e-006
+8.9472000e+004    +4.5013940e-007    +1.9257432e-006
+8.9600000e+004    +4.3041064e-007    +1.8215688e-006
+8.9728000e+004    +3.9931575e-007    +1.8190885e-006
+8.9856000e+004    +3.7127847e-007    +1.8236040e-006
+8.9984000e+004    +3.7913136e-007    +1.7726671e-006
+9.0112000e+004    +4.2760237e-007    +1.6741172e-006
+9.0240000e+004    +4.2864778e-007    +1.7293185e-006
+9.0368000e+004    +4.1740330e-007    +1.8626412e-006
+9.0496000e+004    +4.4882961e-007    +1.8264394e-006
+9.0624000e+004    +4.2174605e-007    +1.7281587e-006
+9.0752000e+004    +3.8393154e-007    +1.6794120e-006
+9.0880000e+004    +4.0588162e-007    +1.6703699e-006
+9.1008000e+004    +3.9648393e-007    +1.6567824e-006
+9.1136000e+004    +3.9954426e-007    +1.6368929e-006
+9.1264000e+004    +4.0561969e-007    +1.7333123e-006
+9.1392000e+004    +3.8572176e-007    +1.6686981e-006
+9.1520000e+004    +3.9377161e-007    +1.7346431e-006
+9.1648000e+004    +4.0194135e-007    +1.7524001e-006
+9.1776000e+004    +4.0437905e-007    +1.6770204e-006
+9.1904000e+004    +4.1396797e-007    +1.8415942e-006
+9.2032000e+004    +4.0411629e-007    +1.6959258e-006
+9.2160000e+004    +4.1313839e-007    +1.7189296e-006
+9.2288000e+004    +4.0315459e-007    +1.7721067e-006
+9.2416000e+004    +4.1135684e-007    +1.8459041e-006
+9.2544000e+004    +3.8888683e-007    +1.8635187e-006
+9.2672000e+004    +3.9338789e-007    +1.7440734e-006
+9.2800000e+004    +3.9259265e-007    +1.6463755e-006
+9.2928000e+004    +4.0432400e-007    +1.9590159e-006
+9.3056000e+004    +4.0046348e-007    +1.9371266e-006
+9.3184000e+004    +4.0979302e-007    +1.7534837e-006
+9.3312000e+004    +3.5899706e-007    +1.8023113e-006
+9.3440000e+004    +3.8274968e-007    +1.9007476e-006
+9.3568000e+004    +4.2120786e-007    +1.7008879e-006
+9.3696000e+004    +3.5306132e-007    +1.8599497e-006
+9.3824000e+004    +3.8763099e-007    +1.9170031e-006
+9.3952000e+004    +3.9344187e-007    +1.9026916e-006
+9.4080000e+004    +3.4866585e-007    +1.7007274e-006
+9.4208000e+004    +3.5238901e-007    +1.7874837e-006
+9.4336000e+004    +4.1581833e-007    +1.7615400e-006
+9.4464000e+004    +4.1173956e-007    +1.7709882e-006
+9.4592000e+004    +3.5743801e-007    +1.8075114e-006
+9.4720000e+004    +3.7162391e-007    +1.7354450e-006
+9.4848000e+004    +4.0437948e-007    +1.7397243e-006
+9.4976000e+004    +3.7505441e-007    +1.7142366e-006
+9.5104000e+004    +3.0845041e-007    +1.6954808e-006
+9.5232000e+004    +2.8676661e-007    +1.6832573e-006
+9.5360000e+004    +3.2881459e-007    +1.8611039e-006
+9.5488000e+004    +3.9716971e-007    +1.8711456e-006
+9.5616000e+004    +4.0422233e-007    +1.8040357e-006
+9.5744000e+004    +4.4219871e-007    +1.8124716e-006
+9.5872000e+004    +4.0805145e-007    +1.8861019e-006
+9.6000000e+004    +3.7417462e-007    +1.8257738e-006
+9.6128000e+004    +3.1550988e-007    +1.9542767e-006
+9.6256000e+004    +3.0273785e-007    +1.7450963e-006
+9.6384000e+004    +3.1330057e-007    +1.6676431e-006
+9.6512000e+004    +2.8030871e-007    +1.6956986e-006
+9.6640000e+004    +2.5503959e-007    +1.7512557e-006
+9.6768000e+004    +2.7929156e-007    +1.7730331e-006
+9.6896000e+004    +2.8016717e-007    +1.7619734e-006
+9.7024000e+004    +2.8733044e-007    +1.7986364e-006
+9.7152000e+004    +2.9110126e-007    +1.7824528e-006
+9.7280000e+004    +2.4421030e-007    +1.7434492e-006
+9.7408000e+004    +2.4827730e-007    +1.7537359e-006
+9.7536000e+004    +2.5141026e-007    +1.7876564e-006
+9.7664000e+004    +2.4792291e-007    +1.6756013e-006
+9.7792000e+004    +2.7325268e-007    +1.7070488e-006
+9.7920000e+004    +3.1990365e-007    +1.7931134e-006
+9.8048000e+004    +3.0537115e-007    +1.8536279e-006
+9.8176000e+004    +2.7476173e-007    +1.8801369e-006
+9.8304000e+004    +2.6239485e-007    +1.7647943e-006
+9.8432000e+004    +2.8801963e-007    +1.7388802e-006
+9.8560000e+004    +2.7701208e-007    +1.7133448e-006
+9.8688000e+004    +2.7658416e-007    +1.7256598e-006
+9.8816000e+004    +2.8671971e-007    +1.7665603e-006
+9.8944000e+004    +2.8413396e-007    +1.7950832e-006
+9.9072000e+004    +2.6940734e-007    +1.8457115e-006
+9.9200000e+004    +2.8294909e-007    +1.8599579e-006
+9.9328000e+004    +2.8747181e-007    +1.6507413e-006
+9.9456000e+004    +3.0245610e-007    +1.6430744e-006
+9.9584000e+004    +2.8034995e-007    +1.7778090e-006
+9.9712000e+004    +2.4328486e-007    +1.7849283e-006
+9.9840000e+004    +2.5955015e-007    +1.6926833e-006
+9.9968000e+004    +2.7369526e-007    +1.7468484e-006
+1.0009600e+005    +2.4966022e-007    +1.8046320e-006
+1.0022400e+005    +2.4779283e-007    +1.6550861e-006
+1.0035200e+005    +2.3474168e-007    +1.8079480e-006
+1.0048000e+005    +2.2462450e-007    +1.6576757e-006
+1.0060800e+005    +2.2931307e-007    +1.7329527e-006
+1.0073600e+005    +2.2251005e-007    +1.7593907e-006
+1.0086400e+005    +2.1962389e-007    +1.6550133e-006
+1.0099200e+005    +2.2465780e-007    +1.6651732e-006
+1.0112000e+005    +2.1331573e-007    +1.6906513e-006
+1.0124800e+005    +2.1070493e-007    +1.6324435e-006
+1.0137600e+005    +2.1404584e-007    +1.6348076e-006
+1.0150400e+005    +2.1551736e-007    +1.7020499e-006
+1.0163200e+005    +2.2233618e-007    +1.6274041e-006
+1.0176000e+005    +2.1521399e-007    +1.5725561e-006
+1.0188800e+005    +2.2039954e-007    +1.7015585e-006
+1.0201600e+005    +2.0266351e-007    +1.6364921e-006
+1.0214400e+005    +1.9368183e-007    +1.5906053e-006
+1.0227200e+005    +2.0906026e-007    +1.6709844e-006
