# North DC Val: 0.67828197 VoltsSouth DC Val: 0.57940473 Volts
# SR785 Measurement - Timestamp: Jul 14 2020 - 05:15:10
# Parameter File: /home/controls/Git/cit_ctnlab/ctn_scripts/TransRINSpecLong.yml
#---------- Measurement Setup ------------
# Start Frequency (Hz): 0.000000
# Frequency Span (Hz): 800.000000
# Frequency Resolution: 800
# Number of Averages: 100
# Averaging Mode: RMS
# Window function: Hanning
#---------- Measurement Parameters ----------
# Measurement Group:  "FFT" "FFT"
# Measurements:  "FFT 1" "FFT 2"
# View:  "Log Magnitude" "Log Magnitude"
# Unit:  "Vrms/rtHz" "Vrms/rtHz"
#---------- Input Parameters ----------
# Input Source: Analog
# Input Mode: Single ended, Single ended
# Input Grounding: Float, Float
# Input Coupling: AC, AC
# Input Range: -36.0dBVpk, -36.0dBVpk
# Auto Range: Off, Off
# Auto Range Mode: Tracking, Tracking
# Anti-Aliasing Filter: On, On
#---------- Source Parameters ----------
# Source Type: Sine
# Source Amplitude: 500.0mVpk
# Source On: 0

#---------- Measurement Data ----------
# [Freq(Hz) Display 0(Vrms/rtHz) Display 1(Vrms/rtHz) ]
+0.0000000e+000    +6.2044209e-004    +2.0435173e-004
+1.0000000e+000    +4.8223135e-004    +1.2236802e-004
+2.0000000e+000    +4.2463801e-004    +3.6808571e-005
+3.0000000e+000    +3.3677358e-004    +2.0576033e-005
+4.0000000e+000    +1.2986881e-004    +9.2964583e-006
+5.0000000e+000    +4.4874141e-005    +4.2957454e-006
+6.0000000e+000    +2.5656158e-005    +2.9996911e-006
+7.0000000e+000    +2.0906256e-005    +2.3276802e-006
+8.0000000e+000    +1.3933344e-005    +1.9742952e-006
+9.0000000e+000    +1.2628236e-005    +1.5471020e-006
+1.0000000e+001    +1.5489155e-005    +1.1849550e-006
+1.1000000e+001    +1.3197248e-005    +1.0891578e-006
+1.2000000e+001    +8.7801791e-006    +1.0335531e-006
+1.3000000e+001    +7.9467818e-006    +8.8432984e-007
+1.4000000e+001    +8.6538357e-006    +7.8087317e-007
+1.5000000e+001    +6.9387756e-006    +6.9148416e-007
+1.6000000e+001    +6.9171347e-006    +6.0169447e-007
+1.7000000e+001    +7.5937278e-006    +5.8614415e-007
+1.8000000e+001    +6.3294829e-006    +5.0669013e-007
+1.9000000e+001    +3.8485582e-006    +4.6823723e-007
+2.0000000e+001    +4.4975850e-006    +4.5385548e-007
+2.1000000e+001    +4.9696114e-006    +4.2927184e-007
+2.2000000e+001    +3.2985636e-006    +3.8183842e-007
+2.3000000e+001    +3.8618241e-006    +3.5552210e-007
+2.4000000e+001    +5.1410402e-006    +3.3406675e-007
+2.5000000e+001    +3.8590265e-006    +2.9809505e-007
+2.6000000e+001    +2.5512054e-006    +3.1090221e-007
+2.7000000e+001    +3.0643382e-006    +3.1732787e-007
+2.8000000e+001    +2.8484146e-006    +2.9213322e-007
+2.9000000e+001    +2.1139338e-006    +2.6049713e-007
+3.0000000e+001    +2.8688755e-006    +2.5670104e-007
+3.1000000e+001    +3.1132201e-006    +2.5148452e-007
+3.2000000e+001    +1.6745438e-006    +2.4086566e-007
+3.3000000e+001    +1.3765033e-006    +2.2702783e-007
+3.4000000e+001    +2.6213916e-006    +2.1941251e-007
+3.5000000e+001    +1.7130513e-006    +2.1880651e-007
+3.6000000e+001    +1.1650044e-006    +2.0631003e-007
+3.7000000e+001    +2.7564768e-006    +1.8289458e-007
+3.8000000e+001    +2.8734937e-006    +1.8982513e-007
+3.9000000e+001    +1.2945568e-006    +1.9604381e-007
+4.0000000e+001    +1.3554378e-006    +1.9521494e-007
+4.1000000e+001    +2.2857203e-006    +1.8647611e-007
+4.2000000e+001    +1.0263045e-006    +1.6777865e-007
+4.3000000e+001    +1.1825259e-006    +1.6375526e-007
+4.4000000e+001    +2.3462469e-006    +1.5489205e-007
+4.5000000e+001    +1.9409481e-006    +1.4593735e-007
+4.6000000e+001    +8.3810301e-007    +1.4062459e-007
+4.7000000e+001    +1.1011059e-006    +1.4038055e-007
+4.8000000e+001    +1.2962935e-006    +1.3283046e-007
+4.9000000e+001    +6.3719824e-007    +1.3525879e-007
+5.0000000e+001    +7.7390405e-007    +1.3324252e-007
+5.1000000e+001    +1.2059488e-006    +1.1787083e-007
+5.2000000e+001    +8.7393227e-007    +1.1515647e-007
+5.3000000e+001    +5.3158601e-007    +1.0665361e-007
+5.4000000e+001    +6.9051532e-007    +1.0827026e-007
+5.5000000e+001    +6.8289722e-007    +1.0628339e-007
+5.6000000e+001    +4.6597654e-007    +1.0406859e-007
+5.7000000e+001    +5.9485967e-007    +1.1228348e-007
+5.8000000e+001    +6.9344878e-007    +1.0757352e-007
+5.9000000e+001    +6.3585219e-007    +1.0954577e-007
+6.0000000e+001    +8.0973666e-007    +1.3023208e-007
+6.1000000e+001    +6.4613425e-007    +1.1686466e-007
+6.2000000e+001    +5.7508908e-007    +9.8353588e-008
+6.3000000e+001    +6.1798164e-007    +9.4478963e-008
+6.4000000e+001    +6.0524195e-007    +9.4581509e-008
+6.5000000e+001    +5.5864098e-007    +9.7401028e-008
+6.6000000e+001    +5.5271198e-007    +9.1391946e-008
+6.7000000e+001    +5.8250708e-007    +9.3378475e-008
+6.8000000e+001    +5.7910819e-007    +9.6050179e-008
+6.9000000e+001    +4.7860260e-007    +8.4189637e-008
+7.0000000e+001    +4.3609413e-007    +7.8150016e-008
+7.1000000e+001    +4.4051188e-007    +8.3266940e-008
+7.2000000e+001    +3.9002384e-007    +8.0054654e-008
+7.3000000e+001    +3.6044696e-007    +8.3613607e-008
+7.4000000e+001    +3.4049833e-007    +8.0677971e-008
+7.5000000e+001    +3.5780394e-007    +7.6016192e-008
+7.6000000e+001    +3.1201668e-007    +7.1885502e-008
+7.7000000e+001    +2.8185303e-007    +7.4540232e-008
+7.8000000e+001    +2.9115847e-007    +7.2549646e-008
+7.9000000e+001    +3.0044771e-007    +6.9488394e-008
+8.0000000e+001    +2.8018934e-007    +7.1502541e-008
+8.1000000e+001    +2.5735972e-007    +6.8566884e-008
+8.2000000e+001    +2.4288690e-007    +6.7558126e-008
+8.3000000e+001    +2.2004363e-007    +6.7397501e-008
+8.4000000e+001    +2.0389173e-007    +6.5687601e-008
+8.5000000e+001    +2.2163424e-007    +6.7227219e-008
+8.6000000e+001    +2.0585500e-007    +6.6565377e-008
+8.7000000e+001    +1.8130687e-007    +6.5595138e-008
+8.8000000e+001    +2.0206605e-007    +6.5362059e-008
+8.9000000e+001    +1.9904166e-007    +6.6805605e-008
+9.0000000e+001    +1.5797032e-007    +6.4862490e-008
+9.1000000e+001    +1.6986782e-007    +6.4971680e-008
+9.2000000e+001    +1.8171262e-007    +6.5810760e-008
+9.3000000e+001    +1.7589947e-007    +5.8612869e-008
+9.4000000e+001    +1.5995106e-007    +5.4965703e-008
+9.5000000e+001    +1.7038693e-007    +5.6025090e-008
+9.6000000e+001    +1.5295650e-007    +5.6491199e-008
+9.7000000e+001    +1.3937721e-007    +5.8617825e-008
+9.8000000e+001    +1.4340498e-007    +5.4909247e-008
+9.9000000e+001    +1.5438371e-007    +5.6305986e-008
+1.0000000e+002    +1.6371121e-007    +6.1677845e-008
+1.0100000e+002    +1.4391983e-007    +6.1351287e-008
+1.0200000e+002    +1.3143614e-007    +5.8825496e-008
+1.0300000e+002    +1.1802521e-007    +5.6125756e-008
+1.0400000e+002    +1.1774511e-007    +5.2330371e-008
+1.0500000e+002    +1.2316167e-007    +5.4433176e-008
+1.0600000e+002    +1.2742557e-007    +5.0752195e-008
+1.0700000e+002    +1.2318777e-007    +5.3917351e-008
+1.0800000e+002    +1.2727706e-007    +5.3492212e-008
+1.0900000e+002    +1.2774089e-007    +5.5063982e-008
+1.1000000e+002    +1.2571446e-007    +5.6684300e-008
+1.1100000e+002    +1.2023408e-007    +5.7507201e-008
+1.1200000e+002    +1.1858596e-007    +4.9415792e-008
+1.1300000e+002    +1.3074283e-007    +5.0048151e-008
+1.1400000e+002    +1.2925216e-007    +5.1594068e-008
+1.1500000e+002    +1.3109874e-007    +5.1783164e-008
+1.1600000e+002    +1.3697145e-007    +5.1065321e-008
+1.1700000e+002    +1.3815513e-007    +5.1824458e-008
+1.1800000e+002    +1.3068815e-007    +5.3937306e-008
+1.1900000e+002    +5.3256804e-007    +5.5763902e-008
+1.2000000e+002    +9.9672138e-007    +5.7279024e-008
+1.2100000e+002    +4.9385363e-007    +5.1664188e-008
+1.2200000e+002    +1.4720821e-007    +4.9310000e-008
+1.2300000e+002    +1.6136362e-007    +5.1443319e-008
+1.2400000e+002    +1.6302154e-007    +5.3253412e-008
+1.2500000e+002    +1.7155735e-007    +5.3960171e-008
+1.2600000e+002    +1.5883052e-007    +5.3170393e-008
+1.2700000e+002    +1.6657070e-007    +5.0784134e-008
+1.2800000e+002    +1.5848072e-007    +5.1571639e-008
+1.2900000e+002    +1.6245262e-007    +4.9522793e-008
+1.3000000e+002    +1.5694772e-007    +5.1896887e-008
+1.3100000e+002    +1.5244798e-007    +5.0684868e-008
+1.3200000e+002    +1.4412809e-007    +4.6147566e-008
+1.3300000e+002    +1.2741255e-007    +4.9102105e-008
+1.3400000e+002    +1.2219188e-007    +4.6712707e-008
+1.3500000e+002    +1.1878025e-007    +4.5749474e-008
+1.3600000e+002    +1.2072113e-007    +4.7057402e-008
+1.3700000e+002    +1.2718179e-007    +4.9679368e-008
+1.3800000e+002    +1.2751164e-007    +4.6472984e-008
+1.3900000e+002    +1.2630329e-007    +4.5705590e-008
+1.4000000e+002    +1.4352344e-007    +5.0254034e-008
+1.4100000e+002    +1.6252774e-007    +4.6498453e-008
+1.4200000e+002    +1.9905740e-007    +4.9555322e-008
+1.4300000e+002    +2.7205883e-007    +5.0906337e-008
+1.4400000e+002    +4.2842947e-007    +4.8914419e-008
+1.4500000e+002    +7.0730465e-007    +4.9224422e-008
+1.4600000e+002    +7.1467457e-007    +4.6441308e-008
+1.4700000e+002    +5.8403447e-007    +5.0856617e-008
+1.4800000e+002    +4.1492217e-007    +4.9489419e-008
+1.4900000e+002    +2.6190153e-007    +4.7760885e-008
+1.5000000e+002    +1.9919317e-007    +4.9146820e-008
+1.5100000e+002    +2.4525934e-007    +4.8683656e-008
+1.5200000e+002    +1.8089786e-007    +4.8672216e-008
+1.5300000e+002    +1.2336996e-007    +5.1885490e-008
+1.5400000e+002    +1.1671451e-007    +5.0491188e-008
+1.5500000e+002    +1.2601711e-007    +4.9632206e-008
+1.5600000e+002    +1.0647109e-007    +5.0920033e-008
+1.5700000e+002    +9.2667925e-008    +5.6274775e-008
+1.5800000e+002    +9.2655718e-008    +5.3144127e-008
+1.5900000e+002    +9.5033279e-008    +5.2642484e-008
+1.6000000e+002    +9.0712447e-008    +5.1681550e-008
+1.6100000e+002    +8.8749495e-008    +4.8998650e-008
+1.6200000e+002    +9.1503601e-008    +4.6588703e-008
+1.6300000e+002    +8.6207102e-008    +4.9508767e-008
+1.6400000e+002    +8.2991207e-008    +5.4459242e-008
+1.6500000e+002    +8.8246559e-008    +4.9934584e-008
+1.6600000e+002    +8.3322000e-008    +5.2314917e-008
+1.6700000e+002    +8.6508720e-008    +5.1851949e-008
+1.6800000e+002    +8.7676945e-008    +5.1059377e-008
+1.6900000e+002    +8.0897863e-008    +5.4778877e-008
+1.7000000e+002    +8.1635051e-008    +4.8910231e-008
+1.7100000e+002    +7.8592130e-008    +4.7348042e-008
+1.7200000e+002    +8.2065881e-008    +4.9127561e-008
+1.7300000e+002    +8.6797947e-008    +5.1474846e-008
+1.7400000e+002    +8.6820542e-008    +4.9611721e-008
+1.7500000e+002    +8.0089293e-008    +5.4689636e-008
+1.7600000e+002    +8.0581124e-008    +5.4793013e-008
+1.7700000e+002    +7.6245811e-008    +5.0665285e-008
+1.7800000e+002    +7.8303671e-008    +4.7514376e-008
+1.7900000e+002    +2.7562226e-007    +7.0641057e-008
+1.8000000e+002    +4.8864985e-007    +1.0596669e-007
+1.8100000e+002    +2.3639778e-007    +6.3155163e-008
+1.8200000e+002    +9.0619864e-008    +5.0348252e-008
+1.8300000e+002    +8.5899750e-008    +5.1610609e-008
+1.8400000e+002    +8.5140499e-008    +5.1201411e-008
+1.8500000e+002    +8.1927688e-008    +5.1828554e-008
+1.8600000e+002    +7.9852576e-008    +5.0717880e-008
+1.8700000e+002    +8.2291365e-008    +4.8901533e-008
+1.8800000e+002    +8.8265168e-008    +5.2238235e-008
+1.8900000e+002    +9.1378602e-008    +5.3202800e-008
+1.9000000e+002    +7.6846725e-008    +4.9399247e-008
+1.9100000e+002    +7.8281666e-008    +5.2288733e-008
+1.9200000e+002    +8.2852551e-008    +4.9733941e-008
+1.9300000e+002    +8.1773742e-008    +5.0143800e-008
+1.9400000e+002    +7.8120337e-008    +4.8721461e-008
+1.9500000e+002    +7.6049417e-008    +5.1520701e-008
+1.9600000e+002    +7.3662854e-008    +5.0870245e-008
+1.9700000e+002    +8.1197570e-008    +5.2366868e-008
+1.9800000e+002    +7.8532786e-008    +5.3636654e-008
+1.9900000e+002    +8.1109000e-008    +5.0727625e-008
+2.0000000e+002    +7.9865202e-008    +5.3449646e-008
+2.0100000e+002    +7.4054050e-008    +5.1545541e-008
+2.0200000e+002    +8.0230819e-008    +5.1879738e-008
+2.0300000e+002    +7.6920500e-008    +5.4745506e-008
+2.0400000e+002    +6.8565832e-008    +5.5559170e-008
+2.0500000e+002    +7.3178697e-008    +5.6393098e-008
+2.0600000e+002    +7.3925854e-008    +6.0512697e-008
+2.0700000e+002    +7.0486806e-008    +5.7131672e-008
+2.0800000e+002    +6.6892213e-008    +5.3682548e-008
+2.0900000e+002    +6.7059879e-008    +5.2604232e-008
+2.1000000e+002    +6.8775208e-008    +5.4223687e-008
+2.1100000e+002    +7.5362252e-008    +5.8261520e-008
+2.1200000e+002    +7.1249104e-008    +5.7455260e-008
+2.1300000e+002    +6.9945678e-008    +5.6684115e-008
+2.1400000e+002    +7.5079470e-008    +5.5781413e-008
+2.1500000e+002    +7.0934846e-008    +5.3996086e-008
+2.1600000e+002    +8.9762601e-008    +5.6366478e-008
+2.1700000e+002    +1.5389040e-007    +6.1946125e-008
+2.1800000e+002    +1.1679207e-007    +6.1560392e-008
+2.1900000e+002    +7.4958884e-008    +5.7508213e-008
+2.2000000e+002    +7.3190506e-008    +5.1053771e-008
+2.2100000e+002    +7.1358315e-008    +5.1068348e-008
+2.2200000e+002    +7.1349930e-008    +5.8200847e-008
+2.2300000e+002    +7.5623596e-008    +5.4906170e-008
+2.2400000e+002    +7.5349924e-008    +5.7878335e-008
+2.2500000e+002    +7.6213254e-008    +6.1821780e-008
+2.2600000e+002    +7.3370977e-008    +6.3372362e-008
+2.2700000e+002    +7.5145280e-008    +6.1857968e-008
+2.2800000e+002    +7.0921061e-008    +5.8092759e-008
+2.2900000e+002    +8.1222893e-008    +5.9012450e-008
+2.3000000e+002    +7.2897777e-008    +6.0990089e-008
+2.3100000e+002    +7.0034979e-008    +6.2809541e-008
+2.3200000e+002    +7.3354386e-008    +5.5815477e-008
+2.3300000e+002    +7.2756968e-008    +5.8939797e-008
+2.3400000e+002    +8.3713090e-008    +6.3713109e-008
+2.3500000e+002    +8.1224677e-008    +6.6684834e-008
+2.3600000e+002    +8.4908798e-008    +6.3994804e-008
+2.3700000e+002    +7.3672318e-008    +6.3862707e-008
+2.3800000e+002    +7.4884269e-008    +6.5760702e-008
+2.3900000e+002    +2.2771685e-007    +6.4745656e-008
+2.4000000e+002    +3.9529814e-007    +6.7104658e-008
+2.4100000e+002    +1.9515728e-007    +6.5053129e-008
+2.4200000e+002    +9.4612773e-008    +6.2873085e-008
+2.4300000e+002    +9.3986579e-008    +6.4293772e-008
+2.4400000e+002    +7.8683655e-008    +6.3158488e-008
+2.4500000e+002    +7.1427685e-008    +5.6550153e-008
+2.4600000e+002    +7.9028766e-008    +6.0797134e-008
+2.4700000e+002    +8.6576371e-008    +5.9993646e-008
+2.4800000e+002    +9.2740599e-008    +6.2409597e-008
+2.4900000e+002    +9.1491039e-008    +6.4957703e-008
+2.5000000e+002    +8.8194930e-008    +6.5533513e-008
+2.5100000e+002    +7.8785490e-008    +6.7965090e-008
+2.5200000e+002    +8.1772392e-008    +6.7359480e-008
+2.5300000e+002    +9.8319688e-008    +6.8635579e-008
+2.5400000e+002    +1.0735229e-007    +6.6379485e-008
+2.5500000e+002    +1.1029390e-007    +6.3505190e-008
+2.5600000e+002    +1.1596508e-007    +6.0820298e-008
+2.5700000e+002    +1.1609528e-007    +6.3210656e-008
+2.5800000e+002    +1.0612341e-007    +6.7697869e-008
+2.5900000e+002    +1.2314301e-007    +6.7557679e-008
+2.6000000e+002    +1.3355229e-007    +6.8672364e-008
+2.6100000e+002    +1.4586495e-007    +7.4125225e-008
+2.6200000e+002    +1.6402680e-007    +6.9829660e-008
+2.6300000e+002    +1.7822003e-007    +7.2183674e-008
+2.6400000e+002    +1.6082627e-007    +7.3201917e-008
+2.6500000e+002    +1.5915329e-007    +7.2658935e-008
+2.6600000e+002    +1.9765595e-007    +6.9063965e-008
+2.6700000e+002    +2.8190161e-007    +7.2927875e-008
+2.6800000e+002    +3.4682097e-007    +7.3747664e-008
+2.6900000e+002    +4.0346146e-007    +6.9494497e-008
+2.7000000e+002    +4.0347564e-007    +7.3298345e-008
+2.7100000e+002    +4.1685416e-007    +7.4842511e-008
+2.7200000e+002    +4.9242317e-007    +7.0834759e-008
+2.7300000e+002    +6.2175070e-007    +6.9513725e-008
+2.7400000e+002    +1.1732750e-006    +7.1192957e-008
+2.7500000e+002    +1.8426420e-006    +6.7644820e-008
+2.7600000e+002    +1.6006437e-006    +7.2560717e-008
+2.7700000e+002    +1.4030904e-006    +7.6108471e-008
+2.7800000e+002    +1.1556838e-006    +8.0909231e-008
+2.7900000e+002    +8.8566100e-007    +8.0766334e-008
+2.8000000e+002    +8.8820070e-007    +7.3578384e-008
+2.8100000e+002    +8.3468137e-007    +7.5806241e-008
+2.8200000e+002    +7.7662366e-007    +7.5060427e-008
+2.8300000e+002    +5.5927802e-007    +7.2502900e-008
+2.8400000e+002    +4.1716186e-007    +6.9854579e-008
+2.8500000e+002    +3.4912861e-007    +8.3060129e-008
+2.8600000e+002    +2.7666343e-007    +7.8509679e-008
+2.8700000e+002    +2.2563350e-007    +7.4805463e-008
+2.8800000e+002    +2.4264250e-007    +7.8288799e-008
+2.8900000e+002    +2.2588658e-007    +7.8126511e-008
+2.9000000e+002    +1.9237123e-007    +7.5496750e-008
+2.9100000e+002    +1.8071779e-007    +8.0549988e-008
+2.9200000e+002    +1.5978431e-007    +7.8040436e-008
+2.9300000e+002    +1.3900110e-007    +8.1876607e-008
+2.9400000e+002    +1.1865772e-007    +8.5297977e-008
+2.9500000e+002    +1.3004990e-007    +8.8090900e-008
+2.9600000e+002    +1.3644535e-007    +8.7693309e-008
+2.9700000e+002    +1.2693097e-007    +8.6782798e-008
+2.9800000e+002    +1.2693056e-007    +9.2625200e-008
+2.9900000e+002    +1.5649792e-007    +1.0176331e-007
+3.0000000e+002    +2.2152938e-007    +8.8728157e-008
+3.0100000e+002    +1.3323111e-007    +8.2891312e-008
+3.0200000e+002    +1.0210501e-007    +8.5291795e-008
+3.0300000e+002    +8.5786652e-008    +8.0530000e-008
+3.0400000e+002    +8.6686804e-008    +8.2934825e-008
+3.0500000e+002    +8.2998497e-008    +8.6714600e-008
+3.0600000e+002    +7.5077324e-008    +8.7882519e-008
+3.0700000e+002    +7.6037814e-008    +9.0270511e-008
+3.0800000e+002    +7.7302765e-008    +8.5905697e-008
+3.0900000e+002    +8.4836486e-008    +8.5044547e-008
+3.1000000e+002    +9.0029097e-008    +8.6762412e-008
+3.1100000e+002    +9.3748817e-008    +8.7132044e-008
+3.1200000e+002    +8.1918785e-008    +8.3096246e-008
+3.1300000e+002    +7.4137112e-008    +7.9943547e-008
+3.1400000e+002    +7.6322699e-008    +9.3989058e-008
+3.1500000e+002    +8.1809659e-008    +9.6372474e-008
+3.1600000e+002    +8.0582979e-008    +9.3324260e-008
+3.1700000e+002    +7.6613702e-008    +9.1705360e-008
+3.1800000e+002    +8.6291010e-008    +8.9948180e-008
+3.1900000e+002    +7.5325275e-008    +9.0212943e-008
+3.2000000e+002    +7.3375247e-008    +9.1593762e-008
+3.2100000e+002    +7.4999470e-008    +9.8816649e-008
+3.2200000e+002    +7.7040269e-008    +9.7512313e-008
+3.2300000e+002    +7.0870080e-008    +9.3824397e-008
+3.2400000e+002    +7.2749295e-008    +9.5098407e-008
+3.2500000e+002    +7.5185717e-008    +9.3784436e-008
+3.2600000e+002    +6.5429845e-008    +9.9050958e-008
+3.2700000e+002    +6.5803100e-008    +9.6981545e-008
+3.2800000e+002    +6.8096924e-008    +9.2267101e-008
+3.2900000e+002    +6.9925790e-008    +9.8308142e-008
+3.3000000e+002    +6.4863130e-008    +1.0294103e-007
+3.3100000e+002    +7.0345784e-008    +1.0478358e-007
+3.3200000e+002    +6.6504960e-008    +1.0422662e-007
+3.3300000e+002    +6.6425415e-008    +1.0012777e-007
+3.3400000e+002    +6.8658636e-008    +1.0686120e-007
+3.3500000e+002    +6.9585354e-008    +1.0514638e-007
+3.3600000e+002    +7.4994524e-008    +1.0058560e-007
+3.3700000e+002    +7.2250273e-008    +1.0395234e-007
+3.3800000e+002    +7.8207016e-008    +1.0549653e-007
+3.3900000e+002    +7.9226588e-008    +1.0245268e-007
+3.4000000e+002    +8.3693607e-008    +1.1036852e-007
+3.4100000e+002    +8.4734921e-008    +1.0227824e-007
+3.4200000e+002    +8.6226514e-008    +9.2021459e-008
+3.4300000e+002    +8.5766025e-008    +1.0247158e-007
+3.4400000e+002    +8.5794653e-008    +1.0126610e-007
+3.4500000e+002    +1.0486887e-007    +1.0752333e-007
+3.4600000e+002    +1.0730256e-007    +1.0752156e-007
+3.4700000e+002    +1.1077876e-007    +1.1652872e-007
+3.4800000e+002    +1.5077984e-007    +1.1165049e-007
+3.4900000e+002    +1.7988062e-007    +1.0999049e-007
+3.5000000e+002    +1.5359871e-007    +1.0460667e-007
+3.5100000e+002    +1.4193581e-007    +1.0219417e-007
+3.5200000e+002    +1.4400376e-007    +1.1073048e-007
+3.5300000e+002    +1.3338494e-007    +1.1057788e-007
+3.5400000e+002    +1.1850331e-007    +1.0594028e-007
+3.5500000e+002    +1.2101800e-007    +1.0541826e-007
+3.5600000e+002    +1.2035348e-007    +1.1096793e-007
+3.5700000e+002    +9.6048176e-008    +1.1759576e-007
+3.5800000e+002    +9.5266557e-008    +1.1548656e-007
+3.5900000e+002    +1.2319994e-007    +1.1644890e-007
+3.6000000e+002    +1.6288413e-007    +1.1672233e-007
+3.6100000e+002    +1.0198288e-007    +1.1134676e-007
+3.6200000e+002    +8.4901060e-008    +1.1014711e-007
+3.6300000e+002    +8.6301526e-008    +1.1978739e-007
+3.6400000e+002    +7.6361509e-008    +1.1454011e-007
+3.6500000e+002    +7.2665479e-008    +1.1962101e-007
+3.6600000e+002    +7.0432343e-008    +1.1871206e-007
+3.6700000e+002    +6.7947781e-008    +1.1939478e-007
+3.6800000e+002    +6.5102789e-008    +1.1449119e-007
+3.6900000e+002    +6.7188701e-008    +1.1510212e-007
+3.7000000e+002    +6.7418448e-008    +1.1740688e-007
+3.7100000e+002    +7.2112933e-008    +1.1845309e-007
+3.7200000e+002    +7.5035132e-008    +1.0874478e-007
+3.7300000e+002    +7.3238333e-008    +1.1918182e-007
+3.7400000e+002    +6.9671131e-008    +1.3082568e-007
+3.7500000e+002    +7.5682244e-008    +1.2829018e-007
+3.7600000e+002    +7.5673597e-008    +1.2197593e-007
+3.7700000e+002    +7.4532871e-008    +1.3191411e-007
+3.7800000e+002    +6.7871575e-008    +1.3020576e-007
+3.7900000e+002    +6.4076154e-008    +1.2496555e-007
+3.8000000e+002    +6.1255506e-008    +1.2272068e-007
+3.8100000e+002    +6.4462917e-008    +1.1956952e-007
+3.8200000e+002    +6.2370823e-008    +1.3414396e-007
+3.8300000e+002    +5.4449796e-008    +1.2632104e-007
+3.8400000e+002    +5.6029705e-008    +1.2174874e-007
+3.8500000e+002    +5.7480122e-008    +1.1985342e-007
+3.8600000e+002    +6.1668295e-008    +1.1739374e-007
+3.8700000e+002    +6.4284734e-008    +1.1628511e-007
+3.8800000e+002    +6.5016209e-008    +1.2581444e-007
+3.8900000e+002    +6.4776515e-008    +1.3789766e-007
+3.9000000e+002    +6.3086411e-008    +1.2020240e-007
+3.9100000e+002    +6.1770756e-008    +1.1451559e-007
+3.9200000e+002    +6.4416504e-008    +1.2632493e-007
+3.9300000e+002    +6.6910282e-008    +1.3963300e-007
+3.9400000e+002    +6.8774604e-008    +1.3560080e-007
+3.9500000e+002    +6.0926702e-008    +1.2677400e-007
+3.9600000e+002    +6.0451541e-008    +1.2717774e-007
+3.9700000e+002    +5.6519365e-008    +1.4303717e-007
+3.9800000e+002    +6.3312278e-008    +1.4518906e-007
+3.9900000e+002    +6.8956446e-008    +1.3500997e-007
+4.0000000e+002    +6.5661432e-008    +1.3895624e-007
+4.0100000e+002    +6.4547272e-008    +1.4799892e-007
+4.0200000e+002    +6.2673827e-008    +1.4819338e-007
+4.0300000e+002    +6.3947461e-008    +1.4041770e-007
+4.0400000e+002    +6.4027276e-008    +1.4995008e-007
+4.0500000e+002    +5.5756431e-008    +1.4427629e-007
+4.0600000e+002    +6.0111276e-008    +1.4778165e-007
+4.0700000e+002    +6.1327647e-008    +1.5114848e-007
+4.0800000e+002    +6.4081007e-008    +1.4716248e-007
+4.0900000e+002    +5.8115408e-008    +1.3414248e-007
+4.1000000e+002    +5.7804982e-008    +1.3823646e-007
+4.1100000e+002    +6.2716580e-008    +1.4793393e-007
+4.1200000e+002    +6.1042741e-008    +1.3692845e-007
+4.1300000e+002    +5.9479831e-008    +1.3239439e-007
+4.1400000e+002    +5.7977935e-008    +1.3886854e-007
+4.1500000e+002    +5.1018077e-008    +1.4928675e-007
+4.1600000e+002    +5.4913166e-008    +1.4678970e-007
+4.1700000e+002    +5.9573750e-008    +1.5566027e-007
+4.1800000e+002    +5.8809800e-008    +1.5515111e-007
+4.1900000e+002    +1.0293311e-007    +1.6136468e-007
+4.2000000e+002    +1.5457979e-007    +1.5409853e-007
+4.2100000e+002    +8.4797279e-008    +1.5256872e-007
+4.2200000e+002    +5.9375562e-008    +1.5067873e-007
+4.2300000e+002    +5.6826817e-008    +1.5180443e-007
+4.2400000e+002    +6.1191713e-008    +1.4853775e-007
+4.2500000e+002    +6.5572095e-008    +1.5274823e-007
+4.2600000e+002    +6.3857023e-008    +1.6101339e-007
+4.2700000e+002    +5.9968158e-008    +1.6610062e-007
+4.2800000e+002    +5.4205472e-008    +1.6366413e-007
+4.2900000e+002    +5.9804570e-008    +1.5324613e-007
+4.3000000e+002    +6.0741684e-008    +1.6175990e-007
+4.3100000e+002    +5.7515788e-008    +1.7048629e-007
+4.3200000e+002    +6.2325029e-008    +1.6591798e-007
+4.3300000e+002    +6.5316073e-008    +1.6445905e-007
+4.3400000e+002    +1.3272376e-007    +1.6284103e-007
+4.3500000e+002    +1.2906114e-007    +1.5601137e-007
+4.3600000e+002    +6.9302786e-008    +1.6462309e-007
+4.3700000e+002    +8.1766203e-008    +1.6650048e-007
+4.3800000e+002    +8.9669122e-008    +1.6726695e-007
+4.3900000e+002    +8.6190639e-008    +1.5748766e-007
+4.4000000e+002    +8.5938431e-008    +1.5344278e-007
+4.4100000e+002    +8.3617927e-008    +1.6663985e-007
+4.4200000e+002    +9.8203060e-008    +1.7118856e-007
+4.4300000e+002    +9.6707637e-008    +1.6753860e-007
+4.4400000e+002    +7.9731763e-008    +1.6142565e-007
+4.4500000e+002    +6.6608294e-008    +1.6578815e-007
+4.4600000e+002    +6.4595334e-008    +1.5321064e-007
+4.4700000e+002    +6.3891882e-008    +1.7548088e-007
+4.4800000e+002    +6.2304025e-008    +1.8226491e-007
+4.4900000e+002    +5.8584881e-008    +1.8140922e-007
+4.5000000e+002    +5.8813288e-008    +1.6852489e-007
+4.5100000e+002    +5.6475695e-008    +1.6441102e-007
+4.5200000e+002    +5.7438356e-008    +1.6703204e-007
+4.5300000e+002    +6.0343844e-008    +1.7666224e-007
+4.5400000e+002    +5.8344163e-008    +1.8892626e-007
+4.5500000e+002    +5.6465961e-008    +1.7199680e-007
+4.5600000e+002    +5.3619107e-008    +1.7627899e-007
+4.5700000e+002    +5.4967998e-008    +1.7260520e-007
+4.5800000e+002    +5.6999784e-008    +1.6666436e-007
+4.5900000e+002    +5.6359919e-008    +1.7007441e-007
+4.6000000e+002    +5.4189403e-008    +1.7389070e-007
+4.6100000e+002    +5.8662120e-008    +1.7202626e-007
+4.6200000e+002    +6.0757628e-008    +1.7558206e-007
+4.6300000e+002    +6.1234729e-008    +1.8525392e-007
+4.6400000e+002    +5.9209750e-008    +1.7998671e-007
+4.6500000e+002    +5.7679898e-008    +1.8212549e-007
+4.6600000e+002    +6.3777989e-008    +1.8120637e-007
+4.6700000e+002    +5.8875248e-008    +1.7632333e-007
+4.6800000e+002    +5.4152469e-008    +1.6696255e-007
+4.6900000e+002    +5.8484108e-008    +1.7097366e-007
+4.7000000e+002    +5.6634345e-008    +1.9016662e-007
+4.7100000e+002    +6.1729672e-008    +1.9247602e-007
+4.7200000e+002    +6.1885757e-008    +1.8966513e-007
+4.7300000e+002    +5.7541435e-008    +1.8234599e-007
+4.7400000e+002    +5.4491540e-008    +1.7883082e-007
+4.7500000e+002    +6.3215865e-008    +1.7529504e-007
+4.7600000e+002    +5.9606002e-008    +1.8715566e-007
+4.7700000e+002    +5.8169988e-008    +2.0283092e-007
+4.7800000e+002    +6.8222796e-008    +2.0225738e-007
+4.7900000e+002    +2.2371751e-007    +1.9461079e-007
+4.8000000e+002    +3.5303069e-007    +1.8655720e-007
+4.8100000e+002    +1.5180392e-007    +1.8678266e-007
+4.8200000e+002    +6.7863077e-008    +1.8392946e-007
+4.8300000e+002    +6.4583567e-008    +1.9215527e-007
+4.8400000e+002    +6.2352200e-008    +1.9987078e-007
+4.8500000e+002    +6.7777222e-008    +1.9059638e-007
+4.8600000e+002    +7.7690771e-008    +1.9569285e-007
+4.8700000e+002    +7.6777908e-008    +1.9386927e-007
+4.8800000e+002    +7.5617955e-008    +1.9426858e-007
+4.8900000e+002    +8.1547888e-008    +1.8496715e-007
+4.9000000e+002    +8.6973571e-008    +1.9820011e-007
+4.9100000e+002    +7.9215020e-008    +2.0218700e-007
+4.9200000e+002    +8.5903430e-008    +2.1145395e-007
+4.9300000e+002    +8.5305466e-008    +1.9708385e-007
+4.9400000e+002    +7.7430776e-008    +2.0212462e-007
+4.9500000e+002    +7.6555928e-008    +2.0787394e-007
+4.9600000e+002    +7.6906403e-008    +2.0004576e-007
+4.9700000e+002    +7.6002671e-008    +1.8888208e-007
+4.9800000e+002    +7.9814967e-008    +2.1909932e-007
+4.9900000e+002    +8.2607571e-008    +2.1983233e-007
+5.0000000e+002    +9.0257032e-008    +2.0305842e-007
+5.0100000e+002    +9.0889806e-008    +1.9973345e-007
+5.0200000e+002    +7.9540882e-008    +2.0153672e-007
+5.0300000e+002    +8.5495998e-008    +2.0609949e-007
+5.0400000e+002    +9.0371366e-008    +2.3517559e-007
+5.0500000e+002    +9.9676733e-008    +2.1403761e-007
+5.0600000e+002    +1.1064577e-007    +1.9805979e-007
+5.0700000e+002    +1.1716170e-007    +2.1060107e-007
+5.0800000e+002    +1.2351809e-007    +2.0896800e-007
+5.0900000e+002    +1.2573932e-007    +1.9057273e-007
+5.1000000e+002    +1.2668370e-007    +2.0352448e-007
+5.1100000e+002    +1.1669400e-007    +2.0617190e-007
+5.1200000e+002    +1.1368550e-007    +2.1989992e-007
+5.1300000e+002    +9.5416986e-008    +2.1089910e-007
+5.1400000e+002    +7.4987035e-008    +2.0147544e-007
+5.1500000e+002    +8.0464950e-008    +2.1838385e-007
+5.1600000e+002    +7.6956745e-008    +2.2846565e-007
+5.1700000e+002    +7.7344197e-008    +2.2558395e-007
+5.1800000e+002    +7.1853933e-008    +2.1905578e-007
+5.1900000e+002    +6.4932316e-008    +2.0229825e-007
+5.2000000e+002    +6.3227247e-008    +2.0461475e-007
+5.2100000e+002    +6.4389631e-008    +1.9741087e-007
+5.2200000e+002    +6.0803806e-008    +2.2108617e-007
+5.2300000e+002    +5.7766471e-008    +2.3439065e-007
+5.2400000e+002    +6.1972038e-008    +2.4689638e-007
+5.2500000e+002    +6.4437444e-008    +2.4661216e-007
+5.2600000e+002    +7.2285033e-008    +2.1496507e-007
+5.2700000e+002    +8.5351658e-008    +2.2053437e-007
+5.2800000e+002    +1.0295855e-007    +2.3519496e-007
+5.2900000e+002    +1.2115161e-007    +2.3141897e-007
+5.3000000e+002    +1.5725026e-007    +2.4618012e-007
+5.3100000e+002    +1.6963541e-007    +2.5123228e-007
+5.3200000e+002    +1.7984863e-007    +2.4354622e-007
+5.3300000e+002    +2.0181972e-007    +2.3374045e-007
+5.3400000e+002    +1.8103356e-007    +2.2467580e-007
+5.3500000e+002    +1.7816721e-007    +2.2288098e-007
+5.3600000e+002    +1.8108247e-007    +2.0588462e-007
+5.3700000e+002    +1.8145106e-007    +2.1092875e-007
+5.3800000e+002    +1.8250181e-007    +2.3356063e-007
+5.3900000e+002    +2.6004335e-007    +2.3945995e-007
+5.4000000e+002    +3.5647349e-007    +2.2887791e-007
+5.4100000e+002    +2.0982580e-007    +2.5144726e-007
+5.4200000e+002    +1.6764551e-007    +2.3798090e-007
+5.4300000e+002    +1.8031268e-007    +2.4282798e-007
+5.4400000e+002    +2.0105689e-007    +2.5644638e-007
+5.4500000e+002    +2.6314990e-007    +2.6311119e-007
+5.4600000e+002    +4.0601176e-007    +2.3073825e-007
+5.4700000e+002    +6.5037631e-007    +2.1662549e-007
+5.4800000e+002    +1.0144850e-006    +2.2868424e-007
+5.4900000e+002    +1.3084680e-006    +2.4233418e-007
+5.5000000e+002    +1.2477196e-006    +2.2904156e-007
+5.5100000e+002    +1.1119515e-006    +2.1032747e-007
+5.5200000e+002    +1.1753818e-006    +2.1829683e-007
+5.5300000e+002    +1.6061470e-006    +2.3659356e-007
+5.5400000e+002    +9.2298006e-007    +2.2845762e-007
+5.5500000e+002    +4.3288361e-007    +2.4922613e-007
+5.5600000e+002    +3.6172634e-007    +2.8330317e-007
+5.5700000e+002    +2.9589364e-007    +2.6449976e-007
+5.5800000e+002    +2.3025918e-007    +2.2225368e-007
+5.5900000e+002    +2.2894955e-007    +2.2939970e-007
+5.6000000e+002    +1.9614200e-007    +2.3896985e-007
+5.6100000e+002    +1.7314596e-007    +2.5273346e-007
+5.6200000e+002    +1.6970247e-007    +2.6471940e-007
+5.6300000e+002    +1.4294753e-007    +2.6172128e-007
+5.6400000e+002    +1.1847585e-007    +2.4197738e-007
+5.6500000e+002    +1.1147826e-007    +2.4654611e-007
+5.6600000e+002    +1.1547250e-007    +2.6260037e-007
+5.6700000e+002    +1.2330428e-007    +2.5147568e-007
+5.6800000e+002    +1.1715617e-007    +2.5350968e-007
+5.6900000e+002    +1.1203251e-007    +2.4669532e-007
+5.7000000e+002    +1.2997396e-007    +2.5117546e-007
+5.7100000e+002    +1.5424496e-007    +2.5655453e-007
+5.7200000e+002    +1.5129110e-007    +2.6304707e-007
+5.7300000e+002    +1.6753272e-007    +2.7976850e-007
+5.7400000e+002    +1.8764516e-007    +2.4234774e-007
+5.7500000e+002    +2.3379999e-007    +2.4275093e-007
+5.7600000e+002    +2.6708446e-007    +2.5981703e-007
+5.7700000e+002    +2.9514086e-007    +2.8477703e-007
+5.7800000e+002    +2.8242053e-007    +2.7886563e-007
+5.7900000e+002    +2.4879742e-007    +2.5902548e-007
+5.8000000e+002    +2.1974111e-007    +2.6251791e-007
+5.8100000e+002    +2.0267709e-007    +2.5359654e-007
+5.8200000e+002    +1.8077019e-007    +2.7285756e-007
+5.8300000e+002    +1.4852765e-007    +2.6735731e-007
+5.8400000e+002    +1.4497577e-007    +2.5269878e-007
+5.8500000e+002    +1.2131720e-007    +2.7207167e-007
+5.8600000e+002    +1.0115397e-007    +2.3689665e-007
+5.8700000e+002    +9.0914554e-008    +2.4849604e-007
+5.8800000e+002    +7.9167719e-008    +2.5433854e-007
+5.8900000e+002    +6.8350332e-008    +2.7894248e-007
+5.9000000e+002    +6.5438030e-008    +2.8419637e-007
+5.9100000e+002    +6.8304423e-008    +2.5890520e-007
+5.9200000e+002    +6.7373826e-008    +2.7734470e-007
+5.9300000e+002    +6.3526954e-008    +2.7441564e-007
+5.9400000e+002    +6.2538689e-008    +2.3243960e-007
+5.9500000e+002    +6.6994744e-008    +2.6920952e-007
+5.9600000e+002    +6.8558677e-008    +2.8080342e-007
+5.9700000e+002    +7.2612757e-008    +2.7177640e-007
+5.9800000e+002    +7.8192329e-008    +2.7339013e-007
+5.9900000e+002    +2.3294393e-007    +2.8578657e-007
+6.0000000e+002    +3.4875046e-007    +2.8917876e-007
+6.0100000e+002    +2.2662587e-007    +3.0505646e-007
+6.0200000e+002    +2.2410029e-007    +3.0061005e-007
+6.0300000e+002    +2.1339936e-007    +2.7547040e-007
+6.0400000e+002    +1.8599252e-007    +2.8414550e-007
+6.0500000e+002    +1.3933192e-007    +2.9754176e-007
+6.0600000e+002    +9.4029211e-008    +2.8284131e-007
+6.0700000e+002    +7.1475228e-008    +2.8649126e-007
+6.0800000e+002    +6.2915348e-008    +2.6669298e-007
+6.0900000e+002    +6.0202552e-008    +2.7690501e-007
+6.1000000e+002    +6.2535051e-008    +2.8872097e-007
+6.1100000e+002    +6.0719614e-008    +3.0662096e-007
+6.1200000e+002    +6.0722151e-008    +2.9231740e-007
+6.1300000e+002    +6.4501009e-008    +2.9328859e-007
+6.1400000e+002    +6.4581151e-008    +3.1425557e-007
+6.1500000e+002    +7.0698867e-008    +2.9401758e-007
+6.1600000e+002    +6.5906789e-008    +2.9048411e-007
+6.1700000e+002    +6.2894969e-008    +3.0728219e-007
+6.1800000e+002    +6.3703176e-008    +2.9345802e-007
+6.1900000e+002    +6.4779428e-008    +2.8967546e-007
+6.2000000e+002    +6.7606358e-008    +2.8926323e-007
+6.2100000e+002    +6.4804119e-008    +3.0992032e-007
+6.2200000e+002    +6.8317547e-008    +3.0592486e-007
+6.2300000e+002    +7.3217514e-008    +3.0357896e-007
+6.2400000e+002    +6.7909589e-008    +2.7543501e-007
+6.2500000e+002    +6.9848063e-008    +2.6931596e-007
+6.2600000e+002    +6.9431650e-008    +2.9009558e-007
+6.2700000e+002    +5.8101435e-008    +3.0827604e-007
+6.2800000e+002    +6.6750246e-008    +3.0068631e-007
+6.2900000e+002    +7.8133375e-008    +3.0743675e-007
+6.3000000e+002    +7.6904037e-008    +2.9806623e-007
+6.3100000e+002    +7.4538271e-008    +2.9891308e-007
+6.3200000e+002    +7.2919313e-008    +2.8875900e-007
+6.3300000e+002    +7.5437093e-008    +3.0032041e-007
+6.3400000e+002    +7.1769804e-008    +3.1399586e-007
+6.3500000e+002    +7.1026186e-008    +3.3110129e-007
+6.3600000e+002    +6.9067532e-008    +3.0211589e-007
+6.3700000e+002    +6.8124820e-008    +2.9703941e-007
+6.3800000e+002    +6.6966287e-008    +3.2608330e-007
+6.3900000e+002    +6.6420604e-008    +3.0115251e-007
+6.4000000e+002    +6.7290287e-008    +3.1770230e-007
+6.4100000e+002    +6.9893709e-008    +3.1848498e-007
+6.4200000e+002    +7.6234507e-008    +3.1171948e-007
+6.4300000e+002    +9.2740294e-008    +3.0713716e-007
+6.4400000e+002    +1.0951594e-007    +3.3144102e-007
+6.4500000e+002    +9.9694248e-008    +3.2473918e-007
+6.4600000e+002    +9.0077350e-008    +3.0105531e-007
+6.4700000e+002    +8.6337728e-008    +2.9430632e-007
+6.4800000e+002    +7.9862396e-008    +2.9533763e-007
+6.4900000e+002    +8.0118141e-008    +2.8255360e-007
+6.5000000e+002    +8.5178371e-008    +3.0740975e-007
+6.5100000e+002    +1.0996272e-007    +3.0403027e-007
+6.5200000e+002    +1.3455610e-007    +2.9917510e-007
+6.5300000e+002    +9.6076121e-008    +3.0280066e-007
+6.5400000e+002    +8.4926604e-008    +3.3560386e-007
+6.5500000e+002    +8.6855721e-008    +3.4194747e-007
+6.5600000e+002    +6.9619212e-008    +2.9797135e-007
+6.5700000e+002    +6.1787375e-008    +3.1241845e-007
+6.5800000e+002    +6.1835763e-008    +3.3031009e-007
+6.5900000e+002    +2.2539653e-007    +3.4022628e-007
+6.6000000e+002    +3.3633646e-007    +3.5035436e-007
+6.6100000e+002    +1.4159991e-007    +3.0732741e-007
+6.6200000e+002    +6.2912306e-008    +3.0980328e-007
+6.6300000e+002    +6.3703943e-008    +2.8962680e-007
+6.6400000e+002    +5.6843977e-008    +2.9660401e-007
+6.6500000e+002    +6.2836577e-008    +2.9687052e-007
+6.6600000e+002    +6.5085274e-008    +3.2518054e-007
+6.6700000e+002    +6.0701815e-008    +3.4618486e-007
+6.6800000e+002    +6.6349031e-008    +3.1078821e-007
+6.6900000e+002    +7.1766415e-008    +3.2884745e-007
+6.7000000e+002    +6.8018018e-008    +3.2903742e-007
+6.7100000e+002    +6.3564350e-008    +3.3059382e-007
+6.7200000e+002    +7.0140096e-008    +3.3493131e-007
+6.7300000e+002    +6.9553195e-008    +3.2717136e-007
+6.7400000e+002    +7.3036219e-008    +3.2325718e-007
+6.7500000e+002    +7.4908861e-008    +3.1705866e-007
+6.7600000e+002    +7.2909948e-008    +3.4847986e-007
+6.7700000e+002    +7.6520045e-008    +3.6065836e-007
+6.7800000e+002    +6.8745614e-008    +3.6022777e-007
+6.7900000e+002    +6.8291826e-008    +3.5605649e-007
+6.8000000e+002    +7.5757228e-008    +3.0364995e-007
+6.8100000e+002    +6.7880293e-008    +3.0781638e-007
+6.8200000e+002    +6.7016153e-008    +3.3633572e-007
+6.8300000e+002    +7.4635068e-008    +3.3985853e-007
+6.8400000e+002    +7.5392045e-008    +3.4587143e-007
+6.8500000e+002    +7.6019361e-008    +3.4874512e-007
+6.8600000e+002    +8.3186983e-008    +3.4530416e-007
+6.8700000e+002    +1.0581764e-007    +3.4977512e-007
+6.8800000e+002    +1.0043607e-007    +3.3617732e-007
+6.8900000e+002    +1.0766616e-007    +3.4429524e-007
+6.9000000e+002    +1.0882361e-007    +3.4387514e-007
+6.9100000e+002    +1.1054899e-007    +3.5408851e-007
+6.9200000e+002    +1.2767049e-007    +3.2297550e-007
+6.9300000e+002    +1.7588711e-007    +3.1560964e-007
+6.9400000e+002    +1.6522935e-007    +3.4982926e-007
+6.9500000e+002    +1.2290204e-007    +3.5526574e-007
+6.9600000e+002    +1.1496180e-007    +3.2808649e-007
+6.9700000e+002    +1.1891896e-007    +3.3086909e-007
+6.9800000e+002    +1.1086929e-007    +3.2885035e-007
+6.9900000e+002    +1.0251006e-007    +3.4751739e-007
+7.0000000e+002    +1.0543562e-007    +3.4723934e-007
+7.0100000e+002    +1.1222851e-007    +3.2323661e-007
+7.0200000e+002    +1.1150250e-007    +3.3598397e-007
+7.0300000e+002    +1.0680360e-007    +3.4895461e-007
+7.0400000e+002    +9.6775082e-008    +3.5464450e-007
+7.0500000e+002    +1.0586435e-007    +3.6404160e-007
+7.0600000e+002    +1.0088367e-007    +3.4208003e-007
+7.0700000e+002    +9.1078711e-008    +3.6157823e-007
+7.0800000e+002    +9.3888083e-008    +3.5273894e-007
+7.0900000e+002    +9.5859377e-008    +3.6465366e-007
+7.1000000e+002    +8.9953119e-008    +3.5735482e-007
+7.1100000e+002    +9.4258887e-008    +3.5352409e-007
+7.1200000e+002    +1.1112277e-007    +3.9296310e-007
+7.1300000e+002    +1.1444180e-007    +3.5712887e-007
+7.1400000e+002    +1.0984494e-007    +3.2681342e-007
+7.1500000e+002    +1.0871267e-007    +3.4985732e-007
+7.1600000e+002    +1.0430722e-007    +3.4212022e-007
+7.1700000e+002    +9.5029939e-008    +3.4435197e-007
+7.1800000e+002    +1.0883305e-007    +3.6207840e-007
+7.1900000e+002    +2.3677366e-007    +3.4508358e-007
+7.2000000e+002    +3.2080936e-007    +3.5678084e-007
+7.2100000e+002    +1.4102893e-007    +3.6476578e-007
+7.2200000e+002    +8.2217760e-008    +3.6307281e-007
+7.2300000e+002    +8.6508528e-008    +3.6980856e-007
+7.2400000e+002    +8.0661941e-008    +3.7154271e-007
+7.2500000e+002    +8.2588706e-008    +3.6027959e-007
+7.2600000e+002    +7.8782286e-008    +3.8243587e-007
+7.2700000e+002    +7.2568525e-008    +3.7458238e-007
+7.2800000e+002    +7.5693961e-008    +3.6905411e-007
+7.2900000e+002    +8.8829339e-008    +3.4993377e-007
+7.3000000e+002    +7.4803410e-008    +3.4985118e-007
+7.3100000e+002    +6.6606098e-008    +3.5834336e-007
+7.3200000e+002    +7.2912904e-008    +3.6697881e-007
+7.3300000e+002    +7.4134341e-008    +3.5598146e-007
+7.3400000e+002    +7.5326930e-008    +3.4608530e-007
+7.3500000e+002    +6.9985241e-008    +3.5374657e-007
+7.3600000e+002    +6.5552300e-008    +3.8405634e-007
+7.3700000e+002    +6.6847058e-008    +3.6025585e-007
+7.3800000e+002    +6.7399867e-008    +3.8895729e-007
+7.3900000e+002    +7.1476876e-008    +3.5748863e-007
+7.4000000e+002    +7.0366717e-008    +3.6823405e-007
+7.4100000e+002    +7.0987518e-008    +4.0030565e-007
+7.4200000e+002    +7.1535524e-008    +3.9403068e-007
+7.4300000e+002    +7.0500427e-008    +3.9338096e-007
+7.4400000e+002    +7.3639804e-008    +3.7114927e-007
+7.4500000e+002    +7.8022275e-008    +3.9930086e-007
+7.4600000e+002    +8.0160198e-008    +3.9780952e-007
+7.4700000e+002    +8.4811433e-008    +3.8364206e-007
+7.4800000e+002    +8.4834717e-008    +4.2767749e-007
+7.4900000e+002    +9.5330073e-008    +4.2956322e-007
+7.5000000e+002    +9.9187318e-008    +3.9734550e-007
+7.5100000e+002    +1.0188025e-007    +3.7678134e-007
+7.5200000e+002    +9.0649621e-008    +3.4524427e-007
+7.5300000e+002    +9.7320857e-008    +3.5115423e-007
+7.5400000e+002    +8.9900489e-008    +3.9554519e-007
+7.5500000e+002    +8.8980251e-008    +4.1868068e-007
+7.5600000e+002    +8.5282245e-008    +4.0655644e-007
+7.5700000e+002    +7.5200994e-008    +4.0025071e-007
+7.5800000e+002    +7.3783703e-008    +4.4782050e-007
+7.5900000e+002    +7.6128281e-008    +4.1444184e-007
+7.6000000e+002    +7.7960529e-008    +3.8494585e-007
+7.6100000e+002    +7.9962327e-008    +3.8157395e-007
+7.6200000e+002    +7.4552183e-008    +3.4745176e-007
+7.6300000e+002    +6.7778416e-008    +3.7830637e-007
+7.6400000e+002    +7.3065891e-008    +4.0260255e-007
+7.6500000e+002    +6.8158187e-008    +4.1808443e-007
+7.6600000e+002    +7.3265198e-008    +4.0623161e-007
+7.6700000e+002    +7.1617571e-008    +3.7810167e-007
+7.6800000e+002    +6.7115856e-008    +3.6386859e-007
+7.6900000e+002    +6.3833468e-008    +3.6462404e-007
+7.7000000e+002    +6.5238673e-008    +3.6441031e-007
+7.7100000e+002    +6.4736980e-008    +3.7815522e-007
+7.7200000e+002    +6.1425702e-008    +3.7964455e-007
+7.7300000e+002    +6.4999938e-008    +3.7610101e-007
+7.7400000e+002    +7.0374597e-008    +3.6338469e-007
+7.7500000e+002    +6.7735414e-008    +3.8159700e-007
+7.7600000e+002    +6.8535719e-008    +3.8514116e-007
+7.7700000e+002    +6.7447246e-008    +3.6167788e-007
+7.7800000e+002    +7.3364127e-008    +3.8469022e-007
+7.7900000e+002    +2.6952273e-007    +4.0905624e-007
+7.8000000e+002    +3.8212613e-007    +3.9558645e-007
+7.8100000e+002    +1.5310839e-007    +3.8019851e-007
+7.8200000e+002    +6.7501553e-008    +4.1283639e-007
+7.8300000e+002    +6.9332394e-008    +4.1764076e-007
+7.8400000e+002    +6.8959253e-008    +3.9445186e-007
+7.8500000e+002    +7.1533009e-008    +4.0188223e-007
+7.8600000e+002    +6.8034076e-008    +4.4911354e-007
+7.8700000e+002    +7.3734952e-008    +4.2703701e-007
+7.8800000e+002    +6.9776931e-008    +4.1527676e-007
+7.8900000e+002    +6.3648010e-008    +4.2082047e-007
+7.9000000e+002    +6.5034058e-008    +4.2874993e-007
+7.9100000e+002    +6.8899311e-008    +4.2987838e-007
+7.9200000e+002    +6.9368866e-008    +4.4547687e-007
+7.9300000e+002    +7.0182459e-008    +4.2469208e-007
+7.9400000e+002    +6.7840212e-008    +3.8267152e-007
+7.9500000e+002    +6.7608802e-008    +3.9738956e-007
+7.9600000e+002    +7.2868090e-008    +4.2984487e-007
+7.9700000e+002    +6.9760539e-008    +4.1755962e-007
+7.9800000e+002    +6.9863169e-008    +4.1222808e-007
+7.9900000e+002    +7.7691027e-008    +3.9750739e-007
#
#
# North DC Val: 0.67528569 VoltsSouth DC Val: 0.5799041100000001 Volts
# SR785 Measurement - Timestamp: Jul 14 2020 - 05:14:21
# Parameter File: /home/controls/Git/cit_ctnlab/ctn_scripts/TransRINSpecShort.yml
#---------- Measurement Setup ------------
# Start Frequency (Hz): 0.000000
# Frequency Span (Hz): 102400.000000
# Frequency Resolution: 800
# Number of Averages: 100
# Averaging Mode: RMS
# Window function: Hanning
#---------- Measurement Parameters ----------
# Measurement Group:  "FFT" "FFT"
# Measurements:  "FFT 1" "FFT 2"
# View:  "Log Magnitude" "Log Magnitude"
# Unit:  "Vrms/rtHz" "Vrms/rtHz"
#---------- Input Parameters ----------
# Input Source: Analog
# Input Mode: Single ended, Single ended
# Input Grounding: Float, Float
# Input Coupling: AC, AC
# Input Range: -36.0dBVpk, -36.0dBVpk
# Auto Range: Off, Off
# Auto Range Mode: Tracking, Tracking
# Anti-Aliasing Filter: On, On
#---------- Source Parameters ----------
# Source Type: Sine
# Source Amplitude: 500.0mVpk
# Source On: 0

#---------- Measurement Data ----------
# [Freq(Hz) Display 0(Vrms/rtHz) Display 1(Vrms/rtHz) ]
+8.9600000e+002    +1.2423514e-007    +5.5374278e-007
+1.0240000e+003    +1.2563402e-007    +6.8356638e-007
+1.1520000e+003    +1.1739515e-007    +7.5796419e-007
+1.2800000e+003    +1.3112897e-007    +8.8678780e-007
+1.4080000e+003    +1.5400026e-007    +9.8010355e-007
+1.5360000e+003    +1.7288895e-007    +9.8607370e-007
+1.6640000e+003    +2.2765010e-007    +1.0242917e-006
+1.7920000e+003    +3.0787925e-007    +1.0422365e-006
+1.9200000e+003    +2.9050960e-007    +1.0035769e-006
+2.0480000e+003    +2.4609230e-007    +1.0112999e-006
+2.1760000e+003    +2.2194715e-007    +1.0635624e-006
+2.3040000e+003    +2.4403823e-007    +1.0121474e-006
+2.4320000e+003    +2.4368799e-007    +9.6508006e-007
+2.5600000e+003    +2.9189243e-007    +1.0067498e-006
+2.6880000e+003    +3.0926699e-007    +9.9136150e-007
+2.8160000e+003    +2.9103191e-007    +1.0083462e-006
+2.9440000e+003    +3.1628227e-007    +9.0902176e-007
+3.0720000e+003    +3.7221764e-007    +8.0942107e-007
+3.2000000e+003    +3.9802185e-007    +7.8444884e-007
+3.3280000e+003    +4.4299617e-007    +8.3100355e-007
+3.4560000e+003    +4.5128647e-007    +8.3161234e-007
+3.5840000e+003    +5.0016672e-007    +7.4995017e-007
+3.7120000e+003    +5.4737211e-007    +7.4913055e-007
+3.8400000e+003    +5.1733042e-007    +7.4317222e-007
+3.9680000e+003    +5.2163324e-007    +7.4537451e-007
+4.0960000e+003    +5.6521600e-007    +7.3172265e-007
+4.2240000e+003    +6.2464164e-007    +6.8133647e-007
+4.3520000e+003    +6.0617168e-007    +6.8152951e-007
+4.4800000e+003    +6.3822398e-007    +6.7720765e-007
+4.6080000e+003    +7.1263185e-007    +6.0131674e-007
+4.7360000e+003    +7.4904170e-007    +5.9088694e-007
+4.8640000e+003    +7.4757838e-007    +5.4803303e-007
+4.9920000e+003    +7.9848979e-007    +5.3371713e-007
+5.1200000e+003    +8.1246441e-007    +5.3641423e-007
+5.2480000e+003    +7.8465905e-007    +5.3208004e-007
+5.3760000e+003    +9.3399086e-007    +5.5568444e-007
+5.5040000e+003    +1.0116408e-006    +5.6180750e-007
+5.6320000e+003    +9.6317467e-007    +5.8400371e-007
+5.7600000e+003    +9.3903338e-007    +5.2692212e-007
+5.8880000e+003    +9.3960165e-007    +5.6348227e-007
+6.0160000e+003    +1.0049640e-006    +5.1979976e-007
+6.1440000e+003    +9.7756083e-007    +4.4336355e-007
+6.2720000e+003    +9.2054506e-007    +4.2783390e-007
+6.4000000e+003    +1.0134029e-006    +4.1829426e-007
+6.5280000e+003    +1.0774125e-006    +4.3644476e-007
+6.6560000e+003    +1.1637438e-006    +4.3144018e-007
+6.7840000e+003    +1.2988451e-006    +4.3196536e-007
+6.9120000e+003    +1.2465736e-006    +4.2806178e-007
+7.0400000e+003    +1.2781370e-006    +4.3191747e-007
+7.1680000e+003    +1.3429324e-006    +4.3911339e-007
+7.2960000e+003    +1.3235252e-006    +4.2745918e-007
+7.4240000e+003    +1.3447738e-006    +4.2017044e-007
+7.5520000e+003    +1.3670463e-006    +4.0960904e-007
+7.6800000e+003    +1.3032204e-006    +3.9527993e-007
+7.8080000e+003    +1.3940796e-006    +3.6371000e-007
+7.9360000e+003    +1.5771296e-006    +3.7607913e-007
+8.0640000e+003    +1.6154568e-006    +4.3298959e-007
+8.1920000e+003    +1.6492721e-006    +4.2799363e-007
+8.3200000e+003    +1.6557512e-006    +4.0421480e-007
+8.4480000e+003    +1.6029247e-006    +3.6406840e-007
+8.5760000e+003    +1.6335498e-006    +3.4582320e-007
+8.7040000e+003    +1.6313865e-006    +3.6582585e-007
+8.8320000e+003    +1.7678973e-006    +4.1168306e-007
+8.9600000e+003    +1.8727900e-006    +4.0158230e-007
+9.0880000e+003    +1.8975053e-006    +4.0533652e-007
+9.2160000e+003    +1.8056409e-006    +4.0700263e-007
+9.3440000e+003    +1.8541489e-006    +4.0340211e-007
+9.4720000e+003    +1.8002248e-006    +3.8188327e-007
+9.6000000e+003    +1.9150971e-006    +3.4082896e-007
+9.7280000e+003    +2.0650925e-006    +3.7708222e-007
+9.8560000e+003    +2.2266206e-006    +4.2509890e-007
+9.9840000e+003    +2.1714056e-006    +4.0025071e-007
+1.0112000e+004    +2.0329333e-006    +3.9965394e-007
+1.0240000e+004    +2.1703879e-006    +4.2140121e-007
+1.0368000e+004    +2.0510081e-006    +3.9849411e-007
+1.0496000e+004    +2.0887603e-006    +4.0258132e-007
+1.0624000e+004    +2.1626665e-006    +4.4179399e-007
+1.0752000e+004    +2.1773526e-006    +4.1108368e-007
+1.0880000e+004    +2.1431392e-006    +3.9612800e-007
+1.1008000e+004    +2.1171461e-006    +3.7446151e-007
+1.1136000e+004    +2.3910920e-006    +3.5719438e-007
+1.1264000e+004    +2.4355052e-006    +4.0157522e-007
+1.1392000e+004    +2.3878154e-006    +4.2664942e-007
+1.1520000e+004    +2.3748391e-006    +3.9613843e-007
+1.1648000e+004    +2.3975592e-006    +3.6530886e-007
+1.1776000e+004    +2.3942603e-006    +3.6626392e-007
+1.1904000e+004    +2.3838963e-006    +3.4517944e-007
+1.2032000e+004    +2.4017168e-006    +3.7971708e-007
+1.2160000e+004    +2.2849877e-006    +3.7567096e-007
+1.2288000e+004    +2.5622405e-006    +3.5813488e-007
+1.2416000e+004    +2.7107785e-006    +3.6761236e-007
+1.2544000e+004    +2.5954103e-006    +3.8855350e-007
+1.2672000e+004    +2.5081968e-006    +3.6343536e-007
+1.2800000e+004    +2.4887941e-006    +3.9296484e-007
+1.2928000e+004    +2.5232118e-006    +4.0364890e-007
+1.3056000e+004    +2.3717539e-006    +4.1025854e-007
+1.3184000e+004    +2.3564239e-006    +3.9254093e-007
+1.3312000e+004    +2.3920716e-006    +4.0206714e-007
+1.3440000e+004    +2.4875455e-006    +3.6754255e-007
+1.3568000e+004    +2.5262389e-006    +3.7610639e-007
+1.3696000e+004    +2.5003330e-006    +3.8542416e-007
+1.3824000e+004    +2.5053673e-006    +3.7467782e-007
+1.3952000e+004    +2.5052684e-006    +3.4952635e-007
+1.4080000e+004    +2.3623509e-006    +3.1518786e-007
+1.4208000e+004    +2.3776515e-006    +3.4656287e-007
+1.4336000e+004    +2.4811245e-006    +3.4701790e-007
+1.4464000e+004    +2.2466420e-006    +3.3330252e-007
+1.4592000e+004    +2.2529955e-006    +3.6439872e-007
+1.4720000e+004    +2.2870258e-006    +3.5467372e-007
+1.4848000e+004    +2.4642893e-006    +3.5648796e-007
+1.4976000e+004    +2.5143704e-006    +3.6789058e-007
+1.5104000e+004    +2.2335746e-006    +3.6095705e-007
+1.5232000e+004    +2.1822709e-006    +3.3994399e-007
+1.5360000e+004    +2.1228163e-006    +3.3819092e-007
+1.5488000e+004    +2.1541682e-006    +3.2367876e-007
+1.5616000e+004    +2.2377646e-006    +3.2851435e-007
+1.5744000e+004    +2.3174214e-006    +3.1744185e-007
+1.5872000e+004    +2.1084679e-006    +3.2742255e-007
+1.6000000e+004    +2.2269214e-006    +3.3614964e-007
+1.6128000e+004    +2.4737039e-006    +3.4519877e-007
+1.6256000e+004    +2.4167257e-006    +3.2141332e-007
+1.6384000e+004    +2.3531559e-006    +3.1439913e-007
+1.6512000e+004    +2.1435583e-006    +3.3843162e-007
+1.6640000e+004    +2.3238626e-006    +3.2967171e-007
+1.6768000e+004    +2.4097731e-006    +3.1588735e-007
+1.6896000e+004    +2.2811976e-006    +3.4832684e-007
+1.7024000e+004    +2.2221977e-006    +3.5690624e-007
+1.7152000e+004    +2.2782790e-006    +3.2434079e-007
+1.7280000e+004    +2.2814879e-006    +3.1217431e-007
+1.7408000e+004    +2.1570415e-006    +3.4373926e-007
+1.7536000e+004    +2.0916129e-006    +3.3721315e-007
+1.7664000e+004    +2.0967243e-006    +3.0723260e-007
+1.7792000e+004    +2.0964319e-006    +3.1674830e-007
+1.7920000e+004    +2.1833423e-006    +3.3247321e-007
+1.8048000e+004    +2.3224393e-006    +3.4764827e-007
+1.8176000e+004    +2.1598426e-006    +3.0371132e-007
+1.8304000e+004    +2.0309453e-006    +3.0403527e-007
+1.8432000e+004    +2.0220298e-006    +3.1267857e-007
+1.8560000e+004    +1.9787112e-006    +3.0291238e-007
+1.8688000e+004    +1.8955084e-006    +3.0860485e-007
+1.8816000e+004    +2.0216858e-006    +3.2866950e-007
+1.8944000e+004    +2.0491871e-006    +3.0208506e-007
+1.9072000e+004    +2.0072846e-006    +2.7393097e-007
+1.9200000e+004    +1.8780511e-006    +3.2285885e-007
+1.9328000e+004    +1.9844965e-006    +3.2840074e-007
+1.9456000e+004    +2.1293408e-006    +3.2586641e-007
+1.9584000e+004    +2.0211576e-006    +3.1752828e-007
+1.9712000e+004    +2.0026573e-006    +3.2303117e-007
+1.9840000e+004    +2.0075227e-006    +3.0645367e-007
+1.9968000e+004    +2.0285297e-006    +3.4537354e-007
+2.0096000e+004    +1.9029591e-006    +3.6312386e-007
+2.0224000e+004    +1.8269749e-006    +3.3119437e-007
+2.0352000e+004    +1.9414128e-006    +3.4703200e-007
+2.0480000e+004    +1.8357276e-006    +3.3770817e-007
+2.0608000e+004    +1.8042516e-006    +3.1540458e-007
+2.0736000e+004    +1.7692857e-006    +3.1295676e-007
+2.0864000e+004    +1.6743728e-006    +3.5333355e-007
+2.0992000e+004    +1.7599606e-006    +3.4857973e-007
+2.1120000e+004    +1.8570175e-006    +3.3902703e-007
+2.1248000e+004    +1.8321656e-006    +3.2436537e-007
+2.1376000e+004    +1.7260824e-006    +3.4214577e-007
+2.1504000e+004    +1.7502849e-006    +3.9865341e-007
+2.1632000e+004    +1.7985238e-006    +3.5841614e-007
+2.1760000e+004    +1.7645754e-006    +3.1049626e-007
+2.1888000e+004    +1.8366551e-006    +3.0223367e-007
+2.2016000e+004    +1.9906222e-006    +3.2796655e-007
+2.2144000e+004    +1.7867243e-006    +3.2050062e-007
+2.2272000e+004    +1.6626045e-006    +3.1410792e-007
+2.2400000e+004    +1.7913050e-006    +3.1062891e-007
+2.2528000e+004    +1.7647826e-006    +3.3252175e-007
+2.2656000e+004    +1.7548936e-006    +3.6961899e-007
+2.2784000e+004    +1.6563113e-006    +3.6162388e-007
+2.2912000e+004    +1.7030444e-006    +3.4174141e-007
+2.3040000e+004    +1.7905342e-006    +3.5648912e-007
+2.3168000e+004    +1.6642264e-006    +3.5448375e-007
+2.3296000e+004    +1.7702961e-006    +3.3584971e-007
+2.3424000e+004    +1.7392468e-006    +3.4604199e-007
+2.3552000e+004    +1.8069478e-006    +3.1854827e-007
+2.3680000e+004    +1.8458331e-006    +3.2822305e-007
+2.3808000e+004    +1.7254134e-006    +3.6291340e-007
+2.3936000e+004    +1.6147440e-006    +3.6016016e-007
+2.4064000e+004    +1.8223370e-006    +3.4093901e-007
+2.4192000e+004    +1.8495334e-006    +3.5811090e-007
+2.4320000e+004    +1.7263078e-006    +3.9537497e-007
+2.4448000e+004    +1.6435796e-006    +3.5565017e-007
+2.4576000e+004    +1.8111846e-006    +3.4322335e-007
+2.4704000e+004    +1.8844211e-006    +3.7368730e-007
+2.4832000e+004    +1.6944981e-006    +3.8834750e-007
+2.4960000e+004    +1.7089184e-006    +3.5777094e-007
+2.5088000e+004    +1.7412473e-006    +3.5506335e-007
+2.5216000e+004    +1.7257659e-006    +3.7344816e-007
+2.5344000e+004    +1.6752242e-006    +3.7639555e-007
+2.5472000e+004    +1.7606467e-006    +3.6499014e-007
+2.5600000e+004    +1.6310730e-006    +3.5349692e-007
+2.5728000e+004    +1.5831760e-006    +3.7636994e-007
+2.5856000e+004    +1.5604323e-006    +4.0132531e-007
+2.5984000e+004    +1.6195610e-006    +3.7789457e-007
+2.6112000e+004    +1.7377789e-006    +3.6146588e-007
+2.6240000e+004    +1.5929751e-006    +3.6573348e-007
+2.6368000e+004    +1.5912900e-006    +3.9318925e-007
+2.6496000e+004    +1.6534913e-006    +3.9130592e-007
+2.6624000e+004    +1.6178086e-006    +4.4350864e-007
+2.6752000e+004    +1.5014052e-006    +4.6815344e-007
+2.6880000e+004    +1.5317968e-006    +4.0836113e-007
+2.7008000e+004    +1.5786092e-006    +3.9947363e-007
+2.7136000e+004    +1.5071496e-006    +3.8715078e-007
+2.7264000e+004    +1.4592197e-006    +3.6488237e-007
+2.7392000e+004    +1.5850857e-006    +3.6580417e-007
+2.7520000e+004    +1.5369891e-006    +3.7099485e-007
+2.7648000e+004    +1.5037728e-006    +3.8573447e-007
+2.7776000e+004    +1.6200786e-006    +4.1273941e-007
+2.7904000e+004    +1.6060693e-006    +4.0518347e-007
+2.8032000e+004    +1.4645406e-006    +3.9856457e-007
+2.8160000e+004    +1.4810490e-006    +3.9110105e-007
+2.8288000e+004    +1.5947794e-006    +4.0613304e-007
+2.8416000e+004    +1.4643717e-006    +4.1251695e-007
+2.8544000e+004    +1.5104330e-006    +4.3870091e-007
+2.8672000e+004    +1.5204947e-006    +4.5971325e-007
+2.8800000e+004    +1.5119247e-006    +4.7443118e-007
+2.8928000e+004    +1.5372473e-006    +4.7486111e-007
+2.9056000e+004    +1.4831254e-006    +4.2571449e-007
+2.9184000e+004    +1.4439989e-006    +4.5032129e-007
+2.9312000e+004    +1.4849747e-006    +4.1516461e-007
+2.9440000e+004    +1.6238824e-006    +4.2959905e-007
+2.9568000e+004    +1.6010199e-006    +4.3322689e-007
+2.9696000e+004    +1.6394649e-006    +4.0764706e-007
+2.9824000e+004    +1.6360232e-006    +4.0460597e-007
+2.9952000e+004    +1.4980428e-006    +3.9484269e-007
+3.0080000e+004    +1.4585037e-006    +4.5845565e-007
+3.0208000e+004    +1.4868330e-006    +4.7671193e-007
+3.0336000e+004    +1.5597608e-006    +4.5794150e-007
+3.0464000e+004    +1.3928113e-006    +4.5235552e-007
+3.0592000e+004    +1.5545804e-006    +4.6311769e-007
+3.0720000e+004    +1.6549006e-006    +4.6548359e-007
+3.0848000e+004    +1.5947829e-006    +4.5408075e-007
+3.0976000e+004    +1.5142538e-006    +4.5685422e-007
+3.1104000e+004    +1.4746737e-006    +4.5453419e-007
+3.1232000e+004    +1.5038470e-006    +4.4802707e-007
+3.1360000e+004    +1.6049429e-006    +4.5349583e-007
+3.1488000e+004    +1.5767106e-006    +4.5793394e-007
+3.1616000e+004    +1.5859265e-006    +4.5124486e-007
+3.1744000e+004    +1.6021999e-006    +4.4693388e-007
+3.1872000e+004    +1.4912129e-006    +4.4654493e-007
+3.2000000e+004    +1.4133182e-006    +4.7581671e-007
+3.2128000e+004    +1.4150945e-006    +4.6823723e-007
+3.2256000e+004    +1.5731416e-006    +4.5346596e-007
+3.2384000e+004    +1.6073448e-006    +5.0272024e-007
+3.2512000e+004    +1.5447714e-006    +5.0843943e-007
+3.2640000e+004    +1.3558292e-006    +4.6172400e-007
+3.2768000e+004    +1.4680904e-006    +5.0273241e-007
+3.2896000e+004    +1.6575119e-006    +4.8461214e-007
+3.3024000e+004    +1.5669117e-006    +5.1754517e-007
+3.3152000e+004    +1.4400123e-006    +4.9167812e-007
+3.3280000e+004    +1.4085808e-006    +5.2383604e-007
+3.3408000e+004    +1.4774109e-006    +5.7128852e-007
+3.3536000e+004    +1.4728760e-006    +5.3475418e-007
+3.3664000e+004    +1.5373959e-006    +5.2791466e-007
+3.3792000e+004    +1.3903682e-006    +4.8539920e-007
+3.3920000e+004    +1.5269305e-006    +4.8488357e-007
+3.4048000e+004    +1.6266413e-006    +5.0530679e-007
+3.4176000e+004    +1.5515026e-006    +5.2611398e-007
+3.4304000e+004    +1.4601925e-006    +4.9986807e-007
+3.4432000e+004    +1.3449303e-006    +4.5126566e-007
+3.4560000e+004    +1.4320233e-006    +5.0982800e-007
+3.4688000e+004    +1.4382599e-006    +5.3205082e-007
+3.4816000e+004    +1.4442701e-006    +5.4450692e-007
+3.4944000e+004    +1.5023386e-006    +5.7627608e-007
+3.5072000e+004    +1.5343065e-006    +5.2055992e-007
+3.5200000e+004    +1.4937414e-006    +5.1363457e-007
+3.5328000e+004    +1.4867906e-006    +5.9938606e-007
+3.5456000e+004    +1.5070190e-006    +5.7488074e-007
+3.5584000e+004    +1.4543828e-006    +5.4294401e-007
+3.5712000e+004    +1.4401656e-006    +5.7564938e-007
+3.5840000e+004    +1.4930002e-006    +5.5231885e-007
+3.5968000e+004    +1.4002280e-006    +5.3412043e-007
+3.6096000e+004    +1.2997738e-006    +4.9875024e-007
+3.6224000e+004    +1.4784754e-006    +5.7945095e-007
+3.6352000e+004    +1.5553026e-006    +6.0849220e-007
+3.6480000e+004    +1.5112491e-006    +5.7800730e-007
+3.6608000e+004    +1.4568632e-006    +5.9735396e-007
+3.6736000e+004    +1.3958885e-006    +5.8627609e-007
+3.6864000e+004    +1.3897272e-006    +6.0387589e-007
+3.6992000e+004    +1.4626780e-006    +5.4721471e-007
+3.7120000e+004    +1.4663296e-006    +5.1714585e-007
+3.7248000e+004    +1.5015504e-006    +5.5148445e-007
+3.7376000e+004    +1.4476087e-006    +5.7962660e-007
+3.7504000e+004    +1.4033893e-006    +5.8579673e-007
+3.7632000e+004    +1.4943319e-006    +6.1035973e-007
+3.7760000e+004    +1.3919216e-006    +5.9371388e-007
+3.7888000e+004    +1.3952266e-006    +6.0100780e-007
+3.8016000e+004    +1.5170361e-006    +5.7107843e-007
+3.8144000e+004    +1.5051206e-006    +5.8921034e-007
+3.8272000e+004    +1.4401784e-006    +5.7770910e-007
+3.8400000e+004    +1.4445492e-006    +6.5848275e-007
+3.8528000e+004    +1.3827456e-006    +6.2453671e-007
+3.8656000e+004    +1.3315580e-006    +5.6686105e-007
+3.8784000e+004    +1.3852180e-006    +5.4030420e-007
+3.8912000e+004    +1.3268353e-006    +6.0113717e-007
+3.9040000e+004    +1.4327640e-006    +6.4409505e-007
+3.9168000e+004    +1.4128170e-006    +6.2068057e-007
+3.9296000e+004    +1.4450743e-006    +6.1279525e-007
+3.9424000e+004    +1.4905418e-006    +6.3460516e-007
+3.9552000e+004    +1.5098013e-006    +6.2470542e-007
+3.9680000e+004    +1.4357340e-006    +6.2996708e-007
+3.9808000e+004    +1.3856652e-006    +6.0387657e-007
+3.9936000e+004    +1.4671091e-006    +6.2401170e-007
+4.0064000e+004    +1.5167631e-006    +6.2595569e-007
+4.0192000e+004    +1.4779463e-006    +6.5346489e-007
+4.0320000e+004    +1.4336767e-006    +6.1912669e-007
+4.0448000e+004    +1.5080634e-006    +6.2989164e-007
+4.0576000e+004    +1.4134640e-006    +6.8578703e-007
+4.0704000e+004    +1.3651173e-006    +6.6357916e-007
+4.0832000e+004    +1.3538731e-006    +6.6888174e-007
+4.0960000e+004    +1.3604041e-006    +7.1110458e-007
+4.1088000e+004    +1.4423637e-006    +6.9757317e-007
+4.1216000e+004    +1.4667548e-006    +6.2382401e-007
+4.1344000e+004    +1.4294674e-006    +6.0954807e-007
+4.1472000e+004    +1.4382110e-006    +6.2314217e-007
+4.1600000e+004    +1.3287597e-006    +6.6200147e-007
+4.1728000e+004    +1.3864824e-006    +6.4004291e-007
+4.1856000e+004    +1.3280553e-006    +6.3259677e-007
+4.1984000e+004    +1.3445656e-006    +6.6704825e-007
+4.2112000e+004    +1.3498062e-006    +6.5496977e-007
+4.2240000e+004    +1.4556033e-006    +6.4567752e-007
+4.2368000e+004    +1.3372588e-006    +6.8661507e-007
+4.2496000e+004    +1.3279270e-006    +6.9304610e-007
+4.2624000e+004    +1.3538925e-006    +6.9138775e-007
+4.2752000e+004    +1.4553411e-006    +6.7759737e-007
+4.2880000e+004    +1.4365193e-006    +6.9383719e-007
+4.3008000e+004    +1.3731114e-006    +6.8755730e-007
+4.3136000e+004    +1.4145679e-006    +6.8820304e-007
+4.3264000e+004    +1.3059849e-006    +6.7541657e-007
+4.3392000e+004    +1.3617506e-006    +6.7707083e-007
+4.3520000e+004    +1.3641479e-006    +7.0592444e-007
+4.3648000e+004    +1.3351447e-006    +7.2452286e-007
+4.3776000e+004    +1.3192613e-006    +7.1295898e-007
+4.3904000e+004    +1.4202872e-006    +7.3116291e-007
+4.4032000e+004    +1.3391600e-006    +7.9329038e-007
+4.4160000e+004    +1.3498700e-006    +7.9041780e-007
+4.4288000e+004    +1.4754851e-006    +7.3674744e-007
+4.4416000e+004    +1.4330204e-006    +6.7767701e-007
+4.4544000e+004    +1.4113178e-006    +7.0269050e-007
+4.4672000e+004    +1.4220880e-006    +6.9259886e-007
+4.4800000e+004    +1.4285824e-006    +6.9203253e-007
+4.4928000e+004    +1.4588207e-006    +6.9328127e-007
+4.5056000e+004    +1.3340662e-006    +7.7459862e-007
+4.5184000e+004    +1.2918803e-006    +7.1027512e-007
+4.5312000e+004    +1.3783257e-006    +6.9225825e-007
+4.5440000e+004    +1.4408015e-006    +7.4080805e-007
+4.5568000e+004    +1.3771685e-006    +7.1964314e-007
+4.5696000e+004    +1.2911514e-006    +7.4539741e-007
+4.5824000e+004    +1.3655566e-006    +7.0292970e-007
+4.5952000e+004    +1.3914510e-006    +8.2516920e-007
+4.6080000e+004    +1.3672744e-006    +8.1053986e-007
+4.6208000e+004    +1.3097473e-006    +7.9925024e-007
+4.6336000e+004    +1.3604714e-006    +8.1457239e-007
+4.6464000e+004    +1.4040536e-006    +7.9097168e-007
+4.6592000e+004    +1.3951010e-006    +7.9342976e-007
+4.6720000e+004    +1.4707460e-006    +7.7083507e-007
+4.6848000e+004    +1.4596091e-006    +8.2374891e-007
+4.6976000e+004    +1.4686708e-006    +8.0075051e-007
+4.7104000e+004    +1.4495523e-006    +7.6217771e-007
+4.7232000e+004    +1.3883653e-006    +7.7875836e-007
+4.7360000e+004    +1.4373869e-006    +8.3269413e-007
+4.7488000e+004    +1.3492195e-006    +8.1421740e-007
+4.7616000e+004    +1.3022607e-006    +8.7864476e-007
+4.7744000e+004    +1.3669862e-006    +8.3056932e-007
+4.7872000e+004    +1.4571159e-006    +8.1395103e-007
+4.8000000e+004    +1.3767482e-006    +8.5702675e-007
+4.8128000e+004    +1.2197393e-006    +8.5309779e-007
+4.8256000e+004    +1.2268013e-006    +8.6211651e-007
+4.8384000e+004    +1.2540401e-006    +9.0084865e-007
+4.8512000e+004    +1.3134454e-006    +8.7814135e-007
+4.8640000e+004    +1.2485940e-006    +9.0607728e-007
+4.8768000e+004    +1.2183887e-006    +8.4400932e-007
+4.8896000e+004    +1.2420160e-006    +7.5743424e-007
+4.9024000e+004    +1.2825567e-006    +8.1825561e-007
+4.9152000e+004    +1.2369399e-006    +8.4659041e-007
+4.9280000e+004    +1.2831483e-006    +8.7859365e-007
+4.9408000e+004    +1.2166682e-006    +8.4198695e-007
+4.9536000e+004    +1.1771874e-006    +7.8228055e-007
+4.9664000e+004    +1.2113193e-006    +8.0635908e-007
+4.9792000e+004    +1.2120976e-006    +8.6067513e-007
+4.9920000e+004    +1.1885161e-006    +9.2998675e-007
+5.0048000e+004    +1.1424006e-006    +9.4719104e-007
+5.0176000e+004    +1.1412396e-006    +9.3311144e-007
+5.0304000e+004    +1.1909470e-006    +8.6379356e-007
+5.0432000e+004    +1.1434986e-006    +9.4668678e-007
+5.0560000e+004    +1.1385189e-006    +8.4971845e-007
+5.0688000e+004    +1.1059038e-006    +8.9764575e-007
+5.0816000e+004    +1.1441919e-006    +8.9946002e-007
+5.0944000e+004    +1.1380589e-006    +9.3455509e-007
+5.1072000e+004    +1.1395293e-006    +8.1766558e-007
+5.1200000e+004    +1.1573371e-006    +8.5583440e-007
+5.1328000e+004    +1.1056283e-006    +9.1359442e-007
+5.1456000e+004    +1.0359628e-006    +8.7854926e-007
+5.1584000e+004    +1.0189424e-006    +8.5623384e-007
+5.1712000e+004    +1.0896147e-006    +8.4294430e-007
+5.1840000e+004    +1.1072051e-006    +8.9936719e-007
+5.1968000e+004    +1.0259372e-006    +9.4005878e-007
+5.2096000e+004    +1.0069632e-006    +8.7830813e-007
+5.2224000e+004    +1.0744403e-006    +9.6257520e-007
+5.2352000e+004    +1.0371829e-006    +8.9956376e-007
+5.2480000e+004    +1.0241714e-006    +8.8707702e-007
+5.2608000e+004    +1.0789752e-006    +8.2925084e-007
+5.2736000e+004    +1.0795285e-006    +9.2954986e-007
+5.2864000e+004    +1.0490019e-006    +9.1649190e-007
+5.2992000e+004    +1.0091613e-006    +9.2626726e-007
+5.3120000e+004    +1.0037312e-006    +9.3446579e-007
+5.3248000e+004    +1.0194593e-006    +8.8801545e-007
+5.3376000e+004    +1.0082742e-006    +9.3204244e-007
+5.3504000e+004    +1.0327409e-006    +9.6483848e-007
+5.3632000e+004    +1.0618040e-006    +9.7348322e-007
+5.3760000e+004    +9.7986037e-007    +9.7079987e-007
+5.3888000e+004    +9.6907991e-007    +9.3745729e-007
+5.4016000e+004    +9.5870848e-007    +9.2618080e-007
+5.4144000e+004    +9.7315728e-007    +8.8064593e-007
+5.4272000e+004    +9.6185465e-007    +9.5821076e-007
+5.4400000e+004    +9.6886185e-007    +1.0119307e-006
+5.4528000e+004    +9.5898645e-007    +1.0543052e-006
+5.4656000e+004    +9.9675856e-007    +9.8625878e-007
+5.4784000e+004    +1.0049630e-006    +9.8827718e-007
+5.4912000e+004    +9.7961731e-007    +1.0607705e-006
+5.5040000e+004    +1.0091791e-006    +1.0280775e-006
+5.5168000e+004    +1.1127637e-006    +9.9470981e-007
+5.5296000e+004    +1.0400063e-006    +9.1191879e-007
+5.5424000e+004    +1.0168301e-006    +9.4855437e-007
+5.5552000e+004    +1.2173404e-006    +1.0092344e-006
+5.5680000e+004    +1.1348459e-006    +1.1790941e-006
+5.5808000e+004    +1.0189334e-006    +1.0800419e-006
+5.5936000e+004    +9.5905807e-007    +1.0188294e-006
+5.6064000e+004    +9.2975193e-007    +1.0112732e-006
+5.6192000e+004    +9.2055819e-007    +9.5812027e-007
+5.6320000e+004    +8.9577412e-007    +9.4172924e-007
+5.6448000e+004    +9.1265099e-007    +1.0010634e-006
+5.6576000e+004    +9.0421287e-007    +1.0557939e-006
+5.6704000e+004    +9.2947124e-007    +1.0055535e-006
+5.6832000e+004    +9.1499180e-007    +1.0057047e-006
+5.6960000e+004    +9.3502922e-007    +1.1323851e-006
+5.7088000e+004    +9.5617713e-007    +1.0765044e-006
+5.7216000e+004    +9.1926842e-007    +1.0681474e-006
+5.7344000e+004    +8.6064961e-007    +1.0478818e-006
+5.7472000e+004    +8.7877595e-007    +1.0744981e-006
+5.7600000e+004    +9.1706465e-007    +1.1496205e-006
+5.7728000e+004    +8.9176348e-007    +1.0903793e-006
+5.7856000e+004    +8.8858604e-007    +1.0568945e-006
+5.7984000e+004    +9.3500870e-007    +1.0831390e-006
+5.8112000e+004    +8.9914113e-007    +1.0731210e-006
+5.8240000e+004    +8.8074262e-007    +1.0751850e-006
+5.8368000e+004    +8.9134448e-007    +1.1025553e-006
+5.8496000e+004    +8.7540735e-007    +1.1766950e-006
+5.8624000e+004    +8.3305440e-007    +1.1591684e-006
+5.8752000e+004    +8.4260842e-007    +1.0904752e-006
+5.8880000e+004    +8.6364560e-007    +1.0242569e-006
+5.9008000e+004    +8.3152105e-007    +1.0035560e-006
+5.9136000e+004    +8.4179840e-007    +1.0234677e-006
+5.9264000e+004    +8.5989871e-007    +1.0832639e-006
+5.9392000e+004    +9.2610151e-007    +1.1267905e-006
+5.9520000e+004    +9.0665446e-007    +1.0516266e-006
+5.9648000e+004    +8.7379601e-007    +1.0944767e-006
+5.9776000e+004    +8.7038916e-007    +1.1506636e-006
+5.9904000e+004    +8.5818965e-007    +1.2050713e-006
+6.0032000e+004    +8.5703709e-007    +1.1413174e-006
+6.0160000e+004    +8.4480206e-007    +1.1766059e-006
+6.0288000e+004    +8.4225138e-007    +1.1817004e-006
+6.0416000e+004    +8.7769791e-007    +1.1272149e-006
+6.0544000e+004    +8.5433504e-007    +1.2273254e-006
+6.0672000e+004    +8.3704361e-007    +1.1914035e-006
+6.0800000e+004    +8.3472349e-007    +1.1466329e-006
+6.0928000e+004    +8.4564095e-007    +1.1584177e-006
+6.1056000e+004    +8.6135293e-007    +1.1363945e-006
+6.1184000e+004    +8.3678083e-007    +1.1479115e-006
+6.1312000e+004    +8.0068986e-007    +1.1239066e-006
+6.1440000e+004    +7.9932659e-007    +1.0511129e-006
+6.1568000e+004    +8.2773533e-007    +1.0409191e-006
+6.1696000e+004    +8.2354723e-007    +1.1505259e-006
+6.1824000e+004    +8.1160852e-007    +1.2116944e-006
+6.1952000e+004    +7.8958510e-007    +1.1908803e-006
+6.2080000e+004    +7.9955919e-007    +1.1627490e-006
+6.2208000e+004    +7.8328264e-007    +1.2647926e-006
+6.2336000e+004    +7.6117414e-007    +1.3058847e-006
+6.2464000e+004    +7.5587735e-007    +1.3073494e-006
+6.2592000e+004    +8.1773652e-007    +1.2248523e-006
+6.2720000e+004    +8.1024177e-007    +1.2136690e-006
+6.2848000e+004    +7.6829684e-007    +1.1236549e-006
+6.2976000e+004    +7.7219295e-007    +1.1890852e-006
+6.3104000e+004    +7.8707069e-007    +1.2226569e-006
+6.3232000e+004    +7.6190327e-007    +1.2089475e-006
+6.3360000e+004    +7.9111066e-007    +1.1936438e-006
+6.3488000e+004    +8.0462655e-007    +1.1352048e-006
+6.3616000e+004    +8.2481324e-007    +1.2397408e-006
+6.3744000e+004    +8.1205417e-007    +1.2762200e-006
+6.3872000e+004    +7.5012480e-007    +1.1503882e-006
+6.4000000e+004    +7.3629622e-007    +1.1752296e-006
+6.4128000e+004    +7.6761472e-007    +1.2219067e-006
+6.4256000e+004    +7.7703226e-007    +1.3266081e-006
+6.4384000e+004    +7.8285706e-007    +1.4049357e-006
+6.4512000e+004    +7.1759564e-007    +1.4059557e-006
+6.4640000e+004    +7.0891872e-007    +1.2979569e-006
+6.4768000e+004    +7.1146695e-007    +1.3302852e-006
+6.4896000e+004    +7.2561272e-007    +1.3391468e-006
+6.5024000e+004    +7.0925267e-007    +1.1974203e-006
+6.5152000e+004    +7.1591779e-007    +1.1554617e-006
+6.5280000e+004    +7.5949703e-007    +1.2560796e-006
+6.5408000e+004    +8.0305995e-007    +1.3962195e-006
+6.5536000e+004    +7.8047117e-007    +1.3324897e-006
+6.5664000e+004    +7.6320600e-007    +1.3626226e-006
+6.5792000e+004    +7.5610814e-007    +1.3549006e-006
+6.5920000e+004    +7.4207958e-007    +1.3714059e-006
+6.6048000e+004    +6.9646273e-007    +1.3743905e-006
+6.6176000e+004    +6.9972486e-007    +1.3559425e-006
+6.6304000e+004    +7.4680969e-007    +1.3131209e-006
+6.6432000e+004    +7.6654169e-007    +1.2758039e-006
+6.6560000e+004    +7.7298012e-007    +1.3076724e-006
+6.6688000e+004    +7.4194355e-007    +1.2819866e-006
+6.6816000e+004    +7.0200497e-007    +1.3014674e-006
+6.6944000e+004    +6.9105835e-007    +1.3166306e-006
+6.7072000e+004    +6.9354473e-007    +1.3414558e-006
+6.7200000e+004    +7.1616779e-007    +1.4222659e-006
+6.7328000e+004    +7.1595082e-007    +1.3791977e-006
+6.7456000e+004    +7.1377826e-007    +1.3943888e-006
+6.7584000e+004    +6.8500964e-007    +1.4422212e-006
+6.7712000e+004    +7.0454229e-007    +1.3049888e-006
+6.7840000e+004    +7.0453302e-007    +1.4757313e-006
+6.7968000e+004    +7.1334733e-007    +1.4402290e-006
+6.8096000e+004    +7.0457787e-007    +1.3614501e-006
+6.8224000e+004    +7.1421647e-007    +1.3034480e-006
+6.8352000e+004    +7.0821619e-007    +1.4451790e-006
+6.8480000e+004    +6.9897470e-007    +1.4740214e-006
+6.8608000e+004    +7.2688539e-007    +1.3974773e-006
+6.8736000e+004    +6.8700564e-007    +1.3468115e-006
+6.8864000e+004    +6.7286743e-007    +1.2870157e-006
+6.8992000e+004    +6.7500218e-007    +1.2803674e-006
+6.9120000e+004    +6.9107051e-007    +1.4032830e-006
+6.9248000e+004    +7.2374291e-007    +1.2917271e-006
+6.9376000e+004    +7.3059232e-007    +1.3616176e-006
+6.9504000e+004    +6.6646987e-007    +1.3957965e-006
+6.9632000e+004    +6.6889419e-007    +1.4904779e-006
+6.9760000e+004    +6.8694533e-007    +1.5008993e-006
+6.9888000e+004    +7.2631019e-007    +1.3668781e-006
+7.0016000e+004    +6.8521354e-007    +1.3859679e-006
+7.0144000e+004    +8.4904229e-007    +1.5807719e-006
+7.0272000e+004    +1.0187231e-006    +1.7300781e-006
+7.0400000e+004    +7.2442663e-007    +1.4115658e-006
+7.0528000e+004    +7.0038743e-007    +1.4411195e-006
+7.0656000e+004    +7.0906117e-007    +1.4605805e-006
+7.0784000e+004    +8.2776444e-007    +1.5946254e-006
+7.0912000e+004    +7.2067974e-007    +1.4701810e-006
+7.1040000e+004    +6.7071363e-007    +1.5242923e-006
+7.1168000e+004    +6.6536148e-007    +1.5335402e-006
+7.1296000e+004    +6.4476791e-007    +1.4452949e-006
+7.1424000e+004    +6.6923729e-007    +1.3813162e-006
+7.1552000e+004    +6.5765471e-007    +1.6011587e-006
+7.1680000e+004    +6.3209478e-007    +1.6854525e-006
+7.1808000e+004    +6.2441603e-007    +1.5545668e-006
+7.1936000e+004    +6.0890727e-007    +1.5131834e-006
+7.2064000e+004    +6.4076573e-007    +1.5047340e-006
+7.2192000e+004    +6.6218468e-007    +1.5633356e-006
+7.2320000e+004    +6.7165394e-007    +1.5042483e-006
+7.2448000e+004    +6.8156538e-007    +1.5688156e-006
+7.2576000e+004    +6.5297002e-007    +1.5119396e-006
+7.2704000e+004    +6.7725972e-007    +1.4685031e-006
+7.2832000e+004    +6.6073073e-007    +1.4994679e-006
+7.2960000e+004    +6.6309411e-007    +1.4085066e-006
+7.3088000e+004    +6.5251351e-007    +1.3572710e-006
+7.3216000e+004    +6.4891765e-007    +1.5268686e-006
+7.3344000e+004    +6.4005980e-007    +1.4393611e-006
+7.3472000e+004    +6.4743949e-007    +1.4060082e-006
+7.3600000e+004    +6.5323246e-007    +1.4951623e-006
+7.3728000e+004    +6.4023476e-007    +1.4534696e-006
+7.3856000e+004    +6.5692507e-007    +1.4314180e-006
+7.3984000e+004    +6.5981004e-007    +1.3476546e-006
+7.4112000e+004    +6.6478754e-007    +1.3566765e-006
+7.4240000e+004    +6.4153585e-007    +1.4259607e-006
+7.4368000e+004    +6.3659405e-007    +1.4386927e-006
+7.4496000e+004    +6.5723674e-007    +1.6574101e-006
+7.4624000e+004    +6.4561374e-007    +1.6384212e-006
+7.4752000e+004    +6.3911386e-007    +1.6144443e-006
+7.4880000e+004    +6.3285864e-007    +1.6624293e-006
+7.5008000e+004    +6.1131141e-007    +1.5702511e-006
+7.5136000e+004    +6.2686973e-007    +1.5982273e-006
+7.5264000e+004    +6.5275998e-007    +1.6162711e-006
+7.5392000e+004    +6.2309289e-007    +1.4436058e-006
+7.5520000e+004    +6.1777405e-007    +1.4796803e-006
+7.5648000e+004    +6.6783531e-007    +1.5810966e-006
+7.5776000e+004    +6.6296741e-007    +1.5881917e-006
+7.5904000e+004    +6.5543588e-007    +1.5806157e-006
+7.6032000e+004    +6.1749125e-007    +1.6230590e-006
+7.6160000e+004    +6.2722637e-007    +1.5339174e-006
+7.6288000e+004    +6.4669922e-007    +1.4466443e-006
+7.6416000e+004    +5.9758031e-007    +1.5275779e-006
+7.6544000e+004    +5.9178035e-007    +1.5976501e-006
+7.6672000e+004    +6.0342256e-007    +1.5590640e-006
+7.6800000e+004    +6.2588492e-007    +4.6219420e-006
+7.6928000e+004    +6.3274956e-007    +8.8539173e-006
+7.7056000e+004    +6.4562295e-007    +4.7002304e-006
+7.7184000e+004    +6.3097423e-007    +1.6003713e-006
+7.7312000e+004    +6.2141834e-007    +1.6148716e-006
+7.7440000e+004    +5.6867634e-007    +1.6712285e-006
+7.7568000e+004    +6.9559155e-007    +1.6657290e-006
+7.7696000e+004    +1.0688174e-006    +1.7970907e-006
+7.7824000e+004    +7.6009178e-007    +1.7614473e-006
+7.7952000e+004    +6.2736484e-007    +1.6248688e-006
+7.8080000e+004    +6.2240298e-007    +1.6834255e-006
+7.8208000e+004    +5.7565637e-007    +1.7040601e-006
+7.8336000e+004    +6.3564488e-007    +1.6284104e-006
+7.8464000e+004    +6.1623757e-007    +1.6042559e-006
+7.8592000e+004    +5.8390947e-007    +1.7897343e-006
+7.8720000e+004    +5.8892766e-007    +1.8344925e-006
+7.8848000e+004    +5.9903141e-007    +1.6467027e-006
+7.8976000e+004    +6.0120846e-007    +1.7688020e-006
+7.9104000e+004    +6.1658210e-007    +1.7167173e-006
+7.9232000e+004    +5.7948978e-007    +1.5908969e-006
+7.9360000e+004    +6.0291921e-007    +1.6692882e-006
+7.9488000e+004    +6.1046296e-007    +1.7559015e-006
+7.9616000e+004    +5.8235554e-007    +1.8117236e-006
+7.9744000e+004    +5.9822236e-007    +1.6918211e-006
+7.9872000e+004    +6.1170556e-007    +1.8355987e-006
+8.0000000e+004    +6.0365778e-007    +1.6796887e-006
+8.0128000e+004    +6.0912322e-007    +1.6436103e-006
+8.0256000e+004    +6.1104566e-007    +1.7283694e-006
+8.0384000e+004    +6.2247955e-007    +1.6833312e-006
+8.0512000e+004    +5.8290186e-007    +1.7112372e-006
+8.0640000e+004    +5.8016462e-007    +1.6002027e-006
+8.0768000e+004    +5.8808189e-007    +1.6854802e-006
+8.0896000e+004    +6.1617061e-007    +1.7648543e-006
+8.1024000e+004    +5.4268236e-007    +1.7868558e-006
+8.1152000e+004    +5.6002153e-007    +1.6203276e-006
+8.1280000e+004    +5.7423978e-007    +1.7059901e-006
+8.1408000e+004    +5.5543433e-007    +1.6633239e-006
+8.1536000e+004    +5.6075618e-007    +1.8179345e-006
+8.1664000e+004    +6.0510439e-007    +1.8286205e-006
+8.1792000e+004    +5.7485107e-007    +1.6700875e-006
+8.1920000e+004    +5.5351302e-007    +1.7482126e-006
+8.2048000e+004    +5.5305071e-007    +1.8145863e-006
+8.2176000e+004    +6.0175591e-007    +1.7153644e-006
+8.2304000e+004    +6.0444501e-007    +1.8114132e-006
+8.2432000e+004    +5.7636470e-007    +1.8580515e-006
+8.2560000e+004    +5.7444157e-007    +1.8651850e-006
+8.2688000e+004    +5.4482030e-007    +1.7481416e-006
+8.2816000e+004    +5.6039238e-007    +1.6819050e-006
+8.2944000e+004    +5.4051606e-007    +1.6187628e-006
+8.3072000e+004    +5.4208806e-007    +1.6722196e-006
+8.3200000e+004    +5.7428770e-007    +1.7246028e-006
+8.3328000e+004    +5.5738622e-007    +1.8428867e-006
+8.3456000e+004    +5.5309141e-007    +1.8061346e-006
+8.3584000e+004    +5.6055609e-007    +1.7596128e-006
+8.3712000e+004    +5.3816393e-007    +1.7708579e-006
+8.3840000e+004    +4.8866110e-007    +1.7933635e-006
+8.3968000e+004    +4.9141369e-007    +1.6857838e-006
+8.4096000e+004    +5.1275504e-007    +1.8631750e-006
+8.4224000e+004    +5.2868148e-007    +1.8151084e-006
+8.4352000e+004    +5.3577207e-007    +1.7874621e-006
+8.4480000e+004    +5.3855524e-007    +1.7596747e-006
+8.4608000e+004    +5.0225293e-007    +1.7545544e-006
+8.4736000e+004    +5.2394876e-007    +1.7682487e-006
+8.4864000e+004    +5.2188415e-007    +1.7961872e-006
+8.4992000e+004    +5.3026855e-007    +1.8044617e-006
+8.5120000e+004    +5.3367671e-007    +1.7987351e-006
+8.5248000e+004    +5.2394876e-007    +1.8817601e-006
+8.5376000e+004    +5.1675079e-007    +1.8827708e-006
+8.5504000e+004    +5.3070715e-007    +1.6902188e-006
+8.5632000e+004    +5.0065245e-007    +1.6010779e-006
+8.5760000e+004    +4.9581610e-007    +1.6970769e-006
+8.5888000e+004    +4.7909469e-007    +1.6783595e-006
+8.6016000e+004    +4.7707692e-007    +1.7001112e-006
+8.6144000e+004    +4.6376647e-007    +1.8701187e-006
+8.6272000e+004    +4.9224695e-007    +1.8433825e-006
+8.6400000e+004    +4.8739440e-007    +1.6988722e-006
+8.6528000e+004    +4.5128351e-007    +1.7002213e-006
+8.6656000e+004    +4.6496257e-007    +1.7036634e-006
+8.6784000e+004    +4.9416769e-007    +1.6969018e-006
+8.6912000e+004    +4.6025062e-007    +1.6984264e-006
+8.7040000e+004    +4.5672232e-007    +1.8549267e-006
+8.7168000e+004    +4.6765769e-007    +1.7457593e-006
+8.7296000e+004    +4.7014174e-007    +1.7714414e-006
+8.7424000e+004    +4.7354905e-007    +1.7733446e-006
+8.7552000e+004    +4.7377165e-007    +1.8426783e-006
+8.7680000e+004    +4.6617151e-007    +1.8970949e-006
+8.7808000e+004    +4.9137969e-007    +1.9742345e-006
+8.7936000e+004    +4.9973858e-007    +1.9499878e-006
+8.8064000e+004    +5.1484625e-007    +1.9414106e-006
+8.8192000e+004    +5.2955062e-007    +1.7182032e-006
+8.8320000e+004    +5.0100437e-007    +1.7043295e-006
+8.8448000e+004    +5.0444203e-007    +1.7629254e-006
+8.8576000e+004    +4.6597143e-007    +1.8101050e-006
+8.8704000e+004    +4.3256100e-007    +1.8429009e-006
+8.8832000e+004    +4.2607925e-007    +1.8259782e-006
+8.8960000e+004    +4.6522658e-007    +1.7721028e-006
+8.9088000e+004    +4.8274654e-007    +1.8711272e-006
+8.9216000e+004    +4.8993434e-007    +1.9018562e-006
+8.9344000e+004    +4.6334097e-007    +1.8113954e-006
+8.9472000e+004    +4.6592589e-007    +1.7274948e-006
+8.9600000e+004    +4.9076613e-007    +1.6899795e-006
+8.9728000e+004    +4.7200683e-007    +1.7889975e-006
+8.9856000e+004    +4.3409253e-007    +1.7298350e-006
+8.9984000e+004    +4.4295678e-007    +1.7901823e-006
+9.0112000e+004    +4.9825547e-007    +1.7634287e-006
+9.0240000e+004    +4.7090012e-007    +1.6809284e-006
+9.0368000e+004    +4.8513493e-007    +1.7506885e-006
+9.0496000e+004    +4.9850661e-007    +1.6848956e-006
+9.0624000e+004    +4.4700994e-007    +1.6974999e-006
+9.0752000e+004    +4.4327155e-007    +1.7707724e-006
+9.0880000e+004    +4.6851906e-007    +1.8627312e-006
+9.1008000e+004    +4.5481525e-007    +1.9110830e-006
+9.1136000e+004    +4.3597876e-007    +1.8777356e-006
+9.1264000e+004    +4.0389139e-007    +1.9316280e-006
+9.1392000e+004    +4.3081772e-007    +1.8588086e-006
+9.1520000e+004    +4.3974882e-007    +1.7282194e-006
+9.1648000e+004    +4.2455176e-007    +1.6322768e-006
+9.1776000e+004    +3.9623589e-007    +1.7446268e-006
+9.1904000e+004    +4.5926174e-007    +1.7322393e-006
+9.2032000e+004    +4.7246206e-007    +1.7821221e-006
+9.2160000e+004    +4.4140708e-007    +1.9366375e-006
+9.2288000e+004    +4.4999263e-007    +1.9013738e-006
+9.2416000e+004    +4.2479422e-007    +1.9079591e-006
+9.2544000e+004    +4.4098806e-007    +1.7967139e-006
+9.2672000e+004    +4.4762140e-007    +1.7408191e-006
+9.2800000e+004    +4.3910617e-007    +1.9013029e-006
+9.2928000e+004    +4.5698567e-007    +1.9295528e-006
+9.3056000e+004    +4.6422241e-007    +1.7979295e-006
+9.3184000e+004    +4.4000046e-007    +1.7310301e-006
+9.3312000e+004    +4.3537364e-007    +1.8373549e-006
+9.3440000e+004    +4.1885494e-007    +1.8416104e-006
+9.3568000e+004    +3.8409934e-007    +1.8174455e-006
+9.3696000e+004    +3.9326179e-007    +1.7789082e-006
+9.3824000e+004    +4.0407991e-007    +1.8005708e-006
+9.3952000e+004    +3.9832483e-007    +1.8278597e-006
+9.4080000e+004    +3.9556213e-007    +1.8476113e-006
+9.4208000e+004    +4.0702051e-007    +1.8702009e-006
+9.4336000e+004    +4.2040671e-007    +1.8576823e-006
+9.4464000e+004    +4.4815644e-007    +1.8686615e-006
+9.4592000e+004    +4.2077198e-007    +1.8352117e-006
+9.4720000e+004    +3.7117860e-007    +1.9186834e-006
+9.4848000e+004    +3.4833297e-007    +2.0184964e-006
+9.4976000e+004    +3.5842638e-007    +1.8463601e-006
+9.5104000e+004    +4.1437266e-007    +1.6997491e-006
+9.5232000e+004    +4.3368757e-007    +1.7072568e-006
+9.5360000e+004    +4.5158387e-007    +1.8090877e-006
+9.5488000e+004    +4.3364616e-007    +1.7325513e-006
+9.5616000e+004    +3.8577090e-007    +1.6866817e-006
+9.5744000e+004    +3.6198776e-007    +1.7558070e-006
+9.5872000e+004    +3.5635335e-007    +1.8569991e-006
+9.6000000e+004    +3.6564154e-007    +1.9066399e-006
+9.6128000e+004    +3.3352913e-007    +1.9854292e-006
+9.6256000e+004    +3.1910662e-007    +1.8921211e-006
+9.6384000e+004    +3.1967227e-007    +1.6737148e-006
+9.6512000e+004    +3.4246446e-007    +1.7129873e-006
+9.6640000e+004    +3.5886779e-007    +1.6668376e-006
+9.6768000e+004    +3.7499308e-007    +1.8253949e-006
+9.6896000e+004    +3.4372869e-007    +1.9684899e-006
+9.7024000e+004    +3.4733199e-007    +1.9306483e-006
+9.7152000e+004    +3.3247721e-007    +1.6900036e-006
+9.7280000e+004    +3.1740768e-007    +1.7062224e-006
+9.7408000e+004    +3.1903375e-007    +1.9040897e-006
+9.7536000e+004    +3.3042144e-007    +2.0157677e-006
+9.7664000e+004    +3.4294345e-007    +1.7238305e-006
+9.7792000e+004    +3.8157270e-007    +1.6280010e-006
+9.7920000e+004    +4.1000050e-007    +1.5237468e-006
+9.8048000e+004    +3.7874858e-007    +1.7115285e-006
+9.8176000e+004    +3.7871365e-007    +1.8260764e-006
+9.8304000e+004    +3.5998542e-007    +1.8309410e-006
+9.8432000e+004    +3.5419077e-007    +1.7971539e-006
+9.8560000e+004    +3.6568568e-007    +1.6957787e-006
+9.8688000e+004    +3.6844031e-007    +1.7595722e-006
+9.8816000e+004    +3.4314724e-007    +1.8291888e-006
+9.8944000e+004    +3.4966877e-007    +1.6862484e-006
+9.9072000e+004    +3.4422683e-007    +1.7156018e-006
+9.9200000e+004    +3.4647348e-007    +1.8693202e-006
+9.9328000e+004    +3.4057385e-007    +1.8536380e-006
+9.9456000e+004    +3.1083019e-007    +1.8197558e-006
+9.9584000e+004    +3.0830682e-007    +1.7162537e-006
+9.9712000e+004    +3.3806023e-007    +1.8110413e-006
+9.9840000e+004    +3.1141843e-007    +1.7848557e-006
+9.9968000e+004    +2.9352989e-007    +1.8071204e-006
+1.0009600e+005    +3.0073846e-007    +1.7416565e-006
+1.0022400e+005    +3.1334736e-007    +1.7340680e-006
+1.0035200e+005    +3.1820394e-007    +1.7071275e-006
+1.0048000e+005    +3.0248765e-007    +1.7425670e-006
+1.0060800e+005    +2.9240277e-007    +1.6415021e-006
+1.0073600e+005    +2.8205085e-007    +1.7220011e-006
+1.0086400e+005    +2.7315971e-007    +1.8418733e-006
+1.0099200e+005    +2.9087283e-007    +1.7488787e-006
+1.0112000e+005    +3.0699621e-007    +1.7490439e-006
+1.0124800e+005    +3.0361795e-007    +1.8021767e-006
+1.0137600e+005    +2.8363277e-007    +1.7056061e-006
+1.0150400e+005    +2.8582673e-007    +1.7961952e-006
+1.0163200e+005    +2.8954634e-007    +1.7674761e-006
+1.0176000e+005    +2.9197193e-007    +1.7038393e-006
+1.0188800e+005    +2.7804870e-007    +1.6287430e-006
+1.0201600e+005    +2.8085677e-007    +1.5459184e-006
+1.0214400e+005    +2.7195640e-007    +1.6543412e-006
+1.0227200e+005    +2.7383234e-007    +1.6299255e-006
