# Comments from moku data file:% Moku:Phasemeter 
# 
# % Ch 1 - DC coupling, 50 Ohm impedance, 1 V range
# 
# % Ch 1 bandwidth = 1.0000000000e+04 (Hz)
# 
# % Acquisition rate: 1.5625000000e+04 Hz
# 
# % External 10 MHz clock
# 
# % Acquired 2020-02-07 T 15:22:30 -0800
# 
# % Time, Set frequency 1 (Hz), Frequency 1 (Hz), Phase 1 (cyc), I 1 (V), Q 1 (V)
# 
# #########################################################
# ASD calculated by mokuReadFreqNoise.py
# Frequency [Hz]         Freq ASD1 [Hz/rtHz]      Freq ASDlb1 [Hz/rtHz]    Freq ASDub1 [Hz/rtHz]    
# 
0.000000000000000000e+00 2.575417596956564239e+02 4.064488078190078824e+01 4.611627127382024014e+02
1.000000000000000056e-01 2.879972798031928960e+02 1.935605925053953058e+02 5.195056918291170405e+02
2.000000000000000111e-01 2.674631820650149052e+02 2.078074370903772206e+02 4.388028660239638157e+02
3.000000000000000444e-01 2.644833649687467414e+02 1.031102448587093505e+02 4.514415152957661803e+02
4.000000000000000222e-01 2.679087617319089532e+02 1.610079169048903793e+02 3.870384552349781870e+02
5.000000000000000000e-01 1.287815009021801700e+02 7.594199653204610456e+01 2.233007181394676479e+02
6.000000000000000888e-01 1.880640149798113896e+02 6.144658179773232831e+01 2.955841090260719852e+02
7.000000000000000666e-01 1.894060568358038097e+02 1.223352438867687653e+02 2.551132495596216359e+02
8.000000000000000444e-01 2.078598587558595057e+02 9.698795612320260773e+01 2.417339928258931252e+02
9.000000000000000222e-01 1.412537582821268813e+02 8.965793742097166330e+01 2.286952375975017731e+02
1.000000000000000000e+00 1.414187373335854261e+02 8.649427186236405873e+01 2.059903777729473404e+02
1.100000000000000089e+00 1.275818617316364936e+02 6.594361038933398333e+01 1.542363502933538086e+02
1.200000000000000178e+00 1.241310617270673191e+02 8.705374062207800989e+01 1.422420111889203156e+02
1.300000000000000044e+00 1.260483148595103984e+02 5.943208803450520605e+01 1.588315079269352168e+02
1.400000000000000133e+00 8.311464640369261758e+01 3.641386594570803226e+01 1.701747766140670990e+02
1.500000000000000000e+00 7.937918839734453513e+01 4.408629282259585125e+01 1.092434132868232126e+02
1.600000000000000089e+00 6.633882272500720489e+01 3.412786476417790027e+01 1.221797601531978614e+02
1.700000000000000178e+00 5.735216100607497935e+01 4.311035550973248576e+01 1.275015089040550009e+02
1.800000000000000044e+00 7.751868021825478650e+01 5.919442466548676407e+01 1.681125033240678306e+02
1.900000000000000133e+00 1.540025370539158871e+02 8.769009705186601877e+01 2.006557151192020001e+02
2.000000000000000000e+00 1.069127616432038792e+02 5.985863142306269680e+01 1.614810524894565731e+02
2.100000000000000089e+00 1.019709744922459436e+02 5.281685568678508957e+01 1.231348141848863236e+02
2.200000000000000178e+00 8.214833002591963407e+01 6.185135199381127791e+01 1.820705716407687760e+02
2.300000000000000266e+00 1.300466094370103747e+02 3.850166822912899534e+01 1.915506818239109066e+02
2.400000000000000355e+00 6.529175338709073628e+01 2.962416269501482091e+01 2.036252041178564696e+02
2.500000000000000000e+00 1.007686339062393017e+02 5.395657624209770376e+01 2.042022436777794496e+02
2.600000000000000089e+00 8.223806965502268440e+01 5.563506866076723156e+01 1.677891304397176953e+02
2.700000000000000178e+00 1.142509572876352593e+02 9.099720008291534157e+01 1.524605346800106247e+02
2.800000000000000266e+00 1.353294772618748141e+02 4.512947450866157340e+01 1.788357510340813690e+02
2.900000000000000355e+00 1.072045735292532953e+02 4.355608574164521229e+01 1.828917081954215575e+02
3.000000000000000000e+00 7.663000719299883201e+01 3.844934763329939642e+01 1.276182914075121033e+02
3.100000000000000089e+00 5.014815692909353118e+01 3.330219708069400042e+01 1.032964775970781233e+02
3.200000000000000178e+00 6.040189563767724934e+01 4.410894580356238492e+01 1.045728670290120164e+02
3.300000000000000266e+00 8.754022978227413887e+01 6.108848815395569432e+01 1.139740426370125306e+02
3.400000000000000355e+00 6.781096958563128396e+01 1.795857764966510217e+01 1.085207966685311476e+02
3.500000000000000000e+00 4.948165585872006034e+01 2.564621901017438077e+01 8.580572403963020633e+01
3.600000000000000089e+00 3.899414925755248618e+01 2.234918557479145207e+01 1.028806292122361583e+02
3.700000000000000178e+00 4.533278584001735112e+01 2.953721473033346356e+01 9.684490283165156654e+01
3.800000000000000266e+00 5.494481575561066222e+01 2.030098878739592294e+01 1.009792521405467483e+02
3.900000000000000355e+00 5.040562625077993886e+01 3.297454457658214722e+01 7.630132093630625434e+01
4.000000000000000000e+00 6.406700564039874735e+01 4.226496141439437793e+01 9.488495816774596392e+01
4.100000000000000533e+00 7.990247402289962508e+01 3.796271295331867890e+01 9.316850920560446525e+01
4.200000000000000178e+00 4.529891036664574244e+01 3.152043368928386968e+01 8.810076031337075619e+01
4.299999999999999822e+00 6.408040345500953094e+01 4.679433109099743859e+01 7.643280007392615971e+01
4.400000000000000355e+00 5.578926084243342132e+01 2.496572189906092731e+01 9.013583480483970334e+01
4.500000000000000000e+00 2.683427077840539710e+01 1.674131744519215914e+01 8.048022468655292982e+01
4.600000000000000533e+00 4.068420241192053055e+01 2.728535853008936130e+01 6.672002653229802149e+01
4.700000000000000178e+00 3.467525071525898284e+01 1.967255906860652814e+01 5.754037049311106955e+01
4.800000000000000711e+00 4.729890665193330790e+01 1.292090095732088173e+01 6.295711209632337102e+01
4.900000000000000355e+00 4.032530186419898399e+01 2.203468779481568518e+01 5.799806011261262029e+01
5.000000000000000000e+00 5.302489104992597646e+01 2.238854186362773291e+01 7.748568976854782875e+01
5.100000000000000533e+00 5.852825728168030395e+01 3.864232148853980675e+01 6.681533341579303453e+01
5.200000000000000178e+00 3.249714818819659712e+01 1.341427179605475928e+01 6.716131283346985015e+01
5.300000000000000711e+00 2.686680993183448862e+01 1.396619143123451323e+01 5.102894203790386740e+01
5.400000000000000355e+00 4.490698823255452510e+01 2.572440287098626754e+01 7.063194236791296987e+01
5.500000000000000000e+00 4.529286710704599273e+01 2.319318175217223299e+01 6.035350149882683723e+01
5.600000000000000533e+00 4.045438201990139504e+01 2.120993640096094168e+01 5.263944860401841197e+01
5.700000000000000178e+00 4.078172273841401108e+01 2.818907993039612236e+01 5.514586280110667360e+01
5.800000000000000711e+00 3.742055162976098615e+01 1.906892503550366058e+01 5.312267255830734314e+01
5.900000000000000355e+00 3.543069094845636613e+01 2.827038265796750238e+01 5.270936516757068802e+01
6.000000000000000000e+00 4.220048920727933250e+01 2.465544969846739676e+01 5.194144898508400132e+01
6.100000000000000533e+00 2.698852848271856075e+01 1.486734453690584878e+01 4.162820351627689774e+01
6.200000000000000178e+00 2.587339912592341662e+01 2.314661672791398317e+01 4.312463461004653453e+01
6.300000000000000711e+00 3.494606788283648058e+01 2.238030441655625324e+01 5.794569164932197225e+01
6.400000000000000355e+00 3.776255406012508331e+01 2.187846443195425650e+01 7.327441257239330241e+01
6.500000000000000000e+00 3.009320526233156201e+01 1.340555266507094423e+01 5.678158433514589376e+01
6.600000000000000533e+00 2.815979869330969976e+01 1.418625355923297882e+01 3.310087560710471877e+01
6.700000000000000178e+00 2.332506401775325955e+01 1.623216770941860432e+01 4.538877032429746805e+01
6.800000000000000711e+00 3.067429427219717653e+01 1.914273992020435600e+01 4.836561342395487628e+01
6.900000000000000355e+00 2.440718952124431596e+01 1.448546216589728175e+01 5.095502780939273890e+01
7.000000000000000000e+00 2.044509184844462268e+01 1.250916779643970322e+01 4.546996683680293216e+01
7.100000000000000533e+00 2.281560393582785196e+01 1.409650525264601306e+01 3.362792450492714380e+01
7.200000000000000178e+00 3.387345729584351517e+01 1.114899231061784057e+01 4.576039793079329598e+01
7.300000000000000711e+00 3.044922906176151045e+01 2.295011099412092292e+01 4.270511585361518314e+01
7.400000000000000355e+00 3.060008977556805831e+01 1.994660181714323244e+01 4.516209089033896618e+01
7.500000000000000000e+00 2.926653486165843887e+01 2.037839315724082567e+01 4.283701366158509671e+01
7.600000000000000533e+00 2.485031634183609839e+01 1.024596976776581769e+01 4.092625504685306481e+01
7.700000000000000178e+00 2.658972746070361737e+01 1.696126130253322017e+01 4.298193418215076633e+01
7.800000000000000711e+00 2.468817454996387539e+01 1.620846170066668535e+01 3.354022662166144642e+01
7.900000000000000355e+00 2.339264222569574514e+01 1.322908206272581388e+01 3.140473962962480670e+01
8.000000000000000000e+00 2.773178454707383978e+01 1.776120111932513268e+01 3.888972474468545215e+01
8.099999999999999645e+00 2.434624521157006427e+01 1.908423623790972812e+01 4.218143033697089805e+01
8.200000000000001066e+00 2.397808098312180292e+01 1.577007936721143899e+01 3.237806480703265066e+01
8.300000000000000711e+00 2.212623523912396806e+01 1.904094586851078930e+01 3.417210529601109670e+01
8.400000000000000355e+00 2.511759016759176077e+01 1.618379839334000536e+01 3.269739427994883130e+01
8.500000000000000000e+00 1.705855708542267379e+01 1.235106994218850218e+01 2.706505913596112478e+01
8.599999999999999645e+00 1.343474860411737559e+01 8.386012261644966159e+00 2.843041374748723626e+01
8.700000000000001066e+00 2.151374584723135541e+01 1.111744852778916304e+01 2.612079848689344530e+01
8.800000000000000711e+00 2.030229984910542740e+01 1.040157071178972892e+01 2.876801330613568197e+01
8.900000000000000355e+00 1.585168586670807755e+01 7.861210210025874723e+00 2.907597606137444401e+01
9.000000000000000000e+00 2.172760750485464243e+01 1.538770877545859506e+01 2.672216993749294289e+01
9.099999999999999645e+00 2.147664500490776263e+01 1.050499777248791666e+01 3.278831461599790487e+01
9.200000000000001066e+00 2.141290546680018636e+01 3.924084814010091016e+00 3.823913647878659816e+01
9.300000000000000711e+00 2.288292529852671464e+01 1.506658250005175859e+01 3.735445934945217061e+01
9.400000000000000355e+00 2.580301573150123673e+01 1.867997868037873488e+01 3.387802593723770173e+01
9.500000000000000000e+00 2.320737232382693449e+01 1.323641130661965093e+01 3.164702665262416303e+01
9.600000000000001421e+00 1.524815433744626958e+01 1.214024508940752156e+01 3.401435873974993740e+01
9.700000000000001066e+00 1.417870169866493235e+01 7.826516207409322412e+00 2.153321776506484042e+01
9.800000000000000711e+00 1.353778943866178608e+01 7.062655725802389206e+00 3.436479636120173353e+01
9.900000000000000355e+00 2.532676174859474827e+01 1.243946267069414446e+01 2.962683951584012831e+01
1.000000000000000000e+01 2.264078142234480140e+01 1.392514315810269743e+01 2.948818135545801766e+01
1.000000000000000000e+01 1.756774280355898910e+01 7.961165521994623795e+00 3.097455501996473259e+01
1.100000000000000000e+01 1.585996727139329820e+01 6.106068202746932627e+00 2.740468632094520274e+01
1.200000000000000000e+01 1.446132087330203042e+01 7.976341919244605450e+00 2.239651176535905464e+01
1.300000000000000000e+01 1.279017885022579826e+01 7.262095132060365721e+00 2.045525940030179157e+01
1.400000000000000000e+01 1.283561973401709366e+01 7.143308151114329263e+00 2.154954786014337742e+01
1.500000000000000000e+01 1.177884759767440492e+01 6.205403289361476560e+00 1.997786599826044807e+01
1.600000000000000000e+01 1.008926248791385305e+01 5.120775836500008893e+00 1.647488616040980247e+01
1.700000000000000000e+01 9.442807318629260038e+00 5.689280212363466482e+00 1.617486975997614707e+01
1.800000000000000000e+01 9.185742331277500838e+00 4.786865081597253990e+00 1.395104621166356829e+01
1.900000000000000000e+01 8.093427861958570446e+00 4.576673035926932975e+00 1.333386187550547852e+01
2.000000000000000000e+01 7.455008041869649382e+00 4.177472452181039131e+00 1.431240647908106389e+01
2.100000000000000000e+01 7.399913116641482880e+00 4.368614503807710214e+00 1.318435514158239208e+01
2.200000000000000000e+01 6.814483463326803658e+00 3.457912558651800694e+00 1.056097059005132799e+01
2.300000000000000000e+01 6.538408158278696369e+00 3.571246368901641599e+00 9.214853607797737212e+00
2.400000000000000000e+01 6.095286961577499163e+00 3.096295550456230838e+00 1.017078757518989818e+01
2.500000000000000000e+01 5.466162806004493113e+00 2.938409617199417401e+00 1.001597244951484811e+01
2.600000000000000000e+01 5.530467081619085512e+00 2.761260862780699821e+00 9.349604974457280449e+00
2.700000000000000000e+01 5.507190832016594761e+00 2.619287989231409597e+00 9.439456066882998542e+00
2.800000000000000000e+01 5.306176212841148043e+00 2.528757480944971547e+00 9.563231147267909904e+00
2.900000000000000000e+01 4.903891265470932126e+00 2.190129608585546617e+00 9.184562573518546102e+00
3.000000000000000000e+01 4.711960464323001752e+00 1.996619192952498567e+00 8.243601528880651230e+00
3.100000000000000000e+01 4.367540628795422819e+00 2.216616181690581833e+00 7.793632157884629486e+00
3.200000000000000000e+01 3.890347480332533969e+00 1.561805363355165399e+00 6.404783932559169557e+00
3.300000000000000000e+01 3.598913253151976743e+00 1.941701221060279536e+00 6.097838000092269617e+00
3.400000000000000000e+01 4.110771518766677346e+00 2.190962526431539992e+00 7.241778763155413579e+00
3.500000000000000000e+01 4.163043787375997340e+00 2.174419311719499870e+00 7.788284913169590595e+00
3.600000000000000000e+01 3.500463074999858204e+00 1.619171649068337437e+00 6.950684258333381216e+00
3.700000000000000000e+01 3.521449468647637193e+00 1.887934789220291121e+00 7.430042342386744991e+00
3.800000000000000000e+01 3.766300838018126651e+00 1.766025729914816544e+00 6.962325244723992945e+00
3.900000000000000000e+01 3.088065051682839179e+00 1.333151898643257560e+00 6.015915364277805821e+00
4.000000000000000000e+01 2.908164889989642177e+00 1.096050622006206066e+00 5.612618897643176119e+00
4.100000000000000000e+01 2.566659533627175360e+00 1.059938708369460025e+00 5.421232731024395513e+00
4.200000000000000000e+01 2.561726117863414309e+00 1.103814746086083209e+00 5.401580098425127652e+00
4.300000000000000000e+01 2.565851638958585923e+00 9.915199738654721928e-01 4.719346942704310877e+00
4.400000000000000000e+01 2.409954183386304294e+00 1.238976830554477493e+00 4.402153481427071746e+00
4.500000000000000000e+01 2.253952354517493983e+00 9.642194265969004086e-01 4.801175213372730788e+00
4.600000000000000000e+01 2.116760347493450656e+00 1.017459440062010279e+00 4.588164365741469020e+00
4.700000000000000000e+01 2.036394926347143475e+00 9.345175187224709079e-01 4.317052321499620149e+00
4.800000000000000000e+01 1.718221305198124771e+00 8.659549059711819652e-01 3.992772384070779612e+00
4.900000000000000000e+01 1.732196672338345511e+00 8.126137354316762540e-01 4.352368592913212986e+00
5.000000000000000000e+01 1.637998264939722226e+00 6.806853072821309469e-01 4.164150993557594660e+00
5.100000000000000000e+01 1.511135922403550547e+00 7.452662217716781168e-01 3.397027250096475992e+00
5.200000000000000000e+01 1.613891656397673513e+00 6.971471617729706471e-01 3.548196283745567836e+00
5.300000000000000000e+01 1.605960064104579033e+00 5.879499673771712009e-01 3.491133695122387692e+00
5.400000000000000000e+01 1.321852205319178131e+00 6.122951260868627621e-01 2.815873458845139510e+00
5.500000000000000000e+01 1.515604001884304441e+00 6.690341186181173461e-01 2.750641839493012775e+00
5.600000000000000000e+01 1.491235003026058603e+00 7.124865718219065558e-01 2.692790000849026200e+00
5.700000000000000000e+01 1.313642664242185010e+00 5.495001376519467184e-01 2.743497731194595612e+00
5.800000000000000000e+01 1.154205802630589917e+00 5.733862212269524861e-01 2.641579180030852125e+00
5.900000000000000000e+01 1.132870405169097205e+00 4.981290618228315648e-01 2.430900425264210352e+00
6.000000000000000000e+01 9.696351043422858362e-01 4.978362951701188477e-01 2.231337757701397972e+00
6.100000000000000000e+01 8.618228990813112667e-01 4.270428675036492816e-01 1.966432121171921343e+00
6.200000000000000000e+01 9.214529764522637612e-01 4.370109191770248924e-01 1.909605735012845917e+00
6.300000000000000000e+01 8.550068772099590486e-01 4.498659852908610257e-01 1.678486268586170116e+00
6.400000000000000000e+01 9.434284924008183859e-01 4.432233620321479051e-01 1.769132425670313147e+00
6.500000000000000000e+01 8.402822168245130952e-01 3.698648175775315905e-01 2.113693349877251215e+00
6.600000000000000000e+01 7.330515956428761415e-01 4.007583339076914997e-01 1.678931563626837153e+00
6.700000000000000000e+01 7.522344271452161557e-01 3.450748866028690021e-01 1.393616842152278323e+00
6.800000000000000000e+01 7.588704331519858792e-01 3.890975486214067747e-01 1.333767476863843449e+00
6.900000000000000000e+01 7.094652808131292065e-01 3.411574719501353492e-01 1.196092907573999220e+00
7.000000000000000000e+01 6.954391826697157164e-01 3.292085722615618604e-01 1.268969347923014190e+00
7.100000000000000000e+01 6.158573643104948703e-01 3.199931485587764746e-01 1.247308983197914278e+00
7.200000000000000000e+01 6.454960379991088182e-01 3.188824523173417469e-01 1.216341174278276593e+00
7.300000000000000000e+01 6.310028540853171997e-01 2.296113684371084707e-01 1.158677110310243785e+00
7.400000000000000000e+01 6.167730563990736492e-01 2.955490966455292523e-01 1.213131288863651847e+00
7.500000000000000000e+01 5.555724492057995123e-01 2.704303106752337649e-01 1.158443367438494187e+00
7.600000000000000000e+01 5.500517897337651174e-01 3.018869226227819946e-01 1.022321017431306656e+00
7.700000000000000000e+01 5.978012088836808235e-01 2.796017653343887965e-01 1.128945939564991896e+00
7.800000000000000000e+01 5.654321541483183777e-01 3.073338621962543038e-01 9.779185690652928420e-01
7.900000000000000000e+01 5.596466403084751073e-01 2.879037167873327863e-01 9.061616348277127253e-01
8.000000000000000000e+01 4.784475647612798088e-01 2.559268694286732093e-01 8.339150205629113355e-01
8.100000000000000000e+01 4.935232207456691778e-01 2.573345493013259322e-01 8.262778129797979654e-01
8.200000000000000000e+01 4.904672153398189627e-01 2.340018138946642623e-01 8.259711365862250076e-01
8.300000000000000000e+01 5.284916052849509827e-01 2.520130740603304109e-01 8.507192550776834228e-01
8.400000000000000000e+01 4.814235105364005340e-01 2.613800584735286314e-01 8.696168700562442178e-01
8.500000000000000000e+01 5.138377479679359094e-01 2.380074116312459465e-01 8.760807728208318546e-01
8.600000000000000000e+01 5.417986360099837917e-01 2.435230901045668528e-01 8.044279020689744097e-01
8.700000000000000000e+01 4.468890500113901210e-01 2.201393293069848212e-01 7.631900573471686045e-01
8.800000000000000000e+01 3.884635550995095277e-01 2.161078417768143300e-01 8.602837911051801623e-01
8.900000000000000000e+01 4.347058803856847509e-01 1.911460840597750122e-01 8.254500101531511147e-01
9.000000000000000000e+01 4.491833783146240155e-01 2.138954018901091381e-01 6.861687793376336497e-01
9.100000000000000000e+01 3.963305576135807140e-01 2.194906089704117824e-01 7.649457755700687089e-01
9.200000000000000000e+01 4.064817658618076757e-01 1.928295633697617029e-01 7.259169930757084499e-01
9.300000000000000000e+01 4.103695237617663305e-01 1.890292671427799553e-01 7.770178276313725041e-01
9.400000000000000000e+01 3.936132524060301785e-01 2.008168189469696219e-01 7.382685943656586147e-01
9.500000000000000000e+01 3.541153968725258561e-01 2.115724203673315373e-01 6.500573838173827612e-01
9.600000000000000000e+01 3.278817268871668245e-01 1.566964743514807079e-01 6.179104195051229320e-01
9.700000000000000000e+01 3.184412475725713065e-01 1.643664819787672149e-01 6.591097443180022886e-01
9.800000000000000000e+01 3.493179796608686938e-01 1.562848174618611252e-01 6.621175223409611066e-01
9.900000000000000000e+01 3.658961431567254174e-01 1.972819012260301763e-01 6.216153068911791646e-01
1.000000000000000000e+02 3.413937449797324608e-01 1.923944845265855852e-01 5.410065851477660059e-01
1.000320102432778526e+02 2.860380473957266911e-01 1.332760301485375332e-01 5.953024210091926172e-01
1.100352112676056322e+02 2.292076361503706250e-01 1.057909740002158233e-01 4.729126564863412874e-01
1.200384122919334118e+02 2.146461631367735379e-01 8.971401313758270435e-02 4.269164308901249316e-01
1.300416133162611914e+02 1.929704719844303196e-01 8.610268517783388476e-02 3.814489766660869030e-01
1.400448143405889994e+02 1.648552448243354451e-01 7.759140836726509394e-02 3.303758316854053523e-01
1.500480153649167789e+02 1.389833410175138617e-01 6.301169041431106677e-02 2.866183324620316664e-01
1.600512163892445585e+02 1.240162929803692998e-01 5.798564634291499681e-02 2.428307349943904514e-01
1.700544174135723381e+02 1.051572202377463461e-01 4.962992268634967147e-02 2.166549754087193913e-01
1.800576184379001177e+02 9.177137641151875136e-02 3.706807893139486831e-02 1.868965099662208973e-01
1.900608194622279257e+02 7.656242116172648493e-02 3.490041359063603826e-02 1.721598969543545188e-01
2.000640204865557052e+02 7.412889120800945919e-02 3.409911458862530109e-02 1.483266328324179539e-01
2.100672215108834848e+02 6.900919393821476622e-02 3.292724642396546025e-02 1.345220796299463062e-01
2.200704225352112644e+02 6.235614990541438890e-02 2.928729614689577071e-02 1.259450872301510760e-01
2.300736235595390440e+02 6.174209816032098092e-02 2.741634230037290690e-02 1.212664882858418697e-01
2.400768245838668236e+02 6.584835171887962191e-02 3.004249919874106556e-02 1.178549121943490569e-01
2.500800256081946316e+02 5.569581152043749650e-02 2.688180118931256940e-02 1.002933356766195633e-01
2.600832266325223827e+02 4.779299023360842474e-02 2.209574009706548325e-02 8.925815294391356569e-02
2.700864276568502191e+02 4.093468539096544595e-02 1.981263908027694823e-02 7.988949039488982273e-02
2.800896286811779987e+02 3.987958082822901096e-02 1.973926409775296834e-02 7.248952477825694463e-02
2.900928297055057783e+02 3.694104937533773669e-02 1.768563911511043460e-02 6.562481916112891667e-02
3.000960307298335579e+02 3.328089619468026228e-02 1.665194573664856986e-02 5.914473907327495034e-02
3.100992317541613374e+02 3.314848878226580448e-02 1.622545924584847810e-02 5.831627669741384912e-02
3.201024327784891170e+02 3.178612634382356472e-02 1.495535868507342353e-02 5.290797578656129818e-02
3.301056338028168966e+02 3.090152695805724672e-02 1.510413232803651737e-02 5.273074090810160597e-02
3.401088348271446762e+02 3.411022345955232182e-02 1.667461717109210845e-02 5.714211119986541826e-02
3.501120358514724558e+02 3.394819184011205887e-02 1.645149518492163010e-02 5.837660748464945648e-02
3.601152368758002353e+02 3.764192925967020653e-02 1.868241393709660705e-02 6.226904759952140572e-02
3.701184379001280149e+02 4.237418008844073131e-02 2.048265868933039566e-02 6.988547900705002758e-02
3.801216389244558513e+02 5.830831903187778942e-02 2.705432339953766155e-02 9.248146826850141278e-02
3.901248399487836309e+02 7.308267178377342299e-02 3.595010998789718859e-02 1.196174873477385686e-01
4.001280409731114105e+02 6.434749547069695819e-02 3.187064472942029159e-02 1.072864146097202570e-01
4.101312419974391901e+02 4.781462315508375194e-02 2.360224215117035992e-02 7.905180116674254132e-02
4.201344430217669697e+02 4.096485519875558284e-02 1.956548635171519515e-02 6.850543086683368033e-02
4.301376440460947492e+02 3.484948335627185284e-02 1.694979757075961921e-02 5.722341031496782499e-02
4.401408450704225288e+02 3.097727219078006550e-02 1.554577204037547143e-02 4.907718781041233574e-02
4.501440460947503084e+02 3.001746212525329902e-02 1.551059530006395314e-02 5.037212761922633952e-02
4.601472471190780880e+02 2.756980059442587505e-02 1.326365062722241646e-02 4.473774425484009637e-02
4.701504481434058675e+02 2.859605770422962712e-02 1.366627490009439221e-02 4.583795803143756592e-02
4.801536491677336471e+02 3.346924840736105466e-02 1.699178183736622591e-02 5.376301519971482534e-02
4.901568501920614835e+02 2.898983866720242220e-02 1.450084331008654435e-02 4.660135506389285337e-02
5.001600512163892631e+02 2.408740537834294995e-02 1.249434042310231148e-02 3.943672587042267030e-02
5.101632522407170427e+02 2.333213211197138898e-02 1.118736735947646957e-02 3.873537941424473607e-02
5.201664532650447654e+02 2.480330192370546263e-02 1.275199734080888561e-02 4.175510002851270247e-02
5.301696542893726019e+02 3.087514591563343333e-02 1.488497491106303972e-02 5.002873990931159393e-02
5.401728553137004383e+02 3.115038676506600226e-02 1.529244898519455283e-02 5.052132834387419030e-02
5.501760563380281610e+02 2.920384550361418766e-02 1.439518871318900065e-02 4.872052534279160130e-02
5.601792573623559974e+02 3.141532144270064303e-02 1.487217634911415509e-02 4.959045158703421358e-02
5.701824583866837202e+02 3.449823026256605696e-02 1.698467714311381604e-02 5.627994439462286752e-02
5.801856594110115566e+02 3.563481576303191567e-02 1.833814272707161991e-02 5.879978112234446330e-02
5.901888604353392793e+02 3.126984984123892808e-02 1.675743468343961207e-02 5.165877495576472189e-02
6.001920614596671157e+02 2.956927563684066257e-02 1.381920353255980741e-02 4.765104746251939971e-02
6.101952624839948385e+02 2.664029603952215025e-02 1.339294146410587028e-02 4.428923189626323559e-02
6.201984635083226749e+02 6.419452179254944713e-02 3.431556455534725408e-02 1.038733375529886371e-01
6.302016645326503976e+02 2.589827587074225446e-01 1.308043710276604321e-01 4.027146315400115251e-01
6.402048655569782341e+02 2.574077810060800831e-01 1.353021157217609294e-01 4.052436583717411445e-01
6.502080665813060705e+02 1.523144899905081451e-01 7.554332018782425329e-02 2.551505666742568401e-01
6.602112676056337932e+02 1.495674048136770018e-01 7.278999920932052725e-02 2.443816511013650883e-01
6.702144686299616296e+02 1.075063711342434114e-01 5.257811170146841490e-02 1.747296156469515249e-01
6.802176696542893524e+02 1.016132099088880997e-01 4.943901181864400474e-02 1.590085574193992601e-01
6.902208706786171888e+02 8.938019755734208371e-02 4.499430872052075786e-02 1.499324512718222535e-01
7.002240717029449115e+02 6.336945854024406133e-02 3.130503137991246659e-02 1.044025521014843305e-01
7.102272727272727479e+02 4.446353053987683185e-02 2.163196683137641463e-02 7.301511335709445771e-02
7.202304737516004707e+02 6.640745579883400307e-02 3.340663398010187274e-02 1.089435455411558867e-01
7.302336747759283071e+02 5.272110381676136520e-02 2.633760927998541473e-02 8.480223085034580000e-02
7.402368758002560298e+02 2.485881944810904715e-02 1.238054522983531892e-02 4.182090005425524726e-02
7.502400768245838663e+02 2.666746663529899128e-02 1.341593322681533182e-02 4.291456124544148348e-02
7.602432778489117027e+02 2.823189358599872273e-02 1.454974715871571421e-02 4.583465006621964544e-02
7.702464788732394254e+02 3.276264716465449728e-02 1.691013044346920818e-02 5.392420558053259705e-02
7.802496798975672618e+02 5.546582059629815570e-02 2.773870671866610418e-02 8.908770040292803005e-02
7.902528809218949846e+02 1.231057387506178519e-01 6.158198703920192418e-02 2.034647000133603945e-01
8.002560819462228210e+02 2.264316107379300003e-01 1.175580029782152536e-01 3.567862022133129751e-01
8.102592829705505437e+02 1.972332717957302750e-01 9.732527700413279304e-02 3.097840216927735812e-01
8.202624839948783801e+02 1.048606415727792868e-01 5.635782443265057590e-02 1.713653332545718444e-01
8.302656850192061029e+02 1.259686925718262185e-01 6.233312042523091873e-02 2.092488845542956888e-01
8.402688860435339393e+02 3.775614063669967546e-01 2.397921446892626596e-01 5.389865918174921999e-01
8.502720870678616620e+02 4.244324054567287230e-01 2.504304282962813710e-01 6.301539427589133435e-01
8.602752880921894985e+02 2.327217178713058832e-01 1.121317840848774783e-01 3.885549814914550648e-01
8.702784891165173349e+02 1.801040878322731909e-01 9.142164149388752603e-02 2.863668944665623273e-01
8.802816901408450576e+02 1.084489573537882057e-01 5.626429438960962870e-02 1.793383614796185410e-01
8.902848911651728940e+02 7.365143598065082564e-02 3.908060199975541688e-02 1.178963407971318350e-01
9.002880921895006168e+02 6.117400018433054310e-02 2.996600959120102048e-02 1.029635518458052318e-01
9.102912932138284532e+02 8.781738810967561204e-02 4.410750096854729879e-02 1.441196878559052319e-01
9.202944942381561759e+02 8.754319178084431219e-02 4.370856918315993433e-02 1.376220462716094273e-01
9.302976952624840123e+02 6.052627212712882038e-02 3.015456756399013255e-02 9.814106515196655001e-02
9.403008962868117351e+02 5.597062583641698730e-02 2.712996172834555159e-02 8.917647137331694007e-02
9.503040973111395715e+02 5.090212599003045291e-02 2.511011292614399523e-02 8.349358837551648649e-02
9.603072983354672942e+02 4.736812246401801707e-02 2.345978487269516355e-02 7.741089820120326814e-02
9.703104993597951307e+02 5.441722822660761266e-02 2.616246909989073874e-02 8.480747304907169937e-02
9.803137003841229671e+02 6.872565772105077020e-02 3.408450129111078447e-02 1.128742147541575008e-01
9.903169014084506898e+02 8.806176531678847064e-02 4.401632213710621883e-02 1.428068422889882116e-01
1.000320102432778526e+03 1.375205827332653119e-01 6.695310618526782720e-02 2.252355312671804333e-01
1.010323303457106249e+03 1.496512814415176529e-01 7.613116723318585910e-02 2.379165713598875576e-01
1.020326504481434085e+03 1.427908196419945819e-01 7.206719999857079395e-02 2.313120404634518013e-01
1.030329705505761922e+03 1.931718511374651837e-01 9.373869804773134196e-02 3.262758400103422662e-01
1.040332906530089531e+03 2.078896168862127414e-01 9.557372121614939042e-02 3.384679942777358286e-01
1.050336107554417367e+03 1.738364489113699285e-01 8.691938527766183975e-02 2.879166852397964660e-01
1.060339308578745204e+03 1.045516567313050371e-01 4.722865424901688536e-02 1.687359909768874899e-01
1.070342509603073040e+03 6.227886277130807724e-02 3.162257880293119217e-02 1.010731823717150174e-01
1.080345710627400877e+03 5.183570779736518253e-02 2.612594195821185336e-02 8.389549177109341394e-02
1.090348911651728486e+03 5.409134246019616649e-02 2.760749096834977032e-02 8.845787566430465820e-02
1.100352112676056322e+03 5.151426788293649722e-02 2.692044582971435743e-02 8.402471505731977375e-02
1.110355313700384158e+03 4.963396770427615928e-02 2.462964995706741489e-02 7.890963772261830322e-02
1.120358514724711995e+03 5.435101287681578380e-02 2.782615383641787524e-02 8.923266795528807249e-02
1.130361715749039604e+03 5.406228755302865813e-02 2.735007893715794142e-02 8.964272285895411030e-02
1.140364916773367440e+03 6.771740315594507176e-02 3.363605094237907128e-02 1.144161677762504381e-01
1.150368117797695277e+03 1.097226105985169425e-01 5.439252073503785673e-02 1.746695715302850616e-01
1.160371318822023113e+03 1.399258779165221678e-01 6.756877052158881403e-02 2.326141679074625879e-01
1.170374519846350722e+03 1.237106512442376488e-01 6.295622976495578171e-02 2.105657228228743350e-01
1.180377720870678559e+03 8.878121488958634622e-02 4.521855411328448010e-02 1.459159754841425349e-01
1.190380921895006395e+03 6.336530518187236116e-02 3.286271536214842998e-02 1.027115546262371421e-01
1.200384122919334231e+03 5.172409236935055638e-02 2.610342619948939277e-02 8.296741265291394940e-02
1.210387323943662068e+03 4.580661167896833003e-02 2.291080575746771986e-02 7.637127571862342701e-02
1.220390524967989677e+03 4.654506273939677807e-02 2.293978890196611206e-02 7.676879355904191182e-02
1.230393725992317513e+03 4.692514762863130712e-02 2.155636268772096256e-02 7.579931177968199374e-02
1.240396927016645350e+03 4.621423535432216123e-02 2.256639685371478535e-02 7.832152904334732657e-02
1.250400128040973186e+03 5.623326393034711046e-02 2.720931455477007543e-02 9.380372608271037027e-02
1.260403329065300795e+03 5.877550981472743491e-02 2.765949884989047855e-02 9.465677628761910711e-02
1.270406530089628632e+03 6.506214200110468915e-02 3.334263571257112257e-02 1.039878408622858519e-01
1.280409731113956468e+03 7.351249124948455727e-02 3.920742173828899862e-02 1.215039814065999174e-01
1.290412932138284305e+03 7.342439325478719581e-02 3.872566237272163925e-02 1.223832499903950294e-01
1.300416133162612141e+03 7.568289383161146133e-02 3.876097812150242766e-02 1.229589545609293538e-01
1.310419334186939750e+03 7.880092505296641681e-02 3.757112229271705739e-02 1.292269782185907490e-01
1.320422535211267586e+03 6.621373981241530926e-02 3.274938542502966315e-02 1.122392934572798429e-01
1.330425736235595423e+03 5.111665468964655262e-02 2.568432265210457074e-02 8.904461367009010309e-02
1.340428937259923259e+03 4.389477605262140369e-02 2.167658155153456487e-02 7.339047917346713801e-02
1.350432138284250868e+03 4.134581581982875453e-02 2.080093617103169826e-02 7.067830350232813530e-02
1.360435339308578705e+03 4.737497850775596736e-02 2.271664093094288850e-02 8.009141472127417893e-02
1.370438540332906541e+03 5.082845563136086792e-02 2.458125523377790306e-02 8.837342316247372154e-02
1.380441741357234378e+03 5.203364848456925457e-02 2.677508365061686060e-02 8.902390847794101891e-02
1.390444942381562214e+03 5.471480157091158231e-02 2.711629059633239441e-02 8.826345600250648515e-02
1.400448143405889823e+03 5.068944150111795444e-02 2.545214512423320599e-02 8.629850434509069024e-02
1.410451344430217659e+03 5.105354011155217170e-02 2.503932279822570009e-02 8.570023341703010555e-02
1.420454545454545496e+03 4.747184316760699047e-02 2.490292754504754361e-02 8.254857115055926065e-02
1.430457746478873332e+03 4.688051324174161150e-02 2.317750594742247136e-02 8.178072361129269663e-02
1.440460947503200941e+03 4.932627885943713375e-02 2.419756872733556941e-02 8.386099041914671370e-02
1.450464148527528778e+03 5.062664014868383661e-02 2.672792509653066848e-02 8.857354587227604659e-02
1.460467349551856614e+03 5.917131375098511059e-02 2.936590455640553446e-02 1.001127407896117844e-01
1.470470550576184451e+03 6.757291075454914531e-02 3.399567618217001763e-02 1.131170028867582444e-01
1.480473751600512060e+03 7.251511009142379283e-02 3.616545610946828720e-02 1.232754602736357563e-01
1.490476952624839896e+03 7.854143360983545374e-02 3.982790503737350385e-02 1.306808097405217084e-01
1.500480153649167733e+03 7.415570194955080352e-02 3.772497261421519504e-02 1.304259145946603526e-01
1.510483354673495569e+03 7.261694263136198035e-02 3.606406905517682560e-02 1.267419311615576583e-01
1.520486555697823405e+03 7.305271468512450350e-02 3.568258909471300894e-02 1.208989070785964903e-01
1.530489756722151014e+03 7.692119975511307883e-02 3.852624559412593658e-02 1.278470898333155248e-01
1.540492957746478851e+03 7.177024239940406336e-02 3.687423052918225447e-02 1.236270222202852792e-01
1.550496158770806687e+03 6.832965314831242198e-02 3.618684342810944699e-02 1.152138761940695311e-01
1.560499359795134524e+03 6.917776211891230043e-02 3.340768900962384769e-02 1.166588153452789156e-01
1.570502560819462133e+03 5.962634566143794335e-02 2.887371803724897087e-02 1.016945434843037621e-01
1.580505761843789969e+03 5.204212164892751263e-02 2.439042104101070071e-02 9.268729615671510158e-02
1.590508962868117806e+03 4.579662284625864166e-02 2.231882299273846640e-02 8.002601220474918342e-02
1.600512163892445642e+03 4.303719134510141514e-02 2.029048670740480481e-02 7.801952964493276410e-02
1.610515364916773478e+03 4.048214890659319887e-02 2.035120382001704559e-02 7.981536319807344682e-02
1.620518565941101087e+03 3.902450341241218978e-02 1.850191703531534407e-02 7.512840988926609842e-02
1.630521766965428924e+03 3.805665992969025496e-02 1.665878078402063811e-02 7.284412568054272896e-02
1.640524967989756760e+03 3.697852138837556119e-02 1.779730195889772659e-02 7.311826087651464301e-02
1.650528169014084597e+03 3.600185604700668202e-02 1.688905435202701921e-02 7.357353562800139635e-02
1.660531370038412206e+03 3.580701246947754629e-02 1.630498288641710897e-02 7.551260787646929540e-02
1.670534571062740042e+03 3.610465413219893921e-02 1.726558853283991987e-02 7.569918622222523985e-02
1.680537772087067879e+03 3.633626307352341711e-02 1.805586592512362087e-02 7.960742855653953065e-02
1.690540973111395715e+03 3.720682163423278538e-02 1.701109803103223461e-02 7.742033105606255239e-02
1.700544174135723324e+03 3.671312758173966156e-02 1.715775198645288005e-02 8.024411127243941122e-02
1.710547375160051160e+03 3.549665847766289573e-02 1.695154402816475073e-02 7.943019735574019524e-02
1.720550576184378997e+03 3.618202135764191085e-02 1.731705205687732868e-02 8.209837364115868397e-02
1.730553777208706833e+03 3.651587090487543041e-02 1.603029601158167602e-02 8.414981621075082185e-02
1.740556978233034670e+03 3.630273136572331749e-02 1.638986168485073724e-02 8.685828948713848752e-02
1.750560179257362279e+03 3.680711358602972716e-02 1.703108794243684068e-02 8.254568243269196082e-02
1.760563380281690115e+03 3.590505795804806166e-02 1.702888285135112714e-02 8.587559112412308793e-02
1.770566581306017952e+03 3.691350049407709361e-02 1.668732812065340868e-02 9.174041698945237244e-02
1.780569782330345788e+03 3.675257524251021590e-02 1.719513813764785362e-02 9.153167217241611753e-02
1.790572983354673397e+03 3.729322396817039142e-02 1.716184545043953832e-02 9.055348160873252783e-02
1.800576184379001234e+03 3.978748947036040567e-02 1.816163922834853478e-02 9.185882397769039309e-02
1.810579385403329070e+03 4.090110850519439178e-02 1.776819788003590472e-02 9.475194565893049758e-02
1.820582586427656906e+03 4.029215217252984926e-02 1.730927099040939152e-02 9.339877776124817788e-02
1.830585787451984743e+03 4.047471411605414737e-02 1.836298655085061987e-02 1.029625913166132417e-01
1.840588988476312352e+03 3.969277758780137555e-02 1.859428203469626339e-02 1.012192595025199343e-01
1.850592189500640188e+03 3.980809859371010201e-02 1.820552305889612532e-02 1.017011732151349573e-01
1.860595390524968025e+03 3.923901249275062869e-02 1.827381514636028034e-02 1.045382846561414419e-01
1.870598591549295861e+03 4.073971695718486136e-02 1.800672058621160740e-02 1.020339846242627885e-01
1.880601792573623470e+03 4.306356991071048218e-02 1.886253603562763892e-02 1.062135543397285387e-01
1.890604993597951307e+03 4.382681981085768952e-02 1.977326878210940511e-02 1.071136571192469605e-01
1.900608194622279143e+03 4.490395825828042559e-02 1.982676011019262816e-02 1.068545183972609974e-01
1.910611395646606979e+03 4.433865846793567933e-02 1.923397953816114933e-02 1.112028686342889372e-01
1.920614596670934588e+03 4.484785629434871052e-02 2.004491270157858843e-02 1.125770011389525954e-01
1.930617797695262425e+03 4.479406203622787741e-02 2.010491240273561825e-02 1.092913358280732800e-01
1.940620998719590261e+03 4.258387867445507374e-02 1.901372939713665000e-02 1.188811632164770427e-01
1.950624199743918098e+03 4.503917035085569509e-02 1.968367478603349346e-02 1.185180513971849925e-01
1.960627400768245934e+03 4.450730888230237936e-02 1.988907201208553119e-02 1.194362519887351565e-01
1.970630601792573543e+03 4.576169704107004021e-02 2.072193054486687683e-02 1.201563106221030103e-01
1.980633802816901380e+03 4.694820645168255868e-02 2.127328447832589620e-02 1.270349705546283681e-01
1.990637003841229216e+03 4.728080750670981408e-02 1.980594977443302443e-02 1.246103819596173223e-01
2.000640204865557052e+03 4.861479593558187817e-02 2.081983920561179466e-02 1.256532792795327647e-01
2.010643405889884662e+03 4.742595631687015340e-02 2.097554776879253027e-02 1.230404805692521808e-01
2.020646606914212498e+03 4.894768210034884659e-02 2.221453092948351415e-02 1.253035696702964330e-01
2.030649807938540334e+03 4.932842380645136721e-02 2.209571564302612035e-02 1.344139654473575640e-01
2.040653008962868171e+03 5.034199343001955623e-02 2.075160326595419311e-02 1.367441252543465102e-01
2.050656209987195780e+03 5.103345219373416064e-02 2.129804494443027219e-02 1.332776383641397500e-01
2.060659411011523844e+03 4.945151485993709572e-02 2.115619153644935149e-02 1.332230212753765797e-01
2.070662612035851453e+03 5.136424375502395001e-02 2.225640864317756512e-02 1.393881073450045083e-01
2.080665813060179062e+03 5.108535783913755596e-02 2.183218633673416828e-02 1.414820389196013439e-01
2.090669014084507126e+03 5.249856108512371972e-02 2.272282674545314171e-02 1.474214750208484581e-01
2.100672215108834735e+03 5.513904403917145591e-02 2.330965956417361054e-02 1.420516751827951285e-01
2.110675416133162798e+03 5.508982444354195568e-02 2.304143167797512853e-02 1.463928435653488735e-01
2.120678617157490407e+03 5.611580229374120432e-02 2.411328459896156656e-02 1.489802116016414602e-01
2.130681818181818016e+03 5.638555320246062957e-02 2.366534820049575813e-02 1.463074647870163669e-01
2.140685019206146080e+03 5.516816604906701199e-02 2.341112970054140194e-02 1.448076748740097508e-01
2.150688220230473689e+03 5.441948134007806859e-02 2.418245108786328673e-02 1.475969970446834867e-01
2.160691421254801753e+03 5.474943909265653219e-02 2.437033981104763311e-02 1.451999225504409796e-01
2.170694622279129362e+03 5.562697928405421766e-02 2.575116783094422851e-02 1.473416611263961007e-01
2.180697823303456971e+03 5.792023574886188270e-02 2.451900367213839457e-02 1.544080336880933324e-01
2.190701024327785035e+03 6.030345286794266957e-02 2.657167292142299103e-02 1.522785995670244419e-01
2.200704225352112644e+03 6.105711580935548055e-02 2.600039930364157759e-02 1.564924217314916932e-01
2.210707426376440253e+03 5.905994993363257450e-02 2.472377150069144519e-02 1.587714952399751078e-01
2.220710627400768317e+03 6.010926359816155806e-02 2.529754397156516732e-02 1.550912711238829900e-01
2.230713828425095926e+03 6.120325214201706443e-02 2.459976442653016848e-02 1.538181654853305047e-01
2.240717029449423990e+03 6.252791276085030436e-02 2.584404504996838658e-02 1.551489114955166282e-01
2.250720230473751599e+03 6.207110849340814751e-02 2.615958175007194325e-02 1.593926700504435523e-01
2.260723431498079208e+03 6.236278174308289290e-02 2.643057666086834345e-02 1.555401159933174349e-01
2.270726632522407272e+03 5.972748874504914957e-02 2.491681013248094045e-02 1.578921898630605836e-01
2.280729833546734881e+03 6.022098928498376136e-02 2.557105744622628629e-02 1.535999462359591283e-01
2.290733034571062944e+03 6.449065257153581421e-02 2.455179261837181492e-02 1.572698408760081212e-01
2.300736235595390553e+03 6.121767968431110485e-02 2.633536034802469103e-02 1.563136470752042873e-01
2.310739436619718163e+03 6.462622921368697815e-02 2.595580381368313427e-02 1.568586113627275791e-01
2.320742637644046226e+03 6.854852632502070331e-02 2.846764433853696610e-02 1.609790368531044125e-01
2.330745838668373835e+03 6.780943858810624392e-02 2.701799685466509809e-02 1.653890319216880789e-01
2.340749039692701444e+03 6.522405246723354810e-02 2.797484463516611286e-02 1.619368095346377101e-01
2.350752240717029508e+03 6.491568719974226409e-02 2.769860360357050133e-02 1.582727889757598594e-01
2.360755441741357117e+03 6.660437947506829548e-02 2.656897509167945037e-02 1.612441262330486791e-01
2.370758642765685181e+03 6.634245343208027001e-02 2.939536488694780708e-02 1.624011113211895063e-01
2.380761843790012790e+03 6.870763489976929039e-02 3.055864163387353102e-02 1.623364274696511567e-01
2.390765044814340399e+03 6.622780893152328818e-02 2.891109653723836562e-02 1.641963638744213527e-01
2.400768245838668463e+03 6.885882154407123312e-02 2.758180979390764329e-02 1.713503167380146519e-01
2.410771446862996072e+03 7.048796765476204873e-02 2.901055849598717026e-02 1.763926559945109551e-01
2.420774647887324136e+03 6.802760114035596994e-02 2.677965094491269876e-02 1.748294503829140312e-01
2.430777848911651745e+03 7.241558212750302814e-02 2.989097716398425933e-02 1.793704755715369858e-01
2.440781049935979354e+03 7.383488890289140183e-02 2.841823973769526390e-02 1.874294005540016461e-01
2.450784250960307418e+03 7.584293591339615059e-02 3.055959377901898422e-02 1.924921696410082927e-01
2.460787451984635027e+03 7.721914727775522347e-02 3.012741073513009252e-02 1.891516260846290154e-01
2.470790653008963091e+03 7.784813292529402240e-02 3.167876117611526099e-02 1.994125366492305318e-01
2.480793854033290700e+03 8.080786584996409172e-02 3.208332904021597015e-02 2.007264200905128082e-01
2.490797055057618309e+03 8.044568001737174845e-02 3.065483801236558795e-02 2.039736371585753882e-01
2.500800256081946372e+03 8.017140138752855416e-02 3.044434443339417984e-02 2.071637086448717413e-01
2.510803457106273981e+03 8.199646736454149765e-02 3.052953054648362488e-02 2.042210318616216047e-01
2.520806658130601591e+03 8.436124423596158550e-02 3.263075302259007410e-02 2.158843040332139307e-01
2.530809859154929654e+03 8.304316068103521908e-02 3.009072008889956962e-02 2.170842463828747404e-01
2.540813060179257263e+03 8.711519621138602565e-02 3.390053479993739016e-02 2.166529627986277240e-01
2.550816261203585327e+03 9.182755425522456938e-02 3.426220512356203951e-02 2.260927004699163911e-01
2.560819462227912936e+03 9.029556792265409915e-02 3.349493294731606396e-02 2.239096143607502698e-01
2.570822663252240545e+03 9.606642837958423442e-02 3.673662310384610830e-02 2.262696203507355008e-01
2.580825864276568609e+03 9.521065476850140707e-02 3.692196380577356107e-02 2.253206762401435970e-01
2.590829065300896218e+03 9.048492968706292605e-02 3.497104995407347011e-02 2.240157165925976412e-01
2.600832266325224282e+03 9.393352788285297406e-02 3.593012181630440144e-02 2.324484940983632120e-01
2.610835467349551891e+03 9.329325902367409384e-02 3.446857082066680233e-02 2.323863027974727991e-01
2.620838668373879500e+03 9.472908743149570376e-02 3.684179282229178842e-02 2.352960402821403230e-01
2.630841869398207564e+03 1.008129044665835028e-01 3.798809023558149395e-02 2.394424769395767649e-01
2.640845070422535173e+03 1.014238784042396369e-01 3.778607958195992489e-02 2.499689746928457634e-01
2.650848271446862782e+03 1.011521096539062942e-01 3.754139646565392285e-02 2.467063459606139986e-01
2.660851472471190846e+03 1.032425953561517534e-01 4.140711025110633409e-02 2.521949664329669050e-01
2.670854673495518455e+03 1.053264989047072719e-01 4.183879708755130350e-02 2.557279340449831739e-01
2.680857874519846519e+03 1.067449206783662036e-01 4.216336586050543900e-02 2.561149257739302465e-01
2.690861075544174128e+03 1.052665279989137836e-01 4.036681072633718087e-02 2.542300799786937904e-01
2.700864276568501737e+03 1.058179594716768535e-01 4.241354090315638259e-02 2.660061054534779701e-01
2.710867477592829800e+03 1.089805440843749362e-01 4.154198934270198623e-02 2.586288025620344100e-01
2.720870678617157409e+03 1.059650115653488628e-01 4.071051837991103428e-02 2.606852132480916295e-01
2.730873879641485473e+03 1.042800843927400578e-01 4.310454150456764777e-02 2.594636991122503122e-01
2.740877080665813082e+03 1.046663330192906388e-01 4.192084475063263121e-02 2.607241059905468505e-01
2.750880281690140691e+03 1.068949836891326111e-01 3.790822495140582643e-02 2.517934300392888347e-01
2.760883482714468755e+03 1.134973843279576400e-01 4.268242334816989281e-02 2.700191736183385482e-01
2.770886683738796364e+03 1.099729646058902055e-01 4.167569717683790309e-02 2.628392993019427193e-01
2.780889884763124428e+03 1.121799434672913626e-01 4.296871786598594617e-02 2.664531076030319801e-01
2.790893085787452037e+03 1.108641500252941364e-01 4.182183123353972604e-02 2.647220979310171418e-01
2.800896286811779646e+03 1.103691161236603491e-01 4.046270820417992992e-02 2.577806293645782398e-01
2.810899487836107710e+03 1.109392569794733219e-01 4.226589204769719971e-02 2.630622754437057509e-01
2.820902688860435319e+03 1.114976456920626358e-01 4.262441671948687116e-02 2.646022035456080390e-01
2.830905889884762928e+03 1.151286199769259305e-01 4.093182218493332525e-02 2.580018975539335457e-01
2.840909090909090992e+03 1.176048470735295837e-01 4.117804170430750671e-02 2.632740185202643857e-01
2.850912291933418601e+03 1.138130258844386594e-01 4.261267359221090900e-02 2.722968389371374087e-01
2.860915492957746665e+03 1.138605983519575121e-01 3.943137719371202915e-02 2.722235345683990948e-01
2.870918693982074274e+03 1.118089741468422660e-01 4.042571707726827501e-02 2.739547011813198707e-01
2.880921895006401883e+03 1.122058478409726362e-01 4.070486906195990712e-02 2.747826451728693775e-01
2.890925096030729947e+03 1.144549501406375847e-01 4.360875349620597918e-02 2.737993476464835596e-01
2.900928297055057556e+03 1.127875582306965552e-01 4.397858937248656785e-02 2.820335602716598777e-01
2.910931498079385619e+03 1.152078298493133118e-01 4.369411403536815897e-02 2.875666046494623207e-01
2.920934699103713228e+03 1.163397157520460329e-01 4.266167220742437399e-02 2.943856763980259861e-01
2.930937900128040837e+03 1.208679135563228701e-01 4.521200316732194857e-02 2.863847377908580460e-01
2.940941101152368901e+03 1.172984047852142081e-01 4.564359654253314497e-02 2.826127069906166911e-01
2.950944302176696510e+03 1.253782902512878272e-01 4.595085092614020067e-02 3.005611599187135718e-01
2.960947503201024119e+03 1.202245625026719389e-01 4.522470407136101878e-02 3.126521406082549137e-01
2.970950704225352183e+03 1.189152775330900441e-01 4.461400769878638706e-02 3.002840503948391304e-01
2.980953905249679792e+03 1.231669496502532379e-01 4.434391358479070760e-02 2.992904817210825796e-01
2.990957106274007856e+03 1.169770796965203669e-01 4.485810838321373228e-02 2.898397462890728304e-01
3.000960307298335465e+03 1.218101015496215050e-01 4.576470164832131121e-02 2.872172099928038125e-01
3.010963508322663074e+03 1.242905465211527061e-01 4.736599067098953841e-02 2.853457739955954087e-01
3.020966709346991138e+03 1.222473822487430140e-01 4.639424813628440641e-02 2.937278882876113717e-01
3.030969910371318747e+03 1.266705375649991583e-01 4.545833606535747140e-02 3.101133226133656051e-01
3.040973111395646811e+03 1.295938202789118920e-01 4.754171768434464762e-02 2.966066549350790948e-01
3.050976312419974420e+03 1.255820123803966792e-01 4.506233585494285460e-02 3.149201779051992167e-01
3.060979513444302029e+03 1.251258981449576702e-01 4.464963009617037987e-02 3.024204566844559405e-01
3.070982714468630093e+03 1.290721961021927544e-01 4.629282500195988637e-02 3.150716284388103694e-01
3.080985915492957702e+03 1.286842013551840191e-01 4.713318120057740507e-02 3.167151937991181110e-01
3.090989116517285311e+03 1.240738008782702184e-01 4.622481641074469016e-02 3.070637115408442752e-01
3.100992317541613374e+03 1.295523216058384330e-01 4.074429237881617427e-02 3.232551647475259693e-01
3.110995518565940984e+03 1.312033082332288159e-01 4.577510256513513814e-02 3.114198496473475353e-01
3.120998719590269047e+03 1.291038697173255978e-01 4.302698847561528539e-02 3.169439514658354273e-01
3.131001920614596656e+03 1.294818826003349688e-01 4.693895752791494430e-02 3.352226144184461409e-01
3.141005121638924265e+03 1.282422206153403521e-01 4.770121863350169911e-02 3.146887429492888910e-01
3.151008322663252329e+03 1.278123659347742691e-01 4.792771916257210219e-02 2.996182812765970649e-01
3.161011523687579938e+03 1.249851203897755919e-01 4.768102711957223488e-02 3.023450359972523760e-01
3.171014724711908002e+03 1.231414444066555453e-01 4.775485661124539982e-02 3.011717786402330899e-01
3.181017925736235611e+03 1.218781494595012754e-01 4.683707622455946656e-02 3.018042120008550544e-01
3.191021126760563220e+03 1.166284550442807239e-01 4.563624527173697903e-02 2.852520403337873156e-01
3.201024327784891284e+03 1.273900821599395217e-01 4.478840437659632051e-02 2.840929160849290369e-01
3.211027528809218893e+03 1.225788930886549249e-01 4.441517934934975653e-02 2.912971385357935872e-01
3.221030729833546957e+03 1.279799403823135284e-01 4.244227493134578033e-02 2.979730995664848781e-01
3.231033930857874566e+03 1.206790135605326220e-01 4.310944135297298946e-02 3.127012434686791131e-01
3.241037131882202175e+03 1.368471280169374082e-01 4.557430542501376969e-02 3.363994634757711544e-01
3.251040332906530239e+03 1.295793233183253623e-01 4.725646568525522506e-02 3.438083984249934999e-01
3.261043533930857848e+03 1.286054195041578252e-01 4.865848731491721757e-02 3.348629967834220178e-01
3.271046734955185457e+03 1.345792914860093892e-01 4.874416437836240346e-02 3.352680075467144860e-01
3.281049935979513521e+03 1.407049495871920686e-01 4.893264841727198999e-02 3.502565461318201123e-01
3.291053137003841130e+03 1.338915043701160990e-01 4.870550957291606281e-02 3.579876396736845767e-01
3.301056338028169193e+03 1.337254123975600006e-01 5.160518983154578632e-02 3.617671149432394873e-01
3.311059539052496802e+03 1.336833124557851027e-01 4.967810750059140079e-02 3.596677048983215053e-01
3.321062740076824412e+03 1.424335407812896415e-01 5.274689447013460736e-02 3.510659227712319974e-01
3.331065941101152475e+03 1.423376773217882307e-01 5.602507405450735806e-02 3.537444041239782289e-01
3.341069142125480084e+03 1.375691538076023179e-01 5.049864942321115324e-02 3.573410477484834091e-01
3.351072343149808148e+03 1.367772079235247962e-01 5.165476727163882675e-02 3.721264194695851901e-01
3.361075544174135757e+03 1.394922008340885866e-01 4.981732982908736868e-02 3.633203312081235703e-01
3.371078745198463366e+03 1.380598653665971176e-01 5.001623575786996040e-02 3.874009234559284698e-01
3.381081946222791430e+03 1.370334907754456877e-01 4.946875846375246855e-02 3.773982445515202677e-01
3.391085147247119039e+03 1.361944119432235423e-01 4.974777172700027561e-02 3.755701863180713751e-01
3.401088348271446648e+03 1.323181198565807626e-01 4.813663694956344524e-02 3.540050778954859645e-01
3.411091549295774712e+03 1.272304049024397254e-01 4.433001145672681165e-02 3.713576803373974111e-01
3.421094750320102321e+03 1.355127909506000650e-01 4.745284882533939291e-02 3.614034447673915573e-01
3.431097951344430385e+03 1.317889988284505487e-01 4.678523905522036924e-02 3.646306877822859671e-01
3.441101152368757994e+03 1.300347767928072551e-01 4.807613600623836941e-02 3.614169720660310725e-01
3.451104353393085603e+03 1.302609866195059418e-01 4.796513967949984913e-02 3.723477307336398590e-01
3.461107554417413667e+03 1.304610522714909349e-01 4.921830202711369867e-02 3.642641683845426748e-01
3.471110755441741276e+03 1.283767566685452277e-01 4.680751695845526694e-02 3.535902418274959880e-01
3.481113956466069340e+03 1.280691245186894034e-01 4.665991056356173089e-02 3.349553284431669442e-01
3.491117157490396949e+03 1.262940946386535979e-01 4.458682975928125736e-02 3.431433990886338936e-01
3.501120358514724558e+03 1.237191630196602526e-01 4.494795807645166758e-02 3.364739485608507219e-01
3.511123559539052621e+03 1.205684887447269482e-01 4.528051554903862047e-02 3.445394706472947877e-01
3.521126760563380230e+03 1.197962371974829188e-01 4.539861483199939679e-02 3.538500657878917988e-01
3.531129961587708294e+03 1.208060067835632495e-01 4.972955138758061722e-02 3.392970330138240231e-01
3.541133162612035903e+03 1.251242084875478222e-01 4.656938699200388609e-02 3.480123476982598940e-01
3.551136363636363512e+03 1.270138990098166332e-01 4.932239828447363555e-02 3.566740543372900474e-01
3.561139564660691576e+03 1.218862355183630980e-01 4.745627831714689659e-02 3.451579674228584804e-01
3.571142765685019185e+03 1.242238651128941829e-01 4.503978379005176003e-02 3.313496502033070890e-01
3.581145966709346794e+03 1.255111959012908673e-01 5.009624822918859466e-02 3.401684963233923553e-01
3.591149167733674858e+03 1.259002714524966593e-01 4.899031975668866057e-02 3.291258853498044701e-01
3.601152368758002467e+03 1.275167474318193717e-01 5.300573782554894586e-02 3.385116791088012556e-01
3.611155569782330531e+03 1.243052417557154732e-01 5.106825857791037759e-02 3.548467122204513324e-01
3.621158770806658140e+03 1.243778763199028387e-01 5.447425800899744625e-02 3.549575541242460108e-01
3.631161971830985749e+03 1.239235427541517526e-01 5.127225585874695124e-02 3.530374673540454533e-01
3.641165172855313813e+03 1.262728028727460594e-01 5.475238163899479038e-02 3.452832204143893580e-01
3.651168373879641422e+03 1.287322184078756315e-01 5.404651512685981762e-02 3.510855576690224966e-01
3.661171574903969486e+03 1.251688205317078861e-01 5.277772909309678961e-02 3.305410178646785435e-01
3.671174775928297095e+03 1.217374171512100450e-01 4.969605928647458093e-02 3.370017220540302838e-01
3.681177976952624704e+03 1.279932492852029757e-01 4.839037337607123707e-02 3.427787833090554237e-01
3.691181177976952767e+03 1.171655876189667406e-01 4.701437025136905729e-02 3.291415375758716677e-01
3.701184379001280377e+03 1.104694062142320132e-01 4.381219085415385961e-02 3.236629286189899313e-01
3.711187580025607986e+03 1.071345114790145658e-01 4.057643302568915422e-02 3.264360263112158766e-01
3.721190781049936049e+03 1.090226750840850162e-01 4.064864153938584773e-02 3.165453213922232445e-01
3.731193982074263658e+03 1.142747751034021292e-01 4.340859568720328160e-02 3.271225060893200309e-01
3.741197183098591722e+03 2.452471413144324819e-01 1.717641810880469189e-01 3.932157727633849298e-01
3.751200384122919331e+03 3.061798655570665550e-01 2.259955811211226684e-01 4.541167757775385061e-01
3.761203585147246940e+03 1.383535171026365751e-01 7.287088964086466114e-02 3.484182324104074246e-01
3.771206786171575004e+03 1.010426619016637217e-01 3.949196339567436626e-02 3.253014122796514251e-01
3.781209987195902613e+03 1.065014902334524977e-01 4.046675115102180836e-02 3.247090946435826631e-01
3.791213188220230677e+03 1.030954737691758966e-01 3.913671470415085868e-02 3.232812906493844340e-01
3.801216389244558286e+03 9.979601038800350876e-02 3.969904331178351203e-02 3.253603158081321278e-01
3.811219590268885895e+03 9.999797994386751265e-02 4.240160769016119297e-02 3.182666851983241840e-01
3.821222791293213959e+03 9.878065166172211864e-02 4.095229304482670557e-02 3.184923292396054095e-01
3.831225992317541568e+03 9.632068877363528236e-02 3.908172425887500301e-02 3.229991208501669098e-01
3.841229193341869177e+03 9.991056341060247648e-02 3.831673161043665232e-02 3.375546764196779570e-01
3.851232394366197241e+03 1.004261855225139777e-01 3.721723379890093386e-02 3.388648113644309734e-01
3.861235595390524850e+03 1.033598337985390386e-01 4.066677856367576643e-02 3.221298411097424652e-01
3.871238796414852914e+03 9.889626235328576043e-02 4.117465463650214763e-02 3.283635116876865156e-01
3.881241997439180523e+03 9.764225032120506242e-02 3.691822610396622989e-02 3.350357469404622313e-01
3.891245198463508132e+03 9.903212772471581271e-02 3.772571688690117692e-02 3.427239860978988362e-01
3.901248399487836195e+03 9.873099663325529685e-02 4.064467023124554435e-02 3.355074629266851516e-01
3.911251600512163805e+03 9.607998703324212297e-02 3.729424538868846006e-02 3.505130521944819222e-01
3.921254801536491868e+03 9.751861333659908593e-02 3.870395675709753514e-02 3.505700223319274667e-01
3.931258002560819477e+03 9.417377373076110669e-02 3.710164517745921653e-02 3.377145130168118792e-01
3.941261203585147086e+03 9.469121821441428555e-02 3.798198484933269781e-02 3.614873768660541442e-01
3.951264404609475150e+03 9.792745965479880688e-02 3.874430423486030506e-02 3.672535613859295722e-01
3.961267605633802759e+03 9.284730992359646606e-02 3.670507659758663610e-02 3.499835508123415040e-01
3.971270806658130823e+03 9.457849154043139472e-02 3.757520911068899794e-02 3.559567976388537947e-01
3.981274007682458432e+03 9.209912726582696052e-02 3.598423113909014065e-02 3.694850427522748393e-01
3.991277208706786041e+03 9.204226153644042008e-02 3.673853503328466247e-02 3.585191700567075257e-01
4.001280409731114105e+03 9.192008397603207426e-02 3.730493564618357627e-02 3.204699073600246750e-01
4.011283610755441714e+03 9.122669768816868419e-02 3.719202856263734841e-02 3.446229608621143581e-01
4.021286811779769323e+03 8.960541234742581962e-02 3.686887329948350389e-02 3.468111182121973446e-01
4.031290012804097387e+03 8.904998277648752680e-02 3.685215296056722906e-02 3.230951216351352073e-01
4.041293213828424996e+03 9.508186671367495346e-02 3.764149149532857591e-02 3.339243221004400963e-01
4.051296414852753060e+03 9.335380035529952658e-02 3.718694276946064858e-02 3.303842011405349610e-01
4.061299615877080669e+03 9.549825671066256016e-02 3.624506091513929329e-02 3.305989420950491975e-01
4.071302816901408278e+03 9.176442152779069883e-02 3.745394397893080096e-02 3.275333600227084418e-01
4.081306017925736342e+03 9.163940411812283859e-02 3.985315460604717946e-02 3.087162418187590629e-01
4.091309218950063951e+03 9.138298268035978389e-02 3.859237543517915481e-02 3.189615324425797427e-01
4.101312419974391560e+03 8.859392674177464511e-02 3.648904601086225968e-02 3.255584094279699303e-01
4.111315620998719169e+03 8.573548141985332105e-02 3.652096585017199082e-02 3.226258705273399308e-01
4.121318822023047687e+03 8.397121196101554885e-02 3.825965118592486447e-02 3.188107141721251425e-01
4.131322023047375296e+03 8.368623437815428390e-02 3.623392498585960297e-02 2.986185073140072421e-01
4.141325224071702905e+03 8.479325717280683516e-02 3.675931251516624532e-02 3.199891017889224809e-01
4.151328425096030514e+03 8.573986098478651730e-02 3.816576347224864135e-02 3.098197235893904722e-01
4.161331626120358123e+03 8.738958324657969401e-02 3.931421731597739555e-02 3.143173043995362570e-01
4.171334827144686642e+03 8.720990920435388316e-02 3.593749224427537220e-02 2.951970328197086046e-01
4.181338028169014251e+03 8.773951834406769346e-02 3.459808101246065332e-02 2.975112343555132988e-01
4.191341229193341860e+03 8.539924083018116119e-02 3.440594551987237459e-02 2.914439674067997310e-01
4.201344430217669469e+03 8.189478461305481349e-02 3.564580039079658785e-02 2.887824766535976306e-01
4.211347631241997078e+03 8.147775301221275857e-02 3.508885637312322836e-02 2.726156949827827081e-01
4.221350832266325597e+03 8.101062461466974896e-02 3.559587148858863598e-02 2.867508614673366374e-01
4.231354033290653206e+03 8.265848893839179701e-02 3.623965386050153475e-02 2.670680084304371538e-01
4.241357234314980815e+03 8.245989716654576751e-02 3.459323888473320174e-02 2.626673186198010823e-01
4.251360435339308424e+03 7.976806534129189663e-02 3.383895958999214026e-02 2.720480475819396782e-01
4.261363636363636033e+03 7.757537537393643934e-02 3.422399568375210366e-02 2.467950806687740362e-01
4.271366837387964551e+03 7.834997673507218541e-02 3.305500052227396124e-02 2.407586047986886024e-01
4.281370038412292161e+03 8.039823952226932136e-02 3.364928071047527947e-02 2.366368653611934658e-01
4.291373239436619770e+03 8.065245892257141835e-02 3.310932654384168838e-02 2.339920802179328296e-01
4.301376440460947379e+03 7.871453308692551165e-02 3.298438878483232750e-02 2.347024473867968253e-01
4.311379641485274988e+03 7.983941742683764442e-02 3.281803331643869115e-02 2.355209824899697213e-01
4.321382842509603506e+03 8.279383498445444522e-02 3.437813914292931622e-02 2.430929628387493990e-01
4.331386043533931115e+03 8.031115458426939246e-02 3.499603428971226338e-02 2.426469099367894733e-01
4.341389244558258724e+03 8.027772816978856474e-02 3.439339990098588817e-02 2.328921016126255239e-01
4.351392445582586333e+03 7.739738146594395130e-02 3.362889383565946522e-02 2.257935306807427600e-01
4.361395646606913942e+03 7.886889074245029274e-02 3.438674604783968636e-02 2.231590091281977495e-01
4.371398847631241551e+03 8.050765123883658891e-02 3.595132568437515302e-02 2.276125039873001243e-01
4.381402048655570070e+03 8.153206972940635344e-02 3.749571259118329031e-02 2.212597077764734965e-01
4.391405249679897679e+03 8.172815458757846929e-02 3.459095958440157326e-02 2.257363183005576257e-01
4.401408450704225288e+03 7.986746529023606989e-02 3.424334470914206646e-02 2.227595337230784400e-01
4.411411651728552897e+03 7.648848093323029618e-02 3.066825637206361393e-02 2.201444497250859555e-01
4.421414852752880506e+03 8.162829835336560258e-02 3.364220747693581065e-02 2.242949488889333376e-01
4.431418053777209025e+03 7.963175441948397437e-02 3.167327436285552467e-02 2.201050648463443449e-01
4.441421254801536634e+03 7.726174319545338343e-02 3.347754244263675960e-02 2.148404479386430421e-01
4.451424455825864243e+03 7.842694903026035946e-02 3.718732230993721660e-02 1.993933539783273867e-01
4.461427656850191852e+03 7.945493524318240908e-02 3.333757698361156790e-02 2.127576572445603331e-01
4.471430857874519461e+03 8.002901884877580696e-02 3.230758213979854215e-02 2.163510711689993204e-01
4.481434058898847979e+03 8.003916004629151038e-02 3.343062664254056043e-02 2.051310099407054888e-01
4.491437259923175588e+03 8.244168361633402720e-02 3.523632936331988486e-02 1.989428993839650328e-01
4.501440460947503198e+03 8.289189725483989135e-02 3.541413197475398733e-02 2.035097793211154138e-01
4.511443661971830807e+03 8.244459709411536275e-02 3.607623701494782481e-02 2.054554342915464460e-01
4.521446862996158416e+03 8.321621998492223504e-02 3.652508595323457341e-02 2.032683479986333031e-01
4.531450064020486934e+03 8.688010571143001126e-02 3.677697158886322065e-02 2.008135746880235217e-01
4.541453265044814543e+03 8.704357373729719460e-02 3.936012239549996350e-02 1.967801995007355254e-01
4.551456466069142152e+03 8.666665731243977655e-02 3.941830919362804275e-02 1.999966975311963380e-01
4.561459667093469761e+03 8.731481848805208723e-02 3.856048878091290072e-02 1.961726204019051123e-01
4.571462868117797370e+03 8.308450909456575884e-02 3.810338449937938909e-02 1.854453614297731645e-01
4.581466069142125889e+03 8.357440595459299237e-02 3.524686299064015010e-02 2.009702045310225171e-01
4.591469270166453498e+03 8.921023574406487799e-02 3.737242235607653867e-02 1.945559359967832525e-01
4.601472471190781107e+03 8.840570748661374934e-02 4.026058429774891090e-02 1.990797529804111121e-01
4.611475672215108716e+03 9.411944324422674701e-02 4.358484477539514845e-02 2.005382462133901700e-01
4.621478873239436325e+03 9.759757835065770160e-02 4.205459309454682992e-02 2.024450164562497934e-01
4.631482074263764844e+03 9.457345360474249396e-02 4.297708051655854677e-02 2.058256378745005610e-01
4.641485275288092453e+03 9.936638202913274098e-02 4.500272574105975559e-02 2.115848587154906535e-01
4.651488476312420062e+03 1.032215366212333729e-01 4.658409959704176706e-02 2.260889671384404276e-01
4.661491677336747671e+03 1.026460943610887216e-01 5.212657802606317226e-02 2.192206215997968277e-01
4.671494878361075280e+03 1.059993631425438509e-01 4.916381955038297974e-02 2.290206646952074598e-01
4.681498079385402889e+03 1.084381278774662755e-01 4.912247098659075495e-02 2.205504146083706318e-01
4.691501280409731407e+03 1.030339183018627452e-01 4.735989215013508558e-02 2.251677559016792285e-01
4.701504481434059016e+03 1.048831139365191262e-01 4.550235795011948331e-02 2.117824193066920047e-01
4.711507682458386626e+03 1.082000793368933927e-01 4.564795397892112971e-02 2.076277570875083300e-01
4.721510883482714235e+03 1.063808301122191463e-01 4.798668242624716529e-02 2.082744166411950593e-01
4.731514084507041844e+03 1.102530324829600755e-01 4.700094621211321072e-02 2.064385588287682149e-01
4.741517285531370362e+03 1.102721555918289853e-01 5.216520238504303297e-02 2.238679115863292379e-01
4.751520486555697971e+03 1.123145234970736456e-01 5.082032527130295879e-02 2.318711085932209925e-01
4.761523687580025580e+03 1.102628200222985216e-01 4.981051208233375910e-02 2.123451527797607652e-01
4.771526888604353189e+03 1.115037385594969122e-01 4.830517654351260126e-02 2.187670520971069232e-01
4.781530089628680798e+03 1.156623388636332794e-01 5.340443497579122623e-02 2.257898287235821921e-01
4.791533290653009317e+03 1.076251930288435604e-01 4.818641773866308431e-02 2.218025239606664367e-01
4.801536491677336926e+03 1.075205890456386315e-01 4.711280224384511994e-02 2.185146624871190657e-01
4.811539692701664535e+03 1.027339487069567903e-01 4.642538737405785959e-02 2.172533549637461481e-01
4.821542893725992144e+03 1.064166652784028361e-01 4.642996898932885003e-02 2.245386886137498428e-01
4.831546094750319753e+03 1.128468267824407761e-01 4.966379439920896172e-02 2.203714959452604816e-01
4.841549295774648272e+03 1.107915992940045752e-01 5.367202501190240088e-02 2.107548307217441130e-01
4.851552496798975881e+03 1.092106441448285753e-01 5.060274513492419440e-02 2.100069346833672579e-01
4.861555697823303490e+03 1.142731535937386161e-01 5.216208171999212051e-02 2.119400533234986062e-01
4.871558898847631099e+03 1.132269330526247675e-01 5.370605749622255759e-02 2.050756275172701815e-01
4.881562099871958708e+03 1.075215754899052356e-01 5.035212295707495317e-02 2.059231754895531619e-01
4.891565300896287226e+03 1.006168162125229970e-01 4.813593875151502693e-02 1.921541101005377616e-01
4.901568501920614835e+03 9.073449368352305699e-02 4.522935735525906997e-02 1.808880899402101061e-01
4.911571702944942444e+03 8.986386953393792065e-02 4.324560168920272424e-02 1.756892369402485443e-01
4.921574903969270053e+03 8.606664687815923642e-02 3.774082768264763743e-02 1.729702682011305115e-01
4.931578104993597663e+03 8.653183242579860768e-02 3.906770005337187324e-02 1.685279890222254606e-01
4.941581306017926181e+03 8.099873248363270717e-02 3.818998703231500647e-02 1.595396550001457747e-01
4.951584507042253790e+03 7.690604423962439651e-02 3.510968990562607361e-02 1.539141039222382823e-01
4.961587708066581399e+03 7.633742505144355817e-02 3.160550760562269579e-02 1.439210173381364755e-01
4.971590909090909008e+03 7.614632901500935358e-02 3.407578778214065407e-02 1.426419414265087116e-01
4.981594110115236617e+03 7.054486201815535207e-02 3.315205375690553902e-02 1.393708256188235517e-01
4.991597311139564226e+03 7.009719980026070385e-02 3.069545262454557305e-02 1.323672193321364376e-01
5.001600512163892745e+03 6.833018563920197075e-02 2.934699610920126628e-02 1.295264463608544192e-01
5.011603713188220354e+03 6.934157677150681875e-02 3.105267298124617104e-02 1.312912474853773215e-01
5.021606914212547963e+03 6.838928408045312490e-02 3.054298733387120560e-02 1.265451582992203061e-01
5.031610115236875572e+03 6.794214891502629861e-02 3.095415839685737580e-02 1.237857639389238901e-01
5.041613316261203181e+03 6.510648112128235299e-02 3.245467006546048222e-02 1.178658040709469890e-01
5.051616517285531700e+03 6.475212811909830668e-02 2.836954294240740318e-02 1.192373637636983397e-01
5.061619718309859309e+03 6.456449935028547860e-02 2.976005393951637601e-02 1.143363715418944104e-01
5.071622919334186918e+03 6.281300531246783447e-02 2.857738678162297791e-02 1.148222702031074655e-01
5.081626120358514527e+03 6.627167065850980698e-02 3.002581495427476474e-02 1.131464544624227603e-01
5.091629321382842136e+03 6.275500861898118676e-02 2.820984021100637895e-02 1.090010143919728364e-01
5.101632522407170654e+03 6.385575573309837383e-02 2.801974822301313631e-02 1.141727032469461167e-01
5.111635723431498263e+03 6.234461737792408587e-02 2.902575311676998393e-02 1.205688378810342160e-01
5.121638924455825872e+03 6.034090765890785107e-02 2.789556089578740239e-02 1.126703286533491527e-01
5.131642125480153481e+03 6.002175657342295745e-02 2.932118711976447120e-02 1.125619170664885899e-01
5.141645326504481091e+03 6.137776121508799199e-02 2.933939630044209157e-02 1.116437215792525223e-01
5.151648527528809609e+03 6.189422168849148531e-02 2.865052643915852459e-02 1.137734358834275594e-01
5.161651728553137218e+03 6.048506099347664144e-02 2.686676505087784092e-02 1.154072937364377383e-01
5.171654929577464827e+03 6.137442150870243279e-02 2.799147599618075077e-02 1.126554655280673362e-01
5.181658130601792436e+03 6.298236060703395200e-02 2.773070345556913688e-02 1.097848950635323811e-01
5.191661331626120045e+03 6.113761290707345197e-02 2.868714209625434358e-02 1.105040117213080542e-01
5.201664532650448564e+03 6.028594892250616066e-02 2.861638473123354759e-02 1.099873239085726456e-01
5.211667733674776173e+03 6.079574897946211226e-02 2.887101891215777122e-02 1.113700683269404634e-01
5.221670934699103782e+03 6.044460855883203310e-02 2.788937969217579124e-02 1.148869984575533049e-01
5.231674135723431391e+03 5.964759212016525897e-02 2.813461491092980604e-02 1.102413648690951375e-01
5.241677336747759000e+03 6.005237758457756397e-02 2.708060448002222800e-02 1.083940657364301924e-01
5.251680537772087519e+03 6.278375738645601556e-02 2.797049394416190049e-02 1.109048337537570927e-01
5.261683738796415128e+03 5.939992835713031605e-02 2.782361237752601149e-02 1.170594828989093145e-01
5.271686939820742737e+03 5.942301456004531884e-02 2.966412160981455465e-02 1.094495134942684855e-01
5.281690140845070346e+03 6.213835748803222397e-02 2.911501208035036786e-02 1.113218426630329244e-01
5.291693341869397955e+03 6.180555595814941211e-02 2.938546051785823066e-02 1.114003737085015877e-01
5.301696542893725564e+03 6.079794051173443431e-02 2.795827371978892514e-02 1.109494805154428998e-01
5.311699743918054082e+03 6.047903623959447611e-02 2.910917590550583106e-02 1.145021653773793946e-01
5.321702944942381691e+03 6.153954957924519936e-02 2.696109572208653035e-02 1.109543223458745176e-01
5.331706145966709300e+03 5.934311074006646397e-02 2.847217043568161729e-02 1.084168609628530927e-01
5.341709346991036909e+03 5.918487741417684939e-02 2.803421427049309841e-02 1.093853576720281162e-01
5.351712548015364519e+03 6.020699101696781047e-02 2.815621171457430641e-02 1.086006696581059972e-01
5.361715749039693037e+03 5.770516364893112787e-02 2.711961917194883817e-02 1.098218496037084574e-01
5.371718950064020646e+03 5.680701362175040459e-02 2.620547376924320729e-02 1.075030842196892933e-01
5.381722151088348255e+03 5.939693898850680748e-02 2.665277288388456789e-02 1.087599168715835118e-01
5.391725352112675864e+03 5.865266393563530606e-02 2.462659515752205902e-02 1.108433108324134997e-01
5.401728553137003473e+03 5.958904236291961282e-02 2.780599184284145847e-02 1.108608588005660089e-01
5.411731754161331992e+03 5.993480285058101070e-02 2.822124161946960516e-02 1.095328749650164163e-01
5.421734955185659601e+03 6.136262392924356907e-02 2.695570185680579503e-02 1.135036507330958594e-01
5.431738156209987210e+03 6.316631545138325088e-02 2.995358206902739434e-02 1.111520230143954874e-01
5.441741357234314819e+03 6.064610520652245068e-02 2.867500361754844046e-02 1.111129699636907164e-01
5.451744558258642428e+03 6.147784724120543970e-02 2.703942529985903925e-02 1.152679093701825669e-01
5.461747759282970947e+03 5.723985841604889435e-02 2.779436549733722492e-02 1.126980190961299338e-01
5.471750960307298556e+03 5.774901760884414842e-02 2.670232567295367440e-02 1.105535437608243382e-01
5.481754161331626165e+03 5.717135348604535788e-02 2.758567423927184986e-02 1.093765674041874830e-01
5.491757362355953774e+03 5.941962782267054544e-02 2.671081712793256513e-02 1.061034414023180328e-01
5.501760563380281383e+03 5.880083370078197091e-02 2.860219298455869696e-02 1.059605646187356948e-01
5.511763764404609901e+03 6.001102628925273491e-02 2.857142344843720955e-02 1.076993785310300100e-01
5.521766965428937510e+03 5.817287217079315093e-02 2.859729153008429281e-02 1.042447557719496515e-01
5.531770166453265119e+03 5.678082067326536281e-02 2.681288340668004297e-02 1.032956133723146736e-01
5.541773367477592728e+03 5.912058865265853308e-02 2.932044233851836129e-02 1.079710175695442476e-01
5.551776568501920337e+03 6.152150798832069917e-02 3.006875310582974442e-02 1.072733979744834587e-01
5.561779769526248856e+03 6.621235648825278541e-02 3.294105102424543796e-02 1.117606462356126040e-01
5.571782970550576465e+03 6.014609406986098222e-02 2.728522917663598821e-02 1.056324375116564074e-01
5.581786171574904074e+03 5.720298395775102324e-02 2.679121357679119589e-02 1.050030973753173086e-01
5.591789372599231683e+03 5.885954533838972519e-02 2.743152935373830564e-02 1.072978063617435751e-01
5.601792573623559292e+03 5.910245744633543102e-02 2.921152564623512304e-02 1.078232548900211057e-01
5.611795774647886901e+03 1.948260202842932720e-01 1.242422074913825253e-01 2.859614466921654996e-01
5.621798975672215420e+03 3.888329561496822739e-01 3.342681869586669463e-01 4.400451833913598398e-01
5.631802176696543029e+03 2.176876252864568817e-01 1.271302667657274732e-01 2.877521367358061855e-01
5.641805377720870638e+03 6.055766601157130946e-02 2.856082357905720751e-02 1.099333712313735195e-01
5.651808578745198247e+03 5.975256010094764925e-02 2.897734666053949915e-02 1.074706609151534487e-01
5.661811779769525856e+03 5.843997060536058191e-02 2.760256603508113096e-02 1.085747115228693216e-01
5.671814980793854374e+03 5.854094731965432674e-02 2.537282187755345725e-02 1.075337065643476447e-01
5.681818181818181984e+03 6.207635108510115712e-02 2.927784905378602934e-02 1.100383800568212472e-01
5.691821382842509593e+03 6.065275803351345696e-02 2.786453702299284546e-02 1.122101392625085431e-01
5.701824583866837202e+03 6.233668228402070716e-02 3.102679715919971423e-02 1.111212428976136174e-01
5.711827784891164811e+03 6.169921321656603869e-02 3.006225174292499747e-02 1.090770106476772472e-01
5.721830985915493329e+03 6.276988805111113900e-02 2.945157310105293164e-02 1.147484634932113418e-01
5.731834186939820938e+03 6.808967004795558886e-02 3.184376693379269846e-02 1.173322021852579861e-01
5.741837387964148547e+03 6.574888657212492327e-02 2.966233426392102246e-02 1.179415454739790453e-01
5.751840588988476156e+03 6.592497137712204081e-02 3.058088251787101364e-02 1.188791031564724876e-01
5.761843790012803765e+03 6.625248178830735191e-02 2.936315878553330191e-02 1.239933067408818673e-01
5.771846991037132284e+03 6.868562671574263145e-02 3.138500525933256985e-02 1.199478552057901826e-01
5.781850192061459893e+03 6.803233957215350236e-02 3.300719472842025132e-02 1.275052469745579231e-01
5.791853393085787502e+03 7.055208057554061829e-02 3.236245439838367211e-02 1.274112455010304734e-01
5.801856594110115111e+03 7.037237188004166755e-02 3.170426553019772137e-02 1.300651953742669453e-01
5.811859795134442720e+03 6.953020056371038427e-02 3.268781479940575246e-02 1.302947563901248607e-01
5.821862996158771239e+03 7.228427820776481272e-02 3.338457849512283665e-02 1.288441215980635768e-01
5.831866197183098848e+03 7.297674411460626509e-02 3.406423878939111166e-02 1.352313273904761914e-01
5.841869398207426457e+03 7.532612572230258652e-02 3.469771057130349029e-02 1.379217560223107153e-01
5.851872599231754066e+03 7.351059664513796832e-02 3.510031815671558336e-02 1.416925709632922414e-01
5.861875800256081675e+03 7.393616245736545078e-02 3.463313749967032035e-02 1.408743838346871446e-01
5.871879001280410193e+03 7.282104174723987022e-02 3.464480006413200863e-02 1.404950553541789160e-01
5.881882202304737802e+03 7.799127893584990867e-02 3.642548978469707655e-02 1.422895715782168946e-01
5.891885403329065412e+03 7.624626191575518963e-02 3.517264206716830960e-02 1.408780870817695485e-01
5.901888604353393021e+03 7.526495482496162182e-02 3.654728372369535350e-02 1.368949063713923164e-01
5.911891805377720630e+03 7.599731057372360876e-02 3.339605131913567226e-02 1.376934074187959878e-01
5.921895006402048239e+03 7.492990561432057162e-02 3.523180868345628797e-02 1.357538112932299978e-01
5.931898207426376757e+03 7.364465973209101401e-02 3.405126726957186101e-02 1.361887644712268530e-01
5.941901408450704366e+03 7.684332532999052501e-02 3.688446561465418688e-02 1.455239254592147757e-01
5.951904609475031975e+03 7.595195601447413125e-02 3.694484745838604728e-02 1.351600616862723425e-01
5.961907810499359584e+03 7.558728604079346935e-02 3.584197939975480168e-02 1.406026141999575374e-01
5.971911011523687193e+03 7.630034801409453504e-02 3.479650915351546053e-02 1.434995506197909165e-01
5.981914212548015712e+03 7.204116659407763801e-02 3.357826879823952448e-02 1.381399948970883640e-01
5.991917413572343321e+03 7.419665981019891998e-02 3.289134200894456433e-02 1.353500197742207589e-01
6.001920614596670930e+03 7.260666976023529007e-02 3.474575944154546792e-02 1.326056206259091930e-01
6.011923815620998539e+03 7.199228573640704953e-02 3.220484821984327672e-02 1.306033063475883771e-01
6.021927016645326148e+03 6.963247482830088597e-02 3.250966509493729423e-02 1.309475858845628726e-01
6.031930217669654667e+03 6.916509591840766524e-02 3.211229270267974834e-02 1.254672524451873883e-01
6.041933418693982276e+03 6.894312287522330607e-02 3.202164444170427227e-02 1.277602019166803327e-01
6.051936619718309885e+03 7.037968709592729022e-02 3.524311770953062611e-02 1.325816937118427796e-01
6.061939820742637494e+03 7.057778418886104244e-02 3.214513966899761738e-02 1.322949217671368638e-01
6.071943021766965103e+03 6.742129852342576557e-02 3.185153334126300528e-02 1.241580362287425798e-01
6.081946222791293621e+03 6.391914900031124558e-02 2.812473429157472116e-02 1.188677842559377335e-01
6.091949423815621230e+03 6.201458170121907504e-02 2.856393902885850933e-02 1.205945523575392558e-01
6.101952624839948840e+03 6.375377200101410569e-02 2.996336710969529568e-02 1.163087015554670756e-01
6.111955825864276449e+03 6.359367819528792543e-02 2.973003867552054605e-02 1.148023282563986752e-01
6.121959026888604058e+03 6.343816021052196830e-02 2.910282568104856360e-02 1.232433086612122891e-01
6.131962227912932576e+03 6.284242282084465114e-02 2.645036435386791465e-02 1.147235927492139540e-01
6.141965428937260185e+03 6.096949851862501490e-02 2.689684229904256568e-02 1.156812358310286698e-01
6.151968629961587794e+03 6.160754249610930766e-02 2.970435708941712716e-02 1.145198912422779741e-01
6.161971830985915403e+03 5.757624087363531762e-02 2.753811661698604696e-02 1.094111135000441770e-01
6.171975032010243012e+03 5.814955453977352362e-02 2.699911467161767928e-02 1.066730592962834429e-01
6.181978233034570621e+03 6.086071287384418188e-02 2.817644805493425830e-02 1.086038048780958581e-01
6.191981434058899140e+03 5.869433173825536892e-02 2.630958485130485344e-02 1.107104215277901482e-01
6.201984635083226749e+03 5.644834936521143237e-02 2.450143741846386863e-02 1.065295188127391990e-01
6.211987836107554358e+03 5.544125493176624980e-02 2.545887191125647403e-02 1.047661607938546319e-01
6.221991037131881967e+03 5.716315051174745282e-02 2.538139194532293072e-02 1.069099140641834450e-01
6.231994238156209576e+03 5.470286022169286444e-02 2.203676872865782677e-02 1.027033191379552041e-01
6.241997439180538095e+03 5.501443318772675922e-02 2.557632476111702108e-02 1.023063848849128932e-01
6.252000640204865704e+03 5.563670457449695211e-02 2.591631471186213800e-02 1.014338747716529293e-01
6.262003841229193313e+03 5.479366719212828279e-02 2.474786894946248358e-02 1.017997388923309598e-01
6.272007042253520922e+03 5.404738527705605505e-02 2.480919909340705692e-02 1.027687483892627124e-01
6.282010243277848531e+03 5.491931112167520307e-02 2.581890559886917957e-02 1.078446189761027574e-01
6.292013444302177049e+03 5.674496770015217267e-02 2.646429818785485735e-02 1.041874065076222600e-01
6.302016645326504658e+03 5.501659645277598432e-02 2.675144331181025792e-02 1.012773186480239451e-01
6.312019846350832267e+03 5.490011806081630114e-02 2.408541899435131736e-02 1.023857457040960456e-01
6.322023047375159877e+03 5.377903913499768734e-02 2.603945983588915047e-02 1.014370120542801984e-01
6.332026248399487486e+03 5.808994042417595788e-02 2.640940933735021201e-02 1.040614098986975128e-01
6.342029449423816004e+03 5.588966740709289116e-02 2.721841006629990498e-02 1.034026083621317621e-01
6.352032650448143613e+03 5.669184667264871857e-02 2.553839127757772873e-02 1.034808111986154355e-01
6.362035851472471222e+03 5.618681359892431504e-02 2.623395777237536725e-02 1.033056638816930856e-01
6.372039052496798831e+03 5.650114388736942467e-02 2.658937221412631044e-02 1.029545751982358370e-01
6.382042253521126440e+03 5.477887019062058910e-02 2.568815336446038725e-02 1.042323184288595911e-01
6.392045454545454959e+03 5.552870567334085294e-02 2.629603822220080017e-02 1.035378181376928886e-01
6.402048655569782568e+03 5.322905029403349197e-02 2.361305211752536340e-02 1.023762540549626732e-01
6.412051856594110177e+03 5.537610722159640175e-02 2.580238297074880296e-02 1.048324414034116775e-01
6.422055057618437786e+03 5.743280421411486175e-02 2.769139446016417871e-02 1.037035720953507628e-01
6.432058258642765395e+03 5.541239341400814450e-02 2.496613596834609469e-02 1.084845866832031686e-01
6.442061459667093914e+03 5.695582383358321205e-02 2.784046562471645045e-02 1.073765988247917524e-01
6.452064660691421523e+03 5.899181779262169939e-02 2.677299404031320551e-02 1.078850677063332014e-01
6.462067861715749132e+03 5.732227624492511331e-02 2.775238794055076216e-02 1.088096129448632987e-01
6.472071062740076741e+03 5.999441531853043352e-02 2.809683804562577297e-02 1.058242016906432714e-01
6.482074263764404350e+03 5.926479306427145238e-02 2.564954422981590917e-02 1.137237640918741105e-01
6.492077464788731959e+03 5.572511591075875875e-02 2.655256043513339395e-02 1.105254036349821029e-01
6.502080665813060477e+03 5.669614610469015520e-02 2.610037936755935789e-02 1.120787384598271319e-01
6.512083866837388086e+03 5.504397498379013515e-02 2.603246295155241599e-02 1.116264730335105454e-01
6.522087067861715695e+03 5.709444659271761119e-02 2.525437014619948128e-02 1.066731637264279886e-01
6.532090268886043305e+03 5.869165541874304948e-02 2.670836521995907306e-02 1.099552712274569077e-01
6.542093469910370914e+03 5.608626030289302900e-02 2.511286127258593320e-02 1.094932277971472911e-01
6.552096670934699432e+03 5.741910779743160387e-02 2.523425729941909668e-02 1.091355039837327984e-01
6.562099871959027041e+03 5.655233015979807543e-02 2.485646321153997529e-02 1.107791867695702009e-01
6.572103072983354650e+03 5.636017089507152494e-02 2.603301718640802648e-02 1.107741936383759701e-01
6.582106274007682259e+03 5.663230943542961471e-02 2.635080803050302012e-02 1.096628768555508726e-01
6.592109475032009868e+03 5.804036061746895708e-02 2.553021255446822485e-02 1.111202634743514439e-01
6.602112676056338387e+03 5.844145303698843746e-02 2.439162541029670297e-02 1.104835928280188534e-01
6.612115877080665996e+03 5.509915722632560686e-02 2.600971414171248178e-02 1.076522013730315808e-01
6.622119078104993605e+03 5.724121675158317518e-02 2.653691290515881526e-02 1.101188935322613277e-01
6.632122279129321214e+03 5.701432295949539902e-02 2.854343356692350814e-02 1.100884717725230250e-01
6.642125480153648823e+03 5.974460002791443652e-02 2.834727378704898770e-02 1.124228597490941339e-01
6.652128681177977342e+03 6.142129408612967412e-02 2.732701703759836745e-02 1.139716013763221597e-01
6.662131882202304951e+03 5.974904535961702429e-02 2.692842064033875230e-02 1.140838273837054689e-01
6.672135083226632560e+03 6.003374500113022039e-02 2.589949157062920379e-02 1.119470905256743920e-01
6.682138284250960169e+03 5.700092827854795485e-02 2.619407553888794538e-02 1.111584512461369773e-01
6.692141485275287778e+03 6.040561543035988940e-02 2.802500498175907948e-02 1.073388641713221431e-01
6.702144686299616296e+03 5.921456248522547622e-02 2.699234823068906441e-02 1.156692688946195646e-01
6.712147887323943905e+03 5.896317256955677100e-02 2.727313732322581355e-02 1.121774600335302824e-01
6.722151088348271514e+03 6.022308387120615253e-02 2.774656848924394320e-02 1.160700318379887935e-01
6.732154289372599123e+03 5.796654503217965604e-02 2.660446790436788236e-02 1.117409242557003690e-01
6.742157490396926733e+03 5.763260581530665200e-02 2.539017176662914169e-02 1.107871748237977128e-01
6.752160691421255251e+03 6.254393066909864907e-02 2.831368536283067339e-02 1.119920559917200326e-01
6.762163892445582860e+03 5.802673116097381567e-02 2.699908745071207677e-02 1.171759799227051063e-01
6.772167093469910469e+03 5.690097329632069767e-02 2.672246469584244055e-02 1.127762452558131873e-01
6.782170294494238078e+03 6.159388637289477109e-02 2.865445980911185409e-02 1.156181486554001270e-01
6.792173495518565687e+03 6.012301733981412211e-02 2.798026494706296746e-02 1.161284150410153565e-01
6.802176696542893296e+03 6.081225856939521945e-02 2.811173065940735655e-02 1.149995901061561937e-01
6.812179897567221815e+03 6.453720743504468005e-02 3.099204260828910401e-02 1.180119583225651275e-01
6.822183098591549424e+03 1.369661057988759700e-01 6.851944856420018326e-02 2.220442611496204199e-01
6.832186299615877033e+03 2.417493426054500294e-01 1.212940578041171308e-01 3.771356062323225067e-01
6.842189500640204642e+03 1.418169167630606575e-01 7.038305605904440765e-02 2.251657850685880036e-01
6.852192701664532251e+03 6.337267684933967082e-02 3.060449648549344592e-02 1.241238000996403718e-01
6.862195902688860770e+03 6.369166276201181087e-02 2.954391955783199769e-02 1.240951721836869581e-01
6.872199103713188379e+03 6.334634219137126598e-02 2.904187887728525846e-02 1.263291019532706838e-01
6.882202304737515988e+03 6.341952899595949822e-02 2.889017574986088577e-02 1.263977839075620668e-01
6.892205505761843597e+03 1.134566008032572015e-01 6.166108947941475321e-02 1.831932447955752774e-01
6.902208706786171206e+03 3.009877236296005232e-01 1.555185589383320799e-01 4.603600475911084344e-01
6.912211907810499724e+03 2.426960850291395577e-01 1.247860119923303729e-01 3.747193505003649783e-01
6.922215108834827333e+03 7.584382406913543762e-02 3.344366144978964256e-02 1.483317804012270202e-01
6.932218309859154942e+03 6.864236969769042795e-02 3.057014463873643575e-02 1.393615300813177138e-01
6.942221510883482551e+03 7.052666909869334533e-02 3.130889085322799414e-02 1.476143386251644318e-01
6.952224711907810160e+03 7.261588764919517380e-02 3.276891393874117875e-02 1.530136354869638671e-01
6.962227912932138679e+03 7.523593003588451011e-02 3.447369808632449323e-02 1.631005600587142890e-01
6.972231113956466288e+03 7.755563349981403620e-02 3.378618531625919574e-02 1.722547680570328532e-01
6.982234314980793897e+03 8.070540194655163868e-02 3.634162076727145974e-02 1.883369114433582070e-01
6.992237516005121506e+03 8.424265151164800347e-02 3.516765190876654235e-02 1.920208003235264194e-01
7.002240717029449115e+03 8.890805778514880575e-02 3.473136555737158654e-02 2.059127764616033585e-01
7.012243918053777634e+03 9.073409161961759617e-02 3.886590050162413990e-02 2.093369600198763947e-01
7.022247119078105243e+03 9.650344791165642311e-02 3.898728596731460688e-02 2.216666184431808073e-01
7.032250320102432852e+03 9.737962248250550679e-02 4.195281795311248119e-02 2.272225967852404827e-01
7.042253521126760461e+03 1.086477648785959677e-01 4.639843289263811954e-02 2.406997055876301250e-01
7.052256722151088070e+03 1.095805693031821904e-01 4.669481681444773158e-02 2.369025950146074477e-01
7.062259923175416588e+03 1.155191818056987563e-01 4.898547898856499272e-02 2.563584639588013525e-01
7.072263124199744198e+03 1.307287374812296787e-01 5.472596031268996131e-02 2.664722262784492979e-01
7.082266325224071807e+03 1.390605646184991384e-01 6.015052389195197496e-02 2.773406159952339078e-01
7.092269526248399416e+03 1.426001489773965902e-01 6.177647885091235719e-02 2.861000417459920175e-01
7.102272727272727025e+03 1.555308938306479705e-01 6.570753208996255035e-02 3.032597049190099980e-01
7.112275928297054634e+03 1.513905615893514911e-01 6.918450258109956619e-02 3.067908328317337507e-01
7.122279129321383152e+03 1.606761874572937843e-01 6.421553078933679715e-02 3.065850845032285221e-01
7.132282330345710761e+03 1.590765209767017185e-01 6.816085010484973505e-02 2.912886730740629204e-01
7.142285531370038370e+03 1.588611504346811587e-01 6.668186907325808488e-02 3.009861770926079982e-01
7.152288732394365979e+03 1.604626092111852975e-01 7.104594280416627605e-02 3.059319551627560085e-01
7.162291933418693588e+03 1.541073669019724091e-01 7.069683880796504005e-02 3.134847527663450761e-01
7.172295134443022107e+03 1.605904707203479331e-01 6.995273655434393334e-02 3.072811720048814199e-01
7.182298335467349716e+03 1.567472583568100541e-01 6.223267898487896271e-02 3.035040041235931851e-01
7.192301536491677325e+03 1.493435882041700968e-01 6.143838035214638921e-02 3.017430946486352461e-01
7.202304737516004934e+03 1.398302629085619586e-01 5.706387304427410628e-02 2.943061049175038080e-01
7.212307938540332543e+03 1.294268273195523233e-01 5.225221153178619821e-02 2.799619883902842443e-01
7.222311139564661062e+03 1.265958367963184172e-01 5.171868059918983962e-02 2.872133889019707897e-01
7.232314340588988671e+03 1.326842591988796893e-01 5.213147115967998318e-02 2.736553444589402972e-01
7.242317541613316280e+03 1.374630862974701717e-01 5.603546558682240275e-02 2.792719388389912627e-01
7.252320742637643889e+03 1.394257488441965898e-01 5.930484008907362103e-02 2.668047776308932750e-01
7.262323943661971498e+03 1.268978691548235116e-01 5.925989796479472910e-02 2.580273834545491751e-01
7.272327144686300016e+03 1.193103377697418838e-01 5.366643752801379674e-02 2.549173084669568157e-01
7.282330345710627626e+03 1.196710720753228901e-01 5.339475236355815252e-02 2.375938997565103517e-01
7.292333546734955235e+03 1.177146790526699127e-01 5.429373066614531090e-02 2.272307594331219871e-01
7.302336747759282844e+03 1.156658534817523870e-01 4.983860340827140495e-02 2.318318866635255271e-01
7.312339948783610453e+03 1.152634380560496469e-01 5.223388593207101138e-02 2.194835934061514504e-01
7.322343149807938971e+03 1.519013381537120677e-01 7.287874715519505886e-02 2.590795586899922731e-01
7.332346350832266580e+03 1.759562764126973156e-01 8.550282551903633232e-02 2.899857268485619421e-01
7.342349551856594189e+03 1.265926310179029401e-01 6.232055129130081167e-02 2.182281000387586434e-01
7.352352752880921798e+03 8.970659258624112675e-02 4.029536537592097456e-02 1.706763334337894344e-01
7.362355953905249407e+03 8.513253696368791590e-02 3.731863879268334377e-02 1.704024743620041471e-01
7.372359154929577926e+03 8.091820450057574110e-02 3.773008322899799871e-02 1.639011976326923414e-01
7.382362355953905535e+03 7.658048264557561213e-02 3.393243215744914942e-02 1.562955607636369038e-01
7.392365556978233144e+03 7.230644238989841766e-02 3.207748545116216599e-02 1.459959904622762650e-01
7.402368758002560753e+03 6.850449985247154816e-02 3.076151619603710585e-02 1.420197749323358627e-01
7.412371959026888362e+03 6.974015841757676137e-02 3.198955564801331253e-02 1.373160639725053145e-01
7.422375160051215971e+03 6.666600533706076859e-02 3.122603723026875361e-02 1.273521568360057865e-01
7.432378361075544490e+03 6.542432601137773696e-02 2.967765065909363370e-02 1.272052174266854740e-01
7.442381562099872099e+03 6.274423689590294395e-02 2.864126824447680436e-02 1.249449276354333976e-01
7.452384763124199708e+03 5.964533798956358351e-02 2.869678872363764024e-02 1.131935400881724924e-01
7.462387964148527317e+03 5.666482811791000856e-02 2.663968532052884974e-02 1.133271543105215384e-01
7.472391165172854926e+03 5.812593405325815893e-02 2.690100245762923337e-02 1.111206636467011316e-01
7.482394366197183444e+03 8.021319605905120886e-02 3.688142250454354981e-02 1.402494621336616565e-01
7.492397567221511054e+03 1.906725380904059630e-01 1.393812542186118331e-01 2.466411294464509463e-01
7.502400768245838663e+03 1.679698552562404468e-01 1.005073655063128263e-01 2.232882151529151371e-01
7.512403969270166272e+03 6.389922078107800052e-02 3.148240484370192632e-02 1.156524240509756579e-01
7.522407170294493881e+03 5.462033073255475463e-02 2.641271650533103671e-02 1.060159885452254397e-01
7.532410371318822399e+03 5.320839709462678313e-02 2.460615314803675513e-02 1.064845677649775141e-01
7.542413572343150008e+03 5.201397176133368272e-02 2.492778925046343699e-02 1.048204434284922687e-01
7.552416773367477617e+03 5.469233584078821847e-02 2.645428678836322933e-02 1.090339867586941902e-01
7.562419974391805226e+03 5.663807520566484233e-02 2.575050140437470242e-02 1.118625655268607189e-01
7.572423175416132835e+03 5.700641081458481668e-02 2.625175711619001651e-02 1.072337847544339723e-01
7.582426376440461354e+03 5.500032497348135430e-02 2.472916380455308233e-02 1.066106544145780655e-01
7.592429577464788963e+03 5.351454612331763699e-02 2.439077987969313910e-02 1.062348320569077992e-01
7.602432778489116572e+03 5.419563441237749968e-02 2.511539681339051977e-02 1.021458246411306447e-01
7.612435979513444181e+03 5.448638117754862897e-02 2.489282176191577600e-02 1.012123986822068833e-01
7.622439180537771790e+03 5.341288625873631679e-02 2.511171307550590440e-02 1.049047759366376759e-01
7.632442381562100309e+03 5.362186341217737434e-02 2.627467516163534828e-02 1.052659284258966876e-01
7.642445582586427918e+03 5.475098501559021169e-02 2.430880475216937869e-02 1.052185635173951833e-01
7.652448783610755527e+03 5.331588298988292757e-02 2.534175709726105286e-02 1.029355588846200958e-01
7.662451984635083136e+03 5.451837131621441873e-02 2.459649929469489432e-02 1.013109140791056684e-01
7.672455185659410745e+03 5.370456258527613741e-02 2.521319603586896774e-02 1.037719960735039859e-01
7.682458386683738354e+03 5.403677087934512929e-02 2.465722255115188749e-02 1.052559419908649235e-01
7.692461587708066872e+03 5.188109949198969201e-02 2.340860789030258307e-02 1.043850451561663673e-01
7.702464788732394481e+03 5.429030158041846937e-02 2.439894525109834872e-02 1.079806922635894867e-01
7.712467989756722091e+03 5.580415547550205552e-02 2.599338058366760379e-02 1.111571620007382188e-01
7.722471190781049700e+03 5.371727121195997434e-02 2.486481526297274272e-02 1.073753326727830693e-01
7.732474391805377309e+03 5.323018825180754476e-02 2.504698004506902137e-02 1.050928791985732275e-01
7.742477592829705827e+03 5.310562050600383527e-02 2.565013780454309875e-02 1.101841514291729551e-01
7.752480793854033436e+03 5.431624224698163722e-02 2.425508214793859613e-02 1.074371695193504783e-01
7.762483994878361045e+03 5.490746994219362215e-02 2.589953425966737971e-02 1.067742890474594059e-01
7.772487195902688654e+03 5.344065513052866090e-02 2.527266144819843852e-02 1.060924099945651927e-01
7.782490396927016263e+03 5.324063311439875684e-02 2.431113002254177424e-02 1.072966258715528087e-01
7.792493597951344782e+03 5.341825216004406768e-02 2.465073457809162372e-02 1.054163124652886530e-01
7.802496798975672391e+03 5.458665792093789215e-02 2.490982499934978750e-02 1.077661406945409073e-01
7.812500000000000000e+03 2.939403695250522586e-02 9.210871443408314221e-03 7.753406849019804647e-02
