# SR785 Measurement - Timestamp: Jan 22 2019 - 18:49:44
#---------- Measurement Setup ------------
# Start Frequency (Hz): 0.000000
# Frequency Span (Hz): 102400.000000
# Frequency Resolution: 800
# Number of Averages: 100
# Averaging Mode: RMS
# Window function: BMH
#---------- Measurement Parameters ----------
# Measurement Group:  "FFT" "FFT"
# Measurements:  "FFT 2" "FFT 2"
# View:  "Log Magnitude" "Log Magnitude"
# Unit:  "Vrms/rtHz" "dBVpk"
#---------- Input Parameters ----------
# Input Source: Analog
# Input Mode: Single ended, Single ended
# Input Grounding: Float, Float
# Input Coupling: AC, AC
# Input Range: -50.0dBVpk, 10.0dBVpk
# Auto Range: Off, Off
# Auto Range Mode: Up Only, Normal
# Anti-Aliasing Filter: On, On
#---------- Source Parameters ----------
# Source Type: Sine
# Source Amplitude: 500.0mVpk
# Source On: 0

#---------- Measurement Data ----------
# [Freq(Hz) Display 0(Vrms/rtHz) Display 1(dBVpk) ]
+0.0000000e+000    +3.0972369e-006
+1.2800000e+002    +2.3264233e-006
+2.5600000e+002    +1.4879092e-006
+3.8400000e+002    +1.3341819e-006
+5.1200000e+002    +1.3000563e-006
+6.4000000e+002    +1.2976975e-006
+7.6800000e+002    +1.3048641e-006
+8.9600000e+002    +1.2793093e-006
+1.0240000e+003    +1.2528717e-006
+1.1520000e+003    +1.3020676e-006
+1.2800000e+003    +1.3570982e-006
+1.4080000e+003    +1.3420362e-006
+1.5360000e+003    +1.3424946e-006
+1.6640000e+003    +1.3283542e-006
+1.7920000e+003    +1.3182969e-006
+1.9200000e+003    +1.3106450e-006
+2.0480000e+003    +1.2849754e-006
+2.1760000e+003    +1.2718724e-006
+2.3040000e+003    +1.2936404e-006
+2.4320000e+003    +1.2929473e-006
+2.5600000e+003    +1.2906908e-006
+2.6880000e+003    +1.3094036e-006
+2.8160000e+003    +1.3017060e-006
+2.9440000e+003    +1.3619225e-006
+3.0720000e+003    +1.3511867e-006
+3.2000000e+003    +1.2961995e-006
+3.3280000e+003    +1.3036383e-006
+3.4560000e+003    +1.2743998e-006
+3.5840000e+003    +1.2398074e-006
+3.7120000e+003    +1.2219953e-006
+3.8400000e+003    +1.2431442e-006
+3.9680000e+003    +1.2725527e-006
+4.0960000e+003    +1.2815811e-006
+4.2240000e+003    +1.3730240e-006
+4.3520000e+003    +1.4280917e-006
+4.4800000e+003    +1.3388160e-006
+4.6080000e+003    +1.2607994e-006
+4.7360000e+003    +1.1828038e-006
+4.8640000e+003    +1.1885069e-006
+4.9920000e+003    +1.2513746e-006
+5.1200000e+003    +1.2491836e-006
+5.2480000e+003    +1.2170317e-006
+5.3760000e+003    +1.2611498e-006
+5.5040000e+003    +1.2860015e-006
+5.6320000e+003    +1.2780514e-006
+5.7600000e+003    +1.3069633e-006
+5.8880000e+003    +1.3438100e-006
+6.0160000e+003    +1.3245647e-006
+6.1440000e+003    +1.2915427e-006
+6.2720000e+003    +1.2859252e-006
+6.4000000e+003    +1.2819175e-006
+6.5280000e+003    +1.3450543e-006
+6.6560000e+003    +1.3939174e-006
+6.7840000e+003    +1.3458654e-006
+6.9120000e+003    +1.3443369e-006
+7.0400000e+003    +1.3622621e-006
+7.1680000e+003    +1.3392688e-006
+7.2960000e+003    +1.2933534e-006
+7.4240000e+003    +1.3062674e-006
+7.5520000e+003    +1.3519629e-006
+7.6800000e+003    +1.3383604e-006
+7.8080000e+003    +1.2820963e-006
+7.9360000e+003    +1.3076135e-006
+8.0640000e+003    +1.3447560e-006
+8.1920000e+003    +1.3546507e-006
+8.3200000e+003    +1.3275727e-006
+8.4480000e+003    +1.3558636e-006
+8.5760000e+003    +1.3317496e-006
+8.7040000e+003    +1.3189803e-006
+8.8320000e+003    +1.3402073e-006
+8.9600000e+003    +1.3375789e-006
+9.0880000e+003    +1.3609898e-006
+9.2160000e+003    +1.3839607e-006
+9.3440000e+003    +1.3629981e-006
+9.4720000e+003    +1.3380666e-006
+9.6000000e+003    +1.3524037e-006
+9.7280000e+003    +1.2855583e-006
+9.8560000e+003    +1.2103914e-006
+9.9840000e+003    +1.2194151e-006
+1.0112000e+004    +1.2697571e-006
+1.0240000e+004    +1.3679531e-006
+1.0368000e+004    +1.3862967e-006
+1.0496000e+004    +1.3372455e-006
+1.0624000e+004    +1.3293989e-006
+1.0752000e+004    +1.3406092e-006
+1.0880000e+004    +1.3206902e-006
+1.1008000e+004    +1.2836781e-006
+1.1136000e+004    +1.2797448e-006
+1.1264000e+004    +1.2976748e-006
+1.1392000e+004    +1.2934855e-006
+1.1520000e+004    +1.2680254e-006
+1.1648000e+004    +1.2119245e-006
+1.1776000e+004    +1.2089940e-006
+1.1904000e+004    +1.2450798e-006
+1.2032000e+004    +1.3807613e-006
+1.2160000e+004    +1.4186570e-006
+1.2288000e+004    +1.3999190e-006
+1.2416000e+004    +1.3852484e-006
+1.2544000e+004    +1.3480616e-006
+1.2672000e+004    +1.3201031e-006
+1.2800000e+004    +1.3743212e-006
+1.2928000e+004    +1.4083071e-006
+1.3056000e+004    +1.3808310e-006
+1.3184000e+004    +1.3424415e-006
+1.3312000e+004    +1.3327164e-006
+1.3440000e+004    +1.3863804e-006
+1.3568000e+004    +1.3646662e-006
+1.3696000e+004    +1.3069302e-006
+1.3824000e+004    +1.2976918e-006
+1.3952000e+004    +1.3711409e-006
+1.4080000e+004    +1.3331891e-006
+1.4208000e+004    +1.2899003e-006
+1.4336000e+004    +1.3723669e-006
+1.4464000e+004    +1.3761966e-006
+1.4592000e+004    +1.3522197e-006
+1.4720000e+004    +1.3131915e-006
+1.4848000e+004    +1.2994441e-006
+1.4976000e+004    +1.3227640e-006
+1.5104000e+004    +1.3624968e-006
+1.5232000e+004    +1.3462023e-006
+1.5360000e+004    +1.3926049e-006
+1.5488000e+004    +1.3916939e-006
+1.5616000e+004    +1.3701552e-006
+1.5744000e+004    +1.3957904e-006
+1.5872000e+004    +1.3988404e-006
+1.6000000e+004    +1.3380093e-006
+1.6128000e+004    +1.3589605e-006
+1.6256000e+004    +1.4132623e-006
+1.6384000e+004    +1.4072700e-006
+1.6512000e+004    +1.3656570e-006
+1.6640000e+004    +1.3772969e-006
+1.6768000e+004    +1.3985333e-006
+1.6896000e+004    +1.3881214e-006
+1.7024000e+004    +1.3914723e-006
+1.7152000e+004    +1.3640805e-006
+1.7280000e+004    +1.3589083e-006
+1.7408000e+004    +1.2866498e-006
+1.7536000e+004    +1.2481609e-006
+1.7664000e+004    +1.3073536e-006
+1.7792000e+004    +1.3493187e-006
+1.7920000e+004    +1.3666726e-006
+1.8048000e+004    +1.3585175e-006
+1.8176000e+004    +1.3508070e-006
+1.8304000e+004    +1.3718336e-006
+1.8432000e+004    +1.3248003e-006
+1.8560000e+004    +1.3301275e-006
+1.8688000e+004    +1.3577122e-006
+1.8816000e+004    +1.3397733e-006
+1.8944000e+004    +1.3676782e-006
+1.9072000e+004    +1.3940398e-006
+1.9200000e+004    +1.3862084e-006
+1.9328000e+004    +1.3990631e-006
+1.9456000e+004    +1.3664835e-006
+1.9584000e+004    +1.3693235e-006
+1.9712000e+004    +1.3829188e-006
+1.9840000e+004    +1.4342183e-006
+1.9968000e+004    +1.4233126e-006
+2.0096000e+004    +1.4057534e-006
+2.0224000e+004    +1.4141750e-006
+2.0352000e+004    +1.4045609e-006
+2.0480000e+004    +1.3462171e-006
+2.0608000e+004    +1.3379608e-006
+2.0736000e+004    +1.3386278e-006
+2.0864000e+004    +1.3160582e-006
+2.0992000e+004    +1.3213429e-006
+2.1120000e+004    +1.3976306e-006
+2.1248000e+004    +1.3628351e-006
+2.1376000e+004    +1.3647966e-006
+2.1504000e+004    +1.4113178e-006
+2.1632000e+004    +1.4113845e-006
+2.1760000e+004    +1.3938363e-006
+2.1888000e+004    +1.3612274e-006
+2.2016000e+004    +1.3548145e-006
+2.2144000e+004    +1.3061887e-006
+2.2272000e+004    +1.2725583e-006
+2.2400000e+004    +1.3347006e-006
+2.2528000e+004    +1.3780881e-006
+2.2656000e+004    +1.3712855e-006
+2.2784000e+004    +1.3694394e-006
+2.2912000e+004    +1.3711710e-006
+2.3040000e+004    +1.4156617e-006
+2.3168000e+004    +1.4472512e-006
+2.3296000e+004    +1.4144327e-006
+2.3424000e+004    +1.4411906e-006
+2.3552000e+004    +1.4220723e-006
+2.3680000e+004    +1.3698724e-006
+2.3808000e+004    +1.3232419e-006
+2.3936000e+004    +1.3496388e-006
+2.4064000e+004    +1.3940047e-006
+2.4192000e+004    +1.3366893e-006
+2.4320000e+004    +1.2744138e-006
+2.4448000e+004    +1.3126928e-006
+2.4576000e+004    +1.3555167e-006
+2.4704000e+004    +1.4133896e-006
+2.4832000e+004    +1.4121099e-006
+2.4960000e+004    +1.4331825e-006
+2.5088000e+004    +1.4775488e-006
+2.5216000e+004    +1.5315446e-006
+2.5344000e+004    +1.4789089e-006
+2.5472000e+004    +1.3442453e-006
+2.5600000e+004    +1.3115346e-006
+2.5728000e+004    +1.3592739e-006
+2.5856000e+004    +1.3572204e-006
+2.5984000e+004    +1.2710390e-006
+2.6112000e+004    +1.2738737e-006
+2.6240000e+004    +1.3613245e-006
+2.6368000e+004    +1.4255569e-006
+2.6496000e+004    +1.4123781e-006
+2.6624000e+004    +1.3617655e-006
+2.6752000e+004    +1.3596590e-006
+2.6880000e+004    +1.3999605e-006
+2.7008000e+004    +1.4183269e-006
+2.7136000e+004    +1.3182100e-006
+2.7264000e+004    +1.3386940e-006
+2.7392000e+004    +1.4416228e-006
+2.7520000e+004    +1.3550375e-006
+2.7648000e+004    +1.2593302e-006
+2.7776000e+004    +1.2951126e-006
+2.7904000e+004    +1.3584399e-006
+2.8032000e+004    +1.3739952e-006
+2.8160000e+004    +1.3765577e-006
+2.8288000e+004    +1.3350846e-006
+2.8416000e+004    +1.2973101e-006
+2.8544000e+004    +1.3372529e-006
+2.8672000e+004    +1.3688185e-006
+2.8800000e+004    +1.2966323e-006
+2.8928000e+004    +1.2740318e-006
+2.9056000e+004    +1.3559574e-006
+2.9184000e+004    +1.3864550e-006
+2.9312000e+004    +1.3196814e-006
+2.9440000e+004    +1.3804536e-006
+2.9568000e+004    +1.4681679e-006
+2.9696000e+004    +1.4375196e-006
+2.9824000e+004    +1.3371824e-006
+2.9952000e+004    +1.3320405e-006
+3.0080000e+004    +1.4025744e-006
+3.0208000e+004    +1.4342340e-006
+3.0336000e+004    +1.3683497e-006
+3.0464000e+004    +1.2898352e-006
+3.0592000e+004    +1.3480749e-006
+3.0720000e+004    +1.3823176e-006
+3.0848000e+004    +1.3751815e-006
+3.0976000e+004    +1.3550792e-006
+3.1104000e+004    +1.3579746e-006
+3.1232000e+004    +1.3277520e-006
+3.1360000e+004    +1.3756919e-006
+3.1488000e+004    +1.4575576e-006
+3.1616000e+004    +1.4142651e-006
+3.1744000e+004    +1.3629996e-006
+3.1872000e+004    +1.3406886e-006
+3.2000000e+004    +1.3052984e-006
+3.2128000e+004    +1.3183953e-006
+3.2256000e+004    +1.3150774e-006
+3.2384000e+004    +1.3072216e-006
+3.2512000e+004    +1.3097573e-006
+3.2640000e+004    +1.3328569e-006
+3.2768000e+004    +1.3471501e-006
+3.2896000e+004    +1.3612977e-006
+3.3024000e+004    +1.2881580e-006
+3.3152000e+004    +1.2336657e-006
+3.3280000e+004    +1.3349483e-006
+3.3408000e+004    +1.3754261e-006
+3.3536000e+004    +1.3698634e-006
+3.3664000e+004    +1.3638439e-006
+3.3792000e+004    +1.4090573e-006
+3.3920000e+004    +1.4290877e-006
+3.4048000e+004    +1.3746139e-006
+3.4176000e+004    +1.3385853e-006
+3.4304000e+004    +1.3287510e-006
+3.4432000e+004    +1.4100601e-006
+3.4560000e+004    +1.3542269e-006
+3.4688000e+004    +1.3065960e-006
+3.4816000e+004    +1.3125862e-006
+3.4944000e+004    +1.3796626e-006
+3.5072000e+004    +1.4631598e-006
+3.5200000e+004    +1.4555474e-006
+3.5328000e+004    +1.4077150e-006
+3.5456000e+004    +1.3684939e-006
+3.5584000e+004    +1.3712960e-006
+3.5712000e+004    +1.3753537e-006
+3.5840000e+004    +1.4061533e-006
+3.5968000e+004    +1.4305884e-006
+3.6096000e+004    +1.4130668e-006
+3.6224000e+004    +1.4021803e-006
+3.6352000e+004    +1.4112977e-006
+3.6480000e+004    +1.3747316e-006
+3.6608000e+004    +1.3460294e-006
+3.6736000e+004    +1.3719466e-006
+3.6864000e+004    +1.3966811e-006
+3.6992000e+004    +1.3928068e-006
+3.7120000e+004    +1.3814861e-006
+3.7248000e+004    +1.3215853e-006
+3.7376000e+004    +1.3395056e-006
+3.7504000e+004    +1.3842890e-006
+3.7632000e+004    +1.3733709e-006
+3.7760000e+004    +1.3290048e-006
+3.7888000e+004    +1.3692575e-006
+3.8016000e+004    +1.4314620e-006
+3.8144000e+004    +1.4503436e-006
+3.8272000e+004    +1.3981524e-006
+3.8400000e+004    +1.3239541e-006
+3.8528000e+004    +1.2951667e-006
+3.8656000e+004    +1.2983360e-006
+3.8784000e+004    +1.3574752e-006
+3.8912000e+004    +1.3665300e-006
+3.9040000e+004    +1.4140493e-006
+3.9168000e+004    +1.5042747e-006
+3.9296000e+004    +1.4364025e-006
+3.9424000e+004    +1.3304372e-006
+3.9552000e+004    +1.3017075e-006
+3.9680000e+004    +1.3622232e-006
+3.9808000e+004    +1.3973790e-006
+3.9936000e+004    +1.3532148e-006
+4.0064000e+004    +1.3671903e-006
+4.0192000e+004    +1.4374391e-006
+4.0320000e+004    +1.4490336e-006
+4.0448000e+004    +1.4129396e-006
+4.0576000e+004    +1.4333351e-006
+4.0704000e+004    +1.4592133e-006
+4.0832000e+004    +1.4356851e-006
+4.0960000e+004    +1.3792506e-006
+4.1088000e+004    +1.4637400e-006
+4.1216000e+004    +1.4074677e-006
+4.1344000e+004    +1.3484035e-006
+4.1472000e+004    +1.4094131e-006
+4.1600000e+004    +1.4655104e-006
+4.1728000e+004    +1.4068945e-006
+4.1856000e+004    +1.3928862e-006
+4.1984000e+004    +1.4306198e-006
+4.2112000e+004    +1.4618881e-006
+4.2240000e+004    +1.3788766e-006
+4.2368000e+004    +1.3308974e-006
+4.2496000e+004    +1.3376803e-006
+4.2624000e+004    +1.3558263e-006
+4.2752000e+004    +1.3748886e-006
+4.2880000e+004    +1.4893949e-006
+4.3008000e+004    +1.4004817e-006
+4.3136000e+004    +1.3772199e-006
+4.3264000e+004    +1.4071001e-006
+4.3392000e+004    +1.3542403e-006
+4.3520000e+004    +1.3168893e-006
+4.3648000e+004    +1.3270801e-006
+4.3776000e+004    +1.3344280e-006
+4.3904000e+004    +1.3395056e-006
+4.4032000e+004    +1.3986806e-006
+4.4160000e+004    +1.4609591e-006
+4.4288000e+004    +1.4393769e-006
+4.4416000e+004    +1.3872057e-006
+4.4544000e+004    +1.4119564e-006
+4.4672000e+004    +1.3734326e-006
+4.4800000e+004    +1.3350539e-006
+4.4928000e+004    +1.3876124e-006
+4.5056000e+004    +1.4099425e-006
+4.5184000e+004    +1.4127115e-006
+4.5312000e+004    +1.3608957e-006
+4.5440000e+004    +1.3419242e-006
+4.5568000e+004    +1.3877160e-006
+4.5696000e+004    +1.3857062e-006
+4.5824000e+004    +1.3803262e-006
+4.5952000e+004    +1.3381135e-006
+4.6080000e+004    +1.2929602e-006
+4.6208000e+004    +1.3150918e-006
+4.6336000e+004    +1.3544663e-006
+4.6464000e+004    +1.3768419e-006
+4.6592000e+004    +1.3287116e-006
+4.6720000e+004    +1.2868278e-006
+4.6848000e+004    +1.2865607e-006
+4.6976000e+004    +1.3145606e-006
+4.7104000e+004    +1.3625702e-006
+4.7232000e+004    +1.4116728e-006
+4.7360000e+004    +1.4350878e-006
+4.7488000e+004    +1.3716318e-006
+4.7616000e+004    +1.2765312e-006
+4.7744000e+004    +1.3014160e-006
+4.7872000e+004    +1.3055793e-006
+4.8000000e+004    +1.2598834e-006
+4.8128000e+004    +1.3091635e-006
+4.8256000e+004    +1.3853610e-006
+4.8384000e+004    +1.4107771e-006
+4.8512000e+004    +1.4118060e-006
+4.8640000e+004    +1.3938669e-006
+4.8768000e+004    +1.3805491e-006
+4.8896000e+004    +1.3220453e-006
+4.9024000e+004    +1.2874001e-006
+4.9152000e+004    +1.3156595e-006
+4.9280000e+004    +1.3539074e-006
+4.9408000e+004    +1.3368845e-006
+4.9536000e+004    +1.3630355e-006
+4.9664000e+004    +1.4292383e-006
+4.9792000e+004    +1.3768963e-006
+4.9920000e+004    +1.3197103e-006
+5.0048000e+004    +1.3782833e-006
+5.0176000e+004    +1.3508723e-006
+5.0304000e+004    +1.2807161e-006
+5.0432000e+004    +1.2969597e-006
+5.0560000e+004    +1.3143182e-006
+5.0688000e+004    +1.3697883e-006
+5.0816000e+004    +1.4121176e-006
+5.0944000e+004    +1.3662615e-006
+5.1072000e+004    +1.3658159e-006
+5.1200000e+004    +1.3691507e-006
+5.1328000e+004    +1.2609282e-006
+5.1456000e+004    +1.2416724e-006
+5.1584000e+004    +1.3246942e-006
+5.1712000e+004    +1.3458654e-006
+5.1840000e+004    +1.3916801e-006
+5.1968000e+004    +1.4084324e-006
+5.2096000e+004    +1.3977595e-006
+5.2224000e+004    +1.3354878e-006
+5.2352000e+004    +1.3177007e-006
+5.2480000e+004    +1.3295186e-006
+5.2608000e+004    +1.3902705e-006
+5.2736000e+004    +1.4111102e-006
+5.2864000e+004    +1.3594859e-006
+5.2992000e+004    +1.3893290e-006
+5.3120000e+004    +1.3990017e-006
+5.3248000e+004    +1.3757010e-006
+5.3376000e+004    +1.3695777e-006
+5.3504000e+004    +1.3309368e-006
+5.3632000e+004    +1.3653541e-006
+5.3760000e+004    +1.3800717e-006
+5.3888000e+004    +1.3102377e-006
+5.4016000e+004    +1.2688527e-006
+5.4144000e+004    +1.2989292e-006
+5.4272000e+004    +1.3561538e-006
+5.4400000e+004    +1.3459334e-006
+5.4528000e+004    +1.3444077e-006
+5.4656000e+004    +1.3905529e-006
+5.4784000e+004    +1.4358254e-006
+5.4912000e+004    +1.4121719e-006
+5.5040000e+004    +1.3658910e-006
+5.5168000e+004    +1.4010631e-006
+5.5296000e+004    +1.4009769e-006
+5.5424000e+004    +1.3801974e-006
+5.5552000e+004    +1.4010369e-006
+5.5680000e+004    +1.4198959e-006
+5.5808000e+004    +1.4169975e-006
+5.5936000e+004    +1.3995717e-006
+5.6064000e+004    +1.4251938e-006
+5.6192000e+004    +1.4456631e-006
+5.6320000e+004    +1.3820156e-006
+5.6448000e+004    +1.4014323e-006
+5.6576000e+004    +1.4307659e-006
+5.6704000e+004    +1.4038794e-006
+5.6832000e+004    +1.3452744e-006
+5.6960000e+004    +1.3001277e-006
+5.7088000e+004    +1.2878766e-006
+5.7216000e+004    +1.2878102e-006
+5.7344000e+004    +1.2819330e-006
+5.7472000e+004    +1.2524756e-006
+5.7600000e+004    +1.3060853e-006
+5.7728000e+004    +1.3173260e-006
+5.7856000e+004    +1.2968771e-006
+5.7984000e+004    +1.2937753e-006
+5.8112000e+004    +1.3470909e-006
+5.8240000e+004    +1.3752057e-006
+5.8368000e+004    +1.4224190e-006
+5.8496000e+004    +1.4958553e-006
+5.8624000e+004    +1.5430052e-006
+5.8752000e+004    +1.5729878e-006
+5.8880000e+004    +1.5200540e-006
+5.9008000e+004    +1.4467794e-006
+5.9136000e+004    +1.3244672e-006
+5.9264000e+004    +1.2617412e-006
+5.9392000e+004    +1.2760743e-006
+5.9520000e+004    +1.3411700e-006
+5.9648000e+004    +1.3891505e-006
+5.9776000e+004    +1.4278972e-006
+5.9904000e+004    +1.4017139e-006
+6.0032000e+004    +1.3687569e-006
+6.0160000e+004    +1.4053090e-006
+6.0288000e+004    +1.4286735e-006
+6.0416000e+004    +1.3557444e-006
+6.0544000e+004    +1.3023508e-006
+6.0672000e+004    +1.3856393e-006
+6.0800000e+004    +1.4269270e-006
+6.0928000e+004    +1.4108732e-006
+6.1056000e+004    +1.3863530e-006
+6.1184000e+004    +1.3801762e-006
+6.1312000e+004    +1.3046349e-006
+6.1440000e+004    +1.2700988e-006
+6.1568000e+004    +1.2875358e-006
+6.1696000e+004    +1.2782956e-006
+6.1824000e+004    +1.2509144e-006
+6.1952000e+004    +1.3273045e-006
+6.2080000e+004    +1.4058862e-006
+6.2208000e+004    +1.4869081e-006
+6.2336000e+004    +1.5166248e-006
+6.2464000e+004    +1.4664618e-006
+6.2592000e+004    +1.4358633e-006
+6.2720000e+004    +1.4337916e-006
+6.2848000e+004    +1.4056069e-006
+6.2976000e+004    +1.3389630e-006
+6.3104000e+004    +1.3146804e-006
+6.3232000e+004    +1.3101687e-006
+6.3360000e+004    +1.2888371e-006
+6.3488000e+004    +1.3270510e-006
+6.3616000e+004    +1.3556968e-006
+6.3744000e+004    +1.3827927e-006
+6.3872000e+004    +1.4098156e-006
+6.4000000e+004    +1.3865996e-006
+6.4128000e+004    +1.3296500e-006
+6.4256000e+004    +1.2647773e-006
+6.4384000e+004    +1.3055405e-006
+6.4512000e+004    +1.3852575e-006
+6.4640000e+004    +1.3727512e-006
+6.4768000e+004    +1.3146616e-006
+6.4896000e+004    +1.2997838e-006
+6.5024000e+004    +1.3508352e-006
+6.5152000e+004    +1.3529844e-006
+6.5280000e+004    +1.3639786e-006
+6.5408000e+004    +1.3781199e-006
+6.5536000e+004    +1.3873687e-006
+6.5664000e+004    +1.3596157e-006
+6.5792000e+004    +1.3302443e-006
+6.5920000e+004    +1.3367626e-006
+6.6048000e+004    +1.3656945e-006
+6.6176000e+004    +1.2843943e-006
+6.6304000e+004    +1.3239772e-006
+6.6432000e+004    +1.3739349e-006
+6.6560000e+004    +1.3921921e-006
+6.6688000e+004    +1.4002665e-006
+6.6816000e+004    +1.4015569e-006
+6.6944000e+004    +1.3966060e-006
+6.7072000e+004    +1.3972593e-006
+6.7200000e+004    +1.5005170e-006
+6.7328000e+004    +1.5637494e-006
+6.7456000e+004    +1.4104999e-006
+6.7584000e+004    +1.3284753e-006
+6.7712000e+004    +1.3969250e-006
+6.7840000e+004    +1.3780609e-006
+6.7968000e+004    +1.3703659e-006
+6.8096000e+004    +1.4025098e-006
+6.8224000e+004    +1.3845596e-006
+6.8352000e+004    +1.3698364e-006
+6.8480000e+004    +1.3917703e-006
+6.8608000e+004    +1.4213776e-006
+6.8736000e+004    +1.4192693e-006
+6.8864000e+004    +1.4384890e-006
+6.8992000e+004    +1.3950749e-006
+6.9120000e+004    +1.3650124e-006
+6.9248000e+004    +1.3784346e-006
+6.9376000e+004    +1.3993688e-006
+6.9504000e+004    +1.4009815e-006
+6.9632000e+004    +1.4107508e-006
+6.9760000e+004    +1.4338672e-006
+6.9888000e+004    +1.4574199e-006
+7.0016000e+004    +1.4138863e-006
+7.0144000e+004    +1.4123239e-006
+7.0272000e+004    +1.4672252e-006
+7.0400000e+004    +1.4485612e-006
+7.0528000e+004    +1.3886549e-006
+7.0656000e+004    +1.4028362e-006
+7.0784000e+004    +1.4242380e-006
+7.0912000e+004    +1.3920270e-006
+7.1040000e+004    +1.3955897e-006
+7.1168000e+004    +1.4008092e-006
+7.1296000e+004    +1.4209610e-006
+7.1424000e+004    +1.4309027e-006
+7.1552000e+004    +1.4323708e-006
+7.1680000e+004    +1.4157798e-006
+7.1808000e+004    +1.3674560e-006
+7.1936000e+004    +1.3280728e-006
+7.2064000e+004    +1.3402015e-006
+7.2192000e+004    +1.3535729e-006
+7.2320000e+004    +1.3769160e-006
+7.2448000e+004    +1.3982032e-006
+7.2576000e+004    +1.3710898e-006
+7.2704000e+004    +1.2940054e-006
+7.2832000e+004    +1.2695439e-006
+7.2960000e+004    +1.2755169e-006
+7.3088000e+004    +1.3196061e-006
+7.3216000e+004    +1.3758944e-006
+7.3344000e+004    +1.4139064e-006
+7.3472000e+004    +1.4736539e-006
+7.3600000e+004    +1.4486964e-006
+7.3728000e+004    +1.3742880e-006
+7.3856000e+004    +1.3708338e-006
+7.3984000e+004    +1.3744026e-006
+7.4112000e+004    +1.3448815e-006
+7.4240000e+004    +1.2947430e-006
+7.4368000e+004    +1.3219161e-006
+7.4496000e+004    +1.3667430e-006
+7.4624000e+004    +1.3693056e-006
+7.4752000e+004    +1.3929841e-006
+7.4880000e+004    +1.4195997e-006
+7.5008000e+004    +1.4616762e-006
+7.5136000e+004    +1.4295836e-006
+7.5264000e+004    +1.3738338e-006
+7.5392000e+004    +1.3824163e-006
+7.5520000e+004    +1.4647962e-006
+7.5648000e+004    +1.5242489e-006
+7.5776000e+004    +1.4953987e-006
+7.5904000e+004    +1.3701538e-006
+7.6032000e+004    +1.3666951e-006
+7.6160000e+004    +1.3686953e-006
+7.6288000e+004    +1.3765773e-006
+7.6416000e+004    +1.4006108e-006
+7.6544000e+004    +1.4568808e-006
+7.6672000e+004    +1.4343427e-006
+7.6800000e+004    +1.4272248e-006
+7.6928000e+004    +1.4419203e-006
+7.7056000e+004    +1.4534249e-006
+7.7184000e+004    +1.4093883e-006
+7.7312000e+004    +1.3542403e-006
+7.7440000e+004    +1.3374907e-006
+7.7568000e+004    +1.3964051e-006
+7.7696000e+004    +1.3836599e-006
+7.7824000e+004    +1.3577361e-006
+7.7952000e+004    +1.3433379e-006
+7.8080000e+004    +1.3356623e-006
+7.8208000e+004    +1.3809887e-006
+7.8336000e+004    +1.5391321e-006
+7.8464000e+004    +1.5309545e-006
+7.8592000e+004    +1.4039750e-006
+7.8720000e+004    +1.4402732e-006
+7.8848000e+004    +1.4801402e-006
+7.8976000e+004    +1.4792711e-006
+7.9104000e+004    +1.4053398e-006
+7.9232000e+004    +1.3562507e-006
+7.9360000e+004    +1.3585786e-006
+7.9488000e+004    +1.3773725e-006
+7.9616000e+004    +1.4068204e-006
+7.9744000e+004    +1.4156135e-006
+7.9872000e+004    +1.4258621e-006
+8.0000000e+004    +1.4251766e-006
+8.0128000e+004    +1.4739194e-006
+8.0256000e+004    +1.4612141e-006
+8.0384000e+004    +1.4355022e-006
+8.0512000e+004    +1.4610072e-006
+8.0640000e+004    +1.4530739e-006
+8.0768000e+004    +1.3156031e-006
+8.0896000e+004    +1.2687203e-006
+8.1024000e+004    +1.2716281e-006
+8.1152000e+004    +1.3698890e-006
+8.1280000e+004    +1.4253330e-006
+8.1408000e+004    +1.3487025e-006
+8.1536000e+004    +1.3700529e-006
+8.1664000e+004    +1.3977319e-006
+8.1792000e+004    +1.3978332e-006
+8.1920000e+004    +1.4177974e-006
+8.2048000e+004    +1.3631612e-006
+8.2176000e+004    +1.3355465e-006
+8.2304000e+004    +1.3211253e-006
+8.2432000e+004    +1.3008973e-006
+8.2560000e+004    +1.3411803e-006
+8.2688000e+004    +1.3598411e-006
+8.2816000e+004    +1.3853153e-006
+8.2944000e+004    +1.4151847e-006
+8.3072000e+004    +1.4059248e-006
+8.3200000e+004    +1.4151038e-006
+8.3328000e+004    +1.4307094e-006
+8.3456000e+004    +1.4147170e-006
+8.3584000e+004    +1.3784316e-006
+8.3712000e+004    +1.3514003e-006
+8.3840000e+004    +1.3963805e-006
+8.3968000e+004    +1.4592517e-006
+8.4096000e+004    +1.4020741e-006
+8.4224000e+004    +1.4216212e-006
+8.4352000e+004    +1.4592581e-006
+8.4480000e+004    +1.3870580e-006
+8.4608000e+004    +1.3631299e-006
+8.4736000e+004    +1.4123610e-006
+8.4864000e+004    +1.4467762e-006
+8.4992000e+004    +1.4039056e-006
+8.5120000e+004    +1.4466348e-006
+8.5248000e+004    +1.4592470e-006
+8.5376000e+004    +1.4284460e-006
+8.5504000e+004    +1.3949723e-006
+8.5632000e+004    +1.3449658e-006
+8.5760000e+004    +1.4426773e-006
+8.5888000e+004    +1.5154396e-006
+8.6016000e+004    +1.4647850e-006
+8.6144000e+004    +1.4069594e-006
+8.6272000e+004    +1.3926431e-006
+8.6400000e+004    +1.3852241e-006
+8.6528000e+004    +1.3750804e-006
+8.6656000e+004    +1.4173756e-006
+8.6784000e+004    +1.4981875e-006
+8.6912000e+004    +1.5143054e-006
+8.7040000e+004    +1.3993504e-006
+8.7168000e+004    +1.3385162e-006
+8.7296000e+004    +1.4659739e-006
+8.7424000e+004    +1.4877523e-006
+8.7552000e+004    +1.4317937e-006
+8.7680000e+004    +1.3750728e-006
+8.7808000e+004    +1.3620780e-006
+8.7936000e+004    +1.3556134e-006
+8.8064000e+004    +1.3573754e-006
+8.8192000e+004    +1.3467035e-006
+8.8320000e+004    +1.3260708e-006
+8.8448000e+004    +1.3140786e-006
+8.8576000e+004    +1.3573546e-006
+8.8704000e+004    +1.3997437e-006
+8.8832000e+004    +1.4278862e-006
+8.8960000e+004    +1.4193923e-006
+8.9088000e+004    +1.3498241e-006
+8.9216000e+004    +1.3169732e-006
+8.9344000e+004    +1.3330208e-006
+8.9472000e+004    +1.4176480e-006
+8.9600000e+004    +1.4406069e-006
+8.9728000e+004    +1.3498167e-006
+8.9856000e+004    +1.3657740e-006
+8.9984000e+004    +1.3884232e-006
+9.0112000e+004    +1.3981019e-006
+9.0240000e+004    +1.3691551e-006
+9.0368000e+004    +1.3623204e-006
+9.0496000e+004    +1.3900523e-006
+9.0624000e+004    +1.3966627e-006
+9.0752000e+004    +1.4311227e-006
+9.0880000e+004    +1.4011722e-006
+9.1008000e+004    +1.3621827e-006
+9.1136000e+004    +1.3996854e-006
+9.1264000e+004    +1.3834488e-006
+9.1392000e+004    +1.3381929e-006
+9.1520000e+004    +1.3342449e-006
+9.1648000e+004    +1.3688004e-006
+9.1776000e+004    +1.4061239e-006
+9.1904000e+004    +1.3876231e-006
+9.2032000e+004    +1.3949876e-006
+9.2160000e+004    +1.4234438e-006
+9.2288000e+004    +1.4349760e-006
+9.2416000e+004    +1.4278518e-006
+9.2544000e+004    +1.4200175e-006
+9.2672000e+004    +1.4112683e-006
+9.2800000e+004    +1.3244585e-006
+9.2928000e+004    +1.3155828e-006
+9.3056000e+004    +1.3319674e-006
+9.3184000e+004    +1.3840155e-006
+9.3312000e+004    +1.4000650e-006
+9.3440000e+004    +1.3904247e-006
+9.3568000e+004    +1.3910981e-006
+9.3696000e+004    +1.3516288e-006
+9.3824000e+004    +1.3964450e-006
+9.3952000e+004    +1.4056654e-006
+9.4080000e+004    +1.4065964e-006
+9.4208000e+004    +1.3880665e-006
+9.4336000e+004    +1.3524899e-006
+9.4464000e+004    +1.3702620e-006
+9.4592000e+004    +1.3227800e-006
+9.4720000e+004    +1.3465882e-006
+9.4848000e+004    +1.3605476e-006
+9.4976000e+004    +1.3590949e-006
+9.5104000e+004    +1.3798792e-006
+9.5232000e+004    +1.3390351e-006
+9.5360000e+004    +1.2749749e-006
+9.5488000e+004    +1.3078949e-006
+9.5616000e+004    +1.3284214e-006
+9.5744000e+004    +1.3872392e-006
+9.5872000e+004    +1.4121921e-006
+9.6000000e+004    +1.4110343e-006
+9.6128000e+004    +1.3904186e-006
+9.6256000e+004    +1.3654321e-006
+9.6384000e+004    +1.3578554e-006
+9.6512000e+004    +1.3790780e-006
+9.6640000e+004    +1.4325186e-006
+9.6768000e+004    +1.4382063e-006
+9.6896000e+004    +1.4910786e-006
+9.7024000e+004    +2.0762463e-006
+9.7152000e+004    +3.0335439e-006
+9.7280000e+004    +2.9902928e-006
+9.7408000e+004    +2.0097743e-006
+9.7536000e+004    +1.4840099e-006
+9.7664000e+004    +1.5098991e-006
+9.7792000e+004    +1.4830293e-006
+9.7920000e+004    +1.5646252e-006
+9.8048000e+004    +1.4810880e-006
+9.8176000e+004    +1.4079561e-006
+9.8304000e+004    +1.4089613e-006
+9.8432000e+004    +1.3912982e-006
+9.8560000e+004    +1.4063555e-006
+9.8688000e+004    +1.4299163e-006
+9.8816000e+004    +1.3667355e-006
+9.8944000e+004    +1.3230647e-006
+9.9072000e+004    +1.3479402e-006
+9.9200000e+004    +1.3750788e-006
+9.9328000e+004    +1.3988649e-006
+9.9456000e+004    +1.3881762e-006
+9.9584000e+004    +1.3672338e-006
+9.9712000e+004    +1.3989371e-006
+9.9840000e+004    +1.4410150e-006
+9.9968000e+004    +1.4071341e-006
+1.0009600e+005    +1.3961904e-006
+1.0022400e+005    +1.3907011e-006
+1.0035200e+005    +1.4289622e-006
+1.0048000e+005    +1.3956356e-006
+1.0060800e+005    +1.3829597e-006
+1.0073600e+005    +1.4167005e-006
+1.0086400e+005    +1.3882037e-006
+1.0099200e+005    +1.3886305e-006
+1.0112000e+005    +1.3740224e-006
+1.0124800e+005    +1.3406283e-006
+1.0137600e+005    +1.3838787e-006
+1.0150400e+005    +1.4791509e-006
+1.0163200e+005    +1.4688305e-006
+1.0176000e+005    +1.4286468e-006
+1.0188800e+005    +1.4241785e-006
+1.0201600e+005    +1.4208628e-006
+1.0214400e+005    +1.3783181e-006
+1.0227200e+005    +1.4059665e-006
