# Frequency [Hz], Spectrum [Hz/rtHz]
1.000000000000000000e+00 1.824403366233813983e+02
2.000000000000000000e+00 6.131444686827736490e+01
3.000000000000000000e+00 3.189026189073085504e+01
4.000000000000000000e+00 3.023355487459049584e+01
5.000000000000000000e+00 2.748991254473698120e+01
6.000000000000000000e+00 2.451421904342544877e+01
7.000000000000000000e+00 2.319706050033126132e+01
8.000000000000000000e+00 2.270530130548639036e+01
9.000000000000000000e+00 2.173005658187965849e+01
1.000000000000000000e+01 2.170723134684441646e+01
1.100000000000000000e+01 2.247117749325594360e+01
1.200000000000000000e+01 2.077056588733047349e+01
1.300000000000000000e+01 1.911034610790325061e+01
1.400000000000000000e+01 1.786952947993507124e+01
1.500000000000000000e+01 1.586952178550730608e+01
1.600000000000000000e+01 1.546287919648399800e+01
1.700000000000000000e+01 1.610877008571235081e+01
1.800000000000000000e+01 1.594551079042229347e+01
1.900000000000000000e+01 1.512073048454584168e+01
2.000000000000000000e+01 1.502641313280102153e+01
2.100000000000000000e+01 1.503894109850416427e+01
2.200000000000000000e+01 1.426341796105724136e+01
2.300000000000000000e+01 1.299409398876817257e+01
2.400000000000000000e+01 1.221888278006198902e+01
2.500000000000000000e+01 1.152013170985794233e+01
2.600000000000000000e+01 1.169035734631395940e+01
2.700000000000000000e+01 1.332712666251649658e+01
2.800000000000000000e+01 1.298405498799956170e+01
2.900000000000000000e+01 1.005725580758013216e+01
3.000000000000000000e+01 8.124636915165213580e+00
3.100000000000000000e+01 9.001197299666523932e+00
3.200000000000000000e+01 8.779410700538576862e+00
3.300000000000000000e+01 7.382108730412050512e+00
3.400000000000000000e+01 7.269868364017484375e+00
3.500000000000000000e+01 7.395298355033965265e+00
3.600000000000000000e+01 6.881037086705546812e+00
3.700000000000000000e+01 7.439106948181296808e+00
3.800000000000000000e+01 7.461291824201099487e+00
3.900000000000000000e+01 7.026458996209313135e+00
4.000000000000000000e+01 7.310824560241551140e+00
4.100000000000000000e+01 7.819486876507542483e+00
4.200000000000000000e+01 7.574254174669578177e+00
4.300000000000000000e+01 6.407477338111088550e+00
4.400000000000000000e+01 5.066679875688969936e+00
4.500000000000000000e+01 5.160925333790762792e+00
4.600000000000000000e+01 4.917167975751699949e+00
4.700000000000000000e+01 3.681857973800695127e+00
4.800000000000000000e+01 3.751630135740436689e+00
4.900000000000000000e+01 4.300883504451299189e+00
5.000000000000000000e+01 4.377358497469630016e+00
5.100000000000000000e+01 3.638197658271273838e+00
5.200000000000000000e+01 2.956701594411580203e+00
5.300000000000000000e+01 3.234195746611073563e+00
5.400000000000000000e+01 2.830733734326872586e+00
5.500000000000000000e+01 2.613469825617082520e+00
5.600000000000000000e+01 2.666495028844083848e+00
5.700000000000000000e+01 2.542683555830753672e+00
5.800000000000000000e+01 2.388450245403320960e+00
5.900000000000000000e+01 2.172417149830104144e+00
6.000000000000000000e+01 1.998667574375141198e+00
6.100000000000000000e+01 2.038382915829985542e+00
6.200000000000000000e+01 2.254240769936544542e+00
6.300000000000000000e+01 2.267541270862953429e+00
6.400000000000000000e+01 2.059683455144814435e+00
6.500000000000000000e+01 1.644329324778052381e+00
6.600000000000000000e+01 1.437493362535000596e+00
6.700000000000000000e+01 1.368175322505002178e+00
6.800000000000000000e+01 1.203801032635739787e+00
6.900000000000000000e+01 1.336322321710206484e+00
7.000000000000000000e+01 1.447869463829675629e+00
7.100000000000000000e+01 1.216767871377747001e+00
7.200000000000000000e+01 9.613554182547200400e-01
7.300000000000000000e+01 8.980638079846466892e-01
7.400000000000000000e+01 9.546725344923742140e-01
7.500000000000000000e+01 9.575993480149919135e-01
7.600000000000000000e+01 8.686131509528185468e-01
7.700000000000000000e+01 8.150655498666913301e-01
7.800000000000000000e+01 7.812906120907733287e-01
7.900000000000000000e+01 7.963466873315331318e-01
8.000000000000000000e+01 8.499953722960950087e-01
8.100000000000000000e+01 8.004457321035035600e-01
8.200000000000000000e+01 8.011658623240464072e-01
8.300000000000000000e+01 7.471126303724603401e-01
8.400000000000000000e+01 6.238441261179059616e-01
8.500000000000000000e+01 5.922911651243417674e-01
8.600000000000000000e+01 5.872797293531843987e-01
8.700000000000000000e+01 6.041148978102891531e-01
8.800000000000000000e+01 6.205670112031625996e-01
8.900000000000000000e+01 5.979589590631350093e-01
9.000000000000000000e+01 5.490020330100383594e-01
9.100000000000000000e+01 4.443213657813038231e-01
9.200000000000000000e+01 4.162787781523546449e-01
9.300000000000000000e+01 3.997166899833192732e-01
9.400000000000000000e+01 4.091487780258719065e-01
9.500000000000000000e+01 4.257226729311601177e-01
9.600000000000000000e+01 4.417818589479064473e-01
9.700000000000000000e+01 4.534238987012083610e-01
9.800000000000000000e+01 4.516488555021262452e-01
9.900000000000000000e+01 4.719983156763793986e-01
1.000000000000000000e+02 4.526573864512685175e-01
1.010000000000000000e+02 4.344189091808357550e-01
1.020000000000000000e+02 4.129987051468436698e-01
1.030000000000000000e+02 4.019881410246993747e-01
1.040000000000000000e+02 4.249495748199392242e-01
1.050000000000000000e+02 3.748687791419419435e-01
1.060000000000000000e+02 3.484190522921108979e-01
1.070000000000000000e+02 4.173448853622217514e-01
1.080000000000000000e+02 4.650823187759006161e-01
1.090000000000000000e+02 4.404122652952808248e-01
1.100000000000000000e+02 4.278106443925925872e-01
1.110000000000000000e+02 4.046399815297193614e-01
1.120000000000000000e+02 3.591646368452223737e-01
1.130000000000000000e+02 3.550986514061031940e-01
1.140000000000000000e+02 4.100657726832211969e-01
1.150000000000000000e+02 4.031512782772651571e-01
1.160000000000000000e+02 3.375888003993643416e-01
1.170000000000000000e+02 3.202738866944249696e-01
1.180000000000000000e+02 3.581223020240824062e-01
1.190000000000000000e+02 3.759044820263621189e-01
1.200000000000000000e+02 3.920012504407304754e-01
1.210000000000000000e+02 3.915040073738732529e-01
1.220000000000000000e+02 3.489526691269022041e-01
1.230000000000000000e+02 3.359647515320973166e-01
1.240000000000000000e+02 3.276528479726346643e-01
1.250000000000000000e+02 3.652153622542265721e-01
1.260000000000000000e+02 3.852814960746881456e-01
1.270000000000000000e+02 3.746631528162854274e-01
1.280000000000000000e+02 3.779162798274980362e-01
1.290000000000000000e+02 4.023074868722317232e-01
1.300000000000000000e+02 4.212292590013351212e-01
1.310000000000000000e+02 3.925763716406852621e-01
1.320000000000000000e+02 3.578382168936729557e-01
1.330000000000000000e+02 3.474224530694137725e-01
1.340000000000000000e+02 3.630089313155789310e-01
1.350000000000000000e+02 3.593999807709840066e-01
1.360000000000000000e+02 3.323281901798553206e-01
1.370000000000000000e+02 3.452037436323508457e-01
1.380000000000000000e+02 3.329501381703410812e-01
1.390000000000000000e+02 2.960299680532628153e-01
1.400000000000000000e+02 2.877065804075625843e-01
1.410000000000000000e+02 3.128267193684361458e-01
1.420000000000000000e+02 3.073162306732456495e-01
1.430000000000000000e+02 2.633805386915021862e-01
1.440000000000000000e+02 2.640757794741552256e-01
1.450000000000000000e+02 2.665630757810075191e-01
1.460000000000000000e+02 2.374040820555929354e-01
1.470000000000000000e+02 2.479632699858702882e-01
1.480000000000000000e+02 2.855106583160981204e-01
1.490000000000000000e+02 2.883467272352950861e-01
1.500000000000000000e+02 2.684816608373662428e-01
1.510000000000000000e+02 2.473245505353264262e-01
1.520000000000000000e+02 2.230702500349954487e-01
1.530000000000000000e+02 2.414737804274945943e-01
1.540000000000000000e+02 2.572395055146359244e-01
1.550000000000000000e+02 2.621413006598190543e-01
1.560000000000000000e+02 2.624926710502756277e-01
1.570000000000000000e+02 2.478703365823316518e-01
1.580000000000000000e+02 2.393091562055839616e-01
1.590000000000000000e+02 2.229325688181686971e-01
1.600000000000000000e+02 2.178048880286296285e-01
1.610000000000000000e+02 2.170066604749100736e-01
1.620000000000000000e+02 2.175951327953626058e-01
1.630000000000000000e+02 2.326792640128213518e-01
1.640000000000000000e+02 2.226985041921613340e-01
1.650000000000000000e+02 2.362580523339601890e-01
1.660000000000000000e+02 2.549159874800662196e-01
1.670000000000000000e+02 2.539722736570452222e-01
1.680000000000000000e+02 2.502767217829479640e-01
1.690000000000000000e+02 2.320578016029235524e-01
1.700000000000000000e+02 2.335316919152642112e-01
1.710000000000000000e+02 2.304361290962178843e-01
1.720000000000000000e+02 1.946160409504595068e-01
1.730000000000000000e+02 1.853925026236926121e-01
1.740000000000000000e+02 1.931015041509566710e-01
1.750000000000000000e+02 2.314453693976175064e-01
1.760000000000000000e+02 2.565119619510103921e-01
1.770000000000000000e+02 2.625577777787400091e-01
1.780000000000000000e+02 2.669723757594827385e-01
1.790000000000000000e+02 2.466291225756535865e-01
1.800000000000000000e+02 2.162803284028380901e-01
1.810000000000000000e+02 2.199007787460955932e-01
1.820000000000000000e+02 2.278770431761612814e-01
1.830000000000000000e+02 2.293985370742332441e-01
1.840000000000000000e+02 2.317798853968578432e-01
1.850000000000000000e+02 2.161214420948492365e-01
1.860000000000000000e+02 1.942325709406119705e-01
1.870000000000000000e+02 2.025937943127442409e-01
1.880000000000000000e+02 2.097117951789332913e-01
1.890000000000000000e+02 2.210034020835782986e-01
1.900000000000000000e+02 2.273774281322832047e-01
1.910000000000000000e+02 2.065364231242269588e-01
1.920000000000000000e+02 1.999138529232083739e-01
1.930000000000000000e+02 2.062673815133980182e-01
1.940000000000000000e+02 2.092434286513572272e-01
1.950000000000000000e+02 2.133011029851386853e-01
1.960000000000000000e+02 2.110545340517780144e-01
1.970000000000000000e+02 2.103173934733341688e-01
1.980000000000000000e+02 1.917216325333680749e-01
1.990000000000000000e+02 1.828064806297592104e-01
2.000000000000000000e+02 2.063737302654862216e-01
2.010000000000000000e+02 2.363126765977825172e-01
2.020000000000000000e+02 2.536286868943862793e-01
2.030000000000000000e+02 2.389553810418736657e-01
2.040000000000000000e+02 2.120306953609435718e-01
2.050000000000000000e+02 2.238206274939737728e-01
2.060000000000000000e+02 2.398027992516421070e-01
2.070000000000000000e+02 2.226890966406530892e-01
2.080000000000000000e+02 2.076043241611807699e-01
2.090000000000000000e+02 2.022374776642912875e-01
2.100000000000000000e+02 2.045321416248751245e-01
2.110000000000000000e+02 2.142092867638686060e-01
2.120000000000000000e+02 2.377371147342073332e-01
2.130000000000000000e+02 2.479008699428594531e-01
2.140000000000000000e+02 2.313476837234679229e-01
2.150000000000000000e+02 2.267717976247342060e-01
2.160000000000000000e+02 2.280946237696599710e-01
2.170000000000000000e+02 2.329671037707061187e-01
2.180000000000000000e+02 2.220507523209327705e-01
2.190000000000000000e+02 1.997173132591797962e-01
2.200000000000000000e+02 1.841426955638471863e-01
2.210000000000000000e+02 1.740075192275390981e-01
2.220000000000000000e+02 1.760605345396558108e-01
2.230000000000000000e+02 1.871114820861590755e-01
2.240000000000000000e+02 1.889899275448954363e-01
2.250000000000000000e+02 1.757447057936688539e-01
2.260000000000000000e+02 1.692951324638869992e-01
2.270000000000000000e+02 1.913630270193950600e-01
2.280000000000000000e+02 1.962690902952250460e-01
2.290000000000000000e+02 1.887354941784287476e-01
2.300000000000000000e+02 1.866888074276283893e-01
2.310000000000000000e+02 1.966441339077634465e-01
2.320000000000000000e+02 1.922193271664434655e-01
2.330000000000000000e+02 1.809376631530137947e-01
2.340000000000000000e+02 1.832088880518714380e-01
2.350000000000000000e+02 1.839865636021559558e-01
2.360000000000000000e+02 2.022054476521920885e-01
2.370000000000000000e+02 2.307692868737131475e-01
2.380000000000000000e+02 2.273190043261095472e-01
2.390000000000000000e+02 2.108071466212220468e-01
2.400000000000000000e+02 2.107778480299092871e-01
2.410000000000000000e+02 2.228511306535035652e-01
2.420000000000000000e+02 2.220709576813524599e-01
2.430000000000000000e+02 1.991608765221420108e-01
2.440000000000000000e+02 1.982096125980991053e-01
2.450000000000000000e+02 2.119088128841032093e-01
2.460000000000000000e+02 2.144773970298979593e-01
2.470000000000000000e+02 2.096186335515413668e-01
2.480000000000000000e+02 1.952089813860563849e-01
2.490000000000000000e+02 1.785746842338722939e-01
2.500000000000000000e+02 1.762083571435624219e-01
2.510000000000000000e+02 1.777117676772814181e-01
2.520000000000000000e+02 1.804143071253032637e-01
2.530000000000000000e+02 1.854724336821428066e-01
2.540000000000000000e+02 1.929150163128664774e-01
2.550000000000000000e+02 2.019588758065287426e-01
2.560000000000000000e+02 2.104498328604142710e-01
2.570000000000000000e+02 2.125714363692655096e-01
2.580000000000000000e+02 2.045420626361550975e-01
2.590000000000000000e+02 2.027484931281269831e-01
2.600000000000000000e+02 2.107589915919249046e-01
2.610000000000000000e+02 1.886875584479879298e-01
2.620000000000000000e+02 1.723016592186495111e-01
2.630000000000000000e+02 1.741462904697122505e-01
2.640000000000000000e+02 1.550701520370625364e-01
2.650000000000000000e+02 1.526796481889203250e-01
2.660000000000000000e+02 1.766535810033363352e-01
2.670000000000000000e+02 1.708034296532810747e-01
2.680000000000000000e+02 1.639094206041241397e-01
2.690000000000000000e+02 1.624831223202073127e-01
2.700000000000000000e+02 1.569563029312865676e-01
2.710000000000000000e+02 1.571537959743333768e-01
2.720000000000000000e+02 1.411844859555332343e-01
2.730000000000000000e+02 1.263446827932646344e-01
2.740000000000000000e+02 1.289893515088719467e-01
2.750000000000000000e+02 1.445149008804179624e-01
2.760000000000000000e+02 1.522450646547923725e-01
2.770000000000000000e+02 1.745531792075061539e-01
2.780000000000000000e+02 1.833014924416672686e-01
2.790000000000000000e+02 1.620067899485379270e-01
2.800000000000000000e+02 1.541415661786313673e-01
2.810000000000000000e+02 1.599602184022470286e-01
2.820000000000000000e+02 1.558540371378156209e-01
2.830000000000000000e+02 1.645020047229960036e-01
2.840000000000000000e+02 1.750735134138278193e-01
2.850000000000000000e+02 1.682178538087536479e-01
2.860000000000000000e+02 1.781143885460919063e-01
2.870000000000000000e+02 2.000013360193701184e-01
2.880000000000000000e+02 1.963623479211488165e-01
2.890000000000000000e+02 1.771430489108927753e-01
2.900000000000000000e+02 1.673226497202260077e-01
2.910000000000000000e+02 1.644067214142173883e-01
2.920000000000000000e+02 1.670907279979361171e-01
2.930000000000000000e+02 1.754850721377393119e-01
2.940000000000000000e+02 1.636650477497925416e-01
2.950000000000000000e+02 1.618257160327838950e-01
2.960000000000000000e+02 1.747722847014227532e-01
2.970000000000000000e+02 1.862607724233559248e-01
2.980000000000000000e+02 1.899610521311763112e-01
2.990000000000000000e+02 1.836973300348320459e-01
3.000000000000000000e+02 1.769926254495837181e-01
3.010000000000000000e+02 1.828031345389983797e-01
3.020000000000000000e+02 1.945260464692490365e-01
3.030000000000000000e+02 1.912485557753218768e-01
3.040000000000000000e+02 1.818836866622179638e-01
3.050000000000000000e+02 1.677126813675616501e-01
3.060000000000000000e+02 1.556853296683214094e-01
3.070000000000000000e+02 1.498588162051771033e-01
3.080000000000000000e+02 1.617400731489276322e-01
3.090000000000000000e+02 1.774861232292465896e-01
3.100000000000000000e+02 1.825696372453676497e-01
3.110000000000000000e+02 1.662450721548670574e-01
3.120000000000000000e+02 1.550280030949319765e-01
3.130000000000000000e+02 1.721148493321947026e-01
3.140000000000000000e+02 1.923730722835785834e-01
3.150000000000000000e+02 1.931515674283131034e-01
3.160000000000000000e+02 1.796658366442727972e-01
3.170000000000000000e+02 1.557564608028048081e-01
3.180000000000000000e+02 1.426808759333314525e-01
3.190000000000000000e+02 1.457921434088262358e-01
3.200000000000000000e+02 1.488540867666002521e-01
3.210000000000000000e+02 1.525301049330729242e-01
3.220000000000000000e+02 1.663566394168070894e-01
3.230000000000000000e+02 1.827638193723892523e-01
3.240000000000000000e+02 1.935076031542108110e-01
3.250000000000000000e+02 2.013741926107302238e-01
3.260000000000000000e+02 2.065593655765106673e-01
3.270000000000000000e+02 2.160167176071526030e-01
3.280000000000000000e+02 2.222823919518839841e-01
3.290000000000000000e+02 2.316666964411218665e-01
3.300000000000000000e+02 2.357796172007445845e-01
3.310000000000000000e+02 2.233658003924687552e-01
3.320000000000000000e+02 2.156594766176376521e-01
3.330000000000000000e+02 2.418276119736604002e-01
3.340000000000000000e+02 2.809623982258501185e-01
3.350000000000000000e+02 2.775942739085432431e-01
3.360000000000000000e+02 2.910180377769227000e-01
3.370000000000000000e+02 3.203939586404730422e-01
3.380000000000000000e+02 3.150158062662956615e-01
3.390000000000000000e+02 2.919762472330315051e-01
3.400000000000000000e+02 2.707140249024853618e-01
3.410000000000000000e+02 2.447892263344973729e-01
3.420000000000000000e+02 2.623016459151721325e-01
3.430000000000000000e+02 2.963165055993043917e-01
3.440000000000000000e+02 2.942602519528199623e-01
3.450000000000000000e+02 2.873859168373968931e-01
3.460000000000000000e+02 2.949918676618881186e-01
3.470000000000000000e+02 2.996112783801434531e-01
3.480000000000000000e+02 3.173995424008391741e-01
3.490000000000000000e+02 3.263793217744974662e-01
3.500000000000000000e+02 2.977693075393236799e-01
3.510000000000000000e+02 2.780520832738143655e-01
3.520000000000000000e+02 2.897743247367760566e-01
3.530000000000000000e+02 2.773603987455502962e-01
3.540000000000000000e+02 2.423087432106535433e-01
3.550000000000000000e+02 2.451988008075935699e-01
3.560000000000000000e+02 2.678569326225563874e-01
3.570000000000000000e+02 2.654195353257203793e-01
3.580000000000000000e+02 2.649818387823940080e-01
3.590000000000000000e+02 2.662619216927182841e-01
3.600000000000000000e+02 2.837681479134208651e-01
3.610000000000000000e+02 2.663869638609276391e-01
3.620000000000000000e+02 2.406329523127547776e-01
3.630000000000000000e+02 2.252306418825113787e-01
3.640000000000000000e+02 2.067738364997342426e-01
3.650000000000000000e+02 2.184688613156814119e-01
3.660000000000000000e+02 2.290593572704207881e-01
3.670000000000000000e+02 2.343945123532432118e-01
3.680000000000000000e+02 2.143545887956321006e-01
3.690000000000000000e+02 1.930167413037394974e-01
3.700000000000000000e+02 2.001172338444572041e-01
3.710000000000000000e+02 1.956452865566414845e-01
3.720000000000000000e+02 1.748704855659223290e-01
3.730000000000000000e+02 1.685149342980683251e-01
3.740000000000000000e+02 1.533828985343596574e-01
3.750000000000000000e+02 1.388025732126469680e-01
3.760000000000000000e+02 1.439082814595755433e-01
3.770000000000000000e+02 1.598161139473854853e-01
3.780000000000000000e+02 1.461708438470912808e-01
3.790000000000000000e+02 1.311156963450113289e-01
3.800000000000000000e+02 1.401087691554120385e-01
3.810000000000000000e+02 1.456897294699705525e-01
3.820000000000000000e+02 1.406254433557117822e-01
3.830000000000000000e+02 1.255257684559773768e-01
3.840000000000000000e+02 1.275593927769173019e-01
3.850000000000000000e+02 1.360831900797935257e-01
3.860000000000000000e+02 1.234787238985169122e-01
3.870000000000000000e+02 1.106947256036378835e-01
3.880000000000000000e+02 1.096531274364677400e-01
3.890000000000000000e+02 1.186577011616756216e-01
3.900000000000000000e+02 1.270659697115727460e-01
3.910000000000000000e+02 1.198617138358912954e-01
3.920000000000000000e+02 1.151552312372031983e-01
3.930000000000000000e+02 1.128537414576517295e-01
3.940000000000000000e+02 1.058377616768170493e-01
3.950000000000000000e+02 1.065568022040035284e-01
3.960000000000000000e+02 1.174646085239597904e-01
3.970000000000000000e+02 1.293794373745124071e-01
3.980000000000000000e+02 1.115321517586470440e-01
3.990000000000000000e+02 1.005175872144444815e-01
4.000000000000000000e+02 1.374911519427715889e-01
4.040000000000000000e+02 1.261751779547998220e-01
4.080000000000000000e+02 1.188643488468238141e-01
4.120000000000000000e+02 1.332453835301015965e-01
4.160000000000000000e+02 1.304045631877079336e-01
4.200000000000000000e+02 1.079147458157101586e-01
4.240000000000000000e+02 1.040081471394084939e-01
4.280000000000000000e+02 1.092171017057549098e-01
4.320000000000000000e+02 1.105170981323576329e-01
4.360000000000000000e+02 9.813036972997377094e-02
4.400000000000000000e+02 7.735064124136108166e-02
4.440000000000000000e+02 6.980993804028251537e-02
4.480000000000000000e+02 7.167283732735629798e-02
4.520000000000000000e+02 7.639910980427822018e-02
4.560000000000000000e+02 7.444006681995452013e-02
4.600000000000000000e+02 6.719210099739343633e-02
4.640000000000000000e+02 6.292808425179885479e-02
4.680000000000000000e+02 5.856530278242721294e-02
4.720000000000000000e+02 5.937278395925437574e-02
4.760000000000000000e+02 5.850668812540033015e-02
4.800000000000000000e+02 5.566301894730052435e-02
4.840000000000000000e+02 5.620379492634885316e-02
4.880000000000000000e+02 5.808722216808101524e-02
4.920000000000000000e+02 5.614072645515764959e-02
4.960000000000000000e+02 5.560323261611368334e-02
5.000000000000000000e+02 5.509650068045086196e-02
5.040000000000000000e+02 5.354238931219972714e-02
5.080000000000000000e+02 5.174849570986118918e-02
5.120000000000000000e+02 5.352859114754593417e-02
5.160000000000000000e+02 5.443593902137911639e-02
5.200000000000000000e+02 5.287635771370415710e-02
5.240000000000000000e+02 5.637250899505424212e-02
5.280000000000000000e+02 5.475368391459082412e-02
5.320000000000000000e+02 5.119376547180460452e-02
5.360000000000000000e+02 5.647973054921907182e-02
5.400000000000000000e+02 5.758122208178663437e-02
5.440000000000000000e+02 5.304433031013976174e-02
5.480000000000000000e+02 5.045301453105349720e-02
5.520000000000000000e+02 4.867834441258619971e-02
5.560000000000000000e+02 4.752054027364598088e-02
5.600000000000000000e+02 4.825385390967374538e-02
5.640000000000000000e+02 4.850630245188290723e-02
5.680000000000000000e+02 4.747872969667005227e-02
5.720000000000000000e+02 4.706002636916133824e-02
5.760000000000000000e+02 4.821401345348445833e-02
5.800000000000000000e+02 4.482320776783442484e-02
5.840000000000000000e+02 4.324280672181918250e-02
5.880000000000000000e+02 4.375802225667659029e-02
5.920000000000000000e+02 4.299377208534398837e-02
5.960000000000000000e+02 4.602582591095799591e-02
6.000000000000000000e+02 5.437466230202074591e-02
6.040000000000000000e+02 5.120355546448875084e-02
6.080000000000000000e+02 4.231644898890640077e-02
6.120000000000000000e+02 4.116637469148389655e-02
6.160000000000000000e+02 4.161104281627683171e-02
6.200000000000000000e+02 4.342931454616042602e-02
6.240000000000000000e+02 5.044232208670342693e-02
6.280000000000000000e+02 7.646510767073445847e-02
6.320000000000000000e+02 1.515316601038254052e-01
6.360000000000000000e+02 1.787612635209170908e-01
6.400000000000000000e+02 1.285803059487382605e-01
6.440000000000000000e+02 8.656303342464946593e-02
6.480000000000000000e+02 7.672189278952018521e-02
6.520000000000000000e+02 6.597328253993164915e-02
6.560000000000000000e+02 5.941701022876517968e-02
6.600000000000000000e+02 6.015285134082981600e-02
6.640000000000000000e+02 5.327848843661671385e-02
6.680000000000000000e+02 4.702439224769099785e-02
6.720000000000000000e+02 4.523426057802899108e-02
6.760000000000000000e+02 4.671091211415345085e-02
6.800000000000000000e+02 4.748012343780468048e-02
6.840000000000000000e+02 4.773950541133055447e-02
6.880000000000000000e+02 4.445652363270265195e-02
6.920000000000000000e+02 4.247425532213701393e-02
6.960000000000000000e+02 4.463695520269379824e-02
7.000000000000000000e+02 4.828924122106360156e-02
7.040000000000000000e+02 4.700582350038502027e-02
7.080000000000000000e+02 4.481358717793987312e-02
7.120000000000000000e+02 4.994007595605902405e-02
7.160000000000000000e+02 5.766197954225962818e-02
7.200000000000000000e+02 6.065338269427825862e-02
7.240000000000000000e+02 5.326677115621087505e-02
7.280000000000000000e+02 4.744368042243501254e-02
7.320000000000000000e+02 4.312316555464438400e-02
7.360000000000000000e+02 4.273172683736504995e-02
7.400000000000000000e+02 4.627524399424243901e-02
7.440000000000000000e+02 4.536144682056013344e-02
7.480000000000000000e+02 4.463552590720221841e-02
7.520000000000000000e+02 4.743691382274826257e-02
7.560000000000000000e+02 5.168505256972062006e-02
7.600000000000000000e+02 5.187645961656001808e-02
7.640000000000000000e+02 4.954304299573364379e-02
7.680000000000000000e+02 4.618046471180932422e-02
7.720000000000000000e+02 4.407560922843244133e-02
7.760000000000000000e+02 4.715994393453652039e-02
7.800000000000000000e+02 5.278290533996225081e-02
7.840000000000000000e+02 5.017436760647640825e-02
7.880000000000000000e+02 4.765051005030179060e-02
7.920000000000000000e+02 4.909075181009537464e-02
7.960000000000000000e+02 5.404336365791583691e-02
8.000000000000000000e+02 5.564248008743486601e-02
8.040000000000000000e+02 5.253459107209049878e-02
8.080000000000000000e+02 4.888612823584706502e-02
8.120000000000000000e+02 4.799273976888145110e-02
8.160000000000000000e+02 5.016314202280632711e-02
8.200000000000000000e+02 5.009564169922807453e-02
8.240000000000000000e+02 4.690349797645783358e-02
8.280000000000000000e+02 4.482750685335624985e-02
8.320000000000000000e+02 4.690551550364202571e-02
8.360000000000000000e+02 5.239468151017102893e-02
8.400000000000000000e+02 5.870049901198271664e-02
8.440000000000000000e+02 5.236963909646952242e-02
8.480000000000000000e+02 4.716714849571254642e-02
8.520000000000000000e+02 4.912853662692448498e-02
8.560000000000000000e+02 4.598821750443917583e-02
8.600000000000000000e+02 4.319051895953015391e-02
8.640000000000000000e+02 4.504550790395940585e-02
8.680000000000000000e+02 4.965749891028009566e-02
8.720000000000000000e+02 4.989191432229365952e-02
8.760000000000000000e+02 4.654707010970955683e-02
8.800000000000000000e+02 4.434454182346855844e-02
8.840000000000000000e+02 4.459694706307411327e-02
8.880000000000000000e+02 4.467464429095076295e-02
8.920000000000000000e+02 4.333012707326923396e-02
8.960000000000000000e+02 4.623371548341444204e-02
9.000000000000000000e+02 5.160944710393902679e-02
9.040000000000000000e+02 4.737941645210392433e-02
9.080000000000000000e+02 4.229027926538588000e-02
9.120000000000000000e+02 4.141716003084802700e-02
9.160000000000000000e+02 4.224227572579500323e-02
9.200000000000000000e+02 4.604196555272687535e-02
9.240000000000000000e+02 4.273844512564078935e-02
9.280000000000000000e+02 4.132871642832427334e-02
9.320000000000000000e+02 4.331846408360644218e-02
9.360000000000000000e+02 4.361838630847111181e-02
9.400000000000000000e+02 4.202348292078659370e-02
9.440000000000000000e+02 4.697814868685192685e-02
9.480000000000000000e+02 5.307182229127392625e-02
9.520000000000000000e+02 5.320368337659828195e-02
9.560000000000000000e+02 5.384785647792350582e-02
9.600000000000000000e+02 5.631157730106315512e-02
9.640000000000000000e+02 4.998700265860397951e-02
9.680000000000000000e+02 4.599195510639870338e-02
9.720000000000000000e+02 4.731149896903248664e-02
9.760000000000000000e+02 4.832831304094841601e-02
9.800000000000000000e+02 5.175487810477361061e-02
9.840000000000000000e+02 5.451852488577576400e-02
9.880000000000000000e+02 5.133600170247432093e-02
9.920000000000000000e+02 5.025966203828287349e-02
9.960000000000000000e+02 6.447736236650539188e-02
1.000000000000000000e+03 8.245900308126649647e-02
1.004000000000000000e+03 8.207264061281326073e-02
1.008000000000000000e+03 7.207339086951528029e-02
1.012000000000000000e+03 6.663406999856778812e-02
1.016000000000000000e+03 7.579853568465495794e-02
1.020000000000000000e+03 9.468545229765770732e-02
1.024000000000000000e+03 1.005309306837528366e-01
1.028000000000000000e+03 1.067211663685781603e-01
1.032000000000000000e+03 1.260916702760356556e-01
1.036000000000000000e+03 1.522507739793002302e-01
1.040000000000000000e+03 1.652839480642075698e-01
1.044000000000000000e+03 1.599151107038194464e-01
1.048000000000000000e+03 1.472683676349975934e-01
1.052000000000000000e+03 1.333945246142156371e-01
1.056000000000000000e+03 1.157637979879045653e-01
1.060000000000000000e+03 1.041498177002888326e-01
1.064000000000000000e+03 9.761111981934948723e-02
1.068000000000000000e+03 7.903541212613110489e-02
1.072000000000000000e+03 7.069273272012235876e-02
1.076000000000000000e+03 8.263343790065801053e-02
1.080000000000000000e+03 8.211715919076470471e-02
1.084000000000000000e+03 6.474683905982626941e-02
1.088000000000000000e+03 5.154751674239720777e-02
1.092000000000000000e+03 4.743908482919340086e-02
1.096000000000000000e+03 4.918602589581023976e-02
1.100000000000000000e+03 4.991243694151911020e-02
1.104000000000000000e+03 4.929996319053160658e-02
1.108000000000000000e+03 4.735798621119821639e-02
1.112000000000000000e+03 4.402898728025101543e-02
1.116000000000000000e+03 4.366477995245077182e-02
1.120000000000000000e+03 4.492383795879208164e-02
1.124000000000000000e+03 4.842646728588036881e-02
1.128000000000000000e+03 5.098864096400448909e-02
1.132000000000000000e+03 5.222836816175136648e-02
1.136000000000000000e+03 5.447233746154383355e-02
1.140000000000000000e+03 6.056179082816475628e-02
1.144000000000000000e+03 6.318134854036427939e-02
1.148000000000000000e+03 6.677513704766258051e-02
1.152000000000000000e+03 6.681371383845370604e-02
1.156000000000000000e+03 6.970105875694015962e-02
1.160000000000000000e+03 7.341063136343810303e-02
1.164000000000000000e+03 7.793049641159470464e-02
1.168000000000000000e+03 8.117275010747805608e-02
1.172000000000000000e+03 7.690310443576883759e-02
1.176000000000000000e+03 6.120935042821507716e-02
1.180000000000000000e+03 5.017617551514412522e-02
1.184000000000000000e+03 4.819221178682643603e-02
1.188000000000000000e+03 5.333546040839429181e-02
1.192000000000000000e+03 5.565587934130360181e-02
1.196000000000000000e+03 5.747500093954445444e-02
1.200000000000000000e+03 6.163707176761139273e-02
1.204000000000000000e+03 5.845179089417540386e-02
1.208000000000000000e+03 4.726080969950412908e-02
1.212000000000000000e+03 4.329871138479521320e-02
1.216000000000000000e+03 4.416674510893586758e-02
1.220000000000000000e+03 4.491556250548999624e-02
1.224000000000000000e+03 4.661006876256458542e-02
1.228000000000000000e+03 4.541061285468946801e-02
1.232000000000000000e+03 4.173634910031293055e-02
1.236000000000000000e+03 4.360062334646929577e-02
1.240000000000000000e+03 4.486451503263390317e-02
1.244000000000000000e+03 4.404682570274676828e-02
1.248000000000000000e+03 3.872910796796563693e-02
1.252000000000000000e+03 3.891303795750136046e-02
1.256000000000000000e+03 4.610357969211667517e-02
1.260000000000000000e+03 5.024545896865516975e-02
1.264000000000000000e+03 4.274159052899446226e-02
1.268000000000000000e+03 4.075919489226932646e-02
1.272000000000000000e+03 4.404988131259872375e-02
1.276000000000000000e+03 4.027131139272950577e-02
1.280000000000000000e+03 3.897735102435560123e-02
1.284000000000000000e+03 4.223323580692531221e-02
1.288000000000000000e+03 4.415075644596060112e-02
1.292000000000000000e+03 4.237258305066464448e-02
1.296000000000000000e+03 4.402775920629913714e-02
1.300000000000000000e+03 4.883599392425228697e-02
1.304000000000000000e+03 4.963447035292038734e-02
1.308000000000000000e+03 5.068862698029052288e-02
1.312000000000000000e+03 4.942152025144404964e-02
1.316000000000000000e+03 5.258633696110585204e-02
1.320000000000000000e+03 6.199660982136275672e-02
1.324000000000000000e+03 6.003924315750786000e-02
1.328000000000000000e+03 5.389455807255752462e-02
1.332000000000000000e+03 5.630662400200602685e-02
1.336000000000000000e+03 5.843829618957780553e-02
1.340000000000000000e+03 5.486649848379763356e-02
1.344000000000000000e+03 5.175690505018903237e-02
1.348000000000000000e+03 5.149683137828646451e-02
1.352000000000000000e+03 5.162374541652332838e-02
1.356000000000000000e+03 5.229976448828674990e-02
1.360000000000000000e+03 4.867203298537319672e-02
1.364000000000000000e+03 4.534671148746420577e-02
1.368000000000000000e+03 4.635791943150319866e-02
1.372000000000000000e+03 4.615546928307884267e-02
1.376000000000000000e+03 4.723234463417465973e-02
1.380000000000000000e+03 5.020503276392884739e-02
1.384000000000000000e+03 4.269963474482855320e-02
1.388000000000000000e+03 4.084584630369303415e-02
1.392000000000000000e+03 4.343913678702496228e-02
1.396000000000000000e+03 4.567521902863088540e-02
1.400000000000000000e+03 4.746574236544150865e-02
1.404000000000000000e+03 4.869787087922537033e-02
1.408000000000000000e+03 4.672407456596556347e-02
1.412000000000000000e+03 4.337377537635733749e-02
1.416000000000000000e+03 4.357074295470112629e-02
1.420000000000000000e+03 4.420538799276880343e-02
1.424000000000000000e+03 4.528600770789546065e-02
1.428000000000000000e+03 4.441972104915650754e-02
1.432000000000000000e+03 4.760301707741369792e-02
1.436000000000000000e+03 5.424256850217158699e-02
1.440000000000000000e+03 5.587674519150515051e-02
1.444000000000000000e+03 5.371629436729710022e-02
1.448000000000000000e+03 6.386444933964356696e-02
1.452000000000000000e+03 8.246238895085443443e-02
1.456000000000000000e+03 7.432060227174841494e-02
1.460000000000000000e+03 5.221744643635709004e-02
1.464000000000000000e+03 4.643875722613834828e-02
1.468000000000000000e+03 5.029639951949536891e-02
1.472000000000000000e+03 5.345257822366053513e-02
1.476000000000000000e+03 5.144701687742094659e-02
1.480000000000000000e+03 4.613251675615276381e-02
1.484000000000000000e+03 4.297020722430300310e-02
1.488000000000000000e+03 4.543983559999686256e-02
1.492000000000000000e+03 4.491037892471402143e-02
1.496000000000000000e+03 4.285788859927971289e-02
1.500000000000000000e+03 4.383604918102320530e-02
1.504000000000000000e+03 4.071435775957276543e-02
1.508000000000000000e+03 3.885316449845171993e-02
1.512000000000000000e+03 3.945316209425921150e-02
1.516000000000000000e+03 3.889515429635480998e-02
1.520000000000000000e+03 3.826059113745379492e-02
1.524000000000000000e+03 3.666566986558435215e-02
1.528000000000000000e+03 3.668037816425909203e-02
1.532000000000000000e+03 3.714161785985721498e-02
1.536000000000000000e+03 3.632634363450747139e-02
1.540000000000000000e+03 3.541846880276304510e-02
1.544000000000000000e+03 3.575748250138165857e-02
1.548000000000000000e+03 3.429863414623368634e-02
1.552000000000000000e+03 3.344903290076177427e-02
1.556000000000000000e+03 3.997071520333692757e-02
1.560000000000000000e+03 4.569442649163851095e-02
1.564000000000000000e+03 4.026718012207217146e-02
1.568000000000000000e+03 3.837275158804430431e-02
1.572000000000000000e+03 4.010892187125537911e-02
1.576000000000000000e+03 3.957312111665902549e-02
1.580000000000000000e+03 4.291301391603315196e-02
1.584000000000000000e+03 4.512668888704574749e-02
1.588000000000000000e+03 4.295106739352316100e-02
1.592000000000000000e+03 4.119709556289823105e-02
1.596000000000000000e+03 3.831830905062537374e-02
1.600000000000000000e+03 4.092812577988698408e-02
1.632000000000000000e+03 3.874888860879022873e-02
1.664000000000000000e+03 3.721585913869499690e-02
1.696000000000000000e+03 3.528412373779056532e-02
1.728000000000000000e+03 3.703956986643885951e-02
1.760000000000000000e+03 3.633343862205878905e-02
1.792000000000000000e+03 3.848077275674573194e-02
1.824000000000000000e+03 4.116367273532515331e-02
1.856000000000000000e+03 4.057979244835448196e-02
1.888000000000000000e+03 3.865641968275552315e-02
1.920000000000000000e+03 3.954904587417884532e-02
1.952000000000000000e+03 3.878188205750535827e-02
1.984000000000000000e+03 3.975094526345936130e-02
2.016000000000000000e+03 4.034133464263277985e-02
2.048000000000000000e+03 4.184431946108912309e-02
2.080000000000000000e+03 4.184105896267673041e-02
2.112000000000000000e+03 4.170210859484303062e-02
2.144000000000000000e+03 3.958715488041356090e-02
2.176000000000000000e+03 3.719324637692959096e-02
2.208000000000000000e+03 4.145637444828753626e-02
2.240000000000000000e+03 4.298392145971447614e-02
2.272000000000000000e+03 4.230267214008613663e-02
2.304000000000000000e+03 4.239090084386415436e-02
2.336000000000000000e+03 4.122149468901905450e-02
2.368000000000000000e+03 4.173739749613585709e-02
2.400000000000000000e+03 3.802871623893840786e-02
2.432000000000000000e+03 3.939276953434032308e-02
2.464000000000000000e+03 4.087997262124012238e-02
2.496000000000000000e+03 4.057380281005178863e-02
2.528000000000000000e+03 4.245988147874758117e-02
2.560000000000000000e+03 4.089778602984476402e-02
2.592000000000000000e+03 4.153393041011441827e-02
2.624000000000000000e+03 4.179302557905248405e-02
2.656000000000000000e+03 4.353632900911263981e-02
2.688000000000000000e+03 4.704194237102929388e-02
2.720000000000000000e+03 4.988091207649787695e-02
2.752000000000000000e+03 5.282030785783018573e-02
2.784000000000000000e+03 4.896609032205873763e-02
2.816000000000000000e+03 4.875710442667827160e-02
2.848000000000000000e+03 4.923040732053012014e-02
2.880000000000000000e+03 4.374535154819410299e-02
2.912000000000000000e+03 4.633876902469773185e-02
2.944000000000000000e+03 6.018618687138608397e-02
2.976000000000000000e+03 6.141696476428336327e-02
3.008000000000000000e+03 4.974354909770593164e-02
3.040000000000000000e+03 5.157385323270658600e-02
3.072000000000000000e+03 5.248190836278172205e-02
3.104000000000000000e+03 4.532157246789526167e-02
3.136000000000000000e+03 4.229049337233475175e-02
3.168000000000000000e+03 4.232845895739794501e-02
3.200000000000000000e+03 4.673271472935146970e-02
3.232000000000000000e+03 4.971040142113230392e-02
3.264000000000000000e+03 4.346327858013483009e-02
3.296000000000000000e+03 4.362407576447790980e-02
3.328000000000000000e+03 5.091755806522121897e-02
3.360000000000000000e+03 5.001868158616060850e-02
3.392000000000000000e+03 4.880030367119450596e-02
3.424000000000000000e+03 4.958885296809747295e-02
3.456000000000000000e+03 5.297278423686640342e-02
3.488000000000000000e+03 5.529381769222355136e-02
3.520000000000000000e+03 5.297127836888456537e-02
3.552000000000000000e+03 5.215378324125161114e-02
3.584000000000000000e+03 5.323617945426444009e-02
3.616000000000000000e+03 5.386316717306741109e-02
3.648000000000000000e+03 5.555139676763223150e-02
3.680000000000000000e+03 5.804498586848824693e-02
3.712000000000000000e+03 5.512326689900289012e-02
3.744000000000000000e+03 5.500309212534126163e-02
3.776000000000000000e+03 5.509680479989631507e-02
3.808000000000000000e+03 5.858980396153576353e-02
3.840000000000000000e+03 5.839252083049135261e-02
3.872000000000000000e+03 5.589949708685974100e-02
3.904000000000000000e+03 5.664159954538131730e-02
3.936000000000000000e+03 5.445095962431817371e-02
3.968000000000000000e+03 5.491978191001591764e-02
4.000000000000000000e+03 5.199751183222525719e-02
4.032000000000000000e+03 4.961096195080375026e-02
4.064000000000000000e+03 5.144157967228535355e-02
4.096000000000000000e+03 5.838637057256793744e-02
4.128000000000000000e+03 5.888477105618651619e-02
4.160000000000000000e+03 5.637392788343356664e-02
4.192000000000000000e+03 5.233454741051815629e-02
4.224000000000000000e+03 5.066235374806032227e-02
4.256000000000000000e+03 4.913755286280079015e-02
4.288000000000000000e+03 5.443123302462866964e-02
4.320000000000000000e+03 6.018464709414052954e-02
4.352000000000000000e+03 5.979992658081755008e-02
4.384000000000000000e+03 6.472799746449563185e-02
4.416000000000000000e+03 6.153681399787355039e-02
4.448000000000000000e+03 5.722875484846975946e-02
4.480000000000000000e+03 5.992165503137597549e-02
4.512000000000000000e+03 6.427544140788088445e-02
4.544000000000000000e+03 6.742637188316380481e-02
4.576000000000000000e+03 6.954897202329159145e-02
4.608000000000000000e+03 6.606610958246550425e-02
4.640000000000000000e+03 6.018049321617149200e-02
4.672000000000000000e+03 6.036867923235149369e-02
4.704000000000000000e+03 6.065009222886309087e-02
4.736000000000000000e+03 6.268712506496269821e-02
4.768000000000000000e+03 6.161606057876235776e-02
4.800000000000000000e+03 6.070961785187792975e-02
4.832000000000000000e+03 6.557156393770530167e-02
4.864000000000000000e+03 7.503497743332565584e-02
4.896000000000000000e+03 7.204763513430943733e-02
4.928000000000000000e+03 6.192490641255610218e-02
4.960000000000000000e+03 6.155285702746843973e-02
4.992000000000000000e+03 6.716394087425148207e-02
5.024000000000000000e+03 6.859564058473323345e-02
5.056000000000000000e+03 6.995830413227771549e-02
5.088000000000000000e+03 6.954416456394188484e-02
5.120000000000000000e+03 6.907661843159883241e-02
5.152000000000000000e+03 6.849169338814492525e-02
5.184000000000000000e+03 7.100880261040175279e-02
5.216000000000000000e+03 7.827360110216836919e-02
5.248000000000000000e+03 7.761367210060042543e-02
5.280000000000000000e+03 7.722917877723545210e-02
5.312000000000000000e+03 7.404898441653907926e-02
5.344000000000000000e+03 6.837433529520281494e-02
5.376000000000000000e+03 7.724177855462674436e-02
5.408000000000000000e+03 8.112938387527077189e-02
5.440000000000000000e+03 8.276039175233899925e-02
5.472000000000000000e+03 8.736006621630346136e-02
5.504000000000000000e+03 8.226142520467230601e-02
5.536000000000000000e+03 7.888031877620609034e-02
5.568000000000000000e+03 7.180098877717863703e-02
5.600000000000000000e+03 7.097621358853797857e-02
5.632000000000000000e+03 7.583234683151890421e-02
5.664000000000000000e+03 8.247137113153110710e-02
5.696000000000000000e+03 7.838466714065811525e-02
5.728000000000000000e+03 7.193226044370534811e-02
5.760000000000000000e+03 7.180889888338282123e-02
5.792000000000000000e+03 7.520593295400368472e-02
5.824000000000000000e+03 7.869879645386283762e-02
5.856000000000000000e+03 8.350011956388715684e-02
5.888000000000000000e+03 8.988627771371057729e-02
5.920000000000000000e+03 9.082405084987568711e-02
5.952000000000000000e+03 8.807660106800031807e-02
5.984000000000000000e+03 8.990151424873693564e-02
6.016000000000000000e+03 8.077825163745272485e-02
6.048000000000000000e+03 7.533997973293882211e-02
6.080000000000000000e+03 8.398518646273187005e-02
6.112000000000000000e+03 8.240642805497316870e-02
6.144000000000000000e+03 7.638105387389650114e-02
6.176000000000000000e+03 7.294461579305576426e-02
6.208000000000000000e+03 7.640853581528873895e-02
6.240000000000000000e+03 7.475545277066059091e-02
6.272000000000000000e+03 7.641173650728685929e-02
6.304000000000000000e+03 8.271295909812545477e-02
6.336000000000000000e+03 8.822360499353619490e-02
6.368000000000000000e+03 8.440919874941868462e-02
6.400000000000000000e+03 7.876500296317212602e-02
6.432000000000000000e+03 7.281395139269027095e-02
6.464000000000000000e+03 8.086188917945133503e-02
6.496000000000000000e+03 9.030352433627326925e-02
6.528000000000000000e+03 9.201717542443130227e-02
6.560000000000000000e+03 8.877595969220601624e-02
6.592000000000000000e+03 8.370916678433677760e-02
6.624000000000000000e+03 8.258336066414632970e-02
6.656000000000000000e+03 8.373212991442453845e-02
6.688000000000000000e+03 8.527387516626204478e-02
6.720000000000000000e+03 8.576771124675999780e-02
6.752000000000000000e+03 8.312150063258302857e-02
6.784000000000000000e+03 8.318451209553655301e-02
6.816000000000000000e+03 8.071916438654769266e-02
6.848000000000000000e+03 8.172472282684332956e-02
6.880000000000000000e+03 8.497965897420774184e-02
6.912000000000000000e+03 8.515040874809511051e-02
6.944000000000000000e+03 8.456150488817577859e-02
6.976000000000000000e+03 8.404219823499589626e-02
7.008000000000000000e+03 8.679314532132929860e-02
7.040000000000000000e+03 8.852714957836940735e-02
7.072000000000000000e+03 9.248517922276587588e-02
7.104000000000000000e+03 1.044815802776630637e-01
7.136000000000000000e+03 9.773142413099510095e-02
7.168000000000000000e+03 9.851086374213793850e-02
7.200000000000000000e+03 1.080114233645575600e-01
7.232000000000000000e+03 1.059158916449984000e-01
7.264000000000000000e+03 8.991968647962210459e-02
7.296000000000000000e+03 8.288708492549280715e-02
7.328000000000000000e+03 9.780224245634396019e-02
7.360000000000000000e+03 1.034991794668851522e-01
7.392000000000000000e+03 1.033720145674758562e-01
7.424000000000000000e+03 1.056496484951979925e-01
7.456000000000000000e+03 1.098220994346673085e-01
7.488000000000000000e+03 1.049213984111399822e-01
7.520000000000000000e+03 9.439814265583261477e-02
7.552000000000000000e+03 1.035167256574730382e-01
7.584000000000000000e+03 1.028638248801353738e-01
7.616000000000000000e+03 9.383005119377110792e-02
7.648000000000000000e+03 9.023859771479363079e-02
7.680000000000000000e+03 9.630689043307710806e-02
7.712000000000000000e+03 9.369447821506798890e-02
7.744000000000000000e+03 1.045098242672619498e-01
7.776000000000000000e+03 1.027986210685413043e-01
7.808000000000000000e+03 9.625454693214204049e-02
7.840000000000000000e+03 1.008305776214725863e-01
7.872000000000000000e+03 1.054618499961677558e-01
7.904000000000000000e+03 1.121997417297914135e-01
7.936000000000000000e+03 1.135394212429277211e-01
7.968000000000000000e+03 1.060981070324468478e-01
8.000000000000000000e+03 1.042686431634744781e-01
8.032000000000000000e+03 1.061243776909446546e-01
8.064000000000000000e+03 1.062090830394417512e-01
8.096000000000000000e+03 1.031202751150738922e-01
8.128000000000000000e+03 1.038256104197781693e-01
8.160000000000000000e+03 1.042189504327546007e-01
8.192000000000000000e+03 1.080837045481669589e-01
8.224000000000000000e+03 1.155567256270191995e-01
8.256000000000000000e+03 1.083681264895875046e-01
8.288000000000000000e+03 1.053083028811843957e-01
8.320000000000000000e+03 1.129167287718259721e-01
8.352000000000000000e+03 1.161541452231882182e-01
8.384000000000000000e+03 1.078763362515865881e-01
8.416000000000000000e+03 1.201319612138317394e-01
8.448000000000000000e+03 1.277835979657566401e-01
8.480000000000000000e+03 1.203852347423364638e-01
8.512000000000000000e+03 1.040459821551725089e-01
8.544000000000000000e+03 1.037702480684188494e-01
8.576000000000000000e+03 1.198042822951354835e-01
8.608000000000000000e+03 1.215794881011792727e-01
8.640000000000000000e+03 1.172126532470596921e-01
8.672000000000000000e+03 1.152386172940858267e-01
8.704000000000000000e+03 1.109378862390013598e-01
8.736000000000000000e+03 1.107041346871138338e-01
8.768000000000000000e+03 1.194818794713222859e-01
8.800000000000000000e+03 1.166888703898796981e-01
8.832000000000000000e+03 1.141690367360838204e-01
8.864000000000000000e+03 1.159227306096443505e-01
8.896000000000000000e+03 1.164671124992971291e-01
8.928000000000000000e+03 1.072667567867447713e-01
8.960000000000000000e+03 1.080833181567585066e-01
8.992000000000000000e+03 1.265940191518958313e-01
9.024000000000000000e+03 1.274954660751417557e-01
9.056000000000000000e+03 1.247233986176271014e-01
9.088000000000000000e+03 1.209806411721312258e-01
9.120000000000000000e+03 1.144258004090205061e-01
9.152000000000000000e+03 1.136202144158381389e-01
9.184000000000000000e+03 1.221888101723850456e-01
9.216000000000000000e+03 1.308513777837703174e-01
9.248000000000000000e+03 1.324881029139218236e-01
9.280000000000000000e+03 1.281681977128503735e-01
9.312000000000000000e+03 1.340702874090629049e-01
9.344000000000000000e+03 1.409221681696004591e-01
9.376000000000000000e+03 1.404982416602572060e-01
9.408000000000000000e+03 1.324092531080335033e-01
9.440000000000000000e+03 1.252177505134156321e-01
9.472000000000000000e+03 1.477071487919437154e-01
9.504000000000000000e+03 1.456213201039541216e-01
9.536000000000000000e+03 1.388099228093881421e-01
9.568000000000000000e+03 1.277981537372399889e-01
9.600000000000000000e+03 1.217641307953238744e-01
9.632000000000000000e+03 1.133289883143564353e-01
9.664000000000000000e+03 1.241234975865977974e-01
9.696000000000000000e+03 1.264933976378189440e-01
9.728000000000000000e+03 1.270963036660664458e-01
9.760000000000000000e+03 1.348646571282960116e-01
9.792000000000000000e+03 1.341046864492904667e-01
9.824000000000000000e+03 1.326854961511228503e-01
9.856000000000000000e+03 1.352256152120529797e-01
9.888000000000000000e+03 1.451093222214954459e-01
9.920000000000000000e+03 1.448516907014994748e-01
9.952000000000000000e+03 1.309507499829639932e-01
9.984000000000000000e+03 1.297101069187348854e-01
1.001600000000000000e+04 1.311829437065033244e-01
1.004800000000000000e+04 1.298790541453905267e-01
1.008000000000000000e+04 1.270262251091792971e-01
1.011200000000000000e+04 1.239261188444639866e-01
1.014400000000000000e+04 1.393363659856065861e-01
1.017600000000000000e+04 1.594275241165396817e-01
1.020800000000000000e+04 1.553856773066727981e-01
1.024000000000000000e+04 1.410002601494891872e-01
1.027200000000000000e+04 1.345233373024378454e-01
1.030400000000000000e+04 1.380202166945126707e-01
1.033600000000000000e+04 1.301998913229613086e-01
1.036800000000000000e+04 1.307145938181290268e-01
1.040000000000000000e+04 1.445571989138312308e-01
1.043200000000000000e+04 1.425390918214545777e-01
1.046400000000000000e+04 1.543075050059595776e-01
1.049600000000000000e+04 1.780815751244523570e-01
1.052800000000000000e+04 1.739545419978126839e-01
1.056000000000000000e+04 1.557190225090610836e-01
1.059200000000000000e+04 1.549364524468705151e-01
1.062400000000000000e+04 1.496876852929131252e-01
1.065600000000000000e+04 1.350470552647352052e-01
1.068800000000000000e+04 1.543672623946142630e-01
1.072000000000000000e+04 1.515995840114556792e-01
1.075200000000000000e+04 1.439865229873175667e-01
1.078400000000000000e+04 1.495452537478113575e-01
1.081600000000000000e+04 1.585143166143551385e-01
1.084800000000000000e+04 1.542979440131146684e-01
1.088000000000000000e+04 1.517679497612449968e-01
1.091200000000000000e+04 1.544076043033672241e-01
1.094400000000000000e+04 1.538448108845542894e-01
1.097600000000000000e+04 1.447530125537309642e-01
1.100800000000000000e+04 1.458252809388137228e-01
1.104000000000000000e+04 1.477409498043085190e-01
1.107200000000000000e+04 1.593065145478935463e-01
1.110400000000000000e+04 1.743061084184509557e-01
1.113600000000000000e+04 1.577916084004494790e-01
1.116800000000000000e+04 1.511502076620342971e-01
1.120000000000000000e+04 1.354570199638758798e-01
1.123200000000000000e+04 1.436625941563418885e-01
1.126400000000000000e+04 1.677760744050834363e-01
1.129600000000000000e+04 1.652172757108290591e-01
1.132800000000000000e+04 1.582534184015653989e-01
1.136000000000000000e+04 1.562075713776370778e-01
1.139200000000000000e+04 1.498140071762529002e-01
1.142400000000000000e+04 1.409490546736656136e-01
1.145600000000000000e+04 1.425002810337203385e-01
1.148800000000000000e+04 1.367241286470952666e-01
1.152000000000000000e+04 1.372146870040467648e-01
1.155200000000000000e+04 1.488467941712117992e-01
1.158400000000000000e+04 1.379054471888905287e-01
1.161600000000000000e+04 1.597763196054153290e-01
1.164800000000000000e+04 1.804988754432070852e-01
1.168000000000000000e+04 1.782736780254178810e-01
1.171200000000000000e+04 1.708764897097620472e-01
1.174400000000000000e+04 1.695960763994285025e-01
1.177600000000000000e+04 1.696483310504124375e-01
1.180800000000000000e+04 1.701842627850370104e-01
1.184000000000000000e+04 1.710251563459628255e-01
1.187200000000000000e+04 1.709797636055475079e-01
1.190400000000000000e+04 1.647142555685316145e-01
1.193600000000000000e+04 1.719364711286371361e-01
1.196800000000000000e+04 1.856183302865992701e-01
1.200000000000000000e+04 1.766206506490811401e-01
1.203200000000000000e+04 1.716053747723609857e-01
1.206400000000000000e+04 1.751125355314313292e-01
1.209600000000000000e+04 1.755464176949112498e-01
1.212800000000000000e+04 1.733502750972287509e-01
1.216000000000000000e+04 1.636788667312605305e-01
1.219200000000000000e+04 1.705991963651468657e-01
1.222400000000000000e+04 1.665498684580453970e-01
1.225600000000000000e+04 1.700203778081153250e-01
1.228800000000000000e+04 1.722697425114833591e-01
1.232000000000000000e+04 1.886979656281940754e-01
1.235200000000000000e+04 2.015970159188363031e-01
1.238400000000000000e+04 1.734825127813224843e-01
1.241600000000000000e+04 1.596459133389768470e-01
1.244800000000000000e+04 1.615791252967931635e-01
1.248000000000000000e+04 1.810551990419305424e-01
1.251200000000000000e+04 1.888446883834442036e-01
1.254400000000000000e+04 1.865717756933124027e-01
1.257600000000000000e+04 1.827792404824195305e-01
1.260800000000000000e+04 1.868660286717656882e-01
1.264000000000000000e+04 2.011844036114173173e-01
1.267200000000000000e+04 2.048343364094689367e-01
1.270400000000000000e+04 2.041914823677256630e-01
1.273600000000000000e+04 1.916983261101298797e-01
1.276800000000000000e+04 1.901578956562698652e-01
1.280000000000000000e+04 1.697382396184539954e-01
1.305600000000000000e+04 2.053995470164750869e-01
1.331200000000000000e+04 2.387167840536395247e-01
1.356800000000000000e+04 2.572222220616194877e-01
1.382400000000000000e+04 2.400661692434454264e-01
1.408000000000000000e+04 1.992313523160539890e-01
1.433600000000000000e+04 2.084486513321704704e-01
1.459200000000000000e+04 2.325507344522570741e-01
1.484800000000000000e+04 2.413685578577484392e-01
1.510400000000000000e+04 2.372027654681393150e-01
1.536000000000000000e+04 2.458498666565153146e-01
1.561600000000000000e+04 2.627433444326663925e-01
1.587200000000000000e+04 2.556998831516275605e-01
1.612800000000000000e+04 2.457226684048753329e-01
1.638400000000000000e+04 2.414901174784110649e-01
1.664000000000000000e+04 2.605155275971812734e-01
1.689600000000000000e+04 2.800040806771095792e-01
1.715200000000000000e+04 2.910752100038930257e-01
1.740800000000000000e+04 3.066723096456285269e-01
1.766400000000000000e+04 2.997357010534930644e-01
1.792000000000000000e+04 2.930084731996195346e-01
1.817600000000000000e+04 3.112763454536343621e-01
1.843200000000000000e+04 3.212782642333263383e-01
1.868800000000000000e+04 3.182514660344998858e-01
1.894400000000000000e+04 3.018287405879928054e-01
1.920000000000000000e+04 3.144129965278320560e-01
1.945600000000000000e+04 3.398561177493434338e-01
1.971200000000000000e+04 3.464722318630053532e-01
1.996800000000000000e+04 3.502747197756287401e-01
2.022400000000000000e+04 3.820829146240339869e-01
2.048000000000000000e+04 3.861529182525905712e-01
2.073600000000000000e+04 3.789923964190747840e-01
2.099200000000000000e+04 3.962546560285675756e-01
2.124800000000000000e+04 4.517359698370842502e-01
2.150400000000000000e+04 4.008213677355972338e-01
2.176000000000000000e+04 3.682661994512697601e-01
2.201600000000000000e+04 3.866174680872920266e-01
2.227200000000000000e+04 4.063881400217650430e-01
2.252800000000000000e+04 4.435409328108660953e-01
2.278400000000000000e+04 4.367930199541551484e-01
2.304000000000000000e+04 5.062199861605063411e-01
2.329600000000000000e+04 5.730464085562363419e-01
2.355200000000000000e+04 5.556418474304042343e-01
2.380800000000000000e+04 4.982675503971446540e-01
2.406400000000000000e+04 5.322828453804188120e-01
2.432000000000000000e+04 5.523664387059612491e-01
2.457600000000000000e+04 4.905838764901971349e-01
2.483200000000000000e+04 5.435423407512219862e-01
2.508800000000000000e+04 5.439445031308747236e-01
2.534400000000000000e+04 5.345536893162490255e-01
2.560000000000000000e+04 5.335684127669848564e-01
2.585600000000000000e+04 4.591650445769175359e-01
2.611200000000000000e+04 5.267288100331397604e-01
2.636800000000000000e+04 5.906117837062248022e-01
2.662400000000000000e+04 6.659629992910814922e-01
2.688000000000000000e+04 6.667342653248917728e-01
2.713600000000000000e+04 6.544039342437676376e-01
2.739200000000000000e+04 6.846515326811261071e-01
2.764800000000000000e+04 6.118640253250563488e-01
2.790400000000000000e+04 6.468100259396837304e-01
2.816000000000000000e+04 6.256968092658616865e-01
2.841600000000000000e+04 6.631354307620214161e-01
2.867200000000000000e+04 6.807820495172755004e-01
2.892800000000000000e+04 7.107072443834060449e-01
2.918400000000000000e+04 7.097488295312919249e-01
2.944000000000000000e+04 6.962935074184849471e-01
2.969600000000000000e+04 7.063022677300261343e-01
2.995200000000000000e+04 7.017638002494738236e-01
3.020800000000000000e+04 7.011275210171972194e-01
3.046400000000000000e+04 6.769311375115539819e-01
3.072000000000000000e+04 7.032594513206417153e-01
3.097600000000000000e+04 7.609766948039480283e-01
3.123200000000000000e+04 8.130238189304523910e-01
3.148800000000000000e+04 7.586513899951119466e-01
3.174400000000000000e+04 8.425818636167944353e-01
3.200000000000000000e+04 7.876625960842605911e-01
3.225600000000000000e+04 7.912771412250320102e-01
3.251200000000000000e+04 7.753068591915893704e-01
3.276800000000000000e+04 7.924746436467451360e-01
3.302400000000000000e+04 8.641905901310947824e-01
3.328000000000000000e+04 9.043793608861498967e-01
3.353600000000000000e+04 8.793801086187902349e-01
3.379200000000000000e+04 9.501887640249532252e-01
3.404800000000000000e+04 9.569584680935474541e-01
3.430400000000000000e+04 1.015844042439672856e+00
3.456000000000000000e+04 1.067013915520338418e+00
3.481600000000000000e+04 9.832699019929351802e-01
3.507200000000000000e+04 9.287919620438244150e-01
3.532800000000000000e+04 1.208444676142515828e+00
3.558400000000000000e+04 1.155312061982155747e+00
3.584000000000000000e+04 1.044124074390166523e+00
3.609600000000000000e+04 1.076801301017441981e+00
3.635200000000000000e+04 1.005095585515334067e+00
3.660800000000000000e+04 1.159444713634883106e+00
3.686400000000000000e+04 1.157424632593626823e+00
3.712000000000000000e+04 1.099999503827617797e+00
3.737600000000000000e+04 1.103102420658784499e+00
3.763200000000000000e+04 1.182526690257581503e+00
3.788800000000000000e+04 1.217915680726676664e+00
3.814400000000000000e+04 1.309344506897570870e+00
3.840000000000000000e+04 1.331392144492765661e+00
3.865600000000000000e+04 1.304016548670208442e+00
3.891200000000000000e+04 1.109348639830645800e+00
3.916800000000000000e+04 1.201492619939886763e+00
3.942400000000000000e+04 1.307244916857563721e+00
3.968000000000000000e+04 1.275643077637802048e+00
3.993600000000000000e+04 1.266629339890177341e+00
4.019200000000000000e+04 1.281878400482027391e+00
4.044800000000000000e+04 1.345999784824398304e+00
4.070400000000000000e+04 1.405854485726600211e+00
4.096000000000000000e+04 1.299100016755724063e+00
4.121600000000000000e+04 1.360998836842210569e+00
4.147200000000000000e+04 1.496750928058743213e+00
4.172800000000000000e+04 1.648509161124954936e+00
4.198400000000000000e+04 1.646613296565296203e+00
4.224000000000000000e+04 1.543548517000297826e+00
4.249600000000000000e+04 1.553174889505404499e+00
4.275200000000000000e+04 1.403911043878183662e+00
4.300800000000000000e+04 1.420409369373074160e+00
4.326400000000000000e+04 1.479322382233318134e+00
4.352000000000000000e+04 1.717853191205009900e+00
4.377600000000000000e+04 1.687328995251577535e+00
4.403200000000000000e+04 1.669698309943838721e+00
4.428800000000000000e+04 1.711411500752373582e+00
4.454400000000000000e+04 1.340853688286468337e+00
4.480000000000000000e+04 1.481709990946275868e+00
4.505600000000000000e+04 1.675253112904911523e+00
4.531200000000000000e+04 1.688300302740777470e+00
4.556800000000000000e+04 1.768681816463971490e+00
4.582400000000000000e+04 1.879516082595605875e+00
4.608000000000000000e+04 1.849637293851479347e+00
4.633600000000000000e+04 1.804307846083456512e+00
4.659200000000000000e+04 1.999074238552769556e+00
4.684800000000000000e+04 2.048665198076357719e+00
4.710400000000000000e+04 1.832828644763648596e+00
4.736000000000000000e+04 1.779282574276098261e+00
4.761600000000000000e+04 1.948915333168619313e+00
4.787200000000000000e+04 2.070681877762586165e+00
4.812800000000000000e+04 2.087575867749897007e+00
4.838400000000000000e+04 1.918639078612703219e+00
4.864000000000000000e+04 1.640730376169231786e+00
4.889600000000000000e+04 1.799408701627585927e+00
4.915200000000000000e+04 1.814869437091999993e+00
4.940800000000000000e+04 1.874873851603435559e+00
4.966400000000000000e+04 1.989349858641888291e+00
4.992000000000000000e+04 1.846410225097149027e+00
5.017600000000000000e+04 1.854802296756758784e+00
5.043200000000000000e+04 2.119139808272266112e+00
5.068800000000000000e+04 2.005875734808007849e+00
5.094400000000000000e+04 2.140727719064311252e+00
5.120000000000000000e+04 2.223543868136867552e+00
5.145600000000000000e+04 1.978191018575329085e+00
5.171200000000000000e+04 2.242400903302738335e+00
5.196800000000000000e+04 2.316077041010768500e+00
5.222400000000000000e+04 2.258471796149977617e+00
5.248000000000000000e+04 2.169145621270872848e+00
5.273600000000000000e+04 2.228758540822310064e+00
5.299200000000000000e+04 2.334798231523794065e+00
5.324800000000000000e+04 2.337120927487550404e+00
5.350400000000000000e+04 2.146205081168595985e+00
5.376000000000000000e+04 1.992138214699874510e+00
5.401600000000000000e+04 1.956605701993354707e+00
5.427200000000000000e+04 1.949849091138645685e+00
5.452800000000000000e+04 1.883315890763791689e+00
5.478400000000000000e+04 2.201944845715922749e+00
5.504000000000000000e+04 2.853388180697352450e+00
5.529600000000000000e+04 3.977775640878753904e+00
5.555200000000000000e+04 6.062757978224139421e+00
5.580800000000000000e+04 5.582004019781125592e+00
5.606400000000000000e+04 3.294295251016971182e+00
5.632000000000000000e+04 2.127755813737903789e+00
5.657600000000000000e+04 1.920784735933105170e+00
5.683200000000000000e+04 1.945903766872339125e+00
5.708800000000000000e+04 1.782256152357520440e+00
5.734400000000000000e+04 1.822088970302960353e+00
5.760000000000000000e+04 1.900115900354578224e+00
5.785600000000000000e+04 1.846060235533614646e+00
5.811200000000000000e+04 1.814817469086059454e+00
5.836800000000000000e+04 1.941080817705215233e+00
5.862400000000000000e+04 2.047802122318595597e+00
5.888000000000000000e+04 2.062251171502557767e+00
5.913600000000000000e+04 1.960675039189333724e+00
5.939200000000000000e+04 2.030151859350834975e+00
5.964800000000000000e+04 2.139078069448986597e+00
5.990400000000000000e+04 2.027388107523820260e+00
6.016000000000000000e+04 1.947415547680329873e+00
6.041600000000000000e+04 1.886386958402527680e+00
6.067200000000000000e+04 1.880292983500600590e+00
6.092800000000000000e+04 1.901171791845118531e+00
6.118400000000000000e+04 1.958900740751637448e+00
6.144000000000000000e+04 2.058124857163449839e+00
6.169600000000000000e+04 2.098244210289489597e+00
6.195200000000000000e+04 1.896932313787109026e+00
6.220800000000000000e+04 1.947218549046167979e+00
6.246400000000000000e+04 1.925691582858633621e+00
6.272000000000000000e+04 1.921070958167051757e+00
6.297600000000000000e+04 1.952084767191837544e+00
6.323200000000000000e+04 1.967635636949195188e+00
6.348800000000000000e+04 1.908736511348369191e+00
6.374400000000000000e+04 1.921422457468306977e+00
6.400000000000000000e+04 1.858130099379982969e+00
6.425600000000000000e+04 2.086769134676053294e+00
6.451200000000000000e+04 1.965567447716868754e+00
6.476800000000000000e+04 1.767203498389368965e+00
6.502400000000000000e+04 1.731026086600432778e+00
6.528000000000000000e+04 1.781767730444721920e+00
6.553600000000000000e+04 1.698129324806103124e+00
6.579200000000000000e+04 1.773530002375303338e+00
6.604800000000000000e+04 2.133634281986494408e+00
6.630400000000000000e+04 1.879669951675505990e+00
6.656000000000000000e+04 1.882468765642647313e+00
6.681600000000000000e+04 1.796187034870178056e+00
6.707200000000000000e+04 1.793837704066610694e+00
6.732800000000000000e+04 1.836922942092660049e+00
6.758400000000000000e+04 1.777805358673617775e+00
6.784000000000000000e+04 2.006156789014315045e+00
6.809600000000000000e+04 1.874067639177185995e+00
6.835200000000000000e+04 1.814165519815842620e+00
6.860800000000000000e+04 2.038938582758675455e+00
6.886400000000000000e+04 2.056928555749415910e+00
6.912000000000000000e+04 2.070580995872377983e+00
6.937600000000000000e+04 2.059691079388432211e+00
6.963200000000000000e+04 1.855618654653296229e+00
6.988800000000000000e+04 1.696206017424128909e+00
7.014400000000000000e+04 1.789331422413401596e+00
7.040000000000000000e+04 1.769968553734853511e+00
7.065600000000000000e+04 1.849933906213373502e+00
7.091200000000000000e+04 2.090528872815871075e+00
7.116800000000000000e+04 2.048584088963283811e+00
7.142400000000000000e+04 1.943036445726175732e+00
7.168000000000000000e+04 1.591891691991304203e+00
7.193600000000000000e+04 1.682313775148492008e+00
7.219200000000000000e+04 1.761325877696114039e+00
7.244800000000000000e+04 1.812505906931336508e+00
7.270400000000000000e+04 1.755182400375889129e+00
7.296000000000000000e+04 1.804463625327778376e+00
7.321600000000000000e+04 1.777628122331740945e+00
7.347200000000000000e+04 1.781779308035365883e+00
7.372800000000000000e+04 1.811769216640636504e+00
7.398400000000000000e+04 1.904894441329836319e+00
7.424000000000000000e+04 1.999841235219495417e+00
7.449600000000000000e+04 1.919665786738170565e+00
7.475200000000000000e+04 1.815505528690206205e+00
7.500800000000000000e+04 1.908720136373002862e+00
7.526400000000000000e+04 2.029721191465121866e+00
7.552000000000000000e+04 1.868587740130443153e+00
7.577600000000000000e+04 1.897027033023705123e+00
7.603200000000000000e+04 2.085420029070577996e+00
7.628800000000000000e+04 3.070321587916789330e+00
7.654400000000000000e+04 3.988503616187752510e+00
7.680000000000000000e+04 2.925321979633260128e+00
7.705600000000000000e+04 1.718100916673229284e+00
7.731200000000000000e+04 1.639823203280973862e+00
7.756800000000000000e+04 1.895212366404440241e+00
7.782400000000000000e+04 2.076743541615837518e+00
7.808000000000000000e+04 1.755764667703792803e+00
7.833600000000000000e+04 1.688633106003130990e+00
7.859200000000000000e+04 1.777888496757678460e+00
7.884800000000000000e+04 1.865590625668738012e+00
7.910400000000000000e+04 1.849107054303821718e+00
7.936000000000000000e+04 1.818068833938767392e+00
7.961600000000000000e+04 1.724815318775355877e+00
7.987200000000000000e+04 1.735807933539148751e+00
8.012800000000000000e+04 1.800013900928973731e+00
8.038400000000000000e+04 1.807339879612923417e+00
8.064000000000000000e+04 1.821689221793125757e+00
8.089600000000000000e+04 1.667712742932641712e+00
8.115200000000000000e+04 1.752818209960180784e+00
8.140800000000000000e+04 1.753162844620722138e+00
8.166400000000000000e+04 1.785502099989572322e+00
8.192000000000000000e+04 1.580886969727347102e+00
8.217600000000000000e+04 1.545222777821925630e+00
8.243200000000000000e+04 1.666550150626537885e+00
8.268800000000000000e+04 1.695483767588683799e+00
8.294400000000000000e+04 1.674548187644000041e+00
8.320000000000000000e+04 1.842326596894665602e+00
8.345600000000000000e+04 1.726518224785597688e+00
8.371200000000000000e+04 1.594253972698014943e+00
8.396800000000000000e+04 1.626983045318109777e+00
8.422400000000000000e+04 1.804533694127914867e+00
8.448000000000000000e+04 1.663491039780977010e+00
8.473600000000000000e+04 1.766772394476866737e+00
8.499200000000000000e+04 1.843106589120290240e+00
8.524800000000000000e+04 1.752083295469052837e+00
8.550400000000000000e+04 1.836603751339689117e+00
8.576000000000000000e+04 1.787035653181457517e+00
8.601600000000000000e+04 1.709374182964805033e+00
8.627200000000000000e+04 1.684068555126418731e+00
8.652800000000000000e+04 1.615818850235858362e+00
8.678400000000000000e+04 1.665149577171019413e+00
8.704000000000000000e+04 1.629165790855160223e+00
8.729600000000000000e+04 1.682054696009343653e+00
8.755200000000000000e+04 1.731820956616065166e+00
8.780800000000000000e+04 1.738168858876369960e+00
8.806400000000000000e+04 1.672594253805181896e+00
8.832000000000000000e+04 1.658268580389537394e+00
8.857600000000000000e+04 1.685638797536561651e+00
8.883200000000000000e+04 1.800049065547691507e+00
8.908800000000000000e+04 1.780293422159398675e+00
8.934400000000000000e+04 1.703870530210033429e+00
8.960000000000000000e+04 1.755511272770690523e+00
8.985600000000000000e+04 1.744891754853648225e+00
9.011200000000000000e+04 1.546292935301293969e+00
9.036800000000000000e+04 1.692422893154552632e+00
9.062400000000000000e+04 1.670856460710927527e+00
9.088000000000000000e+04 1.573416507849537682e+00
9.113600000000000000e+04 1.616187980870159802e+00
9.139200000000000000e+04 1.639419452769624863e+00
9.164800000000000000e+04 1.651213318240377648e+00
9.190400000000000000e+04 1.692325033757853037e+00
9.216000000000000000e+04 1.814602535554987739e+00
9.241600000000000000e+04 1.854128052072269384e+00
9.267200000000000000e+04 1.577984399015680994e+00
9.292800000000000000e+04 1.646595073831988332e+00
9.318400000000000000e+04 1.782265195687211978e+00
9.344000000000000000e+04 1.787149056527247204e+00
9.369600000000000000e+04 1.767701389074153084e+00
9.395200000000000000e+04 1.734867730745767833e+00
9.420800000000000000e+04 1.695911843192754231e+00
9.446400000000000000e+04 1.707582877599785443e+00
9.472000000000000000e+04 1.713427729014976197e+00
9.497600000000000000e+04 1.819217627414736027e+00
9.523200000000000000e+04 1.699743444848603735e+00
9.548800000000000000e+04 1.687665471792631378e+00
9.574400000000000000e+04 1.683126305919668830e+00
9.600000000000000000e+04 1.679504110034624187e+00
9.625600000000000000e+04 1.616684114101627268e+00
9.651200000000000000e+04 1.525767250113766460e+00
9.676800000000000000e+04 1.550137686855164842e+00
9.702400000000000000e+04 1.599542920734628337e+00
9.728000000000000000e+04 1.625697289099512943e+00
9.753600000000000000e+04 1.820136723609504292e+00
9.779200000000000000e+04 1.591438510083386992e+00
9.804800000000000000e+04 1.537123752503527951e+00
9.830400000000000000e+04 1.670656237598314497e+00
9.856000000000000000e+04 1.573739198832637687e+00
9.881600000000000000e+04 1.478268114238654007e+00
9.907200000000000000e+04 1.338525900652007161e+00
9.932800000000000000e+04 1.643838718050659731e+00
9.958400000000000000e+04 1.769918230267611969e+00
9.984000000000000000e+04 1.686087472302263413e+00
1.000960000000000000e+05 1.557564720006959780e+00
1.003520000000000000e+05 1.491236519138195327e+00
1.006080000000000000e+05 1.510868915664538514e+00
1.008640000000000000e+05 1.748732430649829972e+00
1.011200000000000000e+05 1.944401357832615140e+00
1.013760000000000000e+05 1.862484200300405401e+00
1.016320000000000000e+05 1.659182780234902621e+00
1.018880000000000000e+05 1.596957030403256095e+00
1.021440000000000000e+05 1.466610031977495288e+00
