7.100000000000000000e+01 -5.537037708583154583e+00 8.122862381902399287e-01 -8.939797889036997791e-01 1.554830433561480874e+00
7.200000000000000000e+01 -5.580167883826027797e+00 1.023400374120490453e+00 -1.248418036295646072e+00 1.927883519036488469e+00
7.300000000000000000e+01 -5.530767847471619092e+00 9.548268542980932194e-01 -1.765456294942458815e+00 1.646061680623007062e+00
7.400000000000000000e+01 -5.611447332749826877e+00 1.070556334391376208e+00 -1.336472220346793138e+00 1.972995948333152061e+00
7.500000000000000000e+01 -5.666079559811782573e+00 9.306746225822534191e-01 -1.080179731923256670e+00 1.783334077550818630e+00
7.600000000000000000e+01 -5.636728347093032276e+00 9.535031724395268693e-01 -1.887143459998299466e+00 1.632228300681977107e+00
7.700000000000000000e+01 -5.660000131374186338e+00 1.045416210278789393e+00 -1.539690275046112111e+00 1.885696623778616132e+00
7.800000000000000000e+01 -5.702505106169564186e+00 9.942100285574255736e-01 -1.553500688612855951e+00 1.901464135722842119e+00
7.900000000000000000e+01 -5.774597896850384160e+00 8.826701775559465668e-01 -1.186701049037786948e+00 1.752923567786861092e+00
8.000000000000000000e+01 -5.460946773441794910e+00 1.289514072560219660e+00 -3.092604747778727070e+00 1.941379930121799546e+00
8.100000000000000000e+01 -5.691807203610935950e+00 9.571630112081935815e-01 -1.879097555564359423e+00 1.544591425692023900e+00
8.200000000000000000e+01 -5.646977792422787523e+00 1.091374826693251698e+00 -1.949690160417415274e+00 1.942351920956584266e+00
8.300000000000000000e+01 -5.641977083890012956e+00 1.147305453628160832e+00 -1.852696494459703969e+00 2.083234451171432688e+00
8.400000000000000000e+01 -5.585698791876174241e+00 1.151129271288133582e+00 -2.607921039527833607e+00 1.847128414365281746e+00
8.500000000000000000e+01 -5.960639621026427193e+00 8.686585732676496141e-01 -9.829653303227345873e-01 1.857816170302800440e+00
8.600000000000000000e+01 -5.599068913255978330e+00 1.216839147392476228e+00 -2.680984747139566693e+00 1.875141316116163859e+00
8.700000000000000000e+01 -5.581442071725181364e+00 1.174466635186929064e+00 -2.928092277771253471e+00 1.754714115781790928e+00
8.800000000000000000e+01 -5.816700514691143908e+00 9.954936941362587666e-01 -1.261058912837097035e+00 2.061206720905030654e+00
8.900000000000000000e+01 -5.820196209571132151e+00 1.008827292561304212e+00 -1.542949452998131799e+00 1.906304653766701662e+00
9.000000000000000000e+01 -5.893044810269957523e+00 1.039435963332486557e+00 -1.381868314513417628e+00 2.021663771373957807e+00
9.100000000000000000e+01 -5.790835577522912558e+00 1.201785790419723332e+00 -2.514899317972433490e+00 1.906905165626789245e+00
9.200000000000000000e+01 -5.777580719332327419e+00 1.094265187868904032e+00 -2.837640903114048818e+00 1.533943338583747984e+00
9.300000000000000000e+01 -6.000053532271167889e+00 9.725795259922008773e-01 -1.282765347563685321e+00 1.822680684411770446e+00
9.400000000000000000e+01 -5.863646025109049198e+00 1.039440822521716878e+00 -1.630104909261481438e+00 1.883467303597932574e+00
9.500000000000000000e+01 -5.978500100634014380e+00 9.431082056086643739e-01 -1.556507595986786230e+00 1.773013372163777301e+00
9.600000000000000000e+01 -5.859009475186121918e+00 1.057026781260777426e+00 -2.182951463515309332e+00 1.768282133764983000e+00
9.700000000000000000e+01 -5.897922081633642399e+00 9.589382914355749632e-01 -1.607730935351891821e+00 1.698244306615699140e+00
9.800000000000000000e+01 -5.932456204070638783e+00 1.016858383202984273e+00 -1.450177529861555126e+00 1.945844166728311952e+00
9.900000000000000000e+01 -5.882534923661209447e+00 1.058307036920173916e+00 -2.002038956191901420e+00 1.874990911341320787e+00
1.000000000000000000e+02 -5.732618354469490640e+00 1.077958381975166136e+00 -2.252141572522834423e+00 1.756557653462101243e+00
1.100070404505888462e+02 -5.709499977121047287e+00 1.098499824461566909e+00 -2.217249203376835176e+00 1.880789450932496054e+00
1.200076804915514685e+02 -4.983446474303399931e+00 8.683294060469213260e-01 -1.605902515632265937e+00 1.554611260090801084e+00
1.300083205325141193e+02 -5.891176634705574067e+00 1.052634436332140266e+00 -1.642970011155435506e+00 1.906265995777698841e+00
1.400089605734767133e+02 -6.012765296090950784e+00 1.050402229957972500e+00 -1.750966753966469946e+00 1.991243058399962740e+00
1.500096006144393357e+02 -6.050343951679261423e+00 1.084604633621206293e+00 -1.812814293705388602e+00 1.907251652988871671e+00
1.600102406554019581e+02 -6.165733880073505091e+00 1.038811050959353111e+00 -1.709577061998045044e+00 1.839080174394863709e+00
1.700108806963645804e+02 -6.167339159853972852e+00 1.106980108092118664e+00 -1.957867780592981832e+00 1.849853212669481772e+00
1.800115207373272028e+02 -5.938730392158653615e+00 1.120502583666581842e+00 -2.212022540305949914e+00 1.855105676185829999e+00
1.900121607782898252e+02 -6.277992737085960506e+00 1.032163843165931905e+00 -1.629913843719569710e+00 1.813039298538473787e+00
2.000128008192524476e+02 -6.340367673558877648e+00 1.024473688641213576e+00 -1.564923579906136952e+00 1.874207114600357826e+00
2.100134408602150984e+02 -6.326430352315978389e+00 1.034834579616846995e+00 -1.605272792923200464e+00 1.969466341220145411e+00
2.200140809011776923e+02 -6.380789832317320887e+00 1.000960317500265928e+00 -1.448296892930994728e+00 1.911458509477083734e+00
2.300147209421403147e+02 -6.375452789855537539e+00 1.034337040979757871e+00 -1.502425994708432633e+00 2.034986804970562169e+00
2.400153609831029371e+02 -5.413488895530243816e+00 8.423607324642521377e-01 -1.483412429746305161e+00 1.587901895809169961e+00
2.500160010240655879e+02 -6.250767872561169725e+00 1.092927987574266568e+00 -2.004720447910676384e+00 2.014859416400404779e+00
2.600166410650281819e+02 -6.201535187058223819e+00 1.010556697867682985e+00 -1.250683427931777558e+00 1.961315530002337493e+00
2.700172811059908327e+02 -4.873841077614634365e+00 1.073987380200930097e+00 -1.031898754120250672e+00 2.187255794020964483e+00
2.800179211469534266e+02 -4.555124250625375737e+00 1.159747437936138548e+00 -1.277276310348126609e+00 2.358667382200704932e+00
2.900185611879160774e+02 -6.054559545000060439e+00 1.032398871329768264e+00 -1.070115830108946398e+00 2.099004371655526668e+00
3.000192012288786714e+02 -6.204236171841070124e+00 1.060691092345583009e+00 -1.786495361834050666e+00 1.842368843960340730e+00
3.100198412698413222e+02 -6.505910776637062298e+00 9.968957086566753167e-01 -1.378650429471661942e+00 1.949998854977464280e+00
3.200204813108039161e+02 -6.566254375071999938e+00 9.609352640126183065e-01 -1.246507182310234496e+00 1.999050319965533395e+00
3.300211213517665669e+02 -6.487329252786204314e+00 1.036997543556576362e+00 -1.654537070200028603e+00 1.846098387685139786e+00
3.400217613927291609e+02 -6.444902168512616214e+00 1.051426252715450538e+00 -1.927795132257344557e+00 1.801302797241015163e+00
3.500224014336917548e+02 -6.328493660282958899e+00 1.074783866205427429e+00 -1.734443148953903835e+00 1.871575624996230536e+00
3.600230414746544056e+02 -6.096989961055806262e+00 1.016740630585133198e+00 -1.783184291711998437e+00 1.917214314856517499e+00
3.700236815156170564e+02 -6.560748862477201904e+00 1.036797409956956129e+00 -1.564524764752138974e+00 1.859073871697113356e+00
3.800243215565796504e+02 -6.518086617392524040e+00 1.106682753672457054e+00 -1.905604818781682974e+00 1.981103662978453972e+00
3.900249615975423012e+02 -6.366503169537628182e+00 1.025547293054419828e+00 -1.697782201492681331e+00 1.826249661310992645e+00
4.000256016385049520e+02 -6.393089901358090188e+00 1.060034101060699951e+00 -1.718111411908964659e+00 1.888488298995622428e+00
4.100262416794674891e+02 -6.483305929400433598e+00 1.057975884015261991e+00 -1.701227060216049969e+00 1.882552267989429540e+00
4.200268817204301968e+02 -6.235167268870729806e+00 1.020645291384311371e+00 -1.446046071355076235e+00 1.932253003789516477e+00
4.300275217613928476e+02 -6.401794943075362454e+00 9.915900649481852458e-01 -1.421848894694689003e+00 1.879448891456092063e+00
4.400281618023553847e+02 -6.363945249311883323e+00 1.090853639307011846e+00 -2.207864526222721224e+00 1.888476564970590577e+00
4.500288018433180923e+02 -6.605974918267881968e+00 9.957653939358765971e-01 -1.551249558249279126e+00 1.820415374086246096e+00
4.600294418842806294e+02 -6.596211186310505070e+00 1.047192466122832011e+00 -1.639658749783689862e+00 1.914890938058680936e+00
4.700300819252432802e+02 -6.610459074739906349e+00 1.066022319664846618e+00 -1.826575858766475102e+00 1.964640252046194746e+00
4.800307219662058742e+02 -6.023480407502153966e+00 9.995925147532251920e-01 -1.930909092302979024e+00 1.789457157827789135e+00
4.900313620071685250e+02 -6.591386015247206132e+00 1.122076785005153177e+00 -2.233243119608532723e+00 1.839382030101279542e+00
5.000320020481311190e+02 -6.618557371381286636e+00 1.083869641863163924e+00 -1.777636301127762941e+00 1.921621402026445713e+00
5.100326420890936561e+02 -6.659486723847591882e+00 1.073855711994816664e+00 -1.949574848135945837e+00 1.877063011063204501e+00
5.200332821300563637e+02 -6.669991225664102075e+00 1.102831414942761379e+00 -1.880583503883867635e+00 1.952386237242607070e+00
5.300339221710189577e+02 -6.630977805776319123e+00 1.125261278958307631e+00 -1.995991013392264923e+00 1.929264029101798394e+00
5.400345622119815516e+02 -6.553419958857380045e+00 9.849847070614434763e-01 -1.611187687393862644e+00 1.790896340332789105e+00
5.500352022529442593e+02 -6.597038539034237203e+00 1.096468964180751016e+00 -1.926429348124216290e+00 1.910925366880977583e+00
5.600358422939068532e+02 -6.652587209320000916e+00 1.029863155369712402e+00 -1.669766250060892965e+00 1.959643905656010432e+00
5.700364823348694472e+02 -6.635555451781592673e+00 1.032179896961918697e+00 -1.652696375013433139e+00 1.809939677671367431e+00
5.800371223758321548e+02 -6.601392403834508649e+00 1.065702045245810803e+00 -1.890676117551326252e+00 1.839635192687049337e+00
5.900377624167947488e+02 -6.751186573025776738e+00 1.007501262473725401e+00 -1.640854875187222062e+00 1.765279168849894109e+00
