# SR785 Measurement - Timestamp: Jan 24 2019 - 21:19:50
#---------- Measurement Setup ------------
# Start Frequency (Hz): 0.000000
# Frequency Span (Hz): 12800.000000
# Frequency Resolution: 800
# Number of Averages: 2
# Averaging Mode: None
# Window function: BMH
#---------- Measurement Parameters ----------
# Measurement Group:  "FFT" "FFT"
# Measurements:  "FFT 1" "FFT 2"
# View:  "Log Magnitude" "Log Magnitude"
# Unit:  "Vrms/rtHz" "Vpk"
#---------- Input Parameters ----------
# Input Source: Analog
# Input Mode: Single ended, Single ended
# Input Grounding: Float, Float
# Input Coupling: AC, AC
# Input Range: 6.0dBVpk, 6.0dBVpk
# Auto Range: Off, Off
# Auto Range Mode: Up Only, Normal
# Anti-Aliasing Filter: On, On
#---------- Source Parameters ----------
# Source Type: Sine
# Source Amplitude: 500.0mVpk
# Source On: 0

#---------- Measurement Data ----------
# [Freq(Hz) Display 0(Vrms/rtHz) Display 1(Vpk) ]
+0.0000000e+000    +3.3590859e-001
+1.6000000e+001    +2.2836266e-001
+3.2000000e+001    +5.4562587e-002
+4.8000000e+001    +5.9690094e-003
+6.4000000e+001    +1.7537051e-003
+8.0000000e+001    +6.5372325e-004
+9.6000000e+001    +1.9456369e-004
+1.1200000e+002    +3.5325818e-002
+1.2800000e+002    +3.1111682e-002
+1.4400000e+002    +2.7904466e-002
+1.6000000e+002    +2.5686273e-002
+1.7600000e+002    +2.3720404e-002
+1.9200000e+002    +7.3569780e-004
+2.0800000e+002    +2.8128526e-004
+2.2400000e+002    +1.9230851e-004
+2.4000000e+002    +2.8128974e-004
+2.5600000e+002    +2.3491662e-004
+2.7200000e+002    +1.2722530e-004
+2.8800000e+002    +3.2234367e-004
+3.0400000e+002    +3.9709779e-004
+3.2000000e+002    +7.2031507e-005
+3.3600000e+002    +1.6660527e-004
+3.5200000e+002    +2.0283792e-004
+3.6800000e+002    +1.5942744e-004
+3.8400000e+002    +1.1804762e-004
+4.0000000e+002    +7.3737705e-005
+4.1600000e+002    +1.2920605e-004
+4.3200000e+002    +1.0156207e-004
+4.4800000e+002    +3.4649667e-005
+4.6400000e+002    +1.4306811e-004
+4.8000000e+002    +5.3563443e-005
+4.9600000e+002    +1.2697377e-004
+5.1200000e+002    +1.7492811e-004
+5.2800000e+002    +2.1990910e-004
+5.4400000e+002    +6.3596875e-005
+5.6000000e+002    +5.5892502e-005
+5.7600000e+002    +1.3240965e-004
+5.9200000e+002    +1.9334485e-004
+6.0800000e+002    +1.4817443e-004
+6.2400000e+002    +1.7664634e-004
+6.4000000e+002    +5.9172187e-005
+6.5600000e+002    +1.1668235e-004
+6.7200000e+002    +2.1529906e-004
+6.8800000e+002    +1.5837591e-004
+7.0400000e+002    +1.6767957e-004
+7.2000000e+002    +1.2835006e-004
+7.3600000e+002    +1.2384768e-004
+7.5200000e+002    +2.2834001e-004
+7.6800000e+002    +1.6128870e-004
+7.8400000e+002    +3.3577910e-004
+8.0000000e+002    +5.9987057e-004
+8.1600000e+002    +4.6889239e-004
+8.3200000e+002    +9.4666699e-005
+8.4800000e+002    +5.9213649e-005
+8.6400000e+002    +7.2174080e-005
+8.8000000e+002    +8.9046611e-005
+8.9600000e+002    +3.3127656e-004
+9.1200000e+002    +4.1802772e-004
+9.2800000e+002    +3.0879604e-004
+9.4400000e+002    +5.8062789e-005
+9.6000000e+002    +1.4686048e-004
+9.7600000e+002    +2.0518144e-004
+9.9200000e+002    +6.1105573e-005
+1.0080000e+003    +8.4612206e-005
+1.0240000e+003    +1.4295051e-004
+1.0400000e+003    +1.1439457e-004
+1.0560000e+003    +1.5618627e-004
+1.0720000e+003    +1.4838950e-004
+1.0880000e+003    +1.5763039e-004
+1.1040000e+003    +8.9859241e-005
+1.1200000e+003    +1.0836457e-004
+1.1360000e+003    +2.0919481e-004
+1.1520000e+003    +2.0325561e-004
+1.1680000e+003    +1.5092660e-004
+1.1840000e+003    +1.5368499e-004
+1.2000000e+003    +1.1992043e-004
+1.2160000e+003    +1.0729684e-004
+1.2320000e+003    +1.1941956e-004
+1.2480000e+003    +2.2363351e-004
+1.2640000e+003    +5.0740130e-004
+1.2800000e+003    +5.4927997e-004
+1.2960000e+003    +4.3313272e-004
+1.3120000e+003    +2.6944772e-004
+1.3280000e+003    +2.2313098e-004
+1.3440000e+003    +6.1963809e-005
+1.3600000e+003    +5.0176568e-006
+1.3760000e+003    +4.5266108e-005
+1.3920000e+003    +6.6411783e-005
+1.4080000e+003    +1.2778422e-004
+1.4240000e+003    +1.0302301e-004
+1.4400000e+003    +4.8187383e-005
+1.4560000e+003    +1.1030172e-004
+1.4720000e+003    +2.1996488e-005
+1.4880000e+003    +1.7196394e-004
+1.5040000e+003    +7.0041817e-005
+1.5200000e+003    +5.6878376e-005
+1.5360000e+003    +7.0125076e-005
+1.5520000e+003    +3.9198061e-005
+1.5680000e+003    +8.0800397e-005
+1.5840000e+003    +1.7990985e-004
+1.6000000e+003    +2.3771844e-004
+1.6160000e+003    +1.4185753e-004
+1.6320000e+003    +2.7419411e-004
+1.6480000e+003    +2.2980923e-004
+1.6640000e+003    +1.8962473e-004
+1.6800000e+003    +7.2153642e-005
+1.6960000e+003    +8.7167544e-005
+1.7120000e+003    +1.3425498e-004
+1.7280000e+003    +1.2309143e-004
+1.7440000e+003    +8.2645580e-005
+1.7600000e+003    +6.0239978e-005
+1.7760000e+003    +1.3214981e-004
+1.7920000e+003    +1.7601655e-004
+1.8080000e+003    +1.7963914e-004
+1.8240000e+003    +1.5893867e-004
+1.8400000e+003    +4.9932940e-005
+1.8560000e+003    +1.0508907e-004
+1.8720000e+003    +1.2123185e-004
+1.8880000e+003    +1.4504901e-004
+1.9040000e+003    +6.5077635e-005
+1.9200000e+003    +4.5323151e-005
+1.9360000e+003    +6.4879510e-005
+1.9520000e+003    +5.9848971e-005
+1.9680000e+003    +8.2660466e-005
+1.9840000e+003    +6.3420390e-005
+2.0000000e+003    +9.2508933e-005
+2.0160000e+003    +1.2918228e-004
+2.0320000e+003    +4.1431445e-005
+2.0480000e+003    +3.2763866e-005
+2.0640000e+003    +6.0117214e-005
+2.0800000e+003    +8.0384685e-005
+2.0960000e+003    +1.3377662e-004
+2.1120000e+003    +2.1572369e-004
+2.1280000e+003    +2.8946417e-004
+2.1440000e+003    +2.3556685e-004
+2.1600000e+003    +1.2552517e-004
+2.1760000e+003    +1.0813067e-004
+2.1920000e+003    +4.6307599e-005
+2.2080000e+003    +1.0087559e-004
+2.2240000e+003    +1.7659776e-004
+2.2400000e+003    +1.8514373e-004
+2.2560000e+003    +1.6210946e-004
+2.2720000e+003    +1.0034552e-004
+2.2880000e+003    +1.5421414e-005
+2.3040000e+003    +5.6022509e-005
+2.3200000e+003    +7.3717383e-005
+2.3360000e+003    +1.1070270e-004
+2.3520000e+003    +1.7264197e-004
+2.3680000e+003    +1.3337542e-004
+2.3840000e+003    +2.3668230e-004
+2.4000000e+003    +1.0895202e-004
+2.4160000e+003    +3.5924113e-005
+2.4320000e+003    +4.4607645e-005
+2.4480000e+003    +1.2112541e-004
+2.4640000e+003    +1.4483012e-004
+2.4800000e+003    +1.1679527e-004
+2.4960000e+003    +4.2021147e-005
+2.5120000e+003    +5.0706854e-005
+2.5280000e+003    +6.7115492e-005
+2.5440000e+003    +7.7002893e-005
+2.5600000e+003    +4.8933704e-005
+2.5760000e+003    +2.7851680e-005
+2.5920000e+003    +2.6028429e-004
+2.6080000e+003    +2.1276079e-004
+2.6240000e+003    +1.5904813e-004
+2.6400000e+003    +8.3228100e-005
+2.6560000e+003    +1.4314354e-004
+2.6720000e+003    +1.5182626e-004
+2.6880000e+003    +1.3759109e-004
+2.7040000e+003    +7.9405370e-005
+2.7200000e+003    +6.3109204e-005
+2.7360000e+003    +4.2070777e-005
+2.7520000e+003    +1.6270646e-004
+2.7680000e+003    +2.0118829e-004
+2.7840000e+003    +1.1783448e-004
+2.8000000e+003    +6.1581217e-005
+2.8160000e+003    +3.6801055e-005
+2.8320000e+003    +6.5435663e-005
+2.8480000e+003    +1.6268816e-004
+2.8640000e+003    +1.1313773e-004
+2.8800000e+003    +1.2598869e-004
+2.8960000e+003    +1.8077316e-004
+2.9120000e+003    +9.4246985e-005
+2.9280000e+003    +1.1864932e-004
+2.9440000e+003    +1.7878282e-004
+2.9600000e+003    +1.5881944e-004
+2.9760000e+003    +2.2144560e-004
+2.9920000e+003    +2.2601571e-004
+3.0080000e+003    +8.1429520e-005
+3.0240000e+003    +2.1320427e-004
+3.0400000e+003    +2.8807769e-004
+3.0560000e+003    +2.2399193e-004
+3.0720000e+003    +6.3240019e-005
+3.0880000e+003    +1.0612534e-004
+3.1040000e+003    +2.6925447e-004
+3.1200000e+003    +3.4875775e-004
+3.1360000e+003    +3.0062441e-004
+3.1520000e+003    +1.3148269e-004
+3.1680000e+003    +1.5359347e-004
+3.1840000e+003    +9.2596529e-005
+3.2000000e+003    +1.1226141e-004
+3.2160000e+003    +1.5048041e-004
+3.2320000e+003    +1.4182381e-004
+3.2480000e+003    +1.1633370e-004
+3.2640000e+003    +4.8245405e-005
+3.2800000e+003    +4.0255658e-005
+3.2960000e+003    +8.2647937e-005
+3.3120000e+003    +7.7706638e-005
+3.3280000e+003    +5.4380311e-005
+3.3440000e+003    +1.5966207e-004
+3.3600000e+003    +1.2508855e-004
+3.3760000e+003    +1.9093612e-004
+3.3920000e+003    +1.7020555e-004
+3.4080000e+003    +1.5318305e-004
+3.4240000e+003    +2.3169990e-004
+3.4400000e+003    +2.4500809e-004
+3.4560000e+003    +3.0867636e-004
+3.4720000e+003    +3.3286566e-004
+3.4880000e+003    +7.0674498e-005
+3.5040000e+003    +1.3322731e-004
+3.5200000e+003    +1.9048760e-004
+3.5360000e+003    +1.1959513e-004
+3.5520000e+003    +8.6135864e-005
+3.5680000e+003    +1.4999701e-004
+3.5840000e+003    +1.9108837e-004
+3.6000000e+003    +1.8306977e-004
+3.6160000e+003    +1.1894064e-004
+3.6320000e+003    +1.8018295e-004
+3.6480000e+003    +1.4868722e-004
+3.6640000e+003    +8.6679953e-005
+3.6800000e+003    +5.6005225e-005
+3.6960000e+003    +9.4163726e-005
+3.7120000e+003    +1.1256609e-004
+3.7280000e+003    +2.2970290e-004
+3.7440000e+003    +2.4911942e-004
+3.7600000e+003    +1.2481218e-004
+3.7760000e+003    +1.1020972e-004
+3.7920000e+003    +1.0695070e-004
+3.8080000e+003    +1.8518569e-004
+3.8240000e+003    +1.8962202e-004
+3.8400000e+003    +1.6243970e-004
+3.8560000e+003    +1.0886484e-004
+3.8720000e+003    +7.1651077e-005
+3.8880000e+003    +1.3674793e-004
+3.9040000e+003    +7.1712384e-005
+3.9200000e+003    +1.2863800e-004
+3.9360000e+003    +1.4380421e-004
+3.9520000e+003    +7.4988435e-005
+3.9680000e+003    +2.2506912e-004
+3.9840000e+003    +2.0017693e-004
+4.0000000e+003    +1.1861284e-004
+4.0160000e+003    +8.3113584e-005
+4.0320000e+003    +9.9931291e-005
+4.0480000e+003    +4.1428691e-004
+4.0640000e+003    +3.4199440e-004
+4.0800000e+003    +2.3822951e-004
+4.0960000e+003    +1.7023667e-004
+4.1120000e+003    +5.7582831e-005
+4.1280000e+003    +1.4130342e-004
+4.1440000e+003    +1.1155914e-004
+4.1600000e+003    +1.1488565e-004
+4.1760000e+003    +8.5870422e-005
+4.1920000e+003    +6.9382040e-005
+4.2080000e+003    +8.2260107e-005
+4.2240000e+003    +9.9068464e-005
+4.2400000e+003    +1.1068210e-004
+4.2560000e+003    +1.6896093e-004
+4.2720000e+003    +1.8259401e-004
+4.2880000e+003    +7.7498655e-005
+4.3040000e+003    +9.3108001e-006
+4.3200000e+003    +1.3908918e-004
+4.3360000e+003    +6.8840178e-005
+4.3520000e+003    +1.5358773e-005
+4.3680000e+003    +4.4666016e-005
+4.3840000e+003    +9.2717280e-005
+4.4000000e+003    +1.2238616e-004
+4.4160000e+003    +6.1081897e-005
+4.4320000e+003    +6.2525367e-005
+4.4480000e+003    +1.3339797e-004
+4.4640000e+003    +1.5694479e-004
+4.4800000e+003    +2.3013850e-004
+4.4960000e+003    +1.4654589e-004
+4.5120000e+003    +3.9052604e-005
+4.5280000e+003    +2.6267822e-004
+4.5440000e+003    +1.6070783e-004
+4.5600000e+003    +6.5865628e-005
+4.5760000e+003    +1.6563559e-004
+4.5920000e+003    +1.3082792e-004
+4.6080000e+003    +1.8040545e-004
+4.6240000e+003    +1.4099007e-004
+4.6400000e+003    +4.7188143e-005
+4.6560000e+003    +1.0109501e-004
+4.6720000e+003    +2.4552930e-005
+4.6880000e+003    +7.0831884e-005
+4.7040000e+003    +1.0129590e-004
+4.7200000e+003    +9.4139432e-005
+4.7360000e+003    +1.7959517e-004
+4.7520000e+003    +1.5836627e-004
+4.7680000e+003    +1.3184655e-004
+4.7840000e+003    +1.8734419e-004
+4.8000000e+003    +1.7757664e-004
+4.8160000e+003    +1.6490032e-004
+4.8320000e+003    +1.3942939e-004
+4.8480000e+003    +9.4605290e-005
+4.8640000e+003    +9.3963885e-005
+4.8800000e+003    +1.8850678e-004
+4.8960000e+003    +1.2086384e-004
+4.9120000e+003    +1.5345484e-004
+4.9280000e+003    +2.0384652e-004
+4.9440000e+003    +9.9276003e-005
+4.9600000e+003    +1.9252939e-004
+4.9760000e+003    +2.3306826e-004
+4.9920000e+003    +1.8616619e-004
+5.0080000e+003    +6.9367190e-005
+5.0240000e+003    +8.4446263e-005
+5.0400000e+003    +1.2300943e-004
+5.0560000e+003    +1.4755093e-004
+5.0720000e+003    +2.2248343e-004
+5.0880000e+003    +2.9474092e-004
+5.1040000e+003    +2.6216047e-004
+5.1200000e+003    +1.6197521e-004
+5.1360000e+003    +4.4723969e-005
+5.1520000e+003    +1.1599577e-004
+5.1680000e+003    +1.0234250e-004
+5.1840000e+003    +6.6208580e-005
+5.2000000e+003    +1.7842445e-005
+5.2160000e+003    +1.8234408e-004
+5.2320000e+003    +1.9062977e-004
+5.2480000e+003    +8.6225373e-005
+5.2640000e+003    +1.1571668e-004
+5.2800000e+003    +1.0465486e-004
+5.2960000e+003    +8.5083775e-005
+5.3120000e+003    +7.2980023e-005
+5.3280000e+003    +8.1256789e-005
+5.3440000e+003    +1.3619853e-004
+5.3600000e+003    +9.3063129e-005
+5.3760000e+003    +7.2666597e-005
+5.3920000e+003    +1.3198212e-004
+5.4080000e+003    +1.5895498e-004
+5.4240000e+003    +3.2814954e-005
+5.4400000e+003    +3.3363020e-005
+5.4560000e+003    +9.1954193e-005
+5.4720000e+003    +2.1799959e-004
+5.4880000e+003    +9.2512992e-006
+5.5040000e+003    +3.2160642e-005
+5.5200000e+003    +1.0290170e-004
+5.5360000e+003    +1.0619468e-004
+5.5520000e+003    +1.0692915e-004
+5.5680000e+003    +1.1177063e-004
+5.5840000e+003    +1.3351996e-004
+5.6000000e+003    +1.2452439e-004
+5.6160000e+003    +1.6099580e-004
+5.6320000e+003    +1.1539081e-004
+5.6480000e+003    +1.4955473e-004
+5.6640000e+003    +1.1833428e-004
+5.6800000e+003    +9.9776815e-005
+5.6960000e+003    +1.0268083e-005
+5.7120000e+003    +1.6740391e-004
+5.7280000e+003    +2.9522108e-004
+5.7440000e+003    +2.8344223e-004
+5.7600000e+003    +9.1031019e-005
+5.7760000e+003    +7.5205367e-005
+5.7920000e+003    +1.2605544e-004
+5.8080000e+003    +1.1244102e-004
+5.8240000e+003    +1.4320036e-004
+5.8400000e+003    +5.5315639e-005
+5.8560000e+003    +6.2532992e-005
+5.8720000e+003    +7.4878597e-005
+5.8880000e+003    +6.7327164e-005
+5.9040000e+003    +1.1414765e-004
+5.9200000e+003    +4.8904702e-005
+5.9360000e+003    +4.1157866e-005
+5.9520000e+003    +1.5909379e-004
+5.9680000e+003    +8.5719519e-005
+5.9840000e+003    +2.9000004e-005
+6.0000000e+003    +4.4752116e-005
+6.0160000e+003    +3.5705361e-005
+6.0320000e+003    +1.2737849e-004
+6.0480000e+003    +1.0244042e-004
+6.0640000e+003    +5.8887144e-005
+6.0800000e+003    +1.5459549e-004
+6.0960000e+003    +1.4429069e-004
+6.1120000e+003    +1.2686102e-004
+6.1280000e+003    +5.4638858e-005
+6.1440000e+003    +2.9029663e-005
+6.1600000e+003    +7.3133953e-005
+6.1760000e+003    +1.3697491e-004
+6.1920000e+003    +1.5334703e-004
+6.2080000e+003    +1.8201754e-004
+6.2240000e+003    +1.6836963e-004
+6.2400000e+003    +7.2969124e-005
+6.2560000e+003    +6.9024471e-005
+6.2720000e+003    +6.1267012e-005
+6.2880000e+003    +6.7581124e-005
+6.3040000e+003    +4.3799246e-005
+6.3200000e+003    +1.4953437e-004
+6.3360000e+003    +1.2693620e-004
+6.3520000e+003    +1.3450603e-004
+6.3680000e+003    +1.4366698e-004
+6.3840000e+003    +1.3906621e-004
+6.4000000e+003    +2.4243144e-004
+6.4160000e+003    +2.5682623e-004
+6.4320000e+003    +1.7930524e-004
+6.4480000e+003    +1.3709257e-004
+6.4640000e+003    +1.6226812e-004
+6.4800000e+003    +2.5451428e-004
+6.4960000e+003    +2.5734940e-004
+6.5120000e+003    +1.6833044e-004
+6.5280000e+003    +7.0596710e-005
+6.5440000e+003    +5.2694642e-005
+6.5600000e+003    +5.6162186e-005
+6.5760000e+003    +6.5937842e-005
+6.5920000e+003    +4.2864027e-005
+6.6080000e+003    +5.6725828e-005
+6.6240000e+003    +1.0672677e-004
+6.6400000e+003    +1.2957491e-004
+6.6560000e+003    +8.9855290e-005
+6.6720000e+003    +1.7691012e-004
+6.6880000e+003    +1.4036166e-004
+6.7040000e+003    +1.0338458e-004
+6.7200000e+003    +1.7960936e-004
+6.7360000e+003    +1.3427938e-004
+6.7520000e+003    +1.1571815e-004
+6.7680000e+003    +1.2054934e-004
+6.7840000e+003    +1.3080903e-004
+6.8000000e+003    +1.9565504e-004
+6.8160000e+003    +1.9061449e-004
+6.8320000e+003    +2.1844500e-004
+6.8480000e+003    +1.1732106e-004
+6.8640000e+003    +1.5133072e-004
+6.8800000e+003    +1.3611341e-004
+6.8960000e+003    +1.8574386e-004
+6.9120000e+003    +2.4922981e-004
+6.9280000e+003    +2.7300214e-004
+6.9440000e+003    +2.3386111e-004
+6.9600000e+003    +2.7778873e-004
+6.9760000e+003    +3.2635801e-004
+6.9920000e+003    +2.7674029e-004
+7.0080000e+003    +2.2174207e-004
+7.0240000e+003    +1.4609029e-004
+7.0400000e+003    +1.9282218e-004
+7.0560000e+003    +2.0569460e-004
+7.0720000e+003    +1.4881788e-004
+7.0880000e+003    +1.4248308e-004
+7.1040000e+003    +1.7347650e-004
+7.1200000e+003    +2.3437045e-004
+7.1360000e+003    +2.0960096e-004
+7.1520000e+003    +8.8981811e-005
+7.1680000e+003    +3.3720391e-004
+7.1840000e+003    +3.8648461e-004
+7.2000000e+003    +3.7618590e-004
+7.2160000e+003    +2.5412266e-004
+7.2320000e+003    +9.5662974e-005
+7.2480000e+003    +8.7751869e-005
+7.2640000e+003    +5.2259289e-005
+7.2800000e+003    +4.0675470e-005
+7.2960000e+003    +9.7506316e-005
+7.3120000e+003    +2.0798398e-004
+7.3280000e+003    +1.5766361e-004
+7.3440000e+003    +1.3871364e-004
+7.3600000e+003    +1.4549977e-004
+7.3760000e+003    +1.1740167e-004
+7.3920000e+003    +8.6425556e-005
+7.4080000e+003    +4.7778511e-005
+7.4240000e+003    +1.6203561e-004
+7.4400000e+003    +1.7358166e-004
+7.4560000e+003    +2.8011735e-004
+7.4720000e+003    +2.2032092e-004
+7.4880000e+003    +6.1432649e-005
+7.5040000e+003    +7.6372824e-005
+7.5200000e+003    +1.0669999e-004
+7.5360000e+003    +1.3011316e-004
+7.5520000e+003    +9.6349511e-005
+7.5680000e+003    +7.0215530e-005
+7.5840000e+003    +1.3995048e-004
+7.6000000e+003    +1.5222127e-004
+7.6160000e+003    +1.4834462e-004
+7.6320000e+003    +1.1855445e-004
+7.6480000e+003    +9.0972571e-005
+7.6640000e+003    +2.9175593e-005
+7.6800000e+003    +4.1000276e-005
+7.6960000e+003    +3.2320429e-005
+7.7120000e+003    +5.8935009e-005
+7.7280000e+003    +1.1186117e-004
+7.7440000e+003    +2.4082599e-005
+7.7600000e+003    +9.3473158e-005
+7.7760000e+003    +1.7545487e-004
+7.7920000e+003    +1.7513172e-004
+7.8080000e+003    +7.4308489e-005
+7.8240000e+003    +5.1502378e-005
+7.8400000e+003    +1.1135788e-004
+7.8560000e+003    +6.3022097e-005
+7.8720000e+003    +9.9448815e-005
+7.8880000e+003    +1.7940518e-004
+7.9040000e+003    +2.0245313e-004
+7.9200000e+003    +1.7043931e-004
+7.9360000e+003    +2.8330722e-004
+7.9520000e+003    +1.5976194e-004
+7.9680000e+003    +5.4195414e-005
+7.9840000e+003    +4.6566965e-005
+8.0000000e+003    +2.9435885e-004
+8.0160000e+003    +2.8528261e-004
+8.0320000e+003    +2.1858548e-004
+8.0480000e+003    +1.0685052e-004
+8.0640000e+003    +6.2509716e-005
+8.0800000e+003    +1.2136723e-004
+8.0960000e+003    +1.1272341e-004
+8.1120000e+003    +1.1476078e-004
+8.1280000e+003    +2.1013612e-004
+8.1440000e+003    +4.5067001e-005
+8.1600000e+003    +6.0767634e-005
+8.1760000e+003    +1.2382524e-004
+8.1920000e+003    +1.9654685e-004
+8.2080000e+003    +2.3975920e-004
+8.2240000e+003    +1.0691923e-004
+8.2400000e+003    +1.1063855e-004
+8.2560000e+003    +2.8967384e-005
+8.2720000e+003    +4.0828494e-005
+8.2880000e+003    +1.9478695e-004
+8.3040000e+003    +1.1061456e-004
+8.3200000e+003    +9.8675926e-005
+8.3360000e+003    +2.3156372e-004
+8.3520000e+003    +1.0537590e-004
+8.3680000e+003    +1.3248628e-004
+8.3840000e+003    +1.0873642e-004
+8.4000000e+003    +3.0758059e-005
+8.4160000e+003    +1.2572137e-004
+8.4320000e+003    +1.0771937e-004
+8.4480000e+003    +5.7946752e-005
+8.4640000e+003    +8.2430350e-005
+8.4800000e+003    +7.4697702e-005
+8.4960000e+003    +1.7053702e-004
+8.5120000e+003    +1.4023496e-004
+8.5280000e+003    +5.8575231e-005
+8.5440000e+003    +5.2436542e-005
+8.5600000e+003    +1.7693052e-005
+8.5760000e+003    +7.0868213e-005
+8.5920000e+003    +2.1408992e-004
+8.6080000e+003    +3.0779949e-004
+8.6240000e+003    +4.3441483e-005
+8.6400000e+003    +1.4405452e-005
+8.6560000e+003    +6.0300728e-005
+8.6720000e+003    +7.0043665e-005
+8.6880000e+003    +7.7348188e-005
+8.7040000e+003    +1.5149672e-004
+8.7200000e+003    +1.7260917e-004
+8.7360000e+003    +1.6032187e-004
+8.7520000e+003    +1.3002940e-004
+8.7680000e+003    +9.5334675e-005
+8.7840000e+003    +6.9891328e-005
+8.8000000e+003    +1.0604991e-004
+8.8160000e+003    +1.3438085e-004
+8.8320000e+003    +1.1088468e-004
+8.8480000e+003    +1.8707349e-005
+8.8640000e+003    +5.4707591e-005
+8.8800000e+003    +1.9039099e-004
+8.8960000e+003    +2.1328634e-004
+8.9120000e+003    +1.5099016e-004
+8.9280000e+003    +7.7519333e-005
+8.9440000e+003    +6.6045584e-005
+8.9600000e+003    +8.4516570e-005
+8.9760000e+003    +1.1148487e-004
+8.9920000e+003    +5.9005451e-005
+9.0080000e+003    +1.0331072e-004
+9.0240000e+003    +2.5536364e-004
+9.0400000e+003    +1.1981284e-004
+9.0560000e+003    +4.1886826e-005
+9.0720000e+003    +1.3441088e-004
+9.0880000e+003    +1.3631246e-004
+9.1040000e+003    +1.4972042e-004
+9.1200000e+003    +1.5599569e-004
+9.1360000e+003    +1.1086003e-004
+9.1520000e+003    +9.6945987e-005
+9.1680000e+003    +1.5690939e-004
+9.1840000e+003    +3.6216108e-005
+9.2000000e+003    +7.1503484e-005
+9.2160000e+003    +7.6279051e-005
+9.2320000e+003    +6.4436594e-005
+9.2480000e+003    +4.9810449e-005
+9.2640000e+003    +2.0556907e-004
+9.2800000e+003    +2.6657470e-004
+9.2960000e+003    +2.4488370e-004
+9.3120000e+003    +1.5204246e-004
+9.3280000e+003    +9.3791852e-005
+9.3440000e+003    +1.3927891e-004
+9.3600000e+003    +1.6946452e-004
+9.3760000e+003    +1.9608601e-004
+9.3920000e+003    +2.2022973e-004
+9.4080000e+003    +1.5279133e-004
+9.4240000e+003    +8.4230131e-005
+9.4400000e+003    +1.4244491e-004
+9.4560000e+003    +2.3118711e-004
+9.4720000e+003    +9.4333431e-005
+9.4880000e+003    +1.6935923e-004
+9.5040000e+003    +1.2851617e-004
+9.5200000e+003    +7.9882913e-005
+9.5360000e+003    +6.1163504e-005
+9.5520000e+003    +2.1520583e-004
+9.5680000e+003    +2.1959568e-004
+9.5840000e+003    +9.0282010e-005
+9.6000000e+003    +6.1529448e-005
+9.6160000e+003    +9.3720926e-005
+9.6320000e+003    +2.1706083e-004
+9.6480000e+003    +2.1294624e-004
+9.6640000e+003    +6.3478074e-005
+9.6800000e+003    +9.5407348e-005
+9.6960000e+003    +7.7764504e-005
+9.7120000e+003    +1.5825815e-004
+9.7280000e+003    +1.4626708e-004
+9.7440000e+003    +1.0215053e-004
+9.7600000e+003    +1.9935508e-004
+9.7760000e+003    +1.0481574e-004
+9.7920000e+003    +2.8539711e-005
+9.8080000e+003    +3.7073060e-005
+9.8240000e+003    +1.8811786e-004
+9.8400000e+003    +1.8690072e-004
+9.8560000e+003    +1.8277945e-004
+9.8720000e+003    +1.5727771e-004
+9.8880000e+003    +4.6204656e-005
+9.9040000e+003    +2.0996372e-004
+9.9200000e+003    +1.5592018e-004
+9.9360000e+003    +9.4187402e-005
+9.9520000e+003    +1.2094880e-004
+9.9680000e+003    +2.1169857e-004
+9.9840000e+003    +1.4929198e-004
+1.0000000e+004    +1.1202341e-004
+1.0016000e+004    +7.0695918e-005
+1.0032000e+004    +9.8043725e-005
+1.0048000e+004    +2.8521323e-004
+1.0064000e+004    +2.7353666e-004
+1.0080000e+004    +1.5510019e-004
+1.0096000e+004    +1.2245834e-004
+1.0112000e+004    +8.8985522e-005
+1.0128000e+004    +1.4783634e-004
+1.0144000e+004    +3.2158152e-004
+1.0160000e+004    +5.3424505e-004
+1.0176000e+004    +5.6413969e-004
+1.0192000e+004    +1.8123831e-004
+1.0208000e+004    +1.9492130e-004
+1.0224000e+004    +1.5186668e-004
+1.0240000e+004    +2.0146338e-004
+1.0256000e+004    +1.0633838e-004
+1.0272000e+004    +8.2360333e-005
+1.0288000e+004    +1.6313318e-004
+1.0304000e+004    +1.7502187e-004
+1.0320000e+004    +6.4855296e-005
+1.0336000e+004    +2.4041691e-004
+1.0352000e+004    +2.5942651e-004
+1.0368000e+004    +7.4467105e-005
+1.0384000e+004    +1.1955600e-004
+1.0400000e+004    +1.0861597e-004
+1.0416000e+004    +2.8272209e-005
+1.0432000e+004    +4.2971038e-005
+1.0448000e+004    +1.9189152e-004
+1.0464000e+004    +3.4145635e-004
+1.0480000e+004    +1.1035011e-004
+1.0496000e+004    +9.2050563e-005
+1.0512000e+004    +1.2534572e-004
+1.0528000e+004    +1.3329323e-004
+1.0544000e+004    +4.3718384e-005
+1.0560000e+004    +1.0497543e-004
+1.0576000e+004    +5.9595928e-005
+1.0592000e+004    +2.4926499e-004
+1.0608000e+004    +9.9930527e-005
+1.0624000e+004    +1.3904873e-004
+1.0640000e+004    +1.8370514e-004
+1.0656000e+004    +2.8017795e-004
+1.0672000e+004    +1.7494905e-004
+1.0688000e+004    +1.2957057e-004
+1.0704000e+004    +1.8042368e-004
+1.0720000e+004    +1.6038322e-004
+1.0736000e+004    +1.2504976e-004
+1.0752000e+004    +1.3522954e-005
+1.0768000e+004    +2.2742938e-004
+1.0784000e+004    +3.9702389e-004
+1.0800000e+004    +3.1130423e-004
+1.0816000e+004    +9.9276876e-005
+1.0832000e+004    +8.0925493e-005
+1.0848000e+004    +1.1212757e-004
+1.0864000e+004    +1.3713163e-004
+1.0880000e+004    +9.8575649e-005
+1.0896000e+004    +3.7352179e-004
+1.0912000e+004    +1.5609396e-004
+1.0928000e+004    +1.1060630e-004
+1.0944000e+004    +1.9271571e-004
+1.0960000e+004    +1.0616030e-004
+1.0976000e+004    +1.4476867e-004
+1.0992000e+004    +2.3631603e-004
+1.1008000e+004    +1.4803174e-004
+1.1024000e+004    +7.2631257e-005
+1.1040000e+004    +4.5002376e-005
+1.1056000e+004    +9.2360046e-005
+1.1072000e+004    +1.5489911e-004
+1.1088000e+004    +1.6619256e-004
+1.1104000e+004    +8.8695429e-005
+1.1120000e+004    +1.0389375e-004
+1.1136000e+004    +1.2875938e-004
+1.1152000e+004    +4.6995749e-005
+1.1168000e+004    +4.3678272e-005
+1.1184000e+004    +2.9455588e-004
+1.1200000e+004    +2.4871933e-004
+1.1216000e+004    +2.0751967e-004
+1.1232000e+004    +2.0098528e-004
+1.1248000e+004    +2.1132723e-004
+1.1264000e+004    +1.7340700e-004
+1.1280000e+004    +1.3258538e-005
+1.1296000e+004    +1.6073510e-004
+1.1312000e+004    +1.8652239e-004
+1.1328000e+004    +2.1098225e-004
+1.1344000e+004    +1.9188246e-004
+1.1360000e+004    +7.2575618e-005
+1.1376000e+004    +7.9510937e-005
+1.1392000e+004    +1.3289889e-004
+1.1408000e+004    +9.6064839e-005
+1.1424000e+004    +1.0980051e-004
+1.1440000e+004    +8.3730280e-005
+1.1456000e+004    +1.3169204e-004
+1.1472000e+004    +3.1347331e-004
+1.1488000e+004    +3.0682856e-004
+1.1504000e+004    +4.3830610e-004
+1.1520000e+004    +5.7129981e-004
+1.1536000e+004    +2.1847691e-004
+1.1552000e+004    +2.0726703e-004
+1.1568000e+004    +2.4723477e-004
+1.1584000e+004    +3.3900954e-004
+1.1600000e+004    +1.4523602e-004
+1.1616000e+004    +1.0452458e-004
+1.1632000e+004    +3.1767579e-004
+1.1648000e+004    +4.0163696e-004
+1.1664000e+004    +2.9871296e-004
+1.1680000e+004    +1.4311093e-004
+1.1696000e+004    +1.5457037e-004
+1.1712000e+004    +1.5148791e-004
+1.1728000e+004    +1.6761772e-004
+1.1744000e+004    +1.2688659e-004
+1.1760000e+004    +1.1754761e-004
+1.1776000e+004    +1.9055913e-004
+1.1792000e+004    +2.1296937e-004
+1.1808000e+004    +1.8994897e-004
+1.1824000e+004    +3.4086267e-004
+1.1840000e+004    +3.3129967e-004
+1.1856000e+004    +2.9806083e-004
+1.1872000e+004    +1.8890013e-004
+1.1888000e+004    +1.8597629e-004
+1.1904000e+004    +1.5633751e-004
+1.1920000e+004    +1.3949662e-004
+1.1936000e+004    +6.7399429e-005
+1.1952000e+004    +1.5698925e-004
+1.1968000e+004    +9.7339769e-005
+1.1984000e+004    +1.3976621e-004
+1.2000000e+004    +1.3699115e-004
+1.2016000e+004    +1.0089409e-004
+1.2032000e+004    +7.0888447e-005
+1.2048000e+004    +1.0027322e-004
+1.2064000e+004    +1.1081738e-004
+1.2080000e+004    +1.0455534e-004
+1.2096000e+004    +2.2593768e-004
+1.2112000e+004    +2.3131164e-004
+1.2128000e+004    +2.8302459e-004
+1.2144000e+004    +2.7383430e-004
+1.2160000e+004    +2.2993656e-004
+1.2176000e+004    +1.6261530e-004
+1.2192000e+004    +4.4579100e-004
+1.2208000e+004    +7.2321470e-004
+1.2224000e+004    +6.4703869e-004
+1.2240000e+004    +4.7445644e-004
+1.2256000e+004    +3.0829836e-004
+1.2272000e+004    +1.7524356e-004
+1.2288000e+004    +2.7346460e-004
+1.2304000e+004    +2.0582495e-004
+1.2320000e+004    +3.9760867e-005
+1.2336000e+004    +6.3392130e-005
+1.2352000e+004    +1.4627695e-005
+1.2368000e+004    +4.5028522e-005
+1.2384000e+004    +2.7955079e-004
+1.2400000e+004    +1.0626700e-004
+1.2416000e+004    +7.4064621e-005
+1.2432000e+004    +5.2044448e-005
+1.2448000e+004    +1.6221202e-004
+1.2464000e+004    +7.9096215e-005
+1.2480000e+004    +1.9190743e-004
+1.2496000e+004    +2.1849945e-004
+1.2512000e+004    +1.2280182e-004
+1.2528000e+004    +4.7788321e-004
+1.2544000e+004    +3.5508344e-004
+1.2560000e+004    +2.6809424e-004
+1.2576000e+004    +2.9417450e-004
+1.2592000e+004    +1.0670960e-004
+1.2608000e+004    +2.4023892e-004
+1.2624000e+004    +2.7285065e-004
+1.2640000e+004    +1.8583248e-004
+1.2656000e+004    +1.4508850e-004
+1.2672000e+004    +8.9108813e-005
+1.2688000e+004    +1.2664830e-004
+1.2704000e+004    +2.9434299e-004
+1.2720000e+004    +3.4630994e-004
+1.2736000e+004    +4.1691712e-004
+1.2752000e+004    +1.8698025e-004
+1.2768000e+004    +3.1312468e-004
+1.2784000e+004    +4.9745355e-004
