# SR785 Measurement - Timestamp: Jan 24 2019 - 23:53:23
#---------- Measurement Setup ------------
# Start Frequency (Hz): 0.000000
# Frequency Span (Hz): 12800.000000
# Frequency Resolution: 800
# Number of Averages: 2
# Averaging Mode: None
# Window function: BMH
#---------- Measurement Parameters ----------
# Measurement Group:  "FFT" "FFT"
# Measurements:  "FFT 1" "FFT 2"
# View:  "Log Magnitude" "Log Magnitude"
# Unit:  "Vrms/rtHz" "Vpk"
#---------- Input Parameters ----------
# Input Source: Analog
# Input Mode: Single ended, Single ended
# Input Grounding: Float, Float
# Input Coupling: AC, AC
# Input Range: 6.0dBVpk, 6.0dBVpk
# Auto Range: Off, Off
# Auto Range Mode: Up Only, Normal
# Anti-Aliasing Filter: On, On
#---------- Source Parameters ----------
# Source Type: Sine
# Source Amplitude: 500.0mVpk
# Source On: 0

#---------- Measurement Data ----------
# [Freq(Hz) Display 0(Vrms/rtHz) Display 1(Vpk) ]
+0.0000000e+000    +1.6006691e-002
+1.6000000e+001    +1.2464007e-002
+3.2000000e+001    +5.3936979e-003
+4.8000000e+001    +2.2687844e-003
+6.4000000e+001    +1.1760802e-003
+8.0000000e+001    +7.3121907e-004
+9.6000000e+001    +3.9989973e-004
+1.1200000e+002    +4.3574977e-004
+1.2800000e+002    +1.2470438e-004
+1.4400000e+002    +1.0387430e-004
+1.6000000e+002    +4.2561052e-004
+1.7600000e+002    +7.8413927e-004
+1.9200000e+002    +6.3515198e-004
+2.0800000e+002    +1.6853767e-002
+2.2400000e+002    +2.6252836e-002
+2.4000000e+002    +2.7760038e-002
+2.5600000e+002    +2.0684270e-002
+2.7200000e+002    +8.0362530e-003
+2.8800000e+002    +1.2154242e-002
+3.0400000e+002    +1.0846846e-002
+3.2000000e+002    +8.9917267e-003
+3.3600000e+002    +9.4437171e-003
+3.5200000e+002    +7.5644399e-003
+3.6800000e+002    +5.1045083e-003
+3.8400000e+002    +6.2705493e-003
+4.0000000e+002    +9.2936363e-003
+4.1600000e+002    +1.9794142e-004
+4.3200000e+002    +2.4033706e-004
+4.4800000e+002    +1.3715851e-004
+4.6400000e+002    +2.9910974e-005
+4.8000000e+002    +1.0873929e-004
+4.9600000e+002    +4.3033833e-005
+5.1200000e+002    +1.1182973e-004
+5.2800000e+002    +1.2818359e-004
+5.4400000e+002    +1.2300085e-004
+5.6000000e+002    +1.1881690e-004
+5.7600000e+002    +4.1683310e-005
+5.9200000e+002    +7.2209194e-005
+6.0800000e+002    +1.1498680e-004
+6.2400000e+002    +2.4830198e-004
+6.4000000e+002    +2.4821286e-004
+6.5600000e+002    +8.4265652e-005
+6.7200000e+002    +1.2081747e-004
+6.8800000e+002    +2.8381377e-004
+7.0400000e+002    +2.1623530e-004
+7.2000000e+002    +2.6433240e-004
+7.3600000e+002    +3.1798444e-004
+7.5200000e+002    +2.5244962e-004
+7.6800000e+002    +1.2513285e-004
+7.8400000e+002    +2.0649949e-004
+8.0000000e+002    +2.7019798e-004
+8.1600000e+002    +1.9377723e-004
+8.3200000e+002    +7.9460580e-005
+8.4800000e+002    +2.8749913e-004
+8.6400000e+002    +1.7159154e-004
+8.8000000e+002    +1.4782320e-004
+8.9600000e+002    +3.4830658e-004
+9.1200000e+002    +4.2718285e-004
+9.2800000e+002    +3.3298979e-004
+9.4400000e+002    +2.0159161e-004
+9.6000000e+002    +9.0297079e-005
+9.7600000e+002    +3.3213571e-005
+9.9200000e+002    +1.0205693e-004
+1.0080000e+003    +1.6478747e-004
+1.0240000e+003    +9.0392503e-005
+1.0400000e+003    +1.1151744e-004
+1.0560000e+003    +1.1913911e-004
+1.0720000e+003    +5.5229764e-005
+1.0880000e+003    +2.4598101e-005
+1.1040000e+003    +4.9072518e-003
+1.1200000e+003    +8.8346899e-003
+1.1360000e+003    +1.2113865e-002
+1.1520000e+003    +1.4316903e-002
+1.1680000e+003    +6.2801852e-003
+1.1840000e+003    +9.1209356e-003
+1.2000000e+003    +1.5867790e-002
+1.2160000e+003    +1.9949729e-002
+1.2320000e+003    +1.8303836e-002
+1.2480000e+003    +1.7567587e-004
+1.2640000e+003    +1.9575775e-004
+1.2800000e+003    +2.1519484e-004
+1.2960000e+003    +2.0019495e-004
+1.3120000e+003    +2.4808492e-004
+1.3280000e+003    +2.4224346e-004
+1.3440000e+003    +1.3640827e-004
+1.3600000e+003    +3.2264092e-005
+1.3760000e+003    +1.3090263e-004
+1.3920000e+003    +1.3850628e-004
+1.4080000e+003    +1.8766071e-004
+1.4240000e+003    +1.8449618e-004
+1.4400000e+003    +1.5115694e-004
+1.4560000e+003    +8.5179119e-005
+1.4720000e+003    +1.1526539e-004
+1.4880000e+003    +1.1538023e-004
+1.5040000e+003    +1.6060412e-004
+1.5200000e+003    +2.2494090e-004
+1.5360000e+003    +1.9047860e-004
+1.5520000e+003    +1.6220675e-004
+1.5680000e+003    +1.4683178e-004
+1.5840000e+003    +1.9854074e-004
+1.6000000e+003    +2.0542952e-004
+1.6160000e+003    +2.0689846e-004
+1.6320000e+003    +1.1749587e-004
+1.6480000e+003    +5.6957557e-005
+1.6640000e+003    +7.7057186e-005
+1.6800000e+003    +7.2524796e-005
+1.6960000e+003    +1.4488475e-004
+1.7120000e+003    +1.6340512e-004
+1.7280000e+003    +1.2329359e-004
+1.7440000e+003    +9.7472279e-005
+1.7600000e+003    +1.7649862e-005
+1.7760000e+003    +1.4942515e-004
+1.7920000e+003    +1.6156217e-004
+1.8080000e+003    +1.0002196e-004
+1.8240000e+003    +6.2141495e-005
+1.8400000e+003    +7.9211539e-005
+1.8560000e+003    +1.5138631e-004
+1.8720000e+003    +2.2262418e-004
+1.8880000e+003    +1.5860979e-004
+1.9040000e+003    +1.0359787e-004
+1.9200000e+003    +7.9594261e-005
+1.9360000e+003    +1.3568888e-004
+1.9520000e+003    +1.3538843e-004
+1.9680000e+003    +1.4305429e-004
+1.9840000e+003    +1.1700069e-004
+2.0000000e+003    +1.7996704e-004
+2.0160000e+003    +1.3720151e-004
+2.0320000e+003    +1.3147728e-004
+2.0480000e+003    +9.3044742e-005
+2.0640000e+003    +1.6202352e-005
+2.0800000e+003    +1.1835955e-004
+2.0960000e+003    +1.7355289e-004
+2.1120000e+003    +1.8387061e-004
+2.1280000e+003    +3.5760484e-005
+2.1440000e+003    +1.0964263e-004
+2.1600000e+003    +1.5407181e-004
+2.1760000e+003    +1.5566582e-004
+2.1920000e+003    +1.3655228e-004
+2.2080000e+003    +2.8325994e-005
+2.2240000e+003    +4.3238106e-005
+2.2400000e+003    +5.0742889e-005
+2.2560000e+003    +4.3869415e-005
+2.2720000e+003    +1.5003284e-004
+2.2880000e+003    +1.0086833e-004
+2.3040000e+003    +1.3726126e-004
+2.3200000e+003    +1.7818228e-004
+2.3360000e+003    +1.1928636e-004
+2.3520000e+003    +1.2172989e-004
+2.3680000e+003    +1.6629240e-004
+2.3840000e+003    +1.6270521e-004
+2.4000000e+003    +1.6900444e-004
+2.4160000e+003    +6.8052752e-005
+2.4320000e+003    +1.4523116e-004
+2.4480000e+003    +2.2768385e-004
+2.4640000e+003    +2.1997502e-004
+2.4800000e+003    +1.3588621e-004
+2.4960000e+003    +5.8901758e-005
+2.5120000e+003    +7.7309131e-005
+2.5280000e+003    +1.1032540e-004
+2.5440000e+003    +1.3566125e-004
+2.5600000e+003    +1.0918290e-004
+2.5760000e+003    +5.0711977e-005
+2.5920000e+003    +1.0465308e-004
+2.6080000e+003    +1.6243300e-004
+2.6240000e+003    +5.6301102e-005
+2.6400000e+003    +7.8624238e-005
+2.6560000e+003    +2.6461652e-005
+2.6720000e+003    +1.2934692e-004
+2.6880000e+003    +1.6159126e-004
+2.7040000e+003    +9.0654401e-005
+2.7200000e+003    +4.8005619e-005
+2.7360000e+003    +4.0080216e-005
+2.7520000e+003    +6.8090871e-005
+2.7680000e+003    +1.0418698e-004
+2.7840000e+003    +1.8113725e-004
+2.8000000e+003    +7.9713638e-005
+2.8160000e+003    +1.2538700e-004
+2.8320000e+003    +2.3143485e-004
+2.8480000e+003    +7.5201322e-005
+2.8640000e+003    +6.1080893e-005
+2.8800000e+003    +2.0146703e-005
+2.8960000e+003    +1.1936451e-004
+2.9120000e+003    +1.0371555e-004
+2.9280000e+003    +1.3266824e-004
+2.9440000e+003    +8.8932291e-005
+2.9600000e+003    +7.3836301e-005
+2.9760000e+003    +2.0344471e-004
+2.9920000e+003    +1.1014965e-004
+3.0080000e+003    +2.1133790e-005
+3.0240000e+003    +1.4332014e-004
+3.0400000e+003    +2.4678497e-004
+3.0560000e+003    +1.0060935e-004
+3.0720000e+003    +7.5395110e-005
+3.0880000e+003    +4.2714579e-005
+3.1040000e+003    +1.1001839e-004
+3.1200000e+003    +1.0719117e-004
+3.1360000e+003    +9.3758907e-005
+3.1520000e+003    +1.2304084e-004
+3.1680000e+003    +2.0160766e-004
+3.1840000e+003    +1.7554968e-004
+3.2000000e+003    +1.5834645e-004
+3.2160000e+003    +1.4868150e-004
+3.2320000e+003    +1.3184967e-004
+3.2480000e+003    +1.4509639e-004
+3.2640000e+003    +1.3438232e-004
+3.2800000e+003    +1.3344047e-004
+3.2960000e+003    +1.6446781e-004
+3.3120000e+003    +1.4010099e-004
+3.3280000e+003    +9.0156107e-005
+3.3440000e+003    +9.2285336e-005
+3.3600000e+003    +1.9249102e-004
+3.3760000e+003    +2.1626320e-004
+3.3920000e+003    +1.7355423e-004
+3.4080000e+003    +1.7890525e-004
+3.4240000e+003    +9.2641370e-005
+3.4400000e+003    +3.5772264e-005
+3.4560000e+003    +6.6223482e-005
+3.4720000e+003    +2.1547383e-004
+3.4880000e+003    +1.7497671e-004
+3.5040000e+003    +2.5289140e-005
+3.5200000e+003    +1.5927767e-004
+3.5360000e+003    +1.0108225e-004
+3.5520000e+003    +1.2065488e-004
+3.5680000e+003    +7.9483441e-005
+3.5840000e+003    +1.8555766e-005
+3.6000000e+003    +1.0916150e-004
+3.6160000e+003    +1.1365199e-004
+3.6320000e+003    +1.2817373e-004
+3.6480000e+003    +1.5257265e-004
+3.6640000e+003    +7.9003607e-005
+3.6800000e+003    +9.4418814e-005
+3.6960000e+003    +1.4160752e-004
+3.7120000e+003    +1.6855876e-004
+3.7280000e+003    +1.8153415e-004
+3.7440000e+003    +1.5833958e-004
+3.7600000e+003    +7.2833376e-005
+3.7760000e+003    +5.6637145e-005
+3.7920000e+003    +7.9119578e-005
+3.8080000e+003    +5.8642672e-005
+3.8240000e+003    +3.7058206e-005
+3.8400000e+003    +5.0696890e-005
+3.8560000e+003    +9.6954391e-005
+3.8720000e+003    +1.6153681e-004
+3.8880000e+003    +1.4499550e-004
+3.9040000e+003    +8.7016269e-005
+3.9200000e+003    +5.2514268e-005
+3.9360000e+003    +4.6769826e-005
+3.9520000e+003    +3.4553741e-005
+3.9680000e+003    +5.4898213e-005
+3.9840000e+003    +3.9797465e-005
+4.0000000e+003    +4.1564261e-005
+4.0160000e+003    +3.4015829e-005
+4.0320000e+003    +1.6276765e-004
+4.0480000e+003    +1.3064941e-004
+4.0640000e+003    +2.9551311e-004
+4.0800000e+003    +2.1204868e-004
+4.0960000e+003    +2.1809799e-005
+4.1120000e+003    +1.8294700e-004
+4.1280000e+003    +2.4017166e-004
+4.1440000e+003    +1.5543995e-004
+4.1600000e+003    +2.7563437e-005
+4.1760000e+003    +1.1615195e-004
+4.1920000e+003    +6.9102498e-005
+4.2080000e+003    +9.7240532e-005
+4.2240000e+003    +1.6872966e-004
+4.2400000e+003    +1.6412750e-004
+4.2560000e+003    +1.1672476e-004
+4.2720000e+003    +8.3413994e-005
+4.2880000e+003    +9.0988651e-005
+4.3040000e+003    +9.7579781e-005
+4.3200000e+003    +1.0885444e-004
+4.3360000e+003    +1.6654300e-004
+4.3520000e+003    +1.7142913e-004
+4.3680000e+003    +4.6361627e-005
+4.3840000e+003    +1.0284856e-004
+4.4000000e+003    +2.8611215e-005
+4.4160000e+003    +6.2734485e-005
+4.4320000e+003    +8.0897866e-005
+4.4480000e+003    +6.8225425e-005
+4.4640000e+003    +1.3355332e-004
+4.4800000e+003    +1.7845696e-004
+4.4960000e+003    +1.5299537e-004
+4.5120000e+003    +4.7454840e-005
+4.5280000e+003    +1.1022417e-004
+4.5440000e+003    +6.2156098e-005
+4.5600000e+003    +4.7674755e-005
+4.5760000e+003    +6.9091875e-005
+4.5920000e+003    +1.1890643e-004
+4.6080000e+003    +1.5132416e-004
+4.6240000e+003    +1.0187008e-004
+4.6400000e+003    +6.6796507e-005
+4.6560000e+003    +1.0144855e-004
+4.6720000e+003    +7.0501970e-005
+4.6880000e+003    +2.0111431e-005
+4.7040000e+003    +8.0159763e-005
+4.7200000e+003    +2.2900836e-005
+4.7360000e+003    +4.4198077e-005
+4.7520000e+003    +6.7391135e-005
+4.7680000e+003    +1.1328472e-004
+4.7840000e+003    +1.4594969e-004
+4.8000000e+003    +1.1751754e-004
+4.8160000e+003    +1.7842033e-004
+4.8320000e+003    +2.0241490e-004
+4.8480000e+003    +1.6564295e-004
+4.8640000e+003    +2.7474138e-004
+4.8800000e+003    +2.7030066e-004
+4.8960000e+003    +1.8757863e-004
+4.9120000e+003    +1.6169190e-004
+4.9280000e+003    +6.9722482e-005
+4.9440000e+003    +9.2051072e-005
+4.9600000e+003    +1.1312661e-004
+4.9760000e+003    +4.7480899e-005
+4.9920000e+003    +2.7045384e-005
+5.0080000e+003    +6.0237202e-005
+5.0240000e+003    +7.6164317e-005
+5.0400000e+003    +4.6608759e-005
+5.0560000e+003    +5.0755592e-005
+5.0720000e+003    +1.4926970e-004
+5.0880000e+003    +2.3500291e-004
+5.1040000e+003    +2.3242556e-004
+5.1200000e+003    +1.7125050e-004
+5.1360000e+003    +4.8141639e-005
+5.1520000e+003    +4.5103632e-005
+5.1680000e+003    +6.8843503e-005
+5.1840000e+003    +1.6935161e-005
+5.2000000e+003    +7.5321143e-005
+5.2160000e+003    +1.3768056e-004
+5.2320000e+003    +9.0966474e-005
+5.2480000e+003    +1.4563075e-004
+5.2640000e+003    +1.5112641e-004
+5.2800000e+003    +1.0155677e-004
+5.2960000e+003    +1.3151273e-004
+5.3120000e+003    +1.0157149e-004
+5.3280000e+003    +9.7743199e-005
+5.3440000e+003    +1.6095214e-004
+5.3600000e+003    +1.1392103e-004
+5.3760000e+003    +1.8148254e-004
+5.3920000e+003    +2.2536152e-004
+5.4080000e+003    +1.4815165e-004
+5.4240000e+003    +9.8346572e-005
+5.4400000e+003    +1.4700438e-004
+5.4560000e+003    +1.5575130e-004
+5.4720000e+003    +1.3289356e-004
+5.4880000e+003    +1.0822320e-004
+5.5040000e+003    +2.0799403e-004
+5.5200000e+003    +8.2529063e-005
+5.5360000e+003    +1.3595098e-005
+5.5520000e+003    +3.4391405e-006
+5.5680000e+003    +2.0461643e-004
+5.5840000e+003    +1.3370364e-004
+5.6000000e+003    +7.1095310e-005
+5.6160000e+003    +1.4069911e-004
+5.6320000e+003    +8.3994732e-005
+5.6480000e+003    +9.4596879e-005
+5.6640000e+003    +7.7846686e-005
+5.6800000e+003    +6.5123022e-005
+5.6960000e+003    +1.3984734e-004
+5.7120000e+003    +1.0343562e-004
+5.7280000e+003    +1.0139705e-004
+5.7440000e+003    +6.6427900e-005
+5.7600000e+003    +3.9282677e-005
+5.7760000e+003    +1.2698589e-004
+5.7920000e+003    +1.2873013e-004
+5.8080000e+003    +1.0404900e-004
+5.8240000e+003    +8.9274021e-005
+5.8400000e+003    +9.2713111e-005
+5.8560000e+003    +1.3229376e-004
+5.8720000e+003    +1.4523993e-004
+5.8880000e+003    +1.4937947e-004
+5.9040000e+003    +1.5908846e-004
+5.9200000e+003    +1.3181978e-004
+5.9360000e+003    +1.7704847e-004
+5.9520000e+003    +1.9635435e-004
+5.9680000e+003    +1.8248848e-004
+5.9840000e+003    +1.9916584e-004
+6.0000000e+003    +3.8587044e-005
+6.0160000e+003    +6.0427385e-005
+6.0320000e+003    +3.8133272e-005
+6.0480000e+003    +7.1955386e-005
+6.0640000e+003    +1.1429620e-004
+6.0800000e+003    +1.2152131e-004
+6.0960000e+003    +1.4415848e-004
+6.1120000e+003    +1.7087383e-004
+6.1280000e+003    +9.2490853e-005
+6.1440000e+003    +1.2603193e-004
+6.1600000e+003    +1.6853673e-004
+6.1760000e+003    +2.0070918e-004
+6.1920000e+003    +2.3233307e-004
+6.2080000e+003    +1.0330079e-004
+6.2240000e+003    +1.2853790e-004
+6.2400000e+003    +1.6766558e-004
+6.2560000e+003    +1.7850772e-004
+6.2720000e+003    +2.1685383e-004
+6.2880000e+003    +7.5572803e-005
+6.3040000e+003    +9.1544200e-005
+6.3200000e+003    +1.4714067e-004
+6.3360000e+003    +1.3563757e-004
+6.3520000e+003    +5.1285693e-005
+6.3680000e+003    +5.9463964e-005
+6.3840000e+003    +5.6027919e-005
+6.4000000e+003    +3.7548831e-005
+6.4160000e+003    +5.3545507e-005
+6.4320000e+003    +1.4268119e-004
+6.4480000e+003    +1.3771813e-004
+6.4640000e+003    +2.9671150e-005
+6.4800000e+003    +6.0070302e-005
+6.4960000e+003    +7.5782526e-005
+6.5120000e+003    +8.5708787e-005
+6.5280000e+003    +7.6691969e-005
+6.5440000e+003    +6.0798135e-005
+6.5600000e+003    +3.2766999e-005
+6.5760000e+003    +1.3050655e-004
+6.5920000e+003    +1.5047868e-004
+6.6080000e+003    +1.7199057e-004
+6.6240000e+003    +1.5341533e-004
+6.6400000e+003    +1.9926722e-004
+6.6560000e+003    +2.3440301e-004
+6.6720000e+003    +2.4386011e-004
+6.6880000e+003    +1.8347947e-004
+6.7040000e+003    +1.1727490e-004
+6.7200000e+003    +1.3516986e-004
+6.7360000e+003    +1.1408350e-004
+6.7520000e+003    +8.2895131e-005
+6.7680000e+003    +1.1184999e-004
+6.7840000e+003    +8.4975669e-005
+6.8000000e+003    +5.0978491e-005
+6.8160000e+003    +1.6157753e-004
+6.8320000e+003    +1.7118329e-004
+6.8480000e+003    +1.0094373e-004
+6.8640000e+003    +1.1838951e-004
+6.8800000e+003    +5.3139462e-005
+6.8960000e+003    +6.9808957e-005
+6.9120000e+003    +5.6225428e-005
+6.9280000e+003    +9.8518845e-005
+6.9440000e+003    +1.6707313e-004
+6.9600000e+003    +1.8882910e-004
+6.9760000e+003    +1.8074915e-004
+6.9920000e+003    +1.6076687e-004
+7.0080000e+003    +2.9280789e-005
+7.0240000e+003    +4.4224096e-005
+7.0400000e+003    +1.7022536e-005
+7.0560000e+003    +6.4310785e-005
+7.0720000e+003    +3.1758443e-004
+7.0880000e+003    +3.0571583e-004
+7.1040000e+003    +1.7217857e-004
+7.1200000e+003    +1.0298568e-004
+7.1360000e+003    +1.0454811e-004
+7.1520000e+003    +8.8854111e-005
+7.1680000e+003    +5.7413388e-005
+7.1840000e+003    +1.3637751e-004
+7.2000000e+003    +1.1739838e-004
+7.2160000e+003    +1.4977370e-004
+7.2320000e+003    +6.6605149e-005
+7.2480000e+003    +6.3539017e-005
+7.2640000e+003    +7.2559917e-005
+7.2800000e+003    +9.8667151e-005
+7.2960000e+003    +7.6981079e-005
+7.3120000e+003    +1.9756363e-004
+7.3280000e+003    +2.1757408e-004
+7.3440000e+003    +1.2022920e-004
+7.3600000e+003    +8.3163337e-005
+7.3760000e+003    +1.4842518e-004
+7.3920000e+003    +1.3297625e-004
+7.4080000e+003    +5.2905023e-005
+7.4240000e+003    +2.0970650e-004
+7.4400000e+003    +2.1295535e-004
+7.4560000e+003    +1.9503337e-004
+7.4720000e+003    +1.2695404e-004
+7.4880000e+003    +1.2080745e-004
+7.5040000e+003    +7.9996928e-005
+7.5200000e+003    +6.8582769e-005
+7.5360000e+003    +1.0707148e-004
+7.5520000e+003    +1.4446587e-004
+7.5680000e+003    +1.1165471e-004
+7.5840000e+003    +1.4993461e-004
+7.6000000e+003    +9.5108437e-005
+7.6160000e+003    +3.6838086e-005
+7.6320000e+003    +4.4322045e-005
+7.6480000e+003    +1.0638029e-004
+7.6640000e+003    +1.6675654e-004
+7.6800000e+003    +1.2728678e-004
+7.6960000e+003    +2.7345828e-005
+7.7120000e+003    +4.0877203e-005
+7.7280000e+003    +5.1267507e-005
+7.7440000e+003    +1.1241325e-004
+7.7600000e+003    +1.0016686e-004
+7.7760000e+003    +1.6483199e-004
+7.7920000e+003    +1.9478523e-004
+7.8080000e+003    +1.5074939e-004
+7.8240000e+003    +1.1725275e-004
+7.8400000e+003    +1.1396119e-004
+7.8560000e+003    +5.6051424e-005
+7.8720000e+003    +2.7826218e-005
+7.8880000e+003    +4.5551587e-005
+7.9040000e+003    +1.4881486e-004
+7.9200000e+003    +9.2028335e-005
+7.9360000e+003    +8.6423943e-006
+7.9520000e+003    +7.9748221e-005
+7.9680000e+003    +1.6274907e-004
+7.9840000e+003    +1.9770054e-004
+8.0000000e+003    +1.5004989e-004
+8.0160000e+003    +8.5296757e-005
+8.0320000e+003    +2.3979922e-004
+8.0480000e+003    +1.8471347e-004
+8.0640000e+003    +9.0679881e-005
+8.0800000e+003    +3.7066871e-005
+8.0960000e+003    +1.4066751e-004
+8.1120000e+003    +1.5978633e-004
+8.1280000e+003    +1.6840504e-004
+8.1440000e+003    +1.7185956e-004
+8.1600000e+003    +1.7573925e-004
+8.1760000e+003    +8.1808044e-005
+8.1920000e+003    +1.7123489e-004
+8.2080000e+003    +2.1114761e-004
+8.2240000e+003    +1.2389229e-004
+8.2400000e+003    +1.1708448e-004
+8.2560000e+003    +6.1573512e-005
+8.2720000e+003    +4.5493260e-005
+8.2880000e+003    +1.0736720e-004
+8.3040000e+003    +2.5687134e-004
+8.3200000e+003    +4.5225868e-005
+8.3360000e+003    +8.0883030e-005
+8.3520000e+003    +1.2280019e-004
+8.3680000e+003    +1.1260398e-004
+8.3840000e+003    +1.2696930e-004
+8.4000000e+003    +7.4006741e-005
+8.4160000e+003    +1.3372720e-005
+8.4320000e+003    +1.1008020e-004
+8.4480000e+003    +1.6026555e-004
+8.4640000e+003    +1.4961189e-004
+8.4800000e+003    +8.7379791e-005
+8.4960000e+003    +9.2164235e-005
+8.5120000e+003    +6.1784733e-005
+8.5280000e+003    +9.7255484e-005
+8.5440000e+003    +1.5264563e-005
+8.5600000e+003    +1.3245930e-004
+8.5760000e+003    +1.9700509e-004
+8.5920000e+003    +1.9592773e-004
+8.6080000e+003    +7.3425210e-005
+8.6240000e+003    +1.6668304e-004
+8.6400000e+003    +2.0030641e-004
+8.6560000e+003    +1.7576414e-004
+8.6720000e+003    +5.2444142e-005
+8.6880000e+003    +7.4773030e-005
+8.7040000e+003    +8.6597858e-005
+8.7200000e+003    +4.4946133e-005
+8.7360000e+003    +1.9131563e-004
+8.7520000e+003    +1.4083998e-004
+8.7680000e+003    +9.6457901e-005
+8.7840000e+003    +1.1420387e-004
+8.8000000e+003    +4.1255498e-005
+8.8160000e+003    +5.7575751e-005
+8.8320000e+003    +1.4902472e-005
+8.8480000e+003    +3.8219787e-005
+8.8640000e+003    +8.4880739e-005
+8.8800000e+003    +2.4455308e-004
+8.8960000e+003    +2.5124801e-004
+8.9120000e+003    +2.3012194e-004
+8.9280000e+003    +1.6281055e-004
+8.9440000e+003    +1.0541971e-004
+8.9600000e+003    +3.5124445e-005
+8.9760000e+003    +5.9288010e-005
+8.9920000e+003    +1.0714486e-004
+9.0080000e+003    +1.3233465e-004
+9.0240000e+003    +5.7430032e-005
+9.0400000e+003    +1.1629175e-005
+9.0560000e+003    +5.5424396e-005
+9.0720000e+003    +1.2800103e-004
+9.0880000e+003    +1.6832518e-004
+9.1040000e+003    +2.0411707e-004
+9.1200000e+003    +2.0938578e-004
+9.1360000e+003    +1.6967564e-004
+9.1520000e+003    +1.4766835e-004
+9.1680000e+003    +1.8506811e-004
+9.1840000e+003    +3.2937556e-004
+9.2000000e+003    +3.9619478e-004
+9.2160000e+003    +2.8451794e-004
+9.2320000e+003    +7.4821233e-005
+9.2480000e+003    +1.1101094e-004
+9.2640000e+003    +2.2133574e-004
+9.2800000e+003    +2.3336351e-004
+9.2960000e+003    +1.9588976e-004
+9.3120000e+003    +1.6718029e-004
+9.3280000e+003    +1.5976554e-004
+9.3440000e+003    +4.8898528e-005
+9.3600000e+003    +8.6976055e-005
+9.3760000e+003    +2.2993959e-004
+9.3920000e+003    +1.7424741e-004
+9.4080000e+003    +1.1086034e-004
+9.4240000e+003    +7.5707088e-005
+9.4400000e+003    +1.0977556e-004
+9.4560000e+003    +2.2148657e-005
+9.4720000e+003    +1.6137496e-004
+9.4880000e+003    +2.1138049e-004
+9.5040000e+003    +1.4895953e-004
+9.5200000e+003    +2.0689472e-004
+9.5360000e+003    +1.6652554e-004
+9.5520000e+003    +6.5465050e-005
+9.5680000e+003    +1.5216511e-004
+9.5840000e+003    +1.9813080e-004
+9.6000000e+003    +1.7763095e-004
+9.6160000e+003    +1.9404037e-004
+9.6320000e+003    +1.8775160e-004
+9.6480000e+003    +1.1833305e-004
+9.6640000e+003    +1.0460156e-004
+9.6800000e+003    +1.1161176e-004
+9.6960000e+003    +5.7720190e-005
+9.7120000e+003    +3.5641831e-005
+9.7280000e+003    +1.1784023e-004
+9.7440000e+003    +2.0163300e-004
+9.7600000e+003    +2.3268307e-004
+9.7760000e+003    +2.4245234e-004
+9.7920000e+003    +5.8907579e-005
+9.8080000e+003    +3.2174379e-005
+9.8240000e+003    +1.6675863e-004
+9.8400000e+003    +2.1522344e-004
+9.8560000e+003    +1.4804539e-004
+9.8720000e+003    +1.0055021e-004
+9.8880000e+003    +1.0606062e-004
+9.9040000e+003    +1.2148629e-004
+9.9200000e+003    +1.1011749e-004
+9.9360000e+003    +1.6049219e-004
+9.9520000e+003    +3.7538688e-005
+9.9680000e+003    +7.3600604e-005
+9.9840000e+003    +8.9344518e-005
+1.0000000e+004    +2.6719709e-004
+1.0016000e+004    +2.7861804e-004
+1.0032000e+004    +2.3413420e-004
+1.0048000e+004    +1.4832914e-004
+1.0064000e+004    +7.8390127e-005
+1.0080000e+004    +1.5025242e-004
+1.0096000e+004    +2.0746830e-004
+1.0112000e+004    +1.8502637e-004
+1.0128000e+004    +7.1746719e-005
+1.0144000e+004    +3.2651071e-005
+1.0160000e+004    +2.7088981e-005
+1.0176000e+004    +3.5982972e-005
+1.0192000e+004    +6.5737462e-005
+1.0208000e+004    +1.2071915e-004
+1.0224000e+004    +1.3409050e-004
+1.0240000e+004    +1.4054896e-004
+1.0256000e+004    +1.1898884e-004
+1.0272000e+004    +1.4319572e-004
+1.0288000e+004    +1.7187862e-004
+1.0304000e+004    +4.0700575e-005
+1.0320000e+004    +8.1040103e-005
+1.0336000e+004    +1.2982612e-004
+1.0352000e+004    +1.5878736e-004
+1.0368000e+004    +1.6196472e-004
+1.0384000e+004    +9.6893098e-005
+1.0400000e+004    +9.5313017e-006
+1.0416000e+004    +6.6558430e-005
+1.0432000e+004    +1.6415895e-004
+1.0448000e+004    +9.0338624e-005
+1.0464000e+004    +1.0519124e-004
+1.0480000e+004    +1.0602174e-004
+1.0496000e+004    +1.5414406e-004
+1.0512000e+004    +1.6257200e-004
+1.0528000e+004    +1.4077019e-004
+1.0544000e+004    +4.3152926e-005
+1.0560000e+004    +1.1813787e-004
+1.0576000e+004    +1.9160814e-005
+1.0592000e+004    +3.0600582e-005
+1.0608000e+004    +1.2472115e-004
+1.0624000e+004    +1.2866929e-004
+1.0640000e+004    +1.4767679e-004
+1.0656000e+004    +8.3450177e-005
+1.0672000e+004    +3.4472647e-005
+1.0688000e+004    +1.8804404e-004
+1.0704000e+004    +2.8899260e-004
+1.0720000e+004    +7.3434727e-005
+1.0736000e+004    +6.1485007e-005
+1.0752000e+004    +4.3381904e-005
+1.0768000e+004    +5.5312903e-005
+1.0784000e+004    +1.3741385e-004
+1.0800000e+004    +6.7970090e-005
+1.0816000e+004    +7.0027745e-005
+1.0832000e+004    +1.6877404e-004
+1.0848000e+004    +9.6528354e-005
+1.0864000e+004    +5.7547182e-005
+1.0880000e+004    +1.3360950e-004
+1.0896000e+004    +1.8594056e-004
+1.0912000e+004    +7.3389747e-005
+1.0928000e+004    +1.9887357e-004
+1.0944000e+004    +2.0029268e-004
+1.0960000e+004    +1.5053313e-004
+1.0976000e+004    +1.2110666e-004
+1.0992000e+004    +8.8720168e-005
+1.1008000e+004    +1.6615698e-004
+1.1024000e+004    +2.0241344e-004
+1.1040000e+004    +2.4676573e-004
+1.1056000e+004    +6.8808593e-005
+1.1072000e+004    +8.9390443e-005
+1.1088000e+004    +6.8176225e-005
+1.1104000e+004    +4.3358381e-005
+1.1120000e+004    +1.1841486e-004
+1.1136000e+004    +7.0498259e-005
+1.1152000e+004    +6.1285580e-005
+1.1168000e+004    +6.1797822e-005
+1.1184000e+004    +3.8382070e-005
+1.1200000e+004    +2.3803786e-004
+1.1216000e+004    +1.2126773e-004
+1.1232000e+004    +8.1436490e-005
+1.1248000e+004    +8.8144880e-005
+1.1264000e+004    +5.3799202e-005
+1.1280000e+004    +1.2345925e-004
+1.1296000e+004    +7.5473792e-005
+1.1312000e+004    +3.0732066e-005
+1.1328000e+004    +8.1784245e-005
+1.1344000e+004    +1.1443175e-004
+1.1360000e+004    +1.3255300e-004
+1.1376000e+004    +1.1128577e-004
+1.1392000e+004    +8.0207392e-005
+1.1408000e+004    +2.6481139e-004
+1.1424000e+004    +2.1739391e-004
+1.1440000e+004    +1.5211376e-004
+1.1456000e+004    +1.8325962e-004
+1.1472000e+004    +5.5870169e-005
+1.1488000e+004    +1.4314149e-004
+1.1504000e+004    +2.0550193e-004
+1.1520000e+004    +2.8942985e-004
+1.1536000e+004    +7.6526601e-005
+1.1552000e+004    +8.6276610e-005
+1.1568000e+004    +1.0461724e-004
+1.1584000e+004    +1.0431472e-004
+1.1600000e+004    +1.7656520e-004
+1.1616000e+004    +1.2340376e-004
+1.1632000e+004    +5.0929706e-005
+1.1648000e+004    +3.1861160e-005
+1.1664000e+004    +8.8391826e-005
+1.1680000e+004    +1.1692775e-004
+1.1696000e+004    +1.3435658e-004
+1.1712000e+004    +1.6673117e-004
+1.1728000e+004    +1.6133483e-004
+1.1744000e+004    +2.2853276e-004
+1.1760000e+004    +2.2225491e-004
+1.1776000e+004    +1.2591077e-004
+1.1792000e+004    +8.3944666e-005
+1.1808000e+004    +2.3211176e-004
+1.1824000e+004    +3.1992735e-004
+1.1840000e+004    +3.3017449e-004
+1.1856000e+004    +2.5850584e-004
+1.1872000e+004    +1.1463774e-004
+1.1888000e+004    +8.1032988e-005
+1.1904000e+004    +3.9333605e-005
+1.1920000e+004    +4.4343757e-005
+1.1936000e+004    +6.4868473e-005
+1.1952000e+004    +1.0652628e-004
+1.1968000e+004    +1.5443940e-004
+1.1984000e+004    +1.8918853e-004
+1.2000000e+004    +1.8131503e-004
+1.2016000e+004    +1.4581443e-004
+1.2032000e+004    +5.4164124e-005
+1.2048000e+004    +4.9401311e-005
+1.2064000e+004    +1.6688081e-004
+1.2080000e+004    +1.2800266e-004
+1.2096000e+004    +1.6999750e-004
+1.2112000e+004    +2.3699096e-004
+1.2128000e+004    +7.7238881e-005
+1.2144000e+004    +5.3412983e-005
+1.2160000e+004    +1.5659383e-004
+1.2176000e+004    +2.4076969e-004
+1.2192000e+004    +2.1327064e-004
+1.2208000e+004    +2.1577971e-004
+1.2224000e+004    +2.7084223e-004
+1.2240000e+004    +2.3712592e-004
+1.2256000e+004    +1.4254363e-004
+1.2272000e+004    +6.9841160e-005
+1.2288000e+004    +4.4421187e-005
+1.2304000e+004    +1.0782113e-004
+1.2320000e+004    +6.7454726e-005
+1.2336000e+004    +2.2452266e-005
+1.2352000e+004    +1.8224750e-004
+1.2368000e+004    +2.1707108e-004
+1.2384000e+004    +2.1852597e-004
+1.2400000e+004    +1.1444539e-004
+1.2416000e+004    +9.9698846e-005
+1.2432000e+004    +5.4675886e-005
+1.2448000e+004    +9.1882139e-005
+1.2464000e+004    +9.9451434e-005
+1.2480000e+004    +1.0073287e-004
+1.2496000e+004    +8.3294282e-005
+1.2512000e+004    +1.0134212e-004
+1.2528000e+004    +1.9204327e-004
+1.2544000e+004    +2.3389603e-004
+1.2560000e+004    +3.1116209e-004
+1.2576000e+004    +2.4609946e-004
+1.2592000e+004    +5.1777137e-005
+1.2608000e+004    +1.1000111e-004
+1.2624000e+004    +1.0598706e-004
+1.2640000e+004    +7.0632763e-005
+1.2656000e+004    +1.2156348e-004
+1.2672000e+004    +1.5465890e-004
+1.2688000e+004    +2.3465072e-004
+1.2704000e+004    +1.3487847e-004
+1.2720000e+004    +1.9175641e-004
+1.2736000e+004    +2.5281199e-004
+1.2752000e+004    +1.9146777e-004
+1.2768000e+004    +2.7205973e-004
+1.2784000e+004    +2.3662578e-004
