# SR785 Measurement - Timestamp: Jan 24 2019 - 23:42:36
#---------- Measurement Setup ------------
# Start Frequency (Hz): 0.000000
# Frequency Span (Hz): 12800.000000
# Frequency Resolution: 800
# Number of Averages: 2
# Averaging Mode: None
# Window function: BMH
#---------- Measurement Parameters ----------
# Measurement Group:  "FFT" "FFT"
# Measurements:  "FFT 1" "FFT 2"
# View:  "Log Magnitude" "Log Magnitude"
# Unit:  "Vrms/rtHz" "Vpk"
#---------- Input Parameters ----------
# Input Source: Analog
# Input Mode: Single ended, Single ended
# Input Grounding: Float, Float
# Input Coupling: AC, AC
# Input Range: 6.0dBVpk, 6.0dBVpk
# Auto Range: Off, Off
# Auto Range Mode: Up Only, Normal
# Anti-Aliasing Filter: On, On
#---------- Source Parameters ----------
# Source Type: Sine
# Source Amplitude: 500.0mVpk
# Source On: 0

#---------- Measurement Data ----------
# [Freq(Hz) Display 0(Vrms/rtHz) Display 1(Vpk) ]
+0.0000000e+000    +5.8894902e-003
+1.6000000e+001    +5.4231901e-003
+3.2000000e+001    +2.5883783e-003
+4.8000000e+001    +6.4162072e-004
+6.4000000e+001    +8.3285186e-004
+8.0000000e+001    +5.0569279e-004
+9.6000000e+001    +2.1802353e-004
+1.1200000e+002    +4.8416274e-004
+1.2800000e+002    +5.0854214e-005
+1.4400000e+002    +1.4546071e-004
+1.6000000e+002    +4.4013478e-004
+1.7600000e+002    +8.1097207e-004
+1.9200000e+002    +8.0906833e-004
+2.0800000e+002    +2.4696198e-004
+2.2400000e+002    +1.6289666e-004
+2.4000000e+002    +2.0461789e-004
+2.5600000e+002    +2.2584839e-004
+2.7200000e+002    +2.4752159e-004
+2.8800000e+002    +3.7843184e-004
+3.0400000e+002    +4.0275551e-004
+3.2000000e+002    +2.4651227e-004
+3.3600000e+002    +1.2798284e-004
+3.5200000e+002    +2.4490306e-004
+3.6800000e+002    +2.1882309e-004
+3.8400000e+002    +1.1892633e-004
+4.0000000e+002    +1.5964884e-004
+4.1600000e+002    +5.5392520e-005
+4.3200000e+002    +2.5494861e-005
+4.4800000e+002    +6.1358762e-005
+4.6400000e+002    +3.5157471e-005
+4.8000000e+002    +1.2987666e-004
+4.9600000e+002    +2.1230901e-004
+5.1200000e+002    +1.7489652e-004
+5.2800000e+002    +3.3216453e-005
+5.4400000e+002    +1.2167404e-004
+5.6000000e+002    +5.9954204e-005
+5.7600000e+002    +8.7424225e-005
+5.9200000e+002    +5.0290684e-005
+6.0800000e+002    +5.4172629e-005
+6.2400000e+002    +9.8891542e-005
+6.4000000e+002    +7.2971052e-005
+6.5600000e+002    +1.0672314e-004
+6.7200000e+002    +1.8356772e-004
+6.8800000e+002    +1.8132747e-004
+7.0400000e+002    +2.4130613e-004
+7.2000000e+002    +2.4517896e-004
+7.3600000e+002    +1.6700398e-004
+7.5200000e+002    +7.8285360e-005
+7.6800000e+002    +7.1169590e-005
+7.8400000e+002    +5.4789166e-004
+8.0000000e+002    +6.1856915e-004
+8.1600000e+002    +4.1488072e-004
+8.3200000e+002    +1.0865270e-004
+8.4800000e+002    +1.6695063e-004
+8.6400000e+002    +1.9504761e-004
+8.8000000e+002    +1.8228723e-004
+8.9600000e+002    +2.0962776e-004
+9.1200000e+002    +2.6421036e-004
+9.2800000e+002    +4.4964420e-004
+9.4400000e+002    +2.0054882e-004
+9.6000000e+002    +5.8853078e-005
+9.7600000e+002    +1.8192433e-004
+9.9200000e+002    +1.7148156e-004
+1.0080000e+003    +2.2376345e-004
+1.0240000e+003    +1.9790404e-004
+1.0400000e+003    +9.4921699e-005
+1.0560000e+003    +2.2981289e-005
+1.0720000e+003    +1.6250098e-004
+1.0880000e+003    +1.7126555e-004
+1.1040000e+003    +8.1183840e-005
+1.1200000e+003    +3.5395013e-005
+1.1360000e+003    +1.1515470e-004
+1.1520000e+003    +1.3579076e-004
+1.1680000e+003    +9.4954426e-005
+1.1840000e+003    +2.4379237e-004
+1.2000000e+003    +5.5728829e-004
+1.2160000e+003    +5.5334345e-004
+1.2320000e+003    +4.0981598e-004
+1.2480000e+003    +1.2679621e-004
+1.2640000e+003    +5.5198787e-005
+1.2800000e+003    +8.4267136e-005
+1.2960000e+003    +5.9981528e-005
+1.3120000e+003    +1.6820796e-004
+1.3280000e+003    +2.1221171e-004
+1.3440000e+003    +1.8700417e-004
+1.3600000e+003    +6.6273453e-005
+1.3760000e+003    +1.5527918e-004
+1.3920000e+003    +2.3571316e-004
+1.4080000e+003    +2.4729301e-004
+1.4240000e+003    +2.3158037e-004
+1.4400000e+003    +8.2291815e-005
+1.4560000e+003    +5.1323939e-005
+1.4720000e+003    +1.0492397e-004
+1.4880000e+003    +1.9585546e-004
+1.5040000e+003    +2.9962958e-004
+1.5200000e+003    +3.6032984e-004
+1.5360000e+003    +2.1451685e-004
+1.5520000e+003    +4.3035016e-005
+1.5680000e+003    +1.2299397e-004
+1.5840000e+003    +1.2954717e-004
+1.6000000e+003    +1.0811102e-004
+1.6160000e+003    +7.5376738e-005
+1.6320000e+003    +1.0091342e-004
+1.6480000e+003    +1.8118150e-004
+1.6640000e+003    +1.8536257e-004
+1.6800000e+003    +1.4910754e-004
+1.6960000e+003    +1.2797308e-004
+1.7120000e+003    +3.9396189e-005
+1.7280000e+003    +1.2710976e-004
+1.7440000e+003    +1.5221199e-004
+1.7600000e+003    +1.9392397e-004
+1.7760000e+003    +8.3642626e-005
+1.7920000e+003    +1.1953303e-004
+1.8080000e+003    +3.0933523e-005
+1.8240000e+003    +1.5740590e-004
+1.8400000e+003    +2.5239820e-004
+1.8560000e+003    +1.4127186e-004
+1.8720000e+003    +1.4135991e-004
+1.8880000e+003    +1.4393026e-004
+1.9040000e+003    +1.3446010e-004
+1.9200000e+003    +1.5420804e-004
+1.9360000e+003    +1.6453004e-004
+1.9520000e+003    +1.0734251e-004
+1.9680000e+003    +7.4230047e-005
+1.9840000e+003    +6.7357330e-005
+2.0000000e+003    +7.9239813e-005
+2.0160000e+003    +1.6195450e-005
+2.0320000e+003    +1.1078082e-004
+2.0480000e+003    +5.9000076e-006
+2.0640000e+003    +2.7549610e-005
+2.0800000e+003    +7.1969131e-005
+2.0960000e+003    +1.1021080e-004
+2.1120000e+003    +1.2305597e-004
+2.1280000e+003    +1.1608706e-004
+2.1440000e+003    +5.9167120e-005
+2.1600000e+003    +4.0233963e-006
+2.1760000e+003    +4.7660415e-005
+2.1920000e+003    +1.4213355e-004
+2.2080000e+003    +1.5551412e-004
+2.2240000e+003    +7.3265765e-005
+2.2400000e+003    +7.8296194e-005
+2.2560000e+003    +1.4884223e-004
+2.2720000e+003    +1.4130474e-004
+2.2880000e+003    +1.0696091e-004
+2.3040000e+003    +1.3217449e-004
+2.3200000e+003    +1.5591564e-004
+2.3360000e+003    +1.2381906e-004
+2.3520000e+003    +6.2512947e-005
+2.3680000e+003    +4.6935213e-005
+2.3840000e+003    +5.4526732e-005
+2.4000000e+003    +4.9593422e-005
+2.4160000e+003    +6.8371497e-005
+2.4320000e+003    +1.0219400e-004
+2.4480000e+003    +2.9357694e-004
+2.4640000e+003    +2.1687121e-004
+2.4800000e+003    +6.9419839e-005
+2.4960000e+003    +1.4945476e-004
+2.5120000e+003    +6.9309557e-005
+2.5280000e+003    +1.5393762e-004
+2.5440000e+003    +1.5293785e-004
+2.5600000e+003    +1.1820268e-004
+2.5760000e+003    +7.6046075e-005
+2.5920000e+003    +2.1038487e-004
+2.6080000e+003    +1.1227954e-004
+2.6240000e+003    +7.5766213e-005
+2.6400000e+003    +9.6226773e-005
+2.6560000e+003    +2.6369930e-004
+2.6720000e+003    +1.2639089e-004
+2.6880000e+003    +1.3667086e-004
+2.7040000e+003    +2.2509160e-004
+2.7200000e+003    +1.7019882e-004
+2.7360000e+003    +1.5994773e-004
+2.7520000e+003    +1.4750818e-004
+2.7680000e+003    +9.5221178e-005
+2.7840000e+003    +1.4523466e-005
+2.8000000e+003    +1.8543555e-004
+2.8160000e+003    +1.3184699e-004
+2.8320000e+003    +8.8612302e-005
+2.8480000e+003    +3.1390933e-005
+2.8640000e+003    +1.8592637e-004
+2.8800000e+003    +1.2633110e-004
+2.8960000e+003    +1.0756200e-004
+2.9120000e+003    +1.4138583e-004
+2.9280000e+003    +7.4194271e-005
+2.9440000e+003    +1.9369394e-005
+2.9600000e+003    +8.5277468e-005
+2.9760000e+003    +1.3294748e-004
+2.9920000e+003    +1.7596988e-004
+3.0080000e+003    +1.5673444e-004
+3.0240000e+003    +7.6094686e-005
+3.0400000e+003    +8.4809944e-005
+3.0560000e+003    +1.1696235e-004
+3.0720000e+003    +1.0129496e-004
+3.0880000e+003    +1.5072207e-004
+3.1040000e+003    +1.6889992e-004
+3.1200000e+003    +1.2434951e-004
+3.1360000e+003    +1.2201156e-004
+3.1520000e+003    +7.7703822e-005
+3.1680000e+003    +5.2261585e-005
+3.1840000e+003    +1.1756684e-005
+3.2000000e+003    +1.0330425e-004
+3.2160000e+003    +5.4815097e-005
+3.2320000e+003    +1.3054152e-004
+3.2480000e+003    +1.3868439e-004
+3.2640000e+003    +8.7385837e-005
+3.2800000e+003    +8.0209327e-005
+3.2960000e+003    +6.9979789e-005
+3.3120000e+003    +9.2871232e-005
+3.3280000e+003    +8.3937572e-005
+3.3440000e+003    +4.9316983e-005
+3.3600000e+003    +1.6926535e-005
+3.3760000e+003    +6.6926885e-005
+3.3920000e+003    +1.2251381e-004
+3.4080000e+003    +9.4063907e-005
+3.4240000e+003    +1.6236953e-004
+3.4400000e+003    +1.9954023e-004
+3.4560000e+003    +1.6474161e-004
+3.4720000e+003    +1.1866756e-004
+3.4880000e+003    +7.0967413e-005
+3.5040000e+003    +6.9672125e-005
+3.5200000e+003    +8.3978040e-005
+3.5360000e+003    +9.8151540e-005
+3.5520000e+003    +6.9839240e-005
+3.5680000e+003    +1.8373892e-005
+3.5840000e+003    +4.0336625e-005
+3.6000000e+003    +2.4365081e-005
+3.6160000e+003    +5.9595666e-005
+3.6320000e+003    +1.9012507e-004
+3.6480000e+003    +1.5564667e-004
+3.6640000e+003    +8.3594612e-005
+3.6800000e+003    +4.8742648e-005
+3.6960000e+003    +1.2303598e-004
+3.7120000e+003    +1.1189790e-004
+3.7280000e+003    +4.4691133e-005
+3.7440000e+003    +1.6975391e-004
+3.7600000e+003    +1.8017474e-004
+3.7760000e+003    +1.3349944e-004
+3.7920000e+003    +1.2965419e-004
+3.8080000e+003    +8.8132590e-005
+3.8240000e+003    +3.9494069e-005
+3.8400000e+003    +2.0681387e-004
+3.8560000e+003    +1.5815532e-004
+3.8720000e+003    +1.2692650e-004
+3.8880000e+003    +1.0204560e-004
+3.9040000e+003    +2.2518999e-004
+3.9200000e+003    +2.3359704e-005
+3.9360000e+003    +6.5473534e-005
+3.9520000e+003    +8.3788676e-005
+3.9680000e+003    +5.0988117e-005
+3.9840000e+003    +1.2697250e-004
+4.0000000e+003    +1.4443010e-004
+4.0160000e+003    +9.4976429e-005
+4.0320000e+003    +9.9065965e-006
+4.0480000e+003    +6.4145694e-005
+4.0640000e+003    +1.3209505e-004
+4.0800000e+003    +9.8018107e-005
+4.0960000e+003    +9.4213676e-005
+4.1120000e+003    +8.0588114e-005
+4.1280000e+003    +7.3129537e-005
+4.1440000e+003    +8.2190323e-005
+4.1600000e+003    +1.1699825e-004
+4.1760000e+003    +2.5164513e-004
+4.1920000e+003    +2.8784483e-004
+4.2080000e+003    +8.5669271e-005
+4.2240000e+003    +1.3170709e-004
+4.2400000e+003    +1.7788945e-004
+4.2560000e+003    +1.5596076e-004
+4.2720000e+003    +1.0257863e-004
+4.2880000e+003    +7.3690841e-005
+4.3040000e+003    +2.5267742e-005
+4.3200000e+003    +6.2807470e-005
+4.3360000e+003    +7.5945361e-005
+4.3520000e+003    +4.9983679e-005
+4.3680000e+003    +8.0866252e-005
+4.3840000e+003    +1.0845991e-004
+4.4000000e+003    +8.1303820e-005
+4.4160000e+003    +1.7941237e-004
+4.4320000e+003    +1.9158836e-004
+4.4480000e+003    +1.5858124e-004
+4.4640000e+003    +1.0691002e-004
+4.4800000e+003    +8.3515530e-005
+4.4960000e+003    +8.7326465e-005
+4.5120000e+003    +8.9253437e-005
+4.5280000e+003    +5.7383641e-005
+4.5440000e+003    +8.9865156e-005
+4.5600000e+003    +1.3052925e-004
+4.5760000e+003    +1.0846408e-004
+4.5920000e+003    +5.1803807e-005
+4.6080000e+003    +1.6517493e-005
+4.6240000e+003    +3.9296268e-005
+4.6400000e+003    +6.4128588e-005
+4.6560000e+003    +1.2698269e-004
+4.6720000e+003    +2.2548404e-004
+4.6880000e+003    +1.0376504e-004
+4.7040000e+003    +9.4689152e-005
+4.7200000e+003    +4.8828675e-005
+4.7360000e+003    +7.1586750e-005
+4.7520000e+003    +1.3693386e-004
+4.7680000e+003    +1.4754794e-004
+4.7840000e+003    +1.2902806e-004
+4.8000000e+003    +1.0284240e-004
+4.8160000e+003    +3.4367963e-004
+4.8320000e+003    +2.0631672e-004
+4.8480000e+003    +7.4675314e-005
+4.8640000e+003    +1.4333037e-004
+4.8800000e+003    +1.6931257e-004
+4.8960000e+003    +1.9924511e-004
+4.9120000e+003    +1.3433910e-004
+4.9280000e+003    +8.0750731e-005
+4.9440000e+003    +5.2341406e-005
+4.9600000e+003    +1.5906349e-004
+4.9760000e+003    +1.9285541e-004
+4.9920000e+003    +9.1888593e-005
+5.0080000e+003    +1.3227989e-004
+5.0240000e+003    +3.5895373e-005
+5.0400000e+003    +1.2732347e-005
+5.0560000e+003    +1.6773610e-004
+5.0720000e+003    +3.0858503e-004
+5.0880000e+003    +1.8939086e-004
+5.1040000e+003    +1.8905730e-004
+5.1200000e+003    +9.1632486e-005
+5.1360000e+003    +2.6635907e-005
+5.1520000e+003    +5.4661479e-005
+5.1680000e+003    +1.0247686e-004
+5.1840000e+003    +1.1343526e-004
+5.2000000e+003    +7.8022960e-005
+5.2160000e+003    +6.4352738e-005
+5.2320000e+003    +9.5176962e-005
+5.2480000e+003    +8.1608167e-005
+5.2640000e+003    +1.4870068e-004
+5.2800000e+003    +1.5617667e-004
+5.2960000e+003    +1.2329176e-004
+5.3120000e+003    +1.4190987e-004
+5.3280000e+003    +1.4026862e-004
+5.3440000e+003    +1.1975142e-004
+5.3600000e+003    +1.5223304e-004
+5.3760000e+003    +6.3880099e-005
+5.3920000e+003    +7.9991485e-005
+5.4080000e+003    +5.5615135e-005
+5.4240000e+003    +6.3739972e-005
+5.4400000e+003    +8.0429440e-005
+5.4560000e+003    +1.0427229e-004
+5.4720000e+003    +1.5663620e-004
+5.4880000e+003    +2.3191217e-004
+5.5040000e+003    +2.5939688e-004
+5.5200000e+003    +9.9622252e-005
+5.5360000e+003    +1.2621020e-004
+5.5520000e+003    +1.1718634e-004
+5.5680000e+003    +7.2346404e-005
+5.5840000e+003    +2.1695385e-004
+5.6000000e+003    +1.5514651e-004
+5.6160000e+003    +1.4683064e-004
+5.6320000e+003    +1.3275225e-004
+5.6480000e+003    +1.5085370e-004
+5.6640000e+003    +1.4333799e-004
+5.6800000e+003    +2.1049866e-004
+5.6960000e+003    +2.2375694e-004
+5.7120000e+003    +7.4133527e-006
+5.7280000e+003    +4.6819405e-005
+5.7440000e+003    +8.2453524e-005
+5.7600000e+003    +5.7614703e-005
+5.7760000e+003    +7.1732618e-005
+5.7920000e+003    +9.8415054e-005
+5.8080000e+003    +1.8966116e-004
+5.8240000e+003    +2.1501583e-004
+5.8400000e+003    +1.8080293e-004
+5.8560000e+003    +1.2668008e-004
+5.8720000e+003    +8.7158645e-005
+5.8880000e+003    +1.0883407e-004
+5.9040000e+003    +1.0140891e-004
+5.9200000e+003    +1.0306300e-004
+5.9360000e+003    +1.5575104e-004
+5.9520000e+003    +2.6814887e-004
+5.9680000e+003    +3.2323075e-004
+5.9840000e+003    +1.4214206e-004
+6.0000000e+003    +1.4489643e-004
+6.0160000e+003    +1.0299275e-004
+6.0320000e+003    +1.5635973e-004
+6.0480000e+003    +1.1427029e-004
+6.0640000e+003    +6.9903144e-005
+6.0800000e+003    +1.2208016e-004
+6.0960000e+003    +7.8509678e-005
+6.1120000e+003    +1.7992132e-005
+6.1280000e+003    +1.2076674e-004
+6.1440000e+003    +4.0729858e-005
+6.1600000e+003    +1.1387001e-004
+6.1760000e+003    +1.3573717e-004
+6.1920000e+003    +1.6071630e-004
+6.2080000e+003    +1.5444806e-004
+6.2240000e+003    +4.9430499e-005
+6.2400000e+003    +9.4755400e-005
+6.2560000e+003    +5.9883809e-005
+6.2720000e+003    +5.9053218e-005
+6.2880000e+003    +1.3164448e-004
+6.3040000e+003    +2.0587422e-004
+6.3200000e+003    +1.6767230e-004
+6.3360000e+003    +6.7731024e-005
+6.3520000e+003    +1.0010441e-004
+6.3680000e+003    +1.6148441e-004
+6.3840000e+003    +1.6051192e-004
+6.4000000e+003    +5.2684692e-005
+6.4160000e+003    +3.8141941e-005
+6.4320000e+003    +1.1398984e-004
+6.4480000e+003    +1.4738263e-004
+6.4640000e+003    +6.4317916e-005
+6.4800000e+003    +1.0477231e-004
+6.4960000e+003    +1.4478894e-004
+6.5120000e+003    +7.7918856e-005
+6.5280000e+003    +9.9422941e-005
+6.5440000e+003    +2.6900950e-004
+6.5600000e+003    +2.8108197e-004
+6.5760000e+003    +2.0601792e-004
+6.5920000e+003    +8.1997699e-005
+6.6080000e+003    +9.9424906e-005
+6.6240000e+003    +1.1429633e-004
+6.6400000e+003    +4.2092077e-005
+6.6560000e+003    +3.2747503e-005
+6.6720000e+003    +5.9405364e-005
+6.6880000e+003    +5.7055258e-005
+6.7040000e+003    +7.5519631e-005
+6.7200000e+003    +9.0555513e-005
+6.7360000e+003    +1.5976501e-004
+6.7520000e+003    +8.6479471e-005
+6.7680000e+003    +1.2400566e-004
+6.7840000e+003    +1.3378375e-004
+6.8000000e+003    +1.6626940e-004
+6.8160000e+003    +6.8246023e-005
+6.8320000e+003    +5.8419995e-005
+6.8480000e+003    +5.0562532e-005
+6.8640000e+003    +7.2908106e-006
+6.8800000e+003    +8.4818792e-005
+6.8960000e+003    +2.0267375e-005
+6.9120000e+003    +5.3026622e-005
+6.9280000e+003    +7.0213289e-005
+6.9440000e+003    +1.5546479e-004
+6.9600000e+003    +9.0907670e-005
+6.9760000e+003    +4.7403129e-005
+6.9920000e+003    +6.1472318e-005
+7.0080000e+003    +1.5433847e-004
+7.0240000e+003    +1.4304109e-004
+7.0400000e+003    +1.1888032e-004
+7.0560000e+003    +7.9118792e-005
+7.0720000e+003    +1.9788003e-004
+7.0880000e+003    +1.1738072e-004
+7.1040000e+003    +1.2344244e-004
+7.1200000e+003    +1.4230430e-004
+7.1360000e+003    +1.4994407e-004
+7.1520000e+003    +6.2435094e-005
+7.1680000e+003    +9.3203424e-005
+7.1840000e+003    +1.1164705e-004
+7.2000000e+003    +6.2540203e-005
+7.2160000e+003    +2.4457282e-005
+7.2320000e+003    +1.3336313e-005
+7.2480000e+003    +3.9958155e-005
+7.2640000e+003    +6.3944375e-005
+7.2800000e+003    +9.0702684e-005
+7.2960000e+003    +4.3028354e-005
+7.3120000e+003    +1.2179005e-004
+7.3280000e+003    +1.1539556e-004
+7.3440000e+003    +1.9226543e-005
+7.3600000e+003    +9.9031706e-005
+7.3760000e+003    +1.4285276e-004
+7.3920000e+003    +6.5198925e-005
+7.4080000e+003    +1.1567832e-004
+7.4240000e+003    +6.2188999e-005
+7.4400000e+003    +6.2150430e-005
+7.4560000e+003    +9.5847907e-005
+7.4720000e+003    +1.7719413e-004
+7.4880000e+003    +1.0370246e-004
+7.5040000e+003    +1.3426736e-004
+7.5200000e+003    +2.0219377e-004
+7.5360000e+003    +2.2912331e-004
+7.5520000e+003    +9.9385717e-005
+7.5680000e+003    +6.8980073e-005
+7.5840000e+003    +3.3701588e-005
+7.6000000e+003    +3.7062313e-005
+7.6160000e+003    +3.4970100e-005
+7.6320000e+003    +1.9054020e-004
+7.6480000e+003    +1.1627789e-004
+7.6640000e+003    +1.2810374e-004
+7.6800000e+003    +1.7680836e-004
+7.6960000e+003    +8.0891201e-005
+7.7120000e+003    +1.0203014e-004
+7.7280000e+003    +1.6614202e-004
+7.7440000e+003    +2.6321664e-004
+7.7600000e+003    +4.8093774e-005
+7.7760000e+003    +4.7519541e-005
+7.7920000e+003    +6.0009126e-005
+7.8080000e+003    +5.5008510e-005
+7.8240000e+003    +6.5073771e-005
+7.8400000e+003    +1.4485468e-004
+7.8560000e+003    +6.5094995e-005
+7.8720000e+003    +1.3196241e-004
+7.8880000e+003    +1.1699504e-004
+7.9040000e+003    +1.0072054e-004
+7.9200000e+003    +1.4992770e-004
+7.9360000e+003    +1.9975791e-004
+7.9520000e+003    +1.6826901e-004
+7.9680000e+003    +4.2870095e-005
+7.9840000e+003    +1.9582525e-005
+8.0000000e+003    +3.7370657e-005
+8.0160000e+003    +1.3274124e-005
+8.0320000e+003    +1.1373351e-004
+8.0480000e+003    +1.3302501e-004
+8.0640000e+003    +2.4224227e-004
+8.0800000e+003    +2.1120209e-004
+8.0960000e+003    +1.1691613e-004
+8.1120000e+003    +1.3190135e-004
+8.1280000e+003    +1.4079631e-004
+8.1440000e+003    +3.5171757e-005
+8.1600000e+003    +3.1218904e-005
+8.1760000e+003    +1.2929573e-004
+8.1920000e+003    +9.0979360e-005
+8.2080000e+003    +5.1398267e-005
+8.2240000e+003    +1.2190999e-004
+8.2400000e+003    +1.1982422e-004
+8.2560000e+003    +1.3200249e-004
+8.2720000e+003    +1.8837488e-004
+8.2880000e+003    +1.9937927e-004
+8.3040000e+003    +1.3541021e-004
+8.3200000e+003    +9.9192977e-005
+8.3360000e+003    +8.3596169e-005
+8.3520000e+003    +5.9115690e-005
+8.3680000e+003    +9.2252922e-005
+8.3840000e+003    +1.7688438e-004
+8.4000000e+003    +2.2088212e-004
+8.4160000e+003    +1.5661007e-004
+8.4320000e+003    +1.2681236e-004
+8.4480000e+003    +7.7050085e-005
+8.4640000e+003    +9.8798097e-005
+8.4800000e+003    +1.4120874e-004
+8.4960000e+003    +1.9539431e-004
+8.5120000e+003    +1.5131818e-004
+8.5280000e+003    +7.9629142e-005
+8.5440000e+003    +1.2810093e-004
+8.5600000e+003    +1.0942406e-004
+8.5760000e+003    +6.3917912e-005
+8.5920000e+003    +4.8677026e-005
+8.6080000e+003    +8.3764855e-005
+8.6240000e+003    +9.6211450e-005
+8.6400000e+003    +1.3365388e-004
+8.6560000e+003    +5.5847846e-005
+8.6720000e+003    +8.5628461e-005
+8.6880000e+003    +2.3495364e-005
+8.7040000e+003    +5.4651158e-005
+8.7200000e+003    +1.3436565e-004
+8.7360000e+003    +1.7994344e-004
+8.7520000e+003    +6.1970473e-005
+8.7680000e+003    +1.0829998e-004
+8.7840000e+003    +1.9524344e-004
+8.8000000e+003    +1.8459882e-004
+8.8160000e+003    +1.1973079e-004
+8.8320000e+003    +2.2532057e-004
+8.8480000e+003    +2.2437492e-004
+8.8640000e+003    +2.4890713e-004
+8.8800000e+003    +2.4680057e-004
+8.8960000e+003    +2.3210628e-004
+8.9120000e+003    +1.6463340e-004
+8.9280000e+003    +1.2684411e-004
+8.9440000e+003    +1.7315937e-004
+8.9600000e+003    +1.0924927e-004
+8.9760000e+003    +1.0384676e-004
+8.9920000e+003    +8.0672035e-005
+9.0080000e+003    +5.0692215e-005
+9.0240000e+003    +3.7173613e-005
+9.0400000e+003    +3.0499050e-005
+9.0560000e+003    +2.9950146e-005
+9.0720000e+003    +9.1095411e-005
+9.0880000e+003    +1.4532288e-004
+9.1040000e+003    +1.3658032e-004
+9.1200000e+003    +6.4176835e-005
+9.1360000e+003    +9.4447641e-005
+9.1520000e+003    +8.1217629e-005
+9.1680000e+003    +8.9761023e-005
+9.1840000e+003    +5.0320567e-005
+9.2000000e+003    +4.7808422e-005
+9.2160000e+003    +3.0474781e-005
+9.2320000e+003    +6.6463574e-005
+9.2480000e+003    +1.0686994e-004
+9.2640000e+003    +1.8802866e-004
+9.2800000e+003    +1.1455450e-004
+9.2960000e+003    +3.8199774e-005
+9.3120000e+003    +1.0511354e-004
+9.3280000e+003    +9.6030984e-005
+9.3440000e+003    +1.1347163e-004
+9.3600000e+003    +4.7848436e-005
+9.3760000e+003    +1.3429169e-004
+9.3920000e+003    +1.7855311e-004
+9.4080000e+003    +1.4128094e-004
+9.4240000e+003    +1.8342427e-004
+9.4400000e+003    +1.6575611e-004
+9.4560000e+003    +1.2303307e-004
+9.4720000e+003    +1.6147466e-004
+9.4880000e+003    +6.5116299e-005
+9.5040000e+003    +7.2679039e-005
+9.5200000e+003    +8.7651148e-005
+9.5360000e+003    +8.0877617e-005
+9.5520000e+003    +1.1754554e-004
+9.5680000e+003    +1.0196855e-004
+9.5840000e+003    +1.4533404e-004
+9.6000000e+003    +2.3598273e-004
+9.6160000e+003    +1.7339404e-004
+9.6320000e+003    +5.0176735e-005
+9.6480000e+003    +1.6016379e-004
+9.6640000e+003    +1.5403010e-004
+9.6800000e+003    +6.9662870e-005
+9.6960000e+003    +6.6472327e-005
+9.7120000e+003    +1.0182479e-005
+9.7280000e+003    +1.5909466e-004
+9.7440000e+003    +2.3149089e-004
+9.7600000e+003    +1.0628363e-004
+9.7760000e+003    +1.6076361e-004
+9.7920000e+003    +1.5737566e-004
+9.8080000e+003    +4.6477780e-005
+9.8240000e+003    +8.3791347e-005
+9.8400000e+003    +7.8999874e-006
+9.8560000e+003    +6.3062100e-005
+9.8720000e+003    +9.3977396e-005
+9.8880000e+003    +5.6789453e-005
+9.9040000e+003    +5.8179314e-005
+9.9200000e+003    +3.8876988e-005
+9.9360000e+003    +2.0823647e-005
+9.9520000e+003    +6.1477789e-005
+9.9680000e+003    +8.6155444e-005
+9.9840000e+003    +5.7058955e-005
+1.0000000e+004    +5.5153047e-005
+1.0016000e+004    +9.9960591e-005
+1.0032000e+004    +1.5772041e-004
+1.0048000e+004    +9.9216617e-005
+1.0064000e+004    +8.0402249e-005
+1.0080000e+004    +6.1544109e-005
+1.0096000e+004    +1.4169913e-004
+1.0112000e+004    +5.1085790e-005
+1.0128000e+004    +2.8771843e-005
+1.0144000e+004    +5.3236166e-005
+1.0160000e+004    +1.1791271e-004
+1.0176000e+004    +1.4383894e-004
+1.0192000e+004    +1.6767441e-004
+1.0208000e+004    +2.3763115e-004
+1.0224000e+004    +2.8427283e-004
+1.0240000e+004    +2.5575215e-004
+1.0256000e+004    +2.0117007e-004
+1.0272000e+004    +2.1630144e-004
+1.0288000e+004    +2.2143454e-004
+1.0304000e+004    +1.6874171e-004
+1.0320000e+004    +1.1883405e-004
+1.0336000e+004    +2.0720696e-004
+1.0352000e+004    +1.3599748e-004
+1.0368000e+004    +9.8822726e-005
+1.0384000e+004    +1.1665039e-004
+1.0400000e+004    +4.1620842e-005
+1.0416000e+004    +2.0373956e-005
+1.0432000e+004    +7.9264959e-005
+1.0448000e+004    +1.8158478e-004
+1.0464000e+004    +2.0554052e-004
+1.0480000e+004    +1.6647545e-004
+1.0496000e+004    +8.1615515e-005
+1.0512000e+004    +9.8021876e-005
+1.0528000e+004    +1.5137534e-004
+1.0544000e+004    +1.6170433e-004
+1.0560000e+004    +1.2143241e-004
+1.0576000e+004    +7.0644630e-005
+1.0592000e+004    +4.4614746e-005
+1.0608000e+004    +2.1141855e-004
+1.0624000e+004    +1.8780037e-004
+1.0640000e+004    +1.9680393e-004
+1.0656000e+004    +2.4921299e-004
+1.0672000e+004    +2.3323414e-004
+1.0688000e+004    +2.3546303e-004
+1.0704000e+004    +9.4648305e-005
+1.0720000e+004    +2.6951593e-005
+1.0736000e+004    +5.3767431e-005
+1.0752000e+004    +1.2805649e-004
+1.0768000e+004    +1.6180787e-004
+1.0784000e+004    +1.6930197e-004
+1.0800000e+004    +1.8952065e-004
+1.0816000e+004    +1.4254090e-004
+1.0832000e+004    +1.3750199e-004
+1.0848000e+004    +1.5823687e-004
+1.0864000e+004    +1.6370114e-004
+1.0880000e+004    +1.2739458e-004
+1.0896000e+004    +1.0285866e-004
+1.0912000e+004    +8.3785089e-005
+1.0928000e+004    +9.5275347e-005
+1.0944000e+004    +1.0061249e-004
+1.0960000e+004    +9.4277108e-005
+1.0976000e+004    +8.6663968e-005
+1.0992000e+004    +9.5123367e-005
+1.1008000e+004    +9.0763751e-005
+1.1024000e+004    +1.8494928e-005
+1.1040000e+004    +1.8535891e-005
+1.1056000e+004    +2.6093569e-005
+1.1072000e+004    +1.0530234e-004
+1.1088000e+004    +1.0063559e-004
+1.1104000e+004    +1.5464099e-004
+1.1120000e+004    +2.0879440e-004
+1.1136000e+004    +1.7247553e-004
+1.1152000e+004    +1.0926654e-004
+1.1168000e+004    +1.6382773e-004
+1.1184000e+004    +1.8472057e-004
+1.1200000e+004    +1.8784037e-004
+1.1216000e+004    +1.0394720e-004
+1.1232000e+004    +1.4033601e-004
+1.1248000e+004    +1.7383619e-004
+1.1264000e+004    +1.6641880e-004
+1.1280000e+004    +6.9299211e-005
+1.1296000e+004    +1.5115786e-004
+1.1312000e+004    +1.4932896e-004
+1.1328000e+004    +1.2306515e-004
+1.1344000e+004    +1.6085798e-004
+1.1360000e+004    +1.7109056e-004
+1.1376000e+004    +1.5020005e-004
+1.1392000e+004    +9.4105118e-005
+1.1408000e+004    +1.3352348e-004
+1.1424000e+004    +1.0533397e-004
+1.1440000e+004    +7.8421632e-005
+1.1456000e+004    +1.1503699e-004
+1.1472000e+004    +1.3120660e-004
+1.1488000e+004    +1.5565402e-004
+1.1504000e+004    +6.4737484e-005
+1.1520000e+004    +4.6043762e-005
+1.1536000e+004    +1.6404867e-004
+1.1552000e+004    +1.2435128e-004
+1.1568000e+004    +9.0174122e-005
+1.1584000e+004    +1.0477818e-004
+1.1600000e+004    +8.1689032e-005
+1.1616000e+004    +1.2572759e-004
+1.1632000e+004    +5.4822740e-005
+1.1648000e+004    +9.3798953e-006
+1.1664000e+004    +3.3155931e-005
+1.1680000e+004    +5.4619424e-005
+1.1696000e+004    +1.1678623e-004
+1.1712000e+004    +1.7414443e-004
+1.1728000e+004    +1.3629084e-004
+1.1744000e+004    +5.2618096e-005
+1.1760000e+004    +1.4054247e-004
+1.1776000e+004    +3.4827674e-005
+1.1792000e+004    +1.3579254e-004
+1.1808000e+004    +7.5803495e-005
+1.1824000e+004    +9.0675101e-005
+1.1840000e+004    +1.2879155e-004
+1.1856000e+004    +9.8005839e-005
+1.1872000e+004    +1.0096956e-004
+1.1888000e+004    +1.1945137e-004
+1.1904000e+004    +8.1999591e-005
+1.1920000e+004    +4.4495824e-005
+1.1936000e+004    +2.0212641e-005
+1.1952000e+004    +4.0299838e-005
+1.1968000e+004    +1.1150035e-004
+1.1984000e+004    +1.8266198e-004
+1.2000000e+004    +1.0486702e-004
+1.2016000e+004    +1.3131440e-004
+1.2032000e+004    +1.5185068e-004
+1.2048000e+004    +1.2111537e-004
+1.2064000e+004    +6.3032407e-005
+1.2080000e+004    +2.3844435e-005
+1.2096000e+004    +9.4666495e-005
+1.2112000e+004    +1.9565600e-004
+1.2128000e+004    +7.6242963e-005
+1.2144000e+004    +7.5170115e-005
+1.2160000e+004    +7.2420320e-005
+1.2176000e+004    +1.1807400e-004
+1.2192000e+004    +1.1267323e-004
+1.2208000e+004    +2.2648706e-005
+1.2224000e+004    +2.3946546e-005
+1.2240000e+004    +1.3385338e-004
+1.2256000e+004    +2.2710561e-004
+1.2272000e+004    +2.8017917e-005
+1.2288000e+004    +8.6344837e-005
+1.2304000e+004    +8.1979422e-005
+1.2320000e+004    +2.0922387e-004
+1.2336000e+004    +1.7021442e-004
+1.2352000e+004    +5.3047239e-005
+1.2368000e+004    +1.4258285e-004
+1.2384000e+004    +7.9803227e-005
+1.2400000e+004    +1.0905410e-004
+1.2416000e+004    +9.3046991e-005
+1.2432000e+004    +6.2218161e-005
+1.2448000e+004    +8.8224668e-005
+1.2464000e+004    +1.2918194e-004
+1.2480000e+004    +2.0201181e-004
+1.2496000e+004    +1.7964643e-004
+1.2512000e+004    +1.2559409e-004
+1.2528000e+004    +1.9150341e-004
+1.2544000e+004    +1.8580994e-004
+1.2560000e+004    +1.6277919e-004
+1.2576000e+004    +1.5167480e-004
+1.2592000e+004    +2.1890720e-004
+1.2608000e+004    +1.7862761e-004
+1.2624000e+004    +1.3750803e-004
+1.2640000e+004    +7.8136974e-005
+1.2656000e+004    +4.5494112e-006
+1.2672000e+004    +2.6398217e-005
+1.2688000e+004    +1.3464410e-004
+1.2704000e+004    +2.3314325e-004
+1.2720000e+004    +8.7871420e-005
+1.2736000e+004    +1.5690361e-004
+1.2752000e+004    +1.4850823e-004
+1.2768000e+004    +7.2463423e-005
+1.2784000e+004    +4.9048653e-005
