# SR785 Measurement - Timestamp: Jan 24 2019 - 22:12:36
#---------- Measurement Setup ------------
# Start Frequency (Hz): 0.000000
# Frequency Span (Hz): 12800.000000
# Frequency Resolution: 800
# Number of Averages: 2
# Averaging Mode: None
# Window function: BMH
#---------- Measurement Parameters ----------
# Measurement Group:  "FFT" "FFT"
# Measurements:  "FFT 1" "FFT 2"
# View:  "Log Magnitude" "Log Magnitude"
# Unit:  "Vrms/rtHz" "Vpk"
#---------- Input Parameters ----------
# Input Source: Analog
# Input Mode: Single ended, Single ended
# Input Grounding: Float, Float
# Input Coupling: AC, AC
# Input Range: 6.0dBVpk, 6.0dBVpk
# Auto Range: Off, Off
# Auto Range Mode: Up Only, Normal
# Anti-Aliasing Filter: On, On
#---------- Source Parameters ----------
# Source Type: Sine
# Source Amplitude: 500.0mVpk
# Source On: 0

#---------- Measurement Data ----------
# [Freq(Hz) Display 0(Vrms/rtHz) Display 1(Vpk) ]
+0.0000000e+000    +3.6224380e-002
+1.6000000e+001    +1.7782975e-002
+3.2000000e+001    +7.0940689e-003
+4.8000000e+001    +4.9871523e-003
+6.4000000e+001    +9.3318417e-004
+8.0000000e+001    +4.3256147e-004
+9.6000000e+001    +6.6769344e-004
+1.1200000e+002    +5.9336983e-004
+1.2800000e+002    +3.8948678e-004
+1.4400000e+002    +2.0130351e-004
+1.6000000e+002    +3.9625284e-004
+1.7600000e+002    +8.6609746e-004
+1.9200000e+002    +6.6075282e-004
+2.0800000e+002    +2.1021320e-004
+2.2400000e+002    +5.2187785e-005
+2.4000000e+002    +9.5722760e-005
+2.5600000e+002    +1.2235997e-004
+2.7200000e+002    +1.9058101e-004
+2.8800000e+002    +3.6043132e-004
+3.0400000e+002    +4.1504338e-004
+3.2000000e+002    +2.8001558e-004
+3.3600000e+002    +1.6845913e-004
+3.5200000e+002    +3.7216739e-004
+3.6800000e+002    +3.2506845e-004
+3.8400000e+002    +2.0424709e-004
+4.0000000e+002    +1.1092128e-004
+4.1600000e+002    +7.2935167e-005
+4.3200000e+002    +4.8228721e-005
+4.4800000e+002    +7.4006333e-005
+4.6400000e+002    +4.6152076e-005
+4.8000000e+002    +6.0354974e-005
+4.9600000e+002    +3.5276837e-005
+5.1200000e+002    +8.9540932e-005
+5.2800000e+002    +1.3896120e-004
+5.4400000e+002    +1.9849039e-004
+5.6000000e+002    +2.4233444e-004
+5.7600000e+002    +2.3305048e-004
+5.9200000e+002    +2.7378634e-004
+6.0800000e+002    +2.8726863e-004
+6.2400000e+002    +3.9405556e-004
+6.4000000e+002    +2.7873399e-004
+6.5600000e+002    +2.3353960e-004
+6.7200000e+002    +2.6560811e-004
+6.8800000e+002    +2.3905159e-004
+7.0400000e+002    +1.7672442e-004
+7.2000000e+002    +5.9199090e-005
+7.3600000e+002    +1.3895502e-004
+7.5200000e+002    +1.7025975e-004
+7.6800000e+002    +2.4211968e-004
+7.8400000e+002    +2.8474891e-004
+8.0000000e+002    +2.5637291e-004
+8.1600000e+002    +2.5328921e-004
+8.3200000e+002    +1.7307498e-004
+8.4800000e+002    +2.0208603e-004
+8.6400000e+002    +1.6913940e-004
+8.8000000e+002    +2.4950443e-004
+8.9600000e+002    +3.4606154e-004
+9.1200000e+002    +4.5336489e-004
+9.2800000e+002    +4.4552091e-004
+9.4400000e+002    +1.7000851e-004
+9.6000000e+002    +1.7946822e-004
+9.7600000e+002    +1.9748295e-004
+9.9200000e+002    +2.1933639e-004
+1.0080000e+003    +7.8664474e-005
+1.0240000e+003    +2.2771661e-005
+1.0400000e+003    +6.9983937e-005
+1.0560000e+003    +1.6696978e-004
+1.0720000e+003    +1.4634932e-004
+1.0880000e+003    +6.5399530e-005
+1.1040000e+003    +1.5914472e-004
+1.1200000e+003    +2.9926264e-004
+1.1360000e+003    +1.9398403e-004
+1.1520000e+003    +5.5310233e-005
+1.1680000e+003    +8.7434208e-005
+1.1840000e+003    +1.3261123e-004
+1.2000000e+003    +2.0793237e-004
+1.2160000e+003    +1.7469673e-004
+1.2320000e+003    +2.2979220e-004
+1.2480000e+003    +1.6383457e-004
+1.2640000e+003    +1.1569871e-004
+1.2800000e+003    +5.0960976e-004
+1.2960000e+003    +6.8273832e-004
+1.3120000e+003    +3.3353423e-004
+1.3280000e+003    +1.7522750e-004
+1.3440000e+003    +1.3367215e-004
+1.3600000e+003    +9.4365547e-005
+1.3760000e+003    +8.2069935e-005
+1.3920000e+003    +8.1337123e-005
+1.4080000e+003    +1.0624267e-004
+1.4240000e+003    +1.2891612e-004
+1.4400000e+003    +1.5501362e-004
+1.4560000e+003    +1.7720561e-004
+1.4720000e+003    +1.1105971e-004
+1.4880000e+003    +1.5961588e-004
+1.5040000e+003    +1.5423996e-004
+1.5200000e+003    +9.5384727e-005
+1.5360000e+003    +9.9277313e-005
+1.5520000e+003    +2.3603326e-004
+1.5680000e+003    +2.6581626e-004
+1.5840000e+003    +1.8547333e-004
+1.6000000e+003    +1.7166909e-004
+1.6160000e+003    +1.1354640e-004
+1.6320000e+003    +1.4224385e-004
+1.6480000e+003    +1.2344854e-004
+1.6640000e+003    +4.8928119e-005
+1.6800000e+003    +1.2129330e-004
+1.6960000e+003    +7.4722964e-005
+1.7120000e+003    +4.0181825e-005
+1.7280000e+003    +8.9655245e-005
+1.7440000e+003    +1.6336970e-004
+1.7600000e+003    +1.5737730e-004
+1.7760000e+003    +8.7620450e-005
+1.7920000e+003    +8.4517960e-005
+1.8080000e+003    +1.1361275e-004
+1.8240000e+003    +8.4963351e-005
+1.8400000e+003    +2.5191537e-005
+1.8560000e+003    +2.0917645e-004
+1.8720000e+003    +3.1825883e-004
+1.8880000e+003    +2.0667097e-004
+1.9040000e+003    +1.1944467e-004
+1.9200000e+003    +1.3235536e-004
+1.9360000e+003    +1.8438471e-004
+1.9520000e+003    +1.5101777e-004
+1.9680000e+003    +4.2550655e-005
+1.9840000e+003    +6.3185609e-005
+2.0000000e+003    +6.8084366e-005
+2.0160000e+003    +6.0995579e-005
+2.0320000e+003    +1.0244959e-004
+2.0480000e+003    +1.3760582e-004
+2.0640000e+003    +1.2972980e-004
+2.0800000e+003    +7.2329647e-005
+2.0960000e+003    +1.7348383e-004
+2.1120000e+003    +1.0890812e-004
+2.1280000e+003    +6.1276965e-005
+2.1440000e+003    +5.8446618e-005
+2.1600000e+003    +2.6676516e-004
+2.1760000e+003    +3.3516821e-004
+2.1920000e+003    +3.1332966e-004
+2.2080000e+003    +2.2729982e-004
+2.2240000e+003    +1.5409548e-004
+2.2400000e+003    +9.1314112e-005
+2.2560000e+003    +5.5957898e-005
+2.2720000e+003    +2.0671545e-005
+2.2880000e+003    +6.2196035e-005
+2.3040000e+003    +9.2479480e-005
+2.3200000e+003    +1.0296510e-004
+2.3360000e+003    +1.4458917e-004
+2.3520000e+003    +1.1787472e-004
+2.3680000e+003    +8.2327781e-005
+2.3840000e+003    +1.6272764e-004
+2.4000000e+003    +1.0262944e-004
+2.4160000e+003    +5.7609454e-005
+2.4320000e+003    +7.2386370e-005
+2.4480000e+003    +1.0066891e-004
+2.4640000e+003    +2.1091579e-005
+2.4800000e+003    +3.2068117e-005
+2.4960000e+003    +6.5007363e-005
+2.5120000e+003    +9.3784845e-005
+2.5280000e+003    +3.0878960e-005
+2.5440000e+003    +8.9767826e-005
+2.5600000e+003    +7.0655100e-005
+2.5760000e+003    +6.6170134e-005
+2.5920000e+003    +8.6980355e-005
+2.6080000e+003    +5.6509685e-005
+2.6240000e+003    +7.4177253e-005
+2.6400000e+003    +9.6656149e-005
+2.6560000e+003    +1.1867987e-004
+2.6720000e+003    +1.1488565e-004
+2.6880000e+003    +5.2468102e-005
+2.7040000e+003    +9.5950993e-005
+2.7200000e+003    +7.8836194e-005
+2.7360000e+003    +1.8166067e-004
+2.7520000e+003    +1.8546783e-004
+2.7680000e+003    +1.6670546e-004
+2.7840000e+003    +1.3523830e-004
+2.8000000e+003    +1.1950574e-004
+2.8160000e+003    +1.1604590e-004
+2.8320000e+003    +1.3857047e-004
+2.8480000e+003    +1.4382899e-004
+2.8640000e+003    +2.1474545e-004
+2.8800000e+003    +2.5370656e-004
+2.8960000e+003    +1.7785323e-004
+2.9120000e+003    +5.0719718e-005
+2.9280000e+003    +1.7608768e-004
+2.9440000e+003    +8.4918771e-005
+2.9600000e+003    +7.3360265e-005
+2.9760000e+003    +1.2767008e-004
+2.9920000e+003    +1.6533406e-004
+3.0080000e+003    +8.0042788e-005
+3.0240000e+003    +1.4522875e-004
+3.0400000e+003    +2.3587808e-004
+3.0560000e+003    +2.7397383e-004
+3.0720000e+003    +2.4649902e-004
+3.0880000e+003    +1.3436432e-004
+3.1040000e+003    +1.1748025e-004
+3.1200000e+003    +1.6031650e-004
+3.1360000e+003    +1.5457020e-004
+3.1520000e+003    +1.1287661e-004
+3.1680000e+003    +1.8942101e-004
+3.1840000e+003    +2.3363397e-004
+3.2000000e+003    +1.8184456e-004
+3.2160000e+003    +1.2453950e-004
+3.2320000e+003    +1.3191512e-004
+3.2480000e+003    +5.2584830e-005
+3.2640000e+003    +1.3808462e-005
+3.2800000e+003    +6.4390981e-005
+3.2960000e+003    +1.0735400e-004
+3.3120000e+003    +2.2484052e-004
+3.3280000e+003    +2.3698198e-004
+3.3440000e+003    +1.9147198e-004
+3.3600000e+003    +1.9290434e-004
+3.3760000e+003    +2.7624486e-004
+3.3920000e+003    +2.6451470e-004
+3.4080000e+003    +1.9039298e-004
+3.4240000e+003    +1.8492917e-004
+3.4400000e+003    +1.6009320e-004
+3.4560000e+003    +1.6963261e-004
+3.4720000e+003    +1.0247614e-004
+3.4880000e+003    +3.3189950e-005
+3.5040000e+003    +4.4222932e-005
+3.5200000e+003    +6.2553387e-005
+3.5360000e+003    +8.3547631e-005
+3.5520000e+003    +2.9911105e-005
+3.5680000e+003    +4.1708721e-005
+3.5840000e+003    +1.9495405e-004
+3.6000000e+003    +1.5108941e-004
+3.6160000e+003    +2.0689722e-004
+3.6320000e+003    +2.0970132e-004
+3.6480000e+003    +1.0603169e-004
+3.6640000e+003    +1.7460392e-004
+3.6800000e+003    +1.7337520e-004
+3.6960000e+003    +1.7085338e-004
+3.7120000e+003    +2.0115450e-004
+3.7280000e+003    +1.7627774e-004
+3.7440000e+003    +8.5109095e-005
+3.7600000e+003    +1.5733929e-004
+3.7760000e+003    +1.9389407e-004
+3.7920000e+003    +5.8571502e-005
+3.8080000e+003    +5.5109103e-005
+3.8240000e+003    +5.7313624e-005
+3.8400000e+003    +9.5075964e-005
+3.8560000e+003    +7.9501246e-005
+3.8720000e+003    +1.0323667e-004
+3.8880000e+003    +1.1942926e-004
+3.9040000e+003    +3.5919340e-005
+3.9200000e+003    +4.5344404e-005
+3.9360000e+003    +7.2103430e-005
+3.9520000e+003    +2.8114833e-005
+3.9680000e+003    +9.8046308e-005
+3.9840000e+003    +1.0253078e-004
+4.0000000e+003    +1.4843814e-004
+4.0160000e+003    +1.1339174e-004
+4.0320000e+003    +7.2779418e-005
+4.0480000e+003    +1.1275311e-004
+4.0640000e+003    +1.0028148e-004
+4.0800000e+003    +1.4190667e-004
+4.0960000e+003    +1.4023657e-004
+4.1120000e+003    +1.3954441e-004
+4.1280000e+003    +1.2544580e-004
+4.1440000e+003    +1.1727244e-004
+4.1600000e+003    +2.1152478e-004
+4.1760000e+003    +2.8214438e-004
+4.1920000e+003    +1.8651533e-004
+4.2080000e+003    +4.3498138e-005
+4.2240000e+003    +5.7899942e-006
+4.2400000e+003    +3.8089420e-005
+4.2560000e+003    +8.7862740e-005
+4.2720000e+003    +1.0842420e-004
+4.2880000e+003    +1.1870469e-004
+4.3040000e+003    +1.0849856e-004
+4.3200000e+003    +8.1379556e-005
+4.3360000e+003    +9.5521180e-005
+4.3520000e+003    +2.6169859e-004
+4.3680000e+003    +2.3741247e-004
+4.3840000e+003    +1.0408402e-004
+4.4000000e+003    +4.5341018e-005
+4.4160000e+003    +1.2118168e-004
+4.4320000e+003    +1.3908041e-004
+4.4480000e+003    +9.2591035e-005
+4.4640000e+003    +3.1266278e-005
+4.4800000e+003    +5.1274375e-005
+4.4960000e+003    +1.7167220e-004
+4.5120000e+003    +1.8133494e-004
+4.5280000e+003    +1.4619491e-004
+4.5440000e+003    +2.3164089e-004
+4.5600000e+003    +3.5357493e-004
+4.5760000e+003    +2.9912961e-004
+4.5920000e+003    +1.7433142e-004
+4.6080000e+003    +9.2373841e-005
+4.6240000e+003    +2.3090387e-004
+4.6400000e+003    +2.6192711e-004
+4.6560000e+003    +2.6062544e-004
+4.6720000e+003    +1.7053852e-004
+4.6880000e+003    +9.9046825e-005
+4.7040000e+003    +1.3696287e-004
+4.7200000e+003    +1.1133154e-004
+4.7360000e+003    +1.1645268e-004
+4.7520000e+003    +3.1031002e-004
+4.7680000e+003    +3.7195679e-004
+4.7840000e+003    +2.3372608e-004
+4.8000000e+003    +1.0507090e-004
+4.8160000e+003    +4.4382527e-005
+4.8320000e+003    +1.1551777e-004
+4.8480000e+003    +2.0310926e-004
+4.8640000e+003    +1.6230161e-004
+4.8800000e+003    +8.3496183e-005
+4.8960000e+003    +7.8887802e-005
+4.9120000e+003    +1.5012578e-004
+4.9280000e+003    +1.8962420e-004
+4.9440000e+003    +2.0505150e-004
+4.9600000e+003    +1.9539913e-004
+4.9760000e+003    +2.5986510e-004
+4.9920000e+003    +2.1396020e-004
+5.0080000e+003    +9.9363242e-005
+5.0240000e+003    +1.7616618e-004
+5.0400000e+003    +9.7283679e-005
+5.0560000e+003    +1.6350401e-004
+5.0720000e+003    +1.4347695e-004
+5.0880000e+003    +1.3245479e-004
+5.1040000e+003    +1.5723611e-004
+5.1200000e+003    +1.6098970e-004
+5.1360000e+003    +4.6346817e-005
+5.1520000e+003    +1.2989641e-004
+5.1680000e+003    +1.5753454e-004
+5.1840000e+003    +2.1949732e-004
+5.2000000e+003    +2.0946545e-004
+5.2160000e+003    +1.6736063e-004
+5.2320000e+003    +1.5069544e-005
+5.2480000e+003    +1.3258640e-004
+5.2640000e+003    +2.1219692e-004
+5.2800000e+003    +1.8302737e-004
+5.2960000e+003    +1.7032192e-004
+5.3120000e+003    +1.4490137e-004
+5.3280000e+003    +5.9809623e-005
+5.3440000e+003    +2.3770304e-005
+5.3600000e+003    +6.1172635e-005
+5.3760000e+003    +1.1453256e-004
+5.3920000e+003    +6.7891626e-005
+5.4080000e+003    +6.5501292e-005
+5.4240000e+003    +1.0396478e-004
+5.4400000e+003    +1.4780891e-004
+5.4560000e+003    +1.1746923e-004
+5.4720000e+003    +4.7039422e-005
+5.4880000e+003    +2.9963665e-005
+5.5040000e+003    +5.6820765e-005
+5.5200000e+003    +1.2671319e-004
+5.5360000e+003    +1.3353874e-004
+5.5520000e+003    +1.6769374e-005
+5.5680000e+003    +1.1943438e-004
+5.5840000e+003    +4.9185415e-005
+5.6000000e+003    +6.4565058e-005
+5.6160000e+003    +9.4084869e-005
+5.6320000e+003    +1.5404847e-005
+5.6480000e+003    +7.2648327e-005
+5.6640000e+003    +4.1994488e-005
+5.6800000e+003    +5.3410051e-005
+5.6960000e+003    +6.3034895e-005
+5.7120000e+003    +2.0957690e-005
+5.7280000e+003    +5.1321575e-005
+5.7440000e+003    +5.7722282e-005
+5.7600000e+003    +6.3501568e-005
+5.7760000e+003    +1.2367552e-004
+5.7920000e+003    +1.2447292e-004
+5.8080000e+003    +3.2956385e-005
+5.8240000e+003    +1.6518282e-004
+5.8400000e+003    +2.2747659e-004
+5.8560000e+003    +1.4270321e-004
+5.8720000e+003    +1.7210552e-004
+5.8880000e+003    +1.8952118e-004
+5.9040000e+003    +1.8166495e-004
+5.9200000e+003    +1.6278437e-004
+5.9360000e+003    +7.3895826e-005
+5.9520000e+003    +8.4174295e-005
+5.9680000e+003    +1.0892199e-004
+5.9840000e+003    +5.6983514e-005
+6.0000000e+003    +3.0296096e-005
+6.0160000e+003    +6.4986591e-005
+6.0320000e+003    +4.4029621e-005
+6.0480000e+003    +9.9468249e-005
+6.0640000e+003    +9.5942880e-005
+6.0800000e+003    +8.7151180e-005
+6.0960000e+003    +1.0786328e-004
+6.1120000e+003    +1.1793026e-004
+6.1280000e+003    +5.8616086e-005
+6.1440000e+003    +9.7158467e-005
+6.1600000e+003    +1.2360032e-004
+6.1760000e+003    +9.2190247e-005
+6.1920000e+003    +1.2290744e-004
+6.2080000e+003    +1.3211007e-004
+6.2240000e+003    +1.1945661e-004
+6.2400000e+003    +3.8838036e-005
+6.2560000e+003    +9.1761962e-005
+6.2720000e+003    +6.8982728e-005
+6.2880000e+003    +1.1622850e-004
+6.3040000e+003    +4.7364007e-005
+6.3200000e+003    +6.6266541e-005
+6.3360000e+003    +7.3268173e-005
+6.3520000e+003    +7.0760216e-005
+6.3680000e+003    +1.0628071e-004
+6.3840000e+003    +1.5723308e-004
+6.4000000e+003    +1.8809061e-004
+6.4160000e+003    +1.2171526e-004
+6.4320000e+003    +5.6796187e-005
+6.4480000e+003    +5.8426023e-005
+6.4640000e+003    +1.1076727e-004
+6.4800000e+003    +1.6966941e-004
+6.4960000e+003    +2.3229125e-004
+6.5120000e+003    +1.7619230e-004
+6.5280000e+003    +9.1273818e-005
+6.5440000e+003    +7.5351083e-005
+6.5600000e+003    +2.3438138e-004
+6.5760000e+003    +8.9775807e-005
+6.5920000e+003    +1.0431895e-004
+6.6080000e+003    +1.9055276e-004
+6.6240000e+003    +1.6461097e-004
+6.6400000e+003    +1.7581973e-004
+6.6560000e+003    +1.9983578e-004
+6.6720000e+003    +1.2349877e-004
+6.6880000e+003    +6.7219400e-005
+6.7040000e+003    +1.7883377e-004
+6.7200000e+003    +7.5830299e-005
+6.7360000e+003    +5.1553467e-005
+6.7520000e+003    +1.0303963e-004
+6.7680000e+003    +1.0820353e-004
+6.7840000e+003    +1.0674317e-004
+6.8000000e+003    +1.6872855e-004
+6.8160000e+003    +1.5229658e-004
+6.8320000e+003    +7.0734968e-005
+6.8480000e+003    +1.7861967e-005
+6.8640000e+003    +7.9910897e-005
+6.8800000e+003    +1.0838968e-004
+6.8960000e+003    +8.3916653e-005
+6.9120000e+003    +1.8646343e-004
+6.9280000e+003    +2.1935217e-004
+6.9440000e+003    +1.4452742e-004
+6.9600000e+003    +7.2988762e-005
+6.9760000e+003    +5.7833742e-005
+6.9920000e+003    +1.1717109e-004
+7.0080000e+003    +1.5748308e-004
+7.0240000e+003    +1.1102588e-004
+7.0400000e+003    +2.6871622e-004
+7.0560000e+003    +2.0064451e-004
+7.0720000e+003    +1.5956280e-004
+7.0880000e+003    +1.3823381e-004
+7.1040000e+003    +8.6526197e-005
+7.1200000e+003    +8.8338464e-005
+7.1360000e+003    +1.3397248e-004
+7.1520000e+003    +1.0206555e-004
+7.1680000e+003    +1.7868410e-004
+7.1840000e+003    +1.8007724e-004
+7.2000000e+003    +9.6117481e-005
+7.2160000e+003    +7.2261064e-005
+7.2320000e+003    +5.2027994e-005
+7.2480000e+003    +6.2225954e-005
+7.2640000e+003    +9.0691436e-005
+7.2800000e+003    +8.3959414e-005
+7.2960000e+003    +8.0142774e-005
+7.3120000e+003    +1.6054840e-004
+7.3280000e+003    +1.2226669e-004
+7.3440000e+003    +1.2328614e-004
+7.3600000e+003    +1.1759963e-004
+7.3760000e+003    +1.2919384e-004
+7.3920000e+003    +1.7632284e-004
+7.4080000e+003    +7.9357786e-005
+7.4240000e+003    +2.9165536e-005
+7.4400000e+003    +4.4530818e-005
+7.4560000e+003    +2.7853179e-005
+7.4720000e+003    +2.7639959e-005
+7.4880000e+003    +1.1430185e-004
+7.5040000e+003    +9.0959285e-005
+7.5200000e+003    +2.2868600e-005
+7.5360000e+003    +4.7066183e-005
+7.5520000e+003    +7.4035430e-005
+7.5680000e+003    +8.9696397e-005
+7.5840000e+003    +2.1764850e-005
+7.6000000e+003    +1.3528427e-004
+7.6160000e+003    +2.1045638e-004
+7.6320000e+003    +2.9170004e-004
+7.6480000e+003    +2.9419729e-004
+7.6640000e+003    +1.7034830e-004
+7.6800000e+003    +1.0454524e-004
+7.6960000e+003    +1.3211819e-004
+7.7120000e+003    +1.1148518e-004
+7.7280000e+003    +4.6982386e-005
+7.7440000e+003    +3.3440585e-005
+7.7600000e+003    +1.9931678e-004
+7.7760000e+003    +1.6768380e-004
+7.7920000e+003    +2.1948805e-004
+7.8080000e+003    +1.9484876e-004
+7.8240000e+003    +9.2388645e-006
+7.8400000e+003    +6.1678998e-005
+7.8560000e+003    +1.1966823e-004
+7.8720000e+003    +1.2640700e-004
+7.8880000e+003    +1.0476771e-004
+7.9040000e+003    +1.8361449e-004
+7.9200000e+003    +2.1989232e-004
+7.9360000e+003    +2.7215175e-004
+7.9520000e+003    +2.3843127e-004
+7.9680000e+003    +5.5542823e-005
+7.9840000e+003    +3.8835988e-005
+8.0000000e+003    +8.2470091e-005
+8.0160000e+003    +1.3252390e-004
+8.0320000e+003    +1.1192026e-004
+8.0480000e+003    +5.4451171e-005
+8.0640000e+003    +1.5756766e-004
+8.0800000e+003    +1.3028478e-004
+8.0960000e+003    +1.5729948e-004
+8.1120000e+003    +1.7616291e-004
+8.1280000e+003    +9.4699863e-005
+8.1440000e+003    +6.3416563e-005
+8.1600000e+003    +1.1224570e-004
+8.1760000e+003    +1.1009729e-004
+8.1920000e+003    +1.2463846e-004
+8.2080000e+003    +5.3615633e-005
+8.2240000e+003    +1.5353260e-004
+8.2400000e+003    +2.5876411e-004
+8.2560000e+003    +1.1336827e-004
+8.2720000e+003    +2.3542580e-004
+8.2880000e+003    +2.5138637e-004
+8.3040000e+003    +1.4447348e-004
+8.3200000e+003    +5.1119230e-005
+8.3360000e+003    +9.0679780e-005
+8.3520000e+003    +9.2996837e-005
+8.3680000e+003    +1.0315028e-004
+8.3840000e+003    +9.1296271e-005
+8.4000000e+003    +1.5580167e-004
+8.4160000e+003    +1.7722945e-004
+8.4320000e+003    +1.8040526e-004
+8.4480000e+003    +1.3608149e-004
+8.4640000e+003    +9.3073657e-005
+8.4800000e+003    +9.8197459e-005
+8.4960000e+003    +1.0829148e-004
+8.5120000e+003    +8.9260298e-005
+8.5280000e+003    +9.8327895e-005
+8.5440000e+003    +2.7803620e-004
+8.5600000e+003    +1.8356772e-004
+8.5760000e+003    +5.6893303e-005
+8.5920000e+003    +4.6564615e-005
+8.6080000e+003    +2.4219560e-004
+8.6240000e+003    +2.0807488e-004
+8.6400000e+003    +1.1929264e-004
+8.6560000e+003    +1.0814884e-004
+8.6720000e+003    +3.4433342e-005
+8.6880000e+003    +8.2325430e-005
+8.7040000e+003    +1.4539366e-004
+8.7200000e+003    +1.8906311e-004
+8.7360000e+003    +1.5404583e-004
+8.7520000e+003    +8.4615735e-005
+8.7680000e+003    +1.1161629e-004
+8.7840000e+003    +8.0082173e-005
+8.8000000e+003    +6.3152453e-005
+8.8160000e+003    +1.1154584e-004
+8.8320000e+003    +1.2782647e-004
+8.8480000e+003    +1.3887227e-004
+8.8640000e+003    +1.0761552e-004
+8.8800000e+003    +1.4517161e-004
+8.8960000e+003    +1.6368209e-005
+8.9120000e+003    +1.3181724e-004
+8.9280000e+003    +1.5103044e-004
+8.9440000e+003    +6.4323780e-005
+8.9600000e+003    +2.1750815e-004
+8.9760000e+003    +2.2734237e-004
+8.9920000e+003    +2.0751967e-004
+9.0080000e+003    +1.3233392e-004
+9.0240000e+003    +1.0773468e-004
+9.0400000e+003    +9.6324547e-005
+9.0560000e+003    +1.7965680e-004
+9.0720000e+003    +2.5682256e-004
+9.0880000e+003    +2.1692563e-004
+9.1040000e+003    +7.2907300e-005
+9.1200000e+003    +6.9014088e-005
+9.1360000e+003    +1.7351555e-005
+9.1520000e+003    +1.0463189e-004
+9.1680000e+003    +1.9916409e-004
+9.1840000e+003    +1.9134997e-004
+9.2000000e+003    +1.2605275e-004
+9.2160000e+003    +1.3226108e-004
+9.2320000e+003    +1.4093102e-004
+9.2480000e+003    +1.4577224e-004
+9.2640000e+003    +6.7120352e-005
+9.2800000e+003    +4.9605947e-005
+9.2960000e+003    +1.0902046e-004
+9.3120000e+003    +1.7991074e-004
+9.3280000e+003    +6.8548739e-005
+9.3440000e+003    +5.2941923e-005
+9.3600000e+003    +4.1860392e-005
+9.3760000e+003    +1.0587069e-004
+9.3920000e+003    +1.8905989e-004
+9.4080000e+003    +1.0910177e-004
+9.4240000e+003    +8.8926434e-005
+9.4400000e+003    +5.3927415e-005
+9.4560000e+003    +6.4851803e-005
+9.4720000e+003    +1.1317413e-004
+9.4880000e+003    +4.6359746e-005
+9.5040000e+003    +6.3111838e-005
+9.5200000e+003    +8.0896083e-005
+9.5360000e+003    +8.2044709e-005
+9.5520000e+003    +6.4204251e-005
+9.5680000e+003    +4.5679000e-005
+9.5840000e+003    +5.2310726e-005
+9.6000000e+003    +5.4805587e-005
+9.6160000e+003    +9.3539893e-005
+9.6320000e+003    +3.8377435e-005
+9.6480000e+003    +1.2785777e-004
+9.6640000e+003    +1.5317061e-004
+9.6800000e+003    +1.3927548e-004
+9.6960000e+003    +1.4827313e-004
+9.7120000e+003    +6.8022273e-005
+9.7280000e+003    +9.2730617e-005
+9.7440000e+003    +1.9694745e-004
+9.7600000e+003    +1.0624629e-004
+9.7760000e+003    +1.4165969e-004
+9.7920000e+003    +2.0039859e-004
+9.8080000e+003    +2.3064580e-004
+9.8240000e+003    +1.7780509e-004
+9.8400000e+003    +1.6738214e-004
+9.8560000e+003    +6.4098953e-005
+9.8720000e+003    +3.1858712e-005
+9.8880000e+003    +8.7499509e-005
+9.9040000e+003    +1.6175085e-004
+9.9200000e+003    +9.8966928e-005
+9.9360000e+003    +1.1140167e-004
+9.9520000e+003    +2.5005252e-004
+9.9680000e+003    +2.0854501e-004
+9.9840000e+003    +1.0131392e-004
+1.0000000e+004    +1.3498774e-004
+1.0016000e+004    +1.7195167e-004
+1.0032000e+004    +1.7551403e-004
+1.0048000e+004    +6.5097644e-005
+1.0064000e+004    +6.3114610e-005
+1.0080000e+004    +6.7596782e-005
+1.0096000e+004    +1.4265589e-004
+1.0112000e+004    +1.0858765e-004
+1.0128000e+004    +1.0734993e-004
+1.0144000e+004    +5.5055640e-005
+1.0160000e+004    +1.1075912e-004
+1.0176000e+004    +2.1337629e-004
+1.0192000e+004    +1.7093416e-004
+1.0208000e+004    +9.8504242e-005
+1.0224000e+004    +1.0597368e-004
+1.0240000e+004    +1.6771944e-004
+1.0256000e+004    +1.3408520e-004
+1.0272000e+004    +4.1165866e-005
+1.0288000e+004    +9.8396471e-005
+1.0304000e+004    +1.0980786e-004
+1.0320000e+004    +1.7288524e-004
+1.0336000e+004    +2.1124650e-004
+1.0352000e+004    +1.9362613e-004
+1.0368000e+004    +1.4511065e-004
+1.0384000e+004    +2.3450494e-004
+1.0400000e+004    +2.2087194e-004
+1.0416000e+004    +1.5653177e-004
+1.0432000e+004    +6.7868146e-005
+1.0448000e+004    +8.6813292e-005
+1.0464000e+004    +7.7674395e-006
+1.0480000e+004    +1.0140612e-004
+1.0496000e+004    +1.0433597e-004
+1.0512000e+004    +5.5246262e-005
+1.0528000e+004    +1.5713825e-004
+1.0544000e+004    +1.1431088e-004
+1.0560000e+004    +1.1579396e-004
+1.0576000e+004    +1.2417078e-005
+1.0592000e+004    +4.4913770e-005
+1.0608000e+004    +9.1899492e-005
+1.0624000e+004    +1.0882206e-004
+1.0640000e+004    +1.0719823e-004
+1.0656000e+004    +8.1257414e-005
+1.0672000e+004    +9.5923497e-005
+1.0688000e+004    +1.2556562e-004
+1.0704000e+004    +6.3195046e-005
+1.0720000e+004    +3.5428722e-005
+1.0736000e+004    +9.4633033e-005
+1.0752000e+004    +1.2295325e-004
+1.0768000e+004    +1.3255489e-004
+1.0784000e+004    +8.5213731e-005
+1.0800000e+004    +2.8471762e-004
+1.0816000e+004    +3.3674733e-004
+1.0832000e+004    +2.3999980e-004
+1.0848000e+004    +8.7761116e-005
+1.0864000e+004    +5.6851590e-005
+1.0880000e+004    +9.6258897e-005
+1.0896000e+004    +8.5156113e-005
+1.0912000e+004    +4.1743355e-005
+1.0928000e+004    +1.6184607e-004
+1.0944000e+004    +7.2198971e-005
+1.0960000e+004    +2.5058598e-005
+1.0976000e+004    +1.1876434e-004
+1.0992000e+004    +1.8596843e-004
+1.1008000e+004    +2.7646878e-004
+1.1024000e+004    +3.1643928e-004
+1.1040000e+004    +3.0216435e-004
+1.1056000e+004    +2.6517219e-004
+1.1072000e+004    +7.2619616e-005
+1.1088000e+004    +3.5195786e-005
+1.1104000e+004    +1.5717716e-004
+1.1120000e+004    +2.7181310e-004
+1.1136000e+004    +1.0320029e-004
+1.1152000e+004    +1.6577222e-004
+1.1168000e+004    +1.8561062e-004
+1.1184000e+004    +1.5869769e-004
+1.1200000e+004    +1.1812055e-004
+1.1216000e+004    +3.6080215e-005
+1.1232000e+004    +6.2750813e-005
+1.1248000e+004    +1.0850107e-004
+1.1264000e+004    +7.8280726e-005
+1.1280000e+004    +5.7038411e-005
+1.1296000e+004    +1.1807523e-005
+1.1312000e+004    +3.2629425e-005
+1.1328000e+004    +1.5043127e-004
+1.1344000e+004    +1.3552452e-004
+1.1360000e+004    +9.1432696e-005
+1.1376000e+004    +7.8258548e-005
+1.1392000e+004    +7.2908580e-005
+1.1408000e+004    +1.3763907e-004
+1.1424000e+004    +1.4920284e-004
+1.1440000e+004    +1.2394541e-004
+1.1456000e+004    +1.6340369e-004
+1.1472000e+004    +3.2736971e-005
+1.1488000e+004    +4.3054344e-005
+1.1504000e+004    +6.2156236e-005
+1.1520000e+004    +3.6300666e-005
+1.1536000e+004    +4.3610227e-005
+1.1552000e+004    +1.2754160e-004
+1.1568000e+004    +1.9687341e-004
+1.1584000e+004    +1.7847872e-004
+1.1600000e+004    +2.5642104e-005
+1.1616000e+004    +6.8979694e-005
+1.1632000e+004    +1.1509056e-004
+1.1648000e+004    +1.6541395e-004
+1.1664000e+004    +1.4104518e-004
+1.1680000e+004    +9.2247450e-005
+1.1696000e+004    +7.9496705e-005
+1.1712000e+004    +1.3105485e-004
+1.1728000e+004    +2.1697767e-004
+1.1744000e+004    +9.2448012e-005
+1.1760000e+004    +1.2592693e-004
+1.1776000e+004    +8.1004611e-005
+1.1792000e+004    +7.4828138e-005
+1.1808000e+004    +1.4505036e-004
+1.1824000e+004    +1.8452101e-004
+1.1840000e+004    +1.8050324e-004
+1.1856000e+004    +7.0763090e-005
+1.1872000e+004    +1.1028537e-004
+1.1888000e+004    +9.4705581e-005
+1.1904000e+004    +1.0263181e-004
+1.1920000e+004    +1.3939412e-004
+1.1936000e+004    +1.6620132e-004
+1.1952000e+004    +8.4656996e-005
+1.1968000e+004    +6.8839952e-005
+1.1984000e+004    +9.8000783e-005
+1.2000000e+004    +2.2330841e-004
+1.2016000e+004    +2.3340975e-004
+1.2032000e+004    +1.5355949e-004
+1.2048000e+004    +1.7868185e-004
+1.2064000e+004    +1.5363378e-004
+1.2080000e+004    +1.0311914e-004
+1.2096000e+004    +1.2043431e-004
+1.2112000e+004    +1.1484409e-004
+1.2128000e+004    +1.3306095e-004
+1.2144000e+004    +1.2608610e-004
+1.2160000e+004    +4.2145210e-005
+1.2176000e+004    +1.1247973e-004
+1.2192000e+004    +1.5104190e-004
+1.2208000e+004    +2.0033513e-004
+1.2224000e+004    +1.6095002e-004
+1.2240000e+004    +1.6957107e-004
+1.2256000e+004    +2.1783797e-004
+1.2272000e+004    +1.7200218e-004
+1.2288000e+004    +1.0823912e-004
+1.2304000e+004    +1.3201618e-004
+1.2320000e+004    +2.2508667e-004
+1.2336000e+004    +2.3410888e-004
+1.2352000e+004    +1.5754717e-004
+1.2368000e+004    +1.7497652e-004
+1.2384000e+004    +1.1775791e-004
+1.2400000e+004    +1.6166465e-004
+1.2416000e+004    +2.1048872e-004
+1.2432000e+004    +2.4392115e-004
+1.2448000e+004    +1.5910402e-004
+1.2464000e+004    +2.0706255e-004
+1.2480000e+004    +1.9919929e-004
+1.2496000e+004    +8.9597772e-005
+1.2512000e+004    +3.5195400e-005
+1.2528000e+004    +1.0948859e-004
+1.2544000e+004    +1.8898871e-004
+1.2560000e+004    +2.2887891e-004
+1.2576000e+004    +1.4459615e-004
+1.2592000e+004    +1.7413094e-004
+1.2608000e+004    +1.2036167e-004
+1.2624000e+004    +9.0431116e-005
+1.2640000e+004    +1.8534569e-004
+1.2656000e+004    +9.9437675e-005
+1.2672000e+004    +2.5815752e-004
+1.2688000e+004    +2.4447040e-004
+1.2704000e+004    +1.7073299e-004
+1.2720000e+004    +9.6471245e-005
+1.2736000e+004    +9.7799559e-005
+1.2752000e+004    +1.1553108e-004
+1.2768000e+004    +1.6446302e-004
+1.2784000e+004    +2.2959939e-004
