# SR785 Measurement - Timestamp: Jan 24 2019 - 18:30:12
#---------- Measurement Setup ------------
# Start Frequency (Hz): 0.000000
# Frequency Span (Hz): 12800.000000
# Frequency Resolution: 800
# Number of Averages: 2
# Averaging Mode: None
# Window function: BMH
#---------- Measurement Parameters ----------
# Measurement Group:  "FFT" "FFT"
# Measurements:  "FFT 1" "FFT 2"
# View:  "Log Magnitude" "Log Magnitude"
# Unit:  "Vrms/rtHz" "Vpk"
#---------- Input Parameters ----------
# Input Source: Analog
# Input Mode: Single ended, Single ended
# Input Grounding: Float, Float
# Input Coupling: AC, AC
# Input Range: 6.0dBVpk, 6.0dBVpk
# Auto Range: Off, Off
# Auto Range Mode: Up Only, Normal
# Anti-Aliasing Filter: On, On
#---------- Source Parameters ----------
# Source Type: Sine
# Source Amplitude: 500.0mVpk
# Source On: 0

#---------- Measurement Data ----------
# [Freq(Hz) Display 0(Vrms/rtHz) Display 1(Vpk) ]
+0.0000000e+000    +2.5222644e-002
+1.6000000e+001    +3.9385788e-002
+3.2000000e+001    +1.7660033e-002
+4.8000000e+001    +3.3776138e-003
+6.4000000e+001    +8.6215721e-004
+8.0000000e+001    +8.9303625e-004
+9.6000000e+001    +5.4385443e-004
+1.1200000e+002    +4.9431884e-004
+1.2800000e+002    +4.6186571e-004
+1.4400000e+002    +4.6740999e-004
+1.6000000e+002    +7.0755981e-004
+1.7600000e+002    +9.2642847e-004
+1.9200000e+002    +7.2402350e-004
+2.0800000e+002    +2.6505225e-004
+2.2400000e+002    +9.6053445e-005
+2.4000000e+002    +8.7768058e-005
+2.5600000e+002    +1.6454665e-004
+2.7200000e+002    +4.5711113e-005
+2.8800000e+002    +2.5044708e-004
+3.0400000e+002    +2.9880219e-004
+3.2000000e+002    +2.2785692e-004
+3.3600000e+002    +5.2762727e-005
+3.5200000e+002    +7.2638279e-005
+3.6800000e+002    +7.2288123e-005
+3.8400000e+002    +6.7502442e-005
+4.0000000e+002    +2.0894106e-004
+4.1600000e+002    +2.2968727e-004
+4.3200000e+002    +2.3851270e-004
+4.4800000e+002    +1.4711870e-004
+4.6400000e+002    +2.4587624e-005
+4.8000000e+002    +2.8919955e-004
+4.9600000e+002    +2.1345689e-004
+5.1200000e+002    +1.6870929e-004
+5.2800000e+002    +2.2915928e-004
+5.4400000e+002    +2.6372753e-004
+5.6000000e+002    +1.2126866e-004
+5.7600000e+002    +6.0721348e-005
+5.9200000e+002    +4.9912769e-006
+6.0800000e+002    +1.2227052e-004
+6.2400000e+002    +2.5691872e-004
+6.4000000e+002    +1.4529766e-004
+6.5600000e+002    +4.4543482e-005
+6.7200000e+002    +7.7921250e-005
+6.8800000e+002    +8.7311324e-005
+7.0400000e+002    +7.4029333e-005
+7.2000000e+002    +8.4342297e-005
+7.3600000e+002    +1.4304636e-004
+7.5200000e+002    +1.0782450e-004
+7.6800000e+002    +1.1195320e-004
+7.8400000e+002    +2.8902211e-004
+8.0000000e+002    +4.5603933e-004
+8.1600000e+002    +3.2514983e-004
+8.3200000e+002    +1.8542518e-004
+8.4800000e+002    +4.7050737e-005
+8.6400000e+002    +3.6086592e-005
+8.8000000e+002    +1.1744098e-004
+8.9600000e+002    +3.6225613e-004
+9.1200000e+002    +2.6201227e-004
+9.2800000e+002    +2.5996199e-004
+9.4400000e+002    +1.8267742e-004
+9.6000000e+002    +1.2903677e-004
+9.7600000e+002    +4.4918455e-005
+9.9200000e+002    +1.4446863e-004
+1.0080000e+003    +1.4674668e-004
+1.0240000e+003    +1.3702229e-004
+1.0400000e+003    +5.1776340e-005
+1.0560000e+003    +2.6980519e-005
+1.0720000e+003    +8.7175875e-005
+1.0880000e+003    +1.5160887e-004
+1.1040000e+003    +1.8860449e-004
+1.1200000e+003    +2.4292344e-004
+1.1360000e+003    +1.6879859e-004
+1.1520000e+003    +1.5855138e-004
+1.1680000e+003    +1.6736872e-004
+1.1840000e+003    +1.0463585e-004
+1.2000000e+003    +1.2535238e-004
+1.2160000e+003    +1.9861836e-004
+1.2320000e+003    +2.2891309e-004
+1.2480000e+003    +2.2031837e-004
+1.2640000e+003    +1.7311527e-004
+1.2800000e+003    +1.0920591e-004
+1.2960000e+003    +1.0727747e-004
+1.3120000e+003    +1.0449308e-004
+1.3280000e+003    +2.5067115e-004
+1.3440000e+003    +3.0149706e-004
+1.3600000e+003    +1.9524815e-004
+1.3760000e+003    +1.3228293e-004
+1.3920000e+003    +1.5330975e-004
+1.4080000e+003    +1.2086981e-004
+1.4240000e+003    +9.8739431e-005
+1.4400000e+003    +9.8651653e-006
+1.4560000e+003    +7.7623241e-005
+1.4720000e+003    +3.5062294e-005
+1.4880000e+003    +4.2390384e-005
+1.5040000e+003    +6.8954330e-005
+1.5200000e+003    +2.8340304e-005
+1.5360000e+003    +4.1750183e-005
+1.5520000e+003    +2.4170944e-005
+1.5680000e+003    +2.5416632e-005
+1.5840000e+003    +6.9445225e-005
+1.6000000e+003    +9.0708265e-005
+1.6160000e+003    +5.2210711e-005
+1.6320000e+003    +9.8353805e-005
+1.6480000e+003    +1.0439006e-004
+1.6640000e+003    +1.4419472e-004
+1.6800000e+003    +9.3704672e-005
+1.6960000e+003    +1.0666555e-004
+1.7120000e+003    +9.2793867e-005
+1.7280000e+003    +9.7124546e-005
+1.7440000e+003    +1.0774717e-004
+1.7600000e+003    +1.3593523e-004
+1.7760000e+003    +1.8630236e-004
+1.7920000e+003    +1.1897139e-004
+1.8080000e+003    +1.5210407e-004
+1.8240000e+003    +1.7952468e-004
+1.8400000e+003    +2.0972767e-004
+1.8560000e+003    +1.9807676e-004
+1.8720000e+003    +7.7934601e-005
+1.8880000e+003    +9.4294912e-005
+1.9040000e+003    +1.1894161e-004
+1.9200000e+003    +1.9687417e-004
+1.9360000e+003    +1.1056568e-004
+1.9520000e+003    +1.8071612e-004
+1.9680000e+003    +1.9433344e-004
+1.9840000e+003    +2.1489829e-004
+2.0000000e+003    +1.1175394e-004
+2.0160000e+003    +7.3216950e-005
+2.0320000e+003    +8.5806147e-005
+2.0480000e+003    +8.2528786e-005
+2.0640000e+003    +1.5063721e-004
+2.0800000e+003    +1.1318954e-004
+2.0960000e+003    +5.9787759e-005
+2.1120000e+003    +7.2063303e-005
+2.1280000e+003    +1.0716233e-004
+2.1440000e+003    +1.0565731e-004
+2.1600000e+003    +9.9577519e-005
+2.1760000e+003    +1.0352874e-004
+2.1920000e+003    +3.8187194e-005
+2.2080000e+003    +1.3134786e-004
+2.2240000e+003    +3.7088041e-005
+2.2400000e+003    +5.6709137e-005
+2.2560000e+003    +8.9544374e-005
+2.2720000e+003    +7.6277291e-005
+2.2880000e+003    +1.1730651e-004
+2.3040000e+003    +1.1881840e-004
+2.3200000e+003    +1.2286939e-004
+2.3360000e+003    +1.4668224e-004
+2.3520000e+003    +1.5610603e-004
+2.3680000e+003    +9.0232061e-005
+2.3840000e+003    +1.7206745e-005
+2.4000000e+003    +4.2243890e-005
+2.4160000e+003    +6.5329630e-005
+2.4320000e+003    +1.8906820e-004
+2.4480000e+003    +1.7995530e-004
+2.4640000e+003    +1.0778047e-004
+2.4800000e+003    +6.8787820e-005
+2.4960000e+003    +4.8676011e-005
+2.5120000e+003    +6.4383414e-005
+2.5280000e+003    +7.3522417e-005
+2.5440000e+003    +2.3664293e-004
+2.5600000e+003    +5.1246796e-005
+2.5760000e+003    +1.1068246e-004
+2.5920000e+003    +1.3356395e-004
+2.6080000e+003    +1.1843203e-004
+2.6240000e+003    +7.4398456e-005
+2.6400000e+003    +8.9100693e-005
+2.6560000e+003    +2.7816779e-005
+2.6720000e+003    +1.3219539e-004
+2.6880000e+003    +1.5062811e-004
+2.7040000e+003    +5.9456783e-005
+2.7200000e+003    +6.9523041e-005
+2.7360000e+003    +4.5336241e-005
+2.7520000e+003    +1.0266776e-004
+2.7680000e+003    +1.1724676e-004
+2.7840000e+003    +1.7171913e-004
+2.8000000e+003    +2.2790732e-004
+2.8160000e+003    +2.0192456e-004
+2.8320000e+003    +1.3691206e-004
+2.8480000e+003    +1.5978931e-004
+2.8640000e+003    +1.1872190e-004
+2.8800000e+003    +4.3801024e-006
+2.8960000e+003    +7.1936585e-005
+2.9120000e+003    +1.2670581e-004
+2.9280000e+003    +1.4759849e-004
+2.9440000e+003    +1.0779479e-004
+2.9600000e+003    +6.1957886e-005
+2.9760000e+003    +1.6537782e-004
+2.9920000e+003    +1.3003533e-004
+3.0080000e+003    +4.6330995e-005
+3.0240000e+003    +9.0501642e-005
+3.0400000e+003    +2.0101518e-004
+3.0560000e+003    +1.6058296e-004
+3.0720000e+003    +3.0915529e-005
+3.0880000e+003    +1.1628230e-004
+3.1040000e+003    +2.0738051e-004
+3.1200000e+003    +1.6103583e-004
+3.1360000e+003    +1.9593256e-004
+3.1520000e+003    +1.3681182e-004
+3.1680000e+003    +8.4747298e-005
+3.1840000e+003    +2.3672999e-005
+3.2000000e+003    +6.9852511e-005
+3.2160000e+003    +4.3072170e-005
+3.2320000e+003    +5.0551374e-005
+3.2480000e+003    +1.5381488e-004
+3.2640000e+003    +1.5511850e-004
+3.2800000e+003    +1.5830151e-004
+3.2960000e+003    +1.8619317e-004
+3.3120000e+003    +1.9216213e-004
+3.3280000e+003    +1.4954249e-004
+3.3440000e+003    +1.3928993e-004
+3.3600000e+003    +9.0686059e-005
+3.3760000e+003    +1.0578192e-004
+3.3920000e+003    +1.5731002e-004
+3.4080000e+003    +1.1399035e-004
+3.4240000e+003    +8.2103732e-005
+3.4400000e+003    +8.1358827e-005
+3.4560000e+003    +2.4590674e-005
+3.4720000e+003    +3.7491402e-005
+3.4880000e+003    +8.9073110e-005
+3.5040000e+003    +6.8781927e-005
+3.5200000e+003    +1.2373221e-004
+3.5360000e+003    +2.8370845e-005
+3.5520000e+003    +9.0403919e-005
+3.5680000e+003    +7.0231952e-005
+3.5840000e+003    +1.2503349e-004
+3.6000000e+003    +3.2236083e-005
+3.6160000e+003    +5.5467135e-005
+3.6320000e+003    +9.2962437e-005
+3.6480000e+003    +4.4900458e-005
+3.6640000e+003    +6.6777226e-005
+3.6800000e+003    +1.2611829e-004
+3.6960000e+003    +1.4357844e-004
+3.7120000e+003    +1.9425641e-004
+3.7280000e+003    +1.7652506e-004
+3.7440000e+003    +1.4764436e-004
+3.7600000e+003    +2.1551819e-004
+3.7760000e+003    +1.2132792e-004
+3.7920000e+003    +6.6491964e-005
+3.8080000e+003    +2.8234752e-004
+3.8240000e+003    +1.6363287e-004
+3.8400000e+003    +4.5156801e-005
+3.8560000e+003    +4.4812939e-005
+3.8720000e+003    +5.9088499e-005
+3.8880000e+003    +1.7309008e-004
+3.9040000e+003    +1.1499399e-004
+3.9200000e+003    +9.2119313e-005
+3.9360000e+003    +8.4423082e-005
+3.9520000e+003    +1.3583354e-004
+3.9680000e+003    +1.1874380e-004
+3.9840000e+003    +1.0500741e-004
+4.0000000e+003    +8.3360428e-005
+4.0160000e+003    +6.4544503e-005
+4.0320000e+003    +5.1674000e-005
+4.0480000e+003    +1.0552537e-004
+4.0640000e+003    +1.1464561e-004
+4.0800000e+003    +1.1797539e-004
+4.0960000e+003    +1.5766302e-004
+4.1120000e+003    +1.0771180e-004
+4.1280000e+003    +4.9498332e-005
+4.1440000e+003    +1.3832148e-004
+4.1600000e+003    +1.3553597e-004
+4.1760000e+003    +1.4797479e-004
+4.1920000e+003    +1.4397688e-004
+4.2080000e+003    +1.3628755e-004
+4.2240000e+003    +9.6519667e-005
+4.2400000e+003    +1.8858535e-005
+4.2560000e+003    +1.0575033e-004
+4.2720000e+003    +7.7586177e-005
+4.2880000e+003    +9.9958394e-005
+4.3040000e+003    +4.2718988e-005
+4.3200000e+003    +1.1050779e-004
+4.3360000e+003    +1.3805437e-004
+4.3520000e+003    +1.1069814e-004
+4.3680000e+003    +9.9755780e-005
+4.3840000e+003    +1.5626312e-004
+4.4000000e+003    +1.8384607e-004
+4.4160000e+003    +6.1931161e-005
+4.4320000e+003    +1.4878766e-004
+4.4480000e+003    +2.0121491e-004
+4.4640000e+003    +2.1601569e-004
+4.4800000e+003    +2.4241854e-004
+4.4960000e+003    +7.7435710e-005
+4.5120000e+003    +1.6531392e-004
+4.5280000e+003    +2.5387568e-004
+4.5440000e+003    +3.0782755e-004
+4.5600000e+003    +7.9212754e-005
+4.5760000e+003    +4.0696686e-005
+4.5920000e+003    +7.8489684e-005
+4.6080000e+003    +1.2508711e-004
+4.6240000e+003    +1.5705390e-004
+4.6400000e+003    +1.2235029e-004
+4.6560000e+003    +1.1215324e-004
+4.6720000e+003    +5.3039319e-005
+4.6880000e+003    +5.1794250e-005
+4.7040000e+003    +1.7410924e-004
+4.7200000e+003    +1.9077392e-004
+4.7360000e+003    +1.7124899e-004
+4.7520000e+003    +1.4980568e-004
+4.7680000e+003    +1.6070236e-004
+4.7840000e+003    +1.7045502e-004
+4.8000000e+003    +1.3215795e-004
+4.8160000e+003    +2.2812450e-005
+4.8320000e+003    +1.0603670e-004
+4.8480000e+003    +2.3360832e-005
+4.8640000e+003    +3.3825068e-005
+4.8800000e+003    +5.0417068e-005
+4.8960000e+003    +8.3122075e-005
+4.9120000e+003    +2.9211205e-005
+4.9280000e+003    +1.0844902e-004
+4.9440000e+003    +2.2879110e-004
+4.9600000e+003    +2.7862875e-004
+4.9760000e+003    +1.6100207e-004
+4.9920000e+003    +2.5606543e-005
+5.0080000e+003    +1.1787387e-004
+5.0240000e+003    +1.8153086e-004
+5.0400000e+003    +1.0166180e-004
+5.0560000e+003    +1.4894489e-004
+5.0720000e+003    +1.2063461e-004
+5.0880000e+003    +8.1967366e-005
+5.1040000e+003    +1.1774414e-004
+5.1200000e+003    +1.6537073e-004
+5.1360000e+003    +1.3807142e-004
+5.1520000e+003    +1.0715316e-004
+5.1680000e+003    +8.2305909e-005
+5.1840000e+003    +1.1218675e-004
+5.2000000e+003    +6.7628032e-005
+5.2160000e+003    +7.3675954e-005
+5.2320000e+003    +1.2065454e-004
+5.2480000e+003    +1.3752570e-004
+5.2640000e+003    +1.4004948e-004
+5.2800000e+003    +1.2355669e-004
+5.2960000e+003    +1.2027640e-004
+5.3120000e+003    +9.4234369e-005
+5.3280000e+003    +5.0986215e-005
+5.3440000e+003    +5.9526803e-005
+5.3600000e+003    +6.3317420e-005
+5.3760000e+003    +2.6495216e-004
+5.3920000e+003    +1.8124179e-004
+5.4080000e+003    +8.2333296e-005
+5.4240000e+003    +1.1656954e-004
+5.4400000e+003    +6.9483358e-005
+5.4560000e+003    +1.3650574e-004
+5.4720000e+003    +9.1698414e-005
+5.4880000e+003    +4.6472629e-005
+5.5040000e+003    +2.3720821e-005
+5.5200000e+003    +1.4318086e-004
+5.5360000e+003    +1.3685375e-004
+5.5520000e+003    +7.9460668e-005
+5.5680000e+003    +6.7707981e-005
+5.5840000e+003    +3.1354903e-005
+5.6000000e+003    +1.7195525e-005
+5.6160000e+003    +3.7337602e-005
+5.6320000e+003    +4.5442390e-005
+5.6480000e+003    +8.6482694e-005
+5.6640000e+003    +1.1771990e-004
+5.6800000e+003    +1.5351406e-004
+5.6960000e+003    +1.4542375e-004
+5.7120000e+003    +1.5757527e-004
+5.7280000e+003    +6.9926253e-005
+5.7440000e+003    +1.1515945e-004
+5.7600000e+003    +1.0640675e-004
+5.7760000e+003    +1.1766027e-004
+5.7920000e+003    +1.1407048e-004
+5.8080000e+003    +6.2189276e-005
+5.8240000e+003    +4.2408821e-005
+5.8400000e+003    +2.8169370e-005
+5.8560000e+003    +5.1667761e-005
+5.8720000e+003    +6.7251291e-005
+5.8880000e+003    +2.8329383e-005
+5.9040000e+003    +1.9803065e-005
+5.9200000e+003    +7.6376513e-005
+5.9360000e+003    +1.0951600e-004
+5.9520000e+003    +1.1404099e-004
+5.9680000e+003    +3.2540054e-005
+5.9840000e+003    +4.6622219e-005
+6.0000000e+003    +1.0916276e-004
+6.0160000e+003    +1.2132959e-004
+6.0320000e+003    +6.2728766e-005
+6.0480000e+003    +5.3720167e-005
+6.0640000e+003    +7.9489204e-005
+6.0800000e+003    +8.9098830e-005
+6.0960000e+003    +1.4625319e-004
+6.1120000e+003    +9.7679796e-005
+6.1280000e+003    +1.2646191e-004
+6.1440000e+003    +1.3099011e-004
+6.1600000e+003    +1.2550497e-004
+6.1760000e+003    +1.2201585e-004
+6.1920000e+003    +9.5052688e-005
+6.2080000e+003    +3.3735905e-005
+6.2240000e+003    +9.3610783e-005
+6.2400000e+003    +1.3720521e-004
+6.2560000e+003    +1.5206759e-004
+6.2720000e+003    +1.1160434e-004
+6.2880000e+003    +4.7884383e-005
+6.3040000e+003    +1.0013289e-004
+6.3200000e+003    +7.4178555e-005
+6.3360000e+003    +3.5279896e-005
+6.3520000e+003    +2.0454512e-005
+6.3680000e+003    +5.4413758e-005
+6.3840000e+003    +2.5928169e-004
+6.4000000e+003    +2.7253374e-004
+6.4160000e+003    +2.2713878e-004
+6.4320000e+003    +2.1398088e-004
+6.4480000e+003    +1.7321052e-004
+6.4640000e+003    +6.4750137e-005
+6.4800000e+003    +1.0717245e-004
+6.4960000e+003    +7.4455005e-005
+6.5120000e+003    +1.2165020e-004
+6.5280000e+003    +1.2048722e-004
+6.5440000e+003    +8.6116663e-005
+6.5600000e+003    +8.5701824e-005
+6.5760000e+003    +1.4386990e-004
+6.5920000e+003    +2.0089812e-004
+6.6080000e+003    +1.6852868e-004
+6.6240000e+003    +1.4481715e-004
+6.6400000e+003    +1.7382293e-004
+6.6560000e+003    +1.2841052e-004
+6.6720000e+003    +3.2585638e-005
+6.6880000e+003    +3.3758992e-005
+6.7040000e+003    +7.5249147e-005
+6.7200000e+003    +7.8830657e-005
+6.7360000e+003    +2.0258487e-004
+6.7520000e+003    +9.7901087e-005
+6.7680000e+003    +4.7471669e-005
+6.7840000e+003    +1.2756583e-004
+6.8000000e+003    +1.4460321e-004
+6.8160000e+003    +1.0895458e-004
+6.8320000e+003    +2.6622458e-005
+6.8480000e+003    +5.9032151e-005
+6.8640000e+003    +5.3902673e-005
+6.8800000e+003    +2.7174177e-005
+6.8960000e+003    +8.2705490e-005
+6.9120000e+003    +1.4978151e-004
+6.9280000e+003    +1.8955843e-004
+6.9440000e+003    +1.4150720e-004
+6.9600000e+003    +2.1724013e-004
+6.9760000e+003    +2.3712982e-004
+6.9920000e+003    +1.7945147e-004
+7.0080000e+003    +1.1298455e-004
+7.0240000e+003    +6.6803623e-005
+7.0400000e+003    +1.4369877e-004
+7.0560000e+003    +1.7642876e-004
+7.0720000e+003    +1.1052781e-004
+7.0880000e+003    +1.7437229e-005
+7.1040000e+003    +2.2796652e-005
+7.1200000e+003    +4.1042567e-005
+7.1360000e+003    +1.5308082e-004
+7.1520000e+003    +1.9518932e-004
+7.1680000e+003    +1.1164485e-004
+7.1840000e+003    +7.4540723e-005
+7.2000000e+003    +3.6565198e-005
+7.2160000e+003    +7.9274789e-005
+7.2320000e+003    +1.1188930e-004
+7.2480000e+003    +5.2097901e-005
+7.2640000e+003    +2.1339819e-004
+7.2800000e+003    +2.8216993e-004
+7.2960000e+003    +2.4272961e-004
+7.3120000e+003    +4.5631332e-005
+7.3280000e+003    +3.4599714e-005
+7.3440000e+003    +7.9062782e-005
+7.3600000e+003    +1.0476874e-004
+7.3760000e+003    +9.5710042e-005
+7.3920000e+003    +1.4272216e-004
+7.4080000e+003    +1.2330292e-004
+7.4240000e+003    +4.8704453e-005
+7.4400000e+003    +1.9031658e-004
+7.4560000e+003    +1.8220110e-004
+7.4720000e+003    +1.5253320e-004
+7.4880000e+003    +1.3999290e-004
+7.5040000e+003    +8.5592743e-005
+7.5200000e+003    +9.6956523e-005
+7.5360000e+003    +1.9600250e-004
+7.5520000e+003    +3.0107016e-004
+7.5680000e+003    +2.9914782e-004
+7.5840000e+003    +2.6170563e-004
+7.6000000e+003    +1.8707647e-004
+7.6160000e+003    +1.5003902e-004
+7.6320000e+003    +1.5061273e-004
+7.6480000e+003    +1.0740334e-004
+7.6640000e+003    +1.9255190e-004
+7.6800000e+003    +2.5264247e-004
+7.6960000e+003    +2.5453619e-004
+7.7120000e+003    +1.8680953e-004
+7.7280000e+003    +1.2434459e-004
+7.7440000e+003    +9.5049138e-005
+7.7600000e+003    +8.3798615e-005
+7.7760000e+003    +1.3685653e-004
+7.7920000e+003    +1.9197550e-004
+7.8080000e+003    +8.0499238e-005
+7.8240000e+003    +1.9526767e-004
+7.8400000e+003    +2.2264349e-004
+7.8560000e+003    +1.2117669e-004
+7.8720000e+003    +5.3353902e-005
+7.8880000e+003    +6.2437903e-005
+7.9040000e+003    +2.2217926e-005
+7.9200000e+003    +2.8319246e-005
+7.9360000e+003    +5.6374400e-005
+7.9520000e+003    +9.7382210e-005
+7.9680000e+003    +6.0758030e-005
+7.9840000e+003    +4.0192812e-005
+8.0000000e+003    +1.5518647e-004
+8.0160000e+003    +1.4279709e-005
+8.0320000e+003    +9.5769115e-005
+8.0480000e+003    +1.1178898e-004
+8.0640000e+003    +9.3646966e-005
+8.0800000e+003    +1.1618002e-004
+8.0960000e+003    +1.0661760e-004
+8.1120000e+003    +1.1636423e-004
+8.1280000e+003    +1.1710010e-004
+8.1440000e+003    +6.9806505e-005
+8.1600000e+003    +1.6001728e-004
+8.1760000e+003    +2.0596432e-004
+8.1920000e+003    +1.8320972e-004
+8.2080000e+003    +1.6122531e-004
+8.2240000e+003    +4.7579528e-005
+8.2400000e+003    +9.5022217e-005
+8.2560000e+003    +1.5742517e-004
+8.2720000e+003    +2.0309644e-004
+8.2880000e+003    +1.1103173e-004
+8.3040000e+003    +2.4910289e-004
+8.3200000e+003    +2.6000437e-004
+8.3360000e+003    +2.1300983e-004
+8.3520000e+003    +2.9985039e-004
+8.3680000e+003    +1.6060825e-004
+8.3840000e+003    +1.5523554e-004
+8.4000000e+003    +8.7319182e-005
+8.4160000e+003    +8.8120112e-005
+8.4320000e+003    +8.0196733e-005
+8.4480000e+003    +7.4021045e-005
+8.4640000e+003    +4.3625554e-005
+8.4800000e+003    +4.6271009e-005
+8.4960000e+003    +8.2993400e-005
+8.5120000e+003    +6.4761152e-005
+8.5280000e+003    +1.2527946e-004
+8.5440000e+003    +2.5026826e-004
+8.5600000e+003    +2.5569851e-004
+8.5760000e+003    +7.9692116e-005
+8.5920000e+003    +1.2635371e-004
+8.6080000e+003    +1.9375765e-004
+8.6240000e+003    +2.5729727e-004
+8.6400000e+003    +1.3007317e-004
+8.6560000e+003    +1.8712218e-004
+8.6720000e+003    +2.2328610e-004
+8.6880000e+003    +2.1142876e-004
+8.7040000e+003    +9.1810340e-005
+8.7200000e+003    +1.6634718e-004
+8.7360000e+003    +2.2474982e-004
+8.7520000e+003    +2.5501862e-004
+8.7680000e+003    +1.9602606e-004
+8.7840000e+003    +1.0856780e-004
+8.8000000e+003    +7.6624383e-005
+8.8160000e+003    +1.9743342e-005
+8.8320000e+003    +6.4206644e-005
+8.8480000e+003    +2.2189039e-005
+8.8640000e+003    +6.7560941e-005
+8.8800000e+003    +1.4034440e-004
+8.8960000e+003    +2.0146272e-004
+8.9120000e+003    +1.5820985e-004
+8.9280000e+003    +7.9976468e-005
+8.9440000e+003    +3.9166742e-005
+8.9600000e+003    +5.1609590e-005
+8.9760000e+003    +9.2230941e-005
+8.9920000e+003    +1.1986633e-004
+9.0080000e+003    +1.1245016e-004
+9.0240000e+003    +8.6545959e-005
+9.0400000e+003    +1.2990712e-004
+9.0560000e+003    +1.4276433e-004
+9.0720000e+003    +9.1719252e-005
+9.0880000e+003    +4.9964146e-005
+9.1040000e+003    +5.8765843e-005
+9.1200000e+003    +7.5350094e-005
+9.1360000e+003    +1.0743795e-004
+9.1520000e+003    +1.1557257e-004
+9.1680000e+003    +1.5483680e-004
+9.1840000e+003    +2.0957392e-004
+9.2000000e+003    +7.6565346e-005
+9.2160000e+003    +1.2148028e-004
+9.2320000e+003    +1.1885336e-004
+9.2480000e+003    +1.7856418e-004
+9.2640000e+003    +2.8936248e-004
+9.2800000e+003    +1.0157712e-004
+9.2960000e+003    +5.1752300e-005
+9.3120000e+003    +5.9498576e-005
+9.3280000e+003    +7.9917569e-005
+9.3440000e+003    +6.9950060e-005
+9.3600000e+003    +1.2377284e-004
+9.3760000e+003    +1.0299286e-004
+9.3920000e+003    +1.0705914e-004
+9.4080000e+003    +1.5164100e-004
+9.4240000e+003    +1.3095711e-004
+9.4400000e+003    +1.7474152e-004
+9.4560000e+003    +1.7842063e-004
+9.4720000e+003    +1.9646013e-004
+9.4880000e+003    +1.9426452e-004
+9.5040000e+003    +1.1586002e-004
+9.5200000e+003    +7.0702670e-005
+9.5360000e+003    +6.5430773e-005
+9.5520000e+003    +2.3912574e-004
+9.5680000e+003    +1.4941498e-004
+9.5840000e+003    +1.1317128e-004
+9.6000000e+003    +1.1415141e-004
+9.6160000e+003    +6.9255628e-005
+9.6320000e+003    +1.7220977e-004
+9.6480000e+003    +2.9357645e-004
+9.6640000e+003    +3.0254811e-004
+9.6800000e+003    +1.3324515e-004
+9.6960000e+003    +1.5466816e-004
+9.7120000e+003    +1.6251364e-004
+9.7280000e+003    +2.4747811e-004
+9.7440000e+003    +1.7962207e-004
+9.7600000e+003    +2.3791140e-004
+9.7760000e+003    +3.1890802e-004
+9.7920000e+003    +2.6508266e-004
+9.8080000e+003    +2.2873119e-004
+9.8240000e+003    +8.2248640e-005
+9.8400000e+003    +9.6141972e-005
+9.8560000e+003    +1.0876233e-004
+9.8720000e+003    +8.6799380e-005
+9.8880000e+003    +1.4238511e-004
+9.9040000e+003    +1.4185355e-004
+9.9200000e+003    +1.4815092e-004
+9.9360000e+003    +1.8857354e-004
+9.9520000e+003    +1.7623429e-004
+9.9680000e+003    +6.3902262e-005
+9.9840000e+003    +1.3880467e-004
+1.0000000e+004    +2.0688801e-004
+1.0016000e+004    +2.7203999e-004
+1.0032000e+004    +9.6599499e-005
+1.0048000e+004    +1.0814273e-004
+1.0064000e+004    +2.0152521e-004
+1.0080000e+004    +2.6181858e-004
+1.0096000e+004    +2.3001092e-004
+1.0112000e+004    +1.1263334e-004
+1.0128000e+004    +7.5941025e-005
+1.0144000e+004    +4.9400875e-005
+1.0160000e+004    +4.6600569e-005
+1.0176000e+004    +2.9604521e-004
+1.0192000e+004    +2.7935611e-004
+1.0208000e+004    +2.6669839e-004
+1.0224000e+004    +2.1132817e-004
+1.0240000e+004    +1.3661609e-004
+1.0256000e+004    +8.8282904e-005
+1.0272000e+004    +4.2550189e-005
+1.0288000e+004    +9.7597032e-005
+1.0304000e+004    +1.4520134e-004
+1.0320000e+004    +2.1307533e-004
+1.0336000e+004    +2.1326760e-004
+1.0352000e+004    +2.1517642e-004
+1.0368000e+004    +7.3361145e-005
+1.0384000e+004    +7.5528340e-005
+1.0400000e+004    +1.0655816e-004
+1.0416000e+004    +8.6904081e-005
+1.0432000e+004    +6.4579668e-005
+1.0448000e+004    +9.2761678e-005
+1.0464000e+004    +1.0040151e-004
+1.0480000e+004    +6.3821419e-005
+1.0496000e+004    +6.2485706e-005
+1.0512000e+004    +2.0176942e-004
+1.0528000e+004    +4.4001205e-005
+1.0544000e+004    +1.0535618e-004
+1.0560000e+004    +1.2247992e-004
+1.0576000e+004    +5.7856159e-005
+1.0592000e+004    +1.0829671e-004
+1.0608000e+004    +3.5288479e-004
+1.0624000e+004    +1.3460487e-004
+1.0640000e+004    +2.6987717e-004
+1.0656000e+004    +2.5524144e-004
+1.0672000e+004    +1.4133725e-004
+1.0688000e+004    +1.5705434e-004
+1.0704000e+004    +8.5348373e-005
+1.0720000e+004    +1.0058654e-004
+1.0736000e+004    +1.1495631e-004
+1.0752000e+004    +1.9934216e-004
+1.0768000e+004    +2.5664089e-004
+1.0784000e+004    +2.5754614e-004
+1.0800000e+004    +1.8416649e-004
+1.0816000e+004    +4.8579133e-004
+1.0832000e+004    +2.4798335e-004
+1.0848000e+004    +2.0280642e-004
+1.0864000e+004    +2.5747306e-004
+1.0880000e+004    +1.5121953e-004
+1.0896000e+004    +1.8408199e-004
+1.0912000e+004    +1.3006917e-004
+1.0928000e+004    +1.2473266e-004
+1.0944000e+004    +1.5354829e-004
+1.0960000e+004    +1.1547940e-004
+1.0976000e+004    +1.0029793e-004
+1.0992000e+004    +6.6070097e-005
+1.1008000e+004    +6.0571925e-005
+1.1024000e+004    +9.8790180e-005
+1.1040000e+004    +9.7305470e-005
+1.1056000e+004    +2.0990956e-004
+1.1072000e+004    +2.9741862e-004
+1.1088000e+004    +1.5050000e-004
+1.1104000e+004    +1.2519669e-004
+1.1120000e+004    +2.4607067e-004
+1.1136000e+004    +2.9499218e-004
+1.1152000e+004    +2.2854970e-004
+1.1168000e+004    +4.1452353e-004
+1.1184000e+004    +3.4848042e-004
+1.1200000e+004    +1.5287826e-004
+1.1216000e+004    +3.1737352e-005
+1.1232000e+004    +1.0062310e-004
+1.1248000e+004    +1.6411110e-004
+1.1264000e+004    +2.1310562e-004
+1.1280000e+004    +2.6468656e-004
+1.1296000e+004    +2.0720378e-005
+1.1312000e+004    +1.4799355e-004
+1.1328000e+004    +2.4988482e-004
+1.1344000e+004    +1.9970319e-004
+1.1360000e+004    +9.0840520e-005
+1.1376000e+004    +2.6938398e-004
+1.1392000e+004    +2.3522467e-004
+1.1408000e+004    +1.8516080e-004
+1.1424000e+004    +1.2435402e-004
+1.1440000e+004    +2.0585128e-004
+1.1456000e+004    +1.2298944e-004
+1.1472000e+004    +4.2330063e-005
+1.1488000e+004    +1.2150536e-004
+1.1504000e+004    +2.3086445e-004
+1.1520000e+004    +1.9195021e-004
+1.1536000e+004    +8.7846922e-005
+1.1552000e+004    +1.3808531e-004
+1.1568000e+004    +1.0757541e-004
+1.1584000e+004    +5.6385419e-005
+1.1600000e+004    +1.5841697e-004
+1.1616000e+004    +2.0304327e-004
+1.1632000e+004    +4.9062388e-004
+1.1648000e+004    +8.6503307e-004
+1.1664000e+004    +8.8600873e-004
+1.1680000e+004    +7.6957967e-004
+1.1696000e+004    +7.6719385e-004
+1.1712000e+004    +1.0914970e-004
+1.1728000e+004    +3.6124786e-004
+1.1744000e+004    +5.2129803e-004
+1.1760000e+004    +4.1222334e-004
+1.1776000e+004    +2.0403572e-004
+1.1792000e+004    +1.2817234e-004
+1.1808000e+004    +9.6967065e-005
+1.1824000e+004    +1.7708959e-004
+1.1840000e+004    +3.1300384e-005
+1.1856000e+004    +3.3664863e-005
+1.1872000e+004    +9.7465323e-005
+1.1888000e+004    +2.4517183e-004
+1.1904000e+004    +1.2585630e-004
+1.1920000e+004    +1.8349660e-004
+1.1936000e+004    +1.9642431e-004
+1.1952000e+004    +1.5969723e-004
+1.1968000e+004    +4.5071010e-005
+1.1984000e+004    +8.1923186e-005
+1.2000000e+004    +9.8275224e-005
+1.2016000e+004    +6.9596434e-005
+1.2032000e+004    +1.3259077e-004
+1.2048000e+004    +1.5095776e-004
+1.2064000e+004    +6.0762697e-005
+1.2080000e+004    +2.4752580e-005
+1.2096000e+004    +1.5844671e-004
+1.2112000e+004    +1.6284462e-004
+1.2128000e+004    +2.8336322e-004
+1.2144000e+004    +3.8699247e-004
+1.2160000e+004    +2.5140363e-004
+1.2176000e+004    +4.0667766e-004
+1.2192000e+004    +2.0475689e-004
+1.2208000e+004    +2.8078078e-004
+1.2224000e+004    +2.1999603e-004
+1.2240000e+004    +9.1944305e-005
+1.2256000e+004    +8.4657644e-005
+1.2272000e+004    +1.2723076e-004
+1.2288000e+004    +5.8830530e-005
+1.2304000e+004    +1.0079161e-004
+1.2320000e+004    +2.0763899e-004
+1.2336000e+004    +1.9962668e-004
+1.2352000e+004    +1.5125655e-004
+1.2368000e+004    +5.3107498e-005
+1.2384000e+004    +7.6334261e-005
+1.2400000e+004    +1.2377468e-003
+1.2416000e+004    +8.4260519e-004
+1.2432000e+004    +7.6398492e-004
+1.2448000e+004    +1.0697248e-003
+1.2464000e+004    +1.2575982e-004
+1.2480000e+004    +1.3058975e-004
+1.2496000e+004    +1.2193014e-004
+1.2512000e+004    +1.0841312e-004
+1.2528000e+004    +1.4812328e-004
+1.2544000e+004    +2.1236882e-004
+1.2560000e+004    +2.8176545e-004
+1.2576000e+004    +2.5946708e-004
+1.2592000e+004    +2.2737870e-004
+1.2608000e+004    +3.0662600e-004
+1.2624000e+004    +1.8765546e-004
+1.2640000e+004    +2.2683822e-004
+1.2656000e+004    +1.6070783e-004
+1.2672000e+004    +9.4457078e-005
+1.2688000e+004    +4.6091714e-005
+1.2704000e+004    +5.8950023e-005
+1.2720000e+004    +1.2859324e-004
+1.2736000e+004    +2.0623519e-004
+1.2752000e+004    +7.2462671e-004
+1.2768000e+004    +5.5419985e-004
+1.2784000e+004    +1.9174325e-004
