# SR785 Measurement - Timestamp: Jan 24 2019 - 19:26:57
#---------- Measurement Setup ------------
# Start Frequency (Hz): 0.000000
# Frequency Span (Hz): 12800.000000
# Frequency Resolution: 800
# Number of Averages: 2
# Averaging Mode: None
# Window function: BMH
#---------- Measurement Parameters ----------
# Measurement Group:  "FFT" "FFT"
# Measurements:  "FFT 1" "FFT 2"
# View:  "Log Magnitude" "Log Magnitude"
# Unit:  "Vrms/rtHz" "Vpk"
#---------- Input Parameters ----------
# Input Source: Analog
# Input Mode: Single ended, Single ended
# Input Grounding: Float, Float
# Input Coupling: AC, AC
# Input Range: 6.0dBVpk, 6.0dBVpk
# Auto Range: Off, Off
# Auto Range Mode: Up Only, Normal
# Anti-Aliasing Filter: On, On
#---------- Source Parameters ----------
# Source Type: Sine
# Source Amplitude: 500.0mVpk
# Source On: 0

#---------- Measurement Data ----------
# [Freq(Hz) Display 0(Vrms/rtHz) Display 1(Vpk) ]
+0.0000000e+000    +2.2578975e-002
+1.6000000e+001    +1.4514101e-002
+3.2000000e+001    +3.3066026e-003
+4.8000000e+001    +2.0881412e-003
+6.4000000e+001    +6.5171660e-004
+8.0000000e+001    +3.7243942e-004
+9.6000000e+001    +3.3093628e-004
+1.1200000e+002    +4.2136258e-004
+1.2800000e+002    +1.8999538e-004
+1.4400000e+002    +1.0284867e-004
+1.6000000e+002    +6.0706085e-004
+1.7600000e+002    +1.0152165e-003
+1.9200000e+002    +1.0111399e-003
+2.0800000e+002    +3.7409249e-004
+2.2400000e+002    +1.3252877e-004
+2.4000000e+002    +6.2810643e-005
+2.5600000e+002    +2.0005411e-005
+2.7200000e+002    +2.2963205e-004
+2.8800000e+002    +3.1914044e-004
+3.0400000e+002    +4.3688202e-004
+3.2000000e+002    +2.6196393e-004
+3.3600000e+002    +1.3342164e-004
+3.5200000e+002    +1.6699784e-004
+3.6800000e+002    +1.7238560e-004
+3.8400000e+002    +2.0101562e-004
+4.0000000e+002    +2.8589752e-004
+4.1600000e+002    +2.7043216e-005
+4.3200000e+002    +7.2652314e-005
+4.4800000e+002    +1.0952052e-004
+4.6400000e+002    +1.8271033e-004
+4.8000000e+002    +1.7618631e-004
+4.9600000e+002    +5.9180631e-005
+5.1200000e+002    +1.1760944e-004
+5.2800000e+002    +1.7253254e-004
+5.4400000e+002    +1.9106310e-004
+5.6000000e+002    +1.7906098e-004
+5.7600000e+002    +4.7966525e-005
+5.9200000e+002    +2.7053937e-005
+6.0800000e+002    +8.8162305e-005
+6.2400000e+002    +1.1199426e-004
+6.4000000e+002    +1.7507048e-004
+6.5600000e+002    +1.9364653e-004
+6.7200000e+002    +1.8523990e-004
+6.8800000e+002    +2.2744325e-004
+7.0400000e+002    +3.4089317e-004
+7.2000000e+002    +7.1524999e-005
+7.3600000e+002    +1.1926979e-004
+7.5200000e+002    +1.5910489e-004
+7.6800000e+002    +1.4096158e-004
+7.8400000e+002    +2.9631660e-004
+8.0000000e+002    +3.0406081e-004
+8.1600000e+002    +2.1370981e-004
+8.3200000e+002    +3.2883843e-005
+8.4800000e+002    +1.6171596e-004
+8.6400000e+002    +1.2943671e-004
+8.8000000e+002    +1.0995608e-004
+8.9600000e+002    +6.8057008e-005
+9.1200000e+002    +2.1970083e-004
+9.2800000e+002    +2.2068794e-004
+9.4400000e+002    +9.9472403e-005
+9.6000000e+002    +7.8783843e-005
+9.7600000e+002    +1.6362200e-004
+9.9200000e+002    +1.8943391e-004
+1.0080000e+003    +1.8879790e-004
+1.0240000e+003    +2.2595553e-004
+1.0400000e+003    +1.0869477e-004
+1.0560000e+003    +1.2880817e-004
+1.0720000e+003    +1.5148283e-004
+1.0880000e+003    +1.1780763e-004
+1.1040000e+003    +1.8328235e-004
+1.1200000e+003    +1.3274518e-004
+1.1360000e+003    +7.3903451e-005
+1.1520000e+003    +1.0891721e-004
+1.1680000e+003    +2.1274303e-004
+1.1840000e+003    +2.1127352e-004
+1.2000000e+003    +1.5216120e-004
+1.2160000e+003    +1.2279036e-004
+1.2320000e+003    +2.0821681e-004
+1.2480000e+003    +1.3523949e-004
+1.2640000e+003    +3.8370313e-004
+1.2800000e+003    +4.1744226e-004
+1.2960000e+003    +1.6941912e-004
+1.3120000e+003    +1.7577513e-004
+1.3280000e+003    +1.9723938e-004
+1.3440000e+003    +2.2580140e-004
+1.3600000e+003    +1.4888759e-004
+1.3760000e+003    +1.1947005e-004
+1.3920000e+003    +1.4339507e-004
+1.4080000e+003    +1.1366828e-004
+1.4240000e+003    +1.4381589e-004
+1.4400000e+003    +1.0784309e-004
+1.4560000e+003    +6.0176320e-005
+1.4720000e+003    +9.0426554e-005
+1.4880000e+003    +9.0129186e-005
+1.5040000e+003    +6.8668443e-005
+1.5200000e+003    +6.4871179e-005
+1.5360000e+003    +1.0599113e-005
+1.5520000e+003    +3.4809898e-005
+1.5680000e+003    +6.3570144e-005
+1.5840000e+003    +7.3900861e-005
+1.6000000e+003    +8.7049433e-005
+1.6160000e+003    +6.4111126e-005
+1.6320000e+003    +4.8964499e-005
+1.6480000e+003    +2.4886436e-005
+1.6640000e+003    +5.8060559e-005
+1.6800000e+003    +1.0345692e-004
+1.6960000e+003    +2.2066759e-004
+1.7120000e+003    +1.5682525e-004
+1.7280000e+003    +6.9966190e-005
+1.7440000e+003    +7.1504743e-005
+1.7600000e+003    +7.4679003e-005
+1.7760000e+003    +1.8126548e-005
+1.7920000e+003    +1.7411250e-004
+1.8080000e+003    +3.2379357e-005
+1.8240000e+003    +1.0910602e-004
+1.8400000e+003    +1.3182165e-004
+1.8560000e+003    +6.2712861e-005
+1.8720000e+003    +3.0520925e-005
+1.8880000e+003    +6.4589309e-005
+1.9040000e+003    +5.3438500e-005
+1.9200000e+003    +1.0800810e-004
+1.9360000e+003    +1.5282354e-004
+1.9520000e+003    +1.5865099e-004
+1.9680000e+003    +1.3179365e-004
+1.9840000e+003    +1.1073984e-004
+2.0000000e+003    +1.7501523e-004
+2.0160000e+003    +2.4436519e-004
+2.0320000e+003    +2.1633314e-004
+2.0480000e+003    +1.6859976e-004
+2.0640000e+003    +8.3942730e-005
+2.0800000e+003    +1.4667935e-004
+2.0960000e+003    +7.2813469e-005
+2.1120000e+003    +6.8114568e-005
+2.1280000e+003    +9.1560483e-005
+2.1440000e+003    +1.2702271e-004
+2.1600000e+003    +9.6104923e-005
+2.1760000e+003    +1.2596441e-004
+2.1920000e+003    +1.1412033e-004
+2.2080000e+003    +8.3047453e-005
+2.2240000e+003    +9.2960086e-005
+2.2400000e+003    +7.5727214e-005
+2.2560000e+003    +1.3881992e-004
+2.2720000e+003    +2.0432907e-004
+2.2880000e+003    +2.1498890e-004
+2.3040000e+003    +1.7395313e-004
+2.3200000e+003    +2.4412264e-004
+2.3360000e+003    +2.1634609e-004
+2.3520000e+003    +1.2123491e-004
+2.3680000e+003    +1.5538944e-004
+2.3840000e+003    +5.3105690e-005
+2.4000000e+003    +9.5570169e-005
+2.4160000e+003    +1.5865274e-004
+2.4320000e+003    +2.3165107e-004
+2.4480000e+003    +1.7263211e-004
+2.4640000e+003    +1.5161985e-004
+2.4800000e+003    +1.2099515e-004
+2.4960000e+003    +1.3285315e-004
+2.5120000e+003    +9.7624790e-005
+2.5280000e+003    +1.4608660e-004
+2.5440000e+003    +1.5089205e-004
+2.5600000e+003    +1.3133285e-004
+2.5760000e+003    +1.9681419e-004
+2.5920000e+003    +2.7349460e-004
+2.6080000e+003    +2.4878583e-004
+2.6240000e+003    +1.5069809e-004
+2.6400000e+003    +1.0087515e-004
+2.6560000e+003    +5.0986382e-005
+2.6720000e+003    +9.1272916e-005
+2.6880000e+003    +3.6673151e-005
+2.7040000e+003    +1.5029358e-004
+2.7200000e+003    +1.1878716e-004
+2.7360000e+003    +1.0623381e-004
+2.7520000e+003    +5.7725134e-005
+2.7680000e+003    +4.9833370e-006
+2.7840000e+003    +5.8910166e-005
+2.8000000e+003    +7.2485629e-005
+2.8160000e+003    +9.6893098e-005
+2.8320000e+003    +6.4266598e-005
+2.8480000e+003    +2.0088037e-005
+2.8640000e+003    +4.9277740e-005
+2.8800000e+003    +1.5206540e-004
+2.8960000e+003    +2.3047290e-004
+2.9120000e+003    +5.3598211e-005
+2.9280000e+003    +5.0817544e-005
+2.9440000e+003    +5.1302195e-005
+2.9600000e+003    +6.4213418e-005
+2.9760000e+003    +1.9241199e-005
+2.9920000e+003    +4.6439880e-005
+3.0080000e+003    +6.6626722e-005
+3.0240000e+003    +1.5979799e-004
+3.0400000e+003    +1.6595506e-004
+3.0560000e+003    +1.4142682e-004
+3.0720000e+003    +6.2420630e-005
+3.0880000e+003    +4.3409396e-005
+3.1040000e+003    +1.1203066e-004
+3.1200000e+003    +1.4558622e-004
+3.1360000e+003    +1.4326940e-004
+3.1520000e+003    +1.4695822e-004
+3.1680000e+003    +1.8082011e-004
+3.1840000e+003    +2.2758712e-004
+3.2000000e+003    +1.5598618e-005
+3.2160000e+003    +3.2726799e-005
+3.2320000e+003    +3.6801499e-005
+3.2480000e+003    +2.1473672e-005
+3.2640000e+003    +4.3315318e-005
+3.2800000e+003    +2.1461015e-004
+3.2960000e+003    +1.2110121e-004
+3.3120000e+003    +9.6444237e-005
+3.3280000e+003    +1.2017455e-004
+3.3440000e+003    +8.2784711e-005
+3.3600000e+003    +1.0208214e-004
+3.3760000e+003    +1.0260893e-004
+3.3920000e+003    +6.8221678e-005
+3.4080000e+003    +1.2213795e-004
+3.4240000e+003    +1.0651903e-004
+3.4400000e+003    +1.0353351e-004
+3.4560000e+003    +1.7608555e-004
+3.4720000e+003    +1.7721797e-004
+3.4880000e+003    +1.3015803e-004
+3.5040000e+003    +1.7428033e-004
+3.5200000e+003    +1.9318581e-004
+3.5360000e+003    +1.4827272e-004
+3.5520000e+003    +1.2109336e-004
+3.5680000e+003    +1.2676739e-004
+3.5840000e+003    +1.0408008e-004
+3.6000000e+003    +1.0311478e-004
+3.6160000e+003    +1.9276989e-004
+3.6320000e+003    +2.2383139e-004
+3.6480000e+003    +1.3715882e-004
+3.6640000e+003    +5.1154489e-006
+3.6800000e+003    +1.3452981e-004
+3.6960000e+003    +9.6282041e-005
+3.7120000e+003    +1.2046201e-004
+3.7280000e+003    +7.3634554e-005
+3.7440000e+003    +1.5035301e-004
+3.7600000e+003    +1.6577731e-004
+3.7760000e+003    +7.0705777e-005
+3.7920000e+003    +4.7613863e-005
+3.8080000e+003    +1.0040696e-004
+3.8240000e+003    +4.7892165e-005
+3.8400000e+003    +1.6796665e-004
+3.8560000e+003    +1.8785935e-004
+3.8720000e+003    +1.8648738e-004
+3.8880000e+003    +1.6784102e-004
+3.9040000e+003    +1.3544857e-004
+3.9200000e+003    +2.7405343e-004
+3.9360000e+003    +1.4246580e-004
+3.9520000e+003    +2.3557668e-005
+3.9680000e+003    +6.4940803e-005
+3.9840000e+003    +1.0312554e-004
+4.0000000e+003    +1.6186420e-004
+4.0160000e+003    +9.2615541e-005
+4.0320000e+003    +6.6788147e-005
+4.0480000e+003    +5.1141295e-005
+4.0640000e+003    +3.9384297e-005
+4.0800000e+003    +4.8835002e-005
+4.0960000e+003    +6.3763073e-005
+4.1120000e+003    +3.0655632e-005
+4.1280000e+003    +1.0304857e-004
+4.1440000e+003    +4.4343997e-005
+4.1600000e+003    +7.5071715e-005
+4.1760000e+003    +1.1673720e-004
+4.1920000e+003    +1.3554140e-004
+4.2080000e+003    +1.0712152e-004
+4.2240000e+003    +9.0109199e-005
+4.2400000e+003    +7.5232951e-005
+4.2560000e+003    +3.3844983e-005
+4.2720000e+003    +1.2504777e-004
+4.2880000e+003    +1.0336609e-004
+4.3040000e+003    +1.0333466e-004
+4.3200000e+003    +8.2312326e-005
+4.3360000e+003    +1.6027004e-004
+4.3520000e+003    +1.3597464e-004
+4.3680000e+003    +9.2459988e-005
+4.3840000e+003    +1.0199207e-004
+4.4000000e+003    +1.0144170e-004
+4.4160000e+003    +1.6589912e-004
+4.4320000e+003    +1.2448878e-004
+4.4480000e+003    +9.0305803e-005
+4.4640000e+003    +1.0455822e-004
+4.4800000e+003    +1.2144168e-004
+4.4960000e+003    +2.0622431e-004
+4.5120000e+003    +2.3067454e-004
+4.5280000e+003    +1.7981911e-004
+4.5440000e+003    +1.2055827e-004
+4.5600000e+003    +6.7467467e-006
+4.5760000e+003    +9.1957329e-005
+4.5920000e+003    +1.6519008e-004
+4.6080000e+003    +2.2554927e-004
+4.6240000e+003    +1.9484898e-004
+4.6400000e+003    +1.6419555e-004
+4.6560000e+003    +1.5196302e-004
+4.6720000e+003    +2.1443338e-004
+4.6880000e+003    +3.2321992e-004
+4.7040000e+003    +3.3202962e-004
+4.7200000e+003    +2.3687481e-004
+4.7360000e+003    +1.5614838e-004
+4.7520000e+003    +3.1251161e-004
+4.7680000e+003    +2.2515550e-004
+4.7840000e+003    +1.2785285e-004
+4.8000000e+003    +7.2604867e-005
+4.8160000e+003    +5.3704891e-005
+4.8320000e+003    +1.7368175e-004
+4.8480000e+003    +1.6271503e-004
+4.8640000e+003    +9.4117211e-005
+4.8800000e+003    +2.5070762e-005
+4.8960000e+003    +2.0014748e-004
+4.9120000e+003    +1.5440414e-004
+4.9280000e+003    +1.2957001e-004
+4.9440000e+003    +1.2504976e-004
+4.9600000e+003    +1.9316025e-004
+4.9760000e+003    +1.6379455e-004
+4.9920000e+003    +1.5928676e-004
+5.0080000e+003    +9.9062701e-005
+5.0240000e+003    +1.4184818e-004
+5.0400000e+003    +6.7957328e-005
+5.0560000e+003    +1.1676385e-004
+5.0720000e+003    +2.3058832e-004
+5.0880000e+003    +2.1254376e-004
+5.1040000e+003    +1.5438770e-004
+5.1200000e+003    +9.9519159e-005
+5.1360000e+003    +4.9568545e-005
+5.1520000e+003    +1.4231766e-004
+5.1680000e+003    +9.1403592e-005
+5.1840000e+003    +7.5090102e-005
+5.2000000e+003    +1.0418040e-004
+5.2160000e+003    +1.2567920e-004
+5.2320000e+003    +6.5189124e-005
+5.2480000e+003    +1.0921466e-004
+5.2640000e+003    +1.1155717e-004
+5.2800000e+003    +5.8270733e-005
+5.2960000e+003    +1.1782865e-004
+5.3120000e+003    +1.4457265e-004
+5.3280000e+003    +1.4079345e-004
+5.3440000e+003    +1.3497144e-004
+5.3600000e+003    +4.6126948e-005
+5.3760000e+003    +1.3574015e-004
+5.3920000e+003    +6.8527370e-005
+5.4080000e+003    +7.7544188e-005
+5.4240000e+003    +1.2931164e-004
+5.4400000e+003    +1.5413991e-004
+5.4560000e+003    +2.9862032e-004
+5.4720000e+003    +3.0164409e-004
+5.4880000e+003    +1.5768700e-004
+5.5040000e+003    +6.7758774e-005
+5.5200000e+003    +1.2820956e-004
+5.5360000e+003    +1.2787631e-004
+5.5520000e+003    +1.0780083e-004
+5.5680000e+003    +2.9694485e-005
+5.5840000e+003    +1.3848126e-004
+5.6000000e+003    +1.4722947e-004
+5.6160000e+003    +1.4034795e-004
+5.6320000e+003    +1.9687903e-004
+5.6480000e+003    +4.3481377e-005
+5.6640000e+003    +1.0024421e-004
+5.6800000e+003    +2.6975040e-004
+5.6960000e+003    +4.0681587e-004
+5.7120000e+003    +3.5915989e-004
+5.7280000e+003    +1.3481919e-004
+5.7440000e+003    +1.9388055e-004
+5.7600000e+003    +1.7148598e-004
+5.7760000e+003    +1.2696518e-004
+5.7920000e+003    +1.9988076e-004
+5.8080000e+003    +9.7132441e-005
+5.8240000e+003    +5.3904270e-005
+5.8400000e+003    +9.8038880e-005
+5.8560000e+003    +9.7850578e-005
+5.8720000e+003    +1.1065932e-004
+5.8880000e+003    +1.6480159e-004
+5.9040000e+003    +9.5599869e-005
+5.9200000e+003    +8.6451560e-005
+5.9360000e+003    +1.5789436e-004
+5.9520000e+003    +1.6324919e-004
+5.9680000e+003    +5.3630236e-005
+5.9840000e+003    +7.8209414e-005
+6.0000000e+003    +9.4103365e-005
+6.0160000e+003    +3.4699427e-005
+6.0320000e+003    +1.8986754e-004
+6.0480000e+003    +2.6901392e-004
+6.0640000e+003    +2.1337499e-004
+6.0800000e+003    +2.9699440e-004
+6.0960000e+003    +1.5771695e-004
+6.1120000e+003    +8.9919246e-005
+6.1280000e+003    +7.7900891e-005
+6.1440000e+003    +1.8647376e-004
+6.1600000e+003    +1.0229913e-004
+6.1760000e+003    +4.2214167e-005
+6.1920000e+003    +9.2271861e-005
+6.2080000e+003    +1.8888726e-004
+6.2240000e+003    +1.8565181e-004
+6.2400000e+003    +1.4522007e-004
+6.2560000e+003    +8.6559929e-005
+6.2720000e+003    +7.9329213e-005
+6.2880000e+003    +1.0291628e-004
+6.3040000e+003    +1.4677930e-004
+6.3200000e+003    +1.4627278e-004
+6.3360000e+003    +1.0447393e-004
+6.3520000e+003    +1.2353336e-004
+6.3680000e+003    +8.3977022e-005
+6.3840000e+003    +1.3818161e-004
+6.4000000e+003    +1.8589840e-004
+6.4160000e+003    +1.8046786e-004
+6.4320000e+003    +4.1840402e-005
+6.4480000e+003    +9.2029339e-005
+6.4640000e+003    +1.3243720e-004
+6.4800000e+003    +1.0337171e-004
+6.4960000e+003    +8.1588187e-005
+6.5120000e+003    +4.1986790e-005
+6.5280000e+003    +2.1842918e-005
+6.5440000e+003    +5.7287827e-005
+6.5600000e+003    +6.0857707e-005
+6.5760000e+003    +7.0389819e-005
+6.5920000e+003    +1.3715535e-004
+6.6080000e+003    +1.2196421e-004
+6.6240000e+003    +1.1985718e-004
+6.6400000e+003    +1.4614765e-004
+6.6560000e+003    +1.8002535e-004
+6.6720000e+003    +1.4662444e-004
+6.6880000e+003    +1.5768647e-004
+6.7040000e+003    +1.9886778e-004
+6.7200000e+003    +1.3244397e-004
+6.7360000e+003    +1.4970465e-004
+6.7520000e+003    +1.9507931e-004
+6.7680000e+003    +2.3029356e-004
+6.7840000e+003    +2.3266902e-004
+6.8000000e+003    +1.8541621e-004
+6.8160000e+003    +2.2637569e-004
+6.8320000e+003    +2.2755614e-004
+6.8480000e+003    +2.1067311e-004
+6.8640000e+003    +1.9318973e-004
+6.8800000e+003    +2.8696048e-004
+6.8960000e+003    +2.5700140e-004
+6.9120000e+003    +1.8463054e-004
+6.9280000e+003    +1.3521432e-004
+6.9440000e+003    +1.2526062e-004
+6.9600000e+003    +1.0758722e-004
+6.9760000e+003    +1.1603672e-004
+6.9920000e+003    +1.4719390e-004
+7.0080000e+003    +4.6740821e-005
+7.0240000e+003    +1.1549614e-004
+7.0400000e+003    +1.5272399e-004
+7.0560000e+003    +5.8465554e-005
+7.0720000e+003    +1.4521058e-004
+7.0880000e+003    +1.9061564e-004
+7.1040000e+003    +2.6670058e-004
+7.1200000e+003    +2.5980035e-004
+7.1360000e+003    +1.9413381e-004
+7.1520000e+003    +1.9745920e-004
+7.1680000e+003    +1.6877848e-004
+7.1840000e+003    +8.1142491e-005
+7.2000000e+003    +2.0445642e-004
+7.2160000e+003    +1.0776817e-004
+7.2320000e+003    +7.7105935e-005
+7.2480000e+003    +7.6364689e-005
+7.2640000e+003    +1.2185767e-004
+7.2800000e+003    +1.1572310e-004
+7.2960000e+003    +9.2401126e-005
+7.3120000e+003    +1.3862351e-004
+7.3280000e+003    +1.1492640e-004
+7.3440000e+003    +6.4375781e-005
+7.3600000e+003    +1.5716888e-004
+7.3760000e+003    +1.3509479e-004
+7.3920000e+003    +5.2283736e-005
+7.4080000e+003    +1.8054634e-004
+7.4240000e+003    +1.9812907e-004
+7.4400000e+003    +2.3032656e-004
+7.4560000e+003    +2.2427246e-004
+7.4720000e+003    +1.4340412e-004
+7.4880000e+003    +1.0417445e-004
+7.5040000e+003    +1.0050397e-004
+7.5200000e+003    +1.4168341e-004
+7.5360000e+003    +1.4876912e-004
+7.5520000e+003    +1.1210394e-004
+7.5680000e+003    +1.0362267e-004
+7.5840000e+003    +1.6706945e-004
+7.6000000e+003    +2.2285247e-004
+7.6160000e+003    +1.4710319e-004
+7.6320000e+003    +1.0410996e-004
+7.6480000e+003    +1.7051680e-004
+7.6640000e+003    +2.2042278e-004
+7.6800000e+003    +2.0420011e-004
+7.6960000e+003    +1.3723331e-004
+7.7120000e+003    +2.5089073e-004
+7.7280000e+003    +2.1741133e-004
+7.7440000e+003    +1.9507309e-004
+7.7600000e+003    +1.8645001e-004
+7.7760000e+003    +3.0667987e-005
+7.7920000e+003    +9.2916518e-005
+7.8080000e+003    +2.0406261e-004
+7.8240000e+003    +2.7098649e-004
+7.8400000e+003    +1.5210306e-004
+7.8560000e+003    +7.1857641e-005
+7.8720000e+003    +1.4208176e-004
+7.8880000e+003    +1.6072865e-004
+7.9040000e+003    +1.2672287e-004
+7.9200000e+003    +1.3648880e-004
+7.9360000e+003    +2.3983227e-004
+7.9520000e+003    +3.3140791e-004
+7.9680000e+003    +2.3161140e-004
+7.9840000e+003    +2.1340346e-004
+8.0000000e+003    +2.2719815e-004
+8.0160000e+003    +1.8468569e-004
+8.0320000e+003    +1.0771700e-004
+8.0480000e+003    +6.4317632e-005
+8.0640000e+003    +1.5534305e-004
+8.0800000e+003    +1.5761307e-004
+8.0960000e+003    +1.0258702e-004
+8.1120000e+003    +1.3411642e-004
+8.1280000e+003    +2.2083701e-004
+8.1440000e+003    +3.0391963e-004
+8.1600000e+003    +3.1644537e-004
+8.1760000e+003    +2.3877143e-004
+8.1920000e+003    +1.2437135e-004
+8.2080000e+003    +1.3015095e-004
+8.2240000e+003    +1.6331553e-004
+8.2400000e+003    +1.4347333e-004
+8.2560000e+003    +1.7846657e-004
+8.2720000e+003    +2.1983981e-004
+8.2880000e+003    +1.8461970e-004
+8.3040000e+003    +1.6306585e-004
+8.3200000e+003    +2.1049740e-004
+8.3360000e+003    +1.7420285e-004
+8.3520000e+003    +2.6433732e-004
+8.3680000e+003    +2.2349176e-004
+8.3840000e+003    +2.9994078e-005
+8.4000000e+003    +1.6812921e-004
+8.4160000e+003    +1.3541957e-004
+8.4320000e+003    +9.1332164e-005
+8.4480000e+003    +1.3710762e-004
+8.4640000e+003    +1.7144183e-004
+8.4800000e+003    +7.5296579e-005
+8.4960000e+003    +1.8365885e-005
+8.5120000e+003    +1.2486392e-004
+8.5280000e+003    +2.2337437e-004
+8.5440000e+003    +2.3727097e-004
+8.5600000e+003    +1.5046373e-004
+8.5760000e+003    +3.6845002e-005
+8.5920000e+003    +1.5248942e-004
+8.6080000e+003    +2.1623341e-004
+8.6240000e+003    +1.3343123e-004
+8.6400000e+003    +8.5507832e-005
+8.6560000e+003    +2.5704937e-004
+8.6720000e+003    +2.0584800e-004
+8.6880000e+003    +2.2075156e-004
+8.7040000e+003    +2.0339112e-004
+8.7200000e+003    +1.1711103e-004
+8.7360000e+003    +1.2361945e-004
+8.7520000e+003    +8.1750667e-003
+8.7680000e+003    +5.3302962e-003
+8.7840000e+003    +1.1702172e-002
+8.8000000e+003    +7.8333430e-003
+8.8160000e+003    +2.0350178e-003
+8.8320000e+003    +4.0159859e-005
+8.8480000e+003    +4.0742827e-005
+8.8640000e+003    +6.8781250e-005
+8.8800000e+003    +1.0045173e-004
+8.8960000e+003    +2.1367004e-004
+8.9120000e+003    +1.3040686e-004
+8.9280000e+003    +1.5498298e-004
+8.9440000e+003    +1.9327427e-004
+8.9600000e+003    +1.7249172e-004
+8.9760000e+003    +1.6015333e-004
+8.9920000e+003    +1.7487943e-004
+9.0080000e+003    +1.2086934e-004
+9.0240000e+003    +7.7110766e-005
+9.0400000e+003    +2.2480042e-004
+9.0560000e+003    +2.7216072e-004
+9.0720000e+003    +1.9338986e-004
+9.0880000e+003    +8.9597474e-005
+9.1040000e+003    +2.0533649e-004
+9.1200000e+003    +2.1237068e-004
+9.1360000e+003    +2.1082525e-004
+9.1520000e+003    +2.1814936e-004
+9.1680000e+003    +1.7327881e-004
+9.1840000e+003    +1.1721240e-004
+9.2000000e+003    +9.5312906e-005
+9.2160000e+003    +1.0767450e-004
+9.2320000e+003    +8.2474260e-005
+9.2480000e+003    +2.9740360e-004
+9.2640000e+003    +2.5658763e-004
+9.2800000e+003    +1.8949267e-004
+9.2960000e+003    +8.3536710e-005
+9.3120000e+003    +6.3071417e-004
+9.3280000e+003    +1.8421230e-004
+9.3440000e+003    +4.1406092e-004
+9.3600000e+003    +6.9383450e-004
+9.3760000e+003    +3.4863600e-003
+9.3920000e+003    +4.8881592e-003
+9.4080000e+003    +5.8557098e-003
+9.4240000e+003    +7.3972582e-003
+9.4400000e+003    +4.8382796e-004
+9.4560000e+003    +5.4060272e-004
+9.4720000e+003    +4.1624039e-004
+9.4880000e+003    +3.7603331e-004
+9.5040000e+003    +1.0317820e-004
+9.5200000e+003    +1.2487866e-004
+9.5360000e+003    +9.0033049e-005
+9.5520000e+003    +8.9651010e-005
+9.5680000e+003    +1.3182462e-004
+9.5840000e+003    +1.9826562e-004
+9.6000000e+003    +2.5568012e-004
+9.6160000e+003    +4.5373141e-005
+9.6320000e+003    +1.8200005e-004
+9.6480000e+003    +2.3202984e-004
+9.6640000e+003    +1.3149230e-004
+9.6800000e+003    +1.0164628e-004
+9.6960000e+003    +1.0613326e-004
+9.7120000e+003    +8.7077919e-005
+9.7280000e+003    +2.9308965e-005
+9.7440000e+003    +2.1805453e-004
+9.7600000e+003    +2.3326180e-004
+9.7760000e+003    +2.5438017e-004
+9.7920000e+003    +1.7715269e-004
+9.8080000e+003    +2.6528488e-004
+9.8240000e+003    +1.8284639e-004
+9.8400000e+003    +6.3457032e-005
+9.8560000e+003    +9.9056611e-005
+9.8720000e+003    +8.7321576e-005
+9.8880000e+003    +1.3918841e-004
+9.9040000e+003    +1.1544613e-004
+9.9200000e+003    +9.3459610e-005
+9.9360000e+003    +1.6637413e-004
+9.9520000e+003    +4.0340787e-005
+9.9680000e+003    +1.3939434e-004
+9.9840000e+003    +3.0175754e-004
+1.0000000e+004    +1.8080155e-004
+1.0016000e+004    +1.2654955e-004
+1.0032000e+004    +3.2969667e-005
+1.0048000e+004    +1.8717806e-004
+1.0064000e+004    +1.4995552e-004
+1.0080000e+004    +9.8728589e-005
+1.0096000e+004    +1.4922906e-004
+1.0112000e+004    +1.9811341e-004
+1.0128000e+004    +6.5124237e-005
+1.0144000e+004    +1.0947375e-004
+1.0160000e+004    +1.6196900e-004
+1.0176000e+004    +1.2189835e-004
+1.0192000e+004    +4.3674532e-005
+1.0208000e+004    +7.8484343e-005
+1.0224000e+004    +2.6245767e-005
+1.0240000e+004    +8.6733358e-005
+1.0256000e+004    +2.0167241e-005
+1.0272000e+004    +8.4562749e-003
+1.0288000e+004    +6.6233226e-003
+1.0304000e+004    +4.4509163e-003
+1.0320000e+004    +4.6825781e-003
+1.0336000e+004    +2.0756070e-003
+1.0352000e+004    +2.8398084e-003
+1.0368000e+004    +1.6575784e-003
+1.0384000e+004    +4.2608273e-003
+1.0400000e+004    +2.7335067e-003
+1.0416000e+004    +3.1553064e-003
+1.0432000e+004    +3.3484637e-003
+1.0448000e+004    +6.1015571e-003
+1.0464000e+004    +1.7776313e-003
+1.0480000e+004    +1.3473328e-003
+1.0496000e+004    +6.3981739e-004
+1.0512000e+004    +3.6211198e-004
+1.0528000e+004    +9.1981457e-004
+1.0544000e+004    +1.2116518e-006
+1.0560000e+004    +1.2129909e-006
+1.0576000e+004    +1.2145355e-006
+1.0592000e+004    +1.2163169e-006
+1.0608000e+004    +4.6848971e-003
+1.0624000e+004    +7.2819861e-003
+1.0640000e+004    +1.2046945e-002
+1.0656000e+004    +1.8124010e-002
+1.0672000e+004    +3.2653974e-003
+1.0688000e+004    +2.9523745e-003
+1.0704000e+004    +2.5385534e-003
+1.0720000e+004    +2.1323788e-003
+1.0736000e+004    +1.7996675e-003
+1.0752000e+004    +1.2612966e-004
+1.0768000e+004    +2.0485235e-004
+1.0784000e+004    +2.5581464e-004
+1.0800000e+004    +2.4117556e-004
+1.0816000e+004    +9.7867771e-005
+1.0832000e+004    +5.2309806e-005
+1.0848000e+004    +3.3490447e-005
+1.0864000e+004    +2.5394651e-005
+1.0880000e+004    +5.8822523e-005
+1.0896000e+004    +1.3760387e-004
+1.0912000e+004    +1.2219677e-004
+1.0928000e+004    +7.5024996e-005
+1.0944000e+004    +2.7377027e-004
+1.0960000e+004    +2.5530381e-004
+1.0976000e+004    +2.0699209e-004
+1.0992000e+004    +1.1165913e-004
+1.1008000e+004    +8.2955039e-006
+1.1024000e+004    +4.8289126e-005
+1.1040000e+004    +6.8467132e-005
+1.1056000e+004    +8.3735249e-005
+1.1072000e+004    +2.1273287e-005
+1.1088000e+004    +8.9084060e-005
+1.1104000e+004    +6.5626038e-005
+1.1120000e+004    +1.0458629e-004
+1.1136000e+004    +1.4626386e-004
+1.1152000e+004    +1.5455145e-004
+1.1168000e+004    +1.8260023e-004
+1.1184000e+004    +1.9513532e-004
+1.1200000e+004    +2.3898717e-004
+1.1216000e+004    +6.8770452e-005
+1.1232000e+004    +1.1646796e-004
+1.1248000e+004    +1.3922012e-004
+1.1264000e+004    +9.7093303e-005
+1.1280000e+004    +1.1313916e-004
+1.1296000e+004    +1.7760687e-004
+1.1312000e+004    +1.1570194e-004
+1.1328000e+004    +9.0120184e-006
+1.1344000e+004    +9.8031131e-005
+1.1360000e+004    +1.5470035e-004
+1.1376000e+004    +1.3882983e-004
+1.1392000e+004    +1.1641196e-004
+1.1408000e+004    +3.2191889e-004
+1.1424000e+004    +3.6072489e-004
+1.1440000e+004    +4.4521576e-004
+1.1456000e+004    +3.9804043e-004
+1.1472000e+004    +2.6288017e-004
+1.1488000e+004    +2.2580450e-004
+1.1504000e+004    +1.0725097e-004
+1.1520000e+004    +1.8041507e-004
+1.1536000e+004    +2.7371375e-004
+1.1552000e+004    +1.2338966e-004
+1.1568000e+004    +5.5644454e-005
+1.1584000e+004    +1.4373886e-004
+1.1600000e+004    +1.8406451e-004
+1.1616000e+004    +9.7051103e-005
+1.1632000e+004    +1.0610885e-004
+1.1648000e+004    +6.2939878e-005
+1.1664000e+004    +1.1821202e-004
+1.1680000e+004    +9.1851376e-005
+1.1696000e+004    +2.6417759e-004
+1.1712000e+004    +2.6115438e-004
+1.1728000e+004    +1.9622849e-004
+1.1744000e+004    +2.4331878e-004
+1.1760000e+004    +7.1996554e-005
+1.1776000e+004    +6.8841611e-005
+1.1792000e+004    +5.5372879e-005
+1.1808000e+004    +5.2796047e-005
+1.1824000e+004    +1.3476856e-004
+1.1840000e+004    +8.4017600e-005
+1.1856000e+004    +7.4097479e-005
+1.1872000e+004    +1.1059877e-004
+1.1888000e+004    +3.9089242e-005
+1.1904000e+004    +1.2340152e-004
+1.1920000e+004    +1.8351241e-004
+1.1936000e+004    +1.5376938e-004
+1.1952000e+004    +1.3613381e-004
+1.1968000e+004    +3.3126530e-004
+1.1984000e+004    +2.3248528e-004
+1.2000000e+004    +1.0608450e-004
+1.2016000e+004    +6.6880682e-005
+1.2032000e+004    +2.0056753e-004
+1.2048000e+004    +2.3550556e-004
+1.2064000e+004    +1.0889299e-004
+1.2080000e+004    +7.3624527e-005
+1.2096000e+004    +1.6687467e-004
+1.2112000e+004    +4.4144876e-005
+1.2128000e+004    +1.7287623e-004
+1.2144000e+004    +1.9977929e-004
+1.2160000e+004    +8.8935027e-005
+1.2176000e+004    +7.9686950e-005
+1.2192000e+004    +6.4446926e-005
+1.2208000e+004    +5.9514648e-005
+1.2224000e+004    +9.0967878e-005
+1.2240000e+004    +1.0581753e-004
+1.2256000e+004    +4.4604999e-004
+1.2272000e+004    +3.1995020e-004
+1.2288000e+004    +1.0640331e-004
+1.2304000e+004    +4.3867298e-005
+1.2320000e+004    +4.1770312e-005
+1.2336000e+004    +1.0520233e-004
+1.2352000e+004    +7.6264812e-005
+1.2368000e+004    +8.0458150e-005
+1.2384000e+004    +2.2168498e-004
+1.2400000e+004    +1.1266847e-004
+1.2416000e+004    +1.6137594e-004
+1.2432000e+004    +2.1143620e-004
+1.2448000e+004    +2.3593752e-004
+1.2464000e+004    +1.4663942e-004
+1.2480000e+004    +2.9685945e-004
+1.2496000e+004    +1.6334852e-004
+1.2512000e+004    +2.2179296e-005
+1.2528000e+004    +1.3023629e-004
+1.2544000e+004    +2.9325124e-004
+1.2560000e+004    +3.8461125e-004
+1.2576000e+004    +3.2734851e-004
+1.2592000e+004    +2.0516523e-004
+1.2608000e+004    +1.6884354e-004
+1.2624000e+004    +7.7368233e-005
+1.2640000e+004    +2.3279550e-004
+1.2656000e+004    +2.9413318e-004
+1.2672000e+004    +2.1236100e-004
+1.2688000e+004    +2.5699250e-004
+1.2704000e+004    +3.5468774e-004
+1.2720000e+004    +2.2950777e-004
+1.2736000e+004    +2.2055302e-004
+1.2752000e+004    +3.6256015e-004
+1.2768000e+004    +3.8963222e-004
+1.2784000e+004    +2.9918741e-004
