# AG4395A Measurement - Timestamp: Oct 25 2017 - 15:11:58
# Parameter File: TF_AG_A_over_R.yml
#---------- Measurement Parameters ------------
# Start Frequency (Hz): 1000.0, 1000.0
# Stop Frequency (Hz): 100000000.0, 100000000.0
# Frequency Points: 801, 801
# Measurement Format: LINM, PHAS
# Measuremed Input: AR, AR
#---------- Analyzer Settings ----------
# Number of Averages: 1
# Auto Bandwidth: Off, Off
# IF Bandwidth: 300.0, 300.0
# Input Attenuators (R,A,B): 20dB 20dB 20dB 
# Excitation amplitude = -30.0dBm
#---------- Measurement Data ----------
# [Freq(Hz) Chan 1 Chan 2 ]
1000.0    304.3692    -56.28799
1016.676    302.7678    -57.14515
1033.352    303.5284    -58.36238
1050.028    301.7302    -59.75037
1066.704    301.3945    -60.83548
1083.38    300.8801    -62.01268
1100.056    299.945    -63.12384
1116.732    299.7148    -64.37037
1133.408    299.4403    -65.26646
1150.084    299.1615    -66.46501
1166.761    298.3514    -67.47233
1183.437    298.6759    -68.62134
1200.113    297.4024    -69.591
1216.789    297.0886    -70.51518
1233.465    297.0656    -71.54512
1250.141    296.6656    -72.51471
1266.817    296.3414    -73.52457
1283.493    295.4485    -74.44527
1300.169    294.5943    -75.33968
1316.845    294.4492    -76.38319
1333.521    294.6353    -77.14355
1352.851    293.3068    -78.24746
1375.242    293.2466    -79.49169
1397.633    293.5712    -80.59286
1420.024    293.4051    -81.82003
1442.415    292.6316    -82.93131
1464.806    291.9896    -84.03814
1487.197    291.816    -85.1144
1509.588    291.6933    -86.16122
1531.979    292.2688    -87.23707
1554.37    291.9138    -88.34389
1576.76    291.2036    -89.15871
1599.151    290.8504    -90.21989
1621.542    291.6035    -91.23064
1643.933    290.2215    -92.16899
1666.324    290.13    -93.10094
1688.715    291.0148    -94.27189
1711.106    289.9784    -94.93914
1733.497    290.2033    -95.8905
1755.888    290.0987    -96.75928
1778.279    290.7899    -97.52185
1804.056    289.6858    -98.58718
1833.915    290.563    -99.58749
1863.774    289.9405    -100.6609
1893.633    290.1858    -101.6192
1923.491    290.1565    -102.7678
1953.35    290.1277    -103.7976
1983.209    290.3143    -104.7979
2013.068    289.487    -105.7839
2042.927    289.7495    -106.5251
2072.786    289.6534    -107.6248
2102.644    290.7092    -108.3736
2132.503    290.1909    -109.3916
2162.362    290.0645    -110.1295
2192.221    290.1405    -111.1956
2222.08    289.5428    -111.9908
2251.939    289.998    -112.9635
2281.797    289.6646    -113.5181
2311.656    289.5363    -114.5265
2341.515    290.117    -115.1249
2371.374    289.8483    -116.0034
2405.747    288.807    -116.9298
2445.564    288.0076    -117.5654
2485.382    288.8478    -118.5022
2525.199    287.5013    -119.3601
2565.017    287.3012    -120.343
2604.834    286.1892    -121.275
2644.652    285.3167    -122.1897
2684.469    285.113    -122.8975
2724.286    284.253    -123.6378
2764.104    282.85    -124.4032
2803.921    284.0891    -125.0942
2843.739    282.3486    -125.8313
2883.556    281.2211    -126.6262
2923.373    280.7673    -127.1471
2963.191    278.8974    -127.9247
3003.008    277.7336    -128.5881
3042.826    277.4848    -129.2101
3082.643    276.1689    -129.7816
3122.461    275.7993    -130.3832
3162.278    276.2401    -130.9015
3208.116    273.6721    -131.4996
3261.213    272.1931    -132.3014
3314.311    273.0822    -132.9439
3367.408    270.7455    -133.7703
3420.505    269.7891    -134.3321
3473.603    269.0309    -134.7842
3526.7    266.2166    -135.3722
3579.797    264.4746    -135.8603
3632.895    263.7176    -136.4169
3685.992    261.0872    -136.9596
3739.089    261.0437    -137.2491
3792.186    260.2368    -137.7064
3845.284    257.1364    -138.3437
3898.381    256.1587    -138.6169
3951.478    254.5853    -138.9114
4004.576    251.0387    -139.4016
4057.673    249.9534    -139.6766
4110.77    248.8288    -139.9664
4163.868    245.0787    -140.3723
4216.965    246.1636    -140.5714
4278.091    242.6731    -140.8453
4348.897    239.1225    -141.3227
4419.704    237.6514    -141.3607
4490.51    236.5025    -141.5194
4561.317    231.3256    -141.7883
4632.123    230.3667    -142.0361
4702.93    228.8277    -142.3159
4773.736    223.2542    -142.4484
4844.542    221.9458    -142.3836
4915.349    219.1977    -142.6467
4986.155    213.6597    -142.6271
5056.962    214.5073    -142.4722
5127.768    211.8718    -142.5326
5198.574    206.9109    -142.5774
5269.381    205.8094    -142.5827
5340.187    203.6003    -142.678
5410.994    201.7919    -143.2465
5481.8    203.1668    -143.4887
5552.607    203.1712    -143.9145
5623.413    202.7825    -144.4316
5704.926    204.3018    -144.853
5799.348    205.4321    -145.5867
5893.77    204.3443    -146.3299
5988.192    208.4083    -146.7305
6082.614    209.0109    -147.3295
6177.035    208.5717    -148.0774
6271.457    211.894    -148.4151
6365.879    210.9173    -149.1876
6460.301    211.2007    -150.0403
6554.723    214.6183    -150.3217
6649.145    214.9789    -150.9359
6743.567    215.1649    -151.6549
6837.989    220.2532    -151.8974
6932.411    219.8799    -152.6195
7026.833    220.8258    -153.3473
7121.254    225.0646    -153.5654
7215.676    223.5354    -154.7383
7310.098    225.4884    -155.3134
7404.52    228.7301    -155.8582
7498.942    228.1856    -156.7892
7607.641    230.8405    -157.5837
7733.555    235.6934    -158.11
7859.468    234.2592    -158.3423
7985.382    234.7728    -158.4725
8111.296    239.9963    -158.0253
8237.209    237.4578    -158.24
8363.123    238.7831    -158.1017
8489.036    243.247    -157.6388
8614.95    238.7712    -157.9334
8740.864    240.1815    -157.5835
8866.777    243.1607    -157.2635
8992.691    239.2935    -157.5748
9118.605    243.7266    -156.9804
9244.518    247.3799    -156.6369
9370.432    243.9337    -156.9078
9496.345    246.7474    -156.6525
9622.259    250.2224    -156.3177
9748.173    245.1166    -156.6112
9874.086    250.9412    -156.2314
10000.0    251.9995    -156.0134
10144.952    249.6746    -156.1479
10312.861    254.1138    -155.859
10480.769    258.0177    -155.4349
10648.678    253.4239    -155.7504
10816.586    258.1511    -155.3038
10984.495    261.7329    -154.9248
11152.403    260.4575    -154.9904
11320.312    262.3156    -154.8377
11488.22    260.9608    -154.6183
11656.129    258.9185    -154.7018
11824.037    262.5909    -154.4406
11991.946    262.5764    -154.2428
12159.854    258.919    -154.4363
12327.763    259.152    -154.3845
12495.671    260.3448    -153.9828
12663.58    261.1189    -153.9857
12831.488    257.9477    -154.0157
12999.397    255.5472    -153.5835
13167.305    255.7004    -153.5693
13335.214    256.1737    -153.4661
13528.511    252.2642    -153.0596
13752.421    252.9342    -152.9327
13976.33    251.6046    -152.8777
14200.24    250.0854    -152.3167
14424.15    248.5445    -152.0896
14648.059    239.3152    -151.6001
14871.969    245.0059    -151.4389
15095.878    244.3692    -151.2701
15319.788    233.4426    -150.5195
15543.698    238.0537    -149.934
15767.607    238.0792    -149.9159
15991.517    234.5627    -149.4944
16215.427    237.2174    -148.7989
16439.336    228.8089    -148.4267
16663.246    224.0515    -147.815
16887.155    233.2263    -147.9008
17111.065    228.0547    -147.4941
17334.975    221.7481    -146.4859
17558.884    229.3614    -146.3018
17782.794    224.284    -146.1332
18040.559    216.2995    -145.1255
18339.147    223.2917    -144.57
18637.736    221.5643    -144.3707
18936.324    219.2236    -143.7772
19234.912    224.1098    -143.0261
19533.501    210.776    -142.3499
19832.089    210.1967    -141.9614
20130.677    220.1904    -141.6931
20429.266    212.4513    -141.2243
20727.854    207.6968    -140.3417
21026.442    211.0574    -139.8899
21325.03    208.7312    -139.6257
21623.619    209.8611    -139.0982
21922.207    208.0001    -138.6068
22220.795    196.5965    -138.1195
22519.384    200.2963    -137.7256
22817.972    205.2807    -137.4638
23116.56    196.0222    -137.0481
23415.149    192.7265    -136.4241
23713.737    193.3638    -136.1793
24057.473    192.1034    -135.9502
24455.647    186.0606    -135.3089
24853.821    183.0981    -134.912
25251.995    184.4414    -134.6096
25650.169    182.8179    -134.1967
26048.342    174.7008    -133.8304
26446.516    168.9438    -133.3866
26844.69    170.2083    -133.122
27242.864    168.9709    -132.925
27641.038    164.3915    -132.548
28039.212    157.0497    -132.1474
28437.386    154.4171    -131.8735
28835.56    155.7181    -131.6681
29233.734    151.5136    -131.2946
29631.908    145.3215    -130.959
30030.081    145.0692    -130.6791
30428.255    143.3969    -130.5613
30826.429    140.9589    -130.3046
31224.603    138.2559    -129.9065
31622.777    133.0636    -129.6131
32081.155    132.831    -129.4974
32612.128    129.7868    -129.0255
33143.102    124.6822    -128.6246
33674.075    122.4906    -128.3634
34205.049    121.1698    -128.0099
34736.022    116.3727    -127.6355
35266.996    113.7615    -127.3017
35797.969    113.2822    -126.9763
36328.942    110.6742    -126.7731
36859.916    108.3662    -126.4994
37390.889    106.4127    -126.096
37921.863    103.0488    -125.7921
38452.836    101.7786    -125.5693
38983.809    100.1155    -125.2769
39514.783    96.47074    -124.9008
40045.756    95.52301    -124.5796
40576.73    94.64648    -124.3751
41107.703    92.58745    -124.1482
41638.677    91.14566    -123.8457
42169.65    89.18782    -123.52
42780.908    87.44328    -123.3017
43488.972    85.65135    -122.9526
44197.037    83.85443    -122.5402
44905.101    81.32329    -122.2047
45613.166    79.93945    -121.94
46321.23    78.41266    -121.6625
47029.295    76.02222    -121.2234
47737.359    74.9533    -120.8917
48445.424    73.80119    -120.6636
49153.488    72.0691    -120.4123
49861.553    70.86797    -120.1204
50569.617    69.33765    -119.7359
51277.682    67.78081    -119.5374
51985.746    66.83141    -119.2251
52693.811    65.48682    -118.9303
53401.875    64.07598    -118.6424
54109.94    63.42433    -118.3425
54818.004    62.10027    -118.1681
55526.069    60.98833    -117.9075
56234.133    60.20298    -117.6049
57049.258    58.94073    -117.3425
57993.477    57.51207    -117.0233
58937.696    56.47424    -116.6587
59881.915    55.00867    -116.3264
60826.134    53.72926    -116.0327
61770.354    52.8959    -115.7422
62714.573    51.63742    -115.3732
63658.792    50.42442    -115.0752
64603.011    49.88112    -114.7867
65547.23    48.74868    -114.5313
66491.449    47.77889    -114.2674
67435.668    47.10148    -113.9671
68379.887    45.89254    -113.6787
69324.106    45.1002    -113.4229
70268.325    44.42954    -113.1325
71212.545    43.34051    -112.8362
72156.764    42.70494    -112.5346
73100.983    42.21957    -112.2785
74045.202    41.30058    -112.0897
74989.421    40.66955    -111.8035
76076.408    40.00238    -111.4797
77335.544    38.95427    -111.1767
78594.681    38.12775    -110.8465
79853.817    37.47331    -110.4773
81112.954    36.38769    -110.1598
82372.09    35.73464    -109.8631
83631.227    35.10403    -109.5304
84890.363    34.14223    -109.1633
86149.499    33.63038    -108.7649
87408.636    33.09314    -108.5333
88667.772    32.31068    -108.2627
89926.909    31.77394    -107.9406
91186.045    31.14271    -107.5626
92445.181    30.43726    -107.2543
93704.318    29.99225    -106.9759
94963.454    29.43977    -106.6464
96222.591    28.73319    -106.2563
97481.727    28.46888    -105.9583
98740.864    27.92665    -105.731
100000.0    27.37808    -105.3972
101449.521    26.88285    -104.939
103128.606    26.32444    -104.5943
104807.692    25.65103    -104.1412
106486.777    25.1775    -103.7461
108165.862    24.55696    -103.2348
109844.948    23.93556    -102.845
111524.033    23.56534    -102.4433
113203.119    23.04382    -101.9792
114882.204    22.47367    -101.4989
116561.289    22.19265    -101.0714
118240.375    21.69835    -100.7068
119919.46    21.23556    -100.2648
121598.545    20.92479    -99.76503
123277.631    20.40954    -99.26595
124956.716    20.01435    -98.85529
126635.802    19.73129    -98.40643
128314.887    19.28089    -97.86851
129993.972    18.97919    -97.39098
131673.058    18.72628    -96.98138
133352.143    18.31869    -96.50826
135285.11    17.8952    -95.90749
137524.206    17.62198    -95.26952
139763.303    17.17059    -94.69618
142002.399    16.7864    -94.09269
144241.495    16.52737    -93.37019
146480.592    16.05657    -92.60371
148719.688    15.7602    -92.0106
150958.785    15.47899    -91.36074
153197.881    15.11303    -90.59191
155436.977    14.8656    -89.89977
157676.074    14.65923    -89.21786
159915.17    14.32611    -88.59295
162154.266    14.10001    -87.9251
164393.363    13.86623    -87.14903
166632.459    13.55638    -86.397
168871.556    13.38179    -85.73949
171110.652    13.17987    -85.00951
173349.748    12.87148    -84.22358
175588.845    12.77246    -83.50277
177827.941    12.58944    -82.83492
180405.594    12.29706    -81.95638
183391.477    12.1166    -80.97089
186377.36    11.93748    -80.03394
189363.243    11.6775    -79.11961
192349.126    11.51604    -78.12756
195335.009    11.32312    -77.14347
198320.892    11.09276    -76.16525
201306.775    10.99025    -75.25905
204292.658    10.81719    -74.27325
207278.541    10.61002    -73.2265
210264.424    10.55754    -72.34776
213250.307    10.40632    -71.49083
216236.19    10.26689    -70.58279
219222.073    10.19933    -69.66113
222207.956    10.02827    -68.68713
225193.839    9.901854    -67.70723
228179.722    9.86306    -66.93848
231165.605    9.736883    -66.02257
234151.488    9.635697    -65.07008
237137.371    9.636818    -64.20064
240574.726    9.505254    -63.2674
244556.465    9.360198    -62.10567
248538.204    9.352349    -61.08118
252519.943    9.246878    -60.04692
256501.682    9.167314    -59.04665
260483.421    9.1429    -58.00977
264465.16    9.026071    -56.9782
268446.899    8.966809    -56.03039
272428.638    8.95424    -55.09932
276410.377    8.861154    -54.15245
280392.115    8.825283    -53.13704
284373.854    8.856246    -52.41562
288355.593    8.775659    -51.5549
292337.332    8.761268    -50.8048
296319.071    8.750819    -49.96424
300300.81    8.669471    -49.09757
304282.549    8.672048    -48.41158
308264.288    8.672916    -47.69753
312246.027    8.600246    -46.93816
316227.766    8.633159    -46.2487
320811.553    8.628166    -45.54438
326121.287    8.568644    -44.7007
331431.021    8.578803    -43.77664
336740.756    8.613647    -43.08435
342050.49    8.570986    -42.29234
347360.224    8.579078    -41.65035
352669.958    8.577993    -40.90614
357979.692    8.538005    -40.26484
363289.427    8.568538    -39.6648
368599.161    8.573054    -39.05038
373908.895    8.529081    -38.39266
379218.629    8.584148    -37.81621
384528.364    8.599237    -37.34043
389838.098    8.586741    -36.8233
395147.832    8.618883    -36.31017
400457.566    8.588058    -35.80399
405767.3    8.571655    -35.36225
411077.035    8.625291    -34.98938
416386.769    8.601848    -34.52782
421696.503    8.598328    -34.05263
427809.082    8.648097    -33.72527
434889.726    8.655562    -33.20124
441970.371    8.610061    -32.68307
449051.015    8.69206    -32.25139
456131.659    8.704395    -31.9191
463212.304    8.69962    -31.52328
470292.948    8.740444    -31.17474
477373.593    8.723392    -30.71085
484454.237    8.704666    -30.39062
491534.881    8.772881    -30.12376
498615.526    8.748761    -29.80062
505696.17    8.742985    -29.45262
512776.814    8.820951    -29.22256
519857.459    8.79968    -29.0014
526938.103    8.814037    -28.79988
534018.748    8.859317    -28.51898
541099.392    8.818336    -28.26021
548180.036    8.838797    -28.07628
555260.681    8.872027    -27.86048
562341.325    8.830956    -27.63291
570492.58    8.861094    -27.43154
579934.771    8.917761    -27.28252
589376.962    8.894743    -27.01619
598819.153    8.909793    -26.81603
608261.344    8.97504    -26.6398
617703.535    8.948861    -26.5359
627145.726    8.978434    -26.43085
636587.917    9.024984    -26.27325
646030.108    8.972878    -26.0902
655472.299    9.008101    -25.98865
664914.49    9.042572    -25.89881
674356.681    8.997142    -25.7712
683798.872    9.053465    -25.59366
693241.063    9.085695    -25.64497
702683.254    9.065948    -25.59229
712125.445    9.093592    -25.49827
721567.636    9.095408    -25.35373
731009.827    9.075251    -25.33737
740452.018    9.128611    -25.41397
749894.209    9.125116    -25.3414
760764.082    9.104864    -25.19544
773355.446    9.155947    -25.27909
785946.81    9.189173    -25.29594
798538.174    9.121418    -25.18168
811129.538    9.205019    -25.2631
823720.903    9.230012    -25.27742
836312.267    9.220208    -25.29225
848903.631    9.247263    -25.36853
861494.995    9.245102    -25.33603
874086.359    9.212172    -25.36402
886677.723    9.279405    -25.45306
899269.087    9.267068    -25.44892
911860.451    9.238029    -25.52071
924451.815    9.333775    -25.61526
937043.179    9.32131    -25.74722
949634.544    9.316492    -25.87343
962225.908    9.371689    -25.90666
974817.272    9.331566    -25.92646
987408.636    9.339544    -26.09052
1000000.0    9.384059    -26.19068
1014495.208    9.36682    -26.23504
1031286.062    9.371731    -26.47895
1048076.916    9.430528    -26.67037
1064867.77    9.428083    -26.8271
1081658.624    9.411727    -26.97928
1098449.477    9.494474    -27.19538
1115240.331    9.48567    -27.44602
1132031.185    9.496588    -27.73927
1148822.039    9.557031    -27.88783
1165612.893    9.506733    -28.05428
1182403.747    9.534251    -28.35362
1199194.601    9.590354    -28.70728
1215985.455    9.55664    -28.89698
1232776.309    9.607241    -29.16424
1249567.163    9.671453    -29.51089
1266358.016    9.657936    -29.89504
1283148.87    9.705235    -30.20968
1299939.724    9.747684    -30.58213
1316730.578    9.701883    -30.91319
1333521.432    9.781385    -31.38622
1352851.103    9.849693    -31.8631
1375242.067    9.823261    -32.43161
1397633.03    9.895034    -33.23029
1420023.994    9.98889    -34.02483
1442414.957    9.96934    -34.91052
1464805.921    10.08152    -35.94228
1487196.884    10.20109    -37.31602
1509587.848    10.25184    -38.83461
1531978.811    10.36324    -40.7009
1554369.775    10.44881    -43.04023
1576760.738    10.47315    -46.27211
1599151.702    10.55495    -50.86795
1621542.665    10.38068    -57.39812
1643933.629    9.585227    -67.04849
1666324.592    7.665315    -79.2456
1688715.556    4.446124    -80.81207
1711106.519    3.121901    -42.65429
1733497.483    4.410774    -20.5483
1755888.446    5.600952    -17.49954
1778279.41    6.419191    -18.47398
1804055.94    7.090964    -20.25458
1833914.77    7.5651    -22.13477
1863773.6    7.852185    -23.7271
1893632.429    8.148013    -25.21207
1923491.259    8.313512    -26.40052
1953350.089    8.400797    -27.40442
1983208.919    8.578518    -28.37606
2013067.749    8.667272    -29.32699
2042926.578    8.735567    -30.11549
2072785.408    8.832812    -30.86277
2102644.238    8.826208    -31.45018
2132503.068    8.873891    -32.19279
2162361.897    8.969287    -32.90984
2192220.727    8.960697    -33.44466
2222079.557    8.988027    -33.96393
2251938.387    9.091599    -34.67512
2281797.217    9.090508    -35.31173
2311656.046    9.129405    -35.89023
2341514.876    9.178259    -36.42784
2371373.706    9.126346    -36.82721
2405747.261    9.212912    -37.65415
2445564.65    9.272317    -38.37877
2485382.04    9.228491    -38.94433
2525199.429    9.267486    -39.69942
2565016.819    9.342868    -40.45036
2604834.208    9.302199    -41.00629
2644651.598    9.312407    -41.66607
2684468.987    9.408906    -42.47536
2724286.376    9.417912    -43.22351
2764103.766    9.437238    -43.87621
2803921.155    9.45425    -44.47503
2843738.545    9.414904    -45.12866
2883555.934    9.48708    -45.89699
2923373.323    9.521127    -46.52194
2963190.713    9.435025    -47.08748
3003008.102    9.513489    -47.83841
3042825.492    9.572252    -48.60843
3082642.881    9.562637    -49.29457
3122460.271    9.594975    -49.95983
3162277.66    9.561149    -50.52053
3208115.533    9.603626    -51.39728
3261212.875    9.630894    -52.28651
3314310.217    9.657164    -53.19184
3367407.559    9.606805    -53.94214
3420504.902    9.66029    -54.96806
3473602.244    9.713917    -55.93608
3526699.586    9.652257    -56.68417
3579796.928    9.690736    -57.63078
3632894.27    9.76496    -58.61817
3685991.612    9.75827    -59.55986
3739088.955    9.781013    -60.52589
3792186.297    9.788819    -61.32061
3845283.639    9.747773    -62.15814
3898380.981    9.810244    -63.25463
3951478.323    9.836868    -64.23912
4004575.665    9.776883    -64.95514
4057673.008    9.82448    -66.00714
4110770.35    9.872099    -66.99924
4163867.692    9.857428    -67.91656
4216965.034    9.877367    -68.89477
4278090.82    9.896003    -70.03294
4348897.264    9.889485    -71.23176
4419703.708    9.897558    -72.48651
4490510.151    9.922111    -73.74664
4561316.595    9.851503    -74.84338
4632123.039    9.889337    -76.17616
4702929.483    9.930255    -77.58206
4773735.927    9.861259    -78.66875
4844542.37    9.863559    -79.97781
4915348.814    9.921067    -81.382
4986155.258    9.904217    -82.63192
5056961.702    9.894594    -83.90893
5127768.145    9.900641    -85.18661
5198574.589    9.821915    -86.29193
5269381.033    9.847853    -87.64251
5340187.477    9.867202    -88.9463
5410993.921    9.787566    -90.06866
5481800.364    9.792384    -91.44296
5552606.808    9.812107    -92.76093
5623413.252    9.779365    -93.97909
5704925.797    9.7089    -95.37992
5799347.707    9.726565    -97.13425
5893769.618    9.691929    -98.71484
5988191.528    9.652116    -100.3132
6082613.438    9.620107    -101.9578
6177035.349    9.5245    -103.3969
6271457.259    9.491505    -104.9595
6365879.169    9.479662    -106.5494
6460301.08    9.387748    -107.9221
6554722.99    9.316325    -109.3854
6649144.9    9.307532    -110.8752
6743566.81    9.258291    -112.2161
6837988.721    9.209402    -113.6083
6932410.631    9.158393    -114.9192
7026832.541    9.067553    -116.0874
7121254.452    9.029902    -117.3479
7215676.362    9.010846    -118.6094
7310098.272    8.923155    -119.6722
7404520.183    8.866977    -120.7232
7498942.093    8.871063    -121.9013
7607640.819    8.834177    -123.1406
7733554.46    8.759444    -124.3063
7859468.101    8.761694    -125.5727
7985381.742    8.76289    -126.7886
8111295.383    8.758388    -127.946
8237209.025    8.783411    -128.9707
8363122.666    8.782401    -130.0704
8489036.307    8.809264    -131.1828
8614949.948    8.914787    -132.2502
8740863.589    8.975844    -133.3116
8866777.23    9.006331    -134.4421
8992690.871    9.164082    -135.4839
9118604.512    9.295388    -136.7159
9244518.153    9.43122    -137.9148
9370431.794    9.587953    -139.1398
9496345.436    9.727947    -140.447
9622259.077    9.886754    -141.8049
9748172.718    10.1227    -143.1955
9874086.359    10.32658    -144.7047
10000000.0    10.48657    -146.211
10144952.081    10.79885    -148.1128
10312860.62    11.1585    -150.3392
10480769.159    11.45201    -152.7173
10648677.698    11.83004    -155.1915
10816586.237    12.28263    -157.7791
10984494.776    12.68965    -160.5399
11152403.315    13.13623    -163.3693
11320311.854    13.61414    -166.2986
11488220.393    14.0256    -169.3341
11656128.932    14.53706    -172.4408
11824037.471    15.1124    -175.7189
11991946.01    15.59419    -179.025
12159854.549    16.11799    177.4487
12327763.088    16.81982    173.8119
12495671.627    17.41244    170.159
12663580.166    18.10065    166.367
12831488.705    18.78457    162.4437
12999397.244    19.36316    158.4069
13167305.783    20.08622    154.2599
13335214.322    20.95994    149.8836
13528511.028    21.7579    144.6992
13752420.663    22.74737    138.5874
13976330.299    23.97916    132.0702
14200239.934    25.01319    125.1613
14424149.569    25.93973    118.1845
14648059.205    27.1396    110.8709
14871968.84    28.19945    103.1891
15095878.476    29.07832    95.29462
15319788.111    29.94089    87.12743
15543697.746    30.6782    78.73312
15767607.382    31.10708    69.99091
15991517.017    31.56706    61.13514
16215426.652    31.73129    52.17517
16439336.288    31.43504    43.11412
16663245.923    31.16724    33.86393
16887155.559    30.71347    24.65514
17111065.194    29.92818    15.51605
17334974.829    28.99461    6.480125
17558884.465    27.8269    -2.430168
17782794.1    26.45447    -11.13185
18040559.401    25.0041    -21.02696
18339147.699    23.13331    -31.85742
18637735.996    21.07678    -42.22775
18936324.294    19.20636    -52.05446
19234912.592    17.46959    -61.30191
19533500.889    15.77458    -69.58733
19832089.187    14.32562    -77.89601
20130677.485    13.14331    -86.08163
20429265.782    11.93668    -94.24286
20727854.08    10.76304    -101.958
21026442.378    9.695932    -109.1089
21325030.676    8.702403    -115.9524
21623618.973    7.827121    -122.443
21922207.271    7.097975    -128.4328
22220795.569    6.425203    -134.0634
22519383.866    5.777431    -139.7583
22817972.164    5.27915    -145.0973
23116560.462    4.845009    -150.4377
23415148.759    4.440933    -156.0522
23713737.057    4.049125    -161.1826
24057472.609    3.644885    -166.9233
24455646.503    3.231358    -173.6617
24853820.398    2.864292    179.9785
25251994.292    2.551385    173.8868
25650168.186    2.254848    167.9202
26048342.081    2.010947    162.2069
26446515.975    1.797793    156.5255
26844689.87    1.591478    151.0117
27242863.764    1.422762    145.7013
27641037.658    1.277949    140.5293
28039211.553    1.137104    135.8366
28437385.447    1.023512    131.1613
28835559.341    0.9187211    126.2795
29233733.236    0.8186011    121.5838
29631907.13    0.7325057    117.0205
30030081.025    0.6596797    112.6683
30428254.919    0.587773    108.4814
30826428.813    0.5254337    104.4934
31224602.708    0.4731799    100.5447
31622776.602    0.4224847    96.85571
32081155.328    0.3695576    92.52496
32612128.75    0.3210392    88.2588
33143102.172    0.2753683    83.82594
33674075.594    0.2356299    79.96835
34205049.015    0.2000798    77.01315
34736022.437    0.169682    73.53231
35266995.859    0.1416118    71.37598
35797969.281    0.1190291    70.97388
36328942.703    0.09832465    72.37209
36859916.125    0.08364088    76.15874
37390889.546    0.07375351    81.45847
37921862.968    0.0647006    87.46384
38452836.39    0.06314635    96.70671
38983809.812    0.06614666    101.7536
39514783.234    0.06640657    104.2429
40045756.656    0.06860418    105.6147
40576730.077    0.06929593    107.9834
41107703.499    0.07330558    109.0451
41638676.921    0.07643255    109.6742
42169650.343    0.08141488    110.6598
42780908.199    0.08877176    107.0544
43488972.637    0.09402722    104.5294
44197037.075    0.1002289    101.1551
44905101.513    0.1053168    96.1918
45613165.951    0.1115817    92.0892
46321230.388    0.1176375    87.32389
47029294.826    0.1226914    81.63002
47737359.264    0.1269735    76.4557
48445423.702    0.1327381    72.51013
49153488.14    0.1411372    66.92615
49861552.578    0.1511472    67.05517
50569617.016    0.1496458    35.47638
51277681.454    0.1541346    37.53181
51985745.892    0.1593828    32.44343
52693810.33    0.1646102    25.99496
53401874.767    0.1670116    17.76221
54109939.205    0.1693047    10.38133
54818003.643    0.1689591    2.561394
55526068.081    0.1710765    -4.750568
56234132.519    0.1693415    -12.88314
57049257.97    0.1716986    -20.61605
57993477.073    0.1720411    -30.77236
58937696.177    0.1744429    -43.3673
59881915.28    0.1691539    -56.21017
60826134.383    0.1601808    -67.92858
61770353.487    0.144444    -80.4779
62714572.59    0.1345055    -90.99053
63658791.693    0.1219984    -101.6376
64603010.797    0.1089181    -111.1268
65547229.9    0.09641062    -120.0357
66491449.003    0.08011016    -128.0119
67435668.106    0.06908412    -134.0097
68379887.21    0.06003276    -137.614
69324106.313    0.05294641    -138.2118
70268325.416    0.04502845    -139.8287
71212544.52    0.04122356    -140.9687
72156763.623    0.0393137    -139.7628
73100982.726    0.03533383    -138.5737
74045201.83    0.03315104    -136.2562
74989420.933    0.03013717    -136.8496
76076408.193    0.03126595    -133.3394
77335544.604    0.03398329    -132.4793
78594681.015    0.03737755    -143.4564
79853817.426    0.02098938    -139.7858
81112953.837    0.02940929    -119.7223
82372090.247    0.03799881    -123.8225
83631226.658    0.04194158    -129.4704
84890363.069    0.04747247    -138.8602
86149499.48    0.04832684    -145.8911
87408635.891    0.04901503    -152.1871
88667772.302    0.05176605    -155.4622
89926908.713    0.05428148    -159.3468
91186045.124    0.05415869    -163.0027
92445181.535    0.05988328    -168.9595
93704317.946    0.06462055    -172.2711
94963454.356    0.06923793    -176.5755
96222590.767    0.07742532    -179.5805
97481727.178    0.08893688    175.7099
98740863.589    0.1048407    169.9481
100000000.0    0.1338613    167.0218
