# Comments from moku data file:% Moku:Phasemeter 
# 
# % Ch 1 - DC coupling, 50 Ohm impedance, 1 V range
# 
# % Ch 1 bandwidth = 1.0000000000e+04 (Hz)
# 
# % Acquisition rate: 1.5625000000e+04 Hz
# 
# % External 10 MHz clock
# 
# % Acquired 2020-02-12 T 17:32:37 -0800
# 
# % Time, Set frequency 1 (Hz), Frequency 1 (Hz), Phase 1 (cyc), I 1 (V), Q 1 (V)
# 
# #########################################################
# ASD calculated by mokuReadFreqNoise.py
# Frequency [Hz]         Freq ASD1 [Hz/rtHz]      Freq ASDlb1 [Hz/rtHz]    Freq ASDub1 [Hz/rtHz]    
# 
0.000000000000000000e+00 4.689672177783337759e+01 7.293093470833227343e+00 2.183399035679710778e+02
1.000000000000000056e-01 2.002448423877906691e+02 1.349189325556698691e+02 3.029000462893042709e+02
2.000000000000000111e-01 2.321940609577211205e+02 1.442465634716834018e+02 2.744909347868852478e+02
3.000000000000000444e-01 1.911689459860788247e+02 1.059287984849324999e+02 2.682206454267130766e+02
4.000000000000000222e-01 1.478246438598469013e+02 1.146733634846814880e+02 2.340741982542813844e+02
5.000000000000000000e-01 1.262053853935520351e+02 6.818621761140320814e+01 1.577610406553591815e+02
6.000000000000000888e-01 8.637479693435115280e+01 5.385804985729050287e+01 1.478237460521412459e+02
7.000000000000000666e-01 8.659362781635719841e+01 6.701551519821251190e+01 1.182012210350549566e+02
8.000000000000000444e-01 9.151606110394318705e+01 5.871606624578961231e+01 1.254950292678197599e+02
9.000000000000000222e-01 1.104309665694714795e+02 5.956419720452947075e+01 1.330248797773921297e+02
1.000000000000000000e+00 8.683841509199997688e+01 4.164676466708164071e+01 1.416614735520947761e+02
1.100000000000000089e+00 7.728497530284087702e+01 5.911094353818275238e+01 1.431889543539056717e+02
1.200000000000000178e+00 7.286282855178596662e+01 4.482419941952863240e+01 1.077195538208381436e+02
1.300000000000000044e+00 7.290464149982086894e+01 4.186052803753916862e+01 1.009499360513142108e+02
1.400000000000000133e+00 7.073687235917331861e+01 3.787737534506646142e+01 1.008927263080640842e+02
1.500000000000000000e+00 6.715090612701938255e+01 3.995731031472404027e+01 1.117029511624853342e+02
1.600000000000000089e+00 4.948740324692684567e+01 4.025382980337754901e+01 6.914871186213538579e+01
1.700000000000000178e+00 7.305584634750455564e+01 5.083478438690281109e+01 9.916656233174427371e+01
1.800000000000000044e+00 6.055552728143881325e+01 4.322966382008696229e+01 1.056038690380037082e+02
1.900000000000000133e+00 7.680771006277116442e+01 4.322390807049762884e+01 1.040626407565247717e+02
2.000000000000000000e+00 5.230427588022403285e+01 3.713041543634954422e+01 8.841509055385932925e+01
2.100000000000000089e+00 5.022429595367402300e+01 3.607473512039658203e+01 6.961436772599685696e+01
2.200000000000000178e+00 4.044192897511139506e+01 1.860516981613181642e+01 6.793754905736430771e+01
2.300000000000000266e+00 5.011943058354355429e+01 2.951054643689957757e+01 8.575644192191174398e+01
2.400000000000000355e+00 5.013709729386973635e+01 3.558890399099744428e+01 8.752544531442232767e+01
2.500000000000000000e+00 4.662304750772263873e+01 3.325140979063945679e+01 6.707481641462716482e+01
2.600000000000000089e+00 6.154169017372009876e+01 1.284710667497699710e+01 7.920162292251680469e+01
2.700000000000000178e+00 6.318819094399507463e+01 4.297383039644396518e+01 1.172852754558723944e+02
2.800000000000000266e+00 5.593457880811483562e+01 1.589419198642575637e+01 8.260081929331526851e+01
2.900000000000000355e+00 5.949413001982391336e+01 2.815218063010621563e+01 8.673932954337919909e+01
3.000000000000000000e+00 4.275372017027783045e+01 2.848181175613358818e+01 5.555556244656299469e+01
3.100000000000000089e+00 4.338687001860446912e+01 3.468411675260437477e+01 6.952597345915606297e+01
3.200000000000000178e+00 6.080715524231586500e+01 2.750615167035291364e+01 8.216140970218101813e+01
3.300000000000000266e+00 4.882062044680046853e+01 2.050423902888625705e+01 8.206147158937521624e+01
3.400000000000000355e+00 3.558309943546339582e+01 1.660278550594649616e+01 7.102195185079949624e+01
3.500000000000000000e+00 4.730003341846755660e+01 1.700028952449755337e+01 5.677752311694045062e+01
3.600000000000000089e+00 3.431424101132966342e+01 1.963645277260692268e+01 6.652899285160907539e+01
3.700000000000000178e+00 4.684683892266896521e+01 2.106861463834497172e+01 6.323068602276879346e+01
3.800000000000000266e+00 4.046440886883490151e+01 1.306482662715482590e+01 6.434279220626994800e+01
3.900000000000000355e+00 1.824074254265526207e+01 1.417113445579813735e+01 4.267659565174144376e+01
4.000000000000000000e+00 3.127913548457438964e+01 1.903667523081174195e+01 4.742923196732794366e+01
4.100000000000000533e+00 2.815577148522626771e+01 1.507178125125964563e+01 3.934142753559344641e+01
4.200000000000000178e+00 3.344702705558553646e+01 1.903083876385005624e+01 4.275630033564657850e+01
4.299999999999999822e+00 2.659081592520861292e+01 1.252276424501965835e+01 4.307522174131776183e+01
4.400000000000000355e+00 3.018614324407853999e+01 9.590905879135036116e+00 4.263363009265484038e+01
4.500000000000000000e+00 4.190571228158641759e+01 2.226904567402428725e+01 5.033505513264153564e+01
4.600000000000000533e+00 3.734925998612919074e+01 2.102217319296727283e+01 5.833788924218031724e+01
4.700000000000000178e+00 2.585785852854617417e+01 1.342368925639232025e+01 3.717474762594723359e+01
4.800000000000000711e+00 3.542249778580959685e+01 2.007021307826495971e+01 5.284907635449317098e+01
4.900000000000000355e+00 3.332128209764157134e+01 2.536948045922246564e+01 4.321412822852852997e+01
5.000000000000000000e+00 3.701942387280519853e+01 2.313940921000635242e+01 4.688477108313834663e+01
5.100000000000000533e+00 2.245383940323487693e+01 1.385908825387060794e+01 5.111537925323986542e+01
5.200000000000000178e+00 2.371001136105032359e+01 8.135547562146786760e+00 4.621924023776642798e+01
5.300000000000000711e+00 2.688536916085850947e+01 1.505685711580773756e+01 3.553411258857862265e+01
5.400000000000000355e+00 2.332161192367145830e+01 1.356623228706257756e+01 3.028893203127318401e+01
5.500000000000000000e+00 2.986033442859829279e+01 1.953783818494190427e+01 3.968729622928499623e+01
5.600000000000000533e+00 2.117333149332021591e+01 1.774528491604389657e+01 3.921463125510737768e+01
5.700000000000000178e+00 1.700448425774037631e+01 8.615992964838886436e+00 3.183974440879933354e+01
5.800000000000000711e+00 3.134821753697379876e+01 1.853309725592553292e+01 4.137652690441411352e+01
5.900000000000000355e+00 2.196033754926887482e+01 1.749581682587219333e+01 3.664883202875057577e+01
6.000000000000000000e+00 2.079811920695377836e+01 1.328297315802708489e+01 4.345798822922198212e+01
6.100000000000000533e+00 2.431800224624382167e+01 1.995734403566802939e+01 3.497407273806575745e+01
6.200000000000000178e+00 3.826920780472867989e+01 1.371435862685105533e+01 5.032142943483396635e+01
6.300000000000000711e+00 2.320647146085973844e+01 8.374334128677364930e+00 3.646838150379330301e+01
6.400000000000000355e+00 1.605795601578068954e+01 1.393035937571606198e+01 2.575989156477795561e+01
6.500000000000000000e+00 2.581932033890097244e+01 1.184612930631359262e+01 3.297124343051110174e+01
6.600000000000000533e+00 2.157320515156034091e+01 1.423114349680705004e+01 4.458062350835658805e+01
6.700000000000000178e+00 1.951067526818387421e+01 7.236755071791942662e+00 2.926314937373319935e+01
6.800000000000000711e+00 2.044688826596720688e+01 7.824313770674555357e+00 3.355250261298174053e+01
6.900000000000000355e+00 2.880254583568689952e+01 8.039554615900126322e+00 3.260722800651166864e+01
7.000000000000000000e+00 2.660682652404557302e+01 1.340630034365748813e+01 3.512923133845836077e+01
7.100000000000000533e+00 1.950711391314678167e+01 1.166303403010227413e+01 2.995561259904452100e+01
7.200000000000000178e+00 2.464641533334629031e+01 1.370131336669094502e+01 2.694903188957026074e+01
7.300000000000000711e+00 2.167022808847042015e+01 1.266829096457799686e+01 3.753982008676518944e+01
7.400000000000000355e+00 2.902288977808679249e+01 1.809273569577091223e+01 4.276748166889655067e+01
7.500000000000000000e+00 2.186752416670504218e+01 1.684591921091094235e+01 3.567449186707997200e+01
7.600000000000000533e+00 2.340571973615841372e+01 1.332850798827955074e+01 3.508762328524995411e+01
7.700000000000000178e+00 1.736425018008218402e+01 6.437638820369960158e+00 2.875718502710297741e+01
7.800000000000000711e+00 2.285972252895377821e+01 8.350404211172346436e+00 2.985995601235050856e+01
7.900000000000000355e+00 2.087972289825803074e+01 1.258085476899339561e+01 2.838009918804159426e+01
8.000000000000000000e+00 2.166553406722344732e+01 1.040836205080464971e+01 2.526767172628431979e+01
8.099999999999999645e+00 1.860946471605812746e+01 9.611583002249586727e+00 2.859893326846956185e+01
8.200000000000001066e+00 2.668556614648510106e+01 1.105680610180576551e+01 3.265822490244175924e+01
8.300000000000000711e+00 2.220197246040395456e+01 9.779282223184148748e+00 4.305115777931781196e+01
8.400000000000000355e+00 2.076336193037285938e+01 1.363948437935501268e+01 3.455779912206233462e+01
8.500000000000000000e+00 2.351555865227438247e+01 9.893930710650678861e+00 3.561242001852873784e+01
8.599999999999999645e+00 1.557049083993283212e+01 8.840488672318572938e+00 2.372477883070938276e+01
8.700000000000001066e+00 1.644095829183047286e+01 7.554847193066636102e+00 2.465182675616567209e+01
8.800000000000000711e+00 2.190069240819460461e+01 1.221212549581004403e+01 3.114043887369838970e+01
8.900000000000000355e+00 2.136756763288444105e+01 1.046235507931398168e+01 3.321769565061344309e+01
9.000000000000000000e+00 1.418159685488551247e+01 8.432351458307008940e+00 2.682730415863411011e+01
9.099999999999999645e+00 2.168993955830861964e+01 1.102313633233682211e+01 3.325951344880391503e+01
9.200000000000001066e+00 2.245803161242787738e+01 9.672062470905348874e+00 2.742895741048315017e+01
9.300000000000000711e+00 1.995130601496335387e+01 1.203702191653179021e+01 2.502718145528087490e+01
9.400000000000000355e+00 1.718552801132092256e+01 7.462763971981720701e+00 3.288766085874501499e+01
9.500000000000000000e+00 1.396563296144501187e+01 1.002952637743674558e+01 2.662482816009634234e+01
9.600000000000001421e+00 1.474160977701424358e+01 3.691432020943657744e+00 2.410384546825277141e+01
9.700000000000001066e+00 1.815604279855032033e+01 7.606868345534635978e+00 2.563494782784498582e+01
9.800000000000000711e+00 1.384657952879789633e+01 8.380636872653310476e+00 2.794670865756516775e+01
9.900000000000000355e+00 1.091301393551483478e+01 4.024970288011263442e+00 2.798298791569706623e+01
1.000000000000000000e+01 1.894684558411135100e+01 8.703884216639069749e+00 3.190148722863746045e+01
1.000000000000000000e+01 1.805354717256010133e+01 8.814561595060958155e+00 3.094396659717697773e+01
1.100000000000000000e+01 1.771062862421280570e+01 8.813880678802362922e+00 2.840407827086750459e+01
1.200000000000000000e+01 1.657940427638727598e+01 7.402144893718124230e+00 2.544017172913177305e+01
1.300000000000000000e+01 1.334540335644359388e+01 6.445099342278354904e+00 2.111966362433014055e+01
1.400000000000000000e+01 1.430144290865777812e+01 7.225221171335696191e+00 2.090770651044883977e+01
1.500000000000000000e+01 1.306855026056637570e+01 6.308413779126949450e+00 1.984228951216119086e+01
1.600000000000000000e+01 1.103628756833958313e+01 5.403232441402164632e+00 1.821172018960828609e+01
1.700000000000000000e+01 1.084325569935814926e+01 5.275672681563865929e+00 1.848099276980838468e+01
1.800000000000000000e+01 1.052857047804214119e+01 5.289593044770906083e+00 1.783316843048096345e+01
1.900000000000000000e+01 9.280958831071956183e+00 5.071503022333774702e+00 1.696062539699268257e+01
2.000000000000000000e+01 9.628777355777886626e+00 4.622414942327918830e+00 1.730015972148125769e+01
2.100000000000000000e+01 8.932564153083244918e+00 4.413287564790219442e+00 1.583218332988432842e+01
2.200000000000000000e+01 7.816759554882874106e+00 4.797296388216876650e+00 1.515776622501524429e+01
2.300000000000000000e+01 7.241120933974204199e+00 3.424114910454459260e+00 1.334400678911779892e+01
2.400000000000000000e+01 7.067687734799857679e+00 3.004524440183645062e+00 1.223365325144243165e+01
2.500000000000000000e+01 6.868122910259575775e+00 2.954708891237401325e+00 1.211340014505490359e+01
2.600000000000000000e+01 6.616926064671644347e+00 3.873650473199790945e+00 1.314869070030713338e+01
2.700000000000000000e+01 6.098633783311065315e+00 2.891213152436837408e+00 1.252731605554512839e+01
2.800000000000000000e+01 6.351851853344486543e+00 2.775201703521096519e+00 1.442245364935849850e+01
2.900000000000000000e+01 5.009380002425583456e+00 2.390555270079958383e+00 1.222503963993545995e+01
3.000000000000000000e+01 4.163113394918053878e+00 2.069344431379532168e+00 1.031040010625895675e+01
3.100000000000000000e+01 4.261486380157315068e+00 1.603260758516962925e+00 9.388002623499573929e+00
3.200000000000000000e+01 3.679430006501593908e+00 1.366242100864148767e+00 9.617777867211533049e+00
3.300000000000000000e+01 3.692866170026259720e+00 1.918627620532932232e+00 9.631191252115291590e+00
3.400000000000000000e+01 3.579613127169630982e+00 2.023734016619164411e+00 9.801211425049189074e+00
3.500000000000000000e+01 3.021753733184175505e+00 1.591323320789114648e+00 7.080059451050996877e+00
3.600000000000000000e+01 2.791834926620782920e+00 1.327030261602919925e+00 7.723609246975980724e+00
3.700000000000000000e+01 2.671343133578558682e+00 1.195130339496398131e+00 7.527718262035193675e+00
3.800000000000000000e+01 2.393514551269100732e+00 1.060804387127328274e+00 5.832400334650828633e+00
3.900000000000000000e+01 2.516321719422144998e+00 1.351652071781952680e+00 5.653207298763716970e+00
4.000000000000000000e+01 2.156426317267138515e+00 1.104175688683815215e+00 5.181831692793767097e+00
4.100000000000000000e+01 2.013181023891666310e+00 9.168834000681093110e-01 5.000442996633747583e+00
4.200000000000000000e+01 1.674898297956183724e+00 8.198682894100260965e-01 3.934854990499593974e+00
4.300000000000000000e+01 1.840186105679740391e+00 7.963097993812173758e-01 4.224064273034124462e+00
4.400000000000000000e+01 1.684879256219960375e+00 8.378709243472423074e-01 3.823001854252446208e+00
4.500000000000000000e+01 1.558127869593231685e+00 8.838648164070742608e-01 3.234855214055067485e+00
4.600000000000000000e+01 1.512916904548363473e+00 7.277317042790762969e-01 2.833731553619706300e+00
4.700000000000000000e+01 1.620111131261563031e+00 8.191330879603223591e-01 2.948122425729172491e+00
4.800000000000000000e+01 1.357834890707857900e+00 6.237353748776117701e-01 2.780401836785736158e+00
4.900000000000000000e+01 1.332022825879618955e+00 6.582412092530486314e-01 2.480428263256061694e+00
5.000000000000000000e+01 1.123571071169494173e+00 6.270387563658905705e-01 2.425308910642619331e+00
5.100000000000000000e+01 1.253390871881554958e+00 5.694237884190109789e-01 2.124958923702822133e+00
5.200000000000000000e+01 1.227915297001358041e+00 6.572925109993945636e-01 2.115550875497623551e+00
5.300000000000000000e+01 1.217223818119539835e+00 5.831437845697033939e-01 2.129483390275499044e+00
5.400000000000000000e+01 1.040893585422888012e+00 5.040822765499572977e-01 1.875605555560738491e+00
5.500000000000000000e+01 1.008759595307691548e+00 5.549010075590850022e-01 1.701951505120171682e+00
5.600000000000000000e+01 1.063417041859885392e+00 4.776825483146130424e-01 1.773889479406068448e+00
5.700000000000000000e+01 9.220926514427751908e-01 4.119314381429584615e-01 1.643017999733554335e+00
5.800000000000000000e+01 9.095011989802639363e-01 4.268411819633092796e-01 1.619191897731244500e+00
5.900000000000000000e+01 9.180862773742873850e-01 4.817436189900508037e-01 1.584471289391914839e+00
6.000000000000000000e+01 8.638297468277802427e-01 3.763006055616230361e-01 1.280293756341868816e+00
6.100000000000000000e+01 8.868329732086186468e-01 3.574769152033757669e-01 1.336691724993840369e+00
6.200000000000000000e+01 8.380712379865609130e-01 4.219168868384531312e-01 1.396614464277834422e+00
6.300000000000000000e+01 7.848269292904130889e-01 4.026410441431885756e-01 1.285418967767352427e+00
6.400000000000000000e+01 7.140644486083880249e-01 3.458487851839718852e-01 1.280147382373516551e+00
6.500000000000000000e+01 7.383420880930726682e-01 3.569981281857022015e-01 1.231867126600351359e+00
6.600000000000000000e+01 6.434535046296759875e-01 3.416934260281794811e-01 1.181293703128713846e+00
6.700000000000000000e+01 6.388622145923807949e-01 3.447149164502480434e-01 1.157652183445988969e+00
6.800000000000000000e+01 6.098932783726022100e-01 2.684127350042929683e-01 1.101116039334492536e+00
6.900000000000000000e+01 6.443700326671989442e-01 3.504028970657462327e-01 1.129617921008016390e+00
7.000000000000000000e+01 6.154161037137574342e-01 3.394921957133198998e-01 1.112532544148927771e+00
7.100000000000000000e+01 6.070876757750285346e-01 3.375507663710195505e-01 1.083753715345421309e+00
7.200000000000000000e+01 7.040468440600330391e-01 3.161406159761004919e-01 1.115615426973678437e+00
7.300000000000000000e+01 6.408993931461491877e-01 2.871503412116710452e-01 1.123677079623927932e+00
7.400000000000000000e+01 5.690967277563764304e-01 3.473678527115144354e-01 1.056806553533648163e+00
7.500000000000000000e+01 5.869673225789968640e-01 3.184961861098722924e-01 1.068012596827539351e+00
7.600000000000000000e+01 5.769997502040616899e-01 3.091705752466323287e-01 8.933171481560538973e-01
7.700000000000000000e+01 4.753870655980281246e-01 2.654075636112107617e-01 9.453540907659060410e-01
7.800000000000000000e+01 5.242208962244286896e-01 2.853696334495649523e-01 8.499965489053525891e-01
7.900000000000000000e+01 5.102057143851604915e-01 2.523816991223785111e-01 8.267774477687838131e-01
8.000000000000000000e+01 4.730627973908068107e-01 2.715368751420449422e-01 8.890461059503068642e-01
8.100000000000000000e+01 5.078642063059538581e-01 1.574151530803181431e-01 8.316736277142871003e-01
8.200000000000000000e+01 5.141375997490719163e-01 2.478916686440081341e-01 8.206660131157365035e-01
8.300000000000000000e+01 4.645291273477901717e-01 2.538490300598675309e-01 7.893332000143113980e-01
8.400000000000000000e+01 5.083719605386871621e-01 2.570684108159415615e-01 7.775922476871930389e-01
8.500000000000000000e+01 4.511912931388405434e-01 2.147736966562491245e-01 7.088323286069212470e-01
8.600000000000000000e+01 4.621127847349864037e-01 2.022948143728152404e-01 7.309507160147247218e-01
8.700000000000000000e+01 4.450266293704671083e-01 1.888198795619711046e-01 8.086737149265781355e-01
8.800000000000000000e+01 4.464978730379061678e-01 2.198453255032136178e-01 7.639647303385559418e-01
8.900000000000000000e+01 4.296947326508233633e-01 2.326676855761784235e-01 7.071738803317566546e-01
9.000000000000000000e+01 4.129747508031398340e-01 2.111930707659399331e-01 6.356501912133306620e-01
9.100000000000000000e+01 4.236130340557067164e-01 2.289906175040933023e-01 6.555507526287424058e-01
9.200000000000000000e+01 4.817162218736916190e-01 2.286273410937395001e-01 7.256019151437220760e-01
9.300000000000000000e+01 3.935565754335277333e-01 1.923176110608850742e-01 7.204780701431977574e-01
9.400000000000000000e+01 4.011956805371811874e-01 1.954778230028550168e-01 6.705441822610644920e-01
9.500000000000000000e+01 3.919823835690930958e-01 2.106304391654499619e-01 6.951223476073862262e-01
9.600000000000000000e+01 4.433077616626297512e-01 2.030750916755799107e-01 6.591595007391854999e-01
9.700000000000000000e+01 4.045915302909355304e-01 1.597652923682558734e-01 6.333433773142940204e-01
9.800000000000000000e+01 3.955996826185737558e-01 1.804717648388852458e-01 6.214719326174217295e-01
9.900000000000000000e+01 3.414219045151720699e-01 1.648653160287894548e-01 5.662823453178655875e-01
1.000000000000000000e+02 3.772266302307537567e-01 1.722595301263805945e-01 6.512688802703409108e-01
1.000320102432778526e+02 3.173927034403435377e-01 1.404928509380520552e-01 6.157525065101814299e-01
1.100352112676056322e+02 2.968029976116617341e-01 1.348590006179749556e-01 5.537547280089994972e-01
1.200384122919334118e+02 2.768917351314613140e-01 1.260219007338444497e-01 5.134003924920714779e-01
1.300416133162611914e+02 2.593606381561042173e-01 1.160379244875954230e-01 4.616831506707027577e-01
1.400448143405889994e+02 2.387299568370511715e-01 1.124488309280999992e-01 4.173868926193384232e-01
1.500480153649167789e+02 1.946643586217950139e-01 8.670188262768278864e-02 3.722366968980424518e-01
1.600512163892445585e+02 1.794119282950775718e-01 7.883286190130085747e-02 3.248514949510530325e-01
1.700544174135723381e+02 1.387212665591225358e-01 6.039585247753793962e-02 2.812446741631252078e-01
1.800576184379001177e+02 9.904675815512342663e-02 4.033237868952573024e-02 2.272795033042228907e-01
1.900608194622279257e+02 8.006519153363247931e-02 3.488161603619640422e-02 1.805401437466636061e-01
2.000640204865557052e+02 8.565407451728181132e-02 3.886447865532027118e-02 1.677447652163054637e-01
2.100672215108834848e+02 9.171792890409850851e-02 4.476301369254576806e-02 1.678637439609715065e-01
2.200704225352112644e+02 8.731517899030298568e-02 3.792285962481107414e-02 1.760072956340532624e-01
2.300736235595390440e+02 8.218876357080974471e-02 3.837139058177688883e-02 1.665831611711124094e-01
2.400768245838668236e+02 8.588829685027773997e-02 4.254628296551951627e-02 1.580670181254217321e-01
2.500800256081946316e+02 6.872860897061829066e-02 2.874420081821288039e-02 1.301630008342078981e-01
2.600832266325223827e+02 4.948704622694218014e-02 2.245578835175144478e-02 9.740862696845030422e-02
2.700864276568502191e+02 3.937498695451543268e-02 1.881999031504261177e-02 7.847102629492885839e-02
2.800896286811779987e+02 3.867417396418152548e-02 1.712415267798405791e-02 6.755779936681213793e-02
2.900928297055057783e+02 3.703625566051695767e-02 1.939611719328395573e-02 6.532287324559726827e-02
3.000960307298335579e+02 3.354283738385272634e-02 1.592191063326070521e-02 5.851933281119003211e-02
3.100992317541613374e+02 3.282048139851823088e-02 1.525027019738776218e-02 5.328385113869576334e-02
3.201024327784891170e+02 2.961902355540003973e-02 1.452515828460822570e-02 4.939238769809933816e-02
3.301056338028168966e+02 3.035699669898913808e-02 1.482114611743180765e-02 5.191025937409819713e-02
3.401088348271446762e+02 3.274653002712310523e-02 1.548205222475149828e-02 5.735915302356116297e-02
3.501120358514724558e+02 3.341955496332791459e-02 1.691556649450109279e-02 5.469002808772314983e-02
3.601152368758002353e+02 3.300147610645075974e-02 1.570432155823318909e-02 5.465898880630072620e-02
3.701184379001280149e+02 4.405508412201923629e-02 2.134546147613134576e-02 7.216170592243167925e-02
3.801216389244558513e+02 6.259413157985362075e-02 3.312262295613201124e-02 1.010569451797036639e-01
3.901248399487836309e+02 7.844283867848990399e-02 4.085989639027052395e-02 1.277334981872131625e-01
4.001280409731114105e+02 6.760583823111626645e-02 3.298974027007569448e-02 1.100737779463200755e-01
4.101312419974391901e+02 4.575096037902132845e-02 2.200094567762893999e-02 7.729263442364248116e-02
4.201344430217669697e+02 3.842871254767811495e-02 1.920762872142408803e-02 6.345265708064755372e-02
4.301376440460947492e+02 3.319905877496402008e-02 1.642088989143335176e-02 5.551457563281900209e-02
4.401408450704225288e+02 3.184771785062260469e-02 1.456710573245750470e-02 5.245184658921856619e-02
4.501440460947503084e+02 3.194298099078504011e-02 1.584429525819704490e-02 4.994933563694074763e-02
4.601472471190780880e+02 2.889761639128883564e-02 1.371519408250691449e-02 4.748362217222838744e-02
4.701504481434058675e+02 2.873110648812647258e-02 1.425244904120720642e-02 4.618965431624659501e-02
4.801536491677336471e+02 3.034729323994006522e-02 1.485959708836778748e-02 4.819760730562597933e-02
4.901568501920614835e+02 2.915543157072064337e-02 1.404090918120828001e-02 4.638439360578245491e-02
5.001600512163892631e+02 2.578808316255119804e-02 1.306209990199284042e-02 4.289877561126072270e-02
5.101632522407170427e+02 2.393850375423536500e-02 1.202609722353347767e-02 4.042527499339691743e-02
5.201664532650447654e+02 2.624015419436343324e-02 1.348903780140725366e-02 4.339045452261915820e-02
5.301696542893726019e+02 3.126749854879876805e-02 1.571644718637797353e-02 5.041730984758503731e-02
5.401728553137004383e+02 3.277909787809405590e-02 1.547009971285645373e-02 5.173477178968657192e-02
5.501760563380281610e+02 2.989796631126825574e-02 1.478528611594404768e-02 4.857298284830895152e-02
5.601792573623559974e+02 3.176592144622948644e-02 1.679452947096242779e-02 5.205254641399288673e-02
5.701824583866837202e+02 3.602920367370767568e-02 1.771602348567108756e-02 5.944954901458272128e-02
5.801856594110115566e+02 3.575322783581013492e-02 1.726003337965483983e-02 5.930295588139294916e-02
5.901888604353392793e+02 3.175258797365198421e-02 1.674984503346904283e-02 5.208270552059487968e-02
6.001920614596671157e+02 3.074395091222456924e-02 1.560704213544916730e-02 4.936475395484975909e-02
6.101952624839948385e+02 2.795457848490055450e-02 1.386631540119509856e-02 4.579091728654518384e-02
6.201984635083226749e+02 6.511563156844366040e-02 3.428025912809603420e-02 1.086739692137037860e-01
6.302016645326503976e+02 2.517637280075487594e-01 1.286492565551984879e-01 4.316027207056079007e-01
6.402048655569782341e+02 2.586698568867799031e-01 1.269054720310473505e-01 4.311406316350894774e-01
6.502080665813060705e+02 1.412860191543080512e-01 7.050130616663023708e-02 2.228637291455873026e-01
6.602112676056337932e+02 1.423342323903903639e-01 7.432513483559104184e-02 2.292151569203761674e-01
6.702144686299616296e+02 1.215252150121826635e-01 5.804921400959617284e-02 1.955441403670666323e-01
6.802176696542893524e+02 1.109138716334148317e-01 5.600238525448033439e-02 1.832488688027905377e-01
6.902208706786171888e+02 9.477323769527226660e-02 4.612947417498001329e-02 1.533247214972325856e-01
7.002240717029449115e+02 6.606887372246554591e-02 3.496516996729348570e-02 1.114312034311299160e-01
7.102272727272727479e+02 4.679228010325135745e-02 2.262594788810143656e-02 7.645534205748034939e-02
7.202304737516004707e+02 6.660088080965788360e-02 3.321765482963667804e-02 1.036387844830036348e-01
7.302336747759283071e+02 4.897411430539988508e-02 2.581642630902884761e-02 7.884696414076854121e-02
7.402368758002560298e+02 2.575668134930480732e-02 1.310794012244119282e-02 4.311964088275008211e-02
7.502400768245838663e+02 2.568186951967106613e-02 1.248212580523421801e-02 4.388086291622789181e-02
7.602432778489117027e+02 2.802486535162343820e-02 1.442420335271685575e-02 4.668651448537462778e-02
7.702464788732394254e+02 3.524713614763759495e-02 1.682816540585582027e-02 5.466556463912343455e-02
7.802496798975672618e+02 5.538989814690378072e-02 2.880702912504733496e-02 9.115813872379832650e-02
7.902528809218949846e+02 2.433716547115449269e-01 1.178629477503229661e-01 4.023826709081786412e-01
8.002560819462228210e+02 3.963383834660645921e-01 2.023924369375239563e-01 6.308558706536367966e-01
8.102592829705505437e+02 2.047026282714163870e-01 1.059934752287456095e-01 3.439741076692394706e-01
8.202624839948783801e+02 1.102984396919322457e-01 5.457529073301218420e-02 1.781790555853562941e-01
8.302656850192061029e+02 1.863253161552632375e-01 9.273006218009298418e-02 2.847274206272774055e-01
8.402688860435339393e+02 3.502679357094047319e-01 2.091292523863315933e-01 5.044527357037701387e-01
8.502720870678616620e+02 2.634728030141132993e-01 1.287793711482404790e-01 4.365307662756727769e-01
8.602752880921894985e+02 2.070996834337049675e-01 1.008542449300851990e-01 3.403125173356232325e-01
8.702784891165173349e+02 1.626794551204928385e-01 8.305546955349568661e-02 2.654380944070516279e-01
8.802816901408450576e+02 1.008035799576209451e-01 4.786712201729740462e-02 1.648960248759485103e-01
8.902848911651728940e+02 6.751659940634927026e-02 3.563188929861966364e-02 1.124460098687258824e-01
9.002880921895006168e+02 6.192106337987806491e-02 2.982321660398392152e-02 1.023034585001955099e-01
9.102912932138284532e+02 8.179405605241912847e-02 4.081252432583494516e-02 1.321949894628085265e-01
9.202944942381561759e+02 7.623760999617432144e-02 3.724036060880512450e-02 1.286834786911055517e-01
9.302976952624840123e+02 6.309328515314770180e-02 3.259706780136422538e-02 1.032712906307988870e-01
9.403008962868117351e+02 5.382678385171123236e-02 2.686209510384628130e-02 8.945132669923330782e-02
9.503040973111395715e+02 5.258795226572702403e-02 2.638803823874617122e-02 8.854983809414285201e-02
9.603072983354672942e+02 5.490318320696802035e-02 2.922105694765547018e-02 9.121493028481282572e-02
9.703104993597951307e+02 6.831658519035534172e-02 3.344188143499984139e-02 1.110291424607296740e-01
9.803137003841229671e+02 8.788575152398850343e-02 4.101815157612136858e-02 1.435316573438652488e-01
9.903169014084506898e+02 9.190789625808529206e-02 4.582237718188378328e-02 1.486940522677609178e-01
1.000320102432778526e+03 1.021578166827551981e-01 5.178087061354797599e-02 1.688685997733937183e-01
1.010323303457106249e+03 1.147824580527363886e-01 5.721586382023526735e-02 1.854111207422348417e-01
1.020326504481434085e+03 1.723847421819696690e-01 8.719986006872633422e-02 2.708091055505071343e-01
1.030329705505761922e+03 2.009131119633245366e-01 9.549816253494590457e-02 3.166788350288216036e-01
1.040332906530089531e+03 1.992513442920603450e-01 9.570415476005861288e-02 3.230396558832913101e-01
1.050336107554417367e+03 1.929417138501295093e-01 9.718834075115896642e-02 3.035644477636835203e-01
1.060339308578745204e+03 1.059408678012671440e-01 5.445863609356160068e-02 1.721344730866976591e-01
1.070342509603073040e+03 6.049072462380501031e-02 2.999756367821443045e-02 1.012653324751097289e-01
1.080345710627400877e+03 5.415144277165289538e-02 2.642286521898854282e-02 8.649532064242917984e-02
1.090348911651728486e+03 5.251265937414285878e-02 2.623576832058958572e-02 8.572985863980649157e-02
1.100352112676056322e+03 4.861707934002980347e-02 2.404318519976965038e-02 7.957985689208169067e-02
1.110355313700384158e+03 4.677247374098799509e-02 2.345191668476211133e-02 7.569690839941167759e-02
1.120358514724711995e+03 5.150845585642246927e-02 2.580531257700868775e-02 8.596336301737626806e-02
1.130361715749039604e+03 5.391280032276919015e-02 2.676009367741483819e-02 8.651743922181509561e-02
1.140364916773367440e+03 6.682158605261151463e-02 3.365492952929963894e-02 1.037437547514962338e-01
1.150368117797695277e+03 9.785719273114444616e-02 4.758370869534320202e-02 1.502191625143822762e-01
1.160371318822023113e+03 1.326728938889094322e-01 6.980274903156485911e-02 2.103534930584176343e-01
1.170374519846350722e+03 1.177197767190650557e-01 5.717553816707685727e-02 1.928364834663125471e-01
1.180377720870678559e+03 9.126106231495390020e-02 4.492870124601166387e-02 1.486805859136002272e-01
1.190380921895006395e+03 6.147954748547344167e-02 2.985277690883046328e-02 9.941963317837691771e-02
1.200384122919334231e+03 4.915533756904522100e-02 2.347661844390991348e-02 7.953183407710459618e-02
1.210387323943662068e+03 4.337243782948922016e-02 2.129714248353990411e-02 7.052147077552668730e-02
1.220390524967989677e+03 3.812043593816120263e-02 1.879744404610093206e-02 6.554957744848653733e-02
1.230393725992317513e+03 3.754118814989267777e-02 1.909445897063045960e-02 6.268379548542098167e-02
1.240396927016645350e+03 4.210791542234215007e-02 2.192345617850801481e-02 6.787011079018677451e-02
1.250400128040973186e+03 5.460357693775604732e-02 2.715991848137149292e-02 8.341158621198807577e-02
1.260403329065300795e+03 5.438083683459012801e-02 2.748647449154679318e-02 8.898948755543450995e-02
1.270406530089628632e+03 5.605856697378965026e-02 2.875475138058745245e-02 9.066000302212456896e-02
1.280409731113956468e+03 6.067113277901046292e-02 3.082447366782941484e-02 9.959042415148726402e-02
1.290412932138284305e+03 6.470118397899425611e-02 3.133534936493407447e-02 1.070353333809836022e-01
1.300416133162612141e+03 6.692923283812989010e-02 3.181985776353554035e-02 1.112088379675647415e-01
1.310419334186939750e+03 6.756182086585069135e-02 3.358550075381441097e-02 1.100098226977608701e-01
1.320422535211267586e+03 6.242162613223470324e-02 3.139635999278823919e-02 1.021957820749849061e-01
1.330425736235595423e+03 5.254667465841719037e-02 2.706686634675579267e-02 8.416264451554679449e-02
1.340428937259923259e+03 4.191545632000144572e-02 2.168462441038980851e-02 6.979273524109659566e-02
1.350432138284250868e+03 3.722602602520948267e-02 1.801431799807794165e-02 6.087280730545592544e-02
1.360435339308578705e+03 3.850044488499821532e-02 1.775647517754380331e-02 6.597339340427169074e-02
1.370438540332906541e+03 3.956502485436363264e-02 2.009511081841168501e-02 6.739639597664344450e-02
1.380441741357234378e+03 3.891244571455764606e-02 1.877883500072342199e-02 6.230580536725216501e-02
1.390444942381562214e+03 3.883718486809096399e-02 1.934950283644664218e-02 6.273347367941371766e-02
1.400448143405889823e+03 3.983191824750571125e-02 2.029349255140350250e-02 6.651060419298635007e-02
1.410451344430217659e+03 3.792106468861711210e-02 1.812635360648233787e-02 6.230052171526523352e-02
1.420454545454545496e+03 3.715740637111398376e-02 1.888137391699072631e-02 6.137952017856700138e-02
1.430457746478873332e+03 4.081309757172193325e-02 2.023008896368894485e-02 6.456598573776167749e-02
1.440460947503200941e+03 4.482882206421136273e-02 2.330703235253098193e-02 7.018005732455086243e-02
1.450464148527528778e+03 4.524519043737106755e-02 2.276979925199200741e-02 7.416251619966893194e-02
1.460467349551856614e+03 4.727256055199786228e-02 2.392038547679835314e-02 7.773202158934797157e-02
1.470470550576184451e+03 5.353672187367140844e-02 2.794921340668083537e-02 9.131564868987966654e-02
1.480473751600512060e+03 6.729950341256506208e-02 3.395078476329513317e-02 1.060336764372691032e-01
1.490476952624839896e+03 7.441374443271775441e-02 3.791248207566680350e-02 1.223031952666997907e-01
1.500480153649167733e+03 7.818493083614731776e-02 3.995217229051677837e-02 1.268410163856816819e-01
1.510483354673495569e+03 7.149304060939644379e-02 3.573001317944047434e-02 1.164654914340989555e-01
1.520486555697823405e+03 6.654840813082323059e-02 3.344680889307612148e-02 1.092927681048628530e-01
1.530489756722151014e+03 7.167004126800143038e-02 3.617394426000988816e-02 1.170114277130446800e-01
1.540492957746478851e+03 7.293063552942022354e-02 3.743086298840074544e-02 1.179486099342162836e-01
1.550496158770806687e+03 7.360695855249962949e-02 3.480339861232269183e-02 1.159007915910597181e-01
1.560499359795134524e+03 6.907191175260284088e-02 3.206956452554728110e-02 1.139176757374108090e-01
1.570502560819462133e+03 5.625580256626055292e-02 2.830351186353000786e-02 9.297307232629742346e-02
1.580505761843789969e+03 4.643529206044004487e-02 2.356308386301123395e-02 7.552454716708886795e-02
1.590508962868117806e+03 4.033869600159104007e-02 2.004419171388116191e-02 6.502470868508235247e-02
1.600512163892445642e+03 3.214235121748244134e-02 1.603590746050125027e-02 5.114273367521393610e-02
1.610515364916773478e+03 2.831334013684646059e-02 1.429536101624900857e-02 4.660732625920047112e-02
1.620518565941101087e+03 2.816125928867225375e-02 1.459794583373498142e-02 4.489267922160562752e-02
1.630521766965428924e+03 2.727007366021386506e-02 1.364910798288787586e-02 4.307668018577465868e-02
1.640524967989756760e+03 2.434466229315277591e-02 1.227020225581890167e-02 3.958177801522553413e-02
1.650528169014084597e+03 2.289681876244245226e-02 1.147848140274317953e-02 3.657325114951551215e-02
1.660531370038412206e+03 2.316766261996674320e-02 1.192496612844995939e-02 3.824565232090582773e-02
1.670534571062740042e+03 2.577655548555098444e-02 1.287301202341841096e-02 4.073578807696098814e-02
1.680537772087067879e+03 2.427506480447876383e-02 1.255930530608076467e-02 4.189554826443266794e-02
1.690540973111395715e+03 2.335009853808755337e-02 1.133750173863248834e-02 3.866525621429577758e-02
1.700544174135723324e+03 2.221123362237626894e-02 1.126049873217849391e-02 3.684040045223242743e-02
1.710547375160051160e+03 2.252078840523567826e-02 1.075628869503155241e-02 3.552945829661210281e-02
1.720550576184378997e+03 2.116885006884903705e-02 1.023565182597656505e-02 3.431917556309235090e-02
1.730553777208706833e+03 2.128079552479310299e-02 1.048653341278630614e-02 3.416642433795984146e-02
1.740556978233034670e+03 2.054919612005143628e-02 1.047926954578258692e-02 3.373923777815984043e-02
1.750560179257362279e+03 2.115089105649994861e-02 1.050288405954733287e-02 3.482581190465349613e-02
1.760563380281690115e+03 2.152393100942970317e-02 1.076175189534435937e-02 3.537564566934162102e-02
1.770566581306017952e+03 2.185574395240606066e-02 1.081507543583138005e-02 3.504083938944271837e-02
1.780569782330345788e+03 2.288209088721289766e-02 1.155122399735148547e-02 3.736515911310537424e-02
1.790572983354673397e+03 2.199219564533351837e-02 1.083944841245530061e-02 3.548414667032045305e-02
1.800576184379001234e+03 2.212129807940459159e-02 1.097436263893110907e-02 3.558567734916481817e-02
1.810579385403329070e+03 2.242803927292924548e-02 1.176819221457973789e-02 3.635671423508443634e-02
1.820582586427656906e+03 2.216786648432239257e-02 1.128409638395039792e-02 3.594105737037554815e-02
1.830585787451984743e+03 2.152493313147754717e-02 1.039706521190944880e-02 3.447315899564198927e-02
1.840588988476312352e+03 2.211657631033009733e-02 1.038144133030394212e-02 3.531293562423554189e-02
1.850592189500640188e+03 2.188802792986945661e-02 1.053147629061402558e-02 3.581678257940814486e-02
1.860595390524968025e+03 2.249291223238917767e-02 1.080506535736272533e-02 3.584034181006594960e-02
1.870598591549295861e+03 2.204111442676042615e-02 1.163567768427813467e-02 3.775984847040223663e-02
1.880601792573623470e+03 2.313261897464272132e-02 1.175532718084690460e-02 3.738951509922443239e-02
1.890604993597951307e+03 2.250199629154830960e-02 1.151046546448333818e-02 3.796038481357645600e-02
1.900608194622279143e+03 2.352881043736951283e-02 1.094352723290573093e-02 3.847066493561195760e-02
1.910611395646606979e+03 2.283680919959614822e-02 1.172809419599882448e-02 3.751342066889162136e-02
1.920614596670934588e+03 2.268309204400245985e-02 1.087162443118301798e-02 3.775389021913582582e-02
1.930617797695262425e+03 2.298361221336659571e-02 1.187054149527262681e-02 3.735418728349296225e-02
1.940620998719590261e+03 2.251725657351246260e-02 1.136065026803070865e-02 3.611999060396046263e-02
1.950624199743918098e+03 2.109153010563766598e-02 1.107513072267800325e-02 3.491261339398289698e-02
1.960627400768245934e+03 2.103842160340141723e-02 1.064039134912243834e-02 3.459073162807387719e-02
1.970630601792573543e+03 2.216130505791991112e-02 1.125918505639350760e-02 3.587162977239349848e-02
1.980633802816901380e+03 2.278006222218770249e-02 1.186234491745214760e-02 3.522355160283328207e-02
1.990637003841229216e+03 2.121500645144705488e-02 1.070049002310013292e-02 3.394062002037122328e-02
2.000640204865557052e+03 2.104004592593537032e-02 1.051326074037892307e-02 3.404418615059368047e-02
2.010643405889884662e+03 2.147605342189527061e-02 1.078207575547375334e-02 3.501909429409020419e-02
2.020646606914212498e+03 2.138388278706770951e-02 1.024254841706666828e-02 3.526197708311479273e-02
2.030649807938540334e+03 2.156982748932177035e-02 1.088715295313349464e-02 3.499325455795219281e-02
2.040653008962868171e+03 2.160107440377814075e-02 1.064608719926393894e-02 3.574219870641658775e-02
2.050656209987195780e+03 2.246839109063444861e-02 1.134306639379745185e-02 3.692738639192715694e-02
2.060659411011523844e+03 2.273166912616059188e-02 1.148306706617836619e-02 3.769152935194673704e-02
2.070662612035851453e+03 2.263156134846896345e-02 1.110117460323144581e-02 3.742295234550422484e-02
2.080665813060179062e+03 2.254332047997039193e-02 1.108846995428182554e-02 3.667263555100950395e-02
2.090669014084507126e+03 2.280134588077453728e-02 1.158808004773352433e-02 3.704871923217603613e-02
2.100672215108834735e+03 2.374603956709086736e-02 1.141843541331843785e-02 3.853899649408060180e-02
2.110675416133162798e+03 2.415640266984604712e-02 1.172409476343845222e-02 3.879029372674603487e-02
2.120678617157490407e+03 2.483917649609727885e-02 1.237905432355041954e-02 3.923485950341509820e-02
2.130681818181818016e+03 2.239018601663709737e-02 1.111107326272098295e-02 3.732439076418512386e-02
2.140685019206146080e+03 2.379180661774962791e-02 1.212782968127152847e-02 3.721151518163706012e-02
2.150688220230473689e+03 2.309833737290134179e-02 1.158206547856900810e-02 3.779897305875296043e-02
2.160691421254801753e+03 2.309796562845949780e-02 1.122186418087616801e-02 3.661930089744147576e-02
2.170694622279129362e+03 2.143857791125326762e-02 1.015723564813468538e-02 3.636116942235429611e-02
2.180697823303456971e+03 2.180619690375215636e-02 1.129569110632217162e-02 3.585736553356298068e-02
2.190701024327785035e+03 2.194178225711912456e-02 1.126341423480223779e-02 3.581214352486312980e-02
2.200704225352112644e+03 2.269811794761623924e-02 1.194075590542295270e-02 3.764328678475352408e-02
2.210707426376440253e+03 2.294877609569600380e-02 1.148753525227507247e-02 3.732221072883255830e-02
2.220710627400768317e+03 2.309384413095216110e-02 1.138757471094242572e-02 3.680464870454913662e-02
2.230713828425095926e+03 2.262452661008442292e-02 1.192219256788419786e-02 3.614263350919276474e-02
2.240717029449423990e+03 2.277110470481756230e-02 1.092563165671327392e-02 3.759072744410694306e-02
2.250720230473751599e+03 2.259865870038943111e-02 1.097090574349989314e-02 3.761850265164285584e-02
2.260723431498079208e+03 2.324168831882959460e-02 1.218331724115808389e-02 3.719260482629745124e-02
2.270726632522407272e+03 2.252418502611444953e-02 1.150888225805687254e-02 3.746291959409270983e-02
2.280729833546734881e+03 2.228393353862964665e-02 1.076515959418756878e-02 3.619138454468554672e-02
2.290733034571062944e+03 2.234510178004394873e-02 1.172798353813062251e-02 3.744362420862559077e-02
2.300736235595390553e+03 2.337023795205499938e-02 1.119751298042024820e-02 3.867335508693292567e-02
2.310739436619718163e+03 2.334424907322057638e-02 1.180314139817580099e-02 3.727384331600579193e-02
2.320742637644046226e+03 2.277598728909401363e-02 1.124637924338539423e-02 3.655777858773437416e-02
2.330745838668373835e+03 2.290089025816214111e-02 1.170205192863235308e-02 3.816018227724621292e-02
2.340749039692701444e+03 2.323513331740416007e-02 1.170101394460824201e-02 3.819567058584102948e-02
2.350752240717029508e+03 2.376240564720906792e-02 1.192743805631426429e-02 3.769156104249034300e-02
2.360755441741357117e+03 2.269755447574705112e-02 1.158894965549191018e-02 3.849615621727466713e-02
2.370758642765685181e+03 2.272393665948619149e-02 1.189335365924541581e-02 3.840994156262866888e-02
2.380761843790012790e+03 2.253171222758015846e-02 1.109182350437328511e-02 3.738711869410719230e-02
2.390765044814340399e+03 2.319395831135816211e-02 1.150805660440353505e-02 3.730126746277692001e-02
2.400768245838668463e+03 2.353855508768470939e-02 1.195096301543746228e-02 3.783557456427857901e-02
2.410771446862996072e+03 2.311097569468902393e-02 1.121626848978640560e-02 3.819600325865538798e-02
2.420774647887324136e+03 2.379718745993145146e-02 1.198504791378468895e-02 3.910412095604696298e-02
2.430777848911651745e+03 2.356490096798868894e-02 1.169575926990902223e-02 3.811631216588295956e-02
2.440781049935979354e+03 2.373449450883091671e-02 1.226825326823983119e-02 3.840761527374860623e-02
2.450784250960307418e+03 2.391218233014752448e-02 1.171722771455954194e-02 3.793761816181586560e-02
2.460787451984635027e+03 2.342637781725229879e-02 1.225049011841816519e-02 3.788141872402638055e-02
2.470790653008963091e+03 2.361973279899805614e-02 1.212040867140652678e-02 3.725620639700198689e-02
2.480793854033290700e+03 2.379887426949591628e-02 1.207388196210526510e-02 3.886686644613857738e-02
2.490797055057618309e+03 2.340715101589809985e-02 1.216766554888991554e-02 3.970618892251844001e-02
2.500800256081946372e+03 2.440260684350226486e-02 1.225386296292025994e-02 3.940367766502252123e-02
2.510803457106273981e+03 2.385857238704014449e-02 1.136277369085030541e-02 3.860746921003761073e-02
2.520806658130601591e+03 2.434236048216275455e-02 1.173799492595489595e-02 3.888879513277688355e-02
2.530809859154929654e+03 2.421918066012981180e-02 1.247701682570018060e-02 3.981638812089372675e-02
2.540813060179257263e+03 2.434948688562023345e-02 1.203357958821525166e-02 4.047992269771486656e-02
2.550816261203585327e+03 2.440773422772547427e-02 1.184952865446627437e-02 4.064744706189941936e-02
2.560819462227912936e+03 2.479847100581019856e-02 1.218518170776426539e-02 3.914237974087048794e-02
2.570822663252240545e+03 2.484523919301281913e-02 1.185742461017014887e-02 3.969593329985851571e-02
2.580825864276568609e+03 2.410667615400480246e-02 1.191257093938199660e-02 3.912662079338990323e-02
2.590829065300896218e+03 2.394810457583278901e-02 1.219911053075036465e-02 3.979761042521379882e-02
2.600832266325224282e+03 2.478203288827053596e-02 1.238725834771697495e-02 3.959839106374485329e-02
2.610835467349551891e+03 2.489341364427944542e-02 1.207387815510156150e-02 4.061447603887799462e-02
2.620838668373879500e+03 2.564263871436225917e-02 1.184793783206296650e-02 3.965539199424219369e-02
2.630841869398207564e+03 2.453992192490647359e-02 1.244539498342732246e-02 4.001889050585717700e-02
2.640845070422535173e+03 2.559156174230170153e-02 1.291497004821182820e-02 4.058780383390782343e-02
2.650848271446862782e+03 2.516137800310140962e-02 1.241279018482414724e-02 4.130573431493349962e-02
2.660851472471190846e+03 2.539148473949940504e-02 1.331094527999027340e-02 4.265648256329795246e-02
2.670854673495518455e+03 2.599770135967512108e-02 1.283121987112419322e-02 4.241414005693654871e-02
2.680857874519846519e+03 2.846066517857344727e-02 1.440505979570427461e-02 4.521866567980527274e-02
2.690861075544174128e+03 2.887628689503112661e-02 1.417096396133064873e-02 4.730159129436131010e-02
2.700864276568501737e+03 2.919520051496700408e-02 1.388229404791950679e-02 5.007278614396549338e-02
2.710867477592829800e+03 3.307514376781617305e-02 1.723712138979521802e-02 5.470552318282405346e-02
2.720870678617157409e+03 3.440659085153661978e-02 1.735307252585801055e-02 5.583098407089519266e-02
2.730873879641485473e+03 3.344702161766183873e-02 1.697613467535777354e-02 5.481050215531236419e-02
2.740877080665813082e+03 3.538705469472885889e-02 1.759011918208198619e-02 5.716303213365535318e-02
2.750880281690140691e+03 3.374380452771354177e-02 1.720074567157676981e-02 5.587903153426237307e-02
2.760883482714468755e+03 3.338079619134284165e-02 1.731077980370853905e-02 5.710334949313479458e-02
2.770886683738796364e+03 3.736903788050853492e-02 1.874328025882358514e-02 6.048289247408170782e-02
2.780889884763124428e+03 3.702388396536379633e-02 1.899793766847509072e-02 5.976390595662015026e-02
2.790893085787452037e+03 3.572511026707942544e-02 1.844032169000641916e-02 5.804223500030653016e-02
2.800896286811779646e+03 3.477698919522772408e-02 1.694626532698002841e-02 5.671840068155662579e-02
2.810899487836107710e+03 3.436542844911059241e-02 1.827354225314971325e-02 5.513649532978119605e-02
2.820902688860435319e+03 3.334610340781760801e-02 1.781015830387943158e-02 5.455816845236668988e-02
2.830905889884762928e+03 3.205768629325660146e-02 1.713446405311224927e-02 5.277024442238795882e-02
2.840909090909090992e+03 3.209211000962455818e-02 1.686516077256354496e-02 5.124439726686549901e-02
2.850912291933418601e+03 3.073612449524928958e-02 1.554161319321056313e-02 4.985215546789008301e-02
2.860915492957746665e+03 2.952049676626443409e-02 1.488201142193315563e-02 4.625185311492518991e-02
2.870918693982074274e+03 2.710688203458276949e-02 1.389247694288319769e-02 4.509863637695667171e-02
2.880921895006401883e+03 2.753666431961981562e-02 1.249778233346436097e-02 4.555838892717739563e-02
2.890925096030729947e+03 2.655267329779456217e-02 1.318969000377928635e-02 4.418902100525769899e-02
2.900928297055057556e+03 2.651579792883835759e-02 1.325667726307470755e-02 4.356911090149200028e-02
2.910931498079385619e+03 2.646917857360231094e-02 1.335878611181992408e-02 4.412318941097866098e-02
2.920934699103713228e+03 2.648976929586088422e-02 1.361077210786580498e-02 4.478098317677447343e-02
2.930937900128040837e+03 2.563815087127580342e-02 1.229451967813308816e-02 4.310210787342479838e-02
2.940941101152368901e+03 2.564011714003039399e-02 1.255938557913577336e-02 4.123011658918614153e-02
2.950944302176696510e+03 2.631474325328653566e-02 1.308930117136102890e-02 4.298832298990767214e-02
2.960947503201024119e+03 2.591733584349026689e-02 1.247439656852311098e-02 4.377710015105031743e-02
2.970950704225352183e+03 2.600767953528948517e-02 1.283818839831843937e-02 4.222092284466775342e-02
2.980953905249679792e+03 2.657892480838447424e-02 1.328291166073419967e-02 4.238604624019519374e-02
2.990957106274007856e+03 2.645613059544698123e-02 1.371495123102802437e-02 4.250611400265577600e-02
3.000960307298335465e+03 2.596731320999702552e-02 1.271526360702124499e-02 4.301003154514203286e-02
3.010963508322663074e+03 2.683584653012991220e-02 1.359050094264669523e-02 4.240935822187956450e-02
3.020966709346991138e+03 2.640278743104278181e-02 1.302561032383028894e-02 4.285345321068367852e-02
3.030969910371318747e+03 2.696928752490099918e-02 1.340549681264637666e-02 4.438973550973950022e-02
3.040973111395646811e+03 2.601629970023691327e-02 1.292951155453436057e-02 4.415963245800981485e-02
3.050976312419974420e+03 2.724980256290646455e-02 1.318334917327917272e-02 4.373192946525906316e-02
3.060979513444302029e+03 2.702791170549659339e-02 1.457877727421543271e-02 4.383561334145258392e-02
3.070982714468630093e+03 2.646143486678735265e-02 1.295366725138032311e-02 4.282879307823467957e-02
3.080985915492957702e+03 2.664407605392035347e-02 1.347844938012211780e-02 4.273215847390474109e-02
3.090989116517285311e+03 2.723625040330491728e-02 1.331683509089769298e-02 4.417148840534126930e-02
3.100992317541613374e+03 2.660144589394523168e-02 1.277288452115271471e-02 4.268247209832780331e-02
3.110995518565940984e+03 2.528343323359043965e-02 1.289799406715569363e-02 4.279526614136212881e-02
3.120998719590269047e+03 2.715681728714204254e-02 1.298449968602006371e-02 4.291474208345821828e-02
3.131001920614596656e+03 2.645502545890679111e-02 1.275580884115389523e-02 4.496190357533583898e-02
3.141005121638924265e+03 2.743110214195723651e-02 1.363582174924338197e-02 4.472879814673907245e-02
3.151008322663252329e+03 2.680656547037970835e-02 1.381998684526552189e-02 4.373371759381319140e-02
3.161011523687579938e+03 2.680493771354268417e-02 1.279488358191414703e-02 4.457353864868567744e-02
3.171014724711908002e+03 2.763491057824552649e-02 1.367944969410750389e-02 4.377092235682477489e-02
3.181017925736235611e+03 2.690250671030041882e-02 1.357516728160347921e-02 4.446443886320556454e-02
3.191021126760563220e+03 2.680722296496131779e-02 1.356121413131494181e-02 4.409289292760060208e-02
3.201024327784891284e+03 2.783834304982598859e-02 1.447457522623246326e-02 4.513884070543739552e-02
3.211027528809218893e+03 2.792646458335610454e-02 1.392141153657321453e-02 4.796670890270050142e-02
3.221030729833546957e+03 2.823186992794737490e-02 1.437923273129106984e-02 4.541147295856582528e-02
3.231033930857874566e+03 2.836545662498030432e-02 1.412264019967766904e-02 4.525741935702012192e-02
3.241037131882202175e+03 2.894517956952609092e-02 1.424024552176707953e-02 4.740811731778234173e-02
3.251040332906530239e+03 2.882846331258260772e-02 1.482562440610015082e-02 4.661110479393036632e-02
3.261043533930857848e+03 3.219957059882625622e-02 1.667618357020015166e-02 5.044105030423847585e-02
3.271046734955185457e+03 3.177628088878760304e-02 1.568613450000591603e-02 5.249351597405117753e-02
3.281049935979513521e+03 3.225996518830150789e-02 1.647935955700719282e-02 5.313824101883504736e-02
3.291053137003841130e+03 3.388253379522047914e-02 1.753906584356205306e-02 5.365431032422041807e-02
3.301056338028169193e+03 3.443612313616874893e-02 1.815658794344220811e-02 5.688515045233907136e-02
3.311059539052496802e+03 3.786132016246044479e-02 1.796657716505295835e-02 6.301388308095376423e-02
3.321062740076824412e+03 4.207875402832905731e-02 2.027994517925789733e-02 6.932042366900696695e-02
3.331065941101152475e+03 4.434728824943705988e-02 2.224176180821367532e-02 7.405939350264184595e-02
3.341069142125480084e+03 4.200801049933473863e-02 1.960822041880862232e-02 6.949770069389199501e-02
3.351072343149808148e+03 3.768240247416040217e-02 1.896123217174336406e-02 6.262550921174828145e-02
3.361075544174135757e+03 3.622958835404507111e-02 1.868604188073487785e-02 5.776223707885144720e-02
3.371078745198463366e+03 3.470826544967081650e-02 1.710796859916211346e-02 5.586824902138199517e-02
3.381081946222791430e+03 3.380549499456121654e-02 1.746111769974501710e-02 5.417669336730565610e-02
3.391085147247119039e+03 3.205099144171817682e-02 1.596397262431770506e-02 5.198265898107793520e-02
3.401088348271446648e+03 3.232632699348920308e-02 1.603592118186214499e-02 5.223311717553671962e-02
3.411091549295774712e+03 3.113234117234876114e-02 1.607901640486168737e-02 5.222413027114680695e-02
3.421094750320102321e+03 3.103809850437163134e-02 1.497087101235662458e-02 5.032410879735298853e-02
3.431097951344430385e+03 3.094020506436795034e-02 1.553548445379571326e-02 4.857341243382933688e-02
3.441101152368757994e+03 3.142210418682954420e-02 1.553176259116319062e-02 5.059651443792009817e-02
3.451104353393085603e+03 3.130371489954764802e-02 1.549336006561895414e-02 4.920941167024134311e-02
3.461107554417413667e+03 2.999543993510551607e-02 1.479127497376327496e-02 5.061813085176125604e-02
3.471110755441741276e+03 3.075093364657271663e-02 1.494317354727214310e-02 4.898318883248216349e-02
3.481113956466069340e+03 2.983257226661050268e-02 1.443145591249570675e-02 4.911771139155876598e-02
3.491117157490396949e+03 3.164199641010736336e-02 1.609371959039916644e-02 4.989433592059165645e-02
3.501120358514724558e+03 3.208845328190633450e-02 1.566595843272703889e-02 5.320452931123244994e-02
3.511123559539052621e+03 3.107648283697277830e-02 1.564107651429772969e-02 5.157977913889969651e-02
3.521126760563380230e+03 3.098911611240257394e-02 1.596728684790393871e-02 4.960796449392184532e-02
3.531129961587708294e+03 3.064256275752519354e-02 1.518904404563710397e-02 5.067398380405906122e-02
3.541133162612035903e+03 3.303537513905856204e-02 1.610060257118521576e-02 5.409685159157675421e-02
3.551136363636363512e+03 7.510908339198692218e-02 4.724121939213246635e-02 1.023677408238671538e-01
3.561139564660691576e+03 9.596848289817007382e-02 6.861505350237001588e-02 1.251409418758741288e-01
3.571142765685019185e+03 4.381192594490184583e-02 2.128959740642481779e-02 7.015349296056330730e-02
3.581145966709346794e+03 3.712958251108499502e-02 1.817333654433320178e-02 6.310843641544039428e-02
3.591149167733674858e+03 3.792492319078830804e-02 1.727205603226984396e-02 6.730148842744684834e-02
3.601152368758002467e+03 4.147867089909287874e-02 2.030453580710460393e-02 7.262763412399131369e-02
3.611155569782330531e+03 4.363802232181596130e-02 2.080566418113505983e-02 7.637414178493011352e-02
3.621158770806658140e+03 4.550727340769769591e-02 2.095793345760996532e-02 8.021453073607300033e-02
3.631161971830985749e+03 4.640243046937828769e-02 2.121554735491629901e-02 8.218146807490474270e-02
3.641165172855313813e+03 4.814956815057971906e-02 2.362507483394739663e-02 8.414147859089747550e-02
3.651168373879641422e+03 4.795557547030687706e-02 2.194619500056793279e-02 8.381735106560928017e-02
3.661171574903969486e+03 4.806202125917433815e-02 2.319399445163055143e-02 8.259220016653523455e-02
3.671174775928297095e+03 4.307236633279035859e-02 2.193323703902220687e-02 7.774414276374727595e-02
3.681177976952624704e+03 4.234462611984781549e-02 2.045216320749575212e-02 7.607437006679722280e-02
3.691181177976952767e+03 4.072717042462742354e-02 1.954136857678817271e-02 7.290296064545688515e-02
3.701184379001280377e+03 3.894108136565747891e-02 1.899818822816484037e-02 6.595587792487192513e-02
3.711187580025607986e+03 3.584321396805057597e-02 1.770410345058986284e-02 6.219507889523814143e-02
3.721190781049936049e+03 3.434139678491680142e-02 1.773354128122391765e-02 5.746520573710233587e-02
3.731193982074263658e+03 3.360788233734775254e-02 1.737074757548761478e-02 5.784026915003540048e-02
3.741197183098591722e+03 3.350658889583247452e-02 1.750230471901066329e-02 5.391505838389208660e-02
3.751200384122919331e+03 3.335255527584012059e-02 1.643982308661269542e-02 5.224705613968749773e-02
3.761203585147246940e+03 3.108715630337474667e-02 1.615759610993163300e-02 5.311549488004709690e-02
3.771206786171575004e+03 3.082547942508757216e-02 1.572784464914871519e-02 5.173483842172874048e-02
3.781209987195902613e+03 3.173508851002132536e-02 1.633860567832440269e-02 5.209486273200072265e-02
3.791213188220230677e+03 3.217445765733819435e-02 1.583695610312242652e-02 5.317643093984405350e-02
3.801216389244558286e+03 3.186623495855685911e-02 1.678970504185121199e-02 5.352773343339706225e-02
3.811219590268885895e+03 3.176183117146433310e-02 1.646278713535484842e-02 5.278843664275009034e-02
3.821222791293213959e+03 3.115010838704941956e-02 1.607658114473573679e-02 5.047727488821682207e-02
3.831225992317541568e+03 3.135284714938266909e-02 1.552152366886909614e-02 5.252605548916201156e-02
3.841229193341869177e+03 3.241839365689045543e-02 1.663199728738704031e-02 5.256083795446973850e-02
3.851232394366197241e+03 3.275831685935905874e-02 1.612847451487259623e-02 5.217183205970653270e-02
3.861235595390524850e+03 3.237831649080681606e-02 1.665182536043261635e-02 5.411803579823395299e-02
3.871238796414852914e+03 3.267135404794509201e-02 1.639646309910047089e-02 5.261903631666830367e-02
3.881241997439180523e+03 3.218025045445129656e-02 1.501838332366555416e-02 5.298470329097285797e-02
3.891245198463508132e+03 3.174369453892592757e-02 1.583458829683240601e-02 5.144207955839261853e-02
3.901248399487836195e+03 3.201852271364440117e-02 1.607118792282880015e-02 5.324628148055873811e-02
3.911251600512163805e+03 3.161536986989413323e-02 1.476790163676606170e-02 5.338158052016362537e-02
3.921254801536491868e+03 3.239833314959573995e-02 1.573968173948465943e-02 5.272662463990442777e-02
3.931258002560819477e+03 3.208911464977023953e-02 1.632993840383026307e-02 5.177894313481033045e-02
3.941261203585147086e+03 3.352114927861101629e-02 1.677558210626290194e-02 5.366874620481967145e-02
3.951264404609475150e+03 3.275921660728033091e-02 1.599637765282946322e-02 5.352483202148419078e-02
3.961267605633802759e+03 3.304587387207176541e-02 1.701354695871522618e-02 5.537797485549574711e-02
3.971270806658130823e+03 3.334713754286700721e-02 1.644979676897013326e-02 5.453213341751039778e-02
3.981274007682458432e+03 3.326858460886592678e-02 1.632497867472018638e-02 5.412037059175719977e-02
3.991277208706786041e+03 3.337709478109548294e-02 1.661104616732382230e-02 5.447406226712416671e-02
4.001280409731114105e+03 3.288045593448957193e-02 1.626534973367315187e-02 5.410423386965012432e-02
4.011283610755441714e+03 3.335141899241993169e-02 1.630393568622734088e-02 5.335114061622097531e-02
4.021286811779769323e+03 3.360491857269988503e-02 1.654915786146853030e-02 5.514106568808740255e-02
4.031290012804097387e+03 3.397542700453678316e-02 1.727847893651607986e-02 5.475676288418418469e-02
4.041293213828424996e+03 3.476541452226306755e-02 1.773637515207836593e-02 5.734424485882522876e-02
4.051296414852753060e+03 3.523526125640061984e-02 1.713609414260368335e-02 5.723905101126054024e-02
4.061299615877080669e+03 3.431279502067650922e-02 1.608040084114993259e-02 5.483197570826884443e-02
4.071302816901408278e+03 3.379917277293136013e-02 1.657543128734883381e-02 5.541265855997594414e-02
4.081306017925736342e+03 3.409188658164681585e-02 1.717452726356220524e-02 5.580045162613012089e-02
4.091309218950063951e+03 3.372103996736354470e-02 1.661684352527366404e-02 5.559296032414633160e-02
4.101312419974391560e+03 3.495925372023349353e-02 1.702941479706601355e-02 5.709262541137836294e-02
4.111315620998719169e+03 3.449472646865286984e-02 1.818739348814444115e-02 5.615049850341401888e-02
4.121318822023047687e+03 3.494056187980333628e-02 1.695195666192836695e-02 5.637949133310760780e-02
4.131322023047375296e+03 3.373025700380381103e-02 1.710123119348468460e-02 5.501180260127016414e-02
4.141325224071702905e+03 3.434166551427225711e-02 1.599566994341077714e-02 5.553788132315292531e-02
4.151328425096030514e+03 3.504606365376557175e-02 1.742063831831021370e-02 5.686705502371358634e-02
4.161331626120358123e+03 3.615057461112736181e-02 1.799995004950682292e-02 5.925312305770670529e-02
4.171334827144686642e+03 3.623173267441483214e-02 1.839714813864140597e-02 5.674665224382955536e-02
4.181338028169014251e+03 3.580479494731232670e-02 1.820295378322223101e-02 5.708102529338262426e-02
4.191341229193341860e+03 3.395812315184541796e-02 1.717022731773686431e-02 5.511585752237437713e-02
4.201344430217669469e+03 3.587645094663920869e-02 1.872429113885997962e-02 5.771559762274862393e-02
4.211347631241997078e+03 3.628372628317618614e-02 1.874790602252851199e-02 5.658966077721100385e-02
4.221350832266325597e+03 3.576926681925012702e-02 1.844668214012759946e-02 5.858877155415291582e-02
4.231354033290653206e+03 3.531553459404216527e-02 1.737996454026225976e-02 5.768420789218661748e-02
4.241357234314980815e+03 3.526825207144439200e-02 1.708028586335354898e-02 5.668214675329781571e-02
4.251360435339308424e+03 3.599292005582314935e-02 1.823600435229384351e-02 5.869594031381276944e-02
4.261363636363636033e+03 3.637391370938774376e-02 1.894448876643401586e-02 5.904227866556489845e-02
4.271366837387964551e+03 3.538813021277607829e-02 1.691069570479122874e-02 5.733653388665777700e-02
4.281370038412292161e+03 3.607333938276547497e-02 1.806100119877929872e-02 5.821466934271408988e-02
4.291373239436619770e+03 3.663072290881146803e-02 1.800643816039031175e-02 5.909328570978440026e-02
4.301376440460947379e+03 3.507818404628752773e-02 1.794767847694901317e-02 5.883604809261105267e-02
4.311379641485274988e+03 3.482421619442740285e-02 1.794410453490405399e-02 5.856353096405555320e-02
4.321382842509603506e+03 3.676560618761195998e-02 1.773113809703566121e-02 6.048222182508419809e-02
4.331386043533931115e+03 3.773594691474103924e-02 1.870931038109460362e-02 6.173622728498964762e-02
4.341389244558258724e+03 3.788234190245967636e-02 1.932801928802133085e-02 6.468414791082154058e-02
4.351392445582586333e+03 3.826698781638455255e-02 1.879975927053879892e-02 6.411361407129989587e-02
4.361395646606913942e+03 3.949337932627939446e-02 1.840336457522181307e-02 6.065549719154259001e-02
4.371398847631241551e+03 3.811805551706345940e-02 1.782159679723376716e-02 6.285329888867141612e-02
4.381402048655570070e+03 3.881753405483438085e-02 1.858521113726237586e-02 6.488783811025107540e-02
4.391405249679897679e+03 3.920747736779285619e-02 1.980933523387531925e-02 6.399106655264392984e-02
4.401408450704225288e+03 3.919654832448174475e-02 1.784874563244561937e-02 6.559181319196472071e-02
4.411411651728552897e+03 3.831718232152196008e-02 1.968036245009091578e-02 6.646543056838231933e-02
4.421414852752880506e+03 4.139264256027058719e-02 1.977613446538274353e-02 7.002231728413581269e-02
4.431418053777209025e+03 4.080509658427949882e-02 1.822786355001273367e-02 6.984845723342929247e-02
4.441421254801536634e+03 4.023480042855870353e-02 2.073899574894868050e-02 7.252580411447473452e-02
4.451424455825864243e+03 4.207275932004039820e-02 2.103980015733171796e-02 7.339929368548252231e-02
4.461427656850191852e+03 4.353900306608069620e-02 2.243391105850247452e-02 7.701856676857325723e-02
4.471430857874519461e+03 4.346285978829256963e-02 2.114458888562845834e-02 8.018338647831639576e-02
4.481434058898847979e+03 4.562568691852522673e-02 2.217637046818083865e-02 8.048073464265560750e-02
4.491437259923175588e+03 4.708707948136822002e-02 2.174581788657591053e-02 8.314347259643385668e-02
4.501440460947503198e+03 4.419783778498372756e-02 2.144591280784469492e-02 8.395392491338470042e-02
4.511443661971830807e+03 4.734937042577026106e-02 2.321884596026752359e-02 8.731334660311101947e-02
4.521446862996158416e+03 5.000961790572407833e-02 2.370745333906057808e-02 9.588799298778492852e-02
4.531450064020486934e+03 5.005379422811147977e-02 2.399156242510925088e-02 9.874018514582226513e-02
4.541453265044814543e+03 5.297903238619765948e-02 2.548673020788421242e-02 9.708027291340495801e-02
4.551456466069142152e+03 5.259934177646059805e-02 2.569449383800727002e-02 1.029276527918718404e-01
4.561459667093469761e+03 5.275145497428017360e-02 2.720163171137584407e-02 1.052794591900372001e-01
4.571462868117797370e+03 5.586702177331769742e-02 2.696855101374677141e-02 1.091927435344161312e-01
4.581466069142125889e+03 5.900161784046916574e-02 2.792980998609407781e-02 1.116813419253218226e-01
4.591469270166453498e+03 6.114032136319584587e-02 2.836574622563511547e-02 1.143622210746461226e-01
4.601472471190781107e+03 6.174874462337887754e-02 2.928374574234862693e-02 1.167932868109833600e-01
4.611475672215108716e+03 6.264895214698003312e-02 3.145464609431647407e-02 1.235189290673570361e-01
4.621478873239436325e+03 6.669684686744592472e-02 3.042573903488255196e-02 1.239702113113309023e-01
4.631482074263764844e+03 6.900295857306643077e-02 3.188675844040509549e-02 1.260418576941881585e-01
4.641485275288092453e+03 7.333892963266643028e-02 3.257450533639713597e-02 1.365755060825548373e-01
4.651488476312420062e+03 7.106895952160295626e-02 3.210309416185348069e-02 1.354533941251113149e-01
4.661491677336747671e+03 6.941930028463849656e-02 3.365775011339238593e-02 1.290196400588335401e-01
4.671494878361075280e+03 7.077823697050290852e-02 3.314598154612412306e-02 1.262031182796210793e-01
4.681498079385402889e+03 7.165272630372572504e-02 3.448073710667105135e-02 1.289596658312791577e-01
4.691501280409731407e+03 7.511166638978364340e-02 3.515969345420112691e-02 1.347886887942707224e-01
4.701504481434059016e+03 7.636050027120695749e-02 3.448774142903806433e-02 1.371940845417785326e-01
4.711507682458386626e+03 7.479845685441856296e-02 3.576102170633892186e-02 1.379461115755971079e-01
4.721510883482714235e+03 7.161833689327364028e-02 3.419482351457523578e-02 1.389618048107414683e-01
4.731514084507041844e+03 7.452172056021569291e-02 3.255100922762606264e-02 1.397136998867529734e-01
4.741517285531370362e+03 6.984145228235823233e-02 3.424542653932701602e-02 1.422311110423546410e-01
4.751520486555697971e+03 7.014738955746943616e-02 3.317691863346904774e-02 1.429413406385409979e-01
4.761523687580025580e+03 7.287268848552524991e-02 3.389012947568576656e-02 1.459961144968173474e-01
4.771526888604353189e+03 7.268721558046037368e-02 3.200547738182632496e-02 1.443610515759380653e-01
4.781530089628680798e+03 7.260116604825253561e-02 2.971727201853868044e-02 1.480717914560719661e-01
4.791533290653009317e+03 7.014440466551610798e-02 2.929460037724947175e-02 1.525046497298965520e-01
4.801536491677336926e+03 6.778554364256569875e-02 2.996759563313622365e-02 1.512898657634255406e-01
4.811539692701664535e+03 6.842991466775505405e-02 3.139607075927288576e-02 1.541582989532180314e-01
4.821542893725992144e+03 7.500004246367754368e-02 3.253188422305564043e-02 1.573736676493119602e-01
4.831546094750319753e+03 8.216077094161526595e-02 3.629080069822823024e-02 1.610356605564016719e-01
4.841549295774648272e+03 8.532839982887256702e-02 3.912530335109078855e-02 1.574854822231551432e-01
4.851552496798975881e+03 8.821787300149652733e-02 3.937883595071565990e-02 1.604507979283598951e-01
4.861555697823303490e+03 8.934922778771556273e-02 4.173971586759891300e-02 1.566391499216840122e-01
4.871558898847631099e+03 8.732876409486022007e-02 4.116181396532205689e-02 1.566424212085076040e-01
4.881562099871958708e+03 8.379455102445948489e-02 3.995550953673607242e-02 1.540471192220086993e-01
4.891565300896287226e+03 8.025213474105274969e-02 3.729042748130755730e-02 1.471707174625702108e-01
4.901568501920614835e+03 7.867380659884348759e-02 3.543975028572003694e-02 1.382125840831234520e-01
4.911571702944942444e+03 6.969744335135384661e-02 3.182067594491791440e-02 1.322713879137064064e-01
4.921574903969270053e+03 6.497819576995557400e-02 3.084797352022529762e-02 1.259875610716105487e-01
4.931578104993597663e+03 6.202373461279863526e-02 3.025898773355941568e-02 1.192442787129931459e-01
4.941581306017926181e+03 5.692472465643645674e-02 2.800534791372776000e-02 1.141452854997207639e-01
4.951584507042253790e+03 5.474226189225758765e-02 2.707987264825848645e-02 1.005804111106372717e-01
4.961587708066581399e+03 5.300922665638498760e-02 2.449431231439270010e-02 9.019906022238588506e-02
4.971590909090909008e+03 4.990390124680770673e-02 2.494014415552525329e-02 8.646868120124459600e-02
4.981594110115236617e+03 4.783893875482436026e-02 2.451260437553364271e-02 8.238577860715540213e-02
4.991597311139564226e+03 4.679909311157901680e-02 2.294953140696594576e-02 8.171427113101657758e-02
5.001600512163892745e+03 4.467069801144019081e-02 2.226248414370219850e-02 7.864660080531084285e-02
5.011603713188220354e+03 4.543970047414941371e-02 2.352826347583815425e-02 7.559829366584502885e-02
5.021606914212547963e+03 4.453109359062094874e-02 2.242785278900613979e-02 7.384549133737015880e-02
5.031610115236875572e+03 4.408615953782551999e-02 2.175722528318777341e-02 7.301660758137945573e-02
5.041613316261203181e+03 4.457247608466972932e-02 2.248666822568760534e-02 7.133606199774850110e-02
5.051616517285531700e+03 4.380586418612363725e-02 2.140380405039325404e-02 7.119164285073051324e-02
5.061619718309859309e+03 4.538308555451157911e-02 2.309841308714268363e-02 7.494584334864495823e-02
5.071622919334186918e+03 4.467828224291400113e-02 2.262700432869895265e-02 7.297517116044301144e-02
5.081626120358514527e+03 4.460761371260772712e-02 2.210628049809704523e-02 7.353056061193519177e-02
5.091629321382842136e+03 4.237256843666371148e-02 2.042831719367866478e-02 7.025485820345589438e-02
5.101632522407170654e+03 4.289733150049006294e-02 2.115877979146503843e-02 7.077998482880419606e-02
5.111635723431498263e+03 4.372994822197396464e-02 2.204120853870228380e-02 7.085799756374980274e-02
5.121638924455825872e+03 4.408455098863837268e-02 2.039351819752954764e-02 7.258327075433985975e-02
5.131642125480153481e+03 4.293813307749420188e-02 2.170027172078350247e-02 7.225154963887681081e-02
5.141645326504481091e+03 4.492729603559500462e-02 2.106990235380807458e-02 7.348937606924632604e-02
5.151648527528809609e+03 4.615919057824326155e-02 2.198523032149109213e-02 7.417277786374280868e-02
5.161651728553137218e+03 4.228691840370443072e-02 2.144368843524100191e-02 7.240013776965831260e-02
5.171654929577464827e+03 4.366739785119855971e-02 2.157890671091954038e-02 7.163993970820282942e-02
5.181658130601792436e+03 4.697872135951319111e-02 2.169550769078637531e-02 7.630712751634043112e-02
5.191661331626120045e+03 4.716234166158386754e-02 2.388056815192944604e-02 7.546660846142044798e-02
5.201664532650448564e+03 4.272976199919054779e-02 2.165171397536552744e-02 7.259444136590537111e-02
5.211667733674776173e+03 4.387849767470183848e-02 2.256798063403219964e-02 7.166014028534099800e-02
5.221670934699103782e+03 4.349312679423224942e-02 2.197546842406401107e-02 7.323574185881737142e-02
5.231674135723431391e+03 4.424119006180518565e-02 2.114285728684288032e-02 7.227397313226129050e-02
5.241677336747759000e+03 4.362428683697131687e-02 2.262183934461166682e-02 7.257021811466712879e-02
5.251680537772087519e+03 4.440565394930668514e-02 2.098112468191607599e-02 7.133551306603860831e-02
5.261683738796415128e+03 4.687765469131813245e-02 2.257128438788026312e-02 7.476608989652154535e-02
5.271686939820742737e+03 4.476862556264851051e-02 2.326980594807419311e-02 7.353843270965580714e-02
5.281690140845070346e+03 4.497447145325575435e-02 2.308605482088054925e-02 7.518566278171658068e-02
5.291693341869397955e+03 4.560560360741657687e-02 2.461414343645904057e-02 7.371386109718196245e-02
5.301696542893725564e+03 4.676735811286401173e-02 2.247482603716769584e-02 7.428360347975609956e-02
5.311699743918054082e+03 4.539953898936846532e-02 2.377160051594224416e-02 7.589789801719908080e-02
5.321702944942381691e+03 4.808010644417191892e-02 2.429122032032423814e-02 8.025609346960156654e-02
5.331706145966709300e+03 1.122416928645364881e-01 7.423612297698137241e-02 1.523747212188407418e-01
5.341709346991036909e+03 1.218289412104780201e-01 8.213897135981655662e-02 1.646278774242538046e-01
5.351712548015364519e+03 5.062621226134490782e-02 2.601751332881511655e-02 8.495071881394000712e-02
5.361715749039693037e+03 4.610638095406579401e-02 2.422469446126496173e-02 7.634318636797521318e-02
5.371718950064020646e+03 4.654194469432723635e-02 2.345197261920084139e-02 7.354938879253729300e-02
5.381722151088348255e+03 4.426777322318464769e-02 2.170244693982227926e-02 7.458279664933423203e-02
5.391725352112675864e+03 4.494922424038761549e-02 2.285353288358512799e-02 7.601896288494419673e-02
5.401728553137003473e+03 4.705546286041647347e-02 2.350938539796849913e-02 7.576987980105583109e-02
5.411731754161331992e+03 4.754261854092821371e-02 2.301295471249766370e-02 7.405349044916287315e-02
5.421734955185659601e+03 4.702321033225900088e-02 2.384476425292050492e-02 7.510922603968869793e-02
5.431738156209987210e+03 4.836259356601474435e-02 2.464108167013393663e-02 7.717341138203334672e-02
5.441741357234314819e+03 4.651012022010726082e-02 2.346156490840698924e-02 7.585774673925474443e-02
5.451744558258642428e+03 4.466585913119035245e-02 2.180167352673983636e-02 7.555278779362227526e-02
5.461747759282970947e+03 4.542832332879850193e-02 2.358648066825488887e-02 7.349849948867684390e-02
5.471750960307298556e+03 4.629442215193253080e-02 2.418543403563819250e-02 7.481495917148413277e-02
5.481754161331626165e+03 4.644346942197209033e-02 2.287430818395651613e-02 7.882842705106937742e-02
5.491757362355953774e+03 4.890787447524465315e-02 2.396582852103629896e-02 7.824868070771760775e-02
5.501760563380281383e+03 4.886706082346572305e-02 2.439122968554186324e-02 7.753671246429115482e-02
5.511763764404609901e+03 4.684286174916826168e-02 2.468427714223327130e-02 7.979265343980523895e-02
5.521766965428937510e+03 4.782830909735628216e-02 2.484218479430393492e-02 7.773147184403708665e-02
5.531770166453265119e+03 4.718118862721638190e-02 2.388029090699493248e-02 7.848447739169296666e-02
5.541773367477592728e+03 4.722895774092813331e-02 2.357134957179870399e-02 7.898094375652366106e-02
5.551776568501920337e+03 4.654711054518737706e-02 2.355459256863272344e-02 7.829577279833495329e-02
5.561779769526248856e+03 4.761269694479648013e-02 2.390273098222702591e-02 7.712705914884313008e-02
5.571782970550576465e+03 4.750811736681605224e-02 2.436328985992322962e-02 7.689464392357465983e-02
5.581786171574904074e+03 4.738688559487058000e-02 2.365578659077893428e-02 7.773589554485525743e-02
5.591789372599231683e+03 4.639680052081946587e-02 2.127485546361785815e-02 7.856892084964205158e-02
5.601792573623559292e+03 4.842844769738775812e-02 2.464675556552883146e-02 7.936447399700342908e-02
5.611795774647886901e+03 4.783262308043874367e-02 2.431600167200008433e-02 7.901351145577413526e-02
5.621798975672215420e+03 4.784275299098117440e-02 2.336444275299359025e-02 7.677988872744667681e-02
5.631802176696543029e+03 4.845338921820413480e-02 2.397749317701679261e-02 7.882417222653891054e-02
5.641805377720870638e+03 4.904700364844593458e-02 2.391115247879397818e-02 7.860799552404286461e-02
5.651808578745198247e+03 4.858067460505116619e-02 2.508913983220693866e-02 8.097778274143156707e-02
5.661811779769525856e+03 5.018303324363511397e-02 2.422059122783524338e-02 8.321772653950762488e-02
5.671814980793854374e+03 5.014328361650460114e-02 2.413148182488453891e-02 8.343385102854987412e-02
5.681818181818181984e+03 4.904195437430754201e-02 2.542189204397041560e-02 8.522491376934002161e-02
5.691821382842509593e+03 4.985378519905891981e-02 2.417310477701995267e-02 8.155848407374283182e-02
5.701824583866837202e+03 4.937003493751198485e-02 2.319242403612256989e-02 8.119207745342474358e-02
5.711827784891164811e+03 5.260753916741528480e-02 2.673244838861611739e-02 8.560389896596591608e-02
5.721830985915493329e+03 5.411608556391189068e-02 2.852576895669078558e-02 8.955806033973742752e-02
5.731834186939820938e+03 5.437263568851995882e-02 2.624143736893940274e-02 8.743308703210780908e-02
5.741837387964148547e+03 5.309520404838489332e-02 2.723903570211004196e-02 8.880713941769036168e-02
5.751840588988476156e+03 5.556191362428868769e-02 2.875923103684665388e-02 9.252998958007006836e-02
5.761843790012803765e+03 5.474680245811707618e-02 2.663213313414616867e-02 9.495150810158185795e-02
5.771846991037132284e+03 5.448962356622095299e-02 2.566653855884731480e-02 9.425324024603723427e-02
5.781850192061459893e+03 5.598726671165515228e-02 2.676809106508472660e-02 9.595208196075956375e-02
5.791853393085787502e+03 5.649507402065256229e-02 2.742882240624653148e-02 9.760363739717943521e-02
5.801856594110115111e+03 5.723644102924801275e-02 2.813965377687694877e-02 9.825046118268047912e-02
5.811859795134442720e+03 5.828696456438445944e-02 2.787021952102551256e-02 9.650349998698252996e-02
5.821862996158771239e+03 5.872258945892167709e-02 2.938268277985977076e-02 9.663162591571823612e-02
5.831866197183098848e+03 6.248302366143713982e-02 3.068049296263092307e-02 1.006139396511870898e-01
5.841869398207426457e+03 6.286410291504909709e-02 3.230326391035896055e-02 1.076296527270034775e-01
5.851872599231754066e+03 6.288307438778181768e-02 3.105914081200951762e-02 1.062809696287575906e-01
5.861875800256081675e+03 6.422280026220072990e-02 3.106941431524450764e-02 1.088631122943545526e-01
5.871879001280410193e+03 6.341355790708105844e-02 3.262974654042896661e-02 1.066351998883902780e-01
5.881882202304737802e+03 6.139379415282189556e-02 3.001296885423839281e-02 1.050769916579993579e-01
5.891885403329065412e+03 6.221118709978611105e-02 3.021005147307084457e-02 1.071541867477136672e-01
5.901888604353393021e+03 6.471983644648450495e-02 3.288749502313240147e-02 1.054209129287006774e-01
5.911891805377720630e+03 6.246657828789908828e-02 3.192223707308984582e-02 1.104106175911707677e-01
5.921895006402048239e+03 6.227726566796211449e-02 2.984319634698612625e-02 1.078839413278092352e-01
5.931898207426376757e+03 6.291807043930740251e-02 3.026629313839414998e-02 1.076597829810713863e-01
5.941901408450704366e+03 6.362639061975212951e-02 2.890385515966909999e-02 1.047926766939077242e-01
5.951904609475031975e+03 6.133458119737010550e-02 3.269435455128982815e-02 1.032645781791644846e-01
5.961907810499359584e+03 6.384885296522220532e-02 3.107315947133362441e-02 1.056367029899731025e-01
5.971911011523687193e+03 6.297463689315563329e-02 3.015413899543354856e-02 1.055346712221992694e-01
5.981914212548015712e+03 6.326798758399165834e-02 3.151525682287392022e-02 1.059656585178247457e-01
5.991917413572343321e+03 6.097676631340772507e-02 2.991669414947631736e-02 1.056163334664303732e-01
6.001920614596670930e+03 6.381538036257852764e-02 3.321263078236193211e-02 1.021294542971052516e-01
6.011923815620998539e+03 6.025319171592508766e-02 3.083055186180025734e-02 1.015706576310174275e-01
6.021927016645326148e+03 5.796292295384712634e-02 2.950556135569004992e-02 1.033323559583227830e-01
6.031930217669654667e+03 6.065864274622657926e-02 2.897467024664969817e-02 1.035067285393897890e-01
6.041933418693982276e+03 5.959700555185029613e-02 3.008357141315111394e-02 9.773132825179722816e-02
6.051936619718309885e+03 5.747802387612994945e-02 2.846307249381238927e-02 9.797656961919343210e-02
6.061939820742637494e+03 5.711555933757071768e-02 2.872951471738295626e-02 9.877693176369771455e-02
6.071943021766965103e+03 5.817380236555260570e-02 2.849517190520115678e-02 9.707344873863982260e-02
6.081946222791293621e+03 5.739946508753239474e-02 2.804212986605540345e-02 9.880562326929506756e-02
6.091949423815621230e+03 5.767224876189182281e-02 2.781364529574261585e-02 9.721127743299966262e-02
6.101952624839948840e+03 5.655180641969132643e-02 2.641964228407331361e-02 9.366335674900237718e-02
6.111955825864276449e+03 5.632548940965241557e-02 2.833937503528000112e-02 9.081985786056406829e-02
6.121959026888604058e+03 5.371652832756641793e-02 2.732211048398724626e-02 8.958122300200092869e-02
6.131962227912932576e+03 5.542950165834551607e-02 2.717717491167363081e-02 9.010035009807096373e-02
6.141965428937260185e+03 5.330526867870975100e-02 2.642530299698767418e-02 9.037156457603644222e-02
6.151968629961587794e+03 5.504095614146600063e-02 2.543973295281174232e-02 9.092950188155930757e-02
6.161971830985915403e+03 5.495302152950426455e-02 2.623486584498670518e-02 8.906589552591216707e-02
6.171975032010243012e+03 5.488522067547433464e-02 2.800791179154821231e-02 8.965115610459269135e-02
6.181978233034570621e+03 5.365981333408668952e-02 2.723248356775608697e-02 8.677509623240582670e-02
6.191981434058899140e+03 5.500447667214410086e-02 2.701407485180059437e-02 8.757839290157755363e-02
6.201984635083226749e+03 5.415109663671468371e-02 2.651482870663837699e-02 8.934649513729504833e-02
6.211987836107554358e+03 5.152103683836560533e-02 2.690577449559272347e-02 8.676897802340936827e-02
6.221991037131881967e+03 5.281722857370719365e-02 2.475555517009260173e-02 8.598378352848334849e-02
6.231994238156209576e+03 5.284578780929360953e-02 2.673684675223512303e-02 8.521038035478602224e-02
6.241997439180538095e+03 5.148855092174172560e-02 2.510344583817877492e-02 8.458204598429010235e-02
6.252000640204865704e+03 5.330007315662676354e-02 2.657702023671712835e-02 8.609805318161531384e-02
6.262003841229193313e+03 5.386827396851567862e-02 2.851903591689416637e-02 8.778625283856821004e-02
6.272007042253520922e+03 5.219791953492990827e-02 2.535391943408796603e-02 8.669596260799053433e-02
6.282010243277848531e+03 5.234925257940137994e-02 2.756159159963019606e-02 8.472852987024731553e-02
6.292013444302177049e+03 5.065216716955005249e-02 2.508858860011192043e-02 8.493411005312670459e-02
6.302016645326504658e+03 5.287213005307237618e-02 2.628308092836688370e-02 8.759383930928815731e-02
6.312019846350832267e+03 5.307410551287642525e-02 2.715613587332354334e-02 8.744124450790674574e-02
6.322023047375159877e+03 5.475976258950673858e-02 2.908395719101197416e-02 8.608344298281747631e-02
6.332026248399487486e+03 5.329688088609810942e-02 2.739862556197906335e-02 8.955218479572511769e-02
6.342029449423816004e+03 5.364817072605622406e-02 2.925178177751823830e-02 8.596155619287632055e-02
6.352032650448143613e+03 5.501613447459870881e-02 2.684514390903519968e-02 9.045639801901654564e-02
6.362035851472471222e+03 5.531895062207774216e-02 2.565687893291816388e-02 9.025683581257518129e-02
6.372039052496798831e+03 5.434854489605344535e-02 2.649317043355712414e-02 8.788687572640362100e-02
6.382042253521126440e+03 5.581439054541561390e-02 2.778049032662188375e-02 8.836882966669866446e-02
6.392045454545454959e+03 5.632129764806807076e-02 2.836184149429259171e-02 9.141686108663193977e-02
6.402048655569782568e+03 5.434607966635828652e-02 2.826870070349115499e-02 9.029213365600953500e-02
6.412051856594110177e+03 5.439215617529823132e-02 2.621962950107361787e-02 8.951044474118899363e-02
6.422055057618437786e+03 5.335681367315608936e-02 2.758091434776864873e-02 8.529055960723146146e-02
6.432058258642765395e+03 5.330576142053995020e-02 2.672194944622017718e-02 8.747395587575118592e-02
6.442061459667093914e+03 5.483882663545463360e-02 2.781621205131576055e-02 9.117662018806005353e-02
6.452064660691421523e+03 5.369854592988655001e-02 2.785040048058204376e-02 8.717893184772404491e-02
6.462067861715749132e+03 5.057467006701702600e-02 2.414912052206902304e-02 8.536573003524729197e-02
6.472071062740076741e+03 5.216831599101511702e-02 2.645603143956962860e-02 8.657725108084991794e-02
6.482074263764404350e+03 5.467022960945659010e-02 2.716031199399948984e-02 8.632851266806508550e-02
6.492077464788731959e+03 5.252542324513344296e-02 2.630153273854070328e-02 8.850424760374693556e-02
6.502080665813060477e+03 5.339724093762662771e-02 2.623814560549584188e-02 8.703618331882179149e-02
6.512083866837388086e+03 5.478787815498858960e-02 2.738374051928886901e-02 8.812785065717351762e-02
6.522087067861715695e+03 5.407318548482701465e-02 2.677762642434115131e-02 8.918498644353216320e-02
6.532090268886043305e+03 5.398515482926780767e-02 2.911211884917171491e-02 8.591529731915963086e-02
6.542093469910370914e+03 5.400882418783895661e-02 2.888948907202089703e-02 8.760373738820223521e-02
6.552096670934699432e+03 5.608151976842989245e-02 2.838999175179190634e-02 8.973172922827150899e-02
6.562099871959027041e+03 5.565349727919112477e-02 2.833640792446231321e-02 9.242583109262431096e-02
6.572103072983354650e+03 5.555443868591972145e-02 2.823374001293393887e-02 9.058315703654361284e-02
6.582106274007682259e+03 5.660160021430880872e-02 2.868022767355462091e-02 9.089795296108370282e-02
6.592109475032009868e+03 5.612084311065233116e-02 2.781825956313629944e-02 9.215122854904501948e-02
6.602112676056338387e+03 5.350963892983917614e-02 2.689692153842083294e-02 8.999740880380333041e-02
6.612115877080665996e+03 5.303488857180767291e-02 2.745729542395027728e-02 8.949564695056530517e-02
6.622119078104993605e+03 5.609482911636442387e-02 2.705533654332779869e-02 9.081562008265359198e-02
6.632122279129321214e+03 5.421669438000882579e-02 2.645219670804496020e-02 8.993531875690938260e-02
6.642125480153648823e+03 5.616625067500001511e-02 2.722330082033436877e-02 8.931098334731224497e-02
6.652128681177977342e+03 5.597830626831484108e-02 2.843634962024524718e-02 8.862013125244208589e-02
6.662131882202304951e+03 5.447710890778683507e-02 2.791890936211328597e-02 8.935912682405856844e-02
6.672135083226632560e+03 5.537319459796738452e-02 2.702509557516406813e-02 8.736541193233834934e-02
6.682138284250960169e+03 5.517661385683102909e-02 2.585899270647901843e-02 9.020002052911858803e-02
6.692141485275287778e+03 5.785244944045477011e-02 2.826233252421486708e-02 9.237907823926184980e-02
6.702144686299616296e+03 5.525428141713136648e-02 2.692378972004194973e-02 8.999574167770182931e-02
6.712147887323943905e+03 5.550447067075588159e-02 2.694055137303425287e-02 8.830668358150908781e-02
6.722151088348271514e+03 5.757080364323209631e-02 2.830393614435136942e-02 8.911043296853130014e-02
6.732154289372599123e+03 5.589881131624285099e-02 2.735323572677207660e-02 8.991380974353831157e-02
6.742157490396926733e+03 5.518819514399799647e-02 2.683381100965880062e-02 9.089868447462626233e-02
6.752160691421255251e+03 5.553727142865781674e-02 2.893786866084041565e-02 9.161210203410417863e-02
6.762163892445582860e+03 5.512454296799019354e-02 2.747011995278820368e-02 8.920352116389648756e-02
6.772167093469910469e+03 5.667913977446038115e-02 2.906302945131776505e-02 9.179201693632059456e-02
6.782170294494238078e+03 5.609942884044352013e-02 2.886908275969031490e-02 9.013388031929230049e-02
6.792173495518565687e+03 5.731749985319666701e-02 2.813324779648933641e-02 9.206204216587217382e-02
6.802176696542893296e+03 5.661225681795346854e-02 2.734435231997008747e-02 9.280354285280413562e-02
6.812179897567221815e+03 5.512903377795762977e-02 2.858506960924795878e-02 9.379492491464598569e-02
6.822183098591549424e+03 8.922233901914809751e-02 4.409416883057978853e-02 1.484953707113779442e-01
6.832186299615877033e+03 1.419926657162307870e-01 7.340328846406260488e-02 2.381251264354197761e-01
6.842189500640204642e+03 9.069901959747923847e-02 4.619313689236576037e-02 1.453582259488740702e-01
6.852192701664532251e+03 5.708920072477979141e-02 3.009760483834839420e-02 9.925392025619533820e-02
6.862195902688860770e+03 5.953097028741544117e-02 3.099930527745872397e-02 9.724689383547430177e-02
6.872199103713188379e+03 5.796326581554975960e-02 2.905906917272448736e-02 9.550221961872978893e-02
6.882202304737515988e+03 5.900806763674255190e-02 2.870150642586294029e-02 1.009684528596719172e-01
6.892205505761843597e+03 6.989130755450401189e-02 3.260135175301052957e-02 1.196045899387224859e-01
6.902208706786171206e+03 1.208869330054415103e-01 6.238280502602738808e-02 2.079033770836088424e-01
6.912211907810499724e+03 1.013388636128447623e-01 4.951683222157158420e-02 1.794202522111381370e-01
6.922215108834827333e+03 6.471549108953381091e-02 3.191460227498018470e-02 1.094163758786986240e-01
6.932218309859154942e+03 6.538194202965441626e-02 3.282745167194603408e-02 1.135119218433491839e-01
6.942221510883482551e+03 6.554149316387612723e-02 3.206085576120731861e-02 1.190331959627103642e-01
6.952224711907810160e+03 6.864967762911224070e-02 3.250802069303374703e-02 1.247091647220662236e-01
6.962227912932138679e+03 6.854330303573855088e-02 3.196908917939532413e-02 1.277173071562906770e-01
6.972231113956466288e+03 6.914288243893065844e-02 3.324357829904051043e-02 1.380912755048765983e-01
6.982234314980793897e+03 7.302249776677080528e-02 3.305959940224563465e-02 1.531348046562286125e-01
6.992237516005121506e+03 8.058366405762516782e-02 3.943222292192291589e-02 1.673036073391504786e-01
7.002240717029449115e+03 8.465218101677408902e-02 3.856381704158991924e-02 1.840182162522144838e-01
7.012243918053777634e+03 8.834672289731948513e-02 4.026859439619105002e-02 1.872625386333919839e-01
7.022247119078105243e+03 8.487370467842900168e-02 4.218858850212116318e-02 1.958534814633450805e-01
7.032250320102432852e+03 9.026839626233208735e-02 4.100202060851253216e-02 1.948962333084627851e-01
7.042253521126760461e+03 9.682691864555460770e-02 4.477139071113311192e-02 1.984334368243318714e-01
7.052256722151088070e+03 1.037923499184611603e-01 4.605064227175628688e-02 2.084075986565162020e-01
7.062259923175416588e+03 1.038358682417008932e-01 4.734507584806092739e-02 2.192788285164987416e-01
7.072263124199744198e+03 1.151042072234488428e-01 5.439214557023500790e-02 2.296244352684247703e-01
7.082266325224071807e+03 1.210091014587023617e-01 5.308979440988798038e-02 2.432459712872126756e-01
7.092269526248399416e+03 1.238701860770267948e-01 5.747699950086713333e-02 2.333434305328282443e-01
7.102272727272727025e+03 1.240859445338204498e-01 6.043381365160682694e-02 2.327031014751190785e-01
7.112275928297054634e+03 1.456125440719092667e-01 6.777940189622064238e-02 2.541546581840514185e-01
7.122279129321383152e+03 1.373106368810846079e-01 6.849309587684808409e-02 2.462505376951686087e-01
7.132282330345710761e+03 1.323002725064496010e-01 5.822834801766139240e-02 2.408427394453392933e-01
7.142285531370038370e+03 1.304212206974543764e-01 5.928209191564599856e-02 2.306452238008214473e-01
7.152288732394365979e+03 1.257623670100379287e-01 5.660690902711746492e-02 2.387796454192346873e-01
7.162291933418693588e+03 1.221267448940345640e-01 5.405474561806839634e-02 2.357797432987234487e-01
7.172295134443022107e+03 1.183394051058908880e-01 5.099749185602480556e-02 2.360237740412302887e-01
7.182298335467349716e+03 1.126274643385560964e-01 4.865986719733189636e-02 2.343788425328827141e-01
7.192301536491677325e+03 1.115490461131005001e-01 4.447788591231623817e-02 2.272787196117547204e-01
7.202304737516004934e+03 1.017249343728335864e-01 4.357808435228145705e-02 2.169307002527889050e-01
7.212307938540332543e+03 9.572813008542345459e-02 4.593604855469909237e-02 2.134088629859739183e-01
7.222311139564661062e+03 9.770171839388513968e-02 4.339710499304159919e-02 2.117220911876092904e-01
7.232314340588988671e+03 1.000556500941763571e-01 4.668319589200843611e-02 2.021198323380691275e-01
7.242317541613316280e+03 9.952587324583402062e-02 4.382318238759027457e-02 1.944379151647346315e-01
7.252320742637643889e+03 9.843833307214393258e-02 4.497174872421370179e-02 1.950818574575149122e-01
7.262323943661971498e+03 9.421004924153240923e-02 4.463220484133144372e-02 1.859254983179733922e-01
7.272327144686300016e+03 9.007948168184815030e-02 4.281120656711837752e-02 1.715927046634369291e-01
7.282330345710627626e+03 9.222706277079104065e-02 4.368137263168598433e-02 1.762656570524647748e-01
7.292333546734955235e+03 9.023197683477789111e-02 4.405088952124640300e-02 1.687046609585192702e-01
7.302336747759282844e+03 8.553080756373949989e-02 3.975682091017654352e-02 1.606197001942112068e-01
7.312339948783610453e+03 8.665165714026223931e-02 4.224918328126698458e-02 1.538774036941528423e-01
7.322343149807938971e+03 9.821142802218627010e-02 4.625140061905839983e-02 1.722603672509682715e-01
7.332346350832266580e+03 1.071142376606164237e-01 5.354892021266686314e-02 1.861098650991892811e-01
7.342349551856594189e+03 8.884203042631773350e-02 4.442370652599450520e-02 1.528805956272840105e-01
7.352352752880921798e+03 7.717316885576089303e-02 3.707358173211410673e-02 1.312839517642884757e-01
7.362355953905249407e+03 7.188643794248093799e-02 3.487143799337252131e-02 1.262941672283561800e-01
7.372359154929577926e+03 7.020132931101549789e-02 3.497046655028780704e-02 1.244348148811280641e-01
7.382362355953905535e+03 6.738217090736332848e-02 3.312879784498748426e-02 1.194745199729118496e-01
7.392365556978233144e+03 6.531220216000951928e-02 3.315620622632485526e-02 1.128118857077401171e-01
7.402368758002560753e+03 6.652601064528780583e-02 3.258765534764458682e-02 1.140467723818101159e-01
7.412371959026888362e+03 6.637989999989539480e-02 3.256414829974504932e-02 1.117521421199629827e-01
7.422375160051215971e+03 6.493357390119643135e-02 3.361082813993664792e-02 1.080319718564041742e-01
7.432378361075544490e+03 6.406701177906665157e-02 3.291009382348009799e-02 1.049500927143799528e-01
7.442381562099872099e+03 6.252713754404891355e-02 3.199670339870290536e-02 1.030822416599489338e-01
7.452384763124199708e+03 5.928199827518453036e-02 3.014933648438300126e-02 9.886829541073885452e-02
7.462387964148527317e+03 5.922066534418216760e-02 2.847982214729097294e-02 9.937962189076404718e-02
7.472391165172854926e+03 5.767749632952714339e-02 2.752226399662753217e-02 9.689257471349033146e-02
7.482394366197183444e+03 5.858949770929189338e-02 2.920185838245469706e-02 9.598359400842866596e-02
7.492397567221511054e+03 6.030489397139530278e-02 3.013497913366213268e-02 9.562975334352116774e-02
7.502400768245838663e+03 5.837450542010147458e-02 2.917258021016588473e-02 9.444616094452230881e-02
7.512403969270166272e+03 5.894063838986047382e-02 2.941204358472442396e-02 9.342457608951354464e-02
7.522407170294493881e+03 5.836989173610423326e-02 2.969811715863875795e-02 9.338044512449264478e-02
7.532410371318822399e+03 5.793716242982214354e-02 3.020306500271336889e-02 9.359507347692067047e-02
7.542413572343150008e+03 5.748753720828472802e-02 2.889988536735628097e-02 9.290113577206167428e-02
7.552416773367477617e+03 5.855869644644175892e-02 2.952221476434737507e-02 9.168389591494190138e-02
7.562419974391805226e+03 5.799046208186425799e-02 2.960797468001186497e-02 9.307593654425720675e-02
7.572423175416132835e+03 5.659654315374491873e-02 2.887029935356298996e-02 9.461332670763356045e-02
7.582426376440461354e+03 5.683604125415420844e-02 2.842608816832263921e-02 9.365519349321846376e-02
7.592429577464788963e+03 5.701497420164363533e-02 2.791486071577356856e-02 8.927584965647707149e-02
7.602432778489116572e+03 5.637513042629427318e-02 3.000199607327907678e-02 9.421105631419425530e-02
7.612435979513444181e+03 5.591326512077206268e-02 2.995288574983603208e-02 9.133851185542991857e-02
7.622439180537771790e+03 5.490235071448152510e-02 2.913220516562127146e-02 9.383429606219928498e-02
7.632442381562100309e+03 5.653562123500212311e-02 2.826767815237318446e-02 9.294625016432547793e-02
7.642445582586427918e+03 5.636173745304082910e-02 2.799981302296273428e-02 9.593036458559364710e-02
7.652448783610755527e+03 5.720248327393025883e-02 2.909548589991407808e-02 9.309642204185897274e-02
7.662451984635083136e+03 5.627156809842214641e-02 2.940972621713707283e-02 9.067303595081992185e-02
7.672455185659410745e+03 5.831059352943050028e-02 2.961512145664182624e-02 9.449996884891415094e-02
7.682458386683738354e+03 5.831625584752172381e-02 2.862357349772564827e-02 9.370086676851063778e-02
7.692461587708066872e+03 5.823807758387310879e-02 2.902480595686607670e-02 9.410268467861021557e-02
7.702464788732394481e+03 5.664606600145166704e-02 2.801430856798124702e-02 9.530309153547236733e-02
7.712467989756722091e+03 5.923908601242272587e-02 2.847142268666146350e-02 9.478942446403386402e-02
7.722471190781049700e+03 5.819020889602786323e-02 3.111756295133833936e-02 9.148640050083788056e-02
7.732474391805377309e+03 5.800276692478886081e-02 2.869897180941039308e-02 9.385469135157546716e-02
7.742477592829705827e+03 5.615552782324201297e-02 2.643350221981128484e-02 9.416048617635927598e-02
7.752480793854033436e+03 5.424663866618832653e-02 2.786438347386407596e-02 9.108603303015540276e-02
7.762483994878361045e+03 5.643142287125335610e-02 2.782759620100783496e-02 9.215875579371754500e-02
7.772487195902688654e+03 5.789961118255032568e-02 2.720543820564174167e-02 9.075004995923387219e-02
7.782490396927016263e+03 5.850417430862538820e-02 2.872145657612913336e-02 9.158292118305619289e-02
7.792493597951344782e+03 5.500649904569705761e-02 2.863742878599515734e-02 8.948009334208167909e-02
7.802496798975672391e+03 5.560421115082888471e-02 2.669693085676032654e-02 9.020602048920987881e-02
7.812500000000000000e+03 3.017048515119840138e-02 8.586606852386652680e-03 6.731741341363166320e-02
