# Comments from moku data file:% Moku:Phasemeter 
# 
# % Ch 1 - DC coupling, 50 Ohm impedance, 1 V range
# 
# % Ch 1 bandwidth = 1.0000000000e+04 (Hz)
# 
# % Acquisition rate: 1.5625000000e+04 Hz
# 
# % External 10 MHz clock
# 
# % Acquired 2020-02-12 T 19:27:44 -0800
# 
# % Time, Set frequency 1 (Hz), Frequency 1 (Hz), Phase 1 (cyc), I 1 (V), Q 1 (V)
# 
# #########################################################
# ASD calculated by mokuReadFreqNoise.py
# Frequency [Hz]         Freq ASD1 [Hz/rtHz]      Freq ASDlb1 [Hz/rtHz]    Freq ASDub1 [Hz/rtHz]    
# 
0.000000000000000000e+00 3.677669251347807858e+03 2.306930974168227294e+03 4.763897553454422450e+03
1.000000000000000056e-01 3.468292274222196284e+03 2.161826444128969342e+03 5.493261692126575326e+03
2.000000000000000111e-01 3.151668742277965066e+03 1.091617189085359087e+03 4.454981831111749671e+03
3.000000000000000444e-01 2.033897489485186270e+03 1.211552930146720428e+03 3.901565446347816760e+03
4.000000000000000222e-01 2.045875877482224041e+03 1.259787300044839640e+03 4.629208246911727656e+03
5.000000000000000000e-01 2.094890471955679459e+03 1.319019472625735943e+03 3.308759019792144500e+03
6.000000000000000888e-01 1.941129567155708173e+03 1.556828361500967048e+03 3.123117703709282068e+03
7.000000000000000666e-01 2.433322604482603310e+03 7.410318270650204795e+02 3.013297485601550306e+03
8.000000000000000444e-01 1.696443916073465289e+03 8.525475558756573946e+02 1.963614713033605767e+03
9.000000000000000222e-01 1.448571827607728665e+03 1.145646127248276343e+03 2.224659142847589465e+03
1.000000000000000000e+00 1.476658462377579781e+03 6.029425859354643080e+02 2.949135748908778169e+03
1.100000000000000089e+00 1.406269075377452737e+03 7.851230892896060141e+02 2.793306527321386056e+03
1.200000000000000178e+00 1.425828341558473312e+03 5.516375087883060360e+02 2.755600037917186910e+03
1.300000000000000044e+00 8.040827412694322902e+02 2.864764527872679309e+02 1.673066373868362689e+03
1.400000000000000133e+00 1.580678020015800485e+03 6.400661480460117900e+02 1.718979964081372145e+03
1.500000000000000000e+00 1.379198065709101684e+03 5.261598454804189942e+02 2.139036503581700799e+03
1.600000000000000089e+00 1.065494731436683423e+03 5.724798288994122686e+02 1.450093874780587612e+03
1.700000000000000178e+00 7.772719327932445594e+02 6.834047870111895691e+02 1.441919615230435056e+03
1.800000000000000044e+00 7.897570177014040382e+02 3.319797677453828442e+02 1.488392637329155605e+03
1.900000000000000133e+00 9.729211612341699720e+02 5.239897970291040110e+02 1.397687224686014588e+03
2.000000000000000000e+00 6.448923079713132438e+02 3.443862147132457494e+02 1.047051645499812594e+03
2.100000000000000089e+00 6.185379901362089186e+02 4.059571598399607524e+02 9.500904536127353595e+02
2.200000000000000178e+00 5.528408000514132254e+02 3.675302400750344418e+02 9.686355351381376977e+02
2.300000000000000266e+00 6.280726201694066049e+02 4.140552565673524441e+02 8.445937267448935017e+02
2.400000000000000355e+00 4.663103563175769182e+02 3.692703875468270098e+02 7.054627220012142743e+02
2.500000000000000000e+00 5.554612316020986782e+02 2.313986513845324282e+02 7.722391646593362111e+02
2.600000000000000089e+00 3.625051530705166556e+02 2.158336347862507694e+02 7.544163565743309618e+02
2.700000000000000178e+00 4.119485381257328527e+02 2.052950303530463998e+02 6.139953589832100533e+02
2.800000000000000266e+00 4.158074768415795006e+02 3.260374639041358478e+02 7.656524545511045972e+02
2.900000000000000355e+00 4.255779051262169332e+02 2.121464748802311533e+02 7.863842661863081958e+02
3.000000000000000000e+00 4.218557432808926251e+02 2.849917107802025384e+02 6.298471010346743242e+02
3.100000000000000089e+00 3.974459225896659404e+02 2.184587462165382590e+02 4.926259244745303931e+02
3.200000000000000178e+00 3.329229751460255784e+02 1.493927657439576819e+02 4.993453952151119779e+02
3.300000000000000266e+00 3.942929079034046822e+02 1.458045962906423085e+02 5.137577337736365735e+02
3.400000000000000355e+00 4.140803507912904138e+02 2.432503634957973873e+02 6.491390988950369092e+02
3.500000000000000000e+00 3.305934812703889634e+02 1.809939147625439659e+02 5.364350629902778564e+02
3.600000000000000089e+00 4.578410269745285746e+02 2.859633392229799824e+02 5.988944058877950738e+02
3.700000000000000178e+00 5.252080198917948337e+02 2.833547785353510449e+02 6.120579842758712630e+02
3.800000000000000266e+00 4.380646379477761343e+02 2.427247646557838152e+02 5.353557577805828487e+02
3.900000000000000355e+00 2.698556803753485269e+02 1.726207152520138095e+02 5.234055577339628371e+02
4.000000000000000000e+00 3.227069159688451236e+02 1.171310212649950131e+02 5.121054688994769322e+02
4.100000000000000533e+00 3.980653907348403777e+02 1.924291032597305957e+02 5.008591468110190590e+02
4.200000000000000178e+00 3.690874681219318063e+02 1.698408282119416128e+02 5.743711895506410201e+02
4.299999999999999822e+00 2.774954682685516900e+02 1.796786970654056859e+02 6.477947590176627273e+02
4.400000000000000355e+00 2.934574063114544060e+02 1.853565608167102710e+02 4.944697197924542138e+02
4.500000000000000000e+00 2.382549854789715198e+02 1.285057587038701570e+02 2.880573343358698821e+02
4.600000000000000533e+00 1.732510034448309852e+02 1.240209618280143786e+02 2.849496692741714128e+02
4.700000000000000178e+00 1.815984930625073730e+02 1.009839638864602449e+02 3.081604558154083406e+02
4.800000000000000711e+00 2.426735572247287678e+02 1.840780991370278343e+02 5.300894482659639380e+02
4.900000000000000355e+00 3.081342283232023647e+02 1.585594484193408675e+02 5.213167570941978965e+02
5.000000000000000000e+00 2.662937481243342859e+02 6.265294931991315508e+01 4.162045808680028927e+02
5.100000000000000533e+00 1.974959859804046971e+02 1.321681892059161498e+02 4.116147624915171264e+02
5.200000000000000178e+00 1.547932629910865217e+02 8.044475833339552651e+01 3.285890584762322533e+02
5.300000000000000711e+00 1.813838725092900859e+02 1.035449097526848021e+02 2.680467905493891294e+02
5.400000000000000355e+00 3.333737876789319898e+02 1.479451255961986362e+02 4.349221429979411369e+02
5.500000000000000000e+00 2.432849704250733680e+02 1.539988603894967127e+02 3.740014110377940710e+02
5.600000000000000533e+00 2.105923414987176443e+02 1.096146135660207506e+02 3.180138679989604498e+02
5.700000000000000178e+00 1.951559307904091440e+02 1.007220765906134829e+02 3.934639535955611791e+02
5.800000000000000711e+00 2.327304860602135932e+02 8.939714458755085502e+01 2.826021474306253367e+02
5.900000000000000355e+00 1.864552202144415389e+02 1.291170969706615494e+02 2.641747577420121615e+02
6.000000000000000000e+00 1.586448081745511729e+02 9.170852484038498176e+01 2.205682552183066321e+02
6.100000000000000533e+00 2.131874084912905971e+02 1.047109481184388073e+02 2.593330815415578741e+02
6.200000000000000178e+00 2.689427459092594859e+02 1.562587841880746851e+02 3.309141094511335268e+02
6.300000000000000711e+00 1.546300779468583357e+02 8.882112991994766560e+01 2.632640359488326567e+02
6.400000000000000355e+00 1.621693423932843245e+02 1.201524006478081219e+02 2.388137608802842067e+02
6.500000000000000000e+00 2.113909514039985993e+02 1.170364332361112218e+02 3.245540340233205256e+02
6.600000000000000533e+00 1.772716278274771753e+02 1.196627373706469655e+02 2.425256248191663246e+02
6.700000000000000178e+00 2.030650743810652727e+02 9.744149009955275176e+01 3.226376564501592838e+02
6.800000000000000711e+00 1.855726612228579597e+02 1.326769965849877053e+02 2.712581357383088516e+02
6.900000000000000355e+00 1.246378269408972130e+02 6.823004680751191131e+01 2.465484994023465504e+02
7.000000000000000000e+00 1.915144602791553439e+02 1.180471699023991476e+02 2.659997553785377136e+02
7.100000000000000533e+00 2.079402625092184280e+02 1.240217828316324500e+02 3.022679088950471282e+02
7.200000000000000178e+00 1.760446305313816424e+02 1.089359469774735629e+02 2.503789202227081319e+02
7.300000000000000711e+00 1.154659371919189823e+02 6.541268908444087060e+01 2.308374142229640142e+02
7.400000000000000355e+00 1.065179519844104448e+02 6.734181577275869302e+01 2.209789236805929420e+02
7.500000000000000000e+00 1.525071513202939570e+02 1.069732356642739575e+02 2.724224701312041361e+02
7.600000000000000533e+00 1.715783650257367583e+02 1.069429322527004302e+02 2.726507766447546146e+02
7.700000000000000178e+00 1.401049918552657800e+02 1.070231190966763535e+02 2.894964247193035476e+02
7.800000000000000711e+00 1.745050263863774376e+02 9.707874316237015933e+01 2.489579811155603011e+02
7.900000000000000355e+00 1.171552584668942671e+02 7.811114004376531739e+01 1.991047527050721158e+02
8.000000000000000000e+00 1.415486665241291746e+02 1.107818299647253468e+02 1.617141328377448133e+02
8.099999999999999645e+00 1.102461934582033223e+02 5.590909046697118612e+01 1.855684644374179868e+02
8.200000000000001066e+00 1.389894125257771691e+02 9.827673986828770580e+01 1.723439564311612742e+02
8.300000000000000711e+00 1.400096536611422096e+02 5.888155289088778943e+01 1.667938471638212263e+02
8.400000000000000355e+00 1.043975549507836291e+02 7.716030215618727084e+01 1.797067050566474791e+02
8.500000000000000000e+00 1.420316258845543871e+02 7.079625799497998173e+01 2.005266373477051900e+02
8.599999999999999645e+00 1.414609783606472035e+02 9.562472311011538295e+01 1.678282391772502535e+02
8.700000000000001066e+00 1.231505214438692235e+02 8.462524074036072363e+01 1.435720278781439561e+02
8.800000000000000711e+00 1.355324136293866673e+02 4.728927186312099451e+01 1.646805038583492262e+02
8.900000000000000355e+00 1.219900148447250956e+02 6.229676062055244046e+01 1.905670473533570259e+02
9.000000000000000000e+00 1.063662962385200643e+02 8.752078097913152988e+01 1.298181209995054246e+02
9.099999999999999645e+00 8.647109215946186112e+01 6.630590021432961123e+01 1.573384015110272571e+02
9.200000000000001066e+00 1.280675679353605858e+02 8.309603982057124938e+01 1.795486261630035187e+02
9.300000000000000711e+00 1.228983543641985392e+02 7.720013800834699680e+01 1.785472889811148320e+02
9.400000000000000355e+00 7.122453612199385020e+01 5.083500533855601589e+01 1.581126459290359207e+02
9.500000000000000000e+00 7.977727883601016856e+01 3.462183725902932707e+01 1.537882203009329203e+02
9.600000000000001421e+00 9.778437025712771913e+01 7.832345855438677518e+01 1.643940310380201879e+02
9.700000000000001066e+00 1.169570214121613247e+02 8.950968409662561953e+01 1.664377262554209551e+02
9.800000000000000711e+00 1.134730748720274249e+02 6.403199652237498185e+01 2.134274178948307679e+02
9.900000000000000355e+00 1.004023137753268884e+02 7.605129959222804814e+01 2.117457973551555028e+02
1.000000000000000000e+01 8.927452670929689305e+01 7.270793830116399192e+01 1.833900695565843364e+02
1.000000000000000000e+01 5.624122442161689150e+01 1.700069319597759332e+01 1.990967128700824276e+02
1.100000000000000000e+01 5.539696416439067406e+01 1.353850673246177472e+01 1.621106650777705056e+02
1.200000000000000000e+01 5.332747948519065062e+01 1.271495208151331546e+01 1.597950604782280948e+02
1.300000000000000000e+01 4.045676877482477352e+01 1.709065212723195160e+01 1.339986396954668066e+02
1.400000000000000000e+01 3.947406521068646157e+01 1.035843496650508122e+01 1.181949811725736907e+02
1.500000000000000000e+01 3.339399089997926495e+01 1.236411528358729583e+01 1.059400368165825483e+02
1.600000000000000000e+01 3.109684479115365718e+01 1.133620719756750894e+01 9.662315464439615198e+01
1.700000000000000000e+01 2.917980430144613280e+01 9.008954435039520092e+00 9.803111557564248812e+01
1.800000000000000000e+01 3.665746935208253632e+01 8.700966446985127334e+00 9.854523052055033361e+01
1.900000000000000000e+01 2.766207330549246635e+01 8.365679026152562869e+00 8.056000375037390882e+01
2.000000000000000000e+01 2.751551685450392881e+01 8.387051167710227517e+00 9.014199017861861307e+01
2.100000000000000000e+01 2.389170213391746600e+01 8.401671622677676865e+00 8.044571807080873782e+01
2.200000000000000000e+01 2.309223735073122441e+01 7.254907034532389609e+00 7.854106074099387058e+01
2.300000000000000000e+01 2.554997766903025180e+01 7.971940061449792836e+00 7.916963133361713290e+01
2.400000000000000000e+01 2.225007295092630599e+01 5.506832976598216689e+00 7.765158258884480347e+01
2.500000000000000000e+01 2.177686995678737958e+01 5.348733700158978976e+00 7.559935571951749012e+01
2.600000000000000000e+01 1.896304776130773817e+01 5.407252068794689670e+00 8.129405968908041302e+01
2.700000000000000000e+01 2.003564937805026602e+01 5.371218679181372302e+00 7.600468176136477894e+01
2.800000000000000000e+01 2.113893747524280542e+01 4.971595290139917189e+00 7.545504951029042218e+01
2.900000000000000000e+01 1.670010682607374264e+01 4.624918393426091789e+00 7.071650449049626275e+01
3.000000000000000000e+01 1.841981136627281401e+01 3.884955716798563330e+00 6.712496488528267946e+01
3.100000000000000000e+01 1.824971780112795727e+01 3.895571225201205579e+00 6.602922611904146777e+01
3.200000000000000000e+01 1.529734663862883082e+01 3.265520516259973860e+00 6.807068157486705218e+01
3.300000000000000000e+01 1.848293950219919424e+01 3.009654030262928437e+00 6.388693107237342161e+01
3.400000000000000000e+01 1.663285384542945877e+01 3.633198772977128232e+00 6.494764099968803350e+01
3.500000000000000000e+01 1.500542912300188725e+01 2.832679847124465855e+00 5.935984044088614553e+01
3.600000000000000000e+01 1.415026732083437189e+01 2.420143277376924029e+00 7.303321482232814787e+01
3.700000000000000000e+01 1.581902322680385531e+01 2.586618633475862072e+00 6.493641622767397337e+01
3.800000000000000000e+01 1.237971881321040613e+01 2.328300224389814765e+00 6.137217173775710677e+01
3.900000000000000000e+01 1.266123242283918060e+01 1.928248061294424387e+00 6.782317969528644142e+01
4.000000000000000000e+01 1.446130251909176145e+01 2.299299537394521309e+00 6.533319937893755025e+01
4.100000000000000000e+01 1.534627724264840687e+01 2.131477437647298689e+00 7.145366023396394439e+01
4.200000000000000000e+01 1.343514728815699222e+01 2.101580950416607863e+00 6.761465357383589492e+01
4.300000000000000000e+01 1.213734903997896097e+01 1.800685229024684864e+00 6.072282223169182203e+01
4.400000000000000000e+01 1.342236049987400826e+01 1.784310767882599791e+00 6.223352234757455648e+01
4.500000000000000000e+01 1.337555395916311696e+01 1.686516118328972080e+00 6.338500281161894634e+01
4.600000000000000000e+01 1.276799404096379575e+01 1.417943977191757243e+00 6.175725742594936207e+01
4.700000000000000000e+01 1.297928000654085068e+01 1.399919990910979850e+00 6.270391436745771330e+01
4.800000000000000000e+01 1.222943833881225650e+01 1.234321652711104500e+00 6.267168301327497204e+01
4.900000000000000000e+01 1.106090154583072227e+01 1.420497614844750567e+00 6.916530209750963820e+01
5.000000000000000000e+01 1.113161346898461623e+01 1.434499935054651232e+00 6.646139431350741233e+01
5.100000000000000000e+01 8.510477245336137031e+00 1.278583140732581613e+00 6.772480519503316998e+01
5.200000000000000000e+01 9.589704192235716462e+00 1.211679344385186763e+00 7.069626026554891496e+01
5.300000000000000000e+01 8.798741985094915563e+00 1.184975672117095646e+00 7.111514582602140422e+01
5.400000000000000000e+01 9.793500537947757323e+00 1.078648824087802716e+00 6.591927833649177160e+01
5.500000000000000000e+01 9.447529430302433084e+00 1.058295732549767054e+00 6.070185443401086900e+01
5.600000000000000000e+01 8.611117136126715366e+00 1.023338679439658838e+00 6.762466483188472921e+01
5.700000000000000000e+01 1.046481415252151947e+01 9.964682844392345196e-01 6.959128441463627723e+01
5.800000000000000000e+01 1.006307971392611478e+01 1.194482238883291414e+00 6.504244692489137947e+01
5.900000000000000000e+01 1.017176143410696731e+01 1.129345189742352096e+00 6.974611646264962417e+01
6.000000000000000000e+01 9.991585029021852193e+00 1.340169576377477689e+00 6.799716723643319938e+01
6.100000000000000000e+01 1.095891230618167533e+01 1.033805960503732413e+00 6.505942456611587943e+01
6.200000000000000000e+01 1.036592025523353655e+01 7.674495992448087112e-01 5.471461026249316006e+01
6.300000000000000000e+01 1.202109498505591390e+01 9.444192811621782147e-01 6.241814566639991568e+01
6.400000000000000000e+01 1.030047529947141527e+01 7.929541798744523806e-01 6.440757436813257186e+01
6.500000000000000000e+01 1.200426243034752893e+01 8.474756701758751065e-01 5.473007160615157574e+01
6.600000000000000000e+01 1.113479187968388828e+01 8.207767333941202725e-01 6.564314958227731722e+01
6.700000000000000000e+01 1.227414397681811309e+01 8.573675310264479155e-01 6.335707284468184497e+01
6.800000000000000000e+01 1.166710089122340044e+01 7.356179551613996059e-01 6.003598071508616130e+01
6.900000000000000000e+01 1.193464344728877080e+01 6.522204708257196559e-01 5.173511676608149656e+01
7.000000000000000000e+01 1.247339774952750702e+01 6.739664250133297063e-01 4.917402892084377442e+01
7.100000000000000000e+01 1.128152244590591557e+01 8.002047495641538832e-01 5.029644819853796633e+01
7.200000000000000000e+01 9.809423410847712077e+00 6.939276539876373384e-01 6.692491009702135329e+01
7.300000000000000000e+01 9.335002574175168988e+00 6.608925570778099168e-01 7.567517032329310211e+01
7.400000000000000000e+01 1.137089828434197791e+01 6.783221461590285273e-01 6.834147906390330718e+01
7.500000000000000000e+01 1.193698246219982018e+01 5.829114327859770128e-01 6.938912406209286132e+01
7.600000000000000000e+01 9.798186162417762191e+00 6.696133185442610936e-01 6.819086160603100666e+01
7.700000000000000000e+01 1.072166690023233393e+01 4.616559116949150443e-01 5.299109470730989813e+01
7.800000000000000000e+01 1.097677646838649146e+01 6.177188043476186108e-01 7.512293552543683006e+01
7.900000000000000000e+01 1.020959754819950049e+01 5.910678834449442087e-01 7.850631091101284653e+01
8.000000000000000000e+01 1.092208479510820673e+01 5.566647398586529460e-01 7.501715594052984670e+01
8.100000000000000000e+01 1.186406497673997862e+01 7.100615063163696616e-01 6.398655446864063379e+01
8.200000000000000000e+01 1.119110481409382629e+01 5.728953415506705671e-01 6.785667143177012406e+01
8.300000000000000000e+01 1.195179248502642366e+01 6.366631910357638535e-01 6.466135571763915380e+01
8.400000000000000000e+01 1.278888771864764173e+01 6.228192950119834093e-01 5.516007492285316971e+01
8.500000000000000000e+01 1.084227373908547420e+01 5.335354722101760538e-01 5.875357336973866751e+01
8.600000000000000000e+01 1.170186309968171479e+01 5.796493568158473941e-01 6.733068786004488970e+01
8.700000000000000000e+01 1.114124297837433275e+01 5.185920103425594174e-01 6.738240601369214744e+01
8.800000000000000000e+01 1.111350001554157885e+01 6.024769639640542573e-01 6.558403707202558053e+01
8.900000000000000000e+01 1.044719486301271871e+01 4.728526343838722612e-01 7.095626824374035380e+01
9.000000000000000000e+01 1.003292829057824775e+01 5.088431267847192130e-01 6.245669668072687841e+01
9.100000000000000000e+01 1.026349779686890962e+01 4.337571668143695436e-01 7.003191315480700041e+01
9.200000000000000000e+01 1.103173698627498922e+01 5.202014660323892592e-01 6.556192180348121212e+01
9.300000000000000000e+01 9.543872408690008413e+00 4.844504889588336916e-01 5.912918697517502409e+01
9.400000000000000000e+01 1.066086966242272993e+01 5.377752581231295403e-01 5.517218356895324405e+01
9.500000000000000000e+01 9.508368866878683434e+00 4.556407232307005950e-01 6.633474408939630962e+01
9.600000000000000000e+01 9.480494183072007530e+00 4.618235442806153390e-01 6.149022823709291430e+01
9.700000000000000000e+01 9.887567492778240208e+00 4.646026407919262025e-01 6.389801392511795086e+01
9.800000000000000000e+01 1.121901021440206669e+01 5.488975805300591038e-01 6.937180535634561807e+01
9.900000000000000000e+01 9.591184526355521101e+00 4.365959179024673231e-01 6.237692823835276812e+01
1.000000000000000000e+02 9.691654067800154593e+00 3.989727392797669525e-01 6.403419852261971812e+01
1.000320102432778526e+02 4.323674081380017853e-01 1.767118952196239101e-01 2.445954878707599889e+01
1.100352112676056322e+02 3.950937818854433625e-01 1.780247748054434032e-01 2.576483040000585589e+01
1.200384122919334118e+02 4.136963436071237066e-01 1.718596420017018123e-01 2.775396314885534821e+01
1.300416133162611914e+02 3.567834732820470700e-01 1.663007432682047648e-01 2.746773045048752238e+01
1.400448143405889994e+02 3.222813125244259336e-01 1.362748304004824662e-01 2.783191907486483174e+01
1.500480153649167789e+02 2.694838845696351237e-01 1.080745360255363635e-01 2.658096552513056565e+01
1.600512163892445585e+02 2.384726316265504131e-01 1.123321907246057350e-01 2.479977579961554213e+01
1.700544174135723381e+02 2.080530941324116034e-01 9.467883018469307188e-02 2.822848566825456373e+01
1.800576184379001177e+02 2.136273956384977524e-01 9.761836308577918897e-02 2.631892667310822986e+01
1.900608194622279257e+02 1.510399989361657924e-01 6.735030573039192670e-02 2.668941576125627435e+01
2.000640204865557052e+02 1.358921427626237077e-01 5.973521140805987395e-02 2.436082065882656167e+01
2.100672215108834848e+02 1.358256687998573853e-01 6.187725433192341196e-02 2.334019780265743904e+01
2.200704225352112644e+02 1.337153962734987933e-01 5.827109992977343861e-02 2.597625558088881093e+01
2.300736235595390440e+02 1.332334834865566142e-01 5.817022956695332148e-02 2.136352759072264007e+01
2.400768245838668236e+02 1.532591552744979602e-01 7.515348614658985682e-02 2.042350458622383158e+01
2.500800256081946316e+02 1.203945832790862952e-01 5.212163431511467049e-02 2.308877482557034355e+01
2.600832266325223827e+02 9.447937955762680806e-02 4.121683667855337990e-02 2.366679606649441325e+01
2.700864276568502191e+02 8.339396293291577444e-02 3.635297531432880869e-02 2.570330080190103317e+01
2.800896286811779987e+02 8.018846117917961813e-02 3.837442285831137861e-02 2.418764953719370681e+01
2.900928297055057783e+02 9.003534857696642024e-02 4.304980715423291360e-02 2.637258061286068056e+01
3.000960307298335579e+02 1.170995583190573563e-01 6.269544728360573749e-02 2.738821074539910327e+01
3.100992317541613374e+02 8.451537336235434572e-02 3.885928178683416279e-02 2.487735967739731535e+01
3.201024327784891170e+02 7.027921053838917520e-02 3.335662407271149793e-02 2.361133748756973816e+01
3.301056338028168966e+02 7.125920460534981848e-02 3.214440810114000541e-02 2.388915923259019536e+01
3.401088348271446762e+02 7.112758597710147623e-02 3.495275730788235252e-02 2.211021525687898759e+01
3.501120358514724558e+02 8.242643447020647773e-02 3.792654432583301288e-02 2.403227590294578775e+01
3.601152368758002353e+02 1.078687822813405861e-01 6.164015601837734282e-02 2.433818083769048712e+01
3.701184379001280149e+02 9.066900251279808032e-02 3.993363898152015729e-02 2.370390904275598132e+01
3.801216389244558513e+02 9.605114153510385666e-02 4.478385800989138910e-02 2.233006936003035392e+01
3.901248399487836309e+02 1.117210736159567480e-01 5.262903527556351407e-02 2.248202790167997378e+01
4.001280409731114105e+02 9.914676532581584434e-02 4.913348207476228580e-02 2.059844772803872459e+01
4.101312419974391901e+02 8.368534042717165611e-02 4.015610407418881284e-02 1.967283393163827299e+01
4.201344430217669697e+02 9.405944948006532413e-02 4.972741877491373280e-02 2.127298788780953132e+01
4.301376440460947492e+02 7.518087069470311135e-02 3.581448952263942970e-02 2.163002211562096022e+01
4.401408450704225288e+02 6.895132043654378373e-02 3.223818305800104506e-02 2.137607168576154848e+01
4.501440460947503084e+02 6.755488618099492193e-02 3.031364794818716332e-02 1.819113787257841253e+01
4.601472471190780880e+02 7.028231119497656276e-02 3.224536976910143821e-02 2.060007565006177543e+01
4.701504481434058675e+02 6.977025983629452088e-02 3.390579027530808004e-02 1.882750529243090654e+01
4.801536491677336471e+02 8.265652273101481429e-02 4.082804039548373898e-02 1.898025044842413678e+01
4.901568501920614835e+02 6.860721115821830085e-02 3.227807468018790982e-02 1.926825401012954231e+01
5.001600512163892631e+02 6.330104912638884196e-02 2.880308044672167181e-02 2.143808112668394017e+01
5.101632522407170427e+02 6.087620375486683250e-02 2.540193605332914314e-02 2.246615169729602712e+01
5.201664532650447654e+02 6.489001036718050619e-02 3.022179550501497697e-02 1.885719943455337599e+01
5.301696542893726019e+02 6.965931858097022811e-02 3.304466936074584166e-02 2.035824929213894663e+01
5.401728553137004383e+02 8.408336263865416604e-02 4.443688338885963540e-02 1.879983840792147376e+01
5.501760563380281610e+02 7.240143662210057895e-02 3.322750391995100971e-02 2.301492747469224653e+01
5.601792573623559974e+02 6.883654642530595558e-02 3.344929194284068652e-02 1.922494326837254164e+01
5.701824583866837202e+02 6.956524784856016330e-02 3.192261461685052398e-02 1.671095950631412208e+01
5.801856594110115566e+02 7.169858264614301091e-02 3.187101191998373967e-02 1.925431441808910193e+01
5.901888604353392793e+02 7.269996971869212288e-02 3.466474499600076531e-02 1.624291428740166410e+01
6.001920614596671157e+02 8.653796759250279025e-02 4.695055168165147147e-02 1.674351791407714884e+01
6.101952624839948385e+02 7.008313684411761335e-02 3.378014917055653654e-02 1.753772106738758652e+01
6.201984635083226749e+02 9.215358526818567819e-02 4.582570970365019980e-02 1.593563230592417845e+01
6.302016645326503976e+02 2.951614959079490452e-01 1.331169177641761681e-01 1.870931880542944015e+01
6.402048655569782341e+02 3.034999882814364280e-01 1.359147756354257830e-01 1.908384563467514639e+01
6.502080665813060705e+02 1.696678825379206446e-01 7.856024136386180468e-02 1.860158764163608680e+01
6.602112676056337932e+02 1.800673761501200842e-01 8.567002138283213997e-02 1.565275404377594270e+01
6.702144686299616296e+02 1.580554546379797920e-01 7.763320481959065655e-02 1.699222082991537519e+01
6.802176696542893524e+02 1.436626681320943011e-01 6.821228215626329305e-02 1.643630657198180245e+01
6.902208706786171888e+02 1.241301375675922386e-01 5.781707409197224534e-02 1.666450491303890402e+01
7.002240717029449115e+02 9.708398777020245396e-02 4.284566339036856991e-02 1.735579257753531834e+01
7.102272727272727479e+02 7.890287668116341413e-02 3.897770383473234818e-02 1.620590845266303859e+01
7.202304737516004707e+02 1.038400567190727181e-01 4.858356033267414997e-02 1.657294692019328508e+01
7.302336747759283071e+02 8.188251397818603616e-02 3.802364659753191406e-02 1.654384940036396046e+01
7.402368758002560298e+02 6.253765418223350414e-02 2.836028130580583312e-02 1.903819225930915948e+01
7.502400768245838663e+02 5.754377035042810423e-02 2.277384673870069473e-02 1.480022086597998943e+01
7.602432778489117027e+02 6.305336223643782934e-02 3.049211684397007752e-02 1.485545946689019381e+01
7.702464788732394254e+02 6.856713209419815214e-02 3.316340166965980191e-02 1.784802316130720001e+01
7.802496798975672618e+02 8.958944684383014778e-02 4.344366790341080281e-02 1.687797019133622101e+01
7.902528809218949846e+02 2.268339760647349046e-01 1.017482190992244628e-01 1.617546228035067557e+01
8.002560819462228210e+02 4.078317557880122290e-01 1.818589140054336362e-01 1.416002881431078642e+01
8.102592829705505437e+02 2.617138355203538214e-01 1.248553690980666875e-01 1.635376197992817637e+01
8.202624839948783801e+02 1.409851006662799777e-01 7.074559269467280143e-02 1.548638106939221615e+01
8.302656850192061029e+02 1.979866735144645562e-01 9.657300340720406662e-02 1.697308292649204375e+01
8.402688860435339393e+02 4.230322532808113989e-01 2.405623251533529350e-01 1.624721242597176030e+01
8.502720870678616620e+02 3.730937971376892537e-01 1.826978740552838432e-01 1.611688586622689101e+01
8.602752880921894985e+02 2.613265589205142070e-01 1.252613339953235760e-01 1.491056305246757852e+01
8.702784891165173349e+02 2.075607762213755869e-01 9.944526330433137162e-02 1.468035549131773720e+01
8.802816901408450576e+02 1.297076507037493442e-01 6.001103280588079153e-02 1.525489612404154016e+01
8.902848911651728940e+02 1.022713478392437286e-01 4.612788387794888867e-02 1.591522095393156633e+01
9.002880921895006168e+02 9.725163408978829138e-02 4.548584392686973871e-02 1.449317567627465841e+01
9.102912932138284532e+02 1.108445063575653755e-01 5.251309560463424120e-02 1.399967857965654972e+01
9.202944942381561759e+02 1.024459288707274540e-01 4.858975982947338207e-02 1.534912232926376952e+01
9.302976952624840123e+02 8.821288168380618522e-02 3.990987099850875491e-02 1.670398055500177747e+01
9.403008962868117351e+02 8.308990018477642459e-02 3.778446585940420377e-02 1.493581718201099662e+01
9.503040973111395715e+02 8.143851711294106122e-02 3.993407052961628345e-02 1.480842100828046526e+01
9.603072983354672942e+02 8.971956189054451636e-02 4.346240314135720734e-02 1.568083920474169446e+01
9.703104993597951307e+02 9.570341423904681066e-02 4.451361072071001457e-02 1.472253264049476584e+01
9.803137003841229671e+02 1.149188683815931256e-01 5.548058418152567589e-02 1.559594222242120409e+01
9.903169014084506898e+02 1.159653278969648149e-01 5.481792112591078736e-02 1.623892887208604208e+01
1.000320102432778526e+03 1.364147363476138075e-01 6.679754274752706944e-02 1.540369572565926326e+01
1.010323303457106249e+03 1.530392291973826091e-01 7.236800265760429118e-02 1.547744402429338706e+01
1.020326504481434085e+03 1.992457782981853776e-01 9.569789293456329449e-02 1.648708924901325190e+01
1.030329705505761922e+03 2.428396501635947113e-01 1.141260328238984795e-01 1.394644993755022533e+01
1.040332906530089531e+03 2.443412293345206543e-01 1.222003370698711983e-01 1.560875179731341511e+01
1.050336107554417367e+03 2.320891719280011589e-01 1.084578732324621847e-01 1.588393660480736536e+01
1.060339308578745204e+03 1.382726585504003014e-01 6.676353507432060408e-02 1.670361034885069529e+01
1.070342509603073040e+03 9.196600798214446537e-02 4.166749223757412746e-02 1.543936097143624586e+01
1.080345710627400877e+03 8.171800758362243733e-02 3.964803990265974853e-02 1.513947324149676099e+01
1.090348911651728486e+03 8.289264081109215532e-02 4.050768771546252311e-02 1.505421702302212239e+01
1.100352112676056322e+03 8.152146667832441129e-02 3.756863044203579555e-02 1.567609132551749163e+01
1.110355313700384158e+03 7.863315945493286330e-02 3.599256917865222005e-02 1.513390261623977651e+01
1.120358514724711995e+03 8.299745301325638092e-02 3.836532595698795289e-02 1.478755155695223245e+01
1.130361715749039604e+03 8.600747401633701550e-02 4.146718784057498719e-02 1.439927345184920426e+01
1.140364916773367440e+03 9.773354888453779366e-02 4.737755484849302812e-02 1.312767290824779209e+01
1.150368117797695277e+03 1.239346992974128120e-01 5.909163574769770583e-02 1.465968010982240877e+01
1.160371318822023113e+03 1.592993096335352243e-01 7.601162468348555967e-02 1.377962053359664374e+01
1.170374519846350722e+03 1.533197838747319963e-01 7.220026083446946796e-02 1.314645298421425501e+01
1.180377720870678559e+03 1.200569015173616472e-01 5.537167703304483185e-02 1.211700867544188398e+01
1.190380921895006395e+03 9.146129967317945253e-02 4.244860888166725188e-02 1.230289431707994474e+01
1.200384122919334231e+03 8.332568418228608609e-02 4.021990204472208896e-02 1.334076590531637407e+01
1.210387323943662068e+03 7.763349034553708450e-02 3.472586895519105127e-02 1.285458975515313540e+01
1.220390524967989677e+03 7.127810884608969111e-02 3.223198169456889528e-02 1.281127467906407347e+01
1.230393725992317513e+03 6.911843185554369939e-02 2.934943829648117841e-02 1.254545687440132262e+01
1.240396927016645350e+03 7.431088864970381014e-02 3.390995505919755515e-02 1.035971963872842672e+01
1.250400128040973186e+03 8.550140412960342828e-02 4.090651816695008158e-02 1.173058239242909728e+01
1.260403329065300795e+03 8.911191535416887466e-02 3.873841682325489949e-02 1.225517180533305073e+01
1.270406530089628632e+03 9.148191710915180852e-02 4.123479770486403184e-02 1.253067482901524876e+01
1.280409731113956468e+03 9.406146758695463350e-02 4.490499950972829529e-02 1.178511417507055192e+01
1.290412932138284305e+03 9.842783773788572887e-02 4.513258302210716028e-02 1.291885354406224629e+01
1.300416133162612141e+03 1.040428696351150678e-01 4.771646321875604169e-02 1.200239147274311513e+01
1.310419334186939750e+03 9.998830244795789413e-02 4.447250816930244793e-02 1.181143958738911337e+01
1.320422535211267586e+03 9.196046980165617502e-02 4.483688088203161698e-02 1.216639517480937371e+01
1.330425736235595423e+03 8.627409151652874753e-02 4.257489061156148613e-02 1.303524204375490747e+01
1.340428937259923259e+03 7.377957357717032649e-02 3.247053074178594956e-02 1.308562205272563617e+01
1.350432138284250868e+03 6.928089571572201844e-02 3.084339919568835839e-02 1.126181462906717634e+01
1.360435339308578705e+03 7.588125847246515732e-02 3.492711677568382383e-02 1.198386813917714200e+01
1.370438540332906541e+03 7.665225663963097513e-02 3.497983463169656443e-02 1.158504835191051718e+01
1.380441741357234378e+03 7.370340714209389077e-02 3.324657949801651524e-02 1.240143161881660383e+01
1.390444942381562214e+03 7.436813850120453651e-02 3.531496590679161079e-02 1.194183653400315137e+01
1.400448143405889823e+03 7.483832259664716102e-02 3.407097164546573492e-02 1.231573668626595719e+01
1.410451344430217659e+03 6.795848664593683031e-02 3.032077915842405769e-02 1.289595043048802125e+01
1.420454545454545496e+03 7.153536150860508036e-02 3.250191343358044965e-02 1.301971335560755882e+01
1.430457746478873332e+03 7.381585654198788427e-02 3.505633650725419742e-02 1.292502785925797681e+01
1.440460947503200941e+03 7.567659819255867504e-02 3.386766502453325556e-02 1.124863734515366787e+01
1.450464148527528778e+03 7.625794451361914139e-02 3.724940463008063335e-02 1.152678666568573718e+01
1.460467349551856614e+03 7.957175293358953461e-02 3.829671812118460444e-02 1.231954375261939028e+01
1.470470550576184451e+03 8.304313666163054553e-02 3.804353174123941556e-02 1.226126198018350522e+01
1.480473751600512060e+03 9.807534872999494613e-02 4.554947036597128268e-02 1.271993204622211415e+01
1.490476952624839896e+03 1.046239917459678148e-01 5.025818332754324741e-02 1.109973938793626402e+01
1.500480153649167733e+03 1.065315544320925012e-01 4.751560573360971013e-02 1.163619534948523082e+01
1.510483354673495569e+03 1.045027657642383367e-01 4.710314475608228663e-02 1.321300530555706843e+01
1.520486555697823405e+03 9.981357506715168859e-02 4.570964645448589991e-02 1.348117350292796779e+01
1.530489756722151014e+03 1.008206580786424195e-01 4.650213272256506492e-02 1.333757689048819373e+01
1.540492957746478851e+03 1.049821868593550644e-01 5.069330345217464701e-02 1.302170624235725782e+01
1.550496158770806687e+03 1.063355665340785516e-01 4.702441144977712734e-02 1.446939941245129013e+01
1.560499359795134524e+03 1.025836376321203058e-01 4.768156737235488413e-02 1.213557762165891418e+01
1.570502560819462133e+03 9.223544918385348512e-02 4.313828087197671413e-02 1.241946316476538748e+01
1.580505761843789969e+03 8.071131841521266004e-02 3.763742199483984668e-02 1.329239907570490864e+01
1.590508962868117806e+03 7.183259576390441103e-02 3.013609483177821097e-02 1.335572184750585834e+01
1.600512163892445642e+03 6.958822559434699184e-02 3.356130797143461186e-02 1.103345849319881822e+01
1.610515364916773478e+03 6.674984320474562638e-02 3.208182928329097322e-02 1.095715911679250354e+01
1.620518565941101087e+03 6.352682682058145847e-02 2.695768434121685944e-02 1.190820819808723918e+01
1.630521766965428924e+03 6.406992650294808522e-02 3.166447347681641822e-02 1.238570390024735346e+01
1.640524967989756760e+03 6.343622251915372046e-02 3.073195199411232412e-02 1.213526443066889726e+01
1.650528169014084597e+03 5.741800330800125168e-02 2.333894581444497310e-02 9.612290043788801697e+00
1.660531370038412206e+03 6.357318131283286322e-02 3.035708151720830847e-02 9.355647588353928512e+00
1.670534571062740042e+03 6.527561308660834172e-02 3.080942994068438037e-02 9.566144903912027431e+00
1.680537772087067879e+03 6.388599739248219944e-02 2.567797536691415056e-02 1.080626266673876756e+01
1.690540973111395715e+03 6.649868274336115381e-02 3.077276748747598961e-02 1.229299690601572337e+01
1.700544174135723324e+03 6.381783118940512201e-02 3.091105616132952191e-02 1.054073952103736111e+01
1.710547375160051160e+03 5.821939531372716248e-02 2.499075526072236375e-02 1.076389949522336664e+01
1.720550576184378997e+03 6.282861296444752774e-02 3.003843245906974088e-02 1.099875419077441840e+01
1.730553777208706833e+03 6.361823569172674053e-02 3.079443551478939362e-02 1.130208470450441105e+01
1.740556978233034670e+03 5.962119351677385576e-02 2.430306687057416648e-02 1.170643325785799505e+01
1.750560179257362279e+03 6.391551267736052255e-02 3.002102839201595263e-02 1.082781520629946748e+01
1.760563380281690115e+03 6.178165814709807302e-02 2.793759064860233329e-02 1.064914250661285422e+01
1.770566581306017952e+03 5.804575251280430503e-02 2.365619832007552839e-02 9.868367418852423967e+00
1.780569782330345788e+03 6.371142806877551357e-02 3.079099427696263200e-02 1.090769356994329442e+01
1.790572983354673397e+03 6.413735235550259428e-02 3.034846699169846396e-02 9.813981049763091491e+00
1.800576184379001234e+03 5.934530788631776910e-02 2.493127577279256532e-02 8.383439660522331138e+00
1.810579385403329070e+03 6.372950400765828305e-02 3.061807731284272444e-02 9.137413253445835437e+00
1.820582586427656906e+03 6.228624431533133499e-02 2.914866000553349018e-02 1.058492099124687336e+01
1.830585787451984743e+03 5.705991128849270677e-02 2.329166814484231671e-02 1.057295098900577557e+01
1.840588988476312352e+03 6.193498527873259746e-02 2.890119277427645461e-02 1.069176330393877628e+01
1.850592189500640188e+03 6.291748090174263675e-02 3.128257971699772988e-02 1.142080171784794196e+01
1.860595390524968025e+03 6.059107231660203902e-02 2.470784954773317527e-02 1.156677067962739258e+01
1.870598591549295861e+03 6.547078463868978571e-02 3.188704859348610171e-02 1.117905835173213447e+01
1.880601792573623470e+03 6.469497340206659119e-02 2.941319264121084603e-02 1.098968021720206245e+01
1.890604993597951307e+03 5.942304467519480410e-02 2.402047146465507987e-02 1.092541160995093996e+01
1.900608194622279143e+03 6.375137009887653361e-02 2.967792355989266884e-02 9.307989202755711844e+00
1.910611395646606979e+03 6.438992543518493039e-02 3.006112298403691013e-02 9.754937723632442825e+00
1.920614596670934588e+03 5.930791183113284099e-02 2.474861200046765686e-02 9.334363080926518563e+00
1.930617797695262425e+03 6.415481416891068156e-02 2.958478531251159879e-02 9.178945837402983088e+00
1.940620998719590261e+03 6.262561077498515760e-02 2.913356694663159566e-02 9.734342634544534079e+00
1.950624199743918098e+03 5.803418384136291991e-02 2.385977696267262832e-02 9.265991057032779921e+00
1.960627400768245934e+03 6.194319340840895999e-02 2.913885196240953088e-02 9.903714397802795943e+00
1.970630601792573543e+03 6.306075120483552177e-02 3.156095433312921389e-02 1.066829471652866168e+01
1.980633802816901380e+03 6.123592433661092377e-02 2.522801144002765825e-02 9.197302447515992796e+00
1.990637003841229216e+03 6.313928495461716695e-02 3.162816493682807373e-02 1.081212526441051658e+01
2.000640204865557052e+03 6.168117421027900088e-02 2.987942321008012908e-02 1.027161239785891311e+01
2.010643405889884662e+03 5.927398763763194744e-02 2.359336912827194460e-02 9.638946181708021754e+00
2.020646606914212498e+03 6.533294593156342700e-02 2.947920658682703574e-02 1.157346510636004666e+01
2.030649807938540334e+03 6.386283142042196992e-02 3.026873455684337549e-02 1.015128340822718656e+01
2.040653008962868171e+03 5.957983726197710328e-02 2.455647043264134674e-02 9.207332765043712897e+00
2.050656209987195780e+03 6.371819818280242964e-02 3.067722090751824962e-02 8.804072147436814433e+00
2.060659411011523844e+03 6.213658922183795674e-02 3.102015645582451020e-02 8.588256705247975020e+00
2.070662612035851453e+03 5.768640442244560296e-02 2.316170673920845552e-02 1.066964584219306467e+01
2.080665813060179062e+03 6.260239499126199481e-02 2.907516626188540523e-02 1.061011395927081935e+01
2.090669014084507126e+03 6.477577280096644130e-02 3.052638510940981417e-02 1.035116891083456814e+01
2.100672215108834735e+03 6.160116209461881376e-02 2.664679504706025936e-02 9.922336186160727323e+00
2.110675416133162798e+03 6.589102208524082183e-02 3.236209064763116705e-02 9.001992005979902345e+00
2.120678617157490407e+03 6.380127021764074591e-02 3.039501356301197582e-02 9.141038422348136905e+00
2.130681818181818016e+03 6.070645621880484816e-02 2.429878030563322605e-02 8.615961711599229744e+00
2.140685019206146080e+03 6.387222253889632273e-02 2.953791286805782304e-02 9.886186034250476595e+00
2.150688220230473689e+03 6.548966281689966307e-02 3.153195713512538245e-02 9.606064489697569542e+00
2.160691421254801753e+03 5.960695000488534789e-02 2.536669028466636416e-02 9.739207552699424397e+00
2.170694622279129362e+03 6.494796824532352020e-02 3.245097561470609848e-02 9.650418772387451938e+00
2.180697823303456971e+03 6.292611949680330941e-02 2.748093292269517679e-02 9.658037873648771310e+00
2.190701024327785035e+03 5.771558632539471045e-02 2.534404450345874651e-02 9.650374059308466812e+00
2.200704225352112644e+03 6.364209210975911579e-02 2.837696649915766312e-02 1.004163288713795588e+01
2.210707426376440253e+03 6.490772622534456138e-02 3.010283169005702891e-02 9.319282889493395672e+00
2.220710627400768317e+03 6.042861961287158967e-02 2.549445262555227742e-02 9.968232114633245544e+00
2.230713828425095926e+03 6.327390305274883942e-02 3.003428805720076422e-02 1.011461041782746939e+01
2.240717029449423990e+03 6.270647259213554814e-02 2.908176925552480654e-02 9.640029811979060170e+00
2.250720230473751599e+03 6.008154819545330483e-02 2.504297897566418879e-02 9.468994534228942328e+00
2.260723431498079208e+03 6.288613712022159130e-02 3.011043244725414292e-02 1.027718650437089742e+01
2.270726632522407272e+03 6.411258213548100271e-02 3.104056173475444602e-02 1.042462422091876917e+01
2.280729833546734881e+03 5.987175056027470993e-02 2.440521622726453399e-02 9.718660314195213701e+00
2.290733034571062944e+03 6.316585974603371179e-02 3.026758172929136168e-02 9.981829318719617206e+00
2.300736235595390553e+03 6.379365289058003263e-02 2.990174715136228664e-02 9.580647655148254671e+00
2.310739436619718163e+03 6.246934224368533295e-02 2.486561505863786256e-02 9.099864683913176933e+00
2.320742637644046226e+03 6.336851324172719513e-02 3.045323090796746984e-02 9.583286798424419217e+00
2.330745838668373835e+03 6.356505063110226561e-02 3.076485708761993176e-02 9.605651350136765743e+00
2.340749039692701444e+03 6.216611160195519709e-02 2.537173842769541512e-02 9.848770686622406956e+00
2.350752240717029508e+03 6.609868723724540707e-02 3.076161689061406718e-02 8.599425276746647029e+00
2.360755441741357117e+03 6.402539285246540424e-02 2.971644715056951866e-02 8.157152796549612006e+00
2.370758642765685181e+03 6.056860570502614616e-02 2.484995445311507720e-02 7.685124957663561851e+00
2.380761843790012790e+03 6.389019610781215830e-02 2.996468223189060684e-02 1.087658077044222260e+01
2.390765044814340399e+03 6.427894303681097599e-02 3.133032359971879566e-02 9.835768385459898511e+00
2.400768245838668463e+03 6.123110486893056092e-02 2.552466936694209806e-02 8.678331838437873813e+00
2.410771446862996072e+03 6.415649274777179834e-02 3.221841411041984765e-02 8.828033089868805305e+00
2.420774647887324136e+03 6.249482311986429006e-02 2.945833643100595131e-02 8.807767186134856985e+00
2.430777848911651745e+03 5.924915311757392167e-02 2.468140115525695871e-02 9.199761169076397849e+00
2.440781049935979354e+03 6.656663905373434720e-02 2.997107617524142134e-02 9.006984598598984704e+00
2.450784250960307418e+03 6.574922980446749887e-02 2.964652391721893723e-02 9.420061906556925990e+00
2.460787451984635027e+03 5.877471693991578872e-02 2.371645785847523863e-02 9.276883773933942479e+00
2.470790653008963091e+03 6.363288804821294609e-02 3.019217420972429566e-02 9.433696110719068884e+00
2.480793854033290700e+03 6.280003311571626112e-02 2.952508986054551768e-02 9.173367649044251948e+00
2.490797055057618309e+03 5.973617251242702153e-02 2.280271816013079017e-02 1.003961797572628711e+01
2.500800256081946372e+03 6.497946642788912652e-02 3.007197905970055221e-02 9.497370691161815870e+00
2.510803457106273981e+03 6.352092903587151784e-02 3.220424914052983506e-02 8.627698148571003145e+00
2.520806658130601591e+03 5.991286642359070630e-02 2.425680142325133473e-02 9.523551673759717673e+00
2.530809859154929654e+03 6.491962036329847197e-02 3.200498994157053440e-02 8.903654570169759808e+00
2.540813060179257263e+03 6.299932060015826785e-02 2.968822626225969472e-02 9.257838282911183825e+00
2.550816261203585327e+03 6.003391121286413834e-02 2.488960085195931343e-02 9.270130214128704083e+00
2.560819462227912936e+03 6.502590417914033694e-02 3.030682842471031993e-02 9.792088090633166431e+00
2.570822663252240545e+03 6.530141937186824397e-02 3.203368647441939138e-02 9.979993371402597901e+00
2.580825864276568609e+03 6.312936559663302749e-02 2.464672284386130660e-02 9.619904785044914419e+00
2.590829065300896218e+03 6.338251575849689068e-02 3.169884067231497349e-02 9.784133481199912552e+00
2.600832266325224282e+03 6.279059038088323497e-02 2.944922098749700248e-02 9.652974765642204247e+00
2.610835467349551891e+03 6.019661416225504519e-02 2.465093005549734081e-02 9.435961426803640251e+00
2.620838668373879500e+03 6.389679489015863412e-02 3.073718044923954770e-02 1.006028279787646440e+01
2.630841869398207564e+03 6.555778960269284528e-02 3.106662411159789514e-02 1.079100568343538491e+01
2.640845070422535173e+03 6.138712427046388864e-02 2.662813624450384095e-02 1.006673764823194972e+01
2.650848271446862782e+03 6.494836675884016475e-02 3.201329425872732198e-02 9.750838228042180589e+00
2.660851472471190846e+03 6.433805350171965809e-02 2.932036830513229039e-02 9.841208461489241444e+00
2.670854673495518455e+03 5.971250810999063907e-02 2.484449828766152613e-02 8.059576836713256753e+00
2.680857874519846519e+03 6.487647602475707376e-02 3.125571009087155933e-02 9.435177359045257006e+00
2.690861075544174128e+03 6.518460511795562407e-02 2.916401604227845598e-02 9.412110501325241074e+00
2.700864276568501737e+03 6.300276780213831529e-02 2.636076114572787760e-02 1.036316137775573054e+01
2.710867477592829800e+03 6.807651206241470410e-02 3.345164503449076648e-02 9.051542524552347757e+00
2.720870678617157409e+03 6.872889979670640526e-02 3.065793138638456261e-02 9.326343229224793419e+00
2.730873879641485473e+03 6.360294389289675165e-02 2.800746909121393236e-02 1.072536029242094635e+01
2.740877080665813082e+03 6.746374896730282511e-02 3.350763586683703360e-02 1.017823196783332129e+01
2.750880281690140691e+03 7.008727387801358399e-02 3.460325642812245306e-02 9.940406789909312479e+00
2.760883482714468755e+03 6.663555478250093866e-02 2.852784955570213457e-02 8.950837648743567243e+00
2.770886683738796364e+03 7.181790343828747814e-02 3.323448965564654994e-02 9.082138980637022740e+00
2.780889884763124428e+03 7.022973056428331862e-02 3.260206061325890414e-02 9.824592165414470557e+00
2.790893085787452037e+03 6.460338567973787638e-02 2.849093980475305224e-02 9.215486781205997957e+00
2.800896286811779646e+03 6.962721262485890850e-02 3.346769081851848349e-02 9.228696773014970489e+00
2.810899487836107710e+03 7.130978468538237691e-02 3.297995843197387700e-02 8.399847223475704894e+00
2.820902688860435319e+03 6.840094419129212622e-02 2.852303728280586315e-02 8.832299187362911752e+00
2.830905889884762928e+03 6.775785266801728768e-02 3.313051791348211456e-02 8.004294879986519007e+00
2.840909090909090992e+03 6.704400960970356704e-02 3.255139507832695983e-02 8.178182779072667330e+00
2.850912291933418601e+03 6.721680093198402484e-02 2.900695365258360719e-02 7.355472533051327311e+00
2.860915492957746665e+03 6.952856280816616108e-02 3.182628889788006316e-02 7.782835382464355689e+00
2.870918693982074274e+03 6.685758650261558467e-02 3.064443902529978905e-02 9.449951289686731926e+00
2.880921895006401883e+03 6.381130351454272764e-02 2.729983160209334750e-02 9.497299909971362197e+00
2.890925096030729947e+03 6.661741993025797892e-02 3.044484962412355097e-02 9.382129416962031954e+00
2.900928297055057556e+03 6.275853077496125476e-02 3.147489064442877960e-02 8.717447933920610126e+00
2.910931498079385619e+03 6.145386468180327744e-02 2.569506373449308156e-02 7.813329656370678222e+00
2.920934699103713228e+03 6.535832212036743472e-02 3.083657836108280592e-02 8.656177072534889660e+00
2.930937900128040837e+03 6.661608477509053938e-02 3.145309903565302045e-02 8.065535861380229932e+00
2.940941101152368901e+03 6.052175476321652176e-02 2.454317677459070396e-02 9.384298973257987342e+00
2.950944302176696510e+03 6.403348417852017249e-02 3.108839512576364386e-02 8.725148752184788137e+00
2.960947503201024119e+03 6.666586200931216843e-02 3.063188943680033444e-02 8.746422802739115099e+00
2.970950704225352183e+03 6.155545936951176828e-02 2.620772618998086154e-02 8.226004401266942878e+00
2.980953905249679792e+03 6.477595900714330779e-02 3.080263543102322588e-02 8.917944715194453309e+00
2.990957106274007856e+03 6.484984849195063461e-02 2.952473363740567430e-02 7.958765630119028600e+00
3.000960307298335465e+03 6.225818331941275485e-02 2.527023459963733537e-02 7.495770571849633690e+00
3.010963508322663074e+03 6.509961479163250964e-02 3.131399228784431665e-02 8.102608146629757258e+00
3.020966709346991138e+03 6.443439541161405382e-02 3.045737190776492270e-02 8.416170565704772955e+00
3.030969910371318747e+03 6.119999168721771549e-02 2.690191551055771957e-02 8.469861134215186382e+00
3.040973111395646811e+03 6.589224882504676750e-02 2.919625518816646240e-02 8.151618723181975668e+00
3.050976312419974420e+03 6.786733769903981195e-02 3.170167387431536976e-02 8.417092776688990696e+00
3.060979513444302029e+03 6.372403615333574467e-02 2.683048500834786521e-02 8.280667504330002870e+00
3.070982714468630093e+03 6.463805569552302788e-02 3.199382335319551213e-02 8.548676624876332397e+00
3.080985915492957702e+03 6.511924369515906252e-02 2.985434822268341962e-02 7.959286153779043360e+00
3.090989116517285311e+03 6.133572927234329925e-02 2.488500666949518270e-02 7.211802991147583164e+00
3.100992317541613374e+03 6.263700352242859704e-02 2.977039115674036049e-02 6.933382268162935347e+00
3.110995518565940984e+03 6.560191420640965054e-02 2.951680360643851517e-02 7.691466027617486212e+00
3.120998719590269047e+03 6.158608113669038209e-02 2.756734570150129460e-02 8.395439502697174206e+00
3.131001920614596656e+03 6.569368833331637458e-02 3.113775875896170400e-02 8.062608651922538172e+00
3.141005121638924265e+03 6.309408566886437475e-02 3.121542417654190119e-02 7.855459355720025627e+00
3.151008322663252329e+03 6.105611522093293275e-02 2.415131724693674736e-02 8.252149612509956711e+00
3.161011523687579938e+03 6.511426891634541914e-02 3.070922146099382827e-02 7.521324871874150553e+00
3.171014724711908002e+03 6.785116949010522314e-02 3.284015790532225643e-02 7.168980597289559498e+00
3.181017925736235611e+03 6.259826067967633190e-02 2.487304959643189123e-02 7.118279541268305977e+00
3.191021126760563220e+03 6.652980017678973568e-02 3.036666238867142750e-02 7.882912516281547433e+00
3.201024327784891284e+03 6.535823518717402691e-02 3.002838538738361943e-02 8.195346677544373293e+00
3.211027528809218893e+03 6.242277925951807832e-02 2.659762988089290486e-02 7.863085720773658416e+00
3.221030729833546957e+03 6.454484181352121430e-02 3.059332220336145533e-02 7.495654747418427633e+00
3.231033930857874566e+03 6.740244817461288340e-02 3.241344176382444237e-02 8.121819906147752732e+00
3.241037131882202175e+03 6.348465379750894977e-02 2.602179754622322913e-02 8.216184797209116653e+00
3.251040332906530239e+03 6.669184860954475991e-02 2.954675536003668543e-02 7.975846219126514924e+00
3.261043533930857848e+03 6.877955523886351841e-02 3.198417597623082892e-02 8.168421581719577773e+00
3.271046734955185457e+03 6.570322428129998782e-02 2.788264904013596987e-02 8.741783107410986631e+00
3.281049935979513521e+03 6.776108620853661668e-02 3.145307679613049828e-02 7.952489354585398296e+00
3.291053137003841130e+03 6.912971543654007622e-02 3.377522887787799688e-02 7.544466075759435952e+00
3.301056338028169193e+03 6.664763894328820659e-02 3.037927741026490852e-02 8.079397879447117958e+00
3.311059539052496802e+03 7.382123179369029509e-02 3.361532397994804189e-02 8.135700493423014379e+00
3.321062740076824412e+03 7.689424277277652486e-02 3.599621845339794068e-02 8.216131734013073284e+00
3.331065941101152475e+03 7.716684519899959238e-02 3.455114519624316594e-02 7.784508294853274002e+00
3.341069142125480084e+03 7.483823709122398860e-02 3.536058349083390229e-02 7.999997851862583609e+00
3.351072343149808148e+03 7.131285653163785265e-02 3.632864090193801965e-02 8.458920470829731642e+00
3.361075544174135757e+03 6.943481231759632277e-02 3.188900374714701003e-02 8.235057854337911820e+00
3.371078745198463366e+03 6.974593746440878317e-02 3.312896393761166625e-02 7.358264973272607534e+00
3.381081946222791430e+03 6.965863749707373875e-02 3.194631981056888365e-02 8.117854065231272287e+00
3.391085147247119039e+03 6.569200312574861866e-02 2.716421928042956832e-02 8.338017478038786123e+00
3.401088348271446648e+03 6.750302063654078921e-02 3.127619577335257611e-02 7.698004261201909060e+00
3.411091549295774712e+03 6.998502876617705704e-02 3.358314415369805656e-02 8.052446019061219928e+00
3.421094750320102321e+03 6.712423674203094048e-02 2.698452133719257337e-02 7.469613077618162400e+00
3.431097951344430385e+03 6.616302363372818240e-02 3.425731352189351903e-02 8.293264367204596255e+00
3.441101152368757994e+03 6.873306739428908241e-02 3.181562044580747706e-02 8.354109448987992792e+00
3.451104353393085603e+03 6.549069334422015498e-02 2.772556369133660770e-02 7.678101402085625971e+00
3.461107554417413667e+03 6.727736796855172952e-02 3.154034905096148034e-02 7.863556034926745930e+00
3.471110755441741276e+03 6.921751036716775052e-02 3.279221920443765870e-02 7.509776245861311317e+00
3.481113956466069340e+03 6.601995509374679327e-02 2.734178233461631580e-02 7.862642873507675212e+00
3.491117157490396949e+03 6.918481449093237534e-02 3.250871633477895456e-02 7.409944632334451775e+00
3.501120358514724558e+03 6.817330568398781432e-02 2.986846145134165395e-02 7.484530042273460637e+00
3.511123559539052621e+03 6.356427351427776373e-02 2.875773215826005549e-02 7.252296583581343548e+00
3.521126760563380230e+03 6.696462646566017640e-02 3.072200478102088753e-02 7.206116256499732309e+00
3.531129961587708294e+03 7.282300700278770966e-02 3.439303006164974585e-02 6.776590339463157697e+00
3.541133162612035903e+03 1.632458392182640217e-01 1.139623525782930552e-01 6.369973347348425463e+00
3.551136363636363512e+03 1.816493859113944564e-01 1.237525369409539083e-01 6.533948037427235178e+00
3.561139564660691576e+03 8.329791053525616162e-02 3.890282346827831500e-02 6.525108511573405323e+00
3.571142765685019185e+03 6.853080747801436334e-02 3.101868195255070432e-02 7.121720248167027201e+00
3.581145966709346794e+03 7.447461914291821083e-02 3.638512089515214681e-02 8.413647759060557618e+00
3.591149167733674858e+03 7.688291020422687028e-02 3.440641508842865598e-02 8.025521668822170440e+00
3.601152368758002467e+03 8.004762405816528981e-02 3.317369517834512643e-02 7.884909589077543579e+00
3.611155569782330531e+03 7.900426629861495575e-02 3.830425364605821031e-02 8.436777524876260870e+00
3.621158770806658140e+03 8.218352567859393831e-02 3.915019790253004145e-02 8.342936647131676153e+00
3.631161971830985749e+03 8.273482838063370148e-02 3.497775837467685667e-02 9.473050827255326212e+00
3.641165172855313813e+03 8.161855651610558371e-02 3.835523200963606577e-02 8.037645543079490196e+00
3.651168373879641422e+03 8.251243082370907089e-02 3.809368885242719882e-02 8.003833765869732275e+00
3.661171574903969486e+03 8.303871481314452352e-02 3.825634143285057409e-02 7.664035502398524713e+00
3.671174775928297095e+03 8.213170439835837389e-02 3.930563680868358334e-02 7.601160927055441441e+00
3.681177976952624704e+03 7.822780694028048931e-02 3.679085275008142641e-02 8.096432698964250108e+00
3.691181177976952767e+03 7.311125833246841232e-02 3.275210422265308063e-02 7.722405939630371030e+00
3.701184379001280377e+03 7.241245083476319233e-02 3.436045571776570606e-02 8.098935845378164800e+00
3.711187580025607986e+03 7.229187396092962015e-02 3.626005366242408823e-02 8.647729421511824555e+00
3.721190781049936049e+03 6.896490100041408056e-02 2.992929540134919852e-02 9.775698710446153683e+00
3.731193982074263658e+03 7.044289167573966615e-02 3.238346449488993528e-02 8.820423019204971737e+00
3.741197183098591722e+03 7.069175793461954238e-02 3.264416977389335284e-02 9.862983468610659443e+00
3.751200384122919331e+03 6.554133461969736951e-02 2.846106934779849690e-02 8.568252909160827713e+00
3.761203585147246940e+03 6.845403964907802175e-02 3.331108613978599892e-02 7.889391081964201469e+00
3.771206786171575004e+03 6.925758243546235871e-02 3.297135985568366151e-02 7.589031945832700465e+00
3.781209987195902613e+03 6.592103534125585973e-02 2.803270352067254931e-02 7.700120421595035403e+00
3.791213188220230677e+03 6.945228803276330687e-02 3.263197197958925960e-02 7.454074349692357160e+00
3.801216389244558286e+03 6.964437368691987762e-02 3.223719349050998412e-02 8.663136774363486836e+00
3.811219590268885895e+03 6.796410715857191531e-02 2.906947315062111473e-02 7.749650398470731893e+00
3.821222791293213959e+03 6.601235982232543653e-02 3.361674399234714644e-02 6.911206761272281618e+00
3.831225992317541568e+03 6.862976727944741784e-02 3.249384233786437731e-02 7.567115075241867217e+00
3.841229193341869177e+03 6.666145434145274995e-02 2.862655700613277870e-02 7.585919180763284864e+00
3.851232394366197241e+03 6.804892171476618901e-02 3.202371770404750101e-02 8.586564489059250960e+00
3.861235595390524850e+03 6.727625129981430752e-02 3.096005524573340953e-02 7.516395917530219073e+00
3.871238796414852914e+03 6.579666563390688949e-02 2.868746894905368355e-02 7.445641590342280125e+00
3.881241997439180523e+03 6.701198640933446471e-02 3.251228991723255357e-02 8.719941470130875061e+00
3.891245198463508132e+03 7.058751689105242921e-02 3.234274967637155301e-02 9.399716159736565047e+00
3.901248399487836195e+03 6.729586316366258092e-02 2.914933757415563015e-02 8.245747620437455794e+00
3.911251600512163805e+03 7.099824361696369102e-02 3.346177079984922337e-02 8.022795613122315928e+00
3.921254801536491868e+03 6.904911466183620561e-02 3.176071480459497637e-02 7.571602741753934218e+00
3.931258002560819477e+03 6.898428022783106850e-02 3.020461895229446803e-02 8.652628735591324727e+00
3.941261203585147086e+03 7.106200996339888387e-02 3.399392010953072862e-02 8.509930213504107499e+00
3.951264404609475150e+03 7.082840028948540756e-02 3.276845895190340363e-02 8.477448173868459946e+00
3.961267605633802759e+03 6.630825344005727984e-02 2.958315821237196899e-02 8.436070880626429513e+00
3.971270806658130823e+03 7.131389111423064309e-02 3.340538679644769471e-02 7.781879730306046739e+00
3.981274007682458432e+03 6.885637481227646628e-02 3.180002868377804215e-02 7.458141251992173260e+00
3.991277208706786041e+03 6.750605829886431597e-02 2.929727323322953852e-02 7.374956604473643651e+00
4.001280409731114105e+03 7.102751517305641582e-02 3.371755971519038719e-02 8.819549950878160516e+00
4.011283610755441714e+03 7.151578597856311781e-02 3.463087180219789896e-02 8.510649480033507075e+00
4.021286811779769323e+03 6.933797922213785769e-02 2.882638252247121669e-02 8.343212898172822634e+00
4.031290012804097387e+03 6.813320065035541329e-02 3.319070036978322841e-02 7.755278557984743415e+00
4.041293213828424996e+03 6.863599560372377062e-02 3.268845822214106606e-02 8.164896674363617990e+00
4.051296414852753060e+03 6.773264444802820639e-02 2.788114690486666672e-02 8.990365584643880581e+00
4.061299615877080669e+03 7.062530707899748739e-02 3.277140920347321879e-02 8.645156942719243176e+00
4.071302816901408278e+03 7.199578180036701747e-02 3.359623222699672368e-02 8.744125037947540591e+00
4.081306017925736342e+03 6.935523066539990567e-02 3.019285763067032849e-02 8.243272641136652368e+00
4.091309218950063951e+03 6.941072527442494755e-02 3.371363607918337335e-02 8.552192700762093480e+00
4.101312419974391560e+03 6.889173562068859336e-02 3.272348913551922922e-02 8.156090996756676148e+00
4.111315620998719169e+03 6.835469102312535794e-02 2.910666655133698627e-02 9.374612364179984780e+00
4.121318822023047687e+03 7.106410328226286932e-02 3.389726462260326395e-02 9.072297717162244979e+00
4.131322023047375296e+03 7.247516988280555683e-02 3.235915299901612890e-02 9.570342661550458985e+00
4.141325224071702905e+03 7.031294255327710796e-02 2.953326866415560692e-02 9.642986077787282895e+00
4.151328425096030514e+03 6.994776334367229509e-02 3.195474325715344510e-02 9.203020828114633289e+00
4.161331626120358123e+03 7.193473216784042334e-02 3.182384002763983394e-02 8.150820315076042988e+00
4.171334827144686642e+03 7.205780799178319873e-02 2.963519934935614566e-02 8.002833105358996946e+00
4.181338028169014251e+03 7.159579446098003619e-02 3.429999283751591216e-02 6.872721903502394980e+00
4.191341229193341860e+03 7.395598940913609975e-02 3.208976391487840252e-02 7.651349430310395938e+00
4.201344430217669469e+03 6.984513209968748471e-02 2.964982631676167657e-02 7.302449468386273068e+00
4.211347631241997078e+03 7.182240096948284969e-02 3.394841908116386087e-02 7.428545782044865931e+00
4.221350832266325597e+03 7.234287727630017706e-02 3.164970386498418276e-02 6.412427328398070614e+00
4.231354033290653206e+03 7.047704686094651005e-02 3.009808577726832621e-02 7.070429462154217859e+00
4.241357234314980815e+03 7.307455569431405007e-02 3.456821630543420454e-02 7.709682216997582493e+00
4.251360435339308424e+03 7.378117456368293858e-02 3.610746474579941412e-02 8.252779909819187409e+00
4.261363636363636033e+03 7.206308858118593008e-02 3.085015998632411813e-02 8.658140014341299207e+00
4.271366837387964551e+03 7.458330940525234598e-02 3.324556242829267150e-02 8.895737450065004381e+00
4.281370038412292161e+03 7.248123776715940936e-02 3.278878528200858400e-02 9.682079327598447804e+00
4.291373239436619770e+03 7.239968454875946036e-02 3.058310088207332952e-02 8.926102010831488798e+00
4.301376440460947379e+03 7.482939273126550106e-02 3.647880101769791772e-02 7.311873049798171209e+00
4.311379641485274988e+03 7.405551098005383470e-02 3.448933962574025902e-02 7.993738304453546384e+00
4.321382842509603506e+03 7.127428001012425796e-02 3.092910761845290776e-02 8.441814440526391294e+00
4.331386043533931115e+03 7.416189503062835253e-02 3.443120003264601992e-02 9.415669941603306725e+00
4.341389244558258724e+03 7.466105181794212287e-02 3.351298968795905081e-02 9.036482179315338925e+00
4.351392445582586333e+03 7.408715983815301886e-02 3.194911276933195404e-02 9.158261963121830718e+00
4.361395646606913942e+03 7.807701822249499268e-02 3.507365729469901633e-02 8.689751505963899447e+00
4.371398847631241551e+03 7.829797325846406253e-02 3.686590246350654465e-02 7.921082636228712559e+00
4.381402048655570070e+03 7.653911182084707776e-02 3.288269956170372654e-02 7.377938684144231374e+00
4.391405249679897679e+03 7.552218495823541378e-02 3.599527917729204718e-02 8.041874589835311227e+00
4.401408450704225288e+03 7.552506108756439074e-02 3.462052917822994874e-02 8.392149891085994184e+00
4.411411651728552897e+03 7.663927498422189177e-02 3.236354438817326540e-02 8.275822385837718898e+00
4.421414852752880506e+03 7.923091675099305786e-02 3.492218971447060699e-02 8.687137469614906848e+00
4.431418053777209025e+03 7.958536784710620871e-02 3.560573776998610107e-02 8.544851543961476281e+00
4.441421254801536634e+03 8.115192607396763680e-02 3.352029037708484371e-02 7.749442842051603719e+00
4.451424455825864243e+03 8.097801676051796793e-02 3.854499059461321403e-02 8.443897281091807372e+00
4.461427656850191852e+03 8.586081652332283598e-02 3.761245409374160825e-02 9.227562179574935186e+00
4.471430857874519461e+03 9.012234595991133745e-02 3.634430187551808411e-02 9.758083130617508871e+00
4.481434058898847979e+03 8.707516187830262322e-02 4.049035169890454616e-02 1.015068168533315429e+01
4.491437259923175588e+03 8.748523277689919386e-02 3.909965146731315955e-02 9.516565563178351894e+00
4.501440460947503198e+03 8.978887017374065360e-02 3.657200872450434154e-02 1.061672639536120144e+01
4.511443661971830807e+03 9.094029038395325115e-02 4.062326141830250453e-02 9.867309333786087322e+00
4.521446862996158416e+03 9.512096916491626086e-02 4.186709274983898416e-02 8.791083928199473263e+00
4.531450064020486934e+03 9.726059104029054214e-02 3.705813457446108933e-02 9.002466570425617931e+00
4.541453265044814543e+03 9.907349628903307226e-02 4.145521202146375261e-02 8.465420808233574235e+00
4.551456466069142152e+03 9.646070135642900722e-02 4.211482916331948934e-02 9.528226690515815278e+00
4.561459667093469761e+03 1.018328920052114783e-01 4.431808543620133906e-02 9.419986502294317887e+00
4.571462868117797370e+03 1.054206922804397512e-01 4.641018766223058839e-02 8.765335709938437248e+00
4.581466069142125889e+03 1.040159467798638382e-01 4.525199958361333930e-02 8.030664713909951402e+00
4.591469270166453498e+03 1.059848247581520048e-01 4.573150966231096654e-02 8.188982599153092679e+00
4.601472471190781107e+03 1.166865066127635714e-01 5.279597903200251852e-02 8.302550498893069175e+00
4.611475672215108716e+03 1.183746273724158166e-01 5.233101076562485243e-02 9.089518260394903848e+00
4.621478873239436325e+03 1.213653308672020675e-01 5.187784779085512915e-02 8.509806522805844153e+00
4.631482074263764844e+03 1.206436197374926994e-01 5.021263493560102625e-02 8.229688297385152396e+00
4.641485275288092453e+03 1.202550399793096414e-01 5.248989532755018311e-02 8.430389112763460702e+00
4.651488476312420062e+03 1.245495185923512771e-01 5.272481273451789380e-02 8.188386164592733607e+00
4.661491677336747671e+03 1.237820431862731302e-01 5.318029927624921827e-02 9.467489505713396980e+00
4.671494878361075280e+03 1.229452111968702133e-01 5.532952624990315760e-02 9.259347229537649326e+00
4.681498079385402889e+03 1.227568980057930498e-01 5.719564894340730538e-02 9.868213432321553569e+00
4.691501280409731407e+03 1.242451400513008841e-01 5.425924865666040958e-02 9.525889163012612570e+00
4.701504481434059016e+03 1.300165855862707165e-01 5.381411148455144539e-02 9.311702274692006398e+00
4.711507682458386626e+03 1.253427239442062580e-01 5.515654069654579716e-02 9.541744332530685213e+00
4.721510883482714235e+03 1.285902304564587872e-01 5.644094962214672717e-02 9.357385413565351584e+00
4.731514084507041844e+03 1.237761757671280299e-01 5.535568550590034415e-02 8.306311644684996054e+00
4.741517285531370362e+03 1.226034793321478383e-01 5.294732196053897333e-02 1.071253522563971572e+01
4.751520486555697971e+03 1.284271236317031939e-01 5.288511706001059604e-02 1.026105285832973557e+01
4.761523687580025580e+03 1.274830980423450055e-01 5.309899576251044667e-02 9.687538051103377512e+00
4.771526888604353189e+03 1.269751557364118821e-01 5.184700042087204974e-02 9.949759114005169991e+00
4.781530089628680798e+03 1.243760953613815140e-01 5.321207061506047498e-02 1.050114595978235066e+01
4.791533290653009317e+03 1.268893285436834828e-01 5.285382266579713439e-02 1.041570595491472595e+01
4.801536491677336926e+03 1.240826925835190192e-01 5.027590061760067730e-02 8.551553225029076444e+00
4.811539692701664535e+03 1.187513741706234388e-01 4.748038452555337907e-02 9.748839699087730182e+00
4.821542893725992144e+03 1.256321900653333823e-01 5.354033884868641957e-02 9.422588848898980629e+00
4.831546094750319753e+03 1.329874314999140161e-01 4.935953603783056753e-02 1.043818411617779773e+01
4.841549295774648272e+03 1.335888348677345128e-01 5.763755168629530051e-02 9.551301899135758333e+00
4.851552496798975881e+03 1.321141900810213210e-01 5.664692182718504554e-02 9.819835404860052464e+00
4.861555697823303490e+03 1.298498994775211524e-01 6.339141079334956186e-02 9.556938241378308163e+00
4.871558898847631099e+03 1.301797588686018636e-01 5.786286231912745465e-02 8.880306455077118244e+00
4.881562099871958708e+03 1.272206286160426358e-01 6.128175052678039303e-02 9.979159055775999931e+00
4.891565300896287226e+03 1.272093296760213876e-01 5.804023292848681237e-02 1.023750226037008915e+01
4.901568501920614835e+03 1.194753282374489689e-01 5.497510281863035586e-02 9.355300009129223326e+00
4.911571702944942444e+03 1.157506341358551377e-01 5.502994926174717416e-02 9.823643153523908822e+00
4.921574903969270053e+03 1.090626661555816890e-01 4.586975014329823519e-02 9.739955161777078985e+00
4.931578104993597663e+03 1.043862124053412666e-01 4.805347767042284640e-02 9.258365198235495086e+00
4.941581306017926181e+03 9.849866975004449576e-02 4.701907758352221606e-02 9.490400970693722016e+00
4.951584507042253790e+03 9.797828904119273985e-02 4.152216592663726669e-02 9.297763296831238478e+00
4.961587708066581399e+03 9.456567075238389575e-02 4.286090924927259821e-02 9.094201897667081980e+00
4.971590909090909008e+03 9.258377791009331226e-02 4.037156204359165085e-02 9.764041399724307624e+00
4.981594110115236617e+03 9.149314901829434798e-02 3.848299262178525582e-02 9.786858530109201482e+00
4.991597311139564226e+03 8.927430198783681270e-02 4.001805205626633027e-02 7.815052367698612557e+00
5.001600512163892745e+03 9.112170053548884763e-02 3.930956554804541231e-02 7.956782626767930466e+00
5.011603713188220354e+03 8.764366356434406813e-02 3.761247888461032030e-02 8.204288101896359819e+00
5.021606914212547963e+03 8.740743941484907520e-02 3.998482344514110026e-02 9.568712350393944632e+00
5.031610115236875572e+03 8.383327308982793657e-02 4.213036781459410240e-02 9.416947241896620469e+00
5.041613316261203181e+03 8.168620854216424032e-02 3.883139683022034799e-02 1.021146829564093750e+01
5.051616517285531700e+03 8.391481230051636708e-02 4.019457080057215609e-02 9.345177998103730843e+00
5.061619718309859309e+03 8.398869903503874967e-02 3.794256314155072807e-02 1.074540172319507469e+01
5.071622919334186918e+03 8.328521631820236248e-02 3.606999937571615800e-02 1.045718241529632131e+01
5.081626120358514527e+03 8.496040532476363538e-02 3.927639661721053083e-02 1.051592623075833188e+01
5.091629321382842136e+03 8.415409322135949943e-02 4.025712477436109438e-02 1.054323414176786144e+01
5.101632522407170654e+03 8.216158384931909753e-02 3.544294898762836987e-02 9.515570484478885760e+00
5.111635723431498263e+03 8.057404030191119004e-02 3.814223915648062846e-02 9.091985934174584116e+00
5.121638924455825872e+03 8.120410648080368665e-02 3.608363660383666349e-02 9.364036686466564063e+00
5.131642125480153481e+03 8.078017984945982943e-02 3.629421032312114132e-02 1.043349821539865907e+01
5.141645326504481091e+03 8.468774918872513935e-02 4.102678363233445286e-02 1.073934452216575153e+01
5.151648527528809609e+03 8.463755352212792848e-02 4.019812581782879202e-02 9.641306182198377428e+00
5.161651728553137218e+03 8.205655618042331789e-02 3.722253293599173812e-02 8.810273989688916174e+00
5.171654929577464827e+03 8.569273300798625759e-02 3.868935484243236911e-02 9.678213405442820161e+00
5.181658130601792436e+03 8.283424148658366515e-02 3.964165789582296123e-02 1.050718958422266525e+01
5.191661331626120045e+03 8.273937846652967831e-02 3.883009059383260575e-02 9.224617150329954995e+00
5.201664532650448564e+03 8.409971989905758172e-02 4.034522887558140980e-02 9.106668325608101355e+00
5.211667733674776173e+03 8.399497539450738459e-02 4.016282475803081842e-02 1.011895883890334424e+01
5.221670934699103782e+03 8.227018176509874603e-02 3.621278713275091071e-02 9.338676925488883285e+00
5.231674135723431391e+03 8.642891990441911587e-02 3.980063031662076783e-02 1.024573702884331183e+01
5.241677336747759000e+03 8.603296716316846671e-02 4.147694300276345836e-02 9.961356519087940953e+00
5.251680537772087519e+03 8.233726607880823001e-02 3.752483315638349692e-02 1.141588209987368430e+01
5.261683738796415128e+03 8.457076417857403716e-02 3.897365511541436844e-02 1.030737110232900910e+01
5.271686939820742737e+03 8.580337910191843109e-02 4.133221468080607031e-02 1.038661570873279061e+01
5.281690140845070346e+03 8.296063182081633847e-02 3.733235105319050728e-02 1.026136700460060425e+01
5.291693341869397955e+03 8.235763584559771533e-02 4.119195373382045916e-02 1.050019222096498872e+01
5.301696542893725564e+03 8.755372134352081004e-02 3.996182483974194261e-02 9.932292814699755112e+00
5.311699743918054082e+03 1.849527183267771213e-01 1.095086494206737732e-01 1.049936252708068096e+01
5.321702944942381691e+03 2.596333720298674153e-01 1.881869452156861300e-01 1.054353484981534272e+01
5.331706145966709300e+03 1.378696540425471129e-01 6.800524151672561468e-02 1.180061895187813192e+01
5.341709346991036909e+03 8.646297527120778981e-02 3.783173537875746811e-02 1.074374601141385810e+01
5.351712548015364519e+03 8.372078582604387809e-02 3.963140835220128194e-02 1.068577198934031003e+01
5.361715749039693037e+03 8.727425675675978822e-02 4.242422889735850133e-02 1.042848200783766366e+01
5.371718950064020646e+03 8.647387052320064382e-02 4.091380322497039507e-02 1.071933009518872559e+01
5.381722151088348255e+03 8.876849799095135052e-02 4.358002121820615110e-02 1.026399804168418761e+01
5.391725352112675864e+03 9.156374543213893769e-02 4.354514621108514227e-02 1.063644901800772757e+01
5.401728553137003473e+03 8.657434907804949231e-02 4.110019800678549329e-02 1.029626223452050127e+01
5.411731754161331992e+03 8.740372326409423520e-02 4.001949704474901115e-02 1.066331409355098714e+01
5.421734955185659601e+03 8.636235830056246399e-02 4.069003284365635409e-02 9.717164570778841437e+00
5.431738156209987210e+03 8.604694448097294224e-02 3.772019510129809988e-02 1.045743472551122721e+01
5.441741357234314819e+03 8.762458520212199065e-02 4.400532513753993569e-02 1.093427168082655321e+01
5.451744558258642428e+03 8.881213546306268580e-02 4.556777271795793560e-02 1.225998582144101690e+01
5.461747759282970947e+03 8.834017771811178421e-02 3.931064279662572353e-02 1.079860594152787279e+01
5.471750960307298556e+03 9.022534260867903777e-02 3.995477864594543238e-02 1.082010690359475191e+01
5.481754161331626165e+03 8.922989302970557590e-02 4.076762909904978194e-02 9.979396491478004450e+00
5.491757362355953774e+03 8.633484615109364435e-02 3.806027475510946612e-02 9.088976154500079119e+00
5.501760563380281383e+03 9.062782290888889147e-02 4.190118102290234930e-02 9.429295365404870566e+00
5.511763764404609901e+03 9.165812549155892552e-02 4.408497547746521167e-02 9.768686431189685493e+00
5.521766965428937510e+03 8.860035619963901876e-02 4.045929358842330348e-02 1.032928724148695920e+01
5.531770166453265119e+03 9.278760766813294592e-02 4.319930078105981008e-02 9.703514020706391463e+00
5.541773367477592728e+03 9.356055047899225485e-02 4.175623487520060267e-02 9.828265325210988834e+00
5.551776568501920337e+03 9.168111954878664649e-02 3.861687881707141085e-02 1.032500512075607624e+01
5.561779769526248856e+03 9.381995813189702993e-02 4.253615309099530173e-02 1.118521841273510020e+01
5.571782970550576465e+03 9.107254784295128192e-02 4.208974797172735510e-02 1.148307110968109868e+01
5.581786171574904074e+03 9.162766510808539877e-02 3.915335928696184187e-02 1.209760765115921011e+01
5.591789372599231683e+03 9.298394240649868192e-02 4.148655670817857910e-02 1.214511763253334387e+01
5.601792573623559292e+03 9.543808544122654725e-02 4.287269299470727185e-02 1.208785788408915174e+01
5.611795774647886901e+03 9.493802566155991329e-02 4.175570227769104248e-02 1.173909272721388675e+01
5.621798975672215420e+03 9.112838346246820986e-02 4.379496798242439592e-02 1.227417281260358095e+01
5.631802176696543029e+03 9.603426639198012205e-02 4.612145935148992404e-02 1.276662611248385559e+01
5.641805377720870638e+03 9.359076094000581825e-02 4.338567476863466194e-02 1.334880395665213193e+01
5.651808578745198247e+03 9.497478480836286929e-02 4.395266783415072154e-02 1.355049798197298294e+01
5.661811779769525856e+03 9.673672726335781624e-02 4.657407400372175904e-02 1.285528144106902104e+01
5.671814980793854374e+03 9.802281214308976309e-02 4.222455170289489412e-02 1.225295996852688063e+01
5.681818181818181984e+03 9.823689176458640093e-02 4.304128626188621215e-02 1.235582576913753527e+01
5.691821382842509593e+03 1.055953736180667013e-01 4.657681049025327175e-02 1.138439866649341248e+01
5.701824583866837202e+03 1.018367770516201282e-01 4.402531550327550697e-02 1.406797602826379645e+01
5.711827784891164811e+03 1.009597537420485469e-01 4.650563401190865864e-02 1.222683588483373462e+01
5.721830985915493329e+03 1.026373906508418199e-01 4.692578193914800216e-02 1.255951115845646271e+01
5.731834186939820938e+03 9.911987333351075791e-02 4.204324600821343627e-02 1.227230077513915596e+01
5.741837387964148547e+03 1.004389163762911541e-01 4.333847474602569444e-02 1.252209173967595035e+01
5.751840588988476156e+03 1.049590616015911165e-01 4.784636235973502294e-02 1.483979633738522885e+01
5.761843790012803765e+03 1.090831195553272209e-01 4.615222789598518588e-02 1.477970756925587281e+01
5.771846991037132284e+03 1.044757744967137747e-01 4.858713335596424182e-02 1.289039327132116064e+01
5.781850192061459893e+03 1.083279442485949456e-01 5.042915136163535206e-02 1.375137527759413203e+01
5.791853393085787502e+03 1.055307510621846107e-01 4.854001629638719784e-02 1.284117141287218189e+01
5.801856594110115111e+03 1.084375122480723819e-01 5.060829646267778897e-02 1.403198990049222949e+01
5.811859795134442720e+03 1.087010871274380758e-01 5.241090387597856226e-02 1.382738020346764607e+01
5.821862996158771239e+03 1.088637245279101828e-01 4.614538021611337693e-02 1.473604114427080702e+01
5.831866197183098848e+03 1.155026955689741480e-01 5.428974063021766577e-02 1.420806840500677914e+01
5.841869398207426457e+03 1.173628354351617109e-01 5.377091923194451950e-02 1.416585729929202486e+01
5.851872599231754066e+03 1.131185304712611223e-01 5.163466902209262743e-02 1.301203924100337161e+01
5.861875800256081675e+03 1.141383492528044302e-01 5.151780079854927780e-02 1.184085821694156593e+01
5.871879001280410193e+03 1.140144402638294252e-01 5.196723901287475522e-02 1.358043419632352133e+01
5.881882202304737802e+03 1.162883725561196097e-01 5.190067767393988230e-02 1.254128082736008842e+01
5.891885403329065412e+03 1.096477242038354227e-01 5.411920139316526296e-02 1.475545733626388767e+01
5.901888604353393021e+03 1.123264077432211405e-01 5.305795709322165543e-02 1.479143931547828039e+01
5.911891805377720630e+03 1.145034041278579912e-01 5.403393408223326755e-02 1.324016462161063856e+01
5.921895006402048239e+03 1.167764847920421539e-01 5.064507281708408026e-02 1.405308229090400829e+01
5.931898207426376757e+03 1.164317489659824761e-01 5.503353663710539023e-02 1.385728296484056443e+01
5.941901408450704366e+03 1.180273581012892814e-01 5.521441976914050198e-02 1.455789286295174811e+01
5.951904609475031975e+03 1.199104355580905695e-01 5.479765540531054274e-02 1.339637771743919181e+01
5.961907810499359584e+03 1.199697068649990123e-01 5.734418416673964236e-02 1.302913780109775210e+01
5.971911011523687193e+03 1.216122112903518515e-01 5.555540537536837048e-02 1.372137593620993812e+01
5.981914212548015712e+03 1.204527459801708611e-01 5.505525266188148609e-02 1.397305820378815788e+01
5.991917413572343321e+03 1.225636781676235076e-01 5.774491783528902522e-02 1.327849219651359824e+01
6.001920614596670930e+03 1.204875121367531832e-01 5.572978307420767968e-02 1.204298099416196521e+01
6.011923815620998539e+03 1.164146177009446476e-01 5.634325753767929768e-02 1.262633084515019988e+01
6.021927016645326148e+03 1.167814943678090051e-01 5.429903826264730754e-02 1.654419371253298365e+01
6.031930217669654667e+03 1.190884836406615049e-01 5.167811482218422070e-02 1.577218445447646467e+01
6.041933418693982276e+03 1.208628640801057558e-01 5.463223093777888617e-02 1.439883912883591854e+01
6.051936619718309885e+03 1.255139637849227441e-01 5.604433512827738245e-02 1.552308406161360921e+01
6.061939820742637494e+03 1.173790272509809829e-01 5.473333456539399705e-02 1.546904714425635063e+01
6.071943021766965103e+03 1.131976258012105802e-01 5.283133835234872511e-02 1.573817783984275920e+01
6.081946222791293621e+03 1.136890521310357921e-01 5.343178521779096135e-02 1.362950528163381847e+01
6.091949423815621230e+03 1.186429047841660034e-01 5.128862142296317789e-02 1.389869470864623580e+01
6.101952624839948840e+03 1.145299302788969631e-01 5.442534160679376315e-02 1.302985531067739622e+01
6.111955825864276449e+03 1.201567387640641027e-01 5.656441463888087912e-02 1.236259146970562561e+01
6.121959026888604058e+03 1.199003099778604142e-01 5.267106872160257774e-02 1.375980512552623303e+01
6.131962227912932576e+03 1.182673218108162561e-01 5.442387342971612141e-02 1.396163300539206631e+01
6.141965428937260185e+03 1.153049774938424837e-01 5.320589003520058424e-02 1.520795287528395257e+01
6.151968629961587794e+03 1.119161288141163474e-01 5.061355621410659755e-02 1.460853026480676675e+01
6.161971830985915403e+03 1.134415363393320303e-01 5.486823103406962554e-02 1.338953807725914658e+01
6.171975032010243012e+03 1.156225489718884503e-01 5.371755179387935342e-02 1.312621339953424027e+01
6.181978233034570621e+03 1.167333418472490392e-01 5.263793583473198173e-02 1.318907381552537572e+01
6.191981434058899140e+03 1.189807928655633867e-01 5.813138159444929814e-02 1.396441957538483791e+01
6.201984635083226749e+03 1.195560325772139221e-01 5.864013079137006534e-02 1.560681001178707561e+01
6.211987836107554358e+03 1.197965110340197536e-01 5.476423671115268621e-02 1.231032588129147065e+01
6.221991037131881967e+03 1.224409788602345284e-01 5.782717063103664373e-02 1.334735997706171773e+01
6.231994238156209576e+03 1.209829413545797094e-01 6.043821012784735686e-02 1.464867444286855047e+01
6.241997439180538095e+03 1.208193740611228917e-01 5.477116877381991988e-02 1.595888137312400268e+01
6.252000640204865704e+03 1.179432186355386658e-01 5.531116262261929345e-02 1.487671988407305257e+01
6.262003841229193313e+03 1.210305351491993003e-01 5.500144021268194017e-02 1.589235126141289811e+01
6.272007042253520922e+03 1.222468260573657400e-01 5.574588679808978320e-02 1.790419996917044898e+01
6.282010243277848531e+03 1.187061442965885033e-01 5.378119631154976155e-02 1.573462759847741665e+01
6.292013444302177049e+03 1.230612375275939308e-01 5.649286677635692588e-02 1.730968799518608137e+01
6.302016645326504658e+03 1.180327230566900060e-01 5.742765692247209924e-02 1.571038130811932199e+01
6.312019846350832267e+03 1.232756075326841005e-01 5.499035139715285903e-02 1.552321464498379555e+01
6.322023047375159877e+03 1.253111318749463299e-01 6.155871114229637120e-02 1.310566961497147176e+01
6.332026248399487486e+03 1.245420964054807372e-01 5.632713406381839594e-02 1.507552784527082856e+01
6.342029449423816004e+03 1.224598379506420115e-01 5.677762060545385459e-02 1.678093525976110456e+01
6.352032650448143613e+03 1.283335694003168992e-01 5.892108830106353168e-02 1.789648608861148560e+01
6.362035851472471222e+03 1.265867754734685269e-01 6.447460976496040275e-02 1.689545160472524543e+01
6.372039052496798831e+03 1.249984446418602596e-01 5.906140208406530229e-02 1.645427098670776900e+01
6.382042253521126440e+03 1.285820235772688891e-01 6.000163062469213854e-02 1.709062807067435585e+01
6.392045454545454959e+03 1.303446552199775677e-01 5.778601779216616802e-02 1.642223503625866243e+01
6.402048655569782568e+03 1.269018264804209206e-01 5.812481431714298930e-02 1.585295094310031061e+01
6.412051856594110177e+03 1.309542374126966835e-01 6.276985720374628208e-02 1.574217811681778478e+01
6.422055057618437786e+03 1.312865033027277029e-01 6.310781125249016743e-02 1.722028322564583291e+01
6.432058258642765395e+03 1.322480686181819465e-01 6.139813638152374908e-02 1.908909797523494234e+01
6.442061459667093914e+03 1.344969641779973912e-01 6.513197071052924392e-02 1.890171676174728077e+01
6.452064660691421523e+03 1.358521920123593740e-01 5.901992969092430957e-02 1.643337909179086509e+01
6.462067861715749132e+03 1.348516320064747365e-01 6.613577443681861734e-02 1.630233856100418066e+01
6.472071062740076741e+03 1.403410418134559967e-01 6.724839216749793624e-02 1.806860630994857431e+01
6.482074263764404350e+03 1.395381457535368463e-01 6.795197603204972125e-02 1.694689967552400844e+01
6.492077464788731959e+03 1.330252896381850236e-01 6.484242282587004969e-02 1.791682299116578037e+01
6.502080665813060477e+03 1.354960575607988826e-01 6.586257699011502376e-02 1.713219785383510541e+01
6.512083866837388086e+03 1.350227329236105278e-01 6.642623113873145912e-02 1.506191594009948709e+01
6.522087067861715695e+03 1.367275617615247574e-01 6.860887704415055688e-02 1.491425550940912892e+01
6.532090268886043305e+03 1.476910194762545148e-01 6.601616534070479936e-02 1.414039429321431918e+01
6.542093469910370914e+03 1.453034679493672987e-01 6.590408792385198111e-02 1.492795588327534340e+01
6.552096670934699432e+03 1.436106261268861595e-01 6.607286458043762356e-02 1.712626422255864966e+01
6.562099871959027041e+03 1.464037975755816401e-01 6.745370747691055435e-02 1.527103829494065756e+01
6.572103072983354650e+03 1.452767171756993159e-01 7.090524132814117475e-02 1.467816923830791076e+01
6.582106274007682259e+03 1.434081620372409105e-01 6.802473378139291260e-02 1.647001118924990593e+01
6.592109475032009868e+03 1.486034570969000101e-01 6.648616869224652226e-02 1.610319661969447935e+01
6.602112676056338387e+03 1.515408559140980771e-01 6.909229100035303717e-02 1.450169675239767386e+01
6.612115877080665996e+03 1.497372936236576468e-01 7.135839606241078936e-02 1.576849587199363256e+01
6.622119078104993605e+03 1.536923246451766811e-01 7.075000316546646573e-02 1.598735110665328030e+01
6.632122279129321214e+03 1.498472209897217522e-01 7.010584802727849729e-02 1.553684491472803053e+01
6.642125480153648823e+03 1.504322749445493046e-01 6.892339865840327318e-02 1.777740018962995805e+01
6.652128681177977342e+03 1.562279377515318757e-01 7.298355417600577155e-02 1.683193822233441495e+01
6.662131882202304951e+03 1.576459402726309300e-01 7.569648818851298921e-02 1.638536195142078711e+01
6.672135083226632560e+03 1.522074035497497646e-01 6.698277201207621101e-02 1.443824962569612147e+01
6.682138284250960169e+03 1.537426554663754996e-01 7.374342322880136913e-02 1.446730523387303080e+01
6.692141485275287778e+03 1.574955283232665204e-01 7.203657322662561369e-02 1.240792466144661965e+01
6.702144686299616296e+03 1.559621045250799143e-01 7.206831929623211397e-02 1.505366414217861859e+01
6.712147887323943905e+03 1.596538612586239081e-01 7.577322405803742222e-02 1.572764237093671369e+01
6.722151088348271514e+03 1.638872755239285661e-01 8.026827766860940294e-02 1.651537919240101715e+01
6.732154289372599123e+03 1.552992390476363727e-01 7.652490304062191384e-02 1.705717033176891562e+01
6.742157490396926733e+03 1.639163391744656029e-01 7.853303812995825195e-02 1.721996850025023207e+01
6.752160691421255251e+03 1.617954869529844575e-01 7.943681923435075287e-02 1.499756973054910958e+01
6.762163892445582860e+03 1.600617112464163272e-01 7.616228878865065333e-02 1.528255189692882254e+01
6.772167093469910469e+03 1.702024804455229134e-01 8.336764982458977347e-02 1.738890764308433390e+01
6.782170294494238078e+03 1.711233679288731158e-01 7.715495122704436881e-02 1.676480133206711898e+01
6.792173495518565687e+03 1.638937561934498133e-01 7.294290760930648154e-02 1.758256283962446531e+01
6.802176696542893296e+03 1.775182121712758354e-01 8.269825366038345560e-02 1.863382492912466759e+01
6.812179897567221815e+03 1.794040414342194245e-01 8.008677377973769107e-02 1.984746628812423808e+01
6.822183098591549424e+03 2.421626642162626464e-01 1.158968843225288842e-01 1.691709443408765523e+01
6.832186299615877033e+03 3.766429815550073057e-01 1.819918762557865277e-01 1.641028628789712229e+01
6.842189500640204642e+03 2.448795437175840528e-01 1.174271642864936627e-01 1.484473651913748959e+01
6.852192701664532251e+03 1.806214071784016384e-01 8.239079877231443583e-02 1.667086985322966086e+01
6.862195902688860770e+03 1.839995709906724619e-01 8.928079434226762756e-02 1.784121347011702952e+01
6.872199103713188379e+03 1.837711818333413183e-01 8.412990658719976533e-02 1.739838587669866143e+01
6.882202304737515988e+03 1.856923721163582230e-01 8.574806928200980061e-02 1.878158357478570650e+01
6.892205505761843597e+03 2.330704400361164608e-01 1.084762531462078461e-01 1.751892433972740193e+01
6.902208706786171206e+03 4.230516194465446800e-01 1.965516524741431625e-01 2.019947873099886237e+01
6.912211907810499724e+03 3.380555776705566617e-01 1.654550736281200918e-01 2.060832451982946978e+01
6.922215108834827333e+03 2.071885092794167327e-01 1.006269917479855197e-01 1.801314366660885469e+01
6.932218309859154942e+03 2.047274158261225274e-01 9.182365029540838497e-02 1.810617418125202249e+01
6.942221510883482551e+03 2.053121272343210180e-01 9.454813396859589048e-02 2.023071449008116218e+01
6.952224711907810160e+03 2.226530225146599595e-01 1.067748980681497706e-01 1.880725793420634417e+01
6.962227912932138679e+03 2.225963889333777979e-01 1.026976146157412284e-01 2.174527384250797368e+01
6.972231113956466288e+03 2.168712964916231223e-01 1.078367717821265975e-01 2.029857945414602582e+01
6.982234314980793897e+03 2.197166645920223260e-01 1.026747372411464243e-01 1.937113500015664869e+01
6.992237516005121506e+03 2.303836540490548646e-01 1.067668653426450120e-01 2.042866279746128555e+01
7.002240717029449115e+03 2.409656771457916180e-01 1.080189282515663374e-01 1.921317106792107410e+01
7.012243918053777634e+03 2.442300006148309943e-01 1.130490844992383670e-01 2.007417756917542917e+01
7.022247119078105243e+03 2.464213969633082257e-01 1.217668645061564664e-01 2.184748633927026873e+01
7.032250320102432852e+03 2.494062978984760981e-01 1.105924959520968448e-01 2.137018952138624428e+01
7.042253521126760461e+03 2.588268566197149401e-01 1.184666444062438817e-01 2.254404879605365863e+01
7.052256722151088070e+03 2.716328577612201478e-01 1.207522404800858151e-01 2.080035256174523539e+01
7.062259923175416588e+03 2.658347606679511976e-01 1.239549225879496147e-01 2.238803678822271692e+01
7.072263124199744198e+03 2.684483410609968534e-01 1.324958360063098195e-01 2.127313141150957065e+01
7.082266325224071807e+03 2.864857750715102958e-01 1.333192102440939886e-01 1.979453941077603574e+01
7.092269526248399416e+03 3.165153602185707959e-01 1.468931034861973295e-01 2.021033106144767189e+01
7.102272727272727025e+03 2.901185914199993499e-01 1.338608639831844194e-01 1.876117569638448757e+01
7.112275928297054634e+03 2.892023612224722262e-01 1.372228509824828246e-01 1.947313761313760949e+01
7.122279129321383152e+03 2.828609469788284647e-01 1.312572468924255165e-01 2.018201864397033418e+01
7.132282330345710761e+03 3.048741842689610126e-01 1.402644230548553139e-01 2.072205908000870878e+01
7.142285531370038370e+03 2.972452054540497546e-01 1.462995100100814294e-01 1.999228701908011629e+01
7.152288732394365979e+03 3.016969864529390755e-01 1.345955053622798492e-01 1.815478127656222540e+01
7.162291933418693588e+03 3.025785392995744560e-01 1.422219406311059919e-01 2.013478039651533535e+01
7.172295134443022107e+03 3.117672468521138773e-01 1.476943153705476131e-01 1.975750907379136834e+01
7.182298335467349716e+03 3.008322947034433592e-01 1.415694618461161014e-01 1.905789920854627795e+01
7.192301536491677325e+03 3.105491060121574609e-01 1.460163012052520248e-01 1.682913694805645122e+01
7.202304737516004934e+03 3.081847692822677898e-01 1.381695579547168040e-01 1.760792011745970598e+01
7.212307938540332543e+03 3.014645578804279191e-01 1.458006617664860671e-01 1.785338792378904671e+01
7.222311139564661062e+03 3.132418186022521978e-01 1.550221556476682749e-01 1.808341591373085677e+01
7.232314340588988671e+03 3.133229356673661314e-01 1.445061752790255116e-01 2.038211459805028980e+01
7.242317541613316280e+03 3.022874449986752143e-01 1.322004810390686735e-01 1.890792289668729964e+01
7.252320742637643889e+03 3.222719671407737740e-01 1.512949019379641324e-01 1.955797430938388715e+01
7.262323943661971498e+03 3.184474534977507210e-01 1.470743847405923677e-01 1.734389965263491007e+01
7.272327144686300016e+03 3.076191391495623484e-01 1.400030372739029250e-01 1.731467308469264310e+01
7.282330345710627626e+03 3.157581079530578094e-01 1.585298692410312960e-01 1.940130168279652878e+01
7.292333546734955235e+03 3.191766086267492919e-01 1.474707374014094519e-01 1.959362523331494899e+01
7.302336747759282844e+03 3.078169760697679891e-01 1.310128536811394906e-01 1.918718408468873449e+01
7.312339948783610453e+03 3.160619421343449087e-01 1.462944009909321330e-01 1.880801465774097991e+01
7.322343149807938971e+03 3.605400010965878477e-01 1.610299258229238306e-01 1.753508350493931545e+01
7.332346350832266580e+03 3.726963685608561394e-01 1.728289720932926765e-01 1.638240130028679786e+01
7.342349551856594189e+03 3.411197144973433515e-01 1.546013234914123957e-01 1.783661340554263930e+01
7.352352752880921798e+03 3.210902754836288953e-01 1.459815568509704453e-01 1.879637174069672056e+01
7.362355953905249407e+03 3.140892049192593460e-01 1.456059014806288521e-01 1.868111135624646479e+01
7.372359154929577926e+03 3.349476104171667523e-01 1.626819273400398058e-01 1.698837948611201654e+01
7.382362355953905535e+03 3.338148152390312262e-01 1.492970292126651610e-01 1.843768898754013819e+01
7.392365556978233144e+03 3.251471609487724401e-01 1.496962236419236147e-01 1.590546320275654679e+01
7.402368758002560753e+03 3.311346654949714474e-01 1.525519545508645936e-01 1.724339807261601010e+01
7.412371959026888362e+03 3.425461309308965863e-01 1.522730547051880934e-01 1.754742082324355579e+01
7.422375160051215971e+03 3.345967393637529486e-01 1.547241249214791337e-01 1.857504493719784833e+01
7.432378361075544490e+03 3.485033918782412532e-01 1.672980944162212880e-01 1.885024197415340907e+01
7.442381562099872099e+03 3.601763276129266167e-01 1.712432433719569547e-01 1.758611190155072990e+01
7.452384763124199708e+03 3.508989059704361591e-01 1.644408183293030457e-01 1.820972333909605112e+01
7.462387964148527317e+03 3.709703606106242724e-01 1.680586132425960777e-01 1.573897042733776352e+01
7.472391165172854926e+03 3.567208764136263199e-01 1.540648293615776709e-01 1.605502391564879616e+01
7.482394366197183444e+03 3.435480437443340085e-01 1.605035804207002592e-01 1.813777780522364580e+01
7.492397567221511054e+03 3.884856114574595787e-01 1.819563237042443049e-01 1.777869969623679935e+01
7.502400768245838663e+03 3.848019720087511031e-01 1.813417509119245041e-01 1.681582166218314711e+01
7.512403969270166272e+03 3.700647543234260040e-01 1.729666436325719425e-01 1.685807803904202373e+01
7.522407170294493881e+03 3.952447318381929198e-01 1.982126710746489051e-01 1.596551425625150067e+01
7.532410371318822399e+03 3.781065814469314890e-01 1.817318224468394694e-01 1.530151156829924552e+01
7.542413572343150008e+03 3.850361306683608431e-01 1.677581892692847632e-01 1.772072455817562187e+01
7.552416773367477617e+03 4.013380136885495442e-01 1.954089149520510660e-01 1.686831436334565382e+01
7.562419974391805226e+03 4.000052239210253324e-01 2.000040209974467409e-01 1.690486221122382915e+01
7.572423175416132835e+03 3.911215925903818724e-01 1.675948861956615132e-01 1.708564477513615287e+01
7.582426376440461354e+03 4.002847625502959361e-01 1.798237820539067000e-01 1.641095045212560066e+01
7.592429577464788963e+03 3.959821747726122720e-01 1.861233932356055609e-01 1.812463725581046248e+01
7.602432778489116572e+03 3.875381941206874625e-01 1.776992110695678473e-01 1.765779453032210000e+01
7.612435979513444181e+03 4.023482699392734729e-01 1.977231933321265955e-01 1.844608544687040919e+01
7.622439180537771790e+03 4.243652824383986610e-01 1.918517582696755985e-01 1.610173308092925026e+01
7.632442381562100309e+03 3.810164870151647176e-01 1.758836370062937249e-01 1.729503486884344454e+01
7.642445582586427918e+03 4.187787883041075854e-01 1.965744264179527523e-01 1.741089967095206958e+01
7.652448783610755527e+03 4.066145864057840731e-01 1.922501953763018079e-01 1.498579410927333555e+01
7.662451984635083136e+03 3.992396097792707543e-01 1.852743474827987236e-01 1.651589914354218180e+01
7.672455185659410745e+03 4.169160446005948373e-01 2.083814555038087102e-01 1.570825098700698241e+01
7.682458386683738354e+03 4.301617184249478254e-01 2.053296718532251763e-01 1.470827317457207428e+01
7.692461587708066872e+03 4.171921428184726111e-01 1.862398265908441208e-01 1.501064790385279046e+01
7.702464788732394481e+03 4.373330465350048768e-01 1.990308432907788583e-01 1.488948857598175657e+01
7.712467989756722091e+03 4.101531505699657076e-01 1.985808649188189889e-01 1.439033709931934624e+01
7.722471190781049700e+03 4.016130533426527371e-01 1.763710676765281871e-01 1.576171628134710900e+01
7.732474391805377309e+03 4.161987083679535848e-01 1.874778080768103594e-01 1.507814974621096127e+01
7.742477592829705827e+03 4.242931878803271606e-01 1.953061538339323222e-01 1.733002695342353761e+01
7.752480793854033436e+03 4.063927123903832705e-01 1.867304455465602087e-01 1.494467968578052641e+01
7.762483994878361045e+03 4.277444977286224970e-01 2.028762137088953865e-01 1.312698156414219852e+01
7.772487195902688654e+03 4.242697171824160729e-01 2.120174628770755410e-01 1.562243148358011879e+01
7.782490396927016263e+03 4.211023873342842894e-01 2.030238847215747044e-01 1.548073275600364518e+01
7.792493597951344782e+03 4.428351829235097625e-01 2.030862364087552552e-01 1.454771671123545751e+01
7.802496798975672391e+03 4.358171244382588738e-01 2.203415987467076398e-01 1.458330560256258757e+01
7.812500000000000000e+03 2.800321777139641588e-01 7.733428842387891911e-02 6.833627741710994741e+00
