# AG4395A Measurement - Timestamp: Nov 03 2017 - 05:29:49
# Parameter File: SP_AG_R_Beatnote_95_to_125MHz.yml
#---------- Measurement Parameters ------------
# Start Frequency (Hz): 90000000.0
# Stop Frequency (Hz): 130000000.0
# Frequency Points: 801
# Measurement Format: NOISE
# Measuremed Input: R
#---------- Analyzer Settings ----------
# Number of Averages: 5
# Auto Bandwidth: On
# IF Bandwidth: 3000.0
# Input Attenuators (R,A,B): 0dB 20dB 20dB 
# Units: V/rtHz
#---------- Measurement Data ----------
# [Freq(Hz) Chan 1 ]
90000000.0    3.671953e-08
90050000.0    4.895863e-08
90100000.0    2.873479e-08
90150000.0    4.084322e-08
90200000.0    4.402936e-08
90250000.0    3.08724e-08
90300000.0    3.249988e-08
90350000.0    3.141513e-08
90400000.0    3.398329e-08
90450000.0    3.226538e-08
90500000.0    2.14211e-08
90550000.0    2.885289e-08
90600000.0    4.212069e-08
90650000.0    4.938094e-08
90700000.0    5.687438e-08
90750000.0    2.782948e-08
90800000.0    3.514222e-08
90850000.0    4.250332e-08
90900000.0    3.476244e-08
90950000.0    2.569194e-08
91000000.0    4.743978e-08
91050000.0    3.298696e-08
91100000.0    4.872621e-08
91150000.0    3.347211e-08
91200000.0    3.865878e-08
91250000.0    4.506453e-08
91300000.0    3.237753e-08
91350000.0    2.585948e-08
91400000.0    3.578684e-08
91450000.0    3.030715e-08
91500000.0    3.443088e-08
91550000.0    3.900114e-08
91600000.0    5.632235e-08
91650000.0    4.929084e-08
91700000.0    5.162978e-08
91750000.0    3.496126e-08
91800000.0    5.008054e-08
91850000.0    2.771221e-08
91900000.0    3.923194e-08
91950000.0    3.449054e-08
92000000.0    2.811213e-08
92050000.0    5.514866e-08
92100000.0    3.902968e-08
92150000.0    3.189705e-08
92200000.0    3.598986e-08
92250000.0    3.83712e-08
92300000.0    4.327439e-08
92350000.0    5.196996e-08
92400000.0    5.348062e-08
92450000.0    3.493065e-08
92500000.0    3.771745e-08
92550000.0    5.805935e-08
92600000.0    3.893078e-08
92650000.0    5.29756e-08
92700000.0    4.185184e-08
92750000.0    3.694407e-08
92800000.0    3.66541e-08
92850000.0    2.266243e-08
92900000.0    3.743922e-08
92950000.0    3.59097e-08
93000000.0    3.211686e-08
93050000.0    2.589531e-08
93100000.0    4.47234e-08
93150000.0    2.031847e-08
93200000.0    3.075011e-08
93250000.0    6.590961e-08
93300000.0    6.727844e-08
93350000.0    2.497326e-08
93400000.0    2.933591e-08
93450000.0    3.246209e-08
93500000.0    4.459568e-08
93550000.0    4.69975e-08
93600000.0    2.617054e-08
93650000.0    3.43811e-08
93700000.0    4.346273e-08
93750000.0    2.700934e-08
93800000.0    4.000562e-08
93850000.0    4.076696e-08
93900000.0    3.685713e-08
93950000.0    4.855122e-08
94000000.0    3.939248e-08
94050000.0    4.110088e-08
94100000.0    2.0789e-08
94150000.0    3.053515e-08
94200000.0    4.857422e-08
94250000.0    4.260176e-08
94300000.0    3.3092e-08
94350000.0    3.618355e-08
94400000.0    2.815848e-08
94450000.0    4.670453e-08
94500000.0    4.231184e-08
94550000.0    3.36644e-08
94600000.0    3.674219e-08
94650000.0    3.696647e-08
94700000.0    4.826239e-08
94750000.0    3.673913e-08
94800000.0    2.971569e-08
94850000.0    5.139074e-08
94900000.0    4.792028e-08
94950000.0    4.010337e-08
95000000.0    4.102982e-08
95050000.0    3.733416e-08
95100000.0    3.956978e-08
95150000.0    4.074553e-08
95200000.0    5.279524e-08
95250000.0    5.824833e-08
95300000.0    3.865137e-08
95350000.0    5.181083e-08
95400000.0    4.484447e-08
95450000.0    5.066273e-08
95500000.0    4.573862e-08
95550000.0    4.804354e-08
95600000.0    3.109201e-08
95650000.0    4.723811e-08
95700000.0    5.242023e-08
95750000.0    3.693556e-08
95800000.0    2.776488e-08
95850000.0    4.418378e-08
95900000.0    4.521531e-08
95950000.0    2.251886e-08
96000000.0    4.016503e-08
96050000.0    4.464777e-08
96100000.0    2.933626e-08
96150000.0    3.334945e-08
96200000.0    3.500999e-08
96250000.0    4.10393e-08
96300000.0    2.480043e-08
96350000.0    6.72481e-08
96400000.0    2.641251e-08
96450000.0    2.490793e-08
96500000.0    3.322416e-08
96550000.0    2.525879e-08
96600000.0    2.990326e-08
96650000.0    3.239197e-08
96700000.0    4.823649e-08
96750000.0    4.236302e-08
96800000.0    5.87165e-08
96850000.0    3.246693e-08
96900000.0    4.196432e-08
96950000.0    3.573721e-08
97000000.0    3.797274e-08
97050000.0    4.079995e-08
97100000.0    3.891823e-08
97150000.0    3.288843e-08
97200000.0    2.980416e-08
97250000.0    2.574576e-08
97300000.0    4.630128e-08
97350000.0    5.075166e-08
97400000.0    5.004169e-08
97450000.0    4.335488e-08
97500000.0    4.499632e-08
97550000.0    3.910681e-08
97600000.0    6.149332e-08
97650000.0    2.928395e-08
97700000.0    5.658415e-08
97750000.0    3.568897e-08
97800000.0    3.43865e-08
97850000.0    4.129187e-08
97900000.0    3.529231e-08
97950000.0    5.806166e-08
98000000.0    2.915296e-08
98050000.0    4.753277e-08
98100000.0    4.192375e-08
98150000.0    5.190099e-08
98200000.0    4.809558e-08
98250000.0    4.343419e-08
98300000.0    4.073195e-08
98350000.0    3.576196e-08
98400000.0    5.096951e-08
98450000.0    4.583625e-08
98500000.0    5.163752e-08
98550000.0    3.05389e-08
98600000.0    5.656447e-08
98650000.0    3.237566e-08
98700000.0    3.394378e-08
98750000.0    2.874029e-08
98800000.0    4.912019e-08
98850000.0    5.131661e-08
98900000.0    5.780678e-08
98950000.0    5.663628e-08
99000000.0    2.937692e-08
99050000.0    4.777345e-08
99100000.0    6.889397e-08
99150000.0    5.920176e-08
99200000.0    4.249006e-08
99250000.0    3.819607e-08
99300000.0    4.592881e-08
99350000.0    3.576481e-08
99400000.0    4.05058e-08
99450000.0    2.914758e-08
99500000.0    3.700343e-08
99550000.0    4.284707e-08
99600000.0    3.601715e-08
99650000.0    4.216755e-08
99700000.0    5.439476e-08
99750000.0    4.36263e-08
99800000.0    4.154644e-08
99850000.0    3.519681e-08
99900000.0    4.593797e-08
99950000.0    4.803069e-08
100000000.0    5.065201e-08
100050000.0    2.69956e-08
100100000.0    3.65355e-08
100150000.0    6.672734e-08
100200000.0    3.459649e-08
100250000.0    5.883738e-08
100300000.0    3.37464e-08
100350000.0    4.87612e-08
100400000.0    4.014183e-08
100450000.0    4.74082e-08
100500000.0    3.390203e-08
100550000.0    3.903188e-08
100600000.0    5.280656e-08
100650000.0    5.430773e-08
100700000.0    4.086115e-08
100750000.0    5.243578e-08
100800000.0    4.27335e-08
100850000.0    4.146717e-08
100900000.0    5.780599e-08
100950000.0    3.391489e-08
101000000.0    1.881188e-08
101050000.0    4.97418e-08
101100000.0    5.523228e-08
101150000.0    4.531224e-08
101200000.0    2.915167e-08
101250000.0    4.004454e-08
101300000.0    4.854918e-08
101350000.0    4.048645e-08
101400000.0    3.336262e-08
101450000.0    4.49979e-08
101500000.0    3.348531e-08
101550000.0    1.932017e-08
101600000.0    5.548654e-08
101650000.0    2.346665e-08
101700000.0    5.288468e-08
101750000.0    4.401652e-08
101800000.0    6.7756e-08
101850000.0    4.804818e-08
101900000.0    3.473595e-08
101950000.0    4.919034e-08
102000000.0    4.383293e-08
102050000.0    4.921317e-08
102100000.0    3.723636e-08
102150000.0    3.484488e-08
102200000.0    5.707922e-08
102250000.0    5.581514e-08
102300000.0    4.459755e-08
102350000.0    2.744973e-08
102400000.0    4.280264e-08
102450000.0    4.425079e-08
102500000.0    3.066994e-08
102550000.0    3.083614e-08
102600000.0    3.785248e-08
102650000.0    3.66131e-08
102700000.0    4.378107e-08
102750000.0    4.228044e-08
102800000.0    5.5525e-08
102850000.0    3.096283e-08
102900000.0    5.293975e-08
102950000.0    5.569183e-08
103000000.0    5.113688e-08
103050000.0    4.74232e-08
103100000.0    3.415366e-08
103150000.0    5.089264e-08
103200000.0    7.549203e-08
103250000.0    3.318464e-08
103300000.0    4.906655e-08
103350000.0    6.493805e-08
103400000.0    4.391762e-08
103450000.0    4.667985e-08
103500000.0    3.90473e-08
103550000.0    6.127367e-08
103600000.0    4.087913e-08
103650000.0    4.985824e-08
103700000.0    3.401072e-08
103750000.0    2.761991e-08
103800000.0    2.95649e-08
103850000.0    4.556154e-08
103900000.0    5.361543e-08
103950000.0    4.665067e-08
104000000.0    4.573938e-08
104050000.0    3.681717e-08
104100000.0    3.53018e-08
104150000.0    3.090262e-08
104200000.0    2.525871e-08
104250000.0    6.379532e-08
104300000.0    4.876046e-08
104350000.0    3.846911e-08
104400000.0    4.693616e-08
104450000.0    4.676609e-08
104500000.0    3.270942e-08
104550000.0    4.034152e-08
104600000.0    3.213311e-08
104650000.0    2.858833e-08
104700000.0    4.424455e-08
104750000.0    5.503011e-08
104800000.0    3.177296e-08
104850000.0    4.649194e-08
104900000.0    4.334681e-08
104950000.0    4.21812e-08
105000000.0    3.734929e-08
105050000.0    3.940512e-08
105100000.0    5.368891e-08
105150000.0    6.074965e-08
105200000.0    4.280908e-08
105250000.0    5.698493e-08
105300000.0    5.289324e-08
105350000.0    4.284623e-08
105400000.0    2.622335e-08
105450000.0    4.222134e-08
105500000.0    5.12638e-08
105550000.0    4.300117e-08
105600000.0    5.225385e-08
105650000.0    4.378292e-08
105700000.0    4.668423e-08
105750000.0    4.925387e-08
105800000.0    3.542641e-08
105850000.0    3.963073e-08
105900000.0    3.108972e-08
105950000.0    5.03573e-08
106000000.0    4.401335e-08
106050000.0    3.364483e-08
106100000.0    3.714224e-08
106150000.0    5.244355e-08
106200000.0    3.418308e-08
106250000.0    4.88639e-08
106300000.0    4.071868e-08
106350000.0    5.457925e-08
106400000.0    5.142934e-08
106450000.0    4.670593e-08
106500000.0    3.591265e-08
106550000.0    3.11633e-08
106600000.0    5.550513e-08
106650000.0    5.114224e-08
106700000.0    4.11599e-08
106750000.0    3.374443e-08
106800000.0    5.722503e-08
106850000.0    3.296321e-08
106900000.0    4.288103e-08
106950000.0    4.796472e-08
107000000.0    3.90785e-08
107050000.0    3.115586e-08
107100000.0    5.822533e-08
107150000.0    4.342134e-08
107200000.0    5.089363e-08
107250000.0    3.759456e-08
107300000.0    5.04678e-08
107350000.0    4.209834e-08
107400000.0    5.546262e-08
107450000.0    3.684964e-08
107500000.0    5.267865e-08
107550000.0    4.938768e-08
107600000.0    4.095159e-08
107650000.0    3.476028e-08
107700000.0    4.730565e-08
107750000.0    3.817695e-08
107800000.0    4.912111e-08
107850000.0    4.748778e-08
107900000.0    4.452701e-08
107950000.0    2.55694e-08
108000000.0    3.101439e-08
108050000.0    5.968689e-08
108100000.0    3.680725e-08
108150000.0    4.349006e-08
108200000.0    3.599694e-08
108250000.0    3.213058e-08
108300000.0    3.06409e-08
108350000.0    3.97283e-08
108400000.0    2.991165e-08
108450000.0    4.987349e-08
108500000.0    3.598951e-08
108550000.0    5.084892e-08
108600000.0    5.64452e-08
108650000.0    2.563252e-08
108700000.0    5.517492e-08
108750000.0    6.701579e-08
108800000.0    3.478538e-08
108850000.0    5.547278e-08
108900000.0    4.206375e-08
108950000.0    4.084715e-08
109000000.0    5.375521e-08
109050000.0    3.811743e-08
109100000.0    3.736405e-08
109150000.0    5.020772e-08
109200000.0    5.529637e-08
109250000.0    4.098459e-08
109300000.0    4.506022e-08
109350000.0    5.346716e-08
109400000.0    2.923563e-08
109450000.0    3.826307e-08
109500000.0    4.9832e-08
109550000.0    3.933135e-08
109600000.0    4.673202e-08
109650000.0    3.255574e-08
109700000.0    4.55109e-08
109750000.0    2.663766e-08
109800000.0    4.240075e-08
109850000.0    4.404857e-08
109900000.0    3.012143e-08
109950000.0    5.988556e-08
110000000.0    4.187563e-08
110050000.0    4.425241e-08
110100000.0    3.788039e-08
110150000.0    5.017484e-08
110200000.0    3.496232e-08
110250000.0    5.651486e-08
110300000.0    4.304692e-08
110350000.0    6.455377e-08
110400000.0    3.723143e-08
110450000.0    3.479222e-08
110500000.0    5.371575e-08
110550000.0    3.736961e-08
110600000.0    5.035622e-08
110650000.0    5.582086e-08
110700000.0    3.301421e-08
110750000.0    4.877732e-08
110800000.0    3.042303e-08
110850000.0    5.080686e-08
110900000.0    4.463099e-08
110950000.0    5.159586e-08
111000000.0    5.30048e-08
111050000.0    4.935209e-08
111100000.0    5.501835e-08
111150000.0    3.595573e-08
111200000.0    4.306639e-08
111250000.0    3.188301e-08
111300000.0    2.961804e-08
111350000.0    3.985709e-08
111400000.0    3.217422e-08
111450000.0    4.560132e-08
111500000.0    4.322455e-08
111550000.0    3.572304e-08
111600000.0    3.113534e-08
111650000.0    4.606518e-08
111700000.0    4.367753e-08
111750000.0    4.306017e-08
111800000.0    4.609578e-08
111850000.0    3.694201e-08
111900000.0    4.458539e-08
111950000.0    4.012726e-08
112000000.0    4.420794e-08
112050000.0    3.753495e-08
112100000.0    3.733932e-08
112150000.0    4.393792e-08
112200000.0    3.708569e-08
112250000.0    4.351442e-08
112300000.0    4.803116e-08
112350000.0    5.464308e-08
112400000.0    5.951728e-08
112450000.0    4.312003e-08
112500000.0    4.271028e-08
112550000.0    6.055343e-08
112600000.0    3.898855e-08
112650000.0    4.225475e-08
112700000.0    3.558662e-08
112750000.0    5.764307e-08
112800000.0    5.043713e-08
112850000.0    4.816093e-08
112900000.0    5.906922e-08
112950000.0    3.714952e-08
113000000.0    3.626046e-08
113050000.0    4.459111e-08
113100000.0    3.231024e-08
113150000.0    4.190492e-08
113200000.0    3.403772e-08
113250000.0    4.654766e-08
113300000.0    4.939389e-08
113350000.0    2.713919e-08
113400000.0    7.169641e-08
113450000.0    3.942394e-08
113500000.0    3.929916e-08
113550000.0    2.986843e-08
113600000.0    4.020346e-08
113650000.0    5.110302e-08
113700000.0    4.129785e-08
113750000.0    3.915891e-08
113800000.0    4.343915e-08
113850000.0    4.49886e-08
113900000.0    3.650893e-08
113950000.0    3.410896e-08
114000000.0    2.924217e-08
114050000.0    4.667086e-08
114100000.0    5.594005e-08
114150000.0    3.904413e-08
114200000.0    2.902629e-08
114250000.0    5.399705e-08
114300000.0    4.201126e-08
114350000.0    3.240092e-08
114400000.0    3.319546e-08
114450000.0    4.177341e-08
114500000.0    2.651979e-08
114550000.0    4.058275e-08
114600000.0    5.165004e-08
114650000.0    3.951258e-08
114700000.0    3.89819e-08
114750000.0    5.980421e-08
114800000.0    3.847655e-08
114850000.0    3.781459e-08
114900000.0    1.59031e-08
114950000.0    5.751003e-08
115000000.0    3.380724e-08
115050000.0    3.311326e-08
115100000.0    5.761347e-08
115150000.0    4.120019e-08
115200000.0    4.892923e-08
115250000.0    4.432151e-08
115300000.0    5.339395e-08
115350000.0    4.518719e-08
115400000.0    3.31742e-08
115450000.0    4.834476e-08
115500000.0    2.051623e-08
115550000.0    4.880917e-08
115600000.0    4.205402e-08
115650000.0    4.632026e-08
115700000.0    4.337003e-08
115750000.0    3.16367e-08
115800000.0    3.702684e-08
115850000.0    3.792375e-08
115900000.0    4.295991e-08
115950000.0    5.967823e-08
116000000.0    2.859995e-08
116050000.0    4.990057e-08
116100000.0    4.395069e-08
116150000.0    3.969544e-08
116200000.0    2.377692e-08
116250000.0    4.125944e-08
116300000.0    4.020183e-08
116350000.0    3.760166e-08
116400000.0    4.786336e-08
116450000.0    4.154079e-08
116500000.0    2.623477e-08
116550000.0    2.795271e-08
116600000.0    4.454258e-08
116650000.0    3.887965e-08
116700000.0    4.51859e-08
116750000.0    3.447573e-08
116800000.0    3.222841e-08
116850000.0    3.71618e-08
116900000.0    4.355474e-08
116950000.0    2.654813e-08
117000000.0    4.72316e-08
117050000.0    3.032127e-08
117100000.0    6.7182e-08
117150000.0    3.463286e-08
117200000.0    2.695283e-08
117250000.0    4.001745e-08
117300000.0    3.561017e-08
117350000.0    5.811596e-08
117400000.0    4.864618e-08
117450000.0    4.566003e-08
117500000.0    4.579427e-08
117550000.0    4.841541e-08
117600000.0    3.403035e-08
117650000.0    3.526637e-08
117700000.0    4.289103e-08
117750000.0    3.910416e-08
117800000.0    3.889898e-08
117850000.0    2.579164e-08
117900000.0    4.177626e-08
117950000.0    6.289878e-08
118000000.0    4.117092e-08
118050000.0    5.766704e-08
118100000.0    4.9933e-08
118150000.0    5.06042e-08
118200000.0    4.475984e-08
118250000.0    4.514184e-08
118300000.0    4.33933e-08
118350000.0    4.494931e-08
118400000.0    3.979444e-08
118450000.0    3.66067e-08
118500000.0    3.288628e-08
118550000.0    5.294268e-08
118600000.0    4.100098e-08
118650000.0    3.046991e-08
118700000.0    5.09455e-08
118750000.0    4.209862e-08
118800000.0    2.570487e-08
118850000.0    3.518019e-08
118900000.0    4.792754e-08
118950000.0    3.739074e-08
119000000.0    4.63993e-08
119050000.0    7.919733e-08
119100000.0    5.588141e-08
119150000.0    6.773887e-08
119200000.0    1.453233e-07
119250000.0    1.230975e-07
119300000.0    2.553023e-07
119350000.0    4.462352e-07
119400000.0    1.5697e-06
119450000.0    5.457989e-06
119500000.0    3.271161e-06
119550000.0    3.942622e-06
119600000.0    2.082964e-06
119650000.0    6.770331e-07
119700000.0    2.537294e-07
119750000.0    1.150265e-07
119800000.0    7.910407e-08
119850000.0    5.054407e-08
119900000.0    6.853553e-08
119950000.0    5.248658e-08
120000000.0    5.552984e-08
120050000.0    5.161754e-08
120100000.0    4.438819e-08
120150000.0    6.143521e-08
120200000.0    8.288186e-08
120250000.0    2.435924e-07
120300000.0    5.4632e-07
120350000.0    5.227088e-07
120400000.0    3.1875e-07
120450000.0    7.309951e-08
120500000.0    4.689169e-08
120550000.0    4.789032e-08
120600000.0    4.681846e-08
120650000.0    3.090288e-08
120700000.0    3.286701e-08
120750000.0    4.550642e-08
120800000.0    5.517131e-08
120850000.0    3.870036e-08
120900000.0    4.342735e-08
120950000.0    3.759979e-08
121000000.0    4.648956e-08
121050000.0    5.382765e-08
121100000.0    5.782876e-08
121150000.0    5.506197e-08
121200000.0    4.326762e-08
121250000.0    2.22215e-08
121300000.0    5.292851e-08
121350000.0    3.575058e-08
121400000.0    2.380737e-08
121450000.0    4.970874e-08
121500000.0    3.073419e-08
121550000.0    6.119028e-08
121600000.0    2.602906e-08
121650000.0    2.201691e-08
121700000.0    3.717069e-08
121750000.0    3.916183e-08
121800000.0    5.030664e-08
121850000.0    4.962827e-08
121900000.0    3.982403e-08
121950000.0    4.162068e-08
122000000.0    4.166569e-08
122050000.0    3.844983e-08
122100000.0    4.959136e-08
122150000.0    5.383163e-08
122200000.0    4.551377e-08
122250000.0    4.836766e-08
122300000.0    3.899521e-08
122350000.0    2.98478e-08
122400000.0    3.960993e-08
122450000.0    4.604449e-08
122500000.0    4.595072e-08
122550000.0    3.658876e-08
122600000.0    2.634193e-08
122650000.0    3.583683e-08
122700000.0    3.288626e-08
122750000.0    4.901898e-08
122800000.0    4.404559e-08
122850000.0    4.855018e-08
122900000.0    3.599613e-08
122950000.0    4.004493e-08
123000000.0    3.58023e-08
123050000.0    3.947182e-08
123100000.0    4.540782e-08
123150000.0    5.567918e-08
123200000.0    4.294923e-08
123250000.0    3.938063e-08
123300000.0    6.765136e-08
123350000.0    3.94478e-08
123400000.0    5.316819e-08
123450000.0    4.456403e-08
123500000.0    5.281674e-08
123550000.0    3.672262e-08
123600000.0    3.507758e-08
123650000.0    6.476417e-08
123700000.0    5.670223e-08
123750000.0    4.484732e-08
123800000.0    6.24757e-08
123850000.0    2.839351e-08
123900000.0    4.418707e-08
123950000.0    3.4246e-08
124000000.0    5.392977e-08
124050000.0    5.112823e-08
124100000.0    4.534202e-08
124150000.0    4.282704e-08
124200000.0    5.495427e-08
124250000.0    5.471845e-08
124300000.0    3.250398e-08
124350000.0    5.499639e-08
124400000.0    4.963772e-08
124450000.0    4.266983e-08
124500000.0    6.30239e-08
124550000.0    5.197413e-08
124600000.0    2.920731e-08
124650000.0    4.392684e-08
124700000.0    3.263331e-08
124750000.0    4.94483e-08
124800000.0    6.645557e-08
124850000.0    4.094216e-08
124900000.0    3.505523e-08
124950000.0    5.378358e-08
125000000.0    4.567674e-08
125050000.0    4.481467e-08
125100000.0    5.015525e-08
125150000.0    4.203471e-08
125200000.0    5.014923e-08
125250000.0    5.135589e-08
125300000.0    4.641428e-08
125350000.0    4.963206e-08
125400000.0    3.928552e-08
125450000.0    3.772447e-08
125500000.0    5.339684e-08
125550000.0    3.44091e-08
125600000.0    2.455432e-08
125650000.0    2.546155e-08
125700000.0    4.549349e-08
125750000.0    3.260792e-08
125800000.0    3.723159e-08
125850000.0    3.740287e-08
125900000.0    5.327591e-08
125950000.0    4.542898e-08
126000000.0    3.783263e-08
126050000.0    2.969489e-08
126100000.0    5.386873e-08
126150000.0    4.048589e-08
126200000.0    4.678691e-08
126250000.0    4.15431e-08
126300000.0    3.53895e-08
126350000.0    3.721721e-08
126400000.0    4.739762e-08
126450000.0    5.629645e-08
126500000.0    5.166234e-08
126550000.0    3.069223e-08
126600000.0    4.834089e-08
126650000.0    5.59468e-08
126700000.0    4.611226e-08
126750000.0    4.2495e-08
126800000.0    3.091298e-08
126850000.0    5.614301e-08
126900000.0    4.447822e-08
126950000.0    4.781961e-08
127000000.0    4.363168e-08
127050000.0    6.949995e-08
127100000.0    4.095441e-08
127150000.0    3.591703e-08
127200000.0    4.075903e-08
127250000.0    3.379684e-08
127300000.0    5.204891e-08
127350000.0    3.385601e-08
127400000.0    2.543407e-08
127450000.0    4.920132e-08
127500000.0    4.599013e-08
127550000.0    4.794587e-08
127600000.0    5.23795e-08
127650000.0    2.860837e-08
127700000.0    3.368194e-08
127750000.0    4.40809e-08
127800000.0    3.988979e-08
127850000.0    4.91511e-08
127900000.0    3.053582e-08
127950000.0    2.834681e-08
128000000.0    3.417812e-08
128050000.0    3.538823e-08
128100000.0    3.968723e-08
128150000.0    4.309548e-08
128200000.0    4.259363e-08
128250000.0    3.396873e-08
128300000.0    4.981807e-08
128350000.0    2.681346e-08
128400000.0    3.576501e-08
128450000.0    6.053174e-08
128500000.0    4.59661e-08
128550000.0    5.698584e-08
128600000.0    4.676386e-08
128650000.0    4.213724e-08
128700000.0    2.784475e-08
128750000.0    5.200373e-08
128800000.0    3.483094e-08
128850000.0    5.364513e-08
128900000.0    4.104253e-08
128950000.0    4.921645e-08
129000000.0    3.377046e-08
129050000.0    4.661402e-08
129100000.0    3.692471e-08
129150000.0    4.630937e-08
129200000.0    4.018507e-08
129250000.0    3.384977e-08
129300000.0    4.8841e-08
129350000.0    3.874463e-08
129400000.0    3.143831e-08
129450000.0    5.302245e-08
129500000.0    4.16849e-08
129550000.0    4.591273e-08
129600000.0    4.560204e-08
129650000.0    5.415973e-08
129700000.0    4.874512e-08
129750000.0    3.799442e-08
129800000.0    5.034216e-08
129850000.0    4.436339e-08
129900000.0    4.47852e-08
129950000.0    3.618841e-08
130000000.0    4.879131e-08
