# AG4395A Measurement - Timestamp: Nov 03 2017 - 06:44:01
# Parameter File: SP_AG_R_Beatnote_95_to_125MHz.yml
#---------- Measurement Parameters ------------
# Start Frequency (Hz): 90000000.0
# Stop Frequency (Hz): 130000000.0
# Frequency Points: 801
# Measurement Format: NOISE
# Measuremed Input: R
#---------- Analyzer Settings ----------
# Number of Averages: 5
# Auto Bandwidth: On
# IF Bandwidth: 3000.0
# Input Attenuators (R,A,B): 0dB 20dB 20dB 
# Units: V/rtHz
#---------- Measurement Data ----------
# [Freq(Hz) Chan 1 ]
90000000.0    2.793793e-08
90050000.0    3.078407e-08
90100000.0    3.331906e-08
90150000.0    4.514893e-08
90200000.0    3.699536e-08
90250000.0    4.693918e-08
90300000.0    4.574049e-08
90350000.0    4.949856e-08
90400000.0    4.230072e-08
90450000.0    3.699786e-08
90500000.0    4.067225e-08
90550000.0    3.688896e-08
90600000.0    4.282341e-08
90650000.0    2.680823e-08
90700000.0    2.652433e-08
90750000.0    4.436975e-08
90800000.0    4.791741e-08
90850000.0    3.992513e-08
90900000.0    2.563306e-08
90950000.0    3.296384e-08
91000000.0    3.678417e-08
91050000.0    2.670661e-08
91100000.0    3.787413e-08
91150000.0    4.852518e-08
91200000.0    5.008294e-08
91250000.0    3.088367e-08
91300000.0    2.135961e-08
91350000.0    4.999517e-08
91400000.0    4.223736e-08
91450000.0    4.454578e-08
91500000.0    3.525493e-08
91550000.0    2.887149e-08
91600000.0    2.792959e-08
91650000.0    3.69872e-08
91700000.0    3.452273e-08
91750000.0    2.899899e-08
91800000.0    4.012665e-08
91850000.0    5.415899e-08
91900000.0    2.689952e-08
91950000.0    4.142894e-08
92000000.0    3.97293e-08
92050000.0    4.81438e-08
92100000.0    4.788346e-08
92150000.0    3.635891e-08
92200000.0    4.368702e-08
92250000.0    3.411947e-08
92300000.0    2.815104e-08
92350000.0    4.501321e-08
92400000.0    3.8405e-08
92450000.0    4.336432e-08
92500000.0    2.250027e-08
92550000.0    2.870185e-08
92600000.0    3.955406e-08
92650000.0    2.441789e-08
92700000.0    3.826393e-08
92750000.0    4.05233e-08
92800000.0    4.234311e-08
92850000.0    4.586551e-08
92900000.0    4.853414e-08
92950000.0    3.819799e-08
93000000.0    4.15611e-08
93050000.0    2.375576e-08
93100000.0    5.656465e-08
93150000.0    3.421367e-08
93200000.0    4.15284e-08
93250000.0    4.614103e-08
93300000.0    5.440303e-08
93350000.0    1.946487e-08
93400000.0    4.367303e-08
93450000.0    2.800816e-08
93500000.0    3.513769e-08
93550000.0    5.613413e-08
93600000.0    4.611632e-08
93650000.0    2.760559e-08
93700000.0    3.055412e-08
93750000.0    5.39683e-08
93800000.0    3.695841e-08
93850000.0    4.577599e-08
93900000.0    5.099956e-08
93950000.0    3.63045e-08
94000000.0    3.4122e-08
94050000.0    3.344225e-08
94100000.0    3.616434e-08
94150000.0    3.714313e-08
94200000.0    3.675271e-08
94250000.0    2.931295e-08
94300000.0    3.858424e-08
94350000.0    3.276702e-08
94400000.0    4.795368e-08
94450000.0    3.107794e-08
94500000.0    3.445347e-08
94550000.0    6.739744e-08
94600000.0    4.54507e-08
94650000.0    2.861769e-08
94700000.0    2.766642e-08
94750000.0    3.929189e-08
94800000.0    3.618028e-08
94850000.0    3.116122e-08
94900000.0    4.283463e-08
94950000.0    2.177289e-08
95000000.0    4.01223e-08
95050000.0    2.80579e-08
95100000.0    6.268123e-08
95150000.0    2.495706e-08
95200000.0    3.766472e-08
95250000.0    3.748822e-08
95300000.0    3.82743e-08
95350000.0    4.499201e-08
95400000.0    2.543195e-08
95450000.0    1.883831e-08
95500000.0    3.266737e-08
95550000.0    4.537562e-08
95600000.0    4.005451e-08
95650000.0    4.227569e-08
95700000.0    3.378122e-08
95750000.0    5.087947e-08
95800000.0    3.496839e-08
95850000.0    3.561377e-08
95900000.0    5.537622e-08
95950000.0    3.514657e-08
96000000.0    3.677849e-08
96050000.0    4.130723e-08
96100000.0    4.146181e-08
96150000.0    3.150771e-08
96200000.0    2.234472e-08
96250000.0    4.262815e-08
96300000.0    3.487246e-08
96350000.0    2.992864e-08
96400000.0    3.126447e-08
96450000.0    4.058052e-08
96500000.0    5.733737e-08
96550000.0    4.385572e-08
96600000.0    4.523561e-08
96650000.0    4.014953e-08
96700000.0    4.291664e-08
96750000.0    4.562125e-08
96800000.0    4.234269e-08
96850000.0    5.525105e-08
96900000.0    2.748914e-08
96950000.0    3.542035e-08
97000000.0    2.984999e-08
97050000.0    4.365998e-08
97100000.0    6.311874e-08
97150000.0    4.690557e-08
97200000.0    2.669847e-08
97250000.0    3.679731e-08
97300000.0    5.74795e-08
97350000.0    4.459714e-08
97400000.0    4.533279e-08
97450000.0    5.434767e-08
97500000.0    4.460081e-08
97550000.0    3.465147e-08
97600000.0    3.126508e-08
97650000.0    4.824732e-08
97700000.0    5.602695e-08
97750000.0    3.19598e-08
97800000.0    2.598865e-08
97850000.0    3.902295e-08
97900000.0    4.765224e-08
97950000.0    5.296135e-08
98000000.0    7.650984e-08
98050000.0    3.81879e-08
98100000.0    4.584275e-08
98150000.0    3.35471e-08
98200000.0    2.643029e-08
98250000.0    4.12538e-08
98300000.0    4.091004e-08
98350000.0    3.53861e-08
98400000.0    2.658249e-08
98450000.0    4.713027e-08
98500000.0    3.678356e-08
98550000.0    4.392716e-08
98600000.0    2.870931e-08
98650000.0    4.200907e-08
98700000.0    3.615887e-08
98750000.0    4.082269e-08
98800000.0    4.508131e-08
98850000.0    4.086057e-08
98900000.0    2.742553e-08
98950000.0    5.676392e-08
99000000.0    5.12441e-08
99050000.0    2.79715e-08
99100000.0    5.064949e-08
99150000.0    3.533989e-08
99200000.0    4.685476e-08
99250000.0    3.981732e-08
99300000.0    5.118369e-08
99350000.0    3.869567e-08
99400000.0    3.359942e-08
99450000.0    4.011821e-08
99500000.0    2.934416e-08
99550000.0    3.78827e-08
99600000.0    4.601507e-08
99650000.0    5.027243e-08
99700000.0    4.758615e-08
99750000.0    3.537013e-08
99800000.0    2.892448e-08
99850000.0    4.525683e-08
99900000.0    2.396012e-08
99950000.0    4.049894e-08
100000000.0    3.920553e-08
100050000.0    4.992054e-08
100100000.0    5.896684e-08
100150000.0    5.74259e-08
100200000.0    2.960151e-08
100250000.0    4.587168e-08
100300000.0    4.581882e-08
100350000.0    2.995054e-08
100400000.0    3.815865e-08
100450000.0    5.303679e-08
100500000.0    4.506954e-08
100550000.0    2.979517e-08
100600000.0    2.468473e-08
100650000.0    3.410516e-08
100700000.0    4.109297e-08
100750000.0    4.152322e-08
100800000.0    3.557958e-08
100850000.0    4.3066e-08
100900000.0    2.716028e-08
100950000.0    3.168933e-08
101000000.0    4.629661e-08
101050000.0    4.331978e-08
101100000.0    3.478205e-08
101150000.0    3.142063e-08
101200000.0    3.265214e-08
101250000.0    2.681763e-08
101300000.0    3.493038e-08
101350000.0    4.546517e-08
101400000.0    2.053605e-08
101450000.0    6.114971e-08
101500000.0    4.302862e-08
101550000.0    5.257789e-08
101600000.0    6.720872e-08
101650000.0    6.155238e-08
101700000.0    4.216453e-08
101750000.0    3.162207e-08
101800000.0    4.229416e-08
101850000.0    5.121627e-08
101900000.0    5.55054e-08
101950000.0    2.506221e-08
102000000.0    3.070911e-08
102050000.0    4.054118e-08
102100000.0    5.338092e-08
102150000.0    3.494661e-08
102200000.0    5.41962e-08
102250000.0    4.522979e-08
102300000.0    3.62368e-08
102350000.0    4.166361e-08
102400000.0    5.457655e-08
102450000.0    4.875309e-08
102500000.0    5.407672e-08
102550000.0    3.894183e-08
102600000.0    2.851401e-08
102650000.0    6.08381e-08
102700000.0    3.216177e-08
102750000.0    3.214932e-08
102800000.0    4.358308e-08
102850000.0    5.051509e-08
102900000.0    4.9688e-08
102950000.0    3.291094e-08
103000000.0    3.956362e-08
103050000.0    5.023434e-08
103100000.0    4.706103e-08
103150000.0    3.950226e-08
103200000.0    3.769973e-08
103250000.0    4.701091e-08
103300000.0    3.000532e-08
103350000.0    4.542494e-08
103400000.0    5.129631e-08
103450000.0    4.961337e-08
103500000.0    4.668134e-08
103550000.0    3.399711e-08
103600000.0    3.634836e-08
103650000.0    4.26491e-08
103700000.0    3.063101e-08
103750000.0    2.441448e-08
103800000.0    3.526291e-08
103850000.0    4.974144e-08
103900000.0    3.936444e-08
103950000.0    2.093592e-08
104000000.0    2.367747e-08
104050000.0    5.872269e-08
104100000.0    4.353015e-08
104150000.0    5.800411e-08
104200000.0    4.405296e-08
104250000.0    5.93438e-08
104300000.0    3.398584e-08
104350000.0    4.746181e-08
104400000.0    4.774764e-08
104450000.0    3.873944e-08
104500000.0    4.452613e-08
104550000.0    4.49113e-08
104600000.0    3.127883e-08
104650000.0    6.076123e-08
104700000.0    3.343617e-08
104750000.0    7.325061e-08
104800000.0    2.917424e-08
104850000.0    3.606617e-08
104900000.0    2.362544e-08
104950000.0    4.421241e-08
105000000.0    4.22043e-08
105050000.0    5.139692e-08
105100000.0    3.569134e-08
105150000.0    3.035924e-08
105200000.0    5.113166e-08
105250000.0    3.174182e-08
105300000.0    5.661983e-08
105350000.0    4.159016e-08
105400000.0    4.396472e-08
105450000.0    4.082833e-08
105500000.0    2.91057e-08
105550000.0    4.229594e-08
105600000.0    4.307352e-08
105650000.0    2.749785e-08
105700000.0    5.892599e-08
105750000.0    4.706237e-08
105800000.0    2.716891e-08
105850000.0    3.935333e-08
105900000.0    3.068215e-08
105950000.0    3.077468e-08
106000000.0    3.702641e-08
106050000.0    4.421383e-08
106100000.0    4.809212e-08
106150000.0    2.495599e-08
106200000.0    5.639729e-08
106250000.0    3.553395e-08
106300000.0    4.282936e-08
106350000.0    4.017309e-08
106400000.0    3.148023e-08
106450000.0    4.473312e-08
106500000.0    4.38149e-08
106550000.0    3.909333e-08
106600000.0    4.625405e-08
106650000.0    3.666969e-08
106700000.0    3.32361e-08
106750000.0    2.916454e-08
106800000.0    3.539862e-08
106850000.0    4.258312e-08
106900000.0    5.141312e-08
106950000.0    3.44518e-08
107000000.0    3.991768e-08
107050000.0    4.841231e-08
107100000.0    5.806176e-08
107150000.0    3.630246e-08
107200000.0    3.708477e-08
107250000.0    3.900043e-08
107300000.0    4.451979e-08
107350000.0    6.325227e-08
107400000.0    4.130169e-08
107450000.0    5.65399e-08
107500000.0    5.622089e-08
107550000.0    5.959054e-08
107600000.0    3.785196e-08
107650000.0    6.449925e-08
107700000.0    4.058536e-08
107750000.0    4.155144e-08
107800000.0    6.550803e-08
107850000.0    4.971387e-08
107900000.0    5.104726e-08
107950000.0    4.352204e-08
108000000.0    4.745234e-08
108050000.0    4.743584e-08
108100000.0    3.35639e-08
108150000.0    5.058102e-08
108200000.0    3.075986e-08
108250000.0    3.664003e-08
108300000.0    4.839777e-08
108350000.0    5.202533e-08
108400000.0    4.622406e-08
108450000.0    4.311516e-08
108500000.0    4.448185e-08
108550000.0    5.996879e-08
108600000.0    3.278915e-08
108650000.0    5.129859e-08
108700000.0    4.597931e-08
108750000.0    5.967559e-08
108800000.0    2.975738e-08
108850000.0    5.486095e-08
108900000.0    2.886449e-08
108950000.0    3.876884e-08
109000000.0    3.289661e-08
109050000.0    3.664453e-08
109100000.0    3.51755e-08
109150000.0    3.701181e-08
109200000.0    4.018532e-08
109250000.0    4.193391e-08
109300000.0    5.683033e-08
109350000.0    2.759059e-08
109400000.0    3.116754e-08
109450000.0    3.836333e-08
109500000.0    3.166606e-08
109550000.0    2.892242e-08
109600000.0    3.609249e-08
109650000.0    4.600615e-08
109700000.0    6.952581e-08
109750000.0    4.883324e-08
109800000.0    3.444837e-08
109850000.0    5.658716e-08
109900000.0    5.230045e-08
109950000.0    4.24064e-08
110000000.0    5.07443e-08
110050000.0    2.771023e-08
110100000.0    4.831798e-08
110150000.0    4.192582e-08
110200000.0    4.708643e-08
110250000.0    3.667787e-08
110300000.0    4.41292e-08
110350000.0    5.788129e-08
110400000.0    6.146008e-08
110450000.0    5.84752e-08
110500000.0    4.023491e-08
110550000.0    5.466969e-08
110600000.0    3.960647e-08
110650000.0    3.989258e-08
110700000.0    5.078338e-08
110750000.0    3.895996e-08
110800000.0    3.100456e-08
110850000.0    2.223548e-08
110900000.0    3.318458e-08
110950000.0    5.600533e-08
111000000.0    3.007606e-08
111050000.0    1.657016e-08
111100000.0    5.172648e-08
111150000.0    3.740657e-08
111200000.0    5.814004e-08
111250000.0    4.858851e-08
111300000.0    2.890536e-08
111350000.0    4.298563e-08
111400000.0    5.187647e-08
111450000.0    6.385601e-08
111500000.0    5.908344e-08
111550000.0    5.114137e-08
111600000.0    5.610774e-08
111650000.0    5.021246e-08
111700000.0    3.766176e-08
111750000.0    2.455136e-08
111800000.0    3.711829e-08
111850000.0    5.264774e-08
111900000.0    3.342802e-08
111950000.0    4.090173e-08
112000000.0    4.222742e-08
112050000.0    5.679094e-08
112100000.0    3.951225e-08
112150000.0    5.90184e-08
112200000.0    4.085936e-08
112250000.0    3.819541e-08
112300000.0    3.767375e-08
112350000.0    3.942819e-08
112400000.0    2.945867e-08
112450000.0    3.807012e-08
112500000.0    4.920944e-08
112550000.0    4.023612e-08
112600000.0    3.782606e-08
112650000.0    4.201782e-08
112700000.0    6.522892e-08
112750000.0    3.806482e-08
112800000.0    3.075851e-08
112850000.0    5.685522e-08
112900000.0    2.966847e-08
112950000.0    4.43247e-08
113000000.0    4.397851e-08
113050000.0    4.280603e-08
113100000.0    4.055115e-08
113150000.0    3.366048e-08
113200000.0    4.85933e-08
113250000.0    3.702862e-08
113300000.0    3.757702e-08
113350000.0    3.871427e-08
113400000.0    4.417393e-08
113450000.0    3.251139e-08
113500000.0    4.402126e-08
113550000.0    3.761988e-08
113600000.0    5.461204e-08
113650000.0    3.884407e-08
113700000.0    3.796969e-08
113750000.0    5.005668e-08
113800000.0    4.015916e-08
113850000.0    4.661558e-08
113900000.0    4.227463e-08
113950000.0    5.469627e-08
114000000.0    3.742834e-08
114050000.0    5.478229e-08
114100000.0    3.890719e-08
114150000.0    5.610582e-08
114200000.0    6.044701e-08
114250000.0    4.836209e-08
114300000.0    3.861727e-08
114350000.0    3.47232e-08
114400000.0    2.205632e-08
114450000.0    4.2203e-08
114500000.0    5.511319e-08
114550000.0    4.757333e-08
114600000.0    4.691353e-08
114650000.0    2.981528e-08
114700000.0    3.261578e-08
114750000.0    2.879641e-08
114800000.0    6.633556e-08
114850000.0    5.362388e-08
114900000.0    3.42978e-08
114950000.0    2.731216e-08
115000000.0    4.103563e-08
115050000.0    3.897669e-08
115100000.0    4.725755e-08
115150000.0    5.006361e-08
115200000.0    4.455497e-08
115250000.0    3.504499e-08
115300000.0    5.356764e-08
115350000.0    5.626848e-08
115400000.0    6.150901e-08
115450000.0    4.067029e-08
115500000.0    3.832701e-08
115550000.0    4.841302e-08
115600000.0    3.593076e-08
115650000.0    3.916318e-08
115700000.0    4.600101e-08
115750000.0    3.85011e-08
115800000.0    4.835394e-08
115850000.0    3.722823e-08
115900000.0    4.146753e-08
115950000.0    5.022805e-08
116000000.0    3.723875e-08
116050000.0    5.428704e-08
116100000.0    5.70831e-08
116150000.0    4.392324e-08
116200000.0    4.191067e-08
116250000.0    4.191477e-08
116300000.0    4.745263e-08
116350000.0    4.778931e-08
116400000.0    3.676277e-08
116450000.0    3.950454e-08
116500000.0    4.765558e-08
116550000.0    4.031683e-08
116600000.0    4.430456e-08
116650000.0    3.707575e-08
116700000.0    5.193183e-08
116750000.0    4.146742e-08
116800000.0    4.378058e-08
116850000.0    3.587457e-08
116900000.0    2.391027e-08
116950000.0    3.82e-08
117000000.0    3.894e-08
117050000.0    3.171663e-08
117100000.0    4.523128e-08
117150000.0    3.90495e-08
117200000.0    4.505182e-08
117250000.0    1.987369e-08
117300000.0    5.008343e-08
117350000.0    4.867966e-08
117400000.0    5.312265e-08
117450000.0    5.39567e-08
117500000.0    4.563351e-08
117550000.0    4.640689e-08
117600000.0    4.869332e-08
117650000.0    3.507403e-08
117700000.0    3.290599e-08
117750000.0    3.00445e-08
117800000.0    4.217388e-08
117850000.0    3.085631e-08
117900000.0    3.205299e-08
117950000.0    4.18639e-08
118000000.0    3.610207e-08
118050000.0    5.490332e-08
118100000.0    3.698117e-08
118150000.0    2.987766e-08
118200000.0    1.369251e-08
118250000.0    3.41316e-08
118300000.0    3.398934e-08
118350000.0    3.267264e-08
118400000.0    5.187677e-08
118450000.0    4.76789e-08
118500000.0    4.827642e-08
118550000.0    5.470058e-08
118600000.0    4.801471e-08
118650000.0    4.375956e-08
118700000.0    5.839803e-08
118750000.0    3.0838e-08
118800000.0    2.632745e-08
118850000.0    4.906048e-08
118900000.0    4.361929e-08
118950000.0    4.327461e-08
119000000.0    2.801553e-08
119050000.0    3.206293e-08
119100000.0    5.728004e-08
119150000.0    5.348821e-08
119200000.0    5.802207e-08
119250000.0    5.252098e-08
119300000.0    3.055807e-08
119350000.0    9.234678e-08
119400000.0    7.606625e-08
119450000.0    2.075132e-07
119500000.0    6.701257e-07
119550000.0    2.776543e-06
119600000.0    1.064718e-05
119650000.0    8.045246e-06
119700000.0    2.66834e-06
119750000.0    5.978478e-07
119800000.0    3.75537e-07
119850000.0    1.015194e-07
119900000.0    7.022508e-08
119950000.0    5.056291e-08
120000000.0    5.556539e-08
120050000.0    4.374795e-08
120100000.0    5.293277e-08
120150000.0    2.544427e-07
120200000.0    5.320812e-07
120250000.0    4.135048e-07
120300000.0    1.261695e-07
120350000.0    3.743824e-08
120400000.0    4.444857e-08
120450000.0    5.016721e-08
120500000.0    4.664394e-08
120550000.0    4.080746e-08
120600000.0    5.3225e-08
120650000.0    5.115168e-08
120700000.0    2.068231e-08
120750000.0    5.065401e-08
120800000.0    5.13724e-08
120850000.0    6.2551e-08
120900000.0    4.450429e-08
120950000.0    5.794499e-08
121000000.0    5.426802e-08
121050000.0    3.493844e-08
121100000.0    5.525844e-08
121150000.0    3.506738e-08
121200000.0    5.204753e-08
121250000.0    4.310201e-08
121300000.0    5.431634e-08
121350000.0    4.071784e-08
121400000.0    5.993882e-08
121450000.0    3.466249e-08
121500000.0    4.410236e-08
121550000.0    5.513271e-08
121600000.0    3.647632e-08
121650000.0    3.251117e-08
121700000.0    5.491303e-08
121750000.0    3.306298e-08
121800000.0    3.423026e-08
121850000.0    3.141648e-08
121900000.0    5.470822e-08
121950000.0    3.806981e-08
122000000.0    2.679113e-08
122050000.0    3.539963e-08
122100000.0    4.302951e-08
122150000.0    3.542133e-08
122200000.0    4.792659e-08
122250000.0    5.535843e-08
122300000.0    4.49822e-08
122350000.0    3.972156e-08
122400000.0    5.993287e-08
122450000.0    4.28043e-08
122500000.0    2.850621e-08
122550000.0    4.288923e-08
122600000.0    2.88238e-08
122650000.0    3.193636e-08
122700000.0    3.044333e-08
122750000.0    5.762296e-08
122800000.0    4.191916e-08
122850000.0    2.68167e-08
122900000.0    6.023711e-08
122950000.0    5.161325e-08
123000000.0    3.078943e-08
123050000.0    4.270592e-08
123100000.0    4.573842e-08
123150000.0    4.141007e-08
123200000.0    5.525358e-08
123250000.0    3.845823e-08
123300000.0    6.301375e-08
123350000.0    3.783089e-08
123400000.0    3.762059e-08
123450000.0    5.325792e-08
123500000.0    4.524139e-08
123550000.0    5.083596e-08
123600000.0    4.884794e-08
123650000.0    3.562149e-08
123700000.0    3.16106e-08
123750000.0    5.357579e-08
123800000.0    4.042877e-08
123850000.0    3.871831e-08
123900000.0    4.781833e-08
123950000.0    3.874163e-08
124000000.0    5.457985e-08
124050000.0    2.865986e-08
124100000.0    6.082039e-08
124150000.0    3.212547e-08
124200000.0    5.845704e-08
124250000.0    2.723761e-08
124300000.0    4.424092e-08
124350000.0    3.905095e-08
124400000.0    2.875739e-08
124450000.0    6.686523e-08
124500000.0    5.955527e-08
124550000.0    4.867064e-08
124600000.0    4.065813e-08
124650000.0    3.394474e-08
124700000.0    3.298095e-08
124750000.0    6.344702e-08
124800000.0    4.21103e-08
124850000.0    3.955983e-08
124900000.0    4.353574e-08
124950000.0    5.621398e-08
125000000.0    3.242179e-08
125050000.0    4.326934e-08
125100000.0    4.770609e-08
125150000.0    7.146874e-08
125200000.0    2.86399e-08
125250000.0    3.573354e-08
125300000.0    4.224587e-08
125350000.0    3.881708e-08
125400000.0    5.24671e-08
125450000.0    4.627291e-08
125500000.0    3.069605e-08
125550000.0    2.986676e-08
125600000.0    4.75567e-08
125650000.0    4.015264e-08
125700000.0    3.575493e-08
125750000.0    4.362512e-08
125800000.0    4.523948e-08
125850000.0    5.269843e-08
125900000.0    3.679698e-08
125950000.0    3.829894e-08
126000000.0    3.525805e-08
126050000.0    5.521154e-08
126100000.0    2.903678e-08
126150000.0    5.041569e-08
126200000.0    3.747179e-08
126250000.0    5.50478e-08
126300000.0    4.989699e-08
126350000.0    4.089633e-08
126400000.0    5.40664e-08
126450000.0    3.868427e-08
126500000.0    5.793599e-08
126550000.0    3.048528e-08
126600000.0    3.713603e-08
126650000.0    5.177646e-08
126700000.0    4.03252e-08
126750000.0    3.117043e-08
126800000.0    2.605835e-08
126850000.0    5.036001e-08
126900000.0    3.707373e-08
126950000.0    4.903587e-08
127000000.0    4.568174e-08
127050000.0    4.384515e-08
127100000.0    3.639074e-08
127150000.0    3.630742e-08
127200000.0    4.165303e-08
127250000.0    4.019489e-08
127300000.0    1.951099e-08
127350000.0    4.534134e-08
127400000.0    4.918063e-08
127450000.0    5.613704e-08
127500000.0    2.858905e-08
127550000.0    6.166e-08
127600000.0    4.574149e-08
127650000.0    4.82679e-08
127700000.0    4.294476e-08
127750000.0    2.799171e-08
127800000.0    5.15659e-08
127850000.0    3.815505e-08
127900000.0    5.489326e-08
127950000.0    5.373279e-08
128000000.0    4.534586e-08
128050000.0    5.222163e-08
128100000.0    7.148774e-08
128150000.0    2.025434e-08
128200000.0    2.905328e-08
128250000.0    3.966936e-08
128300000.0    5.037716e-08
128350000.0    5.104539e-08
128400000.0    3.707929e-08
128450000.0    3.680635e-08
128500000.0    5.405463e-08
128550000.0    4.010638e-08
128600000.0    3.685265e-08
128650000.0    4.800754e-08
128700000.0    4.196166e-08
128750000.0    2.838987e-08
128800000.0    2.391362e-08
128850000.0    5.529571e-08
128900000.0    4.134007e-08
128950000.0    4.663822e-08
129000000.0    4.197151e-08
129050000.0    3.303323e-08
129100000.0    3.094271e-08
129150000.0    4.105308e-08
129200000.0    4.31939e-08
129250000.0    3.402556e-08
129300000.0    4.31139e-08
129350000.0    4.516585e-08
129400000.0    3.505709e-08
129450000.0    4.172781e-08
129500000.0    5.210897e-08
129550000.0    4.585318e-08
129600000.0    4.182905e-08
129650000.0    3.383732e-08
129700000.0    3.279027e-08
129750000.0    3.472915e-08
129800000.0    4.436663e-08
129850000.0    4.249347e-08
129900000.0    4.565605e-08
129950000.0    5.215542e-08
130000000.0    6.21895e-08
