# AG4395A Measurement - Timestamp: Nov 03 2017 - 05:30:42
# Parameter File: SP_AG_R_Beatnote_95_to_125MHz.yml
#---------- Measurement Parameters ------------
# Start Frequency (Hz): 90000000.0
# Stop Frequency (Hz): 130000000.0
# Frequency Points: 801
# Measurement Format: NOISE
# Measuremed Input: R
#---------- Analyzer Settings ----------
# Number of Averages: 5
# Auto Bandwidth: On
# IF Bandwidth: 3000.0
# Input Attenuators (R,A,B): 0dB 20dB 20dB 
# Units: V/rtHz
#---------- Measurement Data ----------
# [Freq(Hz) Chan 1 ]
90000000.0    4.157007e-08
90050000.0    3.302203e-08
90100000.0    5.745531e-08
90150000.0    3.810176e-08
90200000.0    4.530223e-08
90250000.0    2.746053e-08
90300000.0    3.914855e-08
90350000.0    4.792755e-08
90400000.0    3.019032e-08
90450000.0    4.045506e-08
90500000.0    2.623811e-08
90550000.0    4.172218e-08
90600000.0    3.148539e-08
90650000.0    3.724089e-08
90700000.0    3.337182e-08
90750000.0    3.935061e-08
90800000.0    3.879656e-08
90850000.0    3.933879e-08
90900000.0    3.03109e-08
90950000.0    4.141794e-08
91000000.0    4.330786e-08
91050000.0    4.071368e-08
91100000.0    4.010927e-08
91150000.0    4.011042e-08
91200000.0    3.295795e-08
91250000.0    3.738353e-08
91300000.0    5.048781e-08
91350000.0    3.420885e-08
91400000.0    3.728668e-08
91450000.0    5.318769e-08
91500000.0    5.143925e-08
91550000.0    3.609784e-08
91600000.0    3.166224e-08
91650000.0    3.998301e-08
91700000.0    3.125558e-08
91750000.0    3.090557e-08
91800000.0    3.60758e-08
91850000.0    3.422855e-08
91900000.0    4.386469e-08
91950000.0    3.306816e-08
92000000.0    5.254896e-08
92050000.0    3.609617e-08
92100000.0    2.545461e-08
92150000.0    4.300642e-08
92200000.0    4.02328e-08
92250000.0    4.151472e-08
92300000.0    4.769315e-08
92350000.0    5.382574e-08
92400000.0    4.097211e-08
92450000.0    2.586701e-08
92500000.0    3.237154e-08
92550000.0    2.737047e-08
92600000.0    4.218428e-08
92650000.0    5.51478e-08
92700000.0    4.150848e-08
92750000.0    3.538177e-08
92800000.0    4.382544e-08
92850000.0    4.861137e-08
92900000.0    4.029592e-08
92950000.0    4.646752e-08
93000000.0    3.629153e-08
93050000.0    3.978388e-08
93100000.0    4.186311e-08
93150000.0    5.359253e-08
93200000.0    4.066367e-08
93250000.0    2.508352e-08
93300000.0    3.999185e-08
93350000.0    4.389853e-08
93400000.0    3.602767e-08
93450000.0    4.205851e-08
93500000.0    2.847109e-08
93550000.0    2.739593e-08
93600000.0    4.381431e-08
93650000.0    3.77693e-08
93700000.0    2.80637e-08
93750000.0    4.768323e-08
93800000.0    4.531965e-08
93850000.0    5.141174e-08
93900000.0    4.454408e-08
93950000.0    4.014124e-08
94000000.0    3.954082e-08
94050000.0    4.92845e-08
94100000.0    5.10612e-08
94150000.0    3.165499e-08
94200000.0    3.977521e-08
94250000.0    4.219776e-08
94300000.0    2.977461e-08
94350000.0    3.472729e-08
94400000.0    4.059975e-08
94450000.0    5.328231e-08
94500000.0    3.534143e-08
94550000.0    3.371777e-08
94600000.0    4.990049e-08
94650000.0    5.094432e-08
94700000.0    3.949173e-08
94750000.0    4.780797e-08
94800000.0    5.766894e-08
94850000.0    2.676078e-08
94900000.0    4.701845e-08
94950000.0    4.387943e-08
95000000.0    4.521457e-08
95050000.0    2.50668e-08
95100000.0    3.926741e-08
95150000.0    4.946394e-08
95200000.0    5.151639e-08
95250000.0    3.757938e-08
95300000.0    4.916277e-08
95350000.0    3.67695e-08
95400000.0    3.90139e-08
95450000.0    3.657476e-08
95500000.0    4.147151e-08
95550000.0    4.516884e-08
95600000.0    2.18402e-08
95650000.0    3.94286e-08
95700000.0    2.880462e-08
95750000.0    3.990281e-08
95800000.0    4.305994e-08
95850000.0    4.65508e-08
95900000.0    3.519233e-08
95950000.0    3.301191e-08
96000000.0    2.868774e-08
96050000.0    5.781937e-08
96100000.0    3.795143e-08
96150000.0    3.504214e-08
96200000.0    5.221283e-08
96250000.0    3.870217e-08
96300000.0    3.359197e-08
96350000.0    3.369628e-08
96400000.0    3.98128e-08
96450000.0    5.29362e-08
96500000.0    4.794026e-08
96550000.0    4.388372e-08
96600000.0    3.778137e-08
96650000.0    4.583607e-08
96700000.0    5.096818e-08
96750000.0    5.211588e-08
96800000.0    4.115057e-08
96850000.0    4.435924e-08
96900000.0    3.912483e-08
96950000.0    3.409833e-08
97000000.0    4.92477e-08
97050000.0    4.184807e-08
97100000.0    4.797066e-08
97150000.0    2.113378e-08
97200000.0    3.895522e-08
97250000.0    3.562504e-08
97300000.0    3.112052e-08
97350000.0    5.944114e-08
97400000.0    3.022108e-08
97450000.0    3.134323e-08
97500000.0    4.654298e-08
97550000.0    4.630485e-08
97600000.0    4.460787e-08
97650000.0    3.417454e-08
97700000.0    3.1922e-08
97750000.0    4.45285e-08
97800000.0    3.736142e-08
97850000.0    4.598185e-08
97900000.0    3.759346e-08
97950000.0    3.167392e-08
98000000.0    5.121774e-08
98050000.0    3.11842e-08
98100000.0    4.528123e-08
98150000.0    4.110549e-08
98200000.0    3.369203e-08
98250000.0    3.137056e-08
98300000.0    3.161545e-08
98350000.0    4.965146e-08
98400000.0    2.5387e-08
98450000.0    3.056173e-08
98500000.0    2.761558e-08
98550000.0    4.511721e-08
98600000.0    4.821031e-08
98650000.0    4.326452e-08
98700000.0    2.256308e-08
98750000.0    4.218858e-08
98800000.0    5.030486e-08
98850000.0    5.474041e-08
98900000.0    3.529215e-08
98950000.0    6.148642e-08
99000000.0    4.988259e-08
99050000.0    3.648988e-08
99100000.0    5.347051e-08
99150000.0    3.793275e-08
99200000.0    6.194269e-08
99250000.0    3.919213e-08
99300000.0    3.239498e-08
99350000.0    5.87387e-08
99400000.0    6.651911e-08
99450000.0    2.994682e-08
99500000.0    4.195211e-08
99550000.0    4.734898e-08
99600000.0    7.488481e-08
99650000.0    4.170856e-08
99700000.0    4.416454e-08
99750000.0    5.432872e-08
99800000.0    4.125699e-08
99850000.0    3.02832e-08
99900000.0    3.471621e-08
99950000.0    1.910866e-08
100000000.0    5.714281e-08
100050000.0    3.219803e-08
100100000.0    5.032612e-08
100150000.0    4.349329e-08
100200000.0    4.183822e-08
100250000.0    5.409768e-08
100300000.0    4.527652e-08
100350000.0    2.476401e-08
100400000.0    2.784547e-08
100450000.0    3.368305e-08
100500000.0    3.763849e-08
100550000.0    6.216377e-08
100600000.0    3.180462e-08
100650000.0    3.639338e-08
100700000.0    4.688783e-08
100750000.0    5.652357e-08
100800000.0    2.494257e-08
100850000.0    3.466934e-08
100900000.0    3.109092e-08
100950000.0    3.195317e-08
101000000.0    4.332532e-08
101050000.0    5.450785e-08
101100000.0    4.424407e-08
101150000.0    4.217049e-08
101200000.0    4.470505e-08
101250000.0    4.317311e-08
101300000.0    4.335506e-08
101350000.0    5.846331e-08
101400000.0    4.112713e-08
101450000.0    5.794174e-08
101500000.0    2.958059e-08
101550000.0    2.665475e-08
101600000.0    3.623546e-08
101650000.0    4.286954e-08
101700000.0    3.745682e-08
101750000.0    5.452664e-08
101800000.0    3.33719e-08
101850000.0    3.773729e-08
101900000.0    4.612924e-08
101950000.0    2.72224e-08
102000000.0    7.057609e-08
102050000.0    3.459573e-08
102100000.0    4.381525e-08
102150000.0    6.299106e-08
102200000.0    3.813475e-08
102250000.0    3.450812e-08
102300000.0    3.585997e-08
102350000.0    3.862063e-08
102400000.0    2.413571e-08
102450000.0    4.130998e-08
102500000.0    2.821305e-08
102550000.0    4.928812e-08
102600000.0    5.26698e-08
102650000.0    5.272932e-08
102700000.0    2.906552e-08
102750000.0    4.898839e-08
102800000.0    4.171672e-08
102850000.0    2.802568e-08
102900000.0    4.463486e-08
102950000.0    4.172446e-08
103000000.0    4.009474e-08
103050000.0    4.494337e-08
103100000.0    4.883185e-08
103150000.0    5.192302e-08
103200000.0    3.666667e-08
103250000.0    3.704978e-08
103300000.0    4.884177e-08
103350000.0    3.740712e-08
103400000.0    4.310551e-08
103450000.0    6.229983e-08
103500000.0    4.229565e-08
103550000.0    7.308263e-08
103600000.0    3.49615e-08
103650000.0    3.353929e-08
103700000.0    3.71887e-08
103750000.0    5.355564e-08
103800000.0    2.943055e-08
103850000.0    4.894397e-08
103900000.0    3.945817e-08
103950000.0    4.215732e-08
104000000.0    4.994579e-08
104050000.0    3.531492e-08
104100000.0    4.078465e-08
104150000.0    3.820457e-08
104200000.0    3.255155e-08
104250000.0    3.925944e-08
104300000.0    2.537366e-08
104350000.0    2.34311e-08
104400000.0    3.551999e-08
104450000.0    5.304214e-08
104500000.0    2.964383e-08
104550000.0    6.954718e-08
104600000.0    3.782065e-08
104650000.0    3.232236e-08
104700000.0    5.464668e-08
104750000.0    3.908093e-08
104800000.0    3.397512e-08
104850000.0    4.972065e-08
104900000.0    4.693038e-08
104950000.0    4.560971e-08
105000000.0    4.504487e-08
105050000.0    2.834021e-08
105100000.0    3.799344e-08
105150000.0    5.445373e-08
105200000.0    6.490345e-08
105250000.0    5.78806e-08
105300000.0    5.072215e-08
105350000.0    3.673334e-08
105400000.0    4.04949e-08
105450000.0    6.29744e-08
105500000.0    2.823458e-08
105550000.0    4.985021e-08
105600000.0    4.147935e-08
105650000.0    4.308272e-08
105700000.0    4.245439e-08
105750000.0    3.694536e-08
105800000.0    5.227273e-08
105850000.0    4.072571e-08
105900000.0    4.189257e-08
105950000.0    3.023206e-08
106000000.0    3.921463e-08
106050000.0    5.411536e-08
106100000.0    5.261839e-08
106150000.0    4.215642e-08
106200000.0    3.169221e-08
106250000.0    4.967571e-08
106300000.0    2.88019e-08
106350000.0    4.630469e-08
106400000.0    2.542452e-08
106450000.0    4.121176e-08
106500000.0    5.384259e-08
106550000.0    4.575705e-08
106600000.0    6.616199e-08
106650000.0    5.477808e-08
106700000.0    2.705229e-08
106750000.0    4.748774e-08
106800000.0    5.147634e-08
106850000.0    4.639195e-08
106900000.0    4.662823e-08
106950000.0    3.209595e-08
107000000.0    4.876092e-08
107050000.0    3.17925e-08
107100000.0    4.593491e-08
107150000.0    3.56654e-08
107200000.0    4.035561e-08
107250000.0    4.511039e-08
107300000.0    4.051084e-08
107350000.0    3.922333e-08
107400000.0    2.782258e-08
107450000.0    2.739246e-08
107500000.0    5.372367e-08
107550000.0    6.356989e-08
107600000.0    5.438394e-08
107650000.0    4.30185e-08
107700000.0    4.419604e-08
107750000.0    6.132645e-08
107800000.0    6.493284e-08
107850000.0    4.593961e-08
107900000.0    3.432149e-08
107950000.0    3.051173e-08
108000000.0    3.580248e-08
108050000.0    6.548137e-08
108100000.0    3.475782e-08
108150000.0    4.95032e-08
108200000.0    4.161446e-08
108250000.0    4.620317e-08
108300000.0    5.191976e-08
108350000.0    4.791505e-08
108400000.0    4.857888e-08
108450000.0    5.223774e-08
108500000.0    4.121419e-08
108550000.0    4.862447e-08
108600000.0    3.668043e-08
108650000.0    3.468876e-08
108700000.0    4.365528e-08
108750000.0    4.809403e-08
108800000.0    2.940331e-08
108850000.0    4.506601e-08
108900000.0    3.945174e-08
108950000.0    5.932063e-08
109000000.0    3.419393e-08
109050000.0    4.616048e-08
109100000.0    3.639522e-08
109150000.0    2.434697e-08
109200000.0    3.550661e-08
109250000.0    5.388132e-08
109300000.0    3.811258e-08
109350000.0    3.772149e-08
109400000.0    3.711225e-08
109450000.0    3.97878e-08
109500000.0    4.65987e-08
109550000.0    4.069303e-08
109600000.0    5.858933e-08
109650000.0    2.864976e-08
109700000.0    5.536535e-08
109750000.0    7.108485e-08
109800000.0    4.761468e-08
109850000.0    5.414885e-08
109900000.0    3.822969e-08
109950000.0    4.308113e-08
110000000.0    5.921e-08
110050000.0    3.605973e-08
110100000.0    4.577025e-08
110150000.0    3.542075e-08
110200000.0    3.156343e-08
110250000.0    2.695511e-08
110300000.0    3.880517e-08
110350000.0    6.151295e-08
110400000.0    4.301814e-08
110450000.0    3.516805e-08
110500000.0    3.236832e-08
110550000.0    3.127273e-08
110600000.0    3.709318e-08
110650000.0    3.993729e-08
110700000.0    4.633594e-08
110750000.0    3.220512e-08
110800000.0    4.520209e-08
110850000.0    5.136328e-08
110900000.0    3.582949e-08
110950000.0    5.584204e-08
111000000.0    3.788368e-08
111050000.0    5.477076e-08
111100000.0    2.737199e-08
111150000.0    4.723716e-08
111200000.0    5.287454e-08
111250000.0    2.549755e-08
111300000.0    2.837372e-08
111350000.0    3.3311e-08
111400000.0    3.532739e-08
111450000.0    4.730662e-08
111500000.0    4.483785e-08
111550000.0    3.28866e-08
111600000.0    5.109739e-08
111650000.0    3.972203e-08
111700000.0    3.638306e-08
111750000.0    6.401175e-08
111800000.0    3.670186e-08
111850000.0    4.401128e-08
111900000.0    3.847457e-08
111950000.0    2.483605e-08
112000000.0    4.524473e-08
112050000.0    4.975519e-08
112100000.0    5.926522e-08
112150000.0    3.126048e-08
112200000.0    4.549566e-08
112250000.0    4.375557e-08
112300000.0    5.776014e-08
112350000.0    4.825916e-08
112400000.0    5.038743e-08
112450000.0    6.11553e-08
112500000.0    4.043629e-08
112550000.0    4.317145e-08
112600000.0    5.074248e-08
112650000.0    3.797252e-08
112700000.0    3.773733e-08
112750000.0    4.713136e-08
112800000.0    4.270043e-08
112850000.0    5.554753e-08
112900000.0    6.065272e-08
112950000.0    3.619758e-08
113000000.0    5.12929e-08
113050000.0    4.775692e-08
113100000.0    4.431951e-08
113150000.0    5.794022e-08
113200000.0    4.626232e-08
113250000.0    3.95759e-08
113300000.0    2.908155e-08
113350000.0    4.355166e-08
113400000.0    5.368491e-08
113450000.0    6.433803e-08
113500000.0    4.33796e-08
113550000.0    4.901554e-08
113600000.0    4.258664e-08
113650000.0    6.499982e-08
113700000.0    5.09381e-08
113750000.0    4.592325e-08
113800000.0    4.855852e-08
113850000.0    2.652351e-08
113900000.0    3.671828e-08
113950000.0    4.554131e-08
114000000.0    5.651468e-08
114050000.0    5.089715e-08
114100000.0    5.812659e-08
114150000.0    4.001259e-08
114200000.0    4.838232e-08
114250000.0    5.200041e-08
114300000.0    3.926798e-08
114350000.0    5.308126e-08
114400000.0    3.424009e-08
114450000.0    4.54988e-08
114500000.0    4.262252e-08
114550000.0    3.746731e-08
114600000.0    5.852027e-08
114650000.0    2.704429e-08
114700000.0    4.165354e-08
114750000.0    5.293893e-08
114800000.0    5.075167e-08
114850000.0    5.226013e-08
114900000.0    4.873753e-08
114950000.0    5.404693e-08
115000000.0    4.834589e-08
115050000.0    4.667129e-08
115100000.0    3.546079e-08
115150000.0    3.885811e-08
115200000.0    3.180965e-08
115250000.0    4.06432e-08
115300000.0    5.141305e-08
115350000.0    5.173055e-08
115400000.0    3.454647e-08
115450000.0    4.466076e-08
115500000.0    4.310748e-08
115550000.0    4.028212e-08
115600000.0    4.68959e-08
115650000.0    4.000038e-08
115700000.0    4.361408e-08
115750000.0    4.672142e-08
115800000.0    4.144571e-08
115850000.0    4.106483e-08
115900000.0    2.713018e-08
115950000.0    3.753307e-08
116000000.0    4.835968e-08
116050000.0    4.50771e-08
116100000.0    4.424657e-08
116150000.0    4.684115e-08
116200000.0    2.97262e-08
116250000.0    3.127803e-08
116300000.0    5.446598e-08
116350000.0    3.160618e-08
116400000.0    3.640767e-08
116450000.0    4.377657e-08
116500000.0    4.036923e-08
116550000.0    4.721172e-08
116600000.0    3.358763e-08
116650000.0    2.875104e-08
116700000.0    4.256641e-08
116750000.0    5.523495e-08
116800000.0    2.801118e-08
116850000.0    4.370875e-08
116900000.0    5.563652e-08
116950000.0    4.079245e-08
117000000.0    8.038484e-08
117050000.0    4.334044e-08
117100000.0    3.718179e-08
117150000.0    4.851642e-08
117200000.0    4.380806e-08
117250000.0    3.156525e-08
117300000.0    4.607653e-08
117350000.0    3.573259e-08
117400000.0    5.085667e-08
117450000.0    4.007837e-08
117500000.0    5.189736e-08
117550000.0    4.752838e-08
117600000.0    5.146924e-08
117650000.0    3.409711e-08
117700000.0    4.921353e-08
117750000.0    4.942791e-08
117800000.0    4.774525e-08
117850000.0    4.831155e-08
117900000.0    4.464548e-08
117950000.0    5.171566e-08
118000000.0    4.397588e-08
118050000.0    3.530478e-08
118100000.0    4.547969e-08
118150000.0    3.3364e-08
118200000.0    3.505691e-08
118250000.0    5.548316e-08
118300000.0    4.789455e-08
118350000.0    3.972546e-08
118400000.0    4.940217e-08
118450000.0    3.833959e-08
118500000.0    4.252228e-08
118550000.0    5.873116e-08
118600000.0    4.405611e-08
118650000.0    5.677009e-08
118700000.0    4.029372e-08
118750000.0    4.071976e-08
118800000.0    5.768067e-08
118850000.0    3.413139e-08
118900000.0    3.356494e-08
118950000.0    4.235662e-08
119000000.0    2.918633e-08
119050000.0    4.108091e-08
119100000.0    5.310508e-08
119150000.0    4.798773e-08
119200000.0    1.240577e-07
119250000.0    1.30389e-07
119300000.0    1.741636e-07
119350000.0    5.056758e-07
119400000.0    2.028624e-06
119450000.0    4.644362e-06
119500000.0    3.799464e-06
119550000.0    3.367733e-06
119600000.0    1.263594e-06
119650000.0    5.943458e-07
119700000.0    3.594862e-07
119750000.0    1.711347e-07
119800000.0    1.026446e-07
119850000.0    6.987015e-08
119900000.0    5.058617e-08
119950000.0    6.059454e-08
120000000.0    4.066037e-08
120050000.0    4.240692e-08
120100000.0    4.26905e-08
120150000.0    3.737274e-08
120200000.0    5.407384e-08
120250000.0    1.78195e-07
120300000.0    5.130861e-07
120350000.0    4.477725e-07
120400000.0    3.548504e-07
120450000.0    1.123074e-07
120500000.0    5.385164e-08
120550000.0    3.537688e-08
120600000.0    2.484691e-08
120650000.0    2.861758e-08
120700000.0    5.917265e-08
120750000.0    3.93573e-08
120800000.0    4.507964e-08
120850000.0    2.522025e-08
120900000.0    4.530813e-08
120950000.0    3.013411e-08
121000000.0    6.469307e-08
121050000.0    4.507447e-08
121100000.0    4.354266e-08
121150000.0    3.267597e-08
121200000.0    4.255965e-08
121250000.0    4.711845e-08
121300000.0    3.597829e-08
121350000.0    3.386254e-08
121400000.0    3.910113e-08
121450000.0    3.623708e-08
121500000.0    3.446493e-08
121550000.0    4.598883e-08
121600000.0    3.494874e-08
121650000.0    5.439092e-08
121700000.0    4.749896e-08
121750000.0    4.226711e-08
121800000.0    3.145256e-08
121850000.0    5.014288e-08
121900000.0    3.242475e-08
121950000.0    4.730028e-08
122000000.0    2.435835e-08
122050000.0    4.381475e-08
122100000.0    4.372e-08
122150000.0    4.340544e-08
122200000.0    4.280278e-08
122250000.0    3.566746e-08
122300000.0    3.482134e-08
122350000.0    3.353097e-08
122400000.0    3.777815e-08
122450000.0    4.793785e-08
122500000.0    3.893654e-08
122550000.0    5.57932e-08
122600000.0    3.94497e-08
122650000.0    3.442626e-08
122700000.0    5.628704e-08
122750000.0    4.005578e-08
122800000.0    3.957535e-08
122850000.0    4.29942e-08
122900000.0    4.539562e-08
122950000.0    4.938713e-08
123000000.0    4.870216e-08
123050000.0    7.231311e-08
123100000.0    5.891951e-08
123150000.0    3.799082e-08
123200000.0    3.781356e-08
123250000.0    3.174077e-08
123300000.0    2.953377e-08
123350000.0    4.1674e-08
123400000.0    3.735496e-08
123450000.0    6.05917e-08
123500000.0    4.295542e-08
123550000.0    5.317532e-08
123600000.0    3.342588e-08
123650000.0    4.080884e-08
123700000.0    4.385168e-08
123750000.0    3.22091e-08
123800000.0    2.506075e-08
123850000.0    4.677811e-08
123900000.0    5.422372e-08
123950000.0    5.115216e-08
124000000.0    3.918575e-08
124050000.0    4.462462e-08
124100000.0    6.35906e-08
124150000.0    3.299271e-08
124200000.0    4.330472e-08
124250000.0    4.059471e-08
124300000.0    3.771094e-08
124350000.0    3.912282e-08
124400000.0    4.996267e-08
124450000.0    5.057541e-08
124500000.0    4.947938e-08
124550000.0    5.622657e-08
124600000.0    3.181264e-08
124650000.0    3.534476e-08
124700000.0    2.610861e-08
124750000.0    4.125897e-08
124800000.0    4.047732e-08
124850000.0    3.400185e-08
124900000.0    5.485191e-08
124950000.0    4.348361e-08
125000000.0    3.92482e-08
125050000.0    4.384903e-08
125100000.0    5.559854e-08
125150000.0    6.29186e-08
125200000.0    4.861564e-08
125250000.0    4.626669e-08
125300000.0    4.137605e-08
125350000.0    5.832333e-08
125400000.0    4.364268e-08
125450000.0    2.758652e-08
125500000.0    4.990961e-08
125550000.0    3.947638e-08
125600000.0    5.339516e-08
125650000.0    2.419328e-08
125700000.0    2.916551e-08
125750000.0    3.234944e-08
125800000.0    4.075573e-08
125850000.0    3.779107e-08
125900000.0    5.623333e-08
125950000.0    4.176247e-08
126000000.0    4.61295e-08
126050000.0    4.169208e-08
126100000.0    4.966903e-08
126150000.0    5.938502e-08
126200000.0    3.430875e-08
126250000.0    5.72802e-08
126300000.0    2.669477e-08
126350000.0    2.628886e-08
126400000.0    2.725348e-08
126450000.0    5.072663e-08
126500000.0    3.241922e-08
126550000.0    4.707555e-08
126600000.0    5.397938e-08
126650000.0    4.760439e-08
126700000.0    4.291735e-08
126750000.0    3.637576e-08
126800000.0    4.033538e-08
126850000.0    5.443179e-08
126900000.0    4.985554e-08
126950000.0    3.576923e-08
127000000.0    3.198288e-08
127050000.0    3.357958e-08
127100000.0    3.545806e-08
127150000.0    4.489656e-08
127200000.0    3.718813e-08
127250000.0    3.461079e-08
127300000.0    3.91701e-08
127350000.0    3.418997e-08
127400000.0    5.678209e-08
127450000.0    2.921096e-08
127500000.0    4.487876e-08
127550000.0    4.654981e-08
127600000.0    5.315304e-08
127650000.0    1.895296e-08
127700000.0    4.00297e-08
127750000.0    5.90811e-08
127800000.0    4.631792e-08
127850000.0    3.412418e-08
127900000.0    3.75144e-08
127950000.0    3.858137e-08
128000000.0    4.006483e-08
128050000.0    4.718367e-08
128100000.0    4.649833e-08
128150000.0    1.937431e-08
128200000.0    5.413035e-08
128250000.0    2.500009e-08
128300000.0    2.777214e-08
128350000.0    4.679707e-08
128400000.0    5.1663e-08
128450000.0    5.024397e-08
128500000.0    3.47748e-08
128550000.0    5.301264e-08
128600000.0    4.33872e-08
128650000.0    4.586359e-08
128700000.0    5.385102e-08
128750000.0    4.819325e-08
128800000.0    4.166908e-08
128850000.0    3.13639e-08
128900000.0    4.650425e-08
128950000.0    4.477051e-08
129000000.0    3.026393e-08
129050000.0    3.773121e-08
129100000.0    4.462896e-08
129150000.0    6.268122e-08
129200000.0    3.59817e-08
129250000.0    4.696508e-08
129300000.0    5.144417e-08
129350000.0    4.200086e-08
129400000.0    3.918518e-08
129450000.0    5.305543e-08
129500000.0    5.882275e-08
129550000.0    3.632632e-08
129600000.0    4.211675e-08
129650000.0    4.192156e-08
129700000.0    3.580882e-08
129750000.0    3.14675e-08
129800000.0    3.013734e-08
129850000.0    4.435527e-08
129900000.0    3.645576e-08
129950000.0    3.448424e-08
130000000.0    2.856373e-08
