# AG4395A Measurement - Timestamp: Nov 03 2017 - 09:10:35
# Parameter File: SP_AG_R_Beatnote_95_to_125MHz.yml
#---------- Measurement Parameters ------------
# Start Frequency (Hz): 90000000.0
# Stop Frequency (Hz): 130000000.0
# Frequency Points: 801
# Measurement Format: NOISE
# Measuremed Input: R
#---------- Analyzer Settings ----------
# Number of Averages: 5
# Auto Bandwidth: On
# IF Bandwidth: 3000.0
# Input Attenuators (R,A,B): 0dB 20dB 20dB 
# Units: V/rtHz
#---------- Measurement Data ----------
# [Freq(Hz) Chan 1 ]
90000000.0    3.772056e-08
90050000.0    3.011609e-08
90100000.0    3.659154e-08
90150000.0    5.140109e-08
90200000.0    4.204879e-08
90250000.0    2.950003e-08
90300000.0    2.54275e-08
90350000.0    3.049391e-08
90400000.0    3.432488e-08
90450000.0    6.097586e-08
90500000.0    3.789627e-08
90550000.0    4.079878e-08
90600000.0    3.287023e-08
90650000.0    2.549217e-08
90700000.0    4.599135e-08
90750000.0    4.200151e-08
90800000.0    4.261038e-08
90850000.0    3.069067e-08
90900000.0    3.118542e-08
90950000.0    4.599685e-08
91000000.0    3.623761e-08
91050000.0    4.406563e-08
91100000.0    2.87756e-08
91150000.0    5.364302e-08
91200000.0    4.363364e-08
91250000.0    4.687208e-08
91300000.0    3.984441e-08
91350000.0    3.135277e-08
91400000.0    4.103788e-08
91450000.0    3.398065e-08
91500000.0    3.437231e-08
91550000.0    2.907607e-08
91600000.0    4.041592e-08
91650000.0    3.217771e-08
91700000.0    4.147189e-08
91750000.0    3.279296e-08
91800000.0    3.421188e-08
91850000.0    4.128565e-08
91900000.0    4.707058e-08
91950000.0    3.699163e-08
92000000.0    4.756298e-08
92050000.0    4.129042e-08
92100000.0    4.222947e-08
92150000.0    4.797059e-08
92200000.0    2.902831e-08
92250000.0    3.500834e-08
92300000.0    3.210304e-08
92350000.0    3.180326e-08
92400000.0    4.667017e-08
92450000.0    4.217235e-08
92500000.0    3.272351e-08
92550000.0    4.33046e-08
92600000.0    4.207619e-08
92650000.0    3.054821e-08
92700000.0    5.820615e-08
92750000.0    3.605697e-08
92800000.0    3.647434e-08
92850000.0    3.032551e-08
92900000.0    2.536423e-08
92950000.0    3.020665e-08
93000000.0    4.495786e-08
93050000.0    5.23329e-08
93100000.0    3.287898e-08
93150000.0    4.899718e-08
93200000.0    1.793544e-08
93250000.0    3.460967e-08
93300000.0    2.994923e-08
93350000.0    3.545603e-08
93400000.0    3.706841e-08
93450000.0    3.930706e-08
93500000.0    3.863667e-08
93550000.0    3.416229e-08
93600000.0    3.05832e-08
93650000.0    3.330276e-08
93700000.0    3.059844e-08
93750000.0    3.558284e-08
93800000.0    4.101472e-08
93850000.0    2.424405e-08
93900000.0    4.902792e-08
93950000.0    1.651814e-08
94000000.0    3.392066e-08
94050000.0    3.724072e-08
94100000.0    2.472338e-08
94150000.0    2.312401e-08
94200000.0    3.427933e-08
94250000.0    5.119794e-08
94300000.0    3.464562e-08
94350000.0    5.100737e-08
94400000.0    4.724292e-08
94450000.0    4.068694e-08
94500000.0    3.681881e-08
94550000.0    4.071964e-08
94600000.0    3.904055e-08
94650000.0    3.865428e-08
94700000.0    4.994464e-08
94750000.0    3.243122e-08
94800000.0    4.099301e-08
94850000.0    3.483223e-08
94900000.0    5.290469e-08
94950000.0    3.894574e-08
95000000.0    3.188367e-08
95050000.0    4.428089e-08
95100000.0    3.178329e-08
95150000.0    3.43819e-08
95200000.0    2.811433e-08
95250000.0    4.632608e-08
95300000.0    4.434121e-08
95350000.0    4.371799e-08
95400000.0    2.144291e-08
95450000.0    3.841339e-08
95500000.0    3.253318e-08
95550000.0    3.529459e-08
95600000.0    3.98933e-08
95650000.0    2.821724e-08
95700000.0    3.505691e-08
95750000.0    2.866848e-08
95800000.0    3.766631e-08
95850000.0    5.650089e-08
95900000.0    4.816099e-08
95950000.0    5.993552e-08
96000000.0    3.485923e-08
96050000.0    4.217227e-08
96100000.0    5.579827e-08
96150000.0    4.26035e-08
96200000.0    2.95392e-08
96250000.0    3.70871e-08
96300000.0    4.498164e-08
96350000.0    5.378396e-08
96400000.0    4.306749e-08
96450000.0    2.606528e-08
96500000.0    4.941909e-08
96550000.0    4.681862e-08
96600000.0    3.209775e-08
96650000.0    3.320681e-08
96700000.0    4.966967e-08
96750000.0    3.358959e-08
96800000.0    4.472196e-08
96850000.0    3.736359e-08
96900000.0    2.7831e-08
96950000.0    6.100677e-08
97000000.0    3.043777e-08
97050000.0    5.254105e-08
97100000.0    2.044636e-08
97150000.0    3.559528e-08
97200000.0    3.744375e-08
97250000.0    3.928948e-08
97300000.0    4.181146e-08
97350000.0    4.970522e-08
97400000.0    4.125236e-08
97450000.0    2.487004e-08
97500000.0    2.950349e-08
97550000.0    3.232767e-08
97600000.0    4.234779e-08
97650000.0    4.835634e-08
97700000.0    2.419445e-08
97750000.0    3.941426e-08
97800000.0    5.590442e-08
97850000.0    4.005246e-08
97900000.0    3.977646e-08
97950000.0    3.307267e-08
98000000.0    3.972115e-08
98050000.0    1.793983e-08
98100000.0    2.459024e-08
98150000.0    6.142101e-08
98200000.0    4.116961e-08
98250000.0    3.945044e-08
98300000.0    2.497712e-08
98350000.0    5.260065e-08
98400000.0    4.400538e-08
98450000.0    4.288247e-08
98500000.0    4.423852e-08
98550000.0    3.936395e-08
98600000.0    2.705841e-08
98650000.0    4.044283e-08
98700000.0    3.666528e-08
98750000.0    6.251712e-08
98800000.0    3.908123e-08
98850000.0    4.291288e-08
98900000.0    5.503107e-08
98950000.0    4.310744e-08
99000000.0    4.191852e-08
99050000.0    5.116431e-08
99100000.0    3.68015e-08
99150000.0    3.179838e-08
99200000.0    4.972805e-08
99250000.0    4.251984e-08
99300000.0    4.459418e-08
99350000.0    3.416075e-08
99400000.0    4.311249e-08
99450000.0    3.278526e-08
99500000.0    4.785154e-08
99550000.0    5.349709e-08
99600000.0    2.910243e-08
99650000.0    4.975607e-08
99700000.0    5.495665e-08
99750000.0    4.508109e-08
99800000.0    4.978348e-08
99850000.0    3.385779e-08
99900000.0    3.691881e-08
99950000.0    5.546295e-08
100000000.0    4.280241e-08
100050000.0    4.123504e-08
100100000.0    6.317508e-08
100150000.0    3.728237e-08
100200000.0    3.462419e-08
100250000.0    4.240026e-08
100300000.0    3.724011e-08
100350000.0    3.963597e-08
100400000.0    3.336083e-08
100450000.0    2.472326e-08
100500000.0    4.394143e-08
100550000.0    2.210665e-08
100600000.0    5.915711e-08
100650000.0    3.58476e-08
100700000.0    5.623918e-08
100750000.0    3.862352e-08
100800000.0    3.505348e-08
100850000.0    3.964221e-08
100900000.0    4.039266e-08
100950000.0    4.129631e-08
101000000.0    3.918548e-08
101050000.0    2.794575e-08
101100000.0    4.705526e-08
101150000.0    5.390523e-08
101200000.0    6.137559e-08
101250000.0    4.029707e-08
101300000.0    5.544538e-08
101350000.0    4.215631e-08
101400000.0    3.490941e-08
101450000.0    2.981174e-08
101500000.0    3.144211e-08
101550000.0    4.643307e-08
101600000.0    5.86917e-08
101650000.0    3.45905e-08
101700000.0    4.383873e-08
101750000.0    6.092895e-08
101800000.0    4.256144e-08
101850000.0    3.612874e-08
101900000.0    4.965043e-08
101950000.0    4.223668e-08
102000000.0    2.995121e-08
102050000.0    5.828892e-08
102100000.0    3.372011e-08
102150000.0    4.008023e-08
102200000.0    4.098491e-08
102250000.0    3.749518e-08
102300000.0    4.224047e-08
102350000.0    4.045656e-08
102400000.0    3.606031e-08
102450000.0    3.911374e-08
102500000.0    5.932466e-08
102550000.0    5.805156e-08
102600000.0    4.580933e-08
102650000.0    4.00662e-08
102700000.0    5.717195e-08
102750000.0    5.893906e-08
102800000.0    6.45796e-08
102850000.0    5.319252e-08
102900000.0    5.502745e-08
102950000.0    2.776617e-08
103000000.0    2.327959e-08
103050000.0    6.587701e-08
103100000.0    3.919097e-08
103150000.0    3.768955e-08
103200000.0    5.215094e-08
103250000.0    3.579488e-08
103300000.0    3.885415e-08
103350000.0    4.177189e-08
103400000.0    4.77225e-08
103450000.0    3.841664e-08
103500000.0    6.408215e-08
103550000.0    4.921714e-08
103600000.0    3.516664e-08
103650000.0    3.873567e-08
103700000.0    4.427017e-08
103750000.0    5.404135e-08
103800000.0    4.712206e-08
103850000.0    4.051262e-08
103900000.0    4.998225e-08
103950000.0    4.937515e-08
104000000.0    4.143194e-08
104050000.0    3.734228e-08
104100000.0    6.431055e-08
104150000.0    6.500755e-08
104200000.0    4.485653e-08
104250000.0    3.737093e-08
104300000.0    4.327839e-08
104350000.0    4.063239e-08
104400000.0    4.756358e-08
104450000.0    4.372716e-08
104500000.0    4.831607e-08
104550000.0    3.554304e-08
104600000.0    3.971438e-08
104650000.0    6.754596e-08
104700000.0    3.575566e-08
104750000.0    5.15127e-08
104800000.0    5.487047e-08
104850000.0    3.563394e-08
104900000.0    3.289559e-08
104950000.0    5.013518e-08
105000000.0    3.639e-08
105050000.0    4.288925e-08
105100000.0    5.125857e-08
105150000.0    5.00028e-08
105200000.0    2.905006e-08
105250000.0    3.783639e-08
105300000.0    5.045897e-08
105350000.0    5.381829e-08
105400000.0    3.22125e-08
105450000.0    5.788476e-08
105500000.0    5.175915e-08
105550000.0    3.575158e-08
105600000.0    2.904243e-08
105650000.0    3.979663e-08
105700000.0    4.179445e-08
105750000.0    4.211212e-08
105800000.0    7.125178e-08
105850000.0    4.952459e-08
105900000.0    4.89133e-08
105950000.0    3.968369e-08
106000000.0    3.958057e-08
106050000.0    3.585432e-08
106100000.0    5.964453e-08
106150000.0    3.049844e-08
106200000.0    3.553432e-08
106250000.0    4.569629e-08
106300000.0    3.644309e-08
106350000.0    3.699459e-08
106400000.0    5.856658e-08
106450000.0    3.407457e-08
106500000.0    6.059634e-08
106550000.0    5.217555e-08
106600000.0    6.797548e-08
106650000.0    4.991727e-08
106700000.0    2.185809e-08
106750000.0    6.73484e-08
106800000.0    2.844214e-08
106850000.0    4.739298e-08
106900000.0    6.103429e-08
106950000.0    3.98395e-08
107000000.0    2.549601e-08
107050000.0    3.635e-08
107100000.0    3.909214e-08
107150000.0    3.67385e-08
107200000.0    3.318532e-08
107250000.0    3.048593e-08
107300000.0    6.107674e-08
107350000.0    4.939187e-08
107400000.0    4.737544e-08
107450000.0    7.535877e-08
107500000.0    5.993343e-08
107550000.0    3.498411e-08
107600000.0    3.85395e-08
107650000.0    3.06293e-08
107700000.0    4.328977e-08
107750000.0    6.134839e-08
107800000.0    3.923179e-08
107850000.0    3.784259e-08
107900000.0    5.5064e-08
107950000.0    3.058797e-08
108000000.0    3.215635e-08
108050000.0    4.818891e-08
108100000.0    3.99173e-08
108150000.0    3.580931e-08
108200000.0    4.878318e-08
108250000.0    4.14378e-08
108300000.0    6.551752e-08
108350000.0    3.966804e-08
108400000.0    4.123012e-08
108450000.0    5.221361e-08
108500000.0    5.198247e-08
108550000.0    5.762364e-08
108600000.0    3.614516e-08
108650000.0    5.763354e-08
108700000.0    5.06687e-08
108750000.0    3.739714e-08
108800000.0    5.036624e-08
108850000.0    5.867038e-08
108900000.0    3.489583e-08
108950000.0    4.787934e-08
109000000.0    5.818546e-08
109050000.0    3.188811e-08
109100000.0    4.651179e-08
109150000.0    4.118515e-08
109200000.0    3.216821e-08
109250000.0    5.275149e-08
109300000.0    3.34177e-08
109350000.0    4.283276e-08
109400000.0    5.255644e-08
109450000.0    5.607139e-08
109500000.0    5.324454e-08
109550000.0    4.512821e-08
109600000.0    5.545257e-08
109650000.0    4.762957e-08
109700000.0    5.17386e-08
109750000.0    4.141038e-08
109800000.0    4.94973e-08
109850000.0    5.320929e-08
109900000.0    5.251324e-08
109950000.0    5.278505e-08
110000000.0    3.467615e-08
110050000.0    6.777758e-08
110100000.0    3.478716e-08
110150000.0    4.427438e-08
110200000.0    5.821561e-08
110250000.0    2.961983e-08
110300000.0    4.322452e-08
110350000.0    3.489057e-08
110400000.0    5.93044e-08
110450000.0    6.474154e-08
110500000.0    3.163984e-08
110550000.0    5.185694e-08
110600000.0    5.030972e-08
110650000.0    3.831739e-08
110700000.0    3.971563e-08
110750000.0    5.445636e-08
110800000.0    5.039304e-08
110850000.0    3.805954e-08
110900000.0    3.470019e-08
110950000.0    4.521601e-08
111000000.0    6.827079e-08
111050000.0    4.990618e-08
111100000.0    5.482888e-08
111150000.0    5.526278e-08
111200000.0    4.481308e-08
111250000.0    5.238784e-08
111300000.0    3.891379e-08
111350000.0    4.137844e-08
111400000.0    4.750411e-08
111450000.0    6.021328e-08
111500000.0    3.918192e-08
111550000.0    2.619683e-08
111600000.0    4.962641e-08
111650000.0    3.256525e-08
111700000.0    4.001495e-08
111750000.0    5.71099e-08
111800000.0    2.888461e-08
111850000.0    4.589366e-08
111900000.0    4.548492e-08
111950000.0    4.704772e-08
112000000.0    6.624951e-08
112050000.0    5.27643e-08
112100000.0    4.079655e-08
112150000.0    6.92014e-08
112200000.0    6.162225e-08
112250000.0    4.77825e-08
112300000.0    4.303263e-08
112350000.0    3.978612e-08
112400000.0    4.883395e-08
112450000.0    3.569697e-08
112500000.0    3.730372e-08
112550000.0    4.319568e-08
112600000.0    5.516592e-08
112650000.0    6.88459e-08
112700000.0    4.060779e-08
112750000.0    4.821157e-08
112800000.0    4.897502e-08
112850000.0    4.129313e-08
112900000.0    4.019814e-08
112950000.0    3.943276e-08
113000000.0    4.540575e-08
113050000.0    4.025615e-08
113100000.0    5.062175e-08
113150000.0    4.120193e-08
113200000.0    5.068529e-08
113250000.0    4.077691e-08
113300000.0    2.786397e-08
113350000.0    5.061032e-08
113400000.0    3.891453e-08
113450000.0    3.304207e-08
113500000.0    5.238364e-08
113550000.0    2.98089e-08
113600000.0    6.327162e-08
113650000.0    4.720375e-08
113700000.0    4.987847e-08
113750000.0    4.00458e-08
113800000.0    4.713521e-08
113850000.0    2.71735e-08
113900000.0    4.788258e-08
113950000.0    4.622437e-08
114000000.0    4.99045e-08
114050000.0    6.040487e-08
114100000.0    5.678542e-08
114150000.0    3.381324e-08
114200000.0    5.269157e-08
114250000.0    4.630636e-08
114300000.0    5.402142e-08
114350000.0    3.531607e-08
114400000.0    3.569103e-08
114450000.0    4.367626e-08
114500000.0    3.880039e-08
114550000.0    5.154249e-08
114600000.0    6.893488e-08
114650000.0    3.549996e-08
114700000.0    4.371742e-08
114750000.0    5.396439e-08
114800000.0    5.701937e-08
114850000.0    4.969441e-08
114900000.0    2.897884e-08
114950000.0    4.549823e-08
115000000.0    4.834783e-08
115050000.0    3.871456e-08
115100000.0    4.970665e-08
115150000.0    5.440333e-08
115200000.0    2.62528e-08
115250000.0    3.854936e-08
115300000.0    3.968511e-08
115350000.0    3.179872e-08
115400000.0    3.586392e-08
115450000.0    3.677492e-08
115500000.0    4.119702e-08
115550000.0    4.094779e-08
115600000.0    4.02341e-08
115650000.0    4.936406e-08
115700000.0    3.666936e-08
115750000.0    6.082107e-08
115800000.0    3.29091e-08
115850000.0    3.261168e-08
115900000.0    3.599648e-08
115950000.0    4.748158e-08
116000000.0    3.230183e-08
116050000.0    4.360972e-08
116100000.0    3.267347e-08
116150000.0    4.71788e-08
116200000.0    4.037208e-08
116250000.0    2.89666e-08
116300000.0    4.867777e-08
116350000.0    3.805292e-08
116400000.0    5.708052e-08
116450000.0    2.680498e-08
116500000.0    3.999808e-08
116550000.0    4.243361e-08
116600000.0    3.013363e-08
116650000.0    4.113547e-08
116700000.0    5.002977e-08
116750000.0    5.46885e-08
116800000.0    2.901767e-08
116850000.0    4.327921e-08
116900000.0    1.950209e-08
116950000.0    5.307949e-08
117000000.0    3.705892e-08
117050000.0    2.919362e-08
117100000.0    5.165187e-08
117150000.0    3.076381e-08
117200000.0    4.964878e-08
117250000.0    2.610634e-08
117300000.0    3.482862e-08
117350000.0    6.594058e-08
117400000.0    4.060501e-08
117450000.0    4.763603e-08
117500000.0    4.534001e-08
117550000.0    4.073404e-08
117600000.0    3.217561e-08
117650000.0    4.320147e-08
117700000.0    5.152464e-08
117750000.0    4.224488e-08
117800000.0    3.934623e-08
117850000.0    6.091388e-08
117900000.0    6.606814e-08
117950000.0    4.577216e-08
118000000.0    5.91963e-08
118050000.0    3.606326e-08
118100000.0    2.837021e-08
118150000.0    4.010107e-08
118200000.0    4.913485e-08
118250000.0    2.349574e-08
118300000.0    4.246062e-08
118350000.0    4.444336e-08
118400000.0    5.643658e-08
118450000.0    4.810294e-08
118500000.0    4.261331e-08
118550000.0    4.12214e-08
118600000.0    4.917813e-08
118650000.0    4.415238e-08
118700000.0    4.503556e-08
118750000.0    2.299637e-08
118800000.0    5.274366e-08
118850000.0    3.888415e-08
118900000.0    4.053839e-08
118950000.0    4.788401e-08
119000000.0    4.78614e-08
119050000.0    3.625266e-08
119100000.0    5.440177e-08
119150000.0    4.853722e-08
119200000.0    3.897984e-08
119250000.0    4.337442e-08
119300000.0    5.186833e-08
119350000.0    4.523843e-08
119400000.0    4.258098e-08
119450000.0    3.916814e-08
119500000.0    5.927212e-08
119550000.0    2.239018e-08
119600000.0    5.845213e-08
119650000.0    4.573308e-08
119700000.0    5.34104e-08
119750000.0    3.742448e-08
119800000.0    4.229381e-08
119850000.0    3.984619e-08
119900000.0    4.550379e-08
119950000.0    3.743081e-08
120000000.0    3.914681e-08
120050000.0    5.114631e-08
120100000.0    4.817214e-08
120150000.0    3.332269e-08
120200000.0    6.52813e-08
120250000.0    3.577017e-08
120300000.0    4.266236e-08
120350000.0    3.701474e-08
120400000.0    3.703416e-08
120450000.0    6.457686e-08
120500000.0    2.620819e-08
120550000.0    4.295363e-08
120600000.0    3.230568e-08
120650000.0    5.052574e-08
120700000.0    4.007433e-08
120750000.0    3.814475e-08
120800000.0    2.256961e-08
120850000.0    4.18509e-08
120900000.0    3.987298e-08
120950000.0    5.984706e-08
121000000.0    2.984844e-08
121050000.0    4.584787e-08
121100000.0    3.93416e-08
121150000.0    3.949912e-08
121200000.0    3.663915e-08
121250000.0    4.819377e-08
121300000.0    5.010712e-08
121350000.0    4.692458e-08
121400000.0    4.732129e-08
121450000.0    3.962021e-08
121500000.0    4.083847e-08
121550000.0    4.163788e-08
121600000.0    3.777815e-08
121650000.0    2.047089e-08
121700000.0    3.408038e-08
121750000.0    3.423775e-08
121800000.0    4.758484e-08
121850000.0    2.53564e-08
121900000.0    3.534982e-08
121950000.0    4.655017e-08
122000000.0    4.354015e-08
122050000.0    2.281461e-08
122100000.0    3.567105e-08
122150000.0    4.414959e-08
122200000.0    3.699104e-08
122250000.0    3.368855e-08
122300000.0    4.062867e-08
122350000.0    4.906861e-08
122400000.0    5.964986e-08
122450000.0    5.016849e-08
122500000.0    4.474851e-08
122550000.0    2.106351e-08
122600000.0    5.746494e-08
122650000.0    5.712618e-08
122700000.0    3.500305e-08
122750000.0    5.380502e-08
122800000.0    7.031404e-08
122850000.0    3.320695e-08
122900000.0    4.096211e-08
122950000.0    4.551346e-08
123000000.0    5.253726e-08
123050000.0    3.158342e-08
123100000.0    4.892647e-08
123150000.0    4.376756e-08
123200000.0    3.997652e-08
123250000.0    4.307101e-08
123300000.0    3.638977e-08
123350000.0    3.983553e-08
123400000.0    2.158225e-08
123450000.0    4.174479e-08
123500000.0    5.477504e-08
123550000.0    4.346522e-08
123600000.0    3.818718e-08
123650000.0    5.8084e-08
123700000.0    3.43551e-08
123750000.0    3.265046e-08
123800000.0    5.652603e-08
123850000.0    4.494357e-08
123900000.0    5.174496e-08
123950000.0    3.796672e-08
124000000.0    4.71384e-08
124050000.0    4.890835e-08
124100000.0    5.276332e-08
124150000.0    4.595346e-08
124200000.0    5.273991e-08
124250000.0    4.058106e-08
124300000.0    4.126775e-08
124350000.0    4.552682e-08
124400000.0    2.880251e-08
124450000.0    3.178983e-08
124500000.0    5.660197e-08
124550000.0    3.871926e-08
124600000.0    4.57185e-08
124650000.0    3.128191e-08
124700000.0    4.970862e-08
124750000.0    4.551217e-08
124800000.0    4.850334e-08
124850000.0    5.140562e-08
124900000.0    5.652557e-08
124950000.0    6.534553e-08
125000000.0    3.304844e-08
125050000.0    5.693053e-08
125100000.0    5.434472e-08
125150000.0    4.989365e-08
125200000.0    5.308247e-08
125250000.0    4.394533e-08
125300000.0    3.155569e-08
125350000.0    2.756187e-08
125400000.0    4.734548e-08
125450000.0    3.102062e-08
125500000.0    3.983066e-08
125550000.0    3.157428e-08
125600000.0    3.882052e-08
125650000.0    4.007843e-08
125700000.0    6.573254e-08
125750000.0    5.700558e-08
125800000.0    3.719543e-08
125850000.0    5.189358e-08
125900000.0    3.461131e-08
125950000.0    3.414741e-08
126000000.0    5.191099e-08
126050000.0    2.873067e-08
126100000.0    3.679902e-08
126150000.0    4.38822e-08
126200000.0    5.167641e-08
126250000.0    5.333209e-08
126300000.0    3.897889e-08
126350000.0    5.081875e-08
126400000.0    4.280855e-08
126450000.0    5.399847e-08
126500000.0    4.081714e-08
126550000.0    4.983367e-08
126600000.0    4.74711e-08
126650000.0    4.530435e-08
126700000.0    5.769991e-08
126750000.0    4.283376e-08
126800000.0    4.628335e-08
126850000.0    6.885744e-08
126900000.0    2.981638e-08
126950000.0    4.824578e-08
127000000.0    4.310707e-08
127050000.0    4.236897e-08
127100000.0    4.696856e-08
127150000.0    4.126794e-08
127200000.0    4.893648e-08
127250000.0    4.77189e-08
127300000.0    4.958937e-08
127350000.0    3.70196e-08
127400000.0    3.654571e-08
127450000.0    4.308227e-08
127500000.0    2.883067e-08
127550000.0    3.910197e-08
127600000.0    3.535826e-08
127650000.0    5.481087e-08
127700000.0    4.006074e-08
127750000.0    3.800564e-08
127800000.0    3.817267e-08
127850000.0    5.105296e-08
127900000.0    5.020204e-08
127950000.0    4.799282e-08
128000000.0    2.483206e-08
128050000.0    6.479574e-08
128100000.0    3.83619e-08
128150000.0    3.272725e-08
128200000.0    4.991755e-08
128250000.0    3.769475e-08
128300000.0    4.391995e-08
128350000.0    3.087716e-08
128400000.0    4.592547e-08
128450000.0    5.230621e-08
128500000.0    4.20532e-08
128550000.0    3.724517e-08
128600000.0    5.987608e-08
128650000.0    3.825565e-08
128700000.0    4.111769e-08
128750000.0    4.445948e-08
128800000.0    5.452629e-08
128850000.0    6.045151e-08
128900000.0    3.147318e-08
128950000.0    5.849897e-08
129000000.0    4.221124e-08
129050000.0    4.076385e-08
129100000.0    4.84841e-08
129150000.0    3.955557e-08
129200000.0    3.479514e-08
129250000.0    4.655291e-08
129300000.0    4.337945e-08
129350000.0    3.17294e-08
129400000.0    2.389985e-08
129450000.0    4.691283e-08
129500000.0    4.215324e-08
129550000.0    4.48919e-08
129600000.0    2.891001e-08
129650000.0    3.85412e-08
129700000.0    4.76816e-08
129750000.0    4.657513e-08
129800000.0    2.583043e-08
129850000.0    2.703134e-08
129900000.0    5.432952e-08
129950000.0    4.992971e-08
130000000.0    2.930477e-08
