# AG4395A Measurement - Timestamp: Nov 02 2017 - 23:07:33
# Parameter File: SP_AG_R_Beatnote_95_to_125MHz.yml
#---------- Measurement Parameters ------------
# Start Frequency (Hz): 90000000.0
# Stop Frequency (Hz): 130000000.0
# Frequency Points: 801
# Measurement Format: NOISE
# Measuremed Input: R
#---------- Analyzer Settings ----------
# Number of Averages: 5
# Auto Bandwidth: On
# IF Bandwidth: 3000.0
# Input Attenuators (R,A,B): 0dB 20dB 20dB 
# Units: V/rtHz
#---------- Measurement Data ----------
# [Freq(Hz) Chan 1 ]
90000000.0    3.6423e-08
90050000.0    3.117407e-08
90100000.0    4.125361e-08
90150000.0    3.63854e-08
90200000.0    3.751426e-08
90250000.0    4.869752e-08
90300000.0    4.323915e-08
90350000.0    3.545034e-08
90400000.0    3.422952e-08
90450000.0    4.143251e-08
90500000.0    4.624043e-08
90550000.0    2.728804e-08
90600000.0    3.979135e-08
90650000.0    2.669792e-08
90700000.0    3.160671e-08
90750000.0    4.712089e-08
90800000.0    2.653791e-08
90850000.0    1.610957e-08
90900000.0    3.458586e-08
90950000.0    4.047538e-08
91000000.0    3.503715e-08
91050000.0    3.127495e-08
91100000.0    3.348685e-08
91150000.0    4.161422e-08
91200000.0    2.887336e-08
91250000.0    2.74349e-08
91300000.0    4.555346e-08
91350000.0    4.147989e-08
91400000.0    5.011105e-08
91450000.0    3.525262e-08
91500000.0    4.277042e-08
91550000.0    7.16502e-08
91600000.0    4.060746e-08
91650000.0    4.507668e-08
91700000.0    4.125879e-08
91750000.0    3.472033e-08
91800000.0    4.067633e-08
91850000.0    3.911403e-08
91900000.0    4.033011e-08
91950000.0    3.009178e-08
92000000.0    3.698644e-08
92050000.0    4.321969e-08
92100000.0    3.404251e-08
92150000.0    3.737328e-08
92200000.0    3.968108e-08
92250000.0    4.388547e-08
92300000.0    3.651186e-08
92350000.0    3.66746e-08
92400000.0    3.802938e-08
92450000.0    3.416536e-08
92500000.0    5.013325e-08
92550000.0    1.898061e-08
92600000.0    3.379227e-08
92650000.0    3.192322e-08
92700000.0    4.7407e-08
92750000.0    4.734608e-08
92800000.0    4.873993e-08
92850000.0    4.750962e-08
92900000.0    4.892952e-08
92950000.0    2.317319e-08
93000000.0    2.190854e-08
93050000.0    4.113873e-08
93100000.0    3.308737e-08
93150000.0    5.314866e-08
93200000.0    4.739981e-08
93250000.0    3.348415e-08
93300000.0    3.084444e-08
93350000.0    3.761935e-08
93400000.0    3.647425e-08
93450000.0    4.420922e-08
93500000.0    4.896603e-08
93550000.0    4.877319e-08
93600000.0    4.51587e-08
93650000.0    4.422979e-08
93700000.0    5.244144e-08
93750000.0    5.861419e-08
93800000.0    4.732692e-08
93850000.0    4.034705e-08
93900000.0    4.011872e-08
93950000.0    3.671823e-08
94000000.0    4.798301e-08
94050000.0    4.967678e-08
94100000.0    2.278287e-08
94150000.0    4.195376e-08
94200000.0    4.900552e-08
94250000.0    2.868595e-08
94300000.0    3.837724e-08
94350000.0    4.210955e-08
94400000.0    4.084415e-08
94450000.0    3.793372e-08
94500000.0    3.330252e-08
94550000.0    2.176547e-08
94600000.0    5.378687e-08
94650000.0    4.73903e-08
94700000.0    2.763479e-08
94750000.0    3.351179e-08
94800000.0    4.139156e-08
94850000.0    4.218502e-08
94900000.0    2.545961e-08
94950000.0    4.714474e-08
95000000.0    4.407548e-08
95050000.0    4.149355e-08
95100000.0    3.761301e-08
95150000.0    3.5306e-08
95200000.0    2.956651e-08
95250000.0    4.523736e-08
95300000.0    4.070846e-08
95350000.0    3.426063e-08
95400000.0    2.661938e-08
95450000.0    2.437877e-08
95500000.0    3.178382e-08
95550000.0    3.30954e-08
95600000.0    4.078243e-08
95650000.0    2.804283e-08
95700000.0    3.891074e-08
95750000.0    4.756038e-08
95800000.0    4.032924e-08
95850000.0    3.208658e-08
95900000.0    1.975294e-08
95950000.0    4.267682e-08
96000000.0    3.685293e-08
96050000.0    3.585584e-08
96100000.0    2.422074e-08
96150000.0    4.831154e-08
96200000.0    4.652583e-08
96250000.0    3.206535e-08
96300000.0    4.986418e-08
96350000.0    3.544781e-08
96400000.0    3.445165e-08
96450000.0    5.69658e-08
96500000.0    3.321599e-08
96550000.0    3.93601e-08
96600000.0    2.643462e-08
96650000.0    2.509873e-08
96700000.0    2.072525e-08
96750000.0    3.49264e-08
96800000.0    3.576908e-08
96850000.0    3.90741e-08
96900000.0    4.187437e-08
96950000.0    3.820958e-08
97000000.0    6.088592e-08
97050000.0    3.605209e-08
97100000.0    3.897538e-08
97150000.0    4.540511e-08
97200000.0    3.309622e-08
97250000.0    6.062243e-08
97300000.0    4.689254e-08
97350000.0    5.323432e-08
97400000.0    3.179126e-08
97450000.0    2.995055e-08
97500000.0    4.285013e-08
97550000.0    4.290207e-08
97600000.0    2.610357e-08
97650000.0    4.26152e-08
97700000.0    4.837188e-08
97750000.0    2.98701e-08
97800000.0    3.848453e-08
97850000.0    3.29474e-08
97900000.0    4.971117e-08
97950000.0    4.752026e-08
98000000.0    5.803229e-08
98050000.0    4.234003e-08
98100000.0    4.325982e-08
98150000.0    2.983168e-08
98200000.0    4.787562e-08
98250000.0    4.944356e-08
98300000.0    2.601737e-08
98350000.0    3.630773e-08
98400000.0    2.92253e-08
98450000.0    2.705365e-08
98500000.0    5.722579e-08
98550000.0    3.753551e-08
98600000.0    2.726228e-08
98650000.0    4.983885e-08
98700000.0    2.716033e-08
98750000.0    3.308323e-08
98800000.0    5.00446e-08
98850000.0    4.388204e-08
98900000.0    4.251346e-08
98950000.0    3.27688e-08
99000000.0    3.438158e-08
99050000.0    5.106054e-08
99100000.0    3.543931e-08
99150000.0    4.129688e-08
99200000.0    5.820304e-08
99250000.0    4.018792e-08
99300000.0    5.231818e-08
99350000.0    4.358749e-08
99400000.0    3.433261e-08
99450000.0    3.808178e-08
99500000.0    4.838753e-08
99550000.0    3.079331e-08
99600000.0    4.603178e-08
99650000.0    5.414453e-08
99700000.0    4.106601e-08
99750000.0    4.308876e-08
99800000.0    3.138884e-08
99850000.0    4.541772e-08
99900000.0    4.247898e-08
99950000.0    2.589399e-08
100000000.0    4.541433e-08
100050000.0    3.794167e-08
100100000.0    5.166392e-08
100150000.0    2.625947e-08
100200000.0    3.802906e-08
100250000.0    3.805711e-08
100300000.0    5.268196e-08
100350000.0    4.081517e-08
100400000.0    3.093981e-08
100450000.0    3.566744e-08
100500000.0    4.573452e-08
100550000.0    5.471645e-08
100600000.0    2.927268e-08
100650000.0    4.014562e-08
100700000.0    3.10021e-08
100750000.0    4.694368e-08
100800000.0    3.625361e-08
100850000.0    4.991639e-08
100900000.0    4.110077e-08
100950000.0    3.937151e-08
101000000.0    3.600435e-08
101050000.0    4.213777e-08
101100000.0    3.737898e-08
101150000.0    3.541021e-08
101200000.0    3.481303e-08
101250000.0    3.295118e-08
101300000.0    4.607032e-08
101350000.0    6.315332e-08
101400000.0    4.767492e-08
101450000.0    5.7533e-08
101500000.0    4.304992e-08
101550000.0    4.323459e-08
101600000.0    3.650905e-08
101650000.0    5.885104e-08
101700000.0    4.086529e-08
101750000.0    6.659129e-08
101800000.0    3.663146e-08
101850000.0    4.20324e-08
101900000.0    5.091261e-08
101950000.0    4.298551e-08
102000000.0    5.036066e-08
102050000.0    5.262086e-08
102100000.0    4.227389e-08
102150000.0    3.659408e-08
102200000.0    3.663753e-08
102250000.0    4.26585e-08
102300000.0    3.48625e-08
102350000.0    2.899307e-08
102400000.0    3.481747e-08
102450000.0    3.726283e-08
102500000.0    3.43248e-08
102550000.0    2.677307e-08
102600000.0    4.288592e-08
102650000.0    3.946407e-08
102700000.0    4.273554e-08
102750000.0    4.537303e-08
102800000.0    3.80991e-08
102850000.0    3.616188e-08
102900000.0    2.584047e-08
102950000.0    2.926144e-08
103000000.0    5.100893e-08
103050000.0    4.874393e-08
103100000.0    5.146637e-08
103150000.0    4.208931e-08
103200000.0    5.454452e-08
103250000.0    4.297849e-08
103300000.0    5.000079e-08
103350000.0    3.802105e-08
103400000.0    5.878638e-08
103450000.0    4.975396e-08
103500000.0    5.012216e-08
103550000.0    4.277835e-08
103600000.0    5.481253e-08
103650000.0    3.595726e-08
103700000.0    3.516936e-08
103750000.0    4.646714e-08
103800000.0    5.78299e-08
103850000.0    3.562381e-08
103900000.0    4.977197e-08
103950000.0    4.378526e-08
104000000.0    2.929875e-08
104050000.0    5.76984e-08
104100000.0    4.914248e-08
104150000.0    3.509435e-08
104200000.0    3.297806e-08
104250000.0    6.47139e-08
104300000.0    3.092434e-08
104350000.0    4.784335e-08
104400000.0    4.677727e-08
104450000.0    3.902878e-08
104500000.0    2.71165e-08
104550000.0    3.267876e-08
104600000.0    4.200983e-08
104650000.0    6.190116e-08
104700000.0    3.771825e-08
104750000.0    5.139689e-08
104800000.0    5.30842e-08
104850000.0    5.112953e-08
104900000.0    5.345109e-08
104950000.0    4.235177e-08
105000000.0    4.889555e-08
105050000.0    3.658475e-08
105100000.0    2.810626e-08
105150000.0    3.425189e-08
105200000.0    4.088671e-08
105250000.0    4.070548e-08
105300000.0    5.814344e-08
105350000.0    5.059177e-08
105400000.0    5.484047e-08
105450000.0    3.828516e-08
105500000.0    3.048573e-08
105550000.0    4.244565e-08
105600000.0    6.681634e-08
105650000.0    4.057267e-08
105700000.0    4.136121e-08
105750000.0    6.582225e-08
105800000.0    4.389148e-08
105850000.0    4.116993e-08
105900000.0    3.178379e-08
105950000.0    3.090449e-08
106000000.0    3.417929e-08
106050000.0    3.748929e-08
106100000.0    5.076711e-08
106150000.0    5.66573e-08
106200000.0    5.569551e-08
106250000.0    4.299771e-08
106300000.0    5.60083e-08
106350000.0    3.282605e-08
106400000.0    3.979944e-08
106450000.0    3.915144e-08
106500000.0    4.286619e-08
106550000.0    3.922833e-08
106600000.0    3.306858e-08
106650000.0    4.893408e-08
106700000.0    2.740496e-08
106750000.0    3.172469e-08
106800000.0    5.241916e-08
106850000.0    5.348332e-08
106900000.0    4.461879e-08
106950000.0    4.749767e-08
107000000.0    3.143913e-08
107050000.0    4.169715e-08
107100000.0    5.34155e-08
107150000.0    4.290409e-08
107200000.0    3.920744e-08
107250000.0    4.351439e-08
107300000.0    2.365023e-08
107350000.0    5.026937e-08
107400000.0    5.48261e-08
107450000.0    4.631547e-08
107500000.0    5.885164e-08
107550000.0    4.412633e-08
107600000.0    5.41087e-08
107650000.0    3.346748e-08
107700000.0    3.559519e-08
107750000.0    5.67759e-08
107800000.0    2.441506e-08
107850000.0    3.740329e-08
107900000.0    4.866119e-08
107950000.0    4.891388e-08
108000000.0    4.402762e-08
108050000.0    4.792496e-08
108100000.0    6.388906e-08
108150000.0    3.143279e-08
108200000.0    4.333561e-08
108250000.0    4.39015e-08
108300000.0    5.5847e-08
108350000.0    5.530122e-08
108400000.0    4.303543e-08
108450000.0    4.173768e-08
108500000.0    2.942983e-08
108550000.0    4.505211e-08
108600000.0    3.133906e-08
108650000.0    3.260207e-08
108700000.0    3.625118e-08
108750000.0    4.425848e-08
108800000.0    3.951329e-08
108850000.0    5.466788e-08
108900000.0    6.177149e-08
108950000.0    3.718483e-08
109000000.0    4.271926e-08
109050000.0    5.770012e-08
109100000.0    5.909237e-08
109150000.0    4.189324e-08
109200000.0    5.803929e-08
109250000.0    4.524672e-08
109300000.0    3.367823e-08
109350000.0    5.185206e-08
109400000.0    4.277175e-08
109450000.0    5.343802e-08
109500000.0    4.20645e-08
109550000.0    4.42092e-08
109600000.0    5.656865e-08
109650000.0    5.302446e-08
109700000.0    2.573332e-08
109750000.0    4.860435e-08
109800000.0    4.26644e-08
109850000.0    4.41195e-08
109900000.0    5.996409e-08
109950000.0    5.812467e-08
110000000.0    3.762724e-08
110050000.0    3.333808e-08
110100000.0    5.053731e-08
110150000.0    5.056012e-08
110200000.0    4.175634e-08
110250000.0    3.999178e-08
110300000.0    3.955249e-08
110350000.0    6.97439e-08
110400000.0    4.708558e-08
110450000.0    4.497979e-08
110500000.0    6.154301e-08
110550000.0    3.306516e-08
110600000.0    4.227439e-08
110650000.0    5.217695e-08
110700000.0    5.754019e-08
110750000.0    5.098972e-08
110800000.0    3.577505e-08
110850000.0    5.242408e-08
110900000.0    5.071288e-08
110950000.0    3.356167e-08
111000000.0    5.667807e-08
111050000.0    6.262734e-08
111100000.0    4.887845e-08
111150000.0    3.375065e-08
111200000.0    3.474004e-08
111250000.0    3.874181e-08
111300000.0    5.286558e-08
111350000.0    4.020112e-08
111400000.0    6.0255e-08
111450000.0    5.132484e-08
111500000.0    3.661776e-08
111550000.0    5.606572e-08
111600000.0    6.457601e-08
111650000.0    3.829115e-08
111700000.0    4.585284e-08
111750000.0    3.841256e-08
111800000.0    2.757636e-08
111850000.0    5.987529e-08
111900000.0    4.907917e-08
111950000.0    3.989927e-08
112000000.0    4.8511e-08
112050000.0    3.858176e-08
112100000.0    3.723229e-08
112150000.0    8.041633e-08
112200000.0    4.826705e-08
112250000.0    4.866418e-08
112300000.0    4.681517e-08
112350000.0    4.026492e-08
112400000.0    3.863368e-08
112450000.0    3.681078e-08
112500000.0    3.865666e-08
112550000.0    3.726283e-08
112600000.0    5.309833e-08
112650000.0    3.619797e-08
112700000.0    3.601898e-08
112750000.0    4.034548e-08
112800000.0    5.610508e-08
112850000.0    4.219005e-08
112900000.0    4.090256e-08
112950000.0    5.326315e-08
113000000.0    5.00838e-08
113050000.0    3.97968e-08
113100000.0    3.996848e-08
113150000.0    5.538341e-08
113200000.0    4.561135e-08
113250000.0    5.024033e-08
113300000.0    3.940737e-08
113350000.0    3.59581e-08
113400000.0    4.520331e-08
113450000.0    5.791496e-08
113500000.0    6.325342e-08
113550000.0    2.74022e-08
113600000.0    5.702169e-08
113650000.0    6.157139e-08
113700000.0    5.200594e-08
113750000.0    3.172407e-08
113800000.0    3.996233e-08
113850000.0    4.53867e-08
113900000.0    4.699838e-08
113950000.0    4.002007e-08
114000000.0    4.604009e-08
114050000.0    4.592711e-08
114100000.0    3.684161e-08
114150000.0    4.72809e-08
114200000.0    4.827261e-08
114250000.0    3.745822e-08
114300000.0    3.632024e-08
114350000.0    3.348818e-08
114400000.0    5.961837e-08
114450000.0    5.762673e-08
114500000.0    6.503019e-08
114550000.0    2.910089e-08
114600000.0    5.986703e-08
114650000.0    4.391253e-08
114700000.0    2.954509e-08
114750000.0    4.789582e-08
114800000.0    4.761827e-08
114850000.0    4.132871e-08
114900000.0    4.799618e-08
114950000.0    2.842786e-08
115000000.0    4.81076e-08
115050000.0    5.513875e-08
115100000.0    6.532012e-08
115150000.0    4.705667e-08
115200000.0    3.431525e-08
115250000.0    5.903345e-08
115300000.0    4.057838e-08
115350000.0    5.379061e-08
115400000.0    6.881599e-08
115450000.0    4.722314e-08
115500000.0    3.809889e-08
115550000.0    4.111982e-08
115600000.0    5.372886e-08
115650000.0    6.195195e-08
115700000.0    2.11185e-08
115750000.0    3.893616e-08
115800000.0    4.254441e-08
115850000.0    3.021069e-08
115900000.0    4.163737e-08
115950000.0    3.37178e-08
116000000.0    4.190399e-08
116050000.0    5.334081e-08
116100000.0    4.853283e-08
116150000.0    3.758363e-08
116200000.0    4.45232e-08
116250000.0    4.928625e-08
116300000.0    5.700735e-08
116350000.0    3.625504e-08
116400000.0    4.948716e-08
116450000.0    4.434977e-08
116500000.0    3.831685e-08
116550000.0    4.834234e-08
116600000.0    3.561219e-08
116650000.0    4.641409e-08
116700000.0    2.931784e-08
116750000.0    3.178204e-08
116800000.0    3.807264e-08
116850000.0    4.042818e-08
116900000.0    4.756066e-08
116950000.0    4.221102e-08
117000000.0    3.161784e-08
117050000.0    4.2892e-08
117100000.0    2.733935e-08
117150000.0    5.037387e-08
117200000.0    4.294404e-08
117250000.0    5.569127e-08
117300000.0    3.547327e-08
117350000.0    5.144063e-08
117400000.0    3.745627e-08
117450000.0    3.932781e-08
117500000.0    3.364666e-08
117550000.0    2.499226e-08
117600000.0    5.104836e-08
117650000.0    5.526252e-08
117700000.0    2.730695e-08
117750000.0    2.523438e-08
117800000.0    4.878222e-08
117850000.0    7.208511e-08
117900000.0    3.178955e-08
117950000.0    4.128484e-08
118000000.0    4.908377e-08
118050000.0    3.694479e-08
118100000.0    4.680003e-08
118150000.0    3.814549e-08
118200000.0    4.314619e-08
118250000.0    4.503017e-08
118300000.0    5.341601e-08
118350000.0    3.419647e-08
118400000.0    5.725408e-08
118450000.0    4.047005e-08
118500000.0    4.063877e-08
118550000.0    5.296575e-08
118600000.0    4.522614e-08
118650000.0    5.675973e-08
118700000.0    4.405669e-08
118750000.0    4.904437e-08
118800000.0    4.403638e-08
118850000.0    4.708281e-08
118900000.0    7.001414e-08
118950000.0    6.100549e-08
119000000.0    7.810833e-08
119050000.0    6.224663e-08
119100000.0    1.299951e-07
119150000.0    1.887967e-07
119200000.0    5.536244e-07
119250000.0    6.696941e-07
119300000.0    3.062399e-06
119350000.0    7.098419e-06
119400000.0    4.983515e-06
119450000.0    5.645572e-06
119500000.0    1.036834e-06
119550000.0    4.686563e-07
119600000.0    4.037671e-07
119650000.0    1.769222e-07
119700000.0    1.195779e-07
119750000.0    7.690596e-08
119800000.0    6.22835e-08
119850000.0    6.348058e-08
119900000.0    5.154829e-08
119950000.0    4.280836e-08
120000000.0    3.399537e-08
120050000.0    4.525223e-08
120100000.0    3.884388e-08
120150000.0    5.076611e-08
120200000.0    4.505062e-08
120250000.0    4.765824e-08
120300000.0    5.341232e-08
120350000.0    1.249151e-07
120400000.0    7.855566e-07
120450000.0    6.866166e-07
120500000.0    5.598773e-07
120550000.0    2.150311e-07
120600000.0    1.087544e-07
120650000.0    7.576801e-08
120700000.0    4.5991e-08
120750000.0    3.557332e-08
120800000.0    4.671883e-08
120850000.0    4.243288e-08
120900000.0    5.180203e-08
120950000.0    5.62226e-08
121000000.0    3.440669e-08
121050000.0    4.295654e-08
121100000.0    4.999813e-08
121150000.0    3.175775e-08
121200000.0    6.384447e-08
121250000.0    4.249359e-08
121300000.0    5.16795e-08
121350000.0    5.816756e-08
121400000.0    4.811742e-08
121450000.0    4.084624e-08
121500000.0    4.994899e-08
121550000.0    3.811015e-08
121600000.0    4.711856e-08
121650000.0    4.539685e-08
121700000.0    3.273867e-08
121750000.0    3.701339e-08
121800000.0    4.238774e-08
121850000.0    2.50547e-08
121900000.0    6.161742e-08
121950000.0    4.311036e-08
122000000.0    2.159194e-08
122050000.0    7.204119e-08
122100000.0    7.240167e-08
122150000.0    5.338851e-08
122200000.0    6.778826e-08
122250000.0    4.162328e-08
122300000.0    3.700648e-08
122350000.0    2.307693e-08
122400000.0    3.098385e-08
122450000.0    5.427024e-08
122500000.0    2.940904e-08
122550000.0    4.434971e-08
122600000.0    4.286564e-08
122650000.0    2.790045e-08
122700000.0    3.501146e-08
122750000.0    5.059893e-08
122800000.0    5.048864e-08
122850000.0    6.078545e-08
122900000.0    5.978551e-08
122950000.0    4.347692e-08
123000000.0    5.170246e-08
123050000.0    5.950575e-08
123100000.0    3.996332e-08
123150000.0    4.912946e-08
123200000.0    3.671424e-08
123250000.0    5.148724e-08
123300000.0    4.452194e-08
123350000.0    2.886114e-08
123400000.0    5.076503e-08
123450000.0    4.245207e-08
123500000.0    3.160222e-08
123550000.0    5.125777e-08
123600000.0    4.444042e-08
123650000.0    4.849002e-08
123700000.0    5.639193e-08
123750000.0    4.241661e-08
123800000.0    5.286974e-08
123850000.0    2.903822e-08
123900000.0    3.777275e-08
123950000.0    3.503094e-08
124000000.0    3.861243e-08
124050000.0    4.096408e-08
124100000.0    2.516919e-08
124150000.0    3.784098e-08
124200000.0    5.250069e-08
124250000.0    4.656033e-08
124300000.0    4.227413e-08
124350000.0    7.032274e-08
124400000.0    6.670987e-08
124450000.0    4.993528e-08
124500000.0    4.805655e-08
124550000.0    2.958031e-08
124600000.0    3.524556e-08
124650000.0    2.981183e-08
124700000.0    2.48777e-08
124750000.0    4.893492e-08
124800000.0    4.488269e-08
124850000.0    4.139264e-08
124900000.0    3.661287e-08
124950000.0    3.958608e-08
125000000.0    3.487046e-08
125050000.0    6.138618e-08
125100000.0    3.965863e-08
125150000.0    3.127847e-08
125200000.0    2.605719e-08
125250000.0    4.998583e-08
125300000.0    3.940304e-08
125350000.0    4.331576e-08
125400000.0    4.740899e-08
125450000.0    4.140851e-08
125500000.0    3.639642e-08
125550000.0    4.235723e-08
125600000.0    4.459668e-08
125650000.0    4.101556e-08
125700000.0    3.162424e-08
125750000.0    4.044099e-08
125800000.0    3.441613e-08
125850000.0    5.041786e-08
125900000.0    2.660641e-08
125950000.0    4.126994e-08
126000000.0    3.704858e-08
126050000.0    3.651771e-08
126100000.0    5.471128e-08
126150000.0    6.354141e-08
126200000.0    3.753399e-08
126250000.0    3.270143e-08
126300000.0    6.061249e-08
126350000.0    4.352376e-08
126400000.0    3.999357e-08
126450000.0    4.99583e-08
126500000.0    3.300278e-08
126550000.0    5.723713e-08
126600000.0    3.958507e-08
126650000.0    4.525717e-08
126700000.0    4.917262e-08
126750000.0    6.740722e-08
126800000.0    5.273273e-08
126850000.0    3.481278e-08
126900000.0    3.696849e-08
126950000.0    4.450278e-08
127000000.0    3.40554e-08
127050000.0    3.712431e-08
127100000.0    4.131554e-08
127150000.0    3.7367e-08
127200000.0    4.95307e-08
127250000.0    3.710304e-08
127300000.0    5.179678e-08
127350000.0    4.373856e-08
127400000.0    2.492484e-08
127450000.0    3.285868e-08
127500000.0    4.634147e-08
127550000.0    5.403446e-08
127600000.0    4.535644e-08
127650000.0    5.211713e-08
127700000.0    3.97833e-08
127750000.0    3.617058e-08
127800000.0    5.21674e-08
127850000.0    6.203238e-08
127900000.0    5.114179e-08
127950000.0    6.112727e-08
128000000.0    2.873793e-08
128050000.0    3.336951e-08
128100000.0    6.595255e-08
128150000.0    3.604546e-08
128200000.0    5.66653e-08
128250000.0    3.222751e-08
128300000.0    6.198852e-08
128350000.0    3.362836e-08
128400000.0    3.656552e-08
128450000.0    5.16289e-08
128500000.0    2.393339e-08
128550000.0    6.45319e-08
128600000.0    3.609331e-08
128650000.0    3.469256e-08
128700000.0    4.100302e-08
128750000.0    4.145324e-08
128800000.0    5.021707e-08
128850000.0    4.63753e-08
128900000.0    3.915487e-08
128950000.0    4.426218e-08
129000000.0    4.411433e-08
129050000.0    3.962156e-08
129100000.0    4.511467e-08
129150000.0    3.940256e-08
129200000.0    3.67318e-08
129250000.0    3.484432e-08
129300000.0    3.173001e-08
129350000.0    3.575351e-08
129400000.0    4.519836e-08
129450000.0    3.765941e-08
129500000.0    2.278811e-08
129550000.0    3.724556e-08
129600000.0    5.337245e-08
129650000.0    3.368007e-08
129700000.0    3.353064e-08
129750000.0    5.3518e-08
129800000.0    4.795719e-08
129850000.0    4.463121e-08
129900000.0    3.932992e-08
129950000.0    4.626096e-08
130000000.0    5.073077e-08
