# AG4395A Measurement - Timestamp: Sep 05 2017 - 01:47:12
# Parameter File: TF_AG_OUT2_over_EXC.yml
#---------- Measurement Parameters ------------
# Start Frequency (Hz): 100.0, 100.0
# Stop Frequency (Hz): 10000000.0, 10000000.0
# Frequency Points: 801, 801
# Measurement Format: LINM, PHAS
# Measuremed Input: BR, BR
#---------- Analyzer Settings ----------
# Number of Averages: 1
# Auto Bandwidth: Off, Off
# IF Bandwidth: 100.0, 100.0
# Input Attenuators (R,A,B): 20dB 20dB 20dB 
# Excitation amplitude = -21.0dBm
#---------- Measurement Data ----------
# [Freq(Hz) Chan 1 Chan 2 ]
100.0    1.101683    36.94869
101.668    1.250031    33.06413
103.335    1.099413    -0.8159943
105.003    1.146689    -4.522975
106.67    1.189055    -38.19095
108.338    1.10607    -39.20682
110.006    1.230183    -72.01079
111.673    1.17657    -79.24259
113.341    1.245224    -104.9966
115.008    1.064566    -117.9616
116.676    1.220415    -135.6224
118.344    1.11187    -149.3547
120.011    1.181501    -174.5038
121.679    1.078491    175.0204
123.346    1.240544    149.65
125.014    1.065964    144.8776
126.682    1.263222    121.6294
128.349    0.9463882    91.03631
130.017    1.179201    90.4771
131.684    1.066226    51.84996
133.352    1.168327    65.9755
135.285    1.747972    23.96564
137.524    0.781081    -13.22773
139.763    1.734519    2.364877
142.002    1.560144    -84.43314
144.241    1.115271    5.37514
146.481    6.145103    -174.8396
148.72    10.45536    -17.25428
150.959    4.711999    71.29053
153.198    2.943117    -113.2962
155.437    2.992432    101.4797
157.676    1.518298    -128.9079
159.915    2.808454    107.1313
162.154    0.6973988    -44.4808
164.393    2.637247    109.5347
166.632    1.315392    -16.44704
168.872    2.867169    87.45442
171.111    2.844434    -30.63759
173.35    1.1331    98.82059
175.589    3.524072    -38.28754
177.828    1.797288    167.4162
180.406    4.484655    13.0098
183.392    8.146031    175.4147
186.378    31.34459    -64.43983
189.364    30.0131    34.99171
192.349    9.454728    167.921
195.335    3.555838    3.143271
198.321    2.880003    163.7733
201.307    4.345609    23.49152
204.293    0.9805678    120.7637
207.279    3.199176    -17.77881
210.264    1.288095    -147.655
213.25    2.169405    -41.2922
216.236    2.09838    -161.5135
219.222    0.6974311    -71.16183
222.208    1.875653    160.4451
225.194    0.470495    128.7783
228.179    2.110749    143.8887
231.165    1.343135    28.48386
234.151    1.173114    100.9736
237.137    1.525251    21.17244
240.575    0.7887267    15.98611
244.557    1.711179    -47.9452
248.538    1.627832    -160.64
252.52    2.325543    -130.7589
256.502    4.059506    84.50912
260.484    3.045487    -147.6421
264.465    2.008162    102.7238
268.447    2.26081    -84.97865
272.429    10.73337    -146.2595
276.411    6.75427    -149.6761
280.392    31.72102    -129.5597
284.374    15.67279    -125.299
288.356    13.39965    79.66872
292.338    49.45915    -75.67391
296.319    31.22048    -111.8011
300.301    12.66158    -9.49544
304.283    16.20048    164.6199
308.265    5.223812    -145.0067
312.246    57.03608    160.1684
316.228    31.4469    75.65073
320.812    16.39715    101.2454
326.122    60.15552    -85.13554
331.431    11.3977    24.27414
336.741    5.17828    -112.7164
342.051    6.729057    -81.01491
347.361    1.637409    21.22803
352.67    4.123088    -11.72527
357.98    6.350635    -113.1101
363.29    9.513783    -31.86625
368.6    6.163776    67.54607
373.909    6.500765    -49.02221
379.219    5.04101    161.5646
384.529    4.865468    -11.9147
389.839    5.662747    70.27763
395.148    5.286064    -63.24158
400.458    5.830286    -7.883189
405.768    3.911376    -60.03878
411.078    3.952915    -160.4414
416.387    9.969873    -9.904489
421.697    5.269127    -62.93695
427.809    3.757327    45.0
434.89    2.968267    -82.44635
441.97    11.21567    -177.5805
449.051    3.724966    6.710137
456.132    4.781245    -50.61728
463.212    2.733799    -53.58433
470.293    2.698314    -87.08914
477.373    0.8185143    -60.80131
484.454    1.039265    -70.97401
491.535    4.081778    -123.9344
498.615    5.52609    109.4403
505.696    3.143604    77.47137
512.777    7.48841    -176.6336
519.857    1.435823    97.7649
526.938    3.957468    65.55518
534.018    5.481791    154.904
541.099    5.040479    -46.50748
548.18    4.761338    34.50958
555.26    2.80263    -122.2929
562.341    2.035247    -55.22787
570.493    2.938027    95.08399
579.935    0.9002383    -22.70352
589.377    0.5106484    54.78273
598.819    3.169376    -2.501537
608.262    6.682151    3.845877
617.704    3.833766    -45.50635
627.146    1.585013    -145.1254
636.588    3.598472    -28.30062
646.03    7.036265    -42.31725
655.472    1.932036    8.130165
664.915    4.946604    -174.2375
674.357    7.603524    89.47441
683.799    2.166968    -7.028107
693.241    5.738934    22.08231
702.683    7.455406    47.65213
712.125    10.59616    -158.5524
721.568    1.151384    -117.3052
731.01    2.635302    -71.93939
740.452    1.436509    -32.97375
749.894    11.44295    -32.09238
760.764    1.516118    -115.3463
773.355    35.63855    -153.435
785.947    2.095405    -92.26048
798.538    1.584856    -55.12538
811.129    3.97035    129.44
823.721    3.343257    -167.2759
836.312    5.039677    -18.43539
848.904    2.632067    -18.69945
861.495    7.661229    -70.56026
874.086    5.312049    180.0
886.678    5.544088    -130.0607
899.269    3.039596    -58.27643
911.86    4.390878    62.89285
924.452    1.447252    67.54472
937.043    12.46464    136.2189
949.635    1.041211    -141.6322
962.226    5.234036    63.75875
974.817    1.438533    -0.596822
987.409    0.805645    159.2745
1000.0    5.190201    -4.945992
1014.495    2.002705    -43.72828
1031.286    4.957954    21.75236
1048.077    1.164415    -80.53793
1064.868    2.015402    19.58058
1081.658    1.047135    42.33635
1098.449    3.032109    -140.4036
1115.24    2.407425    -84.39062
1132.031    2.112388    159.7177
1148.822    12.25981    59.49158
1165.613    1.275029    -16.26064
1182.403    1.619936    1.941445
1199.194    0.9632373    45.48974
1215.985    2.01261    8.129857
1232.776    2.592691    -61.10515
1249.567    1.912669    -90.0
1266.358    1.803327    28.73936
1283.148    2.941252    63.57268
1299.939    1.647159    -13.74896
1316.73    13.84816    -2.489509
1333.521    7.260628    -6.801228
1352.851    3.053625    -69.82963
1375.242    4.186389    -66.80163
1397.633    2.886493    132.0642
1420.024    1.674578    76.32913
1442.415    2.390851    11.30993
1464.806    3.685403    -81.59472
1487.197    1.886892    67.98872
1509.588    2.627873    52.81609
1531.979    6.599263    -155.9947
1554.37    2.006652    65.85413
1576.76    2.038081    -85.6013
1599.151    6.925749    -124.379
1621.542    4.509868    -81.87045
1643.933    2.914002    88.76805
1666.324    11.27519    45.0
1688.715    3.452938    19.61187
1711.106    4.740932    131.9857
1733.497    5.877427    10.6198
1755.888    6.040116    -12.24621
1778.279    8.085392    -59.53455
1804.056    3.505493    -28.44191
1833.915    2.161161    -10.73835
1863.774    2.565569    -15.15407
1893.633    10.72752    -100.857
1923.491    6.622264    41.63319
1953.35    1.646257    44.58074
1983.209    3.332212    85.0301
2013.068    1.143697    -104.5338
2042.927    3.01275    -28.1799
2072.786    2.032907    -67.51945
2102.644    0.7953007    -94.28927
2132.503    2.798144    15.25485
2162.362    2.632024    5.848867
2192.221    1.025219    -23.68157
2222.08    2.425757    98.74628
2251.939    7.475579    6.179839
2281.797    2.498618    -21.92956
2311.656    3.648234    -5.906141
2341.515    15.80342    49.63614
2371.374    1.994402    36.8692
2405.747    15.04332    -45.0
2445.564    1.49916    77.10696
2485.382    7.564278    132.3099
2525.199    3.221733    10.17567
2565.017    2.038996    153.435
2604.834    14.44809    -95.1943
2644.652    2.718124    -6.51982
2684.469    3.34068    37.9977
2724.286    37.56043    -101.3098
2764.104    2.83643    56.14824
2803.921    3.132933    65.80211
2843.739    36.50662    -42.27431
2883.556    1.929385    44.51027
2923.373    10.19838    26.56505
2963.191    3.157295    -8.530985
3003.008    2.816626    -41.42367
3042.826    2.455982    90.0
3082.643    2.524137    -108.4354
3122.461    3.19663    -46.90992
3162.278    2.075948    60.1023
3208.116    2.119678    -32.5294
3261.213    1.18993    -26.56505
3314.311    1.607714    34.33057
3367.408    5.644457    45.0
3420.505    6.002338    60.88419
3473.603    2.350514    -13.01292
3526.7    2.81798    -55.23217
3579.797    1.855825    -54.46144
3632.895    6.020667    81.86965
3685.992    4.515352    118.7388
3739.089    2.881629    -15.70878
3792.186    1.552036    64.05836
3845.284    7.778539    -92.79279
3898.381    1.228063    67.37992
3951.478    7.283004    -98.74599
4004.576    3.799692    66.80141
4057.673    1.620515    54.29386
4110.77    12.79195    123.6895
4163.868    2.48997    27.89763
4216.965    0.6202769    -65.92527
4278.091    1.016863    52.76702
4348.897    3.750088    130.2359
4419.704    2.58917    -4.184859
4490.51    0.7972751    92.86236
4561.317    2.139251    54.81902
4632.123    8.777168    157.1658
4702.93    1.295647    38.07932
4773.736    1.801996    20.48079
4844.542    2.912565    14.79705
4915.349    3.939501    92.12117
4986.155    17.71248    -33.69007
5056.962    2.921764    147.3277
5127.768    6.209111    26.56505
5198.574    1.607875    -108.7994
5269.381    8.856679    -160.5605
5340.187    1.548951    157.1677
5410.994    3.585853    -34.94099
5481.8    1.320296    -97.12502
5552.607    2.581689    104.0362
5623.413    4.898432    32.4712
5704.926    4.42846    70.56045
5799.348    1.484915    88.66788
5893.77    2.822672    -45.0
5988.192    5.353181    -77.47112
6082.614    1.783793    54.09
6177.035    12.52602    -78.69051
6271.457    18.62109    -84.09396
6365.879    3.526545    -136.789
6460.301    15.4108    6.520059
6554.723    3.846009    10.40805
6649.145    4.276371    24.9808
6743.567    8.273527    -53.42775
6837.989    4.386657    -69.0752
6932.411    6.263186    154.4398
7026.833    3.762697    51.62355
7121.254    11.42542    116.5651
7215.676    4.253158    119.4538
7310.098    5.049598    -9.63777
7404.52    8.953081    73.14124
7498.942    7.048663    -29.56038
7607.641    4.180975    49.49324
7733.555    22.58338    -8.130189
7859.468    2.18702    38.04715
7985.382    3.584149    -9.039659
8111.296    5.486282    103.2406
8237.209    10.97402    14.03624
8363.123    6.595727    107.403
8489.036    3.738251    73.68676
8614.95    8.015056    54.39489
8740.864    8.494569    78.8967
8866.777    10.30599    93.14128
8992.691    3.524964    100.8143
9118.605    24.49709    122.4718
9244.518    11.95485    75.32355
9370.432    9.849037    134.569
9496.345    11.45873    152.0201
9622.259    4.121828    70.39516
9748.173    8.71786    83.99114
9874.086    4.115143    158.0614
10000.0    6.223017    94.72806
10144.952    4.50736    131.1856
10312.861    18.39674    -178.0585
10480.769    8.700009    113.7718
10648.678    6.993522    41.63371
10816.586    8.482587    63.84279
10984.495    5.585951    130.0482
11152.403    45.33922    124.0191
11320.312    11.18565    85.36429
11488.22    17.65864    115.5225
11656.129    27.2254    -43.78137
11824.037    41.86309    163.8425
11991.946    10.11857    111.8014
12159.854    5.764438    142.7658
12327.763    15.64184    58.21869
12495.671    18.68848    65.1206
12663.58    101.0125    -18.43495
12831.488    19.5466    74.49784
12999.397    24.24201    108.435
13167.305    31.94294    90.0
13335.214    14.62473    100.3365
13528.511    20.29244    79.1433
13752.421    26.95179    160.699
13976.33    24.45615    125.8385
14200.24    45.74134    91.625
14424.15    25.18276    84.40086
14648.059    33.0312    25.84967
14871.969    54.39594    130.236
15095.878    65.81033    123.6901
15319.788    38.73621    120.2961
15543.698    18.66842    105.6357
15767.607    24.4085    83.41795
15991.517    55.76943    82.51003
16215.427    45.45058    38.65942
16439.336    33.55422    113.1984
16663.246    57.14011    63.43495
16887.155    27.86683    133.4508
17111.065    63.33166    76.13915
17334.975    45.17291    59.86282
17558.884    41.36414    46.44379
17782.794    67.09797    88.63608
18040.559    49.72818    105.5238
18339.147    40.50158    88.05193
18637.736    47.73722    79.01911
18936.324    34.96062    137.4205
19234.912    37.46768    120.4747
19533.501    19.93997    79.96091
19832.089    70.19321    160.932
20130.677    57.4007    54.28225
20429.266    71.92014    87.87894
20727.854    56.81714    70.0625
21026.442    88.34712    77.47147
21325.03    66.3228    65.15557
21623.619    87.83263    45.0
21922.207    59.88726    17.74481
22220.795    42.61617    77.00578
22519.384    49.08111    74.45609
22817.972    84.25783    88.02508
23116.56    112.3331    56.12901
23415.149    103.4752    94.90923
23713.737    59.06058    62.65337
24057.473    75.6312    79.28054
24455.647    53.19731    116.982
24853.821    89.98694    84.34801
25251.995    55.64725    84.10804
25650.169    591.8981    -124.8911
26048.342    92.65327    36.51738
26446.516    64.92907    113.7896
26844.69    79.08267    133.3638
27242.864    83.83495    102.5599
27641.038    70.66693    79.46619
28039.212    138.8591    33.40225
28437.386    40.30702    63.30605
28835.56    133.5458    116.3915
29233.734    81.21869    58.6046
29631.908    90.95876    121.027
30030.081    113.7619    115.1817
30428.255    184.9593    117.0988
30826.429    67.50174    84.29549
31224.603    104.4777    74.27592
31622.777    186.1365    114.0769
32081.155    232.5364    159.0751
32612.128    156.5009    12.2155
33143.102    352.886    33.92957
33674.075    109.6856    105.9454
34205.049    182.677    -3.667725
34736.022    88.34238    72.44156
35266.996    77.61781    61.61581
35797.969    340.0808    47.74169
36328.942    80.46679    75.19878
36859.916    445.369    62.89475
37390.889    71.12693    107.5435
37921.863    196.5856    87.04694
38452.836    193.374    59.19851
38983.809    117.8063    46.9045
39514.783    77.54108    28.78568
40045.756    107.9252    91.06943
40576.73    175.0482    68.28651
41107.703    325.4827    70.31515
41638.677    131.9265    74.02728
42169.65    139.4952    21.72617
42780.908    150.6713    57.99462
43488.972    155.6932    80.96419
44197.037    154.9109    113.9224
44905.101    129.8051    53.84128
45613.166    247.3374    -68.40406
46321.23    106.2549    76.7593
47029.295    297.9931    67.83412
47737.359    233.2289    44.56379
48445.424    764.965    81.19336
49153.488    299.9528    70.67424
49861.553    128.5714    81.25014
50569.617    162.3411    60.86894
51277.682    144.1198    80.0736
51985.746    175.2793    48.86396
52693.811    156.6763    93.99386
53401.875    349.769    82.50421
54109.94    1136.406    -41.12586
54818.004    322.4835    117.3557
55526.069    234.423    60.21032
56234.133    2727.097    -13.54794
57049.258    187.9579    46.83255
57993.477    177.5133    75.14568
58937.696    406.4843    60.31675
59881.915    317.7438    93.07336
60826.134    179.5199    75.79353
61770.354    195.2209    22.98431
62714.573    170.7711    105.4579
63658.792    3057.138    -100.8403
64603.011    293.9285    137.6431
65547.23    254.6785    37.16745
66491.449    187.5142    43.04005
67435.668    409.9536    97.91401
68379.887    222.289    47.99755
69324.106    571.6113    69.95045
70268.325    539.0547    84.55969
71212.545    235.064    84.96272
72156.764    139.6313    89.93047
73100.983    2795.375    -60.9454
74045.202    180.9317    74.21455
74989.421    251.5824    43.72395
76076.408    236.4278    82.70715
77335.544    351.1985    97.37309
78594.681    250.6314    50.73906
79853.817    270.3208    65.94907
81112.954    510.5092    75.09424
82372.09    205.5456    61.88903
83631.227    288.9212    49.09006
84890.363    1477.262    57.7194
86149.499    323.6287    64.11662
87408.636    343.1024    74.15299
88667.772    194.3435    30.63294
89926.909    388.6131    67.4799
91186.045    478.0736    99.53793
92445.181    326.7845    46.93115
93704.318    469.127    61.59539
94963.454    359.4119    37.28214
96222.591    350.0221    86.22587
97481.727    361.2624    63.35751
98740.864    398.7863    39.29887
100000.0    413.6985    38.58356
101449.521    480.8022    47.41374
103128.606    355.2047    62.7407
104807.692    767.8435    68.29714
106486.777    537.1229    76.70389
108165.862    730.2401    68.70995
109844.948    451.7186    50.10906
111524.033    393.7708    57.06348
113203.119    812.1409    31.91579
114882.204    515.7807    40.91124
116561.289    789.5918    72.57385
118240.375    616.5494    43.11551
119919.46    308.9736    33.76308
121598.545    603.7754    48.76506
123277.631    627.7362    49.00671
124956.716    365.0925    45.50727
126635.802    999.353    35.17727
128314.887    834.9661    43.99157
129993.972    883.8432    28.44345
131673.058    842.0543    53.95015
133352.143    712.732    55.26693
135285.11    650.2282    31.22974
137524.206    786.0917    45.75275
139763.303    806.3566    44.70522
142002.399    1003.651    53.26907
144241.495    531.8709    35.04601
146480.592    782.6134    17.9707
148719.688    916.1458    38.84333
150958.785    1475.005    59.03873
153197.881    938.8961    10.90715
155436.977    1257.751    23.47436
157676.074    1337.868    40.87606
159915.17    1191.729    14.85379
162154.266    965.3951    42.11803
164393.363    1053.815    50.99242
166632.459    1057.628    18.09295
168871.556    1064.61    51.13842
171110.652    2080.868    11.14708
173349.748    1198.851    4.49519
175588.845    1224.688    -11.611
177827.941    1355.317    39.01601
180405.594    2486.528    7.83321
183391.477    1610.32    34.65946
186377.36    1796.678    20.25024
189363.243    4657.261    51.69968
192349.126    1905.39    -5.063552
195335.009    1745.529    30.06578
198320.892    2278.625    50.11621
201306.775    4268.05    -39.44657
204292.658    3187.844    -20.48982
207278.541    2012.285    15.44433
210264.424    1660.456    29.22167
213250.307    2136.173    42.26693
216236.19    2177.333    -4.95258
219222.073    2710.851    4.938757
222207.956    1766.167    1.014925
225193.839    3992.596    -37.07682
228179.722    2832.093    -12.07754
231165.605    4290.144    8.396917
234151.488    1695.345    -13.0918
237137.371    2442.606    -23.14932
240574.726    2941.263    -34.43079
244556.465    5063.253    -29.48456
248538.204    2852.206    -8.896008
252519.943    3666.35    -10.8378
256501.682    3320.442    -42.35755
260483.421    5624.345    -33.64345
264465.16    2589.64    -23.9667
268446.899    6730.405    -39.40442
272428.638    2968.261    -11.38104
276410.377    2545.902    -34.76313
280392.115    3786.699    -43.53106
284373.854    3305.142    -65.73095
288355.593    1731.102    -32.71782
292337.332    4917.984    -82.61768
296319.071    2389.572    -41.64823
300300.81    3277.359    -45.41121
304282.549    3865.121    -80.43513
308264.288    4974.051    -73.02219
312246.027    2688.554    -64.22873
316227.766    2839.506    -87.1737
320811.553    5265.202    -46.17786
326121.287    2317.208    -99.13853
331431.021    33368.63    -95.53284
336740.756    2220.586    -63.12616
342050.49    3243.05    -49.72939
347360.224    4787.624    -66.94269
352669.958    3232.58    -49.77613
357979.692    2855.834    -69.36379
363289.427    3108.029    -87.85829
368599.161    2478.205    -103.6492
373908.895    3566.606    -94.3204
379218.629    2104.595    -107.3191
384528.364    2472.805    -76.38256
389838.098    3743.246    -110.9033
395147.832    2665.846    -102.3707
400457.566    2899.064    -87.78525
405767.3    5189.199    -117.7852
411077.035    2022.03    -105.6752
416386.769    2524.969    -86.98862
421696.503    3148.413    -62.70734
427809.082    4158.125    -107.273
434889.726    2371.912    -73.42545
441970.371    3553.136    -85.19836
449051.015    3719.853    -98.27023
456131.659    3337.283    -115.2075
463212.304    3513.149    -137.0536
470292.948    3182.177    -129.5254
477373.593    2854.304    -128.0852
484454.237    6132.644    -65.17371
491534.881    5215.398    -133.3701
498615.526    3321.803    -129.9677
505696.17    2832.958    -120.3311
512776.814    3787.1    -115.1675
519857.459    3470.541    -101.2123
526938.103    2814.481    -111.8031
534018.748    4793.934    -113.5955
541099.392    2028.647    -142.7371
548180.036    4347.543    -125.1456
555260.681    5440.452    -145.1143
562341.325    4098.498    -110.8674
570492.58    4396.368    -104.6637
579934.771    3934.731    -138.573
589376.962    9325.154    -73.01016
598819.153    3437.498    -110.5643
608261.344    5599.627    -132.9827
617703.535    4318.848    -134.8265
627145.726    4846.707    -114.6971
636587.917    4875.112    -97.20848
646030.108    3936.369    -145.9966
655472.299    3703.72    -150.7895
664914.49    3634.509    -133.3751
674356.681    3553.497    -153.1456
683798.872    3192.835    -119.5417
693241.063    5097.65    -145.7672
702683.254    3211.747    -165.868
712125.445    3694.875    -122.9579
721567.636    4612.958    -131.9633
731009.827    2777.547    -141.9889
740452.018    3653.123    -142.6408
749894.209    4717.993    -137.0633
760764.082    2677.396    -140.4797
773355.446    3969.076    -149.9828
785946.81    2779.765    -138.5616
798538.174    2962.749    172.8888
811129.538    2336.353    -146.1731
823720.903    6817.83    -160.8068
836312.267    3580.993    -132.5957
848903.631    3639.894    -162.5113
861494.995    5584.519    -145.1969
874086.359    3947.386    -158.9807
886677.723    3622.598    -176.797
899269.087    3568.995    -168.1294
911860.451    2706.175    -166.3192
924451.815    5987.523    -143.7581
937043.179    5935.088    161.4048
949634.544    2027.297    -169.642
962225.908    6616.593    -152.9627
974817.272    3605.658    170.5589
987408.636    5253.976    144.5539
1000000.0    2762.893    152.6562
1014495.208    3027.873    -155.7511
1031286.062    4221.684    179.0978
1048076.916    2316.675    -178.4052
1064867.77    7041.977    174.5864
1081658.624    2698.346    171.0569
1098449.477    2662.789    -171.8237
1115240.331    3294.693    175.7968
1132031.185    2899.939    -164.0156
1148822.039    3324.3    -171.1941
1165612.893    4469.443    178.8912
1182403.747    2708.229    -167.1623
1199194.601    4796.961    170.8251
1215985.455    6033.026    -171.6697
1232776.309    2117.113    165.0866
1249567.163    3942.127    144.2087
1266358.016    2990.001    178.6215
1283148.87    2364.155    151.0481
1299939.724    2202.068    12.77611
1316730.578    2965.04    179.3727
1333521.432    3130.327    178.9826
1352851.103    2025.222    156.8183
1375242.067    2245.458    138.1035
1397633.03    2884.625    175.6312
1420023.994    4114.81    160.5024
1442414.957    2264.793    178.6478
1464805.921    4135.182    163.7944
1487196.884    2869.753    149.3679
1509587.848    2580.625    142.965
1531978.811    3331.083    117.4945
1554369.775    2091.359    155.9007
1576760.738    3157.946    -166.6338
1599151.702    1964.274    167.093
1621542.665    5593.564    137.1698
1643933.629    1468.436    131.8654
1666324.592    4311.792    118.5468
1688715.556    2385.67    146.8672
1711106.519    1760.741    119.8315
1733497.483    2114.451    170.4144
1755888.446    1669.303    177.9217
1778279.41    2288.677    149.468
1804055.94    2156.432    110.0005
1833914.77    2437.345    -175.4118
1863773.6    2871.473    135.1003
1893632.429    1529.748    119.3384
1923491.259    2480.167    140.0181
1953350.089    3054.42    173.1176
1983208.919    1659.371    157.3219
2013067.749    14622.95    -160.8531
2042926.578    2495.716    178.0955
2072785.408    2390.083    -127.7624
2102644.238    3529.993    -149.7937
2132503.068    4172.069    174.3115
2162361.897    4098.671    -173.4283
2192220.727    5104.527    148.7445
2222079.557    6798.442    -121.5019
2251938.387    12993.04    128.3192
2281797.217    4508.566    152.4263
2311656.046    3028.92    118.6349
2341514.876    9574.95    99.36303
2371373.706    3261.55    68.17136
2405747.261    9026.026    116.5297
2445564.65    18056.36    80.62749
2485382.04    5052.446    132.7019
2525199.429    18137.35    -157.4208
2565016.819    10081.45    138.0768
2604834.208    7908.761    58.55316
2644651.598    4005.51    40.53908
2684468.987    2845.069    0.2066291
2724286.376    2751.144    60.04445
2764103.766    1371.658    59.2717
2803921.155    2033.787    57.0492
2843738.545    1276.263    57.8329
2883555.934    1966.071    73.18089
2923373.323    1370.735    82.93564
2963190.713    1295.446    57.38929
3003008.102    1248.729    61.50164
3042825.492    1357.252    88.26883
3082642.881    1149.142    89.8293
3122460.271    1520.596    96.72198
3162277.66    1389.941    100.8995
3208115.533    1067.159    99.93465
3261212.875    1419.531    77.62258
3314310.217    2877.04    102.8978
3367407.559    1194.272    95.25617
3420504.902    1335.957    111.4612
3473602.244    900.41    102.6763
3526699.586    1685.229    112.3388
3579796.928    1070.941    108.9124
3632894.27    1020.209    124.6055
3685991.612    1133.93    109.4899
3739088.955    1428.635    131.6895
3792186.297    1013.993    120.8902
3845283.639    1067.011    120.3858
3898380.981    1222.24    128.7751
3951478.323    1799.833    150.0844
4004575.665    1165.972    143.9151
4057673.008    2208.113    138.2077
4110770.35    1973.681    140.1278
4163867.692    2389.155    134.7974
4216965.034    2565.336    127.6899
4278090.82    6218.277    178.437
4348897.264    4677.125    125.9932
4419703.708    3120.684    143.1191
4490510.151    3213.575    -145.8277
4561316.595    4408.951    136.6872
4632123.039    3653.764    168.4943
4702929.483    2429.594    99.92654
4773735.927    3492.132    45.84044
4844542.37    4091.244    91.89172
4915348.814    4012.333    161.6134
4986155.258    10224.44    -41.13028
5056961.702    5055.796    -24.84134
5127768.145    9186.455    -10.39456
5198574.589    4814.375    11.33129
5269381.033    3376.545    20.39437
5340187.477    2117.562    35.04279
5410993.921    3482.317    57.6972
5481800.364    1484.37    86.49844
5552606.808    1899.122    47.06645
5623413.252    2075.331    52.20595
5704925.797    2517.601    33.81736
5799347.707    2812.454    61.29775
5893769.618    6092.315    63.77318
5988191.528    3207.095    23.799
6082613.438    3616.051    54.24266
6177035.349    3193.232    42.76608
6271457.259    2010.239    49.82167
6365879.169    6070.697    54.17494
6460301.08    2021.545    -4.029305
6554722.99    2119.465    -4.188933
6649144.9    2329.346    21.85003
6743566.81    1816.822    40.72756
6837988.721    2125.888    -9.942525
6932410.631    1587.615    24.79248
7026832.541    4578.326    40.508
7121254.452    1389.828    1.306545
7215676.362    1931.017    33.54765
7310098.272    2077.574    18.05192
7404520.183    1530.271    27.76912
7498942.093    2981.481    16.51326
7607640.819    2334.662    9.707723
7733554.46    2163.54    4.875573
7859468.101    2833.813    18.35295
7985381.742    2994.182    34.04759
8111295.383    1734.285    6.50811
8237209.025    1687.444    -15.50793
8363122.666    1658.584    -14.7238
8489036.307    1534.282    16.2457
8614949.948    2302.444    -0.6910854
8740863.589    4313.341    39.29069
8866777.23    3320.51    27.62604
8992690.871    2170.539    -8.338552
9118604.512    1500.953    9.729218
9244518.153    2500.798    35.29753
9370431.794    2429.125    -20.92805
9496345.436    1674.284    -20.05921
9622259.077    5546.88    -41.50106
9748172.718    1551.017    -19.97043
9874086.359    3015.684    -34.24236
10000000.0    3098.714    -18.08574
