# North DC Val: 0.55243821 VoltsSouth DC Val: 0.5379561900000001 Volts
# SR785 Measurement - Timestamp: Sep 01 2020 - 16:23:41
# Parameter File: /home/controls/Git/cit_ctnlab/ctn_scripts/TransRINSpecLong.yml
#---------- Measurement Setup ------------
# Start Frequency (Hz): 0.000000
# Frequency Span (Hz): 800.000000
# Frequency Resolution: 800
# Number of Averages: 100
# Averaging Mode: RMS
# Window function: Hanning
#---------- Measurement Parameters ----------
# Measurement Group:  "FFT" "FFT"
# Measurements:  "FFT 1" "FFT 2"
# View:  "Log Magnitude" "Log Magnitude"
# Unit:  "Vrms/rtHz" "Vrms/rtHz"
#---------- Input Parameters ----------
# Input Source: Analog
# Input Mode: Single ended, Single ended
# Input Grounding: Float, Float
# Input Coupling: AC, AC
# Input Range: -36.0dBVpk, -36.0dBVpk
# Auto Range: Off, Off
# Auto Range Mode: Tracking, Tracking
# Anti-Aliasing Filter: On, On
#---------- Source Parameters ----------
# Source Type: Sine
# Source Amplitude: 500.0mVpk
# Source On: 0

#---------- Measurement Data ----------
# [Freq(Hz) Display 0(Vrms/rtHz) Display 1(Vrms/rtHz) ]
+0.0000000e+000    +4.2947879e-004    +2.6141759e-004
+1.0000000e+000    +2.9584247e-004    +1.6097378e-004
+2.0000000e+000    +2.3224903e-004    +1.0620418e-004
+3.0000000e+000    +1.9439371e-004    +8.1490965e-005
+4.0000000e+000    +6.5933134e-005    +2.3313942e-005
+5.0000000e+000    +2.4209377e-005    +6.6882076e-006
+6.0000000e+000    +1.7585100e-005    +3.4425896e-006
+7.0000000e+000    +2.2219561e-005    +2.4123699e-006
+8.0000000e+000    +1.5441559e-005    +1.7439202e-006
+9.0000000e+000    +9.3939643e-006    +1.3666260e-006
+1.0000000e+001    +8.3405012e-006    +1.1421561e-006
+1.1000000e+001    +8.6863447e-006    +1.0623766e-006
+1.2000000e+001    +5.0349468e-006    +8.1576366e-007
+1.3000000e+001    +5.5846494e-006    +6.6289175e-007
+1.4000000e+001    +7.4174968e-006    +6.1007904e-007
+1.5000000e+001    +4.8588977e-006    +5.6413222e-007
+1.6000000e+001    +3.5039359e-006    +5.0715431e-007
+1.7000000e+001    +4.1927733e-006    +4.5940396e-007
+1.8000000e+001    +4.0472105e-006    +4.3054817e-007
+1.9000000e+001    +2.1826040e-006    +4.0870472e-007
+2.0000000e+001    +2.6543273e-006    +3.5179522e-007
+2.1000000e+001    +4.2784986e-006    +3.5266885e-007
+2.2000000e+001    +2.2388533e-006    +3.5795642e-007
+2.3000000e+001    +1.0487255e-006    +3.0656574e-007
+2.4000000e+001    +1.7770576e-006    +2.7383385e-007
+2.5000000e+001    +1.6611174e-006    +2.5683354e-007
+2.6000000e+001    +8.3317701e-007    +2.3253277e-007
+2.7000000e+001    +1.0392860e-006    +2.2150019e-007
+2.8000000e+001    +1.4873342e-006    +2.2300435e-007
+2.9000000e+001    +9.6539691e-007    +2.0221609e-007
+3.0000000e+001    +7.3432710e-007    +1.8288172e-007
+3.1000000e+001    +6.7299300e-007    +1.8500148e-007
+3.2000000e+001    +5.6624583e-007    +1.7650559e-007
+3.3000000e+001    +5.3773397e-007    +1.7838899e-007
+3.4000000e+001    +9.5415101e-007    +1.7769834e-007
+3.5000000e+001    +5.7344465e-007    +1.6753161e-007
+3.6000000e+001    +2.5291141e-007    +1.4734178e-007
+3.7000000e+001    +1.8865700e-007    +1.4212263e-007
+3.8000000e+001    +1.9514978e-007    +1.3674740e-007
+3.9000000e+001    +1.9895121e-007    +1.2297897e-007
+4.0000000e+001    +1.8517218e-007    +1.1571236e-007
+4.1000000e+001    +1.8153096e-007    +1.2956303e-007
+4.2000000e+001    +1.7991974e-007    +1.2643594e-007
+4.3000000e+001    +1.6158808e-007    +1.1767144e-007
+4.4000000e+001    +1.6216447e-007    +1.1945983e-007
+4.5000000e+001    +1.7745619e-007    +1.1083156e-007
+4.6000000e+001    +1.7319901e-007    +1.0011810e-007
+4.7000000e+001    +1.8961599e-007    +1.0366568e-007
+4.8000000e+001    +2.1400754e-007    +1.1241201e-007
+4.9000000e+001    +1.7418516e-007    +1.0196620e-007
+5.0000000e+001    +1.4675844e-007    +1.0187455e-007
+5.1000000e+001    +1.4159011e-007    +1.0018166e-007
+5.2000000e+001    +1.1588502e-007    +9.8262923e-008
+5.3000000e+001    +1.7567308e-007    +9.4225364e-008
+5.4000000e+001    +2.4447939e-007    +8.3768164e-008
+5.5000000e+001    +2.3306110e-007    +8.4824002e-008
+5.6000000e+001    +1.4459933e-007    +8.7902784e-008
+5.7000000e+001    +1.6081356e-007    +8.8826702e-008
+5.8000000e+001    +2.2508667e-007    +8.7290424e-008
+5.9000000e+001    +3.3566539e-007    +8.7671260e-008
+6.0000000e+001    +5.5338359e-007    +1.0836719e-007
+6.1000000e+001    +3.0042330e-007    +8.4383331e-008
+6.2000000e+001    +1.6652974e-007    +7.4405072e-008
+6.3000000e+001    +1.5405675e-007    +7.2006600e-008
+6.4000000e+001    +1.6013345e-007    +6.7716975e-008
+6.5000000e+001    +1.5691222e-007    +6.7034847e-008
+6.6000000e+001    +1.5021753e-007    +7.1765236e-008
+6.7000000e+001    +1.6308724e-007    +7.1722070e-008
+6.8000000e+001    +2.2512943e-007    +7.2133204e-008
+6.9000000e+001    +1.6661406e-007    +6.3175342e-008
+7.0000000e+001    +1.2513691e-007    +5.7396559e-008
+7.1000000e+001    +1.2444347e-007    +6.2907333e-008
+7.2000000e+001    +1.2181265e-007    +6.3885992e-008
+7.3000000e+001    +1.1759911e-007    +6.0695953e-008
+7.4000000e+001    +1.1299460e-007    +6.3031919e-008
+7.5000000e+001    +1.0109091e-007    +5.9199024e-008
+7.6000000e+001    +9.9589116e-008    +5.3961415e-008
+7.7000000e+001    +1.0711516e-007    +5.7283550e-008
+7.8000000e+001    +9.9640296e-008    +5.7116871e-008
+7.9000000e+001    +9.7743523e-008    +5.6415331e-008
+8.0000000e+001    +1.1275318e-007    +5.8776944e-008
+8.1000000e+001    +1.1097025e-007    +5.8926144e-008
+8.2000000e+001    +1.0049288e-007    +5.9707467e-008
+8.3000000e+001    +9.8491697e-008    +5.4704529e-008
+8.4000000e+001    +9.1486726e-008    +4.8625214e-008
+8.5000000e+001    +9.1549019e-008    +5.3939498e-008
+8.6000000e+001    +8.8689980e-008    +5.3140976e-008
+8.7000000e+001    +9.1556259e-008    +5.6790764e-008
+8.8000000e+001    +9.3340958e-008    +5.3542042e-008
+8.9000000e+001    +9.0719617e-008    +4.7983328e-008
+9.0000000e+001    +8.6093031e-008    +4.9587324e-008
+9.1000000e+001    +8.0652022e-008    +5.0753478e-008
+9.2000000e+001    +7.9885368e-008    +5.1773839e-008
+9.3000000e+001    +8.8368530e-008    +4.8694773e-008
+9.4000000e+001    +8.2017422e-008    +5.0752195e-008
+9.5000000e+001    +9.0923542e-008    +5.0031282e-008
+9.6000000e+001    +8.6416918e-008    +4.6395389e-008
+9.7000000e+001    +8.1948016e-008    +4.7927305e-008
+9.8000000e+001    +8.2040025e-008    +4.8040260e-008
+9.9000000e+001    +8.2630883e-008    +5.1655054e-008
+1.0000000e+002    +8.4398430e-008    +4.7531543e-008
+1.0100000e+002    +8.4141767e-008    +4.7147541e-008
+1.0200000e+002    +8.4069647e-008    +4.9413462e-008
+1.0300000e+002    +7.7152855e-008    +4.8573188e-008
+1.0400000e+002    +7.7714660e-008    +4.4658464e-008
+1.0500000e+002    +7.8885030e-008    +4.4705903e-008
+1.0600000e+002    +8.6368544e-008    +4.7130566e-008
+1.0700000e+002    +7.9939682e-008    +4.6002935e-008
+1.0800000e+002    +7.3078091e-008    +4.3769248e-008
+1.0900000e+002    +8.1342840e-008    +4.6930420e-008
+1.1000000e+002    +8.6385519e-008    +4.4619252e-008
+1.1100000e+002    +8.1452853e-008    +4.4962963e-008
+1.1200000e+002    +8.2943018e-008    +4.4994174e-008
+1.1300000e+002    +8.5053799e-008    +4.3208775e-008
+1.1400000e+002    +7.7624094e-008    +4.4442604e-008
+1.1500000e+002    +7.5545422e-008    +4.6118696e-008
+1.1600000e+002    +8.8365425e-008    +4.3983960e-008
+1.1700000e+002    +9.0088626e-008    +4.2966320e-008
+1.1800000e+002    +8.4243823e-008    +4.0144872e-008
+1.1900000e+002    +3.1844161e-007    +4.2271171e-008
+1.2000000e+002    +6.0865256e-007    +4.3232834e-008
+1.2100000e+002    +2.9984923e-007    +4.3125073e-008
+1.2200000e+002    +7.9934239e-008    +4.1084228e-008
+1.2300000e+002    +8.6965365e-008    +4.1512269e-008
+1.2400000e+002    +8.6614691e-008    +3.9940652e-008
+1.2500000e+002    +7.6121424e-008    +4.2013998e-008
+1.2600000e+002    +7.5263110e-008    +4.0953438e-008
+1.2700000e+002    +7.8825202e-008    +4.0294175e-008
+1.2800000e+002    +7.3894448e-008    +3.9344837e-008
+1.2900000e+002    +7.2323772e-008    +3.9223419e-008
+1.3000000e+002    +6.7886035e-008    +4.0235463e-008
+1.3100000e+002    +6.9215943e-008    +3.9066972e-008
+1.3200000e+002    +7.4235992e-008    +3.7273008e-008
+1.3300000e+002    +7.1829561e-008    +3.7486299e-008
+1.3400000e+002    +7.1632748e-008    +3.8910766e-008
+1.3500000e+002    +7.6932416e-008    +4.0588208e-008
+1.3600000e+002    +7.3306076e-008    +4.1291891e-008
+1.3700000e+002    +7.7265682e-008    +4.0887485e-008
+1.3800000e+002    +7.1338413e-008    +4.0630788e-008
+1.3900000e+002    +7.3967342e-008    +3.9670471e-008
+1.4000000e+002    +8.4776801e-008    +3.9591363e-008
+1.4100000e+002    +9.1266806e-008    +3.9503437e-008
+1.4200000e+002    +1.3105154e-007    +3.8153669e-008
+1.4300000e+002    +1.9362740e-007    +4.0013120e-008
+1.4400000e+002    +2.9007106e-007    +4.1067899e-008
+1.4500000e+002    +4.5905253e-007    +4.0806981e-008
+1.4600000e+002    +6.3622650e-007    +4.1606953e-008
+1.4700000e+002    +4.9565006e-007    +4.0321080e-008
+1.4800000e+002    +2.7816628e-007    +3.8303892e-008
+1.4900000e+002    +1.5960214e-007    +3.8626084e-008
+1.5000000e+002    +1.1942416e-007    +3.7484899e-008
+1.5100000e+002    +9.4404307e-008    +3.7437765e-008
+1.5200000e+002    +8.5664574e-008    +4.1421256e-008
+1.5300000e+002    +7.9556870e-008    +4.5000103e-008
+1.5400000e+002    +7.6055180e-008    +4.2040853e-008
+1.5500000e+002    +1.1656007e-007    +3.6608501e-008
+1.5600000e+002    +1.0568910e-007    +3.5983366e-008
+1.5700000e+002    +7.1953885e-008    +3.4305984e-008
+1.5800000e+002    +7.1491868e-008    +3.3808920e-008
+1.5900000e+002    +6.3401316e-008    +3.5802479e-008
+1.6000000e+002    +6.4632225e-008    +3.7977589e-008
+1.6100000e+002    +6.2389660e-008    +3.6858680e-008
+1.6200000e+002    +5.8952740e-008    +3.9336932e-008
+1.6300000e+002    +6.4185855e-008    +3.6889247e-008
+1.6400000e+002    +6.8118460e-008    +3.6151274e-008
+1.6500000e+002    +6.6323246e-008    +3.5877839e-008
+1.6600000e+002    +6.6210326e-008    +3.3527275e-008
+1.6700000e+002    +6.4865191e-008    +3.5984829e-008
+1.6800000e+002    +6.7491470e-008    +3.8034923e-008
+1.6900000e+002    +6.5564244e-008    +3.8570821e-008
+1.7000000e+002    +6.5402261e-008    +3.7236234e-008
+1.7100000e+002    +6.3553742e-008    +3.6353153e-008
+1.7200000e+002    +5.8392867e-008    +3.6318006e-008
+1.7300000e+002    +5.5499846e-008    +3.7975045e-008
+1.7400000e+002    +5.3948501e-008    +3.6046714e-008
+1.7500000e+002    +5.7441131e-008    +3.6162547e-008
+1.7600000e+002    +5.8261264e-008    +3.6607336e-008
+1.7700000e+002    +5.5084119e-008    +3.5727087e-008
+1.7800000e+002    +6.0148309e-008    +3.6468371e-008
+1.7900000e+002    +4.3548550e-007    +5.8861350e-008
+1.8000000e+002    +8.1094578e-007    +8.7311129e-008
+1.8100000e+002    +3.8383376e-007    +5.1248485e-008
+1.8200000e+002    +5.2857935e-008    +3.7106613e-008
+1.8300000e+002    +5.8328663e-008    +3.7140037e-008
+1.8400000e+002    +6.0356236e-008    +3.7832010e-008
+1.8500000e+002    +5.8282378e-008    +3.9397573e-008
+1.8600000e+002    +5.9417104e-008    +3.8113640e-008
+1.8700000e+002    +5.5066764e-008    +3.4832379e-008
+1.8800000e+002    +5.3755507e-008    +3.3679392e-008
+1.8900000e+002    +5.4045078e-008    +3.1902779e-008
+1.9000000e+002    +4.9251344e-008    +3.1267959e-008
+1.9100000e+002    +5.2623182e-008    +3.1760010e-008
+1.9200000e+002    +5.4885437e-008    +3.4440227e-008
+1.9300000e+002    +5.7549332e-008    +3.7947245e-008
+1.9400000e+002    +5.7531643e-008    +3.7593175e-008
+1.9500000e+002    +5.9070921e-008    +3.7085556e-008
+1.9600000e+002    +5.5624664e-008    +3.4036976e-008
+1.9700000e+002    +5.2879937e-008    +3.4848942e-008
+1.9800000e+002    +5.6464408e-008    +3.3801978e-008
+1.9900000e+002    +5.5732073e-008    +3.6702758e-008
+2.0000000e+002    +5.7939562e-008    +3.9628244e-008
+2.0100000e+002    +5.7841042e-008    +3.6215553e-008
+2.0200000e+002    +5.6832807e-008    +3.3880973e-008
+2.0300000e+002    +5.1797436e-008    +3.5552212e-008
+2.0400000e+002    +4.8662120e-008    +3.6751672e-008
+2.0500000e+002    +4.9836107e-008    +3.3554453e-008
+2.0600000e+002    +5.2321180e-008    +3.5647268e-008
+2.0700000e+002    +5.7347364e-008    +3.5372366e-008
+2.0800000e+002    +5.2508213e-008    +3.5150372e-008
+2.0900000e+002    +5.5048869e-008    +3.7119776e-008
+2.1000000e+002    +5.7135626e-008    +3.7095045e-008
+2.1100000e+002    +5.1455803e-008    +3.6215354e-008
+2.1200000e+002    +5.6172610e-008    +3.6222669e-008
+2.1300000e+002    +5.8163348e-008    +3.3540310e-008
+2.1400000e+002    +5.4801678e-008    +3.2681054e-008
+2.1500000e+002    +5.4335786e-008    +3.0713714e-008
+2.1600000e+002    +6.6784992e-008    +3.3179639e-008
+2.1700000e+002    +1.0927284e-007    +3.8573361e-008
+2.1800000e+002    +9.1304287e-008    +3.8412971e-008
+2.1900000e+002    +6.3114818e-008    +3.6412036e-008
+2.2000000e+002    +5.8746686e-008    +3.3854793e-008
+2.2100000e+002    +5.5498688e-008    +3.6763538e-008
+2.2200000e+002    +5.3312206e-008    +3.4878532e-008
+2.2300000e+002    +5.1825651e-008    +3.3664197e-008
+2.2400000e+002    +5.2085205e-008    +3.3709579e-008
+2.2500000e+002    +5.4569014e-008    +3.5913111e-008
+2.2600000e+002    +5.2363188e-008    +3.7841190e-008
+2.2700000e+002    +4.9174403e-008    +3.9039616e-008
+2.2800000e+002    +5.3138468e-008    +3.5874688e-008
+2.2900000e+002    +5.4769377e-008    +3.3514024e-008
+2.3000000e+002    +5.1126190e-008    +3.2320997e-008
+2.3100000e+002    +5.3087618e-008    +3.1165239e-008
+2.3200000e+002    +5.4435926e-008    +3.2260655e-008
+2.3300000e+002    +5.0501058e-008    +3.3772004e-008
+2.3400000e+002    +5.0750355e-008    +3.4320262e-008
+2.3500000e+002    +5.2493803e-008    +3.4261529e-008
+2.3600000e+002    +5.5672199e-008    +3.5123058e-008
+2.3700000e+002    +5.3430050e-008    +3.3417130e-008
+2.3800000e+002    +4.8849373e-008    +3.0758564e-008
+2.3900000e+002    +6.6347276e-008    +3.1804049e-008
+2.4000000e+002    +8.9251081e-008    +3.2629817e-008
+2.4100000e+002    +6.0904235e-008    +3.4454786e-008
+2.4200000e+002    +4.9116178e-008    +3.4512183e-008
+2.4300000e+002    +4.9620603e-008    +3.2450039e-008
+2.4400000e+002    +4.7005091e-008    +3.3580989e-008
+2.4500000e+002    +5.1193034e-008    +3.4474617e-008
+2.4600000e+002    +4.8171618e-008    +3.5527549e-008
+2.4700000e+002    +4.6735536e-008    +3.4923058e-008
+2.4800000e+002    +5.1559919e-008    +3.4113558e-008
+2.4900000e+002    +5.1589307e-008    +3.1014089e-008
+2.5000000e+002    +5.5299850e-008    +3.2770163e-008
+2.5100000e+002    +5.4660280e-008    +3.4244792e-008
+2.5200000e+002    +5.4319742e-008    +3.1537965e-008
+2.5300000e+002    +5.5691945e-008    +3.3005922e-008
+2.5400000e+002    +6.0074328e-008    +3.5747252e-008
+2.5500000e+002    +5.9246752e-008    +3.5260999e-008
+2.5600000e+002    +6.2545283e-008    +3.3835768e-008
+2.5700000e+002    +6.6737933e-008    +3.3364451e-008
+2.5800000e+002    +6.9823372e-008    +3.1997846e-008
+2.5900000e+002    +7.0282169e-008    +2.9075022e-008
+2.6000000e+002    +7.5016182e-008    +3.1620903e-008
+2.6100000e+002    +7.3397402e-008    +3.7004209e-008
+2.6200000e+002    +9.1094911e-008    +3.4417848e-008
+2.6300000e+002    +1.0343795e-007    +3.0972640e-008
+2.6400000e+002    +1.1038477e-007    +3.2987952e-008
+2.6500000e+002    +1.1549874e-007    +3.2780743e-008
+2.6600000e+002    +1.1973296e-007    +3.6193171e-008
+2.6700000e+002    +1.3696183e-007    +3.6168384e-008
+2.6800000e+002    +1.6245531e-007    +3.5888121e-008
+2.6900000e+002    +1.8119046e-007    +3.4172341e-008
+2.7000000e+002    +2.2823399e-007    +3.1425142e-008
+2.7100000e+002    +2.8711506e-007    +3.2873555e-008
+2.7200000e+002    +3.1440430e-007    +3.3691300e-008
+2.7300000e+002    +4.6607067e-007    +3.2794098e-008
+2.7400000e+002    +6.8807310e-007    +3.3431629e-008
+2.7500000e+002    +5.9960917e-007    +3.2804543e-008
+2.7600000e+002    +6.7068714e-007    +3.3115583e-008
+2.7700000e+002    +8.5852139e-007    +3.4201356e-008
+2.7800000e+002    +9.1857021e-007    +3.5121399e-008
+2.7900000e+002    +8.9157743e-007    +3.6834930e-008
+2.8000000e+002    +7.1163259e-007    +3.6377909e-008
+2.8100000e+002    +6.5667484e-007    +3.3426417e-008
+2.8200000e+002    +4.7489084e-007    +3.1353665e-008
+2.8300000e+002    +4.1245943e-007    +3.0431348e-008
+2.8400000e+002    +3.2296592e-007    +3.0951430e-008
+2.8500000e+002    +2.7223902e-007    +3.2351355e-008
+2.8600000e+002    +2.2976066e-007    +3.2821728e-008
+2.8700000e+002    +2.0348337e-007    +3.3913725e-008
+2.8800000e+002    +1.8817643e-007    +3.3921246e-008
+2.8900000e+002    +1.7006843e-007    +3.0550932e-008
+2.9000000e+002    +1.6120390e-007    +3.1999779e-008
+2.9100000e+002    +1.4639842e-007    +3.2166611e-008
+2.9200000e+002    +1.3382459e-007    +3.2004277e-008
+2.9300000e+002    +1.1504589e-007    +3.1105245e-008
+2.9400000e+002    +1.0500494e-007    +3.1485651e-008
+2.9500000e+002    +1.0118730e-007    +3.3701255e-008
+2.9600000e+002    +9.1360143e-008    +3.4930537e-008
+2.9700000e+002    +8.1379646e-008    +3.4653056e-008
+2.9800000e+002    +7.3674336e-008    +3.4108467e-008
+2.9900000e+002    +9.8899143e-008    +3.2722056e-008
+3.0000000e+002    +1.6428218e-007    +3.7072446e-008
+3.0100000e+002    +9.7541118e-008    +3.4117978e-008
+3.0200000e+002    +6.3948306e-008    +3.4627877e-008
+3.0300000e+002    +6.0295626e-008    +3.4514649e-008
+3.0400000e+002    +6.1848397e-008    +3.3079608e-008
+3.0500000e+002    +5.8444758e-008    +3.3764216e-008
+3.0600000e+002    +5.5236132e-008    +3.5905462e-008
+3.0700000e+002    +5.5219154e-008    +3.3423699e-008
+3.0800000e+002    +5.0563919e-008    +3.5073576e-008
+3.0900000e+002    +4.9735416e-008    +3.5412700e-008
+3.1000000e+002    +5.6620358e-008    +3.3743909e-008
+3.1100000e+002    +5.6896614e-008    +3.3736942e-008
+3.1200000e+002    +5.8944327e-008    +3.6709970e-008
+3.1300000e+002    +5.7317649e-008    +3.4212924e-008
+3.1400000e+002    +5.4269904e-008    +3.5912915e-008
+3.1500000e+002    +5.4210410e-008    +3.5391128e-008
+3.1600000e+002    +5.1711403e-008    +3.2522518e-008
+3.1700000e+002    +4.9947143e-008    +3.1525534e-008
+3.1800000e+002    +5.0571749e-008    +3.4347817e-008
+3.1900000e+002    +4.6943715e-008    +3.2771062e-008
+3.2000000e+002    +4.6361524e-008    +3.5278852e-008
+3.2100000e+002    +4.7872188e-008    +3.4963076e-008
+3.2200000e+002    +4.6137586e-008    +3.4655297e-008
+3.2300000e+002    +4.6364427e-008    +3.5632244e-008
+3.2400000e+002    +4.7058226e-008    +3.5041783e-008
+3.2500000e+002    +4.7969106e-008    +3.6795520e-008
+3.2600000e+002    +4.5691390e-008    +3.5267000e-008
+3.2700000e+002    +4.3554479e-008    +3.1509444e-008
+3.2800000e+002    +4.5683919e-008    +3.4722216e-008
+3.2900000e+002    +4.5305189e-008    +3.4684039e-008
+3.3000000e+002    +4.9557443e-008    +3.0343134e-008
+3.3100000e+002    +4.8949879e-008    +3.2481765e-008
+3.3200000e+002    +4.7797819e-008    +3.3382403e-008
+3.3300000e+002    +4.9928992e-008    +3.3255205e-008
+3.3400000e+002    +4.4934140e-008    +3.3189366e-008
+3.3500000e+002    +4.1079176e-008    +3.1773858e-008
+3.3600000e+002    +4.2991235e-008    +3.4261038e-008
+3.3700000e+002    +4.6610189e-008    +3.6091148e-008
+3.3800000e+002    +4.8125678e-008    +3.6219291e-008
+3.3900000e+002    +4.6942375e-008    +3.4949029e-008
+3.4000000e+002    +4.8790248e-008    +3.4867504e-008
+3.4100000e+002    +5.1254677e-008    +3.3875615e-008
+3.4200000e+002    +4.8102169e-008    +3.4602866e-008
+3.4300000e+002    +4.8376741e-008    +3.4496349e-008
+3.4400000e+002    +5.1861342e-008    +3.3535891e-008
+3.4500000e+002    +5.1787485e-008    +3.3671888e-008
+3.4600000e+002    +5.8078090e-008    +3.4357853e-008
+3.4700000e+002    +5.9741566e-008    +3.6381547e-008
+3.4800000e+002    +5.7229425e-008    +3.5286405e-008
+3.4900000e+002    +6.2800503e-008    +3.4227952e-008
+3.5000000e+002    +6.2917628e-008    +3.3066279e-008
+3.5100000e+002    +6.2120279e-008    +3.6068251e-008
+3.5200000e+002    +5.8278282e-008    +3.6190190e-008
+3.5300000e+002    +6.5130315e-008    +3.3204383e-008
+3.5400000e+002    +6.3693662e-008    +3.8157943e-008
+3.5500000e+002    +5.4236903e-008    +3.5054633e-008
+3.5600000e+002    +6.4153866e-008    +3.4277445e-008
+3.5700000e+002    +5.9796228e-008    +3.6185106e-008
+3.5800000e+002    +5.1620017e-008    +3.3818235e-008
+3.5900000e+002    +4.8717290e-008    +3.4706780e-008
+3.6000000e+002    +5.3232661e-008    +3.7453511e-008
+3.6100000e+002    +4.6440238e-008    +4.0478682e-008
+3.6200000e+002    +4.3219117e-008    +3.9433449e-008
+3.6300000e+002    +4.9182340e-008    +3.6616218e-008
+3.6400000e+002    +4.6361524e-008    +3.7057880e-008
+3.6500000e+002    +4.0854680e-008    +3.7641374e-008
+3.6600000e+002    +4.5428770e-008    +3.6539031e-008
+3.6700000e+002    +4.9670803e-008    +3.4865934e-008
+3.6800000e+002    +4.3941675e-008    +3.6684668e-008
+3.6900000e+002    +4.0448917e-008    +3.8132058e-008
+3.7000000e+002    +4.7321848e-008    +4.0343089e-008
+3.7100000e+002    +4.9583623e-008    +3.9615237e-008
+3.7200000e+002    +5.2388319e-008    +3.8245183e-008
+3.7300000e+002    +5.0855668e-008    +3.7620342e-008
+3.7400000e+002    +4.8284779e-008    +3.7989974e-008
+3.7500000e+002    +4.7365099e-008    +3.7594909e-008
+3.7600000e+002    +4.4416165e-008    +3.6985078e-008
+3.7700000e+002    +4.4816680e-008    +3.2526231e-008
+3.7800000e+002    +5.0617690e-008    +3.0394482e-008
+3.7900000e+002    +5.2358072e-008    +3.3003495e-008
+3.8000000e+002    +5.1334425e-008    +3.6369642e-008
+3.8100000e+002    +5.2502909e-008    +3.7990851e-008
+3.8200000e+002    +4.9762509e-008    +3.6041214e-008
+3.8300000e+002    +4.9194004e-008    +3.7437065e-008
+3.8400000e+002    +5.1204445e-008    +3.7749356e-008
+3.8500000e+002    +4.4337963e-008    +3.5224044e-008
+3.8600000e+002    +4.1669768e-008    +4.0284664e-008
+3.8700000e+002    +4.0820694e-008    +4.1379664e-008
+3.8800000e+002    +4.4513168e-008    +3.9766103e-008
+3.8900000e+002    +4.4401730e-008    +3.8489766e-008
+3.9000000e+002    +4.5577153e-008    +3.7520394e-008
+3.9100000e+002    +4.7622439e-008    +3.8220751e-008
+3.9200000e+002    +4.5341018e-008    +3.9964164e-008
+3.9300000e+002    +4.9112241e-008    +3.9799520e-008
+3.9400000e+002    +5.1869883e-008    +3.9661760e-008
+3.9500000e+002    +4.6021018e-008    +3.7311580e-008
+3.9600000e+002    +4.6494524e-008    +3.5932516e-008
+3.9700000e+002    +4.3647066e-008    +3.6892445e-008
+3.9800000e+002    +4.3461903e-008    +3.7778005e-008
+3.9900000e+002    +4.5765447e-008    +4.0211482e-008
+4.0000000e+002    +4.8769841e-008    +4.0387853e-008
+4.0100000e+002    +4.7262862e-008    +3.7109018e-008
+4.0200000e+002    +4.7564122e-008    +3.6708762e-008
+4.0300000e+002    +5.0252268e-008    +3.7362412e-008
+4.0400000e+002    +4.6799926e-008    +3.8652004e-008
+4.0500000e+002    +4.6009198e-008    +3.8705004e-008
+4.0600000e+002    +4.8061310e-008    +4.1224300e-008
+4.0700000e+002    +4.6667594e-008    +4.2543462e-008
+4.0800000e+002    +4.5910948e-008    +3.8087201e-008
+4.0900000e+002    +4.6471200e-008    +3.7699071e-008
+4.1000000e+002    +4.1936708e-008    +4.1036440e-008
+4.1100000e+002    +4.3577870e-008    +4.1158543e-008
+4.1200000e+002    +4.1395797e-008    +4.1318511e-008
+4.1300000e+002    +4.0391399e-008    +3.9818008e-008
+4.1400000e+002    +4.0688377e-008    +4.2608111e-008
+4.1500000e+002    +4.2829495e-008    +4.1605123e-008
+4.1600000e+002    +4.1383799e-008    +3.8999431e-008
+4.1700000e+002    +4.2016811e-008    +3.8889922e-008
+4.1800000e+002    +3.9087908e-008    +3.8236365e-008
+4.1900000e+002    +9.0587932e-008    +3.7763616e-008
+4.2000000e+002    +1.5461426e-007    +3.9369034e-008
+4.2100000e+002    +7.9581852e-008    +3.9949072e-008
+4.2200000e+002    +4.2376193e-008    +3.9461863e-008
+4.2300000e+002    +4.1184716e-008    +4.0709825e-008
+4.2400000e+002    +4.2966178e-008    +4.3368093e-008
+4.2500000e+002    +4.2170299e-008    +4.4211522e-008
+4.2600000e+002    +4.4312799e-008    +4.2918984e-008
+4.2700000e+002    +4.4649688e-008    +4.2094435e-008
+4.2800000e+002    +4.6677687e-008    +4.1829978e-008
+4.2900000e+002    +4.2740051e-008    +4.3002945e-008
+4.3000000e+002    +4.2478863e-008    +4.4334165e-008
+4.3100000e+002    +4.2965187e-008    +4.2999734e-008
+4.3200000e+002    +4.6113531e-008    +4.1254367e-008
+4.3300000e+002    +4.9091327e-008    +3.7894285e-008
+4.3400000e+002    +1.6852157e-007    +3.4793278e-008
+4.3500000e+002    +2.1369948e-007    +4.1441226e-008
+4.3600000e+002    +7.6594183e-008    +4.2619014e-008
+4.3700000e+002    +5.9901694e-008    +4.2249873e-008
+4.3800000e+002    +5.7211142e-008    +4.5247674e-008
+4.3900000e+002    +5.3522292e-008    +4.5667868e-008
+4.4000000e+002    +5.9708512e-008    +4.2671079e-008
+4.4100000e+002    +6.6648454e-008    +4.3273580e-008
+4.4200000e+002    +6.6885015e-008    +4.1619426e-008
+4.4300000e+002    +7.1749639e-008    +4.0888562e-008
+4.4400000e+002    +7.1637153e-008    +4.1682352e-008
+4.4500000e+002    +5.7653939e-008    +4.3616261e-008
+4.4600000e+002    +4.8148351e-008    +4.1651926e-008
+4.4700000e+002    +4.7219242e-008    +4.1876710e-008
+4.4800000e+002    +4.6518164e-008    +4.1886366e-008
+4.4900000e+002    +4.5550589e-008    +4.1121595e-008
+4.5000000e+002    +4.2450235e-008    +4.1063348e-008
+4.5100000e+002    +4.3319314e-008    +4.3532918e-008
+4.5200000e+002    +4.4296552e-008    +4.1321098e-008
+4.5300000e+002    +4.0050391e-008    +4.2398298e-008
+4.5400000e+002    +3.9870638e-008    +4.6115709e-008
+4.5500000e+002    +3.8955051e-008    +4.7294943e-008
+4.5600000e+002    +3.9371972e-008    +4.5018140e-008
+4.5700000e+002    +4.2820986e-008    +4.4189974e-008
+4.5800000e+002    +4.0951193e-008    +4.6809895e-008
+4.5900000e+002    +4.2238742e-008    +4.3396813e-008
+4.6000000e+002    +4.0476017e-008    +4.2233641e-008
+4.6100000e+002    +3.6395608e-008    +4.1880618e-008
+4.6200000e+002    +3.5696267e-008    +4.0766096e-008
+4.6300000e+002    +3.4000781e-008    +4.3503629e-008
+4.6400000e+002    +3.8396188e-008    +4.2955850e-008
+4.6500000e+002    +3.8760927e-008    +3.9795630e-008
+4.6600000e+002    +3.9275132e-008    +4.4377948e-008
+4.6700000e+002    +4.3376808e-008    +4.5833435e-008
+4.6800000e+002    +4.0920764e-008    +4.4359531e-008
+4.6900000e+002    +3.8135827e-008    +4.2858613e-008
+4.7000000e+002    +4.1016573e-008    +4.5281915e-008
+4.7100000e+002    +4.1907391e-008    +4.7123166e-008
+4.7200000e+002    +4.5003659e-008    +4.5539839e-008
+4.7300000e+002    +4.2350703e-008    +4.5154025e-008
+4.7400000e+002    +4.4507793e-008    +4.4777821e-008
+4.7500000e+002    +4.8010151e-008    +4.3692566e-008
+4.7600000e+002    +4.5271378e-008    +4.1721179e-008
+4.7700000e+002    +4.2004682e-008    +4.4949388e-008
+4.7800000e+002    +4.3006157e-008    +4.7637290e-008
+4.7900000e+002    +6.6068353e-008    +4.7936094e-008
+4.8000000e+002    +9.4604459e-008    +4.8674249e-008
+4.8100000e+002    +6.0802741e-008    +4.5107893e-008
+4.8200000e+002    +4.8390287e-008    +4.3865850e-008
+4.8300000e+002    +4.7266703e-008    +4.8187012e-008
+4.8400000e+002    +4.7621810e-008    +4.8304717e-008
+4.8500000e+002    +5.3943406e-008    +4.9108575e-008
+4.8600000e+002    +5.2940003e-008    +5.0556981e-008
+4.8700000e+002    +5.5220610e-008    +4.9164090e-008
+4.8800000e+002    +5.9871319e-008    +4.9232369e-008
+4.8900000e+002    +6.1353980e-008    +4.8934456e-008
+4.9000000e+002    +6.5737964e-008    +4.7795403e-008
+4.9100000e+002    +7.0688849e-008    +4.8410001e-008
+4.9200000e+002    +7.8023128e-008    +4.9127397e-008
+4.9300000e+002    +7.4917246e-008    +4.5631129e-008
+4.9400000e+002    +7.0555558e-008    +4.7487415e-008
+4.9500000e+002    +6.8682994e-008    +4.5267800e-008
+4.9600000e+002    +6.5729957e-008    +4.8820631e-008
+4.9700000e+002    +6.3914896e-008    +5.0680473e-008
+4.9800000e+002    +6.9358201e-008    +4.9118498e-008
+4.9900000e+002    +8.1697195e-008    +4.8462756e-008
+5.0000000e+002    +6.9248401e-008    +4.8109090e-008
+5.0100000e+002    +6.1760311e-008    +4.4373124e-008
+5.0200000e+002    +6.4378042e-008    +4.9375227e-008
+5.0300000e+002    +7.3939653e-008    +5.0287703e-008
+5.0400000e+002    +7.8503476e-008    +5.1653412e-008
+5.0500000e+002    +7.4567247e-008    +5.2547950e-008
+5.0600000e+002    +8.7817604e-008    +4.6727582e-008
+5.0700000e+002    +1.0300774e-007    +4.7447493e-008
+5.0800000e+002    +1.0927308e-007    +5.1817345e-008
+5.0900000e+002    +1.1012232e-007    +5.3052482e-008
+5.1000000e+002    +1.1726362e-007    +5.3401138e-008
+5.1100000e+002    +1.1937315e-007    +5.1394824e-008
+5.1200000e+002    +1.1163419e-007    +5.1667932e-008
+5.1300000e+002    +9.8957038e-008    +5.3834537e-008
+5.1400000e+002    +8.2295522e-008    +4.9790327e-008
+5.1500000e+002    +6.8925715e-008    +4.6737586e-008
+5.1600000e+002    +6.1012990e-008    +4.9737384e-008
+5.1700000e+002    +5.2857008e-008    +5.3179559e-008
+5.1800000e+002    +4.9931188e-008    +5.4985804e-008
+5.1900000e+002    +5.0515087e-008    +5.3809480e-008
+5.2000000e+002    +5.1343161e-008    +5.1561106e-008
+5.2100000e+002    +5.0494847e-008    +5.0273901e-008
+5.2200000e+002    +4.5461203e-008    +5.4286293e-008
+5.2300000e+002    +4.1004732e-008    +5.7110725e-008
+5.2400000e+002    +3.9375994e-008    +5.3441667e-008
+5.2500000e+002    +4.2715424e-008    +5.2906245e-008
+5.2600000e+002    +4.6264454e-008    +5.0478164e-008
+5.2700000e+002    +5.0734645e-008    +5.0384696e-008
+5.2800000e+002    +5.8520079e-008    +5.1761791e-008
+5.2900000e+002    +7.1918258e-008    +5.7219058e-008
+5.3000000e+002    +9.3298851e-008    +5.3726065e-008
+5.3100000e+002    +1.1401413e-007    +5.5712128e-008
+5.3200000e+002    +1.4567017e-007    +5.2041877e-008
+5.3300000e+002    +1.6835345e-007    +5.3223076e-008
+5.3400000e+002    +1.7890859e-007    +5.7886279e-008
+5.3500000e+002    +1.8613328e-007    +5.6199443e-008
+5.3600000e+002    +2.0567744e-007    +5.4230355e-008
+5.3700000e+002    +1.8559270e-007    +5.8069293e-008
+5.3800000e+002    +1.6558349e-007    +5.6202900e-008
+5.3900000e+002    +1.5119197e-007    +5.2369110e-008
+5.4000000e+002    +1.3355098e-007    +5.3334865e-008
+5.4100000e+002    +1.1865811e-007    +5.0176954e-008
+5.4200000e+002    +1.2181212e-007    +5.0961365e-008
+5.4300000e+002    +1.1166422e-007    +5.7345346e-008
+5.4400000e+002    +9.7376009e-008    +5.8579737e-008
+5.4500000e+002    +9.4815661e-008    +5.4733547e-008
+5.4600000e+002    +1.2018710e-007    +5.7228355e-008
+5.4700000e+002    +1.8890282e-007    +5.7433688e-008
+5.4800000e+002    +3.4393105e-007    +5.5781232e-008
+5.4900000e+002    +6.0616634e-007    +5.6524701e-008
+5.5000000e+002    +9.4693729e-007    +5.2954480e-008
+5.5100000e+002    +1.2594409e-006    +5.5475354e-008
+5.5200000e+002    +2.0444588e-006    +5.9837866e-008
+5.5300000e+002    +2.5860490e-006    +5.6687600e-008
+5.5400000e+002    +1.3287189e-006    +5.7602939e-008
+5.5500000e+002    +6.6544402e-007    +5.3681429e-008
+5.5600000e+002    +5.3293479e-007    +5.7554072e-008
+5.5700000e+002    +4.6970732e-007    +5.9263016e-008
+5.5800000e+002    +4.0087392e-007    +6.0358225e-008
+5.5900000e+002    +3.3437098e-007    +6.2316609e-008
+5.6000000e+002    +2.9899317e-007    +5.6335789e-008
+5.6100000e+002    +2.5940599e-007    +5.6477802e-008
+5.6200000e+002    +2.2074781e-007    +5.3093096e-008
+5.6300000e+002    +1.9376010e-007    +5.3529813e-008
+5.6400000e+002    +1.7202022e-007    +5.8057179e-008
+5.6500000e+002    +1.6262770e-007    +6.0245931e-008
+5.6600000e+002    +1.3719647e-007    +5.6449224e-008
+5.6700000e+002    +1.2613714e-007    +5.9833134e-008
+5.6800000e+002    +1.0478991e-007    +5.4415370e-008
+5.6900000e+002    +9.6381257e-008    +6.0549915e-008
+5.7000000e+002    +1.0349078e-007    +5.4751940e-008
+5.7100000e+002    +1.0469158e-007    +5.8826849e-008
+5.7200000e+002    +1.1932298e-007    +5.9612091e-008
+5.7300000e+002    +1.2888215e-007    +5.9886638e-008
+5.7400000e+002    +1.4135385e-007    +6.0552907e-008
+5.7500000e+002    +1.6583638e-007    +5.6039855e-008
+5.7600000e+002    +1.7534818e-007    +6.3771267e-008
+5.7700000e+002    +2.1482161e-007    +6.5093140e-008
+5.7800000e+002    +2.6913474e-007    +6.0578245e-008
+5.7900000e+002    +3.3075938e-007    +5.5324993e-008
+5.8000000e+002    +3.4057311e-007    +5.5317521e-008
+5.8100000e+002    +3.0110752e-007    +6.1161423e-008
+5.8200000e+002    +2.5710102e-007    +5.9388078e-008
+5.8300000e+002    +2.0377088e-007    +5.5609519e-008
+5.8400000e+002    +1.7597732e-007    +5.8649047e-008
+5.8500000e+002    +1.5119446e-007    +6.1766826e-008
+5.8600000e+002    +1.3216476e-007    +6.0334500e-008
+5.8700000e+002    +1.0142833e-007    +6.1703382e-008
+5.8800000e+002    +8.2550088e-008    +6.3555973e-008
+5.8900000e+002    +7.1222040e-008    +6.6343418e-008
+5.9000000e+002    +6.3333133e-008    +5.8353773e-008
+5.9100000e+002    +5.6895551e-008    +6.0729548e-008
+5.9200000e+002    +6.0246791e-008    +6.3471944e-008
+5.9300000e+002    +5.7555589e-008    +5.9014198e-008
+5.9400000e+002    +5.1984024e-008    +5.8380369e-008
+5.9500000e+002    +5.1026031e-008    +6.0795195e-008
+5.9600000e+002    +5.4941268e-008    +6.3629358e-008
+5.9700000e+002    +5.6005717e-008    +6.1603870e-008
+5.9800000e+002    +5.4748213e-008    +6.0240247e-008
+5.9900000e+002    +6.5143617e-008    +6.1924155e-008
+6.0000000e+002    +8.0775827e-008    +6.5409083e-008
+6.0100000e+002    +8.1434344e-008    +6.6202908e-008
+6.0200000e+002    +1.0190129e-007    +6.9040915e-008
+6.0300000e+002    +1.4308240e-007    +6.6469923e-008
+6.0400000e+002    +2.2075531e-007    +6.2620934e-008
+6.0500000e+002    +2.7802460e-007    +6.3880655e-008
+6.0600000e+002    +2.6871962e-007    +6.8775812e-008
+6.0700000e+002    +1.4197400e-007    +6.5910264e-008
+6.0800000e+002    +6.9669369e-008    +6.4231187e-008
+6.0900000e+002    +4.7038959e-008    +6.7104288e-008
+6.1000000e+002    +3.9935170e-008    +6.4094728e-008
+6.1100000e+002    +4.0367372e-008    +6.5071916e-008
+6.1200000e+002    +3.8833388e-008    +6.4894614e-008
+6.1300000e+002    +3.9100399e-008    +6.2016831e-008
+6.1400000e+002    +4.1456335e-008    +5.9404449e-008
+6.1500000e+002    +4.7457078e-008    +6.3839288e-008
+6.1600000e+002    +4.3230795e-008    +6.4179865e-008
+6.1700000e+002    +3.8802145e-008    +6.2794165e-008
+6.1800000e+002    +3.6824176e-008    +6.6461823e-008
+6.1900000e+002    +3.6627597e-008    +6.5869969e-008
+6.2000000e+002    +3.7993143e-008    +6.6199640e-008
+6.2100000e+002    +3.8132224e-008    +7.2592115e-008
+6.2200000e+002    +3.8341845e-008    +7.1528298e-008
+6.2300000e+002    +3.8266268e-008    +7.0291350e-008
+6.2400000e+002    +3.9236600e-008    +7.1964074e-008
+6.2500000e+002    +4.0763052e-008    +6.8800581e-008
+6.2600000e+002    +4.0365599e-008    +6.5004720e-008
+6.2700000e+002    +3.8633210e-008    +6.1455445e-008
+6.2800000e+002    +3.8084192e-008    +6.4990516e-008
+6.2900000e+002    +3.5558848e-008    +7.1002951e-008
+6.3000000e+002    +4.0556579e-008    +6.7839387e-008
+6.3100000e+002    +4.1741657e-008    +6.4889839e-008
+6.3200000e+002    +3.8714226e-008    +6.4381219e-008
+6.3300000e+002    +3.7115417e-008    +6.6918730e-008
+6.3400000e+002    +3.4417770e-008    +6.1462806e-008
+6.3500000e+002    +3.6072134e-008    +6.4867471e-008
+6.3600000e+002    +3.8249762e-008    +6.9558467e-008
+6.3700000e+002    +4.0306606e-008    +6.7128902e-008
+6.3800000e+002    +3.8078504e-008    +6.8838368e-008
+6.3900000e+002    +3.7011890e-008    +6.9148491e-008
+6.4000000e+002    +4.0152496e-008    +6.9150161e-008
+6.4100000e+002    +4.0549100e-008    +6.4592641e-008
+6.4200000e+002    +3.9033313e-008    +6.5645139e-008
+6.4300000e+002    +4.6809486e-008    +6.7928234e-008
+6.4400000e+002    +6.2291093e-008    +7.2614910e-008
+6.4500000e+002    +8.2087602e-008    +7.1520759e-008
+6.4600000e+002    +1.1263736e-007    +6.7246859e-008
+6.4700000e+002    +1.0394982e-007    +6.3150516e-008
+6.4800000e+002    +8.4570317e-008    +6.8326997e-008
+6.4900000e+002    +6.9422121e-008    +6.7296938e-008
+6.5000000e+002    +7.3151782e-008    +6.5469656e-008
+6.5100000e+002    +8.7112724e-008    +6.6885164e-008
+6.5200000e+002    +1.2501798e-007    +6.7324947e-008
+6.5300000e+002    +8.8249081e-008    +7.2375883e-008
+6.5400000e+002    +5.8885657e-008    +6.9565800e-008
+6.5500000e+002    +5.3173078e-008    +6.8778981e-008
+6.5600000e+002    +6.3221137e-008    +7.0896228e-008
+6.5700000e+002    +5.6693761e-008    +6.8547010e-008
+6.5800000e+002    +4.4340055e-008    +6.3386146e-008
+6.5900000e+002    +5.7206808e-008    +6.2156438e-008
+6.6000000e+002    +7.5825049e-008    +6.5763956e-008
+6.6100000e+002    +5.2949304e-008    +6.7519338e-008
+6.6200000e+002    +4.4998028e-008    +6.5542579e-008
+6.6300000e+002    +4.2715190e-008    +6.4207072e-008
+6.6400000e+002    +4.3730338e-008    +7.1812529e-008
+6.6500000e+002    +4.2739210e-008    +7.4775656e-008
+6.6600000e+002    +4.3825029e-008    +7.3301003e-008
+6.6700000e+002    +4.1216154e-008    +7.1711597e-008
+6.6800000e+002    +4.3623444e-008    +6.9866850e-008
+6.6900000e+002    +4.5611895e-008    +7.2233540e-008
+6.7000000e+002    +4.4041176e-008    +7.3499983e-008
+6.7100000e+002    +4.9159880e-008    +7.4474791e-008
+6.7200000e+002    +5.4253462e-008    +6.5866274e-008
+6.7300000e+002    +5.1116931e-008    +6.7056192e-008
+6.7400000e+002    +4.7358128e-008    +7.2798358e-008
+6.7500000e+002    +4.5980865e-008    +7.0421358e-008
+6.7600000e+002    +4.7307406e-008    +6.9801679e-008
+6.7700000e+002    +4.8451849e-008    +7.2158713e-008
+6.7800000e+002    +4.6162619e-008    +7.2971694e-008
+6.7900000e+002    +4.9266490e-008    +7.4800205e-008
+6.8000000e+002    +4.6193648e-008    +7.7690515e-008
+6.8100000e+002    +4.4555808e-008    +7.4695571e-008
+6.8200000e+002    +4.5648317e-008    +7.3881388e-008
+6.8300000e+002    +5.2765913e-008    +7.6302591e-008
+6.8400000e+002    +5.5398601e-008    +8.0772722e-008
+6.8500000e+002    +5.9160364e-008    +7.8022957e-008
+6.8600000e+002    +6.9429667e-008    +8.1095735e-008
+6.8700000e+002    +7.8808760e-008    +8.0930647e-008
+6.8800000e+002    +7.7051268e-008    +7.3808579e-008
+6.8900000e+002    +8.3771390e-008    +7.5794006e-008
+6.9000000e+002    +9.1358039e-008    +7.9802348e-008
+6.9100000e+002    +1.0288464e-007    +7.2405768e-008
+6.9200000e+002    +1.0704932e-007    +7.3467064e-008
+6.9300000e+002    +1.1999195e-007    +7.2515398e-008
+6.9400000e+002    +1.2369466e-007    +7.5898598e-008
+6.9500000e+002    +1.3739877e-007    +7.6145838e-008
+6.9600000e+002    +1.1101351e-007    +7.1725296e-008
+6.9700000e+002    +1.0350498e-007    +7.0102750e-008
+6.9800000e+002    +9.8891213e-008    +7.7573482e-008
+6.9900000e+002    +8.7851546e-008    +7.9108631e-008
+7.0000000e+002    +8.9766843e-008    +7.4806692e-008
+7.0100000e+002    +8.7928555e-008    +7.5469565e-008
+7.0200000e+002    +8.3893347e-008    +7.2642344e-008
+7.0300000e+002    +8.5760277e-008    +7.3393053e-008
+7.0400000e+002    +9.4659526e-008    +7.3187692e-008
+7.0500000e+002    +9.3011749e-008    +7.1757043e-008
+7.0600000e+002    +8.1550930e-008    +7.1470126e-008
+7.0700000e+002    +7.9961097e-008    +6.6910061e-008
+7.0800000e+002    +7.0218846e-008    +7.5417461e-008
+7.0900000e+002    +7.4336889e-008    +8.6300105e-008
+7.1000000e+002    +8.3275630e-008    +7.9651791e-008
+7.1100000e+002    +8.4630507e-008    +7.7391256e-008
+7.1200000e+002    +9.3150739e-008    +8.2241229e-008
+7.1300000e+002    +1.0311931e-007    +7.6422566e-008
+7.1400000e+002    +1.0994388e-007    +7.5011329e-008
+7.1500000e+002    +1.1790177e-007    +7.3930316e-008
+7.1600000e+002    +1.1400849e-007    +7.7964209e-008
+7.1700000e+002    +1.0852031e-007    +7.8104726e-008
+7.1800000e+002    +1.1250190e-007    +8.4585174e-008
+7.1900000e+002    +1.0939336e-007    +8.5868727e-008
+7.2000000e+002    +1.0952220e-007    +8.6799474e-008
+7.2100000e+002    +9.0340116e-008    +9.1369074e-008
+7.2200000e+002    +7.3802745e-008    +7.9961893e-008
+7.2300000e+002    +6.7449839e-008    +7.6548538e-008
+7.2400000e+002    +6.4800702e-008    +8.4151004e-008
+7.2500000e+002    +7.3555768e-008    +8.1714504e-008
+7.2600000e+002    +6.6642379e-008    +7.5856860e-008
+7.2700000e+002    +5.1852119e-008    +8.2500073e-008
+7.2800000e+002    +5.2201539e-008    +8.3280746e-008
+7.2900000e+002    +6.0794662e-008    +7.7944868e-008
+7.3000000e+002    +5.1537278e-008    +7.7253894e-008
+7.3100000e+002    +4.6938354e-008    +8.1521655e-008
+7.3200000e+002    +4.5977384e-008    +8.5526516e-008
+7.3300000e+002    +4.3083332e-008    +8.6761645e-008
+7.3400000e+002    +4.2332804e-008    +8.1853059e-008
+7.3500000e+002    +4.2994731e-008    +7.9139383e-008
+7.3600000e+002    +4.1805873e-008    +7.9701302e-008
+7.3700000e+002    +4.4749022e-008    +8.5406867e-008
+7.3800000e+002    +4.4211280e-008    +8.4371010e-008
+7.3900000e+002    +4.6653351e-008    +8.3902187e-008
+7.4000000e+002    +4.4360700e-008    +8.4240860e-008
+7.4100000e+002    +4.6778659e-008    +8.9279311e-008
+7.4200000e+002    +4.4927283e-008    +8.6519165e-008
+7.4300000e+002    +4.5258954e-008    +7.4953199e-008
+7.4400000e+002    +4.8240530e-008    +7.3375325e-008
+7.4500000e+002    +5.2721784e-008    +8.2159282e-008
+7.4600000e+002    +5.0423768e-008    +9.0863765e-008
+7.4700000e+002    +5.1134613e-008    +9.0888705e-008
+7.4800000e+002    +5.5439916e-008    +8.4950855e-008
+7.4900000e+002    +5.4721770e-008    +8.3066965e-008
+7.5000000e+002    +5.6630491e-008    +8.0836422e-008
+7.5100000e+002    +6.0528251e-008    +8.2258843e-008
+7.5200000e+002    +5.1796412e-008    +8.3378097e-008
+7.5300000e+002    +4.7319197e-008    +8.3991964e-008
+7.5400000e+002    +4.8205372e-008    +8.9796515e-008
+7.5500000e+002    +5.1184884e-008    +9.0431314e-008
+7.5600000e+002    +5.0285603e-008    +8.5485020e-008
+7.5700000e+002    +4.6791964e-008    +8.2796255e-008
+7.5800000e+002    +4.6658421e-008    +8.5422251e-008
+7.5900000e+002    +5.0171941e-008    +8.6963837e-008
+7.6000000e+002    +5.2924079e-008    +8.4541448e-008
+7.6100000e+002    +4.8006040e-008    +8.2058676e-008
+7.6200000e+002    +4.6982077e-008    +8.8780681e-008
+7.6300000e+002    +5.2744483e-008    +9.0010317e-008
+7.6400000e+002    +4.7910994e-008    +8.4644633e-008
+7.6500000e+002    +4.7184621e-008    +8.9907303e-008
+7.6600000e+002    +4.6826191e-008    +8.7436995e-008
+7.6700000e+002    +4.7411664e-008    +8.0957662e-008
+7.6800000e+002    +4.4297622e-008    +9.1764782e-008
+7.6900000e+002    +4.0821902e-008    +9.2374549e-008
+7.7000000e+002    +3.6960802e-008    +9.1585918e-008
+7.7100000e+002    +3.8521769e-008    +8.9393190e-008
+7.7200000e+002    +3.7610803e-008    +9.1278025e-008
+7.7300000e+002    +3.7586862e-008    +8.3525705e-008
+7.7400000e+002    +3.6846824e-008    +8.3990486e-008
+7.7500000e+002    +3.9587626e-008    +8.6442732e-008
+7.7600000e+002    +3.9518010e-008    +8.8828457e-008
+7.7700000e+002    +3.9800351e-008    +9.0395581e-008
+7.7800000e+002    +3.7719484e-008    +9.4057810e-008
+7.7900000e+002    +4.3221775e-008    +9.2252513e-008
+7.8000000e+002    +5.5205696e-008    +8.9774822e-008
+7.8100000e+002    +4.3761222e-008    +9.2956519e-008
+7.8200000e+002    +4.0722345e-008    +9.3368534e-008
+7.8300000e+002    +3.8960867e-008    +8.3187260e-008
+7.8400000e+002    +3.8684824e-008    +8.8086253e-008
+7.8500000e+002    +3.8161378e-008    +9.4778606e-008
+7.8600000e+002    +3.5989569e-008    +8.5397396e-008
+7.8700000e+002    +4.1845087e-008    +8.9973362e-008
+7.8800000e+002    +4.3617796e-008    +9.1097313e-008
+7.8900000e+002    +4.0269537e-008    +9.2831677e-008
+7.9000000e+002    +3.8115857e-008    +9.3622397e-008
+7.9100000e+002    +3.7020342e-008    +9.2673623e-008
+7.9200000e+002    +3.7312684e-008    +9.4478963e-008
+7.9300000e+002    +3.7442902e-008    +9.5687767e-008
+7.9400000e+002    +3.7453304e-008    +9.0107420e-008
+7.9500000e+002    +3.8770377e-008    +9.8903158e-008
+7.9600000e+002    +4.0727127e-008    +9.9202673e-008
+7.9700000e+002    +3.9893319e-008    +9.5773849e-008
+7.9800000e+002    +3.6966565e-008    +8.5877403e-008
+7.9900000e+002    +4.2756998e-008    +8.5765741e-008
#
#
# North DC Val: 0.55143945 VoltsSouth DC Val: 0.5369574300000001 Volts
# SR785 Measurement - Timestamp: Sep 01 2020 - 16:22:48
# Parameter File: /home/controls/Git/cit_ctnlab/ctn_scripts/TransRINSpecShort.yml
#---------- Measurement Setup ------------
# Start Frequency (Hz): 0.000000
# Frequency Span (Hz): 102400.000000
# Frequency Resolution: 800
# Number of Averages: 100
# Averaging Mode: RMS
# Window function: Hanning
#---------- Measurement Parameters ----------
# Measurement Group:  "FFT" "FFT"
# Measurements:  "FFT 1" "FFT 2"
# View:  "Log Magnitude" "Log Magnitude"
# Unit:  "Vrms/rtHz" "Vrms/rtHz"
#---------- Input Parameters ----------
# Input Source: Analog
# Input Mode: Single ended, Single ended
# Input Grounding: Float, Float
# Input Coupling: AC, AC
# Input Range: -36.0dBVpk, -36.0dBVpk
# Auto Range: Off, Off
# Auto Range Mode: Tracking, Tracking
# Anti-Aliasing Filter: On, On
#---------- Source Parameters ----------
# Source Type: Sine
# Source Amplitude: 500.0mVpk
# Source On: 0

#---------- Measurement Data ----------
# [Freq(Hz) Display 0(Vrms/rtHz) Display 1(Vrms/rtHz) ]
+8.9600000e+002    +9.2157556e-008    +1.0880689e-007
+1.0240000e+003    +7.7909618e-008    +1.2148742e-007
+1.1520000e+003    +4.6829946e-008    +1.3903973e-007
+1.2800000e+003    +4.1968264e-008    +1.6012959e-007
+1.4080000e+003    +4.8700763e-008    +1.7786641e-007
+1.5360000e+003    +5.5077344e-008    +1.9193135e-007
+1.6640000e+003    +6.1465165e-008    +1.9226817e-007
+1.7920000e+003    +6.2775896e-008    +2.0212663e-007
+1.9200000e+003    +7.4120180e-008    +2.0307982e-007
+2.0480000e+003    +8.8147402e-008    +2.1720233e-007
+2.1760000e+003    +1.0283134e-007    +2.2881886e-007
+2.3040000e+003    +1.0808426e-007    +2.2916156e-007
+2.4320000e+003    +1.1617064e-007    +2.1893820e-007
+2.5600000e+003    +1.3494254e-007    +2.2985377e-007
+2.6880000e+003    +1.4159835e-007    +2.3087738e-007
+2.8160000e+003    +1.5039147e-007    +2.1656938e-007
+2.9440000e+003    +1.6132199e-007    +2.2206611e-007
+3.0720000e+003    +1.8083809e-007    +2.2673613e-007
+3.2000000e+003    +1.9182896e-007    +2.1925574e-007
+3.3280000e+003    +1.9838365e-007    +2.3962011e-007
+3.4560000e+003    +2.2099468e-007    +2.5903913e-007
+3.5840000e+003    +2.1534588e-007    +2.4375436e-007
+3.7120000e+003    +2.1966827e-007    +2.2836835e-007
+3.8400000e+003    +2.2633046e-007    +2.3574719e-007
+3.9680000e+003    +2.8259578e-007    +2.5454835e-007
+4.0960000e+003    +2.9085302e-007    +2.4595778e-007
+4.2240000e+003    +3.0307575e-007    +2.4918097e-007
+4.3520000e+003    +3.2288543e-007    +2.3968011e-007
+4.4800000e+003    +3.2738913e-007    +2.3422884e-007
+4.6080000e+003    +3.3374599e-007    +2.3516526e-007
+4.7360000e+003    +3.2321353e-007    +2.5952821e-007
+4.8640000e+003    +3.3580253e-007    +2.5700845e-007
+4.9920000e+003    +3.8153124e-007    +2.2991435e-007
+5.1200000e+003    +3.7593588e-007    +2.4346443e-007
+5.2480000e+003    +4.0180589e-007    +2.4817783e-007
+5.3760000e+003    +4.4321754e-007    +2.5319480e-007
+5.5040000e+003    +4.1426668e-007    +2.6256259e-007
+5.6320000e+003    +4.7949464e-007    +2.5193279e-007
+5.7600000e+003    +4.8389859e-007    +2.6418280e-007
+5.8880000e+003    +4.5453319e-007    +2.7485950e-007
+6.0160000e+003    +4.6193040e-007    +2.8708575e-007
+6.1440000e+003    +4.7393968e-007    +2.9121219e-007
+6.2720000e+003    +5.2547375e-007    +2.8038690e-007
+6.4000000e+003    +5.9284952e-007    +3.0612210e-007
+6.5280000e+003    +6.1546001e-007    +2.8852418e-007
+6.6560000e+003    +6.1681908e-007    +2.9445306e-007
+6.7840000e+003    +6.0859844e-007    +2.9796348e-007
+6.9120000e+003    +6.5149766e-007    +2.8576838e-007
+7.0400000e+003    +6.7077252e-007    +3.1815085e-007
+7.1680000e+003    +6.6614581e-007    +3.2626093e-007
+7.2960000e+003    +6.8286801e-007    +3.2997517e-007
+7.4240000e+003    +7.0377843e-007    +3.4379775e-007
+7.5520000e+003    +6.8258765e-007    +3.2264728e-007
+7.6800000e+003    +6.8419939e-007    +3.3851410e-007
+7.8080000e+003    +7.2663244e-007    +3.7913301e-007
+7.9360000e+003    +7.3219763e-007    +3.3860221e-007
+8.0640000e+003    +7.6143158e-007    +3.2922679e-007
+8.1920000e+003    +7.5068090e-007    +3.0621354e-007
+8.3200000e+003    +7.9200146e-007    +2.8543190e-007
+8.4480000e+003    +8.1466538e-007    +2.6521514e-007
+8.5760000e+003    +8.0361650e-007    +2.8969134e-007
+8.7040000e+003    +7.9129484e-007    +2.9696994e-007
+8.8320000e+003    +8.5722246e-007    +2.7118918e-007
+8.9600000e+003    +8.7494612e-007    +2.5206478e-007
+9.0880000e+003    +8.5914184e-007    +2.4967613e-007
+9.2160000e+003    +8.6939968e-007    +2.3414373e-007
+9.3440000e+003    +8.7620742e-007    +2.2688280e-007
+9.4720000e+003    +8.9884600e-007    +2.2620650e-007
+9.6000000e+003    +9.5063439e-007    +2.0860443e-007
+9.7280000e+003    +9.6672920e-007    +1.9554615e-007
+9.8560000e+003    +9.7930649e-007    +2.0056258e-007
+9.9840000e+003    +1.0568249e-006    +2.1221008e-007
+1.0112000e+004    +1.0495584e-006    +2.0843342e-007
+1.0240000e+004    +1.0094661e-006    +2.0581705e-007
+1.0368000e+004    +1.0358058e-006    +1.8408441e-007
+1.0496000e+004    +1.0901998e-006    +1.8056468e-007
+1.0624000e+004    +1.1556267e-006    +1.8562307e-007
+1.0752000e+004    +1.1238621e-006    +1.8625369e-007
+1.0880000e+004    +1.1193426e-006    +1.7859868e-007
+1.1008000e+004    +1.0624454e-006    +1.7655830e-007
+1.1136000e+004    +9.9843987e-007    +1.8914315e-007
+1.1264000e+004    +1.0337199e-006    +1.8385617e-007
+1.1392000e+004    +1.0355352e-006    +1.7668921e-007
+1.1520000e+004    +1.0820490e-006    +1.7863634e-007
+1.1648000e+004    +1.1197582e-006    +1.7227312e-007
+1.1776000e+004    +1.0956766e-006    +1.5610664e-007
+1.1904000e+004    +1.0618588e-006    +1.6792590e-007
+1.2032000e+004    +1.1378889e-006    +1.6638134e-007
+1.2160000e+004    +1.0996791e-006    +1.6695485e-007
+1.2288000e+004    +1.0678636e-006    +1.7308857e-007
+1.2416000e+004    +1.0928220e-006    +1.6609296e-007
+1.2544000e+004    +1.1489542e-006    +1.7199396e-007
+1.2672000e+004    +1.1518733e-006    +1.7981053e-007
+1.2800000e+004    +1.1376042e-006    +1.6818386e-007
+1.2928000e+004    +1.0942543e-006    +1.7782267e-007
+1.3056000e+004    +1.1154915e-006    +1.7661162e-007
+1.3184000e+004    +1.2031134e-006    +1.7255688e-007
+1.3312000e+004    +1.1430543e-006    +1.7494318e-007
+1.3440000e+004    +1.1308792e-006    +1.8066879e-007
+1.3568000e+004    +1.1006322e-006    +1.7312715e-007
+1.3696000e+004    +1.1103728e-006    +1.7855477e-007
+1.3824000e+004    +1.1795577e-006    +1.7432157e-007
+1.3952000e+004    +1.1176419e-006    +1.8048263e-007
+1.4080000e+004    +1.0647541e-006    +1.8087044e-007
+1.4208000e+004    +1.0876305e-006    +1.7378419e-007
+1.4336000e+004    +1.0245774e-006    +1.7553175e-007
+1.4464000e+004    +9.9479496e-007    +1.9264114e-007
+1.4592000e+004    +1.0649950e-006    +1.9514829e-007
+1.4720000e+004    +1.1501811e-006    +1.9402579e-007
+1.4848000e+004    +1.1679168e-006    +1.8467453e-007
+1.4976000e+004    +1.1591493e-006    +1.7489766e-007
+1.5104000e+004    +1.1236401e-006    +1.7720483e-007
+1.5232000e+004    +1.1180309e-006    +1.7324523e-007
+1.5360000e+004    +1.1660627e-006    +1.8619644e-007
+1.5488000e+004    +1.0799838e-006    +1.9230026e-007
+1.5616000e+004    +1.0990176e-006    +1.9028525e-007
+1.5744000e+004    +1.1548264e-006    +1.7803268e-007
+1.5872000e+004    +1.1340611e-006    +1.7920998e-007
+1.6000000e+004    +1.0933885e-006    +2.0420180e-007
+1.6128000e+004    +1.0309169e-006    +2.0012968e-007
+1.6256000e+004    +9.8311921e-007    +1.9971810e-007
+1.6384000e+004    +1.0384168e-006    +2.1022727e-007
+1.6512000e+004    +1.0223681e-006    +2.0437113e-007
+1.6640000e+004    +1.0365271e-006    +2.1736575e-007
+1.6768000e+004    +1.0726969e-006    +1.9884747e-007
+1.6896000e+004    +1.0086595e-006    +2.0420359e-007
+1.7024000e+004    +9.1956213e-007    +2.0822344e-007
+1.7152000e+004    +1.0051152e-006    +2.0092581e-007
+1.7280000e+004    +1.0586296e-006    +2.1571410e-007
+1.7408000e+004    +9.6195822e-007    +2.4579418e-007
+1.7536000e+004    +9.5063649e-007    +2.4991692e-007
+1.7664000e+004    +9.9399028e-007    +2.2786091e-007
+1.7792000e+004    +9.8545024e-007    +2.1675326e-007
+1.7920000e+004    +9.6380404e-007    +2.2096096e-007
+1.8048000e+004    +9.1563498e-007    +2.3280586e-007
+1.8176000e+004    +9.8292378e-007    +2.3172890e-007
+1.8304000e+004    +9.2212008e-007    +2.3092429e-007
+1.8432000e+004    +8.7210145e-007    +2.4345158e-007
+1.8560000e+004    +9.0770129e-007    +2.3077018e-007
+1.8688000e+004    +8.9853717e-007    +2.1793474e-007
+1.8816000e+004    +9.3668871e-007    +2.4334685e-007
+1.8944000e+004    +8.9129850e-007    +2.4595778e-007
+1.9072000e+004    +8.9462901e-007    +2.4238821e-007
+1.9200000e+004    +8.6717171e-007    +2.4771967e-007
+1.9328000e+004    +9.0207794e-007    +2.5026731e-007
+1.9456000e+004    +9.7476129e-007    +2.4015296e-007
+1.9584000e+004    +9.0178679e-007    +2.4149776e-007
+1.9712000e+004    +8.1464395e-007    +2.3957801e-007
+1.9840000e+004    +8.0788772e-007    +2.5932397e-007
+1.9968000e+004    +9.2560850e-007    +2.6841295e-007
+2.0096000e+004    +9.7053339e-007    +2.8534510e-007
+2.0224000e+004    +8.4380548e-007    +2.9937422e-007
+2.0352000e+004    +8.5101811e-007    +2.8041060e-007
+2.0480000e+004    +8.1051849e-007    +2.6717274e-007
+2.0608000e+004    +7.4008773e-007    +2.8080837e-007
+2.0736000e+004    +8.2519182e-007    +2.4988290e-007
+2.0864000e+004    +8.0637324e-007    +2.5472616e-007
+2.0992000e+004    +8.3715207e-007    +2.6006532e-007
+2.1120000e+004    +8.6260980e-007    +2.6634797e-007
+2.1248000e+004    +8.1809395e-007    +2.7647971e-007
+2.1376000e+004    +8.0780967e-007    +2.5374555e-007
+2.1504000e+004    +7.8127368e-007    +2.7527628e-007
+2.1632000e+004    +8.0831808e-007    +2.6794652e-007
+2.1760000e+004    +8.0562188e-007    +2.7275033e-007
+2.1888000e+004    +7.9583776e-007    +3.0797190e-007
+2.2016000e+004    +7.9576353e-007    +3.0045430e-007
+2.2144000e+004    +7.6837949e-007    +2.9621967e-007
+2.2272000e+004    +7.5414403e-007    +2.9856935e-007
+2.2400000e+004    +7.4537451e-007    +3.0337472e-007
+2.2528000e+004    +7.6404780e-007    +2.9802533e-007
+2.2656000e+004    +8.1801937e-007    +3.2099436e-007
+2.2784000e+004    +8.5998931e-007    +3.0618463e-007
+2.2912000e+004    +8.4862387e-007    +3.2312767e-007
+2.3040000e+004    +7.9351685e-007    +3.1592134e-007
+2.3168000e+004    +7.1692779e-007    +3.1191666e-007
+2.3296000e+004    +7.3145839e-007    +3.1494918e-007
+2.3424000e+004    +6.9053505e-007    +3.2278123e-007
+2.3552000e+004    +6.9989773e-007    +3.3992532e-007
+2.3680000e+004    +7.5235346e-007    +3.1137125e-007
+2.3808000e+004    +8.0829142e-007    +3.1100294e-007
+2.3936000e+004    +7.9022692e-007    +3.1627880e-007
+2.4064000e+004    +7.1336535e-007    +3.4506880e-007
+2.4192000e+004    +7.4330768e-007    +3.3488644e-007
+2.4320000e+004    +7.3853812e-007    +3.4338768e-007
+2.4448000e+004    +7.0812212e-007    +4.3678992e-007
+2.4576000e+004    +7.2560874e-007    +3.8409681e-007
+2.4704000e+004    +7.4529021e-007    +3.3785355e-007
+2.4832000e+004    +7.4172362e-007    +3.4137051e-007
+2.4960000e+004    +7.0694051e-007    +3.5481784e-007
+2.5088000e+004    +7.0713071e-007    +3.6589213e-007
+2.5216000e+004    +6.9995849e-007    +3.5464450e-007
+2.5344000e+004    +6.7316819e-007    +3.5596776e-007
+2.5472000e+004    +6.6423888e-007    +3.5696971e-007
+2.5600000e+004    +6.9592460e-007    +3.7042460e-007
+2.5728000e+004    +6.6347133e-007    +3.6474057e-007
+2.5856000e+004    +6.6879727e-007    +3.4330702e-007
+2.5984000e+004    +6.2759011e-007    +3.3513621e-007
+2.6112000e+004    +6.5973757e-007    +3.8029120e-007
+2.6240000e+004    +6.6852562e-007    +3.7639185e-007
+2.6368000e+004    +6.8045279e-007    +3.5886623e-007
+2.6496000e+004    +6.9114338e-007    +4.1007479e-007
+2.6624000e+004    +6.6536438e-007    +5.6945424e-007
+2.6752000e+004    +6.6379778e-007    +5.0609856e-007
+2.6880000e+004    +6.5611846e-007    +3.8478441e-007
+2.7008000e+004    +6.7395797e-007    +3.8796779e-007
+2.7136000e+004    +7.0611281e-007    +4.0840732e-007
+2.7264000e+004    +6.4480332e-007    +4.3570694e-007
+2.7392000e+004    +6.8273829e-007    +3.9080356e-007
+2.7520000e+004    +6.4136896e-007    +3.9959909e-007
+2.7648000e+004    +6.1660512e-007    +4.0558805e-007
+2.7776000e+004    +6.2245016e-007    +3.8481610e-007
+2.7904000e+004    +6.2841065e-007    +4.0009868e-007
+2.8032000e+004    +6.0855700e-007    +3.7506720e-007
+2.8160000e+004    +5.8428395e-007    +3.8116278e-007
+2.8288000e+004    +6.4204954e-007    +3.9779556e-007
+2.8416000e+004    +6.6822327e-007    +3.8374316e-007
+2.8544000e+004    +5.9334963e-007    +3.8429971e-007
+2.8672000e+004    +6.1054538e-007    +4.3021268e-007
+2.8800000e+004    +6.0902158e-007    +4.1766737e-007
+2.8928000e+004    +6.1411674e-007    +3.9936049e-007
+2.9056000e+004    +6.2654084e-007    +4.0986546e-007
+2.9184000e+004    +6.1280531e-007    +4.1387887e-007
+2.9312000e+004    +6.0536291e-007    +4.0917934e-007
+2.9440000e+004    +6.5246047e-007    +4.2741837e-007
+2.9568000e+004    +6.4423364e-007    +4.3118732e-007
+2.9696000e+004    +6.2074531e-007    +4.4364646e-007
+2.9824000e+004    +5.8545976e-007    +4.6333437e-007
+2.9952000e+004    +5.9965328e-007    +4.4251587e-007
+3.0080000e+004    +5.8651364e-007    +4.5330268e-007
+3.0208000e+004    +5.8649692e-007    +4.4891783e-007
+3.0336000e+004    +5.1776567e-007    +4.6202271e-007
+3.0464000e+004    +5.4982002e-007    +4.6783384e-007
+3.0592000e+004    +5.3335862e-007    +4.7507649e-007
+3.0720000e+004    +5.3924100e-007    +4.5140493e-007
+3.0848000e+004    +6.0115434e-007    +4.1768021e-007
+3.0976000e+004    +5.9070271e-007    +4.1020402e-007
+3.1104000e+004    +5.5428842e-007    +4.5508597e-007
+3.1232000e+004    +5.9293740e-007    +4.3757041e-007
+3.1360000e+004    +5.9727068e-007    +4.3737396e-007
+3.1488000e+004    +5.6566859e-007    +4.5258159e-007
+3.1616000e+004    +5.5652822e-007    +4.7388400e-007
+3.1744000e+004    +5.4572490e-007    +4.9399301e-007
+3.1872000e+004    +5.4124115e-007    +5.1970216e-007
+3.2000000e+004    +5.9042003e-007    +5.0227942e-007
+3.2128000e+004    +5.6642244e-007    +4.8229145e-007
+3.2256000e+004    +4.9669552e-007    +4.7900687e-007
+3.2384000e+004    +5.3481347e-007    +4.5902127e-007
+3.2512000e+004    +5.4404796e-007    +4.5958356e-007
+3.2640000e+004    +5.7843772e-007    +4.8708517e-007
+3.2768000e+004    +5.6042995e-007    +4.8856879e-007
+3.2896000e+004    +5.5388750e-007    +4.8624145e-007
+3.3024000e+004    +5.3790757e-007    +5.4021285e-007
+3.3152000e+004    +5.3667287e-007    +5.1577075e-007
+3.3280000e+004    +5.4216480e-007    +4.9899728e-007
+3.3408000e+004    +5.7992708e-007    +5.3109073e-007
+3.3536000e+004    +5.5201633e-007    +5.3424242e-007
+3.3664000e+004    +5.0624192e-007    +5.2372098e-007
+3.3792000e+004    +5.3515771e-007    +5.1564052e-007
+3.3920000e+004    +5.5694392e-007    +5.1114068e-007
+3.4048000e+004    +5.6409323e-007    +5.2869893e-007
+3.4176000e+004    +5.4581596e-007    +5.3840449e-007
+3.4304000e+004    +5.4499679e-007    +5.4652719e-007
+3.4432000e+004    +5.7975387e-007    +5.0646094e-007
+3.4560000e+004    +5.2830029e-007    +5.2810253e-007
+3.4688000e+004    +5.2188648e-007    +5.2063939e-007
+3.4816000e+004    +5.2166934e-007    +5.0084651e-007
+3.4944000e+004    +4.9964802e-007    +5.3988202e-007
+3.5072000e+004    +5.5815480e-007    +5.3592208e-007
+3.5200000e+004    +5.6396749e-007    +5.1543446e-007
+3.5328000e+004    +5.1897683e-007    +5.0235826e-007
+3.5456000e+004    +5.0274230e-007    +5.4687234e-007
+3.5584000e+004    +5.2617230e-007    +5.6828810e-007
+3.5712000e+004    +5.2467414e-007    +5.9458216e-007
+3.5840000e+004    +5.1694997e-007    +5.5394463e-007
+3.5968000e+004    +4.6513722e-007    +5.3250079e-007
+3.6096000e+004    +5.0710753e-007    +5.7541621e-007
+3.6224000e+004    +5.4119124e-007    +5.7150748e-007
+3.6352000e+004    +4.9042836e-007    +5.5885386e-007
+3.6480000e+004    +4.8355872e-007    +5.4627344e-007
+3.6608000e+004    +4.3117311e-007    +5.5955257e-007
+3.6736000e+004    +4.4122973e-007    +5.7376775e-007
+3.6864000e+004    +4.7664861e-007    +5.4314972e-007
+3.6992000e+004    +5.2717326e-007    +5.5490767e-007
+3.7120000e+004    +5.1533488e-007    +6.0484069e-007
+3.7248000e+004    +4.8861762e-007    +5.7985574e-007
+3.7376000e+004    +4.7405939e-007    +5.8272906e-007
+3.7504000e+004    +4.9806238e-007    +5.6491945e-007
+3.7632000e+004    +5.0703403e-007    +5.6518928e-007
+3.7760000e+004    +5.0529735e-007    +5.5082728e-007
+3.7888000e+004    +4.9727390e-007    +5.6196603e-007
+3.8016000e+004    +4.4143422e-007    +5.8671009e-007
+3.8144000e+004    +4.4340200e-007    +5.8128171e-007
+3.8272000e+004    +4.5402393e-007    +6.5079490e-007
+3.8400000e+004    +4.5655236e-007    +6.3310330e-007
+3.8528000e+004    +4.6750725e-007    +6.0470325e-007
+3.8656000e+004    +4.9833756e-007    +6.2952870e-007
+3.8784000e+004    +4.8345464e-007    +6.1852808e-007
+3.8912000e+004    +4.4787066e-007    +6.3978644e-007
+3.9040000e+004    +4.4077555e-007    +6.3695899e-007
+3.9168000e+004    +4.3221587e-007    +6.4898319e-007
+3.9296000e+004    +4.5036381e-007    +6.6960109e-007
+3.9424000e+004    +4.5254879e-007    +7.0526363e-007
+3.9552000e+004    +4.0256896e-007    +6.3830947e-007
+3.9680000e+004    +4.4642138e-007    +5.9955846e-007
+3.9808000e+004    +4.7273917e-007    +6.4466172e-007
+3.9936000e+004    +4.7088668e-007    +7.0182233e-007
+4.0064000e+004    +4.4072522e-007    +6.3787513e-007
+4.0192000e+004    +4.6420917e-007    +6.4880436e-007
+4.0320000e+004    +4.7288140e-007    +6.3323540e-007
+4.0448000e+004    +4.5076752e-007    +6.4918203e-007
+4.0576000e+004    +4.1063709e-007    +6.0947843e-007
+4.0704000e+004    +4.0326793e-007    +6.4179301e-007
+4.0832000e+004    +3.7224831e-007    +6.7383075e-007
+4.0960000e+004    +4.2362700e-007    +6.9037281e-007
+4.1088000e+004    +4.1571198e-007    +7.3995852e-007
+4.1216000e+004    +4.1767652e-007    +7.1569144e-007
+4.1344000e+004    +4.1646166e-007    +6.1713337e-007
+4.1472000e+004    +4.5245537e-007    +6.1419763e-007
+4.1600000e+004    +4.5133356e-007    +6.7201097e-007
+4.1728000e+004    +3.9770165e-007    +6.8077117e-007
+4.1856000e+004    +4.2698449e-007    +6.7046699e-007
+4.1984000e+004    +4.3109594e-007    +6.6280148e-007
+4.2112000e+004    +4.3975945e-007    +6.4184513e-007
+4.2240000e+004    +4.0011889e-007    +6.9811028e-007
+4.2368000e+004    +3.8335656e-007    +7.2645850e-007
+4.2496000e+004    +3.8764887e-007    +6.9400329e-007
+4.2624000e+004    +4.0123808e-007    +7.1385819e-007
+4.2752000e+004    +4.0990102e-007    +7.4485502e-007
+4.2880000e+004    +3.8365764e-007    +7.4601968e-007
+4.3008000e+004    +3.5460792e-007    +6.6255268e-007
+4.3136000e+004    +3.9661413e-007    +6.8139030e-007
+4.3264000e+004    +3.8636517e-007    +6.8565004e-007
+4.3392000e+004    +3.9567681e-007    +7.6344742e-007
+4.3520000e+004    +3.9710955e-007    +7.4686875e-007
+4.3648000e+004    +3.9360864e-007    +7.0287336e-007
+4.3776000e+004    +4.0678103e-007    +6.9110013e-007
+4.3904000e+004    +4.0838356e-007    +6.9650633e-007
+4.4032000e+004    +3.9034171e-007    +7.1682393e-007
+4.4160000e+004    +3.8778296e-007    +7.3517333e-007
+4.4288000e+004    +4.0205612e-007    +7.2804511e-007
+4.4416000e+004    +4.2255439e-007    +7.0249610e-007
+4.4544000e+004    +4.1039863e-007    +6.6354858e-007
+4.4672000e+004    +3.9732413e-007    +6.6790199e-007
+4.4800000e+004    +4.0610718e-007    +7.4092515e-007
+4.4928000e+004    +4.0291121e-007    +7.6433645e-007
+4.5056000e+004    +3.8392943e-007    +6.9732511e-007
+4.5184000e+004    +3.5130847e-007    +7.1640062e-007
+4.5312000e+004    +3.8168457e-007    +6.9644210e-007
+4.5440000e+004    +3.9928287e-007    +7.2249168e-007
+4.5568000e+004    +3.7963039e-007    +8.1197925e-007
+4.5696000e+004    +3.7584920e-007    +8.7226044e-007
+4.5824000e+004    +3.6458681e-007    +8.1575024e-007
+4.5952000e+004    +4.0385413e-007    +7.6580142e-007
+4.6080000e+004    +3.8391005e-007    +7.7594439e-007
+4.6208000e+004    +4.0684893e-007    +8.3253502e-007
+4.6336000e+004    +3.9677482e-007    +8.4602266e-007
+4.6464000e+004    +3.6463646e-007    +8.2287477e-007
+4.6592000e+004    +3.5699912e-007    +7.7476278e-007
+4.6720000e+004    +3.8743994e-007    +7.5221556e-007
+4.6848000e+004    +3.8015301e-007    +7.4364806e-007
+4.6976000e+004    +3.8994077e-007    +7.8548652e-007
+4.7104000e+004    +3.7114683e-007    +8.0875481e-007
+4.7232000e+004    +3.4085292e-007    +8.0625551e-007
+4.7360000e+004    +3.4918074e-007    +7.9426127e-007
+4.7488000e+004    +3.4012729e-007    +7.9143990e-007
+4.7616000e+004    +3.6301344e-007    +8.6936438e-007
+4.7744000e+004    +3.9711523e-007    +8.7434398e-007
+4.7872000e+004    +3.7363068e-007    +7.4658834e-007
+4.8000000e+004    +3.6197187e-007    +7.4507665e-007
+4.8128000e+004    +4.1341653e-007    +8.0754984e-007
+4.8256000e+004    +3.8676373e-007    +8.0957216e-007
+4.8384000e+004    +3.9119124e-007    +8.0967266e-007
+4.8512000e+004    +3.8743102e-007    +8.2095892e-007
+4.8640000e+004    +3.5354853e-007    +8.1157282e-007
+4.8768000e+004    +3.7111218e-007    +8.3827786e-007
+4.8896000e+004    +3.6735332e-007    +8.8799692e-007
+4.9024000e+004    +3.7150477e-007    +8.5933993e-007
+4.9152000e+004    +3.7092519e-007    +8.6165562e-007
+4.9280000e+004    +3.4735410e-007    +8.7484432e-007
+4.9408000e+004    +3.3198950e-007    +8.9052963e-007
+4.9536000e+004    +3.5511403e-007    +9.1017529e-007
+4.9664000e+004    +3.4653664e-007    +8.9028913e-007
+4.9792000e+004    +3.7538030e-007    +9.0102475e-007
+4.9920000e+004    +3.8857272e-007    +8.8416476e-007
+5.0048000e+004    +3.6730373e-007    +8.5585037e-007
+5.0176000e+004    +3.6155481e-007    +1.1685928e-006
+5.0304000e+004    +3.6568770e-007    +1.2303692e-006
+5.0432000e+004    +3.3011324e-007    +9.2876940e-007
+5.0560000e+004    +3.5485718e-007    +9.1623434e-007
+5.0688000e+004    +3.5808691e-007    +8.8025729e-007
+5.0816000e+004    +3.2890992e-007    +8.8725136e-007
+5.0944000e+004    +3.0968084e-007    +8.3612599e-007
+5.1072000e+004    +3.4935024e-007    +8.4076754e-007
+5.1200000e+004    +3.3158187e-007    +8.7486546e-007
+5.1328000e+004    +3.3019117e-007    +8.9087581e-007
+5.1456000e+004    +3.6799236e-007    +9.7502141e-007
+5.1584000e+004    +3.4249868e-007    +9.2842072e-007
+5.1712000e+004    +3.3955826e-007    +9.3434988e-007
+5.1840000e+004    +3.3980294e-007    +9.1068608e-007
+5.1968000e+004    +3.3034527e-007    +8.7947188e-007
+5.2096000e+004    +3.1692747e-007    +9.3391810e-007
+5.2224000e+004    +3.2207640e-007    +9.9093052e-007
+5.2352000e+004    +3.4523629e-007    +1.0942604e-006
+5.2480000e+004    +3.3946881e-007    +1.1560797e-006
+5.2608000e+004    +3.3661351e-007    +9.4819410e-007
+5.2736000e+004    +3.1646047e-007    +8.7885604e-007
+5.2864000e+004    +3.1414794e-007    +9.2711076e-007
+5.2992000e+004    +3.2135756e-007    +9.2453286e-007
+5.3120000e+004    +3.0951870e-007    +8.6360006e-007
+5.3248000e+004    +3.0254711e-007    +8.2291905e-007
+5.3376000e+004    +3.1844476e-007    +8.6641512e-007
+5.3504000e+004    +3.1965999e-007    +9.2969987e-007
+5.3632000e+004    +3.1174343e-007    +9.2122553e-007
+5.3760000e+004    +3.2295529e-007    +9.2622150e-007
+5.3888000e+004    +3.2564321e-007    +9.2114055e-007
+5.4016000e+004    +3.2429915e-007    +9.0811199e-007
+5.4144000e+004    +3.3380536e-007    +8.9671192e-007
+5.4272000e+004    +3.1853989e-007    +9.3646867e-007
+5.4400000e+004    +2.8562377e-007    +9.8445753e-007
+5.4528000e+004    +2.7721256e-007    +1.0143124e-006
+5.4656000e+004    +2.8623029e-007    +9.7672716e-007
+5.4784000e+004    +3.0631912e-007    +9.2996635e-007
+5.4912000e+004    +3.1365886e-007    +9.6612962e-007
+5.5040000e+004    +5.8770877e-007    +9.9002136e-007
+5.5168000e+004    +1.0572729e-006    +9.8665203e-007
+5.5296000e+004    +6.2970082e-007    +8.8484455e-007
+5.5424000e+004    +4.5691493e-007    +9.9071076e-007
+5.5552000e+004    +1.2019118e-006    +9.5024723e-007
+5.5680000e+004    +9.7500538e-007    +1.0263733e-006
+5.5808000e+004    +3.0589598e-007    +1.0311455e-006
+5.5936000e+004    +3.1236391e-007    +9.9242880e-007
+5.6064000e+004    +3.0236745e-007    +9.7567784e-007
+5.6192000e+004    +2.9578936e-007    +9.7520024e-007
+5.6320000e+004    +3.1912765e-007    +9.5705843e-007
+5.6448000e+004    +3.1137671e-007    +9.6962799e-007
+5.6576000e+004    +3.2430876e-007    +9.5771327e-007
+5.6704000e+004    +3.4498393e-007    +9.9657257e-007
+5.6832000e+004    +3.1313104e-007    +1.0620419e-006
+5.6960000e+004    +3.2168020e-007    +1.0716045e-006
+5.7088000e+004    +3.1108419e-007    +1.0157823e-006
+5.7216000e+004    +2.7126990e-007    +9.5691655e-007
+5.7344000e+004    +3.1445057e-007    +1.0047468e-006
+5.7472000e+004    +3.3039714e-007    +1.1038222e-006
+5.7600000e+004    +3.2079703e-007    +1.0664763e-006
+5.7728000e+004    +3.1184646e-007    +1.0560234e-006
+5.7856000e+004    +3.1500451e-007    +1.0170758e-006
+5.7984000e+004    +3.1163870e-007    +1.0479980e-006
+5.8112000e+004    +3.0371964e-007    +1.0217689e-006
+5.8240000e+004    +3.1378252e-007    +1.0117575e-006
+5.8368000e+004    +3.0541540e-007    +9.6824817e-007
+5.8496000e+004    +2.9295808e-007    +1.0092300e-006
+5.8624000e+004    +3.0379769e-007    +1.0364258e-006
+5.8752000e+004    +3.5450319e-007    +1.0669964e-006
+5.8880000e+004    +3.3358259e-007    +1.1581774e-006
+5.9008000e+004    +3.0621857e-007    +1.0824649e-006
+5.9136000e+004    +3.1229601e-007    +1.0561242e-006
+5.9264000e+004    +3.0680212e-007    +9.8207056e-007
+5.9392000e+004    +2.8543568e-007    +1.0455660e-006
+5.9520000e+004    +2.7441203e-007    +1.0122052e-006
+5.9648000e+004    +2.5292141e-007    +1.0886365e-006
+5.9776000e+004    +2.7496333e-007    +1.0973838e-006
+5.9904000e+004    +2.7999957e-007    +1.1347300e-006
+6.0032000e+004    +2.8647111e-007    +1.1017336e-006
+6.0160000e+004    +3.0647723e-007    +1.0335315e-006
+6.0288000e+004    +3.3292690e-007    +1.0664623e-006
+6.0416000e+004    +3.3844051e-007    +1.1208837e-006
+6.0544000e+004    +3.1196703e-007    +1.1277732e-006
+6.0672000e+004    +2.8090395e-007    +1.0577303e-006
+6.0800000e+004    +3.0703296e-007    +1.1536744e-006
+6.0928000e+004    +3.0287347e-007    +1.1230961e-006
+6.1056000e+004    +2.8010811e-007    +1.1669042e-006
+6.1184000e+004    +3.0202040e-007    +1.1369698e-006
+6.1312000e+004    +2.9938803e-007    +1.1605246e-006
+6.1440000e+004    +3.0553278e-007    +1.1726247e-006
+6.1568000e+004    +3.1614374e-007    +1.1637106e-006
+6.1696000e+004    +2.6343551e-007    +1.1627694e-006
+6.1824000e+004    +2.6800950e-007    +1.1565775e-006
+6.1952000e+004    +2.7008440e-007    +1.1649749e-006
+6.2080000e+004    +2.9627137e-007    +1.1145293e-006
+6.2208000e+004    +3.0125369e-007    +1.0755215e-006
+6.2336000e+004    +2.8709078e-007    +1.0730763e-006
+6.2464000e+004    +2.8988225e-007    +1.1946481e-006
+6.2592000e+004    +2.9177517e-007    +1.1950875e-006
+6.2720000e+004    +2.9325670e-007    +1.0999507e-006
+6.2848000e+004    +2.7217385e-007    +1.1879864e-006
+6.2976000e+004    +2.6741634e-007    +1.2346223e-006
+6.3104000e+004    +2.7643995e-007    +1.2053597e-006
+6.3232000e+004    +2.8805886e-007    +1.1056331e-006
+6.3360000e+004    +2.8115699e-007    +1.1548809e-006
+6.3488000e+004    +2.7536333e-007    +1.2283175e-006
+6.3616000e+004    +2.8240379e-007    +1.2243091e-006
+6.3744000e+004    +2.8899657e-007    +1.1512575e-006
+6.3872000e+004    +2.5885149e-007    +1.1344783e-006
+6.4000000e+004    +2.4730087e-007    +1.2138142e-006
+6.4128000e+004    +2.5422520e-007    +1.1736615e-006
+6.4256000e+004    +2.6416569e-007    +1.1971731e-006
+6.4384000e+004    +2.9871296e-007    +1.1496003e-006
+6.4512000e+004    +2.7389879e-007    +1.2349423e-006
+6.4640000e+004    +2.7593111e-007    +1.2536752e-006
+6.4768000e+004    +2.8509459e-007    +1.2261495e-006
+6.4896000e+004    +2.5951368e-007    +1.2722998e-006
+6.5024000e+004    +2.7173195e-007    +1.2725023e-006
+6.5152000e+004    +2.7711519e-007    +1.2626447e-006
+6.5280000e+004    +2.6553127e-007    +1.1842903e-006
+6.5408000e+004    +2.6366962e-007    +1.1858361e-006
+6.5536000e+004    +2.7989907e-007    +1.1632214e-006
+6.5664000e+004    +2.6701557e-007    +1.2583779e-006
+6.5792000e+004    +2.9241338e-007    +1.2390059e-006
+6.5920000e+004    +3.0726127e-007    +1.2313990e-006
+6.6048000e+004    +2.7338052e-007    +1.1866163e-006
+6.6176000e+004    +2.7500320e-007    +1.1251240e-006
+6.6304000e+004    +2.5971693e-007    +1.1006152e-006
+6.6432000e+004    +2.4905461e-007    +1.2184476e-006
+6.6560000e+004    +2.4318979e-007    +1.2499643e-006
+6.6688000e+004    +2.6890879e-007    +1.2970594e-006
+6.6816000e+004    +2.6421500e-007    +1.2994998e-006
+6.6944000e+004    +2.5834638e-007    +1.2747398e-006
+6.7072000e+004    +2.6052916e-007    +1.2691829e-006
+6.7200000e+004    +2.4303282e-007    +1.2291566e-006
+6.7328000e+004    +2.6326751e-007    +1.2073399e-006
+6.7456000e+004    +2.5939062e-007    +1.2079976e-006
+6.7584000e+004    +2.4785462e-007    +1.2374982e-006
+6.7712000e+004    +2.4322929e-007    +1.2845705e-006
+6.7840000e+004    +2.7246955e-007    +1.2224690e-006
+6.7968000e+004    +2.7762803e-007    +1.1710498e-006
+6.8096000e+004    +2.2623034e-007    +1.2773752e-006
+6.8224000e+004    +2.5136970e-007    +1.2958210e-006
+6.8352000e+004    +2.3735123e-007    +1.2969682e-006
+6.8480000e+004    +2.4738995e-007    +1.2527025e-006
+6.8608000e+004    +2.9104214e-007    +1.2848118e-006
+6.8736000e+004    +2.5176217e-007    +1.2780864e-006
+6.8864000e+004    +2.1667212e-007    +1.2448188e-006
+6.8992000e+004    +2.3981173e-007    +1.2264497e-006
+6.9120000e+004    +2.5624880e-007    +1.2516837e-006
+6.9248000e+004    +2.5653594e-007    +1.2994941e-006
+6.9376000e+004    +2.4163197e-007    +1.2627362e-006
+6.9504000e+004    +2.5703355e-007    +1.3770974e-006
+6.9632000e+004    +2.7407208e-007    +1.3882692e-006
+6.9760000e+004    +2.5560757e-007    +1.1610650e-006
+6.9888000e+004    +2.5458218e-007    +1.2767974e-006
+7.0016000e+004    +2.6348584e-007    +1.4438706e-006
+7.0144000e+004    +5.9135164e-007    +1.4224643e-006
+7.0272000e+004    +8.1610136e-007    +1.3548710e-006
+7.0400000e+004    +3.6385620e-007    +1.2850473e-006
+7.0528000e+004    +2.5585970e-007    +1.3641584e-006
+7.0656000e+004    +3.1751364e-007    +1.3965324e-006
+7.0784000e+004    +5.3214313e-007    +1.3914510e-006
+7.0912000e+004    +3.7260895e-007    +1.3741129e-006
+7.1040000e+004    +2.2730593e-007    +1.3092470e-006
+7.1168000e+004    +2.2522362e-007    +1.3229630e-006
+7.1296000e+004    +2.4130824e-007    +1.3379770e-006
+7.1424000e+004    +2.1796728e-007    +1.3691762e-006
+7.1552000e+004    +2.2539926e-007    +1.3185401e-006
+7.1680000e+004    +2.5520654e-007    +1.2022259e-006
+7.1808000e+004    +2.7450332e-007    +1.2347376e-006
+7.1936000e+004    +2.6181701e-007    +1.2712944e-006
+7.2064000e+004    +2.7602081e-007    +1.3678734e-006
+7.2192000e+004    +2.7367454e-007    +1.3475155e-006
+7.2320000e+004    +2.5788017e-007    +1.3035325e-006
+7.2448000e+004    +2.6017784e-007    +1.2959064e-006
+7.2576000e+004    +2.6702875e-007    +1.4254723e-006
+7.2704000e+004    +2.4811436e-007    +1.4750899e-006
+7.2832000e+004    +2.4334656e-007    +1.4179344e-006
+7.2960000e+004    +2.5105140e-007    +1.3328466e-006
+7.3088000e+004    +2.5762122e-007    +1.3680673e-006
+7.3216000e+004    +2.4694111e-007    +1.3016589e-006
+7.3344000e+004    +2.5465795e-007    +1.2634033e-006
+7.3472000e+004    +2.4357831e-007    +1.3310581e-006
+7.3600000e+004    +2.3271411e-007    +1.3527632e-006
+7.3728000e+004    +2.3900554e-007    +1.3510295e-006
+7.3856000e+004    +2.4687549e-007    +1.4128000e-006
+7.3984000e+004    +2.5578416e-007    +1.4692063e-006
+7.4112000e+004    +2.5737836e-007    +1.5092245e-006
+7.4240000e+004    +2.5806571e-007    +1.3690094e-006
+7.4368000e+004    +2.5751575e-007    +1.3526829e-006
+7.4496000e+004    +2.4378247e-007    +1.3846934e-006
+7.4624000e+004    +2.5348214e-007    +1.4042016e-006
+7.4752000e+004    +2.7888126e-007    +1.4176620e-006
+7.4880000e+004    +2.4891247e-007    +1.3574529e-006
+7.5008000e+004    +2.2573880e-007    +1.4272154e-006
+7.5136000e+004    +2.2269263e-007    +1.4906071e-006
+7.5264000e+004    +2.3893128e-007    +1.4359074e-006
+7.5392000e+004    +2.3809328e-007    +1.3528137e-006
+7.5520000e+004    +2.3553400e-007    +1.4178862e-006
+7.5648000e+004    +2.4564014e-007    +1.5053702e-006
+7.5776000e+004    +2.3908873e-007    +1.3451680e-006
+7.5904000e+004    +2.4709243e-007    +1.2800076e-006
+7.6032000e+004    +2.3679887e-007    +1.4566824e-006
+7.6160000e+004    +2.2701936e-007    +1.5422412e-006
+7.6288000e+004    +2.3475276e-007    +1.4035604e-006
+7.6416000e+004    +2.3746540e-007    +1.3690019e-006
+7.6544000e+004    +2.2435239e-007    +1.3885558e-006
+7.6672000e+004    +2.0547023e-007    +1.3507937e-006
+7.6800000e+004    +2.3919640e-007    +5.7629381e-006
+7.6928000e+004    +2.4520199e-007    +9.2721357e-006
+7.7056000e+004    +2.3689458e-007    +3.9592928e-006
+7.7184000e+004    +2.4958265e-007    +1.3833788e-006
+7.7312000e+004    +2.2913991e-007    +1.4139250e-006
+7.7440000e+004    +2.2930577e-007    +1.3072273e-006
+7.7568000e+004    +5.5967422e-007    +1.4113814e-006
+7.7696000e+004    +1.1371096e-006    +1.4105541e-006
+7.7824000e+004    +6.4993657e-007    +1.4180200e-006
+7.7952000e+004    +2.2231347e-007    +1.4895094e-006
+7.8080000e+004    +2.4064073e-007    +1.5218358e-006
+7.8208000e+004    +2.5144698e-007    +1.2859296e-006
+7.8336000e+004    +3.3800492e-007    +1.2818119e-006
+7.8464000e+004    +2.9697060e-007    +1.3873702e-006
+7.8592000e+004    +2.3874196e-007    +1.3871676e-006
+7.8720000e+004    +2.3184496e-007    +1.3050819e-006
+7.8848000e+004    +2.3639960e-007    +1.4019786e-006
+7.8976000e+004    +2.3480922e-007    +1.3898737e-006
+7.9104000e+004    +2.3248197e-007    +1.4304628e-006
+7.9232000e+004    +2.5532538e-007    +1.4336672e-006
+7.9360000e+004    +3.1468093e-007    +1.3898950e-006
+7.9488000e+004    +5.4047450e-007    +1.4453503e-006
+7.9616000e+004    +3.8788517e-007    +1.4358743e-006
+7.9744000e+004    +2.5222784e-007    +1.4924643e-006
+7.9872000e+004    +2.4443349e-007    +1.5368626e-006
+8.0000000e+004    +2.3459198e-007    +1.5011614e-006
+8.0128000e+004    +2.3149343e-007    +1.3178960e-006
+8.0256000e+004    +2.3714284e-007    +1.3714119e-006
+8.0384000e+004    +2.4221342e-007    +1.3745007e-006
+8.0512000e+004    +2.3981013e-007    +1.4634988e-006
+8.0640000e+004    +2.4521788e-007    +1.4845607e-006
+8.0768000e+004    +2.3563567e-007    +1.4807774e-006
+8.0896000e+004    +2.4762912e-007    +1.4739469e-006
+8.1024000e+004    +2.4810129e-007    +1.2940822e-006
+8.1152000e+004    +2.6074753e-007    +1.3825726e-006
+8.1280000e+004    +2.5324707e-007    +1.4253769e-006
+8.1408000e+004    +2.4261320e-007    +1.3847512e-006
+8.1536000e+004    +2.5335609e-007    +1.4329654e-006
+8.1664000e+004    +2.6544819e-007    +1.4305020e-006
+8.1792000e+004    +2.6040564e-007    +1.4053429e-006
+8.1920000e+004    +2.4939035e-007    +1.4642221e-006
+8.2048000e+004    +2.5086814e-007    +1.6279116e-006
+8.2176000e+004    +2.4498644e-007    +1.5283697e-006
+8.2304000e+004    +2.4884633e-007    +1.4844547e-006
+8.2432000e+004    +2.5149694e-007    +1.3874768e-006
+8.2560000e+004    +2.3243679e-007    +1.4105277e-006
+8.2688000e+004    +2.5425786e-007    +1.3021978e-006
+8.2816000e+004    +2.6204276e-007    +1.3443914e-006
+8.2944000e+004    +2.6077416e-007    +1.3800837e-006
+8.3072000e+004    +2.5205730e-007    +1.4348547e-006
+8.3200000e+004    +2.5368399e-007    +1.5493849e-006
+8.3328000e+004    +2.4829694e-007    +1.4071309e-006
+8.3456000e+004    +2.5021484e-007    +1.4147309e-006
+8.3584000e+004    +2.5396881e-007    +1.4021741e-006
+8.3712000e+004    +2.2699469e-007    +1.4804507e-006
+8.3840000e+004    +2.2548490e-007    +1.4514922e-006
+8.3968000e+004    +2.3393326e-007    +1.4623632e-006
+8.4096000e+004    +2.4979457e-007    +1.5145813e-006
+8.4224000e+004    +2.7327189e-007    +1.4602775e-006
+8.4352000e+004    +2.8331655e-007    +1.5258630e-006
+8.4480000e+004    +2.7238491e-007    +1.5292744e-006
+8.4608000e+004    +2.5982331e-007    +1.4535734e-006
+8.4736000e+004    +2.7901112e-007    +1.4673959e-006
+8.4864000e+004    +2.7694637e-007    +1.5293181e-006
+8.4992000e+004    +3.0691703e-007    +1.5318876e-006
+8.5120000e+004    +3.1631737e-007    +1.4285229e-006
+8.5248000e+004    +2.9624633e-007    +1.3646438e-006
+8.5376000e+004    +3.3514615e-007    +1.4862079e-006
+8.5504000e+004    +4.0271308e-007    +1.4962330e-006
+8.5632000e+004    +4.5143912e-007    +1.4101004e-006
+8.5760000e+004    +4.8726383e-007    +1.4664907e-006
+8.5888000e+004    +5.5005791e-007    +1.4315689e-006
+8.6016000e+004    +6.6292375e-007    +1.4320673e-006
+8.6144000e+004    +7.5802575e-007    +1.4817126e-006
+8.6272000e+004    +8.1271065e-007    +1.5126353e-006
+8.6400000e+004    +8.5481827e-007    +1.4293262e-006
+8.6528000e+004    +8.8583414e-007    +1.4239097e-006
+8.6656000e+004    +8.8561632e-007    +1.4492691e-006
+8.6784000e+004    +8.5500602e-007    +1.4673636e-006
+8.6912000e+004    +6.9491750e-007    +1.4496590e-006
+8.7040000e+004    +6.1240110e-007    +1.5003177e-006
+8.7168000e+004    +6.1688678e-007    +1.4845363e-006
+8.7296000e+004    +6.9980553e-007    +1.5604392e-006
+8.7424000e+004    +7.8264736e-007    +1.6538689e-006
+8.7552000e+004    +8.0344449e-007    +1.5071000e-006
+8.7680000e+004    +7.3763130e-007    +1.3758007e-006
+8.7808000e+004    +7.4355091e-007    +1.3292063e-006
+8.7936000e+004    +8.5599038e-007    +1.4157519e-006
+8.8064000e+004    +8.5763105e-007    +1.5771296e-006
+8.8192000e+004    +8.6921261e-007    +1.6209628e-006
+8.8320000e+004    +8.0251965e-007    +1.5859927e-006
+8.8448000e+004    +8.0218047e-007    +1.4994185e-006
+8.8576000e+004    +8.3012355e-007    +1.4486438e-006
+8.8704000e+004    +8.1057544e-007    +1.4385442e-006
+8.8832000e+004    +8.1979425e-007    +1.4947389e-006
+8.8960000e+004    +8.0837663e-007    +1.4762288e-006
+8.9088000e+004    +8.2001753e-007    +1.4705636e-006
+8.9216000e+004    +8.0860212e-007    +1.4696031e-006
+8.9344000e+004    +7.8122309e-007    +1.4012569e-006
+8.9472000e+004    +8.1625819e-007    +1.3499456e-006
+8.9600000e+004    +8.1123432e-007    +1.4463378e-006
+8.9728000e+004    +7.7695972e-007    +1.4797178e-006
+8.9856000e+004    +7.9175715e-007    +1.4721193e-006
+8.9984000e+004    +8.1531954e-007    +1.5153315e-006
+9.0112000e+004    +7.6859465e-007    +1.4994597e-006
+9.0240000e+004    +8.0315692e-007    +1.5091715e-006
+9.0368000e+004    +8.1742235e-007    +1.5099920e-006
+9.0496000e+004    +8.1439350e-007    +1.4701438e-006
+9.0624000e+004    +8.0027678e-007    +1.3758581e-006
+9.0752000e+004    +8.5919277e-007    +1.4342451e-006
+9.0880000e+004    +8.6958295e-007    +1.4232938e-006
+9.1008000e+004    +8.6915725e-007    +1.4099890e-006
+9.1136000e+004    +8.2216042e-007    +1.4145306e-006
+9.1264000e+004    +8.3996849e-007    +1.4333006e-006
+9.1392000e+004    +8.5585975e-007    +1.3476013e-006
+9.1520000e+004    +8.7325799e-007    +1.3780609e-006
+9.1648000e+004    +8.7479629e-007    +1.4362148e-006
+9.1776000e+004    +8.8024763e-007    +1.5941404e-006
+9.1904000e+004    +9.0934924e-007    +1.5796529e-006
+9.2032000e+004    +9.2810274e-007    +1.5368288e-006
+9.2160000e+004    +9.5654264e-007    +1.4013507e-006
+9.2288000e+004    +1.0128623e-006    +1.3753884e-006
+9.2416000e+004    +9.6311760e-007    +1.4994120e-006
+9.2544000e+004    +1.0140851e-006    +1.5238674e-006
+9.2672000e+004    +8.8209555e-007    +1.5208002e-006
+9.2800000e+004    +9.7836391e-007    +1.4648959e-006
+9.2928000e+004    +9.3411393e-007    +1.5007362e-006
+9.3056000e+004    +9.3055570e-007    +1.5191014e-006
+9.3184000e+004    +1.0420534e-006    +1.4674620e-006
+9.3312000e+004    +9.1082410e-007    +1.4407271e-006
+9.3440000e+004    +9.7569500e-007    +1.4541464e-006
+9.3568000e+004    +1.0779000e-006    +1.4484482e-006
+9.3696000e+004    +8.6494094e-007    +1.3759125e-006
+9.3824000e+004    +9.1795118e-007    +1.3339431e-006
+9.3952000e+004    +1.1076598e-006    +1.4079005e-006
+9.4080000e+004    +9.2419793e-007    +1.4543828e-006
+9.4208000e+004    +7.5411583e-007    +1.5939164e-006
+9.4336000e+004    +9.7021268e-007    +1.5164134e-006
+9.4464000e+004    +1.2973328e-006    +1.4292037e-006
+9.4592000e+004    +1.0323282e-006    +1.4334595e-006
+9.4720000e+004    +6.8998179e-007    +1.3031346e-006
+9.4848000e+004    +8.8776102e-007    +1.2527727e-006
+9.4976000e+004    +1.0268072e-006    +1.3615578e-006
+9.5104000e+004    +1.0367218e-006    +1.4349429e-006
+9.5232000e+004    +8.2078316e-007    +1.2928707e-006
+9.5360000e+004    +6.4066933e-007    +1.3217464e-006
+9.5488000e+004    +7.5898686e-007    +1.4719755e-006
+9.5616000e+004    +1.0217487e-006    +1.5100301e-006
+9.5744000e+004    +1.2743690e-006    +1.5092394e-006
+9.5872000e+004    +1.3902583e-006    +1.5062629e-006
+9.6000000e+004    +1.3741914e-006    +1.4971351e-006
+9.6128000e+004    +1.2661236e-006    +1.5568214e-006
+9.6256000e+004    +1.1253896e-006    +1.4860806e-006
+9.6384000e+004    +9.5853807e-007    +1.2921654e-006
+9.6512000e+004    +7.8209501e-007    +1.4135603e-006
+9.6640000e+004    +6.3501216e-007    +1.4249763e-006
+9.6768000e+004    +5.0186213e-007    +1.4044946e-006
+9.6896000e+004    +3.9448693e-007    +1.4415119e-006
+9.7024000e+004    +3.6634756e-007    +1.3786920e-006
+9.7152000e+004    +3.2133039e-007    +1.4192864e-006
+9.7280000e+004    +2.8828603e-007    +1.4363804e-006
+9.7408000e+004    +2.9326733e-007    +1.4726980e-006
+9.7536000e+004    +2.9696213e-007    +1.3636447e-006
+9.7664000e+004    +2.8355058e-007    +1.3270831e-006
+9.7792000e+004    +2.8942969e-007    +1.3303451e-006
+9.7920000e+004    +3.7402225e-007    +1.3415456e-006
+9.8048000e+004    +3.7267034e-007    +1.3771277e-006
+9.8176000e+004    +3.2653330e-007    +1.3970492e-006
+9.8304000e+004    +3.0337637e-007    +1.3795944e-006
+9.8432000e+004    +3.2404253e-007    +1.3368713e-006
+9.8560000e+004    +3.1752097e-007    +1.3637466e-006
+9.8688000e+004    +3.0587483e-007    +1.3410169e-006
+9.8816000e+004    +3.1977055e-007    +1.4430242e-006
+9.8944000e+004    +2.8202791e-007    +1.5645702e-006
+9.9072000e+004    +2.9538694e-007    +1.3627302e-006
+9.9200000e+004    +3.2088863e-007    +1.2582038e-006
+9.9328000e+004    +3.0809400e-007    +1.3582118e-006
+9.9456000e+004    +2.9672486e-007    +1.4638701e-006
+9.9584000e+004    +2.7058482e-007    +1.4489175e-006
+9.9712000e+004    +2.6227966e-007    +1.4556033e-006
+9.9840000e+004    +2.9350861e-007    +1.5279049e-006
+9.9968000e+004    +2.7990399e-007    +1.3874723e-006
+1.0009600e+005    +2.7514545e-007    +1.4221582e-006
+1.0022400e+005    +2.8325684e-007    +1.3261377e-006
+1.0035200e+005    +2.6512893e-007    +1.2907800e-006
+1.0048000e+005    +2.6389176e-007    +1.3533173e-006
+1.0060800e+005    +2.8092862e-007    +1.5500451e-006
+1.0073600e+005    +2.5484758e-007    +1.5374566e-006
+1.0086400e+005    +2.4577852e-007    +1.4124402e-006
+1.0099200e+005    +2.5038247e-007    +1.4024282e-006
+1.0112000e+005    +2.9577151e-007    +1.4220864e-006
+1.0124800e+005    +2.8018411e-007    +1.4120200e-006
+1.0137600e+005    +2.6729393e-007    +1.3278614e-006
+1.0150400e+005    +2.7844800e-007    +1.2811760e-006
+1.0163200e+005    +2.8088328e-007    +1.3552205e-006
+1.0176000e+005    +2.6898172e-007    +1.3452463e-006
+1.0188800e+005    +2.6864350e-007    +1.3847252e-006
+1.0201600e+005    +2.6664671e-007    +1.4242771e-006
+1.0214400e+005    +2.7846758e-007    +1.3038101e-006
+1.0227200e+005    +2.9996022e-007    +1.2887098e-006
