# SR785 Measurement - Timestamp: Jan 03 2019 - 20:09:25
#---------- Measurement Setup ------------
# Start Frequency (Hz): 0.000000
# Frequency Span (Hz): 6400.000000
# Frequency Resolution: 800
# Number of Averages: 2
# Averaging Mode: None
# Window function: BMH
#---------- Measurement Parameters ----------
# Measurement Group:  "FFT" "FFT"
# Measurements:  "FFT 1" "FFT 2"
# View:  "Log Magnitude" "Log Magnitude"
# Unit:  "dBVpk" "Vrms/rtHz"
#---------- Input Parameters ----------
# Input Source: Analog
# Input Mode: Single ended, Single ended
# Input Grounding: Float, Float
# Input Coupling: AC, DC
# Input Range: -14.0dBVpk, 22.0dBVpk
# Auto Range: On, On
# Auto Range Mode: Up Only, Normal
# Anti-Aliasing Filter: On, On
#---------- Source Parameters ----------
# Source Type: Sine
# Source Amplitude: 500.0mVpk
# Source On: 0

#---------- Measurement Data ----------
# [Freq(Hz) Display 0(dBVpk) Display 1(Vrms/rtHz) ]
+0.0000000e+000    +2.9218656e-001
+8.0000000e+000    +2.0031582e-001
+1.6000000e+001    +5.9299108e-002
+2.4000000e+001    +5.2037048e-003
+3.2000000e+001    +8.3587127e-004
+4.0000000e+001    +3.8798462e-004
+4.8000000e+001    +2.8855330e-004
+5.6000000e+001    +9.9722165e-005
+6.4000000e+001    +5.1263454e-005
+7.2000000e+001    +6.3789543e-005
+8.0000000e+001    +6.2535466e-005
+8.8000000e+001    +3.2753687e-005
+9.6000000e+001    +5.2053132e-005
+1.0400000e+002    +1.1941012e-004
+1.1200000e+002    +4.7284248e-005
+1.2000000e+002    +1.0746343e-004
+1.2800000e+002    +7.4018688e-005
+1.3600000e+002    +9.7478165e-005
+1.4400000e+002    +9.9199082e-005
+1.5200000e+002    +3.4708457e-005
+1.6000000e+002    +5.4896467e-005
+1.6800000e+002    +3.4947301e-005
+1.7600000e+002    +7.3260293e-005
+1.8400000e+002    +6.7548630e-005
+1.9200000e+002    +4.3919441e-005
+2.0000000e+002    +3.3537879e-005
+2.0800000e+002    +1.1745201e-004
+2.1600000e+002    +9.5510171e-005
+2.2400000e+002    +5.0883984e-005
+2.3200000e+002    +3.3643100e-005
+2.4000000e+002    +8.2572566e-005
+2.4800000e+002    +1.0966202e-004
+2.5600000e+002    +4.7026460e-005
+2.6400000e+002    +4.5708905e-005
+2.7200000e+002    +7.3717223e-005
+2.8000000e+002    +5.8893740e-005
+2.8800000e+002    +2.0824424e-005
+2.9600000e+002    +6.8409048e-005
+3.0400000e+002    +1.0166939e-004
+3.1200000e+002    +8.0768463e-005
+3.2000000e+002    +3.3328604e-005
+3.2800000e+002    +8.4366191e-005
+3.3600000e+002    +1.2802381e-004
+3.4400000e+002    +8.8485431e-005
+3.5200000e+002    +1.1339304e-004
+3.6000000e+002    +6.9148722e-005
+3.6800000e+002    +8.2501698e-005
+3.7600000e+002    +4.7087946e-005
+3.8400000e+002    +7.3195086e-005
+3.9200000e+002    +7.2825780e-005
+4.0000000e+002    +3.5782086e-005
+4.0800000e+002    +4.8484526e-005
+4.1600000e+002    +8.6720596e-005
+4.2400000e+002    +6.6544402e-005
+4.3200000e+002    +3.8794820e-005
+4.4000000e+002    +8.6622487e-005
+4.4800000e+002    +2.3985596e-005
+4.5600000e+002    +2.7671385e-005
+4.6400000e+002    +3.5447010e-005
+4.7200000e+002    +6.9503199e-005
+4.8000000e+002    +1.6353696e-004
+4.8800000e+002    +9.6836833e-005
+4.9600000e+002    +4.5986773e-005
+5.0400000e+002    +5.4619127e-006
+5.1200000e+002    +3.0490881e-005
+5.2000000e+002    +4.1280782e-005
+5.2800000e+002    +1.1872907e-004
+5.3600000e+002    +1.0618722e-004
+5.4400000e+002    +2.0930510e-004
+5.5200000e+002    +1.9404975e-004
+5.6000000e+002    +1.5081743e-004
+5.6800000e+002    +1.1667075e-004
+5.7600000e+002    +4.3324784e-005
+5.8400000e+002    +1.8548117e-004
+5.9200000e+002    +1.9177346e-004
+6.0000000e+002    +1.6483688e-004
+6.0800000e+002    +1.3819852e-004
+6.1600000e+002    +1.0845045e-004
+6.2400000e+002    +3.9620281e-005
+6.3200000e+002    +3.6568850e-005
+6.4000000e+002    +1.7440676e-004
+6.4800000e+002    +1.4092174e-004
+6.5600000e+002    +1.6227373e-004
+6.6400000e+002    +1.6032002e-004
+6.7200000e+002    +1.3209702e-004
+6.8000000e+002    +2.6550619e-005
+6.8800000e+002    +7.1428469e-005
+6.9600000e+002    +1.3679155e-004
+7.0400000e+002    +7.1346796e-005
+7.1200000e+002    +2.5249978e-003
+7.2000000e+002    +2.4893857e-003
+7.2800000e+002    +2.2958615e-003
+7.3600000e+002    +1.4313434e-004
+7.4400000e+002    +1.7091585e-004
+7.5200000e+002    +1.2894698e-004
+7.6000000e+002    +1.5719424e-004
+7.6800000e+002    +2.8918163e-004
+7.7600000e+002    +2.6112958e-004
+7.8400000e+002    +2.0029476e-004
+7.9200000e+002    +1.6114779e-004
+8.0000000e+002    +1.7526407e-004
+8.0800000e+002    +1.4091609e-004
+8.1600000e+002    +2.3723138e-004
+8.2400000e+002    +3.3275312e-004
+8.3200000e+002    +2.8537033e-004
+8.4000000e+002    +2.0978456e-004
+8.4800000e+002    +2.1454277e-004
+8.5600000e+002    +2.5372996e-004
+8.6400000e+002    +1.8493456e-004
+8.7200000e+002    +1.4259059e-004
+8.8000000e+002    +1.8885326e-004
+8.8800000e+002    +1.9181137e-004
+8.9600000e+002    +2.3620256e-004
+9.0400000e+002    +2.7376215e-004
+9.1200000e+002    +9.3853560e-005
+9.2000000e+002    +1.1561401e-004
+9.2800000e+002    +1.5711806e-004
+9.3600000e+002    +2.8528119e-004
+9.4400000e+002    +2.6859823e-004
+9.5200000e+002    +3.9952232e-005
+9.6000000e+002    +1.9587771e-004
+9.6800000e+002    +3.0810296e-004
+9.7600000e+002    +1.2429628e-004
+9.8400000e+002    +2.0987765e-004
+9.9200000e+002    +2.3228793e-004
+1.0000000e+003    +1.1239220e-004
+1.0080000e+003    +4.0541174e-005
+1.0160000e+003    +4.4588817e-004
+1.0240000e+003    +3.6216190e-004
+1.0320000e+003    +1.2968593e-004
+1.0400000e+003    +1.8777882e-004
+1.0480000e+003    +9.8238001e-005
+1.0560000e+003    +1.9464435e-004
+1.0640000e+003    +2.0483401e-004
+1.0720000e+003    +1.5962351e-004
+1.0800000e+003    +1.4377847e-004
+1.0880000e+003    +1.7782325e-004
+1.0960000e+003    +2.2358123e-004
+1.1040000e+003    +1.7701814e-004
+1.1120000e+003    +2.2194179e-004
+1.1200000e+003    +2.9608016e-004
+1.1280000e+003    +1.8611060e-004
+1.1360000e+003    +3.0509298e-004
+1.1440000e+003    +2.2583226e-004
+1.1520000e+003    +2.3622447e-004
+1.1600000e+003    +4.6843546e-004
+1.1680000e+003    +5.4131012e-004
+1.1760000e+003    +2.0388434e-004
+1.1840000e+003    +1.2425560e-004
+1.1920000e+003    +5.7373058e-005
+1.2000000e+003    +9.1375892e-005
+1.2080000e+003    +3.1036692e-004
+1.2160000e+003    +2.5044131e-004
+1.2240000e+003    +2.2549579e-004
+1.2320000e+003    +1.6243871e-004
+1.2400000e+003    +1.5467640e-004
+1.2480000e+003    +3.4486843e-004
+1.2560000e+003    +3.9038374e-004
+1.2640000e+003    +2.7930565e-004
+1.2720000e+003    +3.8914161e-004
+1.2800000e+003    +1.6118283e-004
+1.2880000e+003    +2.4903246e-004
+1.2960000e+003    +3.9049238e-004
+1.3040000e+003    +4.7323303e-004
+1.3120000e+003    +5.2326638e-004
+1.3200000e+003    +4.6347300e-004
+1.3280000e+003    +6.9544988e-004
+1.3360000e+003    +4.7532067e-004
+1.3440000e+003    +6.4928643e-004
+1.3520000e+003    +7.7936566e-004
+1.3600000e+003    +3.1099081e-004
+1.3680000e+003    +3.4964955e-004
+1.3760000e+003    +6.1348022e-004
+1.3840000e+003    +7.7858736e-004
+1.3920000e+003    +3.8380636e-004
+1.4000000e+003    +4.3420095e-004
+1.4080000e+003    +5.4754404e-004
+1.4160000e+003    +3.6361019e-004
+1.4240000e+003    +4.8517514e-004
+1.4320000e+003    +2.2411555e-004
+1.4400000e+003    +2.6639095e-003
+1.4480000e+003    +1.8695563e-003
+1.4560000e+003    +1.7209909e-003
+1.4640000e+003    +8.7646383e-004
+1.4720000e+003    +7.7614037e-004
+1.4800000e+003    +5.2009604e-004
+1.4880000e+003    +2.6534998e-004
+1.4960000e+003    +1.3135535e-003
+1.5040000e+003    +1.6340718e-003
+1.5120000e+003    +8.6547481e-004
+1.5200000e+003    +1.6653660e-003
+1.5280000e+003    +5.4878388e-003
+1.5360000e+003    +4.1479375e-003
+1.5440000e+003    +3.2772466e-003
+1.5520000e+003    +3.9125609e-004
+1.5600000e+003    +2.6001193e-004
+1.5680000e+003    +3.4156453e-004
+1.5760000e+003    +2.7707487e-004
+1.5840000e+003    +4.8219773e-004
+1.5920000e+003    +6.0327351e-004
+1.6000000e+003    +2.7367214e-004
+1.6080000e+003    +1.8557996e-004
+1.6160000e+003    +2.2633729e-004
+1.6240000e+003    +2.1831325e-004
+1.6320000e+003    +2.6069084e-004
+1.6400000e+003    +7.0902030e-004
+1.6480000e+003    +7.2053692e-004
+1.6560000e+003    +9.4182335e-004
+1.6640000e+003    +7.7205477e-004
+1.6720000e+003    +4.4993852e-004
+1.6800000e+003    +4.0534922e-004
+1.6880000e+003    +9.7734935e-004
+1.6960000e+003    +3.5257961e-004
+1.7040000e+003    +2.0787714e-004
+1.7120000e+003    +7.0991489e-004
+1.7200000e+003    +5.6160829e-004
+1.7280000e+003    +4.8180795e-004
+1.7360000e+003    +7.5251085e-004
+1.7440000e+003    +8.2036556e-004
+1.7520000e+003    +1.6858689e-004
+1.7600000e+003    +2.9113691e-004
+1.7680000e+003    +7.6197692e-005
+1.7760000e+003    +4.7877498e-004
+1.7840000e+003    +1.9308148e-004
+1.7920000e+003    +4.5912762e-004
+1.8000000e+003    +2.6017372e-004
+1.8080000e+003    +7.7788159e-004
+1.8160000e+003    +8.7236433e-004
+1.8240000e+003    +5.8492296e-004
+1.8320000e+003    +4.3258950e-004
+1.8400000e+003    +2.9198988e-004
+1.8480000e+003    +2.5468241e-004
+1.8560000e+003    +4.0341407e-004
+1.8640000e+003    +2.0346939e-004
+1.8720000e+003    +6.1956700e-004
+1.8800000e+003    +2.8581967e-004
+1.8880000e+003    +5.0066534e-004
+1.8960000e+003    +1.5352722e-004
+1.9040000e+003    +1.0571533e-003
+1.9120000e+003    +1.2373725e-003
+1.9200000e+003    +1.1281590e-003
+1.9280000e+003    +1.0556565e-003
+1.9360000e+003    +3.1840734e-004
+1.9440000e+003    +3.7866252e-004
+1.9520000e+003    +1.6258414e-003
+1.9600000e+003    +1.1735301e-003
+1.9680000e+003    +1.0379313e-003
+1.9760000e+003    +8.7255210e-004
+1.9840000e+003    +2.7325179e-004
+1.9920000e+003    +3.3778531e-004
+2.0000000e+003    +5.0107890e-004
+2.0080000e+003    +9.6428569e-004
+2.0160000e+003    +5.6294241e-004
+2.0240000e+003    +1.1991411e-003
+2.0320000e+003    +2.8342888e-004
+2.0400000e+003    +7.3030242e-004
+2.0480000e+003    +3.8083398e-004
+2.0560000e+003    +2.8177691e-004
+2.0640000e+003    +5.4408441e-004
+2.0720000e+003    +5.0413888e-004
+2.0800000e+003    +4.0579986e-004
+2.0880000e+003    +5.1255547e-004
+2.0960000e+003    +3.5328700e-004
+2.1040000e+003    +1.9445317e-004
+2.1120000e+003    +9.1592455e-004
+2.1200000e+003    +1.9453816e-003
+2.1280000e+003    +2.0519495e-003
+2.1360000e+003    +4.2260380e-004
+2.1440000e+003    +4.7466773e-004
+2.1520000e+003    +6.2776374e-004
+2.1600000e+003    +8.6563919e-004
+2.1680000e+003    +9.1472658e-004
+2.1760000e+003    +9.1051013e-004
+2.1840000e+003    +9.8563090e-004
+2.1920000e+003    +1.0032833e-003
+2.2000000e+003    +7.3163630e-004
+2.2080000e+003    +8.0715050e-004
+2.2160000e+003    +8.6912006e-004
+2.2240000e+003    +9.8917773e-004
+2.2320000e+003    +3.6748929e-004
+2.2400000e+003    +6.4041122e-004
+2.2480000e+003    +5.9808965e-004
+2.2560000e+003    +8.9949660e-004
+2.2640000e+003    +9.6548226e-004
+2.2720000e+003    +6.4420816e-004
+2.2800000e+003    +1.6493554e-004
+2.2880000e+003    +1.5852858e-004
+2.2960000e+003    +6.8535085e-004
+2.3040000e+003    +1.0168273e-003
+2.3120000e+003    +5.0194067e-004
+2.3200000e+003    +2.7246805e-004
+2.3280000e+003    +3.3951539e-004
+2.3360000e+003    +6.2639295e-004
+2.3440000e+003    +6.3870946e-004
+2.3520000e+003    +5.9773022e-004
+2.3600000e+003    +8.7150512e-004
+2.3680000e+003    +1.0115253e-003
+2.3760000e+003    +6.5879297e-004
+2.3840000e+003    +4.3509816e-004
+2.3920000e+003    +1.2152551e-003
+2.4000000e+003    +1.3115101e-003
+2.4080000e+003    +1.3145267e-003
+2.4160000e+003    +2.4044963e-004
+2.4240000e+003    +6.9549802e-004
+2.4320000e+003    +1.2006693e-003
+2.4400000e+003    +6.7011075e-004
+2.4480000e+003    +6.4987020e-004
+2.4560000e+003    +7.6360669e-004
+2.4640000e+003    +4.2603270e-004
+2.4720000e+003    +4.1868733e-004
+2.4800000e+003    +4.0748352e-004
+2.4880000e+003    +1.4519680e-003
+2.4960000e+003    +1.1727683e-003
+2.5040000e+003    +9.3747478e-004
+2.5120000e+003    +8.4081048e-004
+2.5200000e+003    +8.0067094e-004
+2.5280000e+003    +6.9426699e-004
+2.5360000e+003    +1.9321879e-004
+2.5440000e+003    +5.3429522e-004
+2.5520000e+003    +1.8652157e-003
+2.5600000e+003    +1.9684867e-003
+2.5680000e+003    +1.0123508e-003
+2.5760000e+003    +2.3950491e-004
+2.5840000e+003    +4.8191455e-004
+2.5920000e+003    +8.4088341e-004
+2.6000000e+003    +8.6428400e-004
+2.6080000e+003    +7.8757724e-004
+2.6160000e+003    +9.5951464e-004
+2.6240000e+003    +7.0660101e-004
+2.6320000e+003    +9.4956771e-004
+2.6400000e+003    +1.0721571e-003
+2.6480000e+003    +1.4645365e-003
+2.6560000e+003    +1.9616031e-003
+2.6640000e+003    +2.9304703e-003
+2.6720000e+003    +2.7015882e-003
+2.6800000e+003    +2.4065115e-003
+2.6880000e+003    +2.6493936e-004
+2.6960000e+003    +7.0639432e-004
+2.7040000e+003    +3.6393132e-004
+2.7120000e+003    +4.9772754e-004
+2.7200000e+003    +5.9489202e-004
+2.7280000e+003    +2.2844282e-004
+2.7360000e+003    +6.8659807e-004
+2.7440000e+003    +5.0781958e-004
+2.7520000e+003    +5.3220708e-004
+2.7600000e+003    +3.3048986e-004
+2.7680000e+003    +8.6660776e-004
+2.7760000e+003    +7.5343513e-004
+2.7840000e+003    +3.4414881e-004
+2.7920000e+003    +6.9840200e-004
+2.8000000e+003    +1.0174667e-003
+2.8080000e+003    +1.0511648e-003
+2.8160000e+003    +1.0106066e-003
+2.8240000e+003    +4.7000937e-004
+2.8320000e+003    +1.5256051e-003
+2.8400000e+003    +1.9279242e-003
+2.8480000e+003    +6.7709910e-004
+2.8560000e+003    +5.1765767e-004
+2.8640000e+003    +6.8186893e-004
+2.8720000e+003    +5.9948344e-004
+2.8800000e+003    +3.8464842e-004
+2.8880000e+003    +1.2464080e-003
+2.8960000e+003    +2.0421795e-003
+2.9040000e+003    +2.3757559e-003
+2.9120000e+003    +1.3843491e-003
+2.9200000e+003    +1.0198568e-003
+2.9280000e+003    +9.6179609e-004
+2.9360000e+003    +1.0715322e-004
+2.9440000e+003    +7.5790304e-004
+2.9520000e+003    +8.0041779e-004
+2.9600000e+003    +4.9319124e-004
+2.9680000e+003    +2.4267459e-004
+2.9760000e+003    +3.4006082e-003
+2.9840000e+003    +2.6395854e-003
+2.9920000e+003    +1.3639809e-003
+3.0000000e+003    +1.7244513e-003
+3.0080000e+003    +2.9126592e-003
+3.0160000e+003    +1.8376294e-003
+3.0240000e+003    +1.0779905e-004
+3.0320000e+003    +5.8946206e-004
+3.0400000e+003    +3.2712377e-003
+3.0480000e+003    +2.9382573e-003
+3.0560000e+003    +2.6119924e-003
+3.0640000e+003    +1.0679218e-003
+3.0720000e+003    +2.5057004e-004
+3.0800000e+003    +3.5777272e-004
+3.0880000e+003    +8.0398587e-004
+3.0960000e+003    +1.4366619e-003
+3.1040000e+003    +9.6440956e-004
+3.1120000e+003    +8.5953384e-004
+3.1200000e+003    +3.6135063e-004
+3.1280000e+003    +2.5144436e-003
+3.1360000e+003    +6.1052997e-004
+3.1440000e+003    +2.8346822e-004
+3.1520000e+003    +2.7851330e-004
+3.1600000e+003    +2.6487377e-003
+3.1680000e+003    +2.4473721e-003
+3.1760000e+003    +2.6342945e-004
+3.1840000e+003    +3.3679817e-004
+3.1920000e+003    +3.7758393e-004
+3.2000000e+003    +9.4417832e-004
+3.2080000e+003    +7.0801249e-004
+3.2160000e+003    +2.2768835e-003
+3.2240000e+003    +1.5234149e-003
+3.2320000e+003    +2.4876505e-004
+3.2400000e+003    +1.1865296e-004
+3.2480000e+003    +2.1862471e-004
+3.2560000e+003    +9.2436944e-004
+3.2640000e+003    +1.2957079e-003
+3.2720000e+003    +8.5781189e-004
+3.2800000e+003    +6.2136276e-004
+3.2880000e+003    +2.9223554e-003
+3.2960000e+003    +1.4173640e-003
+3.3040000e+003    +1.2398537e-003
+3.3120000e+003    +1.2818078e-003
+3.3200000e+003    +1.7518826e-003
+3.3280000e+003    +2.1669413e-003
+3.3360000e+003    +2.5043197e-003
+3.3440000e+003    +5.8287563e-004
+3.3520000e+003    +1.2696595e-005
+3.3600000e+003    +2.6071144e-004
+3.3680000e+003    +1.5742768e-004
+3.3760000e+003    +3.4996488e-003
+3.3840000e+003    +7.7291776e-004
+3.3920000e+003    +9.1195735e-004
+3.4000000e+003    +1.3610002e-003
+3.4080000e+003    +7.2851370e-005
+3.4160000e+003    +4.1061183e-004
+3.4240000e+003    +5.5022223e-004
+3.4320000e+003    +2.8977087e-003
+3.4400000e+003    +2.9802991e-003
+3.4480000e+003    +3.6397588e-004
+3.4560000e+003    +1.9082609e-004
+3.4640000e+003    +4.7329329e-005
+3.4720000e+003    +9.6457479e-005
+3.4800000e+003    +3.1054739e-004
+3.4880000e+003    +5.5914535e-004
+3.4960000e+003    +8.2180032e-004
+3.5040000e+003    +2.1559937e-004
+3.5120000e+003    +1.3433394e-004
+3.5200000e+003    +1.0327686e-004
+3.5280000e+003    +1.5016559e-003
+3.5360000e+003    +8.5322326e-004
+3.5440000e+003    +5.1054050e-004
+3.5520000e+003    +9.8568015e-004
+3.5600000e+003    +8.7563565e-004
+3.5680000e+003    +6.6281279e-004
+3.5760000e+003    +4.3766460e-004
+3.5840000e+003    +5.2127970e-004
+3.5920000e+003    +1.2455420e-003
+3.6000000e+003    +2.3597393e-003
+3.6080000e+003    +4.5776907e-003
+3.6160000e+003    +4.9776444e-003
+3.6240000e+003    +4.3168375e-003
+3.6320000e+003    +3.6118026e-003
+3.6400000e+003    +2.5522378e-003
+3.6480000e+003    +1.4877981e-003
+3.6560000e+003    +1.5230017e-003
+3.6640000e+003    +1.3234351e-004
+3.6720000e+003    +2.7663456e-004
+3.6800000e+003    +3.2982195e-003
+3.6880000e+003    +3.6167789e-003
+3.6960000e+003    +1.6035700e-003
+3.7040000e+003    +1.3537453e-003
+3.7120000e+003    +6.5336947e-004
+3.7200000e+003    +9.0269919e-004
+3.7280000e+003    +1.6823002e-003
+3.7360000e+003    +2.0890631e-004
+3.7440000e+003    +2.7524424e-004
+3.7520000e+003    +4.2144654e-004
+3.7600000e+003    +1.3528093e-003
+3.7680000e+003    +5.8630342e-004
+3.7760000e+003    +4.9843465e-004
+3.7840000e+003    +7.0676202e-004
+3.7920000e+003    +8.4124680e-004
+3.8000000e+003    +1.0718446e-003
+3.8080000e+003    +1.0783682e-003
+3.8160000e+003    +6.6502189e-004
+3.8240000e+003    +9.6200575e-004
+3.8320000e+003    +6.3973165e-004
+3.8400000e+003    +4.5569649e-004
+3.8480000e+003    +1.3532542e-003
+3.8560000e+003    +7.9548830e-004
+3.8640000e+003    +7.0599228e-004
+3.8720000e+003    +4.6902217e-004
+3.8800000e+003    +4.0421789e-004
+3.8880000e+003    +3.7376833e-004
+3.8960000e+003    +1.4692619e-003
+3.9040000e+003    +1.7040713e-003
+3.9120000e+003    +1.8896713e-004
+3.9200000e+003    +3.5498949e-004
+3.9280000e+003    +3.7013821e-003
+3.9360000e+003    +2.7926227e-003
+3.9440000e+003    +1.5060406e-003
+3.9520000e+003    +1.9838363e-003
+3.9600000e+003    +4.8558949e-004
+3.9680000e+003    +4.3184918e-004
+3.9760000e+003    +7.7380298e-004
+3.9840000e+003    +3.4492466e-004
+3.9920000e+003    +1.3071297e-003
+4.0000000e+003    +1.0058986e-003
+4.0080000e+003    +7.8185374e-004
+4.0160000e+003    +1.3840018e-003
+4.0240000e+003    +9.9207193e-004
+4.0320000e+003    +6.8553258e-004
+4.0400000e+003    +4.1607043e-004
+4.0480000e+003    +2.0318811e-003
+4.0560000e+003    +1.4680679e-003
+4.0640000e+003    +4.7049185e-004
+4.0720000e+003    +1.4672251e-003
+4.0800000e+003    +2.6423067e-003
+4.0880000e+003    +6.5325294e-004
+4.0960000e+003    +6.4975786e-004
+4.1040000e+003    +6.3052203e-004
+4.1120000e+003    +9.2797843e-004
+4.1200000e+003    +6.4552086e-004
+4.1280000e+003    +1.8716810e-003
+4.1360000e+003    +1.0478802e-003
+4.1440000e+003    +1.6016264e-004
+4.1520000e+003    +4.3790037e-004
+4.1600000e+003    +5.3667667e-004
+4.1680000e+003    +5.7701243e-004
+4.1760000e+003    +3.1092440e-004
+4.1840000e+003    +9.7078329e-004
+4.1920000e+003    +5.7061180e-004
+4.2000000e+003    +3.6885764e-004
+4.2080000e+003    +4.1004058e-004
+4.2160000e+003    +4.8898498e-004
+4.2240000e+003    +5.8568158e-004
+4.2320000e+003    +5.6426297e-004
+4.2400000e+003    +8.7100768e-004
+4.2480000e+003    +7.8983611e-004
+4.2560000e+003    +1.0560617e-004
+4.2640000e+003    +2.9967350e-004
+4.2720000e+003    +5.8074965e-004
+4.2800000e+003    +3.7517180e-004
+4.2880000e+003    +3.3915549e-004
+4.2960000e+003    +1.0377325e-003
+4.3040000e+003    +9.7847893e-004
+4.3120000e+003    +1.0146175e-003
+4.3200000e+003    +9.9193421e-004
+4.3280000e+003    +8.8573300e-004
+4.3360000e+003    +6.0870039e-004
+4.3440000e+003    +8.0875040e-004
+4.3520000e+003    +2.6113988e-004
+4.3600000e+003    +3.6081817e-004
+4.3680000e+003    +1.1756761e-003
+4.3760000e+003    +7.6418248e-004
+4.3840000e+003    +1.6294888e-004
+4.3920000e+003    +3.7944704e-004
+4.4000000e+003    +3.5961802e-004
+4.4080000e+003    +1.1208302e-003
+4.4160000e+003    +1.5033130e-003
+4.4240000e+003    +2.8110109e-004
+4.4320000e+003    +3.2009601e-004
+4.4400000e+003    +1.0445770e-003
+4.4480000e+003    +1.3207105e-003
+4.4560000e+003    +9.6175016e-004
+4.4640000e+003    +9.3241449e-004
+4.4720000e+003    +7.9843804e-004
+4.4800000e+003    +1.0507829e-003
+4.4880000e+003    +8.8718609e-004
+4.4960000e+003    +2.3109460e-004
+4.5040000e+003    +2.2604610e-004
+4.5120000e+003    +1.1560785e-003
+4.5200000e+003    +7.5255090e-004
+4.5280000e+003    +9.4301382e-004
+4.5360000e+003    +8.8403031e-004
+4.5440000e+003    +7.6267915e-004
+4.5520000e+003    +7.0455740e-004
+4.5600000e+003    +1.3479113e-003
+4.5680000e+003    +4.7083833e-004
+4.5760000e+003    +8.6132833e-004
+4.5840000e+003    +3.6168186e-004
+4.5920000e+003    +1.2265992e-003
+4.6000000e+003    +1.7116149e-003
+4.6080000e+003    +1.9654254e-003
+4.6160000e+003    +1.6296176e-004
+4.6240000e+003    +5.1646377e-004
+4.6320000e+003    +1.2813758e-003
+4.6400000e+003    +2.4779787e-004
+4.6480000e+003    +2.0913855e-004
+4.6560000e+003    +5.8795890e-004
+4.6640000e+003    +6.8224635e-004
+4.6720000e+003    +7.6223165e-004
+4.6800000e+003    +9.8577538e-004
+4.6880000e+003    +7.4062869e-004
+4.6960000e+003    +6.9424411e-004
+4.7040000e+003    +4.9572357e-004
+4.7120000e+003    +6.1847037e-004
+4.7200000e+003    +1.0500114e-003
+4.7280000e+003    +1.4828112e-003
+4.7360000e+003    +1.3747263e-003
+4.7440000e+003    +2.7163798e-004
+4.7520000e+003    +9.8615105e-004
+4.7600000e+003    +1.8187620e-004
+4.7680000e+003    +3.3805653e-004
+4.7760000e+003    +6.8485399e-004
+4.7840000e+003    +7.8874029e-004
+4.7920000e+003    +8.3214528e-004
+4.8000000e+003    +2.4317617e-004
+4.8080000e+003    +1.2090020e-003
+4.8160000e+003    +1.0388228e-003
+4.8240000e+003    +5.5067550e-004
+4.8320000e+003    +5.2717677e-004
+4.8400000e+003    +4.9049326e-004
+4.8480000e+003    +5.3751643e-004
+4.8560000e+003    +5.4676068e-004
+4.8640000e+003    +1.7663316e-004
+4.8720000e+003    +1.3821188e-003
+4.8800000e+003    +1.2336115e-003
+4.8880000e+003    +2.0755795e-004
+4.8960000e+003    +2.2139018e-004
+4.9040000e+003    +3.3406567e-004
+4.9120000e+003    +7.1579439e-004
+4.9200000e+003    +1.5714826e-004
+4.9280000e+003    +2.8722195e-004
+4.9360000e+003    +4.5845765e-004
+4.9440000e+003    +2.1024852e-004
+4.9520000e+003    +6.8844107e-005
+4.9600000e+003    +2.5825392e-004
+4.9680000e+003    +3.1715599e-004
+4.9760000e+003    +4.2404700e-004
+4.9840000e+003    +6.4524455e-004
+4.9920000e+003    +2.2565083e-004
+5.0000000e+003    +3.4488057e-004
+5.0080000e+003    +2.9662991e-004
+5.0160000e+003    +1.6319221e-004
+5.0240000e+003    +8.1151671e-004
+5.0320000e+003    +1.0500286e-003
+5.0400000e+003    +7.7673368e-004
+5.0480000e+003    +5.9161859e-004
+5.0560000e+003    +3.2785008e-004
+5.0640000e+003    +4.3653007e-004
+5.0720000e+003    +6.3030154e-004
+5.0800000e+003    +8.9725555e-004
+5.0880000e+003    +4.3460994e-004
+5.0960000e+003    +5.1147328e-004
+5.1040000e+003    +1.0021824e-004
+5.1120000e+003    +5.9270434e-004
+5.1200000e+003    +3.7578752e-004
+5.1280000e+003    +6.0789456e-004
+5.1360000e+003    +2.2218926e-004
+5.1440000e+003    +5.7904713e-004
+5.1520000e+003    +1.7763173e-003
+5.1600000e+003    +2.8186449e-004
+5.1680000e+003    +5.7201344e-004
+5.1760000e+003    +4.5626221e-004
+5.1840000e+003    +5.3627760e-004
+5.1920000e+003    +3.6435752e-004
+5.2000000e+003    +3.0155483e-004
+5.2080000e+003    +4.9592141e-004
+5.2160000e+003    +2.5088896e-004
+5.2240000e+003    +1.5738136e-003
+5.2320000e+003    +1.4993650e-003
+5.2400000e+003    +1.0221207e-003
+5.2480000e+003    +2.0566095e-004
+5.2560000e+003    +2.8866454e-004
+5.2640000e+003    +1.8377403e-004
+5.2720000e+003    +3.6632625e-004
+5.2800000e+003    +3.2785532e-004
+5.2880000e+003    +4.2695613e-004
+5.2960000e+003    +1.6493318e-004
+5.3040000e+003    +4.7025172e-004
+5.3120000e+003    +6.1141781e-004
+5.3200000e+003    +5.2599813e-004
+5.3280000e+003    +5.5226975e-004
+5.3360000e+003    +9.1007986e-004
+5.3440000e+003    +5.4199755e-004
+5.3520000e+003    +8.2140433e-004
+5.3600000e+003    +6.0271204e-004
+5.3680000e+003    +2.7833032e-004
+5.3760000e+003    +3.6359022e-004
+5.3840000e+003    +4.5317080e-004
+5.3920000e+003    +2.3314812e-004
+5.4000000e+003    +3.7314897e-004
+5.4080000e+003    +3.6872886e-004
+5.4160000e+003    +3.5615699e-004
+5.4240000e+003    +6.9387071e-004
+5.4320000e+003    +2.7051248e-004
+5.4400000e+003    +2.8103491e-004
+5.4480000e+003    +3.8808046e-004
+5.4560000e+003    +3.4704228e-004
+5.4640000e+003    +4.0610472e-004
+5.4720000e+003    +3.9361059e-004
+5.4800000e+003    +2.0586756e-004
+5.4880000e+003    +2.0020176e-004
+5.4960000e+003    +1.2603338e-004
+5.5040000e+003    +2.4843030e-004
+5.5120000e+003    +1.2664837e-004
+5.5200000e+003    +4.3357737e-004
+5.5280000e+003    +7.7481550e-004
+5.5360000e+003    +7.5538334e-004
+5.5440000e+003    +7.2688336e-004
+5.5520000e+003    +4.6954848e-004
+5.5600000e+003    +5.2225072e-004
+5.5680000e+003    +3.9691624e-004
+5.5760000e+003    +4.4859879e-004
+5.5840000e+003    +5.2320719e-004
+5.5920000e+003    +6.3819875e-004
+5.6000000e+003    +5.4969417e-004
+5.6080000e+003    +4.1957872e-004
+5.6160000e+003    +9.3568342e-005
+5.6240000e+003    +3.9432346e-004
+5.6320000e+003    +1.6010313e-004
+5.6400000e+003    +1.7537196e-004
+5.6480000e+003    +1.4406876e-004
+5.6560000e+003    +7.4532093e-004
+5.6640000e+003    +5.4185389e-004
+5.6720000e+003    +7.5082929e-004
+5.6800000e+003    +7.1870821e-004
+5.6880000e+003    +2.2592378e-004
+5.6960000e+003    +3.6970098e-004
+5.7040000e+003    +4.6298880e-004
+5.7120000e+003    +7.1145408e-004
+5.7200000e+003    +6.9693854e-004
+5.7280000e+003    +1.7079852e-004
+5.7360000e+003    +3.2543269e-004
+5.7440000e+003    +9.1245765e-004
+5.7520000e+003    +9.9425612e-004
+5.7600000e+003    +8.4786850e-004
+5.7680000e+003    +6.4050686e-004
+5.7760000e+003    +2.4872040e-004
+5.7840000e+003    +1.5633150e-004
+5.7920000e+003    +1.0725838e-003
+5.8000000e+003    +9.1016782e-004
+5.8080000e+003    +1.3372815e-003
+5.8160000e+003    +1.7755334e-003
+5.8240000e+003    +2.0016979e-003
+5.8320000e+003    +7.1847584e-004
+5.8400000e+003    +3.3415755e-004
+5.8480000e+003    +3.5813687e-004
+5.8560000e+003    +3.4374304e-004
+5.8640000e+003    +5.7316013e-004
+5.8720000e+003    +4.4736790e-004
+5.8800000e+003    +6.2599691e-004
+5.8880000e+003    +7.0916314e-004
+5.8960000e+003    +6.4067601e-004
+5.9040000e+003    +3.6377471e-004
+5.9120000e+003    +7.9232326e-004
+5.9200000e+003    +5.3306326e-004
+5.9280000e+003    +6.9093431e-004
+5.9360000e+003    +2.1304374e-003
+5.9440000e+003    +2.7571307e-003
+5.9520000e+003    +2.9098431e-003
+5.9600000e+003    +1.4414059e-003
+5.9680000e+003    +1.7322858e-003
+5.9760000e+003    +2.7242722e-004
+5.9840000e+003    +4.3387237e-004
+5.9920000e+003    +1.9000935e-004
+6.0000000e+003    +1.9642485e-004
+6.0080000e+003    +5.7172211e-004
+6.0160000e+003    +5.3350592e-004
+6.0240000e+003    +4.1703499e-004
+6.0320000e+003    +2.8008121e-004
+6.0400000e+003    +5.3385133e-004
+6.0480000e+003    +5.6150166e-004
+6.0560000e+003    +5.9857318e-004
+6.0640000e+003    +4.5243054e-004
+6.0720000e+003    +3.2852753e-004
+6.0800000e+003    +6.8042666e-004
+6.0880000e+003    +8.7960955e-004
+6.0960000e+003    +3.6239158e-004
+6.1040000e+003    +1.1014125e-003
+6.1120000e+003    +9.8238862e-004
+6.1200000e+003    +8.2435284e-004
+6.1280000e+003    +4.8403197e-004
+6.1360000e+003    +1.0570477e-003
+6.1440000e+003    +9.5070695e-004
+6.1520000e+003    +4.0367525e-004
+6.1600000e+003    +2.1517996e-004
+6.1680000e+003    +6.9077767e-004
+6.1760000e+003    +4.1919629e-004
+6.1840000e+003    +1.3497862e-004
+6.1920000e+003    +6.8531284e-004
+6.2000000e+003    +5.9111405e-004
+6.2080000e+003    +7.0501043e-004
+6.2160000e+003    +5.0856057e-004
+6.2240000e+003    +6.0592382e-004
+6.2320000e+003    +8.8551955e-004
+6.2400000e+003    +4.3228421e-005
+6.2480000e+003    +5.9225486e-004
+6.2560000e+003    +3.5848364e-004
+6.2640000e+003    +4.4781508e-004
+6.2720000e+003    +5.1212375e-004
+6.2800000e+003    +8.2351197e-004
+6.2880000e+003    +4.2088240e-004
+6.2960000e+003    +4.2390617e-004
+6.3040000e+003    +2.2366397e-004
+6.3120000e+003    +3.7702839e-004
+6.3200000e+003    +4.6219977e-004
+6.3280000e+003    +3.4781644e-004
+6.3360000e+003    +6.8148045e-004
+6.3440000e+003    +6.7536836e-005
+6.3520000e+003    +3.7538935e-004
+6.3600000e+003    +6.3699851e-004
+6.3680000e+003    +7.5435598e-004
+6.3760000e+003    +1.1161893e-003
+6.3840000e+003    +7.4114848e-004
+6.3920000e+003    +7.5740390e-004
