# SR785 Measurement - Timestamp: Jan 03 2019 - 22:31:07
#---------- Measurement Setup ------------
# Start Frequency (Hz): 0.000000
# Frequency Span (Hz): 6400.000000
# Frequency Resolution: 800
# Number of Averages: 2
# Averaging Mode: None
# Window function: BMH
#---------- Measurement Parameters ----------
# Measurement Group:  "FFT" "FFT"
# Measurements:  "FFT 1" "FFT 2"
# View:  "Log Magnitude" "Log Magnitude"
# Unit:  "dBVpk" "Vrms/rtHz"
#---------- Input Parameters ----------
# Input Source: Analog
# Input Mode: Single ended, Single ended
# Input Grounding: Float, Float
# Input Coupling: AC, DC
# Input Range: -14.0dBVpk, 22.0dBVpk
# Auto Range: On, On
# Auto Range Mode: Up Only, Normal
# Anti-Aliasing Filter: On, On
#---------- Source Parameters ----------
# Source Type: Sine
# Source Amplitude: 500.0mVpk
# Source On: 0

#---------- Measurement Data ----------
# [Freq(Hz) Display 0(dBVpk) Display 1(Vrms/rtHz) ]
+0.0000000e+000    +4.8759717e-001
+8.0000000e+000    +3.3255553e-001
+1.6000000e+001    +9.8077178e-002
+2.4000000e+001    +9.9226478e-003
+3.2000000e+001    +1.4420613e-003
+4.0000000e+001    +1.5647120e-004
+4.8000000e+001    +5.3167882e-005
+5.6000000e+001    +8.9172820e-005
+6.4000000e+001    +5.2181655e-005
+7.2000000e+001    +2.3263365e-005
+8.0000000e+001    +4.3228658e-005
+8.8000000e+001    +1.5414778e-005
+9.6000000e+001    +2.5679577e-005
+1.0400000e+002    +1.2405672e-004
+1.1200000e+002    +1.1748535e-004
+1.2000000e+002    +1.1512038e-004
+1.2800000e+002    +5.9180828e-005
+1.3600000e+002    +7.6842509e-005
+1.4400000e+002    +4.2571592e-005
+1.5200000e+002    +4.6763202e-005
+1.6000000e+002    +5.0753421e-005
+1.6800000e+002    +6.9726157e-005
+1.7600000e+002    +6.8183035e-005
+1.8400000e+002    +1.8159237e-005
+1.9200000e+002    +4.7900423e-005
+2.0000000e+002    +4.2832129e-005
+2.0800000e+002    +6.1707578e-005
+2.1600000e+002    +4.4612985e-005
+2.2400000e+002    +8.5676140e-005
+2.3200000e+002    +4.3021835e-005
+2.4000000e+002    +2.9874642e-005
+2.4800000e+002    +4.4931821e-005
+2.5600000e+002    +1.0528258e-004
+2.6400000e+002    +4.0335472e-005
+2.7200000e+002    +6.8288602e-005
+2.8000000e+002    +2.6864380e-005
+2.8800000e+002    +2.9578514e-005
+2.9600000e+002    +8.1350699e-005
+3.0400000e+002    +1.0731145e-004
+3.1200000e+002    +1.0994008e-004
+3.2000000e+002    +3.3874836e-005
+3.2800000e+002    +2.6273648e-005
+3.3600000e+002    +2.2428343e-005
+3.4400000e+002    +5.5780314e-005
+3.5200000e+002    +4.5788718e-005
+3.6000000e+002    +7.4708281e-005
+3.6800000e+002    +1.0063664e-004
+3.7600000e+002    +3.7599533e-005
+3.8400000e+002    +1.3109759e-005
+3.9200000e+002    +2.1975873e-005
+4.0000000e+002    +2.8392004e-005
+4.0800000e+002    +8.2152786e-005
+4.1600000e+002    +1.0536468e-004
+4.2400000e+002    +1.0197028e-004
+4.3200000e+002    +4.2956133e-005
+4.4000000e+002    +6.0269751e-005
+4.4800000e+002    +6.2956533e-005
+4.5600000e+002    +4.8949503e-005
+4.6400000e+002    +6.6683075e-005
+4.7200000e+002    +3.3603414e-005
+4.8000000e+002    +3.0654017e-005
+4.8800000e+002    +8.9836351e-005
+4.9600000e+002    +5.3122367e-005
+5.0400000e+002    +5.6177112e-005
+5.1200000e+002    +6.7980982e-005
+5.2000000e+002    +4.5921483e-005
+5.2800000e+002    +5.5556302e-005
+5.3600000e+002    +9.8944329e-005
+5.4400000e+002    +1.7066477e-004
+5.5200000e+002    +1.1761009e-004
+5.6000000e+002    +1.0715445e-004
+5.6800000e+002    +8.3643819e-005
+5.7600000e+002    +1.4859191e-004
+5.8400000e+002    +7.1879578e-005
+5.9200000e+002    +2.3834751e-005
+6.0000000e+002    +1.1079664e-004
+6.0800000e+002    +2.0783651e-004
+6.1600000e+002    +2.1650137e-004
+6.2400000e+002    +1.2805671e-004
+6.3200000e+002    +1.8871552e-004
+6.4000000e+002    +1.8215668e-004
+6.4800000e+002    +1.2250218e-004
+6.5600000e+002    +1.9511562e-004
+6.6400000e+002    +8.1259735e-005
+6.7200000e+002    +7.6674376e-005
+6.8000000e+002    +1.0966009e-004
+6.8800000e+002    +1.2804469e-004
+6.9600000e+002    +1.6406381e-004
+7.0400000e+002    +1.5613629e-004
+7.1200000e+002    +1.0076119e-004
+7.2000000e+002    +8.9235109e-005
+7.2800000e+002    +1.0491200e-004
+7.3600000e+002    +1.1239547e-004
+7.4400000e+002    +8.5620472e-005
+7.5200000e+002    +9.2890812e-005
+7.6000000e+002    +1.3801421e-004
+7.6800000e+002    +1.7416326e-004
+7.7600000e+002    +1.9567051e-004
+7.8400000e+002    +7.6840566e-005
+7.9200000e+002    +9.7015305e-005
+8.0000000e+002    +1.2091886e-004
+8.0800000e+002    +2.7496077e-004
+8.1600000e+002    +1.6377108e-004
+8.2400000e+002    +6.7098619e-005
+8.3200000e+002    +2.6740943e-004
+8.4000000e+002    +1.7246284e-004
+8.4800000e+002    +2.4834819e-004
+8.5600000e+002    +1.8667594e-004
+8.6400000e+002    +1.5068518e-004
+8.7200000e+002    +3.2715430e-004
+8.8000000e+002    +1.9745617e-004
+8.8800000e+002    +1.6766071e-004
+8.9600000e+002    +2.9179375e-004
+9.0400000e+002    +2.8330908e-004
+9.1200000e+002    +1.6194739e-004
+9.2000000e+002    +1.6789732e-004
+9.2800000e+002    +9.9938647e-005
+9.3600000e+002    +1.1322820e-004
+9.4400000e+002    +1.1655840e-004
+9.5200000e+002    +1.7530131e-004
+9.6000000e+002    +2.3456675e-004
+9.6800000e+002    +1.4104457e-004
+9.7600000e+002    +3.1058097e-004
+9.8400000e+002    +7.2049617e-005
+9.9200000e+002    +6.1143830e-005
+1.0000000e+003    +1.9961299e-004
+1.0080000e+003    +2.3586216e-004
+1.0160000e+003    +1.8101209e-004
+1.0240000e+003    +1.7859750e-004
+1.0320000e+003    +3.2186569e-004
+1.0400000e+003    +1.8667369e-004
+1.0480000e+003    +1.8171562e-004
+1.0560000e+003    +2.0547406e-004
+1.0640000e+003    +7.2649440e-005
+1.0720000e+003    +2.6946075e-004
+1.0800000e+003    +8.3283034e-005
+1.0880000e+003    +2.0769257e-004
+1.0960000e+003    +2.7580481e-004
+1.1040000e+003    +2.4187457e-004
+1.1120000e+003    +1.5337103e-004
+1.1200000e+003    +2.9036915e-004
+1.1280000e+003    +3.0670379e-004
+1.1360000e+003    +2.8889949e-004
+1.1440000e+003    +1.8944795e-004
+1.1520000e+003    +2.4068631e-004
+1.1600000e+003    +6.7739580e-005
+1.1680000e+003    +1.6225858e-004
+1.1760000e+003    +1.2584387e-004
+1.1840000e+003    +2.1383092e-004
+1.1920000e+003    +1.4408110e-004
+1.2000000e+003    +1.2757556e-004
+1.2080000e+003    +2.0246947e-004
+1.2160000e+003    +2.4516296e-005
+1.2240000e+003    +2.1734665e-004
+1.2320000e+003    +1.2659666e-004
+1.2400000e+003    +1.4449759e-004
+1.2480000e+003    +8.9174777e-005
+1.2560000e+003    +4.1437041e-005
+1.2640000e+003    +7.3825271e-005
+1.2720000e+003    +5.0239854e-005
+1.2800000e+003    +2.6468438e-004
+1.2880000e+003    +2.5601650e-004
+1.2960000e+003    +2.3548100e-004
+1.3040000e+003    +1.3708083e-004
+1.3120000e+003    +1.1541248e-004
+1.3200000e+003    +3.0736046e-004
+1.3280000e+003    +2.3083568e-004
+1.3360000e+003    +2.2532923e-004
+1.3440000e+003    +1.3946928e-004
+1.3520000e+003    +2.0105028e-004
+1.3600000e+003    +2.5882447e-004
+1.3680000e+003    +1.0680947e-004
+1.3760000e+003    +3.2739056e-004
+1.3840000e+003    +2.1937818e-004
+1.3920000e+003    +2.9693622e-004
+1.4000000e+003    +4.4605440e-005
+1.4080000e+003    +1.0879721e-004
+1.4160000e+003    +1.0451873e-004
+1.4240000e+003    +3.3187782e-004
+1.4320000e+003    +5.2798452e-004
+1.4400000e+003    +1.9195431e-004
+1.4480000e+003    +1.7444392e-004
+1.4560000e+003    +2.5233947e-004
+1.4640000e+003    +3.1112108e-004
+1.4720000e+003    +1.3555978e-004
+1.4800000e+003    +2.5394888e-004
+1.4880000e+003    +3.4296530e-004
+1.4960000e+003    +2.4134932e-004
+1.5040000e+003    +4.1925270e-004
+1.5120000e+003    +1.9028358e-004
+1.5200000e+003    +1.9175126e-004
+1.5280000e+003    +3.1371243e-004
+1.5360000e+003    +9.3280723e-005
+1.5440000e+003    +2.5705868e-004
+1.5520000e+003    +1.7018229e-004
+1.5600000e+003    +2.0247757e-004
+1.5680000e+003    +2.8497534e-004
+1.5760000e+003    +2.3604634e-004
+1.5840000e+003    +1.5241995e-004
+1.5920000e+003    +3.8139385e-004
+1.6000000e+003    +3.7704784e-004
+1.6080000e+003    +2.3429634e-004
+1.6160000e+003    +1.7009607e-004
+1.6240000e+003    +1.3268404e-004
+1.6320000e+003    +2.2195837e-004
+1.6400000e+003    +2.9948304e-004
+1.6480000e+003    +1.5756542e-004
+1.6560000e+003    +7.9573991e-005
+1.6640000e+003    +5.1749119e-004
+1.6720000e+003    +6.0066412e-004
+1.6800000e+003    +3.2487398e-004
+1.6880000e+003    +3.8388264e-004
+1.6960000e+003    +5.3806114e-004
+1.7040000e+003    +8.4989151e-004
+1.7120000e+003    +5.6219997e-004
+1.7200000e+003    +3.7730875e-004
+1.7280000e+003    +1.4704667e-004
+1.7360000e+003    +7.5912438e-005
+1.7440000e+003    +1.3575639e-004
+1.7520000e+003    +5.3044791e-005
+1.7600000e+003    +1.1063679e-004
+1.7680000e+003    +3.2701081e-004
+1.7760000e+003    +1.0404580e-004
+1.7840000e+003    +1.3278701e-004
+1.7920000e+003    +2.2441693e-004
+1.8000000e+003    +6.0382616e-005
+1.8080000e+003    +4.9776526e-004
+1.8160000e+003    +3.7491939e-004
+1.8240000e+003    +1.6385309e-005
+1.8320000e+003    +5.3223426e-004
+1.8400000e+003    +6.0246262e-004
+1.8480000e+003    +3.6715655e-004
+1.8560000e+003    +3.3375862e-004
+1.8640000e+003    +8.1447761e-005
+1.8720000e+003    +4.3994829e-004
+1.8800000e+003    +3.8939700e-004
+1.8880000e+003    +5.2279205e-004
+1.8960000e+003    +2.4628258e-004
+1.9040000e+003    +1.4048755e-004
+1.9120000e+003    +7.0957514e-004
+1.9200000e+003    +6.5393717e-004
+1.9280000e+003    +6.4688275e-004
+1.9360000e+003    +1.4153967e-004
+1.9440000e+003    +7.0272910e-004
+1.9520000e+003    +5.5571098e-004
+1.9600000e+003    +3.2090853e-004
+1.9680000e+003    +3.4268375e-004
+1.9760000e+003    +5.2445958e-004
+1.9840000e+003    +7.3126570e-004
+1.9920000e+003    +5.1490869e-004
+2.0000000e+003    +5.6613085e-004
+2.0080000e+003    +6.2476750e-004
+2.0160000e+003    +5.2185467e-004
+2.0240000e+003    +8.1055856e-004
+2.0320000e+003    +8.0866338e-004
+2.0400000e+003    +6.5182179e-004
+2.0480000e+003    +4.4241970e-004
+2.0560000e+003    +8.0302689e-004
+2.0640000e+003    +8.6859247e-004
+2.0720000e+003    +3.6974766e-004
+2.0800000e+003    +4.9028650e-004
+2.0880000e+003    +2.9315209e-004
+2.0960000e+003    +6.7849184e-004
+2.1040000e+003    +8.3373429e-004
+2.1120000e+003    +4.5684970e-004
+2.1200000e+003    +8.2744414e-004
+2.1280000e+003    +5.7939120e-004
+2.1360000e+003    +6.2106061e-004
+2.1440000e+003    +1.2729314e-004
+2.1520000e+003    +1.2948312e-004
+2.1600000e+003    +5.3119566e-004
+2.1680000e+003    +7.6129072e-004
+2.1760000e+003    +7.0108450e-004
+2.1840000e+003    +5.5959250e-004
+2.1920000e+003    +5.4856221e-004
+2.2000000e+003    +4.6826911e-004
+2.2080000e+003    +4.0150931e-004
+2.2160000e+003    +3.0123236e-004
+2.2240000e+003    +7.6111814e-004
+2.2320000e+003    +6.5029098e-004
+2.2400000e+003    +7.1474130e-004
+2.2480000e+003    +6.9348532e-004
+2.2560000e+003    +6.8467582e-004
+2.2640000e+003    +3.1528063e-004
+2.2720000e+003    +7.3611311e-004
+2.2800000e+003    +9.4280520e-004
+2.2880000e+003    +5.9715920e-004
+2.2960000e+003    +1.1787633e-003
+2.3040000e+003    +4.4031459e-004
+2.3120000e+003    +5.1898882e-004
+2.3200000e+003    +3.6921276e-004
+2.3280000e+003    +6.8754028e-004
+2.3360000e+003    +7.7650259e-004
+2.3440000e+003    +7.5302372e-004
+2.3520000e+003    +9.0194819e-004
+2.3600000e+003    +1.1318575e-003
+2.3680000e+003    +4.9910526e-004
+2.3760000e+003    +2.2812525e-004
+2.3840000e+003    +2.7129386e-004
+2.3920000e+003    +6.2557642e-004
+2.4000000e+003    +8.6928991e-004
+2.4080000e+003    +2.7003503e-004
+2.4160000e+003    +1.3988535e-004
+2.4240000e+003    +7.7362964e-004
+2.4320000e+003    +9.1085007e-004
+2.4400000e+003    +3.0161097e-004
+2.4480000e+003    +1.7442869e-004
+2.4560000e+003    +6.3827797e-004
+2.4640000e+003    +4.0021577e-004
+2.4720000e+003    +7.2734483e-004
+2.4800000e+003    +8.9454994e-004
+2.4880000e+003    +3.5712027e-004
+2.4960000e+003    +5.5821484e-004
+2.5040000e+003    +3.7035000e-004
+2.5120000e+003    +3.3841599e-004
+2.5200000e+003    +7.4318814e-004
+2.5280000e+003    +9.7773306e-004
+2.5360000e+003    +7.3971972e-004
+2.5440000e+003    +4.4843898e-004
+2.5520000e+003    +4.2908642e-004
+2.5600000e+003    +2.5692917e-004
+2.5680000e+003    +2.9685846e-004
+2.5760000e+003    +4.3244704e-004
+2.5840000e+003    +9.4852678e-004
+2.5920000e+003    +9.3916437e-004
+2.6000000e+003    +1.7333837e-004
+2.6080000e+003    +2.5270684e-004
+2.6160000e+003    +7.8133930e-004
+2.6240000e+003    +8.3536713e-004
+2.6320000e+003    +9.0300001e-004
+2.6400000e+003    +1.3308666e-003
+2.6480000e+003    +8.9676410e-004
+2.6560000e+003    +4.9376936e-004
+2.6640000e+003    +9.7397499e-004
+2.6720000e+003    +6.6475506e-004
+2.6800000e+003    +2.8948579e-004
+2.6880000e+003    +4.0674442e-004
+2.6960000e+003    +2.1342022e-004
+2.7040000e+003    +1.0305722e-003
+2.7120000e+003    +1.2479457e-003
+2.7200000e+003    +2.1029238e-003
+2.7280000e+003    +6.9351733e-004
+2.7360000e+003    +3.1905688e-004
+2.7440000e+003    +1.2663620e-003
+2.7520000e+003    +1.1783183e-003
+2.7600000e+003    +2.6051459e-004
+2.7680000e+003    +9.4354567e-005
+2.7760000e+003    +8.6584169e-004
+2.7840000e+003    +6.6260505e-004
+2.7920000e+003    +4.7703815e-004
+2.8000000e+003    +4.1685233e-004
+2.8080000e+003    +9.0755284e-004
+2.8160000e+003    +9.9994839e-005
+2.8240000e+003    +3.3699884e-004
+2.8320000e+003    +2.1478883e-004
+2.8400000e+003    +2.4349851e-004
+2.8480000e+003    +8.0939400e-004
+2.8560000e+003    +9.1181870e-004
+2.8640000e+003    +7.9370989e-004
+2.8720000e+003    +4.2931401e-004
+2.8800000e+003    +6.8845093e-004
+2.8880000e+003    +8.8220305e-004
+2.8960000e+003    +5.6807633e-004
+2.9040000e+003    +3.7133473e-004
+2.9120000e+003    +4.3825220e-004
+2.9200000e+003    +9.5436635e-004
+2.9280000e+003    +6.1118155e-004
+2.9360000e+003    +4.3709311e-005
+2.9440000e+003    +3.6474076e-004
+2.9520000e+003    +1.4712613e-003
+2.9600000e+003    +1.6863059e-003
+2.9680000e+003    +6.6220213e-004
+2.9760000e+003    +1.0784765e-003
+2.9840000e+003    +1.8564834e-003
+2.9920000e+003    +2.1535095e-003
+3.0000000e+003    +7.0343311e-005
+3.0080000e+003    +6.0267269e-004
+3.0160000e+003    +6.4660335e-004
+3.0240000e+003    +1.2588097e-003
+3.0320000e+003    +1.2063050e-003
+3.0400000e+003    +8.0197881e-004
+3.0480000e+003    +1.0410207e-003
+3.0560000e+003    +3.9406831e-004
+3.0640000e+003    +6.9745182e-004
+3.0720000e+003    +3.3697518e-004
+3.0800000e+003    +1.2945298e-003
+3.0880000e+003    +7.2912464e-004
+3.0960000e+003    +1.1355265e-003
+3.1040000e+003    +6.1659631e-004
+3.1120000e+003    +4.7557749e-004
+3.1200000e+003    +1.2353017e-003
+3.1280000e+003    +1.8623692e-003
+3.1360000e+003    +2.3523602e-003
+3.1440000e+003    +4.8732001e-004
+3.1520000e+003    +5.4858328e-004
+3.1600000e+003    +5.4236845e-004
+3.1680000e+003    +3.2237145e-005
+3.1760000e+003    +2.7722825e-004
+3.1840000e+003    +1.5917443e-003
+3.1920000e+003    +1.7807432e-003
+3.2000000e+003    +2.2635928e-003
+3.2080000e+003    +1.4853955e-003
+3.2160000e+003    +1.3693190e-003
+3.2240000e+003    +1.8727282e-003
+3.2320000e+003    +2.0967587e-003
+3.2400000e+003    +2.0836156e-003
+3.2480000e+003    +5.3144945e-004
+3.2560000e+003    +5.7305128e-004
+3.2640000e+003    +4.2202327e-004
+3.2720000e+003    +1.4733013e-003
+3.2800000e+003    +1.8032298e-003
+3.2880000e+003    +7.9937576e-004
+3.2960000e+003    +1.2374492e-003
+3.3040000e+003    +1.9845008e-003
+3.3120000e+003    +1.3360913e-003
+3.3200000e+003    +3.7566913e-004
+3.3280000e+003    +3.5930958e-004
+3.3360000e+003    +2.6096922e-004
+3.3440000e+003    +1.7460833e-003
+3.3520000e+003    +1.4019517e-003
+3.3600000e+003    +5.1941635e-004
+3.3680000e+003    +7.4905361e-004
+3.3760000e+003    +6.0396374e-004
+3.3840000e+003    +7.1767799e-004
+3.3920000e+003    +1.1492621e-003
+3.4000000e+003    +6.8422005e-004
+3.4080000e+003    +6.0985703e-004
+3.4160000e+003    +9.7456441e-004
+3.4240000e+003    +1.4569024e-003
+3.4320000e+003    +1.7156347e-003
+3.4400000e+003    +4.4632901e-004
+3.4480000e+003    +7.4937817e-004
+3.4560000e+003    +5.2439276e-004
+3.4640000e+003    +9.9080545e-004
+3.4720000e+003    +1.3612334e-003
+3.4800000e+003    +2.9981864e-004
+3.4880000e+003    +5.0989352e-004
+3.4960000e+003    +1.5224650e-003
+3.5040000e+003    +1.5995326e-003
+3.5120000e+003    +2.5071849e-003
+3.5200000e+003    +2.4190326e-003
+3.5280000e+003    +1.3091024e-003
+3.5360000e+003    +4.6489009e-004
+3.5440000e+003    +1.7222072e-004
+3.5520000e+003    +1.4030604e-003
+3.5600000e+003    +3.6705497e-003
+3.5680000e+003    +6.3129509e-004
+3.5760000e+003    +1.7451978e-004
+3.5840000e+003    +6.9727417e-004
+3.5920000e+003    +1.7026658e-003
+3.6000000e+003    +3.3329427e-003
+3.6080000e+003    +3.4983004e-003
+3.6160000e+003    +1.0734604e-003
+3.6240000e+003    +1.1046770e-003
+3.6320000e+003    +1.6865928e-003
+3.6400000e+003    +2.5151297e-003
+3.6480000e+003    +2.5459630e-003
+3.6560000e+003    +6.8050699e-004
+3.6640000e+003    +1.0529616e-003
+3.6720000e+003    +1.0975585e-003
+3.6800000e+003    +8.3565107e-004
+3.6880000e+003    +1.4332887e-003
+3.6960000e+003    +1.1960984e-003
+3.7040000e+003    +1.0056943e-003
+3.7120000e+003    +1.5847576e-003
+3.7200000e+003    +8.2994037e-004
+3.7280000e+003    +4.3822164e-004
+3.7360000e+003    +2.2851469e-004
+3.7440000e+003    +3.3117420e-004
+3.7520000e+003    +4.1091355e-004
+3.7600000e+003    +3.3459518e-004
+3.7680000e+003    +3.7682601e-004
+3.7760000e+003    +4.6845348e-004
+3.7840000e+003    +7.4162835e-004
+3.7920000e+003    +3.9912510e-004
+3.8000000e+003    +3.9675587e-004
+3.8080000e+003    +2.2096084e-004
+3.8160000e+003    +1.3181753e-003
+3.8240000e+003    +1.5318162e-003
+3.8320000e+003    +4.3932439e-004
+3.8400000e+003    +1.2234921e-004
+3.8480000e+003    +3.7932477e-004
+3.8560000e+003    +1.1899504e-003
+3.8640000e+003    +1.3559409e-003
+3.8720000e+003    +5.2099221e-004
+3.8800000e+003    +9.8656421e-004
+3.8880000e+003    +5.3162541e-004
+3.8960000e+003    +1.4302932e-003
+3.9040000e+003    +3.5975268e-003
+3.9120000e+003    +4.3361164e-003
+3.9200000e+003    +4.0314351e-003
+3.9280000e+003    +1.8804807e-003
+3.9360000e+003    +1.1758711e-003
+3.9440000e+003    +1.8009237e-003
+3.9520000e+003    +1.9160561e-003
+3.9600000e+003    +2.4954376e-003
+3.9680000e+003    +2.7188743e-003
+3.9760000e+003    +6.2813400e-003
+3.9840000e+003    +2.7387189e-003
+3.9920000e+003    +2.9494343e-003
+4.0000000e+003    +2.6900845e-003
+4.0080000e+003    +9.8028872e-004
+4.0160000e+003    +1.0985176e-003
+4.0240000e+003    +7.0408679e-004
+4.0320000e+003    +1.9993167e-003
+4.0400000e+003    +2.2813452e-003
+4.0480000e+003    +6.2986640e-003
+4.0560000e+003    +7.1502579e-003
+4.0640000e+003    +1.5969048e-003
+4.0720000e+003    +1.4735505e-003
+4.0800000e+003    +1.3450972e-003
+4.0880000e+003    +1.2435224e-003
+4.0960000e+003    +7.3710183e-004
+4.1040000e+003    +1.2052499e-003
+4.1120000e+003    +4.3248953e-004
+4.1200000e+003    +3.3367984e-003
+4.1280000e+003    +3.3715484e-003
+4.1360000e+003    +2.3170360e-003
+4.1440000e+003    +1.9146135e-003
+4.1520000e+003    +1.4677270e-003
+4.1600000e+003    +7.4880157e-004
+4.1680000e+003    +1.8373993e-004
+4.1760000e+003    +4.1515959e-004
+4.1840000e+003    +1.5269640e-004
+4.1920000e+003    +1.1792501e-002
+4.2000000e+003    +1.4521393e-003
+4.2080000e+003    +6.8024400e-004
+4.2160000e+003    +4.5925163e-004
+4.2240000e+003    +4.1272715e-004
+4.2320000e+003    +2.6249138e-003
+4.2400000e+003    +1.0754688e-003
+4.2480000e+003    +2.4139863e-003
+4.2560000e+003    +2.0487944e-003
+4.2640000e+003    +5.8186725e-003
+4.2720000e+003    +8.8820411e-003
+4.2800000e+003    +1.9414266e-004
+4.2880000e+003    +4.5672333e-004
+4.2960000e+003    +4.9990593e-003
+4.3040000e+003    +2.8697811e-003
+4.3120000e+003    +5.9697009e-004
+4.3200000e+003    +2.3594762e-003
+4.3280000e+003    +9.0534789e-003
+4.3360000e+003    +1.5360089e-003
+4.3440000e+003    +7.7295129e-004
+4.3520000e+003    +1.0514903e-003
+4.3600000e+003    +8.9208025e-004
+4.3680000e+003    +1.0940009e-003
+4.3760000e+003    +3.6534858e-003
+4.3840000e+003    +2.9079078e-004
+4.3920000e+003    +1.7177845e-004
+4.4000000e+003    +5.8190495e-004
+4.4080000e+003    +5.6001230e-004
+4.4160000e+003    +3.3742241e-003
+4.4240000e+003    +3.6946400e-003
+4.4320000e+003    +3.4389913e-003
+4.4400000e+003    +8.1157149e-004
+4.4480000e+003    +4.4654345e-004
+4.4560000e+003    +3.8709043e-004
+4.4640000e+003    +4.8632582e-004
+4.4720000e+003    +1.5176326e-003
+4.4800000e+003    +1.9639165e-003
+4.4880000e+003    +2.4430174e-003
+4.4960000e+003    +1.9654329e-003
+4.5040000e+003    +2.0111264e-003
+4.5120000e+003    +6.7793299e-004
+4.5200000e+003    +3.1261917e-004
+4.5280000e+003    +4.0083695e-003
+4.5360000e+003    +6.9782292e-003
+4.5440000e+003    +8.4052337e-003
+4.5520000e+003    +2.4322530e-003
+4.5600000e+003    +5.5957405e-004
+4.5680000e+003    +5.4920430e-004
+4.5760000e+003    +3.5037512e-003
+4.5840000e+003    +3.4595707e-003
+4.5920000e+003    +4.1689100e-003
+4.6000000e+003    +3.5728498e-003
+4.6080000e+003    +1.8631484e-003
+4.6160000e+003    +1.9674236e-003
+4.6240000e+003    +1.7974726e-003
+4.6320000e+003    +2.3143319e-003
+4.6400000e+003    +1.4044213e-003
+4.6480000e+003    +1.1099309e-003
+4.6560000e+003    +1.1352877e-003
+4.6640000e+003    +6.5090280e-004
+4.6720000e+003    +7.9730578e-004
+4.6800000e+003    +8.4259181e-004
+4.6880000e+003    +1.2436180e-003
+4.6960000e+003    +1.9096327e-003
+4.7040000e+003    +1.6706248e-003
+4.7120000e+003    +1.2097111e-003
+4.7200000e+003    +8.4898545e-004
+4.7280000e+003    +9.7002467e-004
+4.7360000e+003    +2.9750844e-004
+4.7440000e+003    +2.9927530e-004
+4.7520000e+003    +3.5988029e-005
+4.7600000e+003    +5.0285493e-004
+4.7680000e+003    +1.7030126e-003
+4.7760000e+003    +1.2887380e-003
+4.7840000e+003    +1.8751551e-003
+4.7920000e+003    +1.8180253e-003
+4.8000000e+003    +7.4137800e-004
+4.8080000e+003    +1.4976120e-003
+4.8160000e+003    +1.7914682e-003
+4.8240000e+003    +1.6138648e-003
+4.8320000e+003    +1.1398891e-003
+4.8400000e+003    +1.4275617e-003
+4.8480000e+003    +1.3441597e-003
+4.8560000e+003    +9.4030553e-004
+4.8640000e+003    +1.9421665e-003
+4.8720000e+003    +2.6062874e-003
+4.8800000e+003    +4.2358562e-005
+4.8880000e+003    +1.0200192e-003
+4.8960000e+003    +5.2513491e-004
+4.9040000e+003    +8.4470742e-004
+4.9120000e+003    +6.0931890e-004
+4.9200000e+003    +2.7138132e-004
+4.9280000e+003    +1.0438988e-003
+4.9360000e+003    +6.7198626e-004
+4.9440000e+003    +1.5509763e-004
+4.9520000e+003    +8.9297740e-004
+4.9600000e+003    +9.2481816e-004
+4.9680000e+003    +8.2022505e-004
+4.9760000e+003    +1.6031975e-003
+4.9840000e+003    +1.2754139e-003
+4.9920000e+003    +1.1471681e-003
+5.0000000e+003    +1.3987643e-003
+5.0080000e+003    +1.6070281e-003
+5.0160000e+003    +8.8341371e-004
+5.0240000e+003    +1.0602267e-003
+5.0320000e+003    +6.7859615e-004
+5.0400000e+003    +1.2553199e-003
+5.0480000e+003    +1.6666474e-003
+5.0560000e+003    +1.6039987e-003
+5.0640000e+003    +1.7999185e-004
+5.0720000e+003    +4.0407258e-004
+5.0800000e+003    +7.8314333e-004
+5.0880000e+003    +1.1206684e-003
+5.0960000e+003    +3.7923211e-004
+5.1040000e+003    +3.7596890e-004
+5.1120000e+003    +1.1200343e-003
+5.1200000e+003    +1.5242539e-003
+5.1280000e+003    +7.0377841e-004
+5.1360000e+003    +7.7374687e-004
+5.1440000e+003    +1.9181527e-003
+5.1520000e+003    +1.4152235e-003
+5.1600000e+003    +2.0838148e-004
+5.1680000e+003    +7.0181501e-004
+5.1760000e+003    +8.3735248e-004
+5.1840000e+003    +1.0455127e-003
+5.1920000e+003    +1.0169970e-003
+5.2000000e+003    +6.9843192e-004
+5.2080000e+003    +1.3108125e-003
+5.2160000e+003    +2.8866105e-004
+5.2240000e+003    +1.5261160e-004
+5.2320000e+003    +7.2704977e-004
+5.2400000e+003    +7.0952257e-004
+5.2480000e+003    +2.6206017e-004
+5.2560000e+003    +3.9361924e-004
+5.2640000e+003    +2.4239099e-004
+5.2720000e+003    +7.1806382e-005
+5.2800000e+003    +3.1827349e-004
+5.2880000e+003    +8.4424519e-004
+5.2960000e+003    +4.5954218e-004
+5.3040000e+003    +6.6414115e-004
+5.3120000e+003    +8.7557320e-004
+5.3200000e+003    +8.7103923e-004
+5.3280000e+003    +1.0430493e-003
+5.3360000e+003    +3.4833161e-004
+5.3440000e+003    +2.2196482e-004
+5.3520000e+003    +3.9274484e-004
+5.3600000e+003    +4.8662545e-004
+5.3680000e+003    +3.3611938e-004
+5.3760000e+003    +4.6894801e-004
+5.3840000e+003    +6.1595318e-004
+5.3920000e+003    +4.0136697e-004
+5.4000000e+003    +1.5597446e-004
+5.4080000e+003    +6.6989340e-004
+5.4160000e+003    +8.1574393e-004
+5.4240000e+003    +1.5222210e-003
+5.4320000e+003    +8.0634712e-004
+5.4400000e+003    +7.7623111e-004
+5.4480000e+003    +1.0355056e-003
+5.4560000e+003    +6.1203877e-004
+5.4640000e+003    +8.1699208e-004
+5.4720000e+003    +6.2952866e-004
+5.4800000e+003    +1.0070644e-003
+5.4880000e+003    +7.4186292e-004
+5.4960000e+003    +7.9086574e-004
+5.5040000e+003    +7.6305645e-004
+5.5120000e+003    +1.7034305e-003
+5.5200000e+003    +2.0424922e-003
+5.5280000e+003    +9.8645489e-004
+5.5360000e+003    +8.3131884e-004
+5.5440000e+003    +6.6781952e-004
+5.5520000e+003    +9.7153345e-005
+5.5600000e+003    +3.4942408e-004
+5.5680000e+003    +6.5812061e-004
+5.5760000e+003    +5.8689143e-004
+5.5840000e+003    +5.2980037e-004
+5.5920000e+003    +6.4725435e-004
+5.6000000e+003    +5.6807476e-004
+5.6080000e+003    +6.5016781e-004
+5.6160000e+003    +1.0840598e-003
+5.6240000e+003    +8.5446029e-004
+5.6320000e+003    +5.0154980e-004
+5.6400000e+003    +7.9770858e-004
+5.6480000e+003    +8.8484067e-004
+5.6560000e+003    +5.5187211e-006
+5.6640000e+003    +3.3234619e-004
+5.6720000e+003    +8.0883253e-004
+5.6800000e+003    +4.8409365e-004
+5.6880000e+003    +8.2031154e-004
+5.6960000e+003    +7.9324772e-004
+5.7040000e+003    +4.7271710e-004
+5.7120000e+003    +9.0438662e-005
+5.7200000e+003    +6.1107385e-005
+5.7280000e+003    +8.8578745e-005
+5.7360000e+003    +5.0310319e-004
+5.7440000e+003    +2.7021091e-004
+5.7520000e+003    +6.4040278e-004
+5.7600000e+003    +4.1065059e-004
+5.7680000e+003    +2.7235830e-004
+5.7760000e+003    +4.2599597e-004
+5.7840000e+003    +1.0571713e-003
+5.7920000e+003    +7.2096108e-004
+5.8000000e+003    +2.0197866e-004
+5.8080000e+003    +6.8694114e-004
+5.8160000e+003    +7.8038295e-004
+5.8240000e+003    +6.6714198e-004
+5.8320000e+003    +5.5720418e-004
+5.8400000e+003    +2.6490068e-004
+5.8480000e+003    +3.8284971e-004
+5.8560000e+003    +7.8341684e-005
+5.8640000e+003    +1.1129702e-003
+5.8720000e+003    +4.6210387e-004
+5.8800000e+003    +5.8450212e-004
+5.8880000e+003    +6.1181572e-004
+5.8960000e+003    +2.1779802e-004
+5.9040000e+003    +2.0363020e-004
+5.9120000e+003    +2.3835065e-004
+5.9200000e+003    +3.2702592e-004
+5.9280000e+003    +1.2764793e-003
+5.9360000e+003    +8.9282934e-005
+5.9440000e+003    +1.4557391e-004
+5.9520000e+003    +5.2009686e-004
+5.9600000e+003    +4.0316611e-004
+5.9680000e+003    +2.4457820e-004
+5.9760000e+003    +4.3381093e-004
+5.9840000e+003    +2.4618744e-004
+5.9920000e+003    +6.4920023e-004
+6.0000000e+003    +7.2906062e-004
+6.0080000e+003    +5.4741511e-004
+6.0160000e+003    +1.5364087e-003
+6.0240000e+003    +1.3983982e-003
+6.0320000e+003    +3.6601871e-004
+6.0400000e+003    +7.4771466e-004
+6.0480000e+003    +8.6238251e-005
+6.0560000e+003    +4.3347909e-004
+6.0640000e+003    +7.9168630e-004
+6.0720000e+003    +1.9547220e-003
+6.0800000e+003    +1.8867512e-003
+6.0880000e+003    +1.0745164e-003
+6.0960000e+003    +1.1227638e-003
+6.1040000e+003    +3.5542532e-004
+6.1120000e+003    +3.4525356e-004
+6.1200000e+003    +6.8124855e-004
+6.1280000e+003    +6.8060338e-004
+6.1360000e+003    +1.4780648e-003
+6.1440000e+003    +6.1797415e-004
+6.1520000e+003    +5.1371353e-005
+6.1600000e+003    +2.1771196e-004
+6.1680000e+003    +4.2953019e-004
+6.1760000e+003    +2.3854883e-004
+6.1840000e+003    +7.6023827e-004
+6.1920000e+003    +1.3079093e-003
+6.2000000e+003    +1.2301038e-003
+6.2080000e+003    +2.6223142e-004
+6.2160000e+003    +3.9138907e-004
+6.2240000e+003    +3.6488837e-004
+6.2320000e+003    +6.4032053e-004
+6.2400000e+003    +5.1215070e-004
+6.2480000e+003    +6.7599007e-004
+6.2560000e+003    +9.6453825e-004
+6.2640000e+003    +2.0891662e-004
+6.2720000e+003    +8.4869280e-005
+6.2800000e+003    +4.1112700e-004
+6.2880000e+003    +5.4199848e-004
+6.2960000e+003    +4.6146451e-004
+6.3040000e+003    +5.2960496e-004
+6.3120000e+003    +6.7527499e-004
+6.3200000e+003    +1.0943601e-003
+6.3280000e+003    +3.5020494e-004
+6.3360000e+003    +7.8346588e-005
+6.3440000e+003    +2.4998374e-004
+6.3520000e+003    +9.7384669e-005
+6.3600000e+003    +1.8252646e-004
+6.3680000e+003    +3.1464398e-004
+6.3760000e+003    +2.5762717e-004
+6.3840000e+003    +1.9403973e-004
+6.3920000e+003    +3.4512961e-004
