# SR785 Measurement - Timestamp: Jan 03 2019 - 19:38:23
#---------- Measurement Setup ------------
# Start Frequency (Hz): 0.000000
# Frequency Span (Hz): 6400.000000
# Frequency Resolution: 800
# Number of Averages: 2
# Averaging Mode: None
# Window function: BMH
#---------- Measurement Parameters ----------
# Measurement Group:  "FFT" "FFT"
# Measurements:  "FFT 1" "FFT 2"
# View:  "Log Magnitude" "Log Magnitude"
# Unit:  "dBVpk" "Vrms/rtHz"
#---------- Input Parameters ----------
# Input Source: Analog
# Input Mode: Single ended, Single ended
# Input Grounding: Float, Float
# Input Coupling: AC, DC
# Input Range: -14.0dBVpk, 22.0dBVpk
# Auto Range: On, On
# Auto Range Mode: Up Only, Normal
# Anti-Aliasing Filter: On, On
#---------- Source Parameters ----------
# Source Type: Sine
# Source Amplitude: 500.0mVpk
# Source On: 0

#---------- Measurement Data ----------
# [Freq(Hz) Display 0(dBVpk) Display 1(Vrms/rtHz) ]
+0.0000000e+000    +5.0134379e-001
+8.0000000e+000    +3.6622337e-001
+1.6000000e+001    +1.0597458e-001
+2.4000000e+001    +8.8829240e-003
+3.2000000e+001    +4.1853703e-004
+4.0000000e+001    +1.8594250e-004
+4.8000000e+001    +1.8515154e-004
+5.6000000e+001    +1.9957277e-005
+6.4000000e+001    +1.3212232e-004
+7.2000000e+001    +1.1123996e-004
+8.0000000e+001    +1.0457337e-004
+8.8000000e+001    +3.7731039e-005
+9.6000000e+001    +2.7044047e-005
+1.0400000e+002    +1.2255007e-005
+1.1200000e+002    +1.6361813e-005
+1.2000000e+002    +5.1900988e-005
+1.2800000e+002    +5.8961221e-005
+1.3600000e+002    +5.1461000e-005
+1.4400000e+002    +5.8213693e-005
+1.5200000e+002    +7.8338759e-005
+1.6000000e+002    +5.0558203e-005
+1.6800000e+002    +9.6421267e-005
+1.7600000e+002    +1.0373297e-004
+1.8400000e+002    +4.3296488e-005
+1.9200000e+002    +2.0719104e-005
+2.0000000e+002    +3.8989452e-005
+2.0800000e+002    +4.6635119e-005
+2.1600000e+002    +6.5880595e-005
+2.2400000e+002    +5.8684796e-005
+2.3200000e+002    +5.0403232e-005
+2.4000000e+002    +9.4306095e-005
+2.4800000e+002    +6.9858259e-005
+2.5600000e+002    +5.1521609e-005
+2.6400000e+002    +1.9411144e-005
+2.7200000e+002    +8.7760061e-005
+2.8000000e+002    +4.1400297e-005
+2.8800000e+002    +4.1630668e-005
+2.9600000e+002    +3.6241247e-005
+3.0400000e+002    +4.1841413e-005
+3.1200000e+002    +4.2524407e-006
+3.2000000e+002    +3.5372286e-005
+3.2800000e+002    +6.0655115e-005
+3.3600000e+002    +7.3365816e-005
+3.4400000e+002    +1.0025781e-004
+3.5200000e+002    +4.2821124e-005
+3.6000000e+002    +5.0543771e-005
+3.6800000e+002    +4.2032363e-005
+3.7600000e+002    +4.2986754e-005
+3.8400000e+002    +3.6008227e-005
+3.9200000e+002    +4.3270542e-005
+4.0000000e+002    +1.3460449e-004
+4.0800000e+002    +1.4043449e-004
+4.1600000e+002    +9.0853289e-005
+4.2400000e+002    +8.6556131e-005
+4.3200000e+002    +9.4420473e-005
+4.4000000e+002    +8.2643222e-005
+4.4800000e+002    +7.1187955e-005
+4.5600000e+002    +1.1431421e-004
+4.6400000e+002    +1.0282908e-004
+4.7200000e+002    +9.6972173e-005
+4.8000000e+002    +1.8746055e-004
+4.8800000e+002    +5.6769943e-005
+4.9600000e+002    +1.0111999e-005
+5.0400000e+002    +7.6489559e-005
+5.1200000e+002    +6.2266343e-005
+5.2000000e+002    +9.2385097e-005
+5.2800000e+002    +1.0176477e-004
+5.3600000e+002    +7.8261131e-005
+5.4400000e+002    +4.9415306e-005
+5.5200000e+002    +6.5695611e-005
+5.6000000e+002    +1.4484307e-004
+5.6800000e+002    +2.1618973e-004
+5.7600000e+002    +9.2411268e-005
+5.8400000e+002    +8.3728904e-005
+5.9200000e+002    +1.2686542e-004
+6.0000000e+002    +1.6169448e-004
+6.0800000e+002    +3.7504989e-005
+6.1600000e+002    +1.4113318e-004
+6.2400000e+002    +3.9056122e-006
+6.3200000e+002    +8.6412365e-005
+6.4000000e+002    +8.8575340e-005
+6.4800000e+002    +1.0017379e-004
+6.5600000e+002    +3.3381853e-005
+6.6400000e+002    +2.2140926e-005
+6.7200000e+002    +1.8966199e-004
+6.8000000e+002    +1.5462987e-004
+6.8800000e+002    +1.1236124e-004
+6.9600000e+002    +2.8744562e-005
+7.0400000e+002    +6.1865037e-005
+7.1200000e+002    +4.6785386e-005
+7.2000000e+002    +1.1420256e-004
+7.2800000e+002    +1.3619517e-004
+7.3600000e+002    +3.3859811e-005
+7.4400000e+002    +5.9629831e-005
+7.5200000e+002    +5.7196445e-005
+7.6000000e+002    +1.3692341e-004
+7.6800000e+002    +1.0654452e-004
+7.7600000e+002    +1.9903544e-004
+7.8400000e+002    +1.9349818e-004
+7.9200000e+002    +1.2279899e-004
+8.0000000e+002    +1.7777582e-004
+8.0800000e+002    +7.2765273e-005
+8.1600000e+002    +8.0780082e-005
+8.2400000e+002    +1.1477905e-004
+8.3200000e+002    +7.1882896e-005
+8.4000000e+002    +1.8170394e-004
+8.4800000e+002    +2.0642072e-004
+8.5600000e+002    +3.5219482e-004
+8.6400000e+002    +2.0686530e-004
+8.7200000e+002    +7.6231998e-005
+8.8000000e+002    +8.5456020e-005
+8.8800000e+002    +9.9072167e-005
+8.9600000e+002    +1.2681306e-004
+9.0400000e+002    +2.0924145e-004
+9.1200000e+002    +1.8140464e-004
+9.2000000e+002    +9.7131371e-005
+9.2800000e+002    +1.8127095e-004
+9.3600000e+002    +1.6110923e-004
+9.4400000e+002    +1.1538403e-004
+9.5200000e+002    +8.8566783e-005
+9.6000000e+002    +3.7481565e-005
+9.6800000e+002    +3.5569741e-005
+9.7600000e+002    +1.5192281e-004
+9.8400000e+002    +1.3231083e-004
+9.9200000e+002    +3.0265575e-005
+1.0000000e+003    +1.0127110e-004
+1.0080000e+003    +2.2276575e-004
+1.0160000e+003    +2.8632427e-004
+1.0240000e+003    +1.5631159e-004
+1.0320000e+003    +1.4968262e-004
+1.0400000e+003    +1.8778603e-004
+1.0480000e+003    +1.3582654e-004
+1.0560000e+003    +2.0749142e-004
+1.0640000e+003    +2.8808354e-004
+1.0720000e+003    +2.9410783e-004
+1.0800000e+003    +1.1530912e-004
+1.0880000e+003    +1.6203018e-004
+1.0960000e+003    +2.0069034e-004
+1.1040000e+003    +1.7546797e-004
+1.1120000e+003    +2.4710846e-004
+1.1200000e+003    +3.1827262e-004
+1.1280000e+003    +1.1793614e-004
+1.1360000e+003    +3.2031556e-005
+1.1440000e+003    +6.4541528e-005
+1.1520000e+003    +6.9117901e-005
+1.1600000e+003    +2.0137813e-004
+1.1680000e+003    +2.2328476e-004
+1.1760000e+003    +3.6406019e-004
+1.1840000e+003    +8.0116733e-004
+1.1920000e+003    +8.6927367e-004
+1.2000000e+003    +1.6507467e-004
+1.2080000e+003    +2.5402516e-004
+1.2160000e+003    +6.1141013e-004
+1.2240000e+003    +3.2001710e-004
+1.2320000e+003    +1.5718061e-004
+1.2400000e+003    +1.7945768e-004
+1.2480000e+003    +6.8826799e-004
+1.2560000e+003    +3.9106625e-004
+1.2640000e+003    +4.1413229e-004
+1.2720000e+003    +1.4262520e-004
+1.2800000e+003    +5.2551785e-004
+1.2880000e+003    +3.1850804e-004
+1.2960000e+003    +1.6531000e-004
+1.3040000e+003    +1.4507990e-005
+1.3120000e+003    +2.9613267e-004
+1.3200000e+003    +1.6917821e-004
+1.3280000e+003    +3.5430162e-004
+1.3360000e+003    +2.6195674e-004
+1.3440000e+003    +9.8448123e-005
+1.3520000e+003    +1.1097646e-004
+1.3600000e+003    +3.2153632e-004
+1.3680000e+003    +3.2746352e-004
+1.3760000e+003    +4.3622919e-004
+1.3840000e+003    +4.8857764e-004
+1.3920000e+003    +1.1416670e-004
+1.4000000e+003    +2.3003516e-004
+1.4080000e+003    +2.5715778e-004
+1.4160000e+003    +5.3711527e-004
+1.4240000e+003    +5.9010671e-004
+1.4320000e+003    +2.3712865e-004
+1.4400000e+003    +4.0987716e-004
+1.4480000e+003    +3.9391496e-004
+1.4560000e+003    +4.1042792e-004
+1.4640000e+003    +2.9611398e-004
+1.4720000e+003    +1.9228549e-004
+1.4800000e+003    +2.3985399e-004
+1.4880000e+003    +3.6333562e-004
+1.4960000e+003    +2.1561736e-004
+1.5040000e+003    +5.7550531e-004
+1.5120000e+003    +8.0405117e-004
+1.5200000e+003    +7.4717798e-004
+1.5280000e+003    +6.0826814e-004
+1.5360000e+003    +5.2355742e-004
+1.5440000e+003    +5.5352028e-004
+1.5520000e+003    +4.4877737e-004
+1.5600000e+003    +4.3066969e-004
+1.5680000e+003    +2.5129243e-004
+1.5760000e+003    +7.8418833e-004
+1.5840000e+003    +1.2513457e-003
+1.5920000e+003    +1.5776561e-003
+1.6000000e+003    +3.9410163e-004
+1.6080000e+003    +2.5996356e-004
+1.6160000e+003    +9.4246781e-005
+1.6240000e+003    +2.5446285e-004
+1.6320000e+003    +4.7449316e-004
+1.6400000e+003    +8.1066223e-004
+1.6480000e+003    +1.8533897e-004
+1.6560000e+003    +1.7143486e-004
+1.6640000e+003    +2.3299393e-004
+1.6720000e+003    +2.3507621e-004
+1.6800000e+003    +9.2829127e-005
+1.6880000e+003    +1.8687958e-004
+1.6960000e+003    +2.5688461e-004
+1.7040000e+003    +1.9070931e-004
+1.7120000e+003    +1.9620446e-004
+1.7200000e+003    +9.5729694e-005
+1.7280000e+003    +2.5757670e-004
+1.7360000e+003    +5.8988738e-004
+1.7440000e+003    +3.4067145e-004
+1.7520000e+003    +4.3388715e-004
+1.7600000e+003    +6.7082263e-004
+1.7680000e+003    +2.2149460e-004
+1.7760000e+003    +7.8127021e-005
+1.7840000e+003    +5.7781470e-004
+1.7920000e+003    +4.4182260e-004
+1.8000000e+003    +2.0598591e-004
+1.8080000e+003    +4.6563899e-004
+1.8160000e+003    +4.9253023e-004
+1.8240000e+003    +3.9406182e-004
+1.8320000e+003    +4.3278857e-004
+1.8400000e+003    +4.5617504e-004
+1.8480000e+003    +1.0417748e-004
+1.8560000e+003    +2.8783138e-004
+1.8640000e+003    +6.3886092e-004
+1.8720000e+003    +5.8747781e-004
+1.8800000e+003    +3.3640995e-004
+1.8880000e+003    +8.9691770e-005
+1.8960000e+003    +5.3594325e-004
+1.9040000e+003    +4.0080570e-004
+1.9120000e+003    +5.3098664e-004
+1.9200000e+003    +6.1215303e-004
+1.9280000e+003    +2.6686359e-004
+1.9360000e+003    +1.7288154e-004
+1.9440000e+003    +4.3466411e-004
+1.9520000e+003    +6.4740144e-004
+1.9600000e+003    +3.1015280e-004
+1.9680000e+003    +5.4897554e-004
+1.9760000e+003    +8.0046040e-004
+1.9840000e+003    +5.5305555e-004
+1.9920000e+003    +4.1020717e-004
+2.0000000e+003    +3.8648525e-004
+2.0080000e+003    +5.5631262e-004
+2.0160000e+003    +5.7082390e-004
+2.0240000e+003    +2.9638264e-004
+2.0320000e+003    +4.7722910e-004
+2.0400000e+003    +3.9528339e-004
+2.0480000e+003    +3.1933689e-004
+2.0560000e+003    +6.2568224e-004
+2.0640000e+003    +5.5627077e-004
+2.0720000e+003    +2.1620753e-004
+2.0800000e+003    +9.8642881e-004
+2.0880000e+003    +4.1738796e-004
+2.0960000e+003    +2.0693358e-004
+2.1040000e+003    +5.9609505e-004
+2.1120000e+003    +1.6962126e-004
+2.1200000e+003    +1.3480209e-004
+2.1280000e+003    +5.3171645e-004
+2.1360000e+003    +4.6076634e-004
+2.1440000e+003    +3.8627803e-004
+2.1520000e+003    +2.3914479e-004
+2.1600000e+003    +4.8073026e-004
+2.1680000e+003    +6.1172432e-005
+2.1760000e+003    +6.9873297e-004
+2.1840000e+003    +6.7648751e-004
+2.1920000e+003    +6.3079171e-004
+2.2000000e+003    +5.3439528e-004
+2.2080000e+003    +5.4810342e-004
+2.2160000e+003    +2.4473600e-004
+2.2240000e+003    +3.8839440e-004
+2.2320000e+003    +3.2389382e-004
+2.2400000e+003    +3.2507096e-004
+2.2480000e+003    +1.0942310e-004
+2.2560000e+003    +5.3875661e-004
+2.2640000e+003    +7.6296850e-004
+2.2720000e+003    +4.3346622e-004
+2.2800000e+003    +5.2126165e-004
+2.2880000e+003    +2.9205257e-004
+2.2960000e+003    +2.5421669e-004
+2.3040000e+003    +5.2126852e-004
+2.3120000e+003    +6.2795129e-004
+2.3200000e+003    +2.5110872e-004
+2.3280000e+003    +2.7388317e-004
+2.3360000e+003    +5.2499853e-004
+2.3440000e+003    +4.2067844e-004
+2.3520000e+003    +4.5725668e-004
+2.3600000e+003    +2.8161283e-004
+2.3680000e+003    +5.4810103e-004
+2.3760000e+003    +2.2904207e-004
+2.3840000e+003    +3.7869182e-004
+2.3920000e+003    +3.8901047e-004
+2.4000000e+003    +7.0223774e-005
+2.4080000e+003    +2.1513519e-004
+2.4160000e+003    +5.2288274e-004
+2.4240000e+003    +3.1873948e-004
+2.4320000e+003    +1.5055362e-004
+2.4400000e+003    +6.2421590e-005
+2.4480000e+003    +7.7166536e-004
+2.4560000e+003    +5.0412334e-004
+2.4640000e+003    +5.4014171e-004
+2.4720000e+003    +4.0188199e-004
+2.4800000e+003    +1.0792512e-003
+2.4880000e+003    +1.1266136e-003
+2.4960000e+003    +3.6714767e-004
+2.5040000e+003    +4.9956713e-004
+2.5120000e+003    +8.4826752e-004
+2.5200000e+003    +1.4037878e-004
+2.5280000e+003    +2.8886221e-004
+2.5360000e+003    +8.8783901e-004
+2.5440000e+003    +2.8644848e-004
+2.5520000e+003    +1.5347125e-004
+2.5600000e+003    +1.6557603e-004
+2.5680000e+003    +4.1950133e-004
+2.5760000e+003    +3.5449813e-004
+2.5840000e+003    +3.3860482e-004
+2.5920000e+003    +3.1475766e-004
+2.6000000e+003    +2.5077755e-004
+2.6080000e+003    +3.5073597e-004
+2.6160000e+003    +6.7480619e-004
+2.6240000e+003    +6.1993615e-004
+2.6320000e+003    +3.6265468e-004
+2.6400000e+003    +3.9867486e-004
+2.6480000e+003    +8.8169664e-004
+2.6560000e+003    +5.6954176e-004
+2.6640000e+003    +1.0395490e-004
+2.6720000e+003    +7.5088866e-004
+2.6800000e+003    +7.0077355e-004
+2.6880000e+003    +9.9858129e-004
+2.6960000e+003    +4.3354189e-004
+2.7040000e+003    +1.2965382e-004
+2.7120000e+003    +4.1451328e-004
+2.7200000e+003    +4.8191377e-004
+2.7280000e+003    +6.1061175e-005
+2.7360000e+003    +6.3061999e-004
+2.7440000e+003    +1.0329847e-003
+2.7520000e+003    +8.6659257e-004
+2.7600000e+003    +8.5767952e-004
+2.7680000e+003    +6.2470266e-004
+2.7760000e+003    +6.5744860e-004
+2.7840000e+003    +1.1961496e-003
+2.7920000e+003    +3.8710571e-004
+2.8000000e+003    +4.2843606e-004
+2.8080000e+003    +8.5762161e-004
+2.8160000e+003    +6.0020393e-004
+2.8240000e+003    +4.6757760e-004
+2.8320000e+003    +6.9081906e-004
+2.8400000e+003    +6.0779811e-004
+2.8480000e+003    +5.7145191e-004
+2.8560000e+003    +3.4626242e-004
+2.8640000e+003    +2.1352428e-004
+2.8720000e+003    +6.0701382e-004
+2.8800000e+003    +8.9172920e-004
+2.8880000e+003    +8.0640469e-004
+2.8960000e+003    +1.0584111e-003
+2.9040000e+003    +9.2901418e-004
+2.9120000e+003    +5.7010143e-004
+2.9200000e+003    +3.9392340e-004
+2.9280000e+003    +1.8351806e-003
+2.9360000e+003    +1.5316076e-003
+2.9440000e+003    +7.3149777e-004
+2.9520000e+003    +8.2391128e-004
+2.9600000e+003    +5.3485017e-004
+2.9680000e+003    +2.2600192e-004
+2.9760000e+003    +3.8521009e-004
+2.9840000e+003    +2.0780263e-004
+2.9920000e+003    +1.7678371e-004
+3.0000000e+003    +1.4237830e-003
+3.0080000e+003    +1.1175559e-003
+3.0160000e+003    +1.7399286e-003
+3.0240000e+003    +1.4773314e-003
+3.0320000e+003    +2.1386039e-004
+3.0400000e+003    +2.2950438e-004
+3.0480000e+003    +2.8324267e-004
+3.0560000e+003    +1.7384153e-004
+3.0640000e+003    +7.5420074e-004
+3.0720000e+003    +5.0406664e-004
+3.0800000e+003    +1.0961320e-004
+3.0880000e+003    +9.0220674e-005
+3.0960000e+003    +6.3321594e-004
+3.1040000e+003    +7.7077793e-004
+3.1120000e+003    +7.1117328e-004
+3.1200000e+003    +6.4401090e-004
+3.1280000e+003    +1.1458866e-003
+3.1360000e+003    +9.3238225e-004
+3.1440000e+003    +1.3268295e-003
+3.1520000e+003    +7.9775235e-004
+3.1600000e+003    +8.6683524e-004
+3.1680000e+003    +1.0466463e-003
+3.1760000e+003    +1.1435664e-003
+3.1840000e+003    +4.3869222e-004
+3.1920000e+003    +6.7849783e-004
+3.2000000e+003    +5.8716314e-004
+3.2080000e+003    +7.2124653e-004
+3.2160000e+003    +2.5978521e-004
+3.2240000e+003    +1.0209401e-003
+3.2320000e+003    +7.8095892e-004
+3.2400000e+003    +5.4411695e-004
+3.2480000e+003    +7.5277075e-004
+3.2560000e+003    +3.6850545e-004
+3.2640000e+003    +3.9251722e-004
+3.2720000e+003    +7.8760320e-004
+3.2800000e+003    +8.3967065e-004
+3.2880000e+003    +1.1811737e-004
+3.2960000e+003    +1.0305881e-004
+3.3040000e+003    +6.8210327e-004
+3.3120000e+003    +7.3284871e-004
+3.3200000e+003    +2.2000594e-004
+3.3280000e+003    +6.9296814e-004
+3.3360000e+003    +7.2647445e-004
+3.3440000e+003    +5.7431828e-004
+3.3520000e+003    +5.7611603e-004
+3.3600000e+003    +6.9627084e-004
+3.3680000e+003    +5.3177337e-004
+3.3760000e+003    +5.4144976e-004
+3.3840000e+003    +2.3002949e-004
+3.3920000e+003    +4.3051934e-004
+3.4000000e+003    +2.9901977e-004
+3.4080000e+003    +2.1105095e-004
+3.4160000e+003    +7.4424269e-004
+3.4240000e+003    +5.2349392e-004
+3.4320000e+003    +7.5999793e-004
+3.4400000e+003    +8.1465242e-004
+3.4480000e+003    +1.2400729e-003
+3.4560000e+003    +1.6017179e-003
+3.4640000e+003    +1.7260312e-003
+3.4720000e+003    +1.9552081e-004
+3.4800000e+003    +7.4418471e-004
+3.4880000e+003    +5.0295127e-004
+3.4960000e+003    +5.5312511e-004
+3.5040000e+003    +6.7518931e-004
+3.5120000e+003    +8.0055883e-004
+3.5200000e+003    +2.8798738e-004
+3.5280000e+003    +3.4423894e-004
+3.5360000e+003    +5.6722277e-004
+3.5440000e+003    +6.9438783e-004
+3.5520000e+003    +6.1376859e-004
+3.5600000e+003    +7.8253483e-004
+3.5680000e+003    +1.2721287e-004
+3.5760000e+003    +1.9615180e-004
+3.5840000e+003    +9.4817480e-004
+3.5920000e+003    +1.0832972e-003
+3.6000000e+003    +3.3240987e-004
+3.6080000e+003    +1.6134644e-004
+3.6160000e+003    +7.4344236e-005
+3.6240000e+003    +1.6992267e-004
+3.6320000e+003    +4.4264318e-004
+3.6400000e+003    +4.4886483e-004
+3.6480000e+003    +3.6215593e-004
+3.6560000e+003    +3.0687760e-004
+3.6640000e+003    +3.1443487e-004
+3.6720000e+003    +2.6696982e-004
+3.6800000e+003    +1.4134345e-003
+3.6880000e+003    +1.2880462e-003
+3.6960000e+003    +5.9345877e-004
+3.7040000e+003    +5.9169327e-004
+3.7120000e+003    +1.4608387e-003
+3.7200000e+003    +1.0901914e-003
+3.7280000e+003    +4.6841771e-004
+3.7360000e+003    +1.5107838e-004
+3.7440000e+003    +1.9381116e-005
+3.7520000e+003    +1.6808860e-003
+3.7600000e+003    +1.2210684e-003
+3.7680000e+003    +3.5204597e-005
+3.7760000e+003    +5.5967481e-005
+3.7840000e+003    +1.0171338e-003
+3.7920000e+003    +6.2299677e-004
+3.8000000e+003    +8.2300580e-004
+3.8080000e+003    +3.4574367e-004
+3.8160000e+003    +8.0170413e-004
+3.8240000e+003    +9.2758419e-004
+3.8320000e+003    +7.1873108e-004
+3.8400000e+003    +6.3706044e-004
+3.8480000e+003    +1.1580553e-003
+3.8560000e+003    +1.5539858e-003
+3.8640000e+003    +7.7415904e-004
+3.8720000e+003    +1.0870664e-004
+3.8800000e+003    +3.5880023e-004
+3.8880000e+003    +4.4033150e-004
+3.8960000e+003    +1.6364310e-003
+3.9040000e+003    +1.3989210e-003
+3.9120000e+003    +2.1577876e-003
+3.9200000e+003    +1.2339434e-003
+3.9280000e+003    +1.0656570e-003
+3.9360000e+003    +1.5067302e-003
+3.9440000e+003    +7.7434391e-004
+3.9520000e+003    +2.6837140e-004
+3.9600000e+003    +2.5612477e-004
+3.9680000e+003    +1.7068276e-004
+3.9760000e+003    +3.6504626e-004
+3.9840000e+003    +5.5405719e-004
+3.9920000e+003    +4.9879379e-004
+4.0000000e+003    +7.8132516e-004
+4.0080000e+003    +1.6230207e-004
+4.0160000e+003    +1.1905698e-004
+4.0240000e+003    +5.9793342e-004
+4.0320000e+003    +6.5752439e-004
+4.0400000e+003    +6.6030538e-004
+4.0480000e+003    +8.5873395e-004
+4.0560000e+003    +3.2409196e-004
+4.0640000e+003    +4.5535414e-004
+4.0720000e+003    +4.6752780e-004
+4.0800000e+003    +1.4267321e-003
+4.0880000e+003    +9.7353716e-004
+4.0960000e+003    +9.8915538e-004
+4.1040000e+003    +1.7525097e-003
+4.1120000e+003    +1.5362948e-003
+4.1200000e+003    +4.6795301e-004
+4.1280000e+003    +4.1315812e-004
+4.1360000e+003    +3.1239993e-005
+4.1440000e+003    +4.6851108e-004
+4.1520000e+003    +2.7507597e-003
+4.1600000e+003    +2.9670449e-003
+4.1680000e+003    +1.7904133e-003
+4.1760000e+003    +3.8523439e-004
+4.1840000e+003    +2.2211049e-003
+4.1920000e+003    +2.4125818e-003
+4.2000000e+003    +6.7923684e-004
+4.2080000e+003    +1.3204684e-003
+4.2160000e+003    +1.5625600e-003
+4.2240000e+003    +9.3052455e-004
+4.2320000e+003    +2.0377524e-003
+4.2400000e+003    +6.2537799e-004
+4.2480000e+003    +2.2888419e-004
+4.2560000e+003    +7.7722932e-004
+4.2640000e+003    +8.5398339e-004
+4.2720000e+003    +1.1483917e-003
+4.2800000e+003    +5.4039556e-004
+4.2880000e+003    +1.7406930e-003
+4.2960000e+003    +1.9085689e-003
+4.3040000e+003    +4.0131034e-003
+4.3120000e+003    +3.5263284e-003
+4.3200000e+003    +1.7868145e-004
+4.3280000e+003    +1.4748226e-004
+4.3360000e+003    +3.2698858e-004
+4.3440000e+003    +7.5139134e-004
+4.3520000e+003    +6.0258701e-004
+4.3600000e+003    +3.3337370e-004
+4.3680000e+003    +2.3247405e-004
+4.3760000e+003    +2.7800613e-004
+4.3840000e+003    +8.2003459e-004
+4.3920000e+003    +8.2827127e-004
+4.4000000e+003    +1.4015262e-003
+4.4080000e+003    +2.7533161e-004
+4.4160000e+003    +4.8077249e-004
+4.4240000e+003    +6.8725424e-004
+4.4320000e+003    +1.1158038e-003
+4.4400000e+003    +1.6567751e-003
+4.4480000e+003    +1.5572668e-003
+4.4560000e+003    +5.7593326e-004
+4.4640000e+003    +1.2929040e-003
+4.4720000e+003    +1.0093790e-003
+4.4800000e+003    +7.5037440e-004
+4.4880000e+003    +4.0690589e-004
+4.4960000e+003    +1.2457143e-003
+4.5040000e+003    +6.7817420e-004
+4.5120000e+003    +2.2705165e-003
+4.5200000e+003    +8.0721034e-004
+4.5280000e+003    +1.4090356e-003
+4.5360000e+003    +1.6316166e-003
+4.5440000e+003    +1.5694151e-003
+4.5520000e+003    +1.2852498e-003
+4.5600000e+003    +1.3932381e-003
+4.5680000e+003    +3.5569683e-004
+4.5760000e+003    +3.2150827e-004
+4.5840000e+003    +1.6497547e-003
+4.5920000e+003    +1.1345351e-003
+4.6000000e+003    +1.1719528e-003
+4.6080000e+003    +1.5226564e-003
+4.6160000e+003    +1.5746113e-003
+4.6240000e+003    +8.5803698e-004
+4.6320000e+003    +7.5507071e-004
+4.6400000e+003    +3.8335193e-004
+4.6480000e+003    +2.7884773e-004
+4.6560000e+003    +5.2160118e-004
+4.6640000e+003    +7.3169090e-004
+4.6720000e+003    +6.8149430e-004
+4.6800000e+003    +1.2749154e-003
+4.6880000e+003    +1.5114316e-003
+4.6960000e+003    +1.3486878e-003
+4.7040000e+003    +3.5164462e-004
+4.7120000e+003    +2.0711802e-004
+4.7200000e+003    +1.1067870e-003
+4.7280000e+003    +1.0613005e-003
+4.7360000e+003    +3.9004482e-004
+4.7440000e+003    +1.0651389e-004
+4.7520000e+003    +2.4701243e-003
+4.7600000e+003    +2.7376800e-003
+4.7680000e+003    +2.4681357e-003
+4.7760000e+003    +3.8165650e-005
+4.7840000e+003    +1.8466206e-004
+4.7920000e+003    +7.2835217e-004
+4.8000000e+003    +3.8529298e-004
+4.8080000e+003    +2.0152378e-004
+4.8160000e+003    +3.0875026e-004
+4.8240000e+003    +1.0857888e-003
+4.8320000e+003    +5.6824507e-004
+4.8400000e+003    +6.4038805e-004
+4.8480000e+003    +8.0444588e-004
+4.8560000e+003    +7.1839738e-004
+4.8640000e+003    +5.4121978e-004
+4.8720000e+003    +1.9162413e-004
+4.8800000e+003    +1.6860466e-004
+4.8880000e+003    +1.3906125e-004
+4.8960000e+003    +1.0199548e-003
+4.9040000e+003    +1.4673250e-003
+4.9120000e+003    +1.2691537e-003
+4.9200000e+003    +9.6504349e-004
+4.9280000e+003    +1.4220153e-003
+4.9360000e+003    +1.1542788e-003
+4.9440000e+003    +1.3537817e-003
+4.9520000e+003    +4.1799882e-004
+4.9600000e+003    +7.6949014e-004
+4.9680000e+003    +1.4710674e-003
+4.9760000e+003    +1.1914087e-003
+4.9840000e+003    +1.6819623e-004
+4.9920000e+003    +5.5966561e-004
+5.0000000e+003    +8.6727313e-004
+5.0080000e+003    +6.5153377e-004
+5.0160000e+003    +3.9529771e-004
+5.0240000e+003    +1.9136215e-004
+5.0320000e+003    +1.4199667e-004
+5.0400000e+003    +3.4295477e-004
+5.0480000e+003    +1.3285511e-003
+5.0560000e+003    +1.5763628e-003
+5.0640000e+003    +2.1441996e-003
+5.0720000e+003    +4.2816141e-004
+5.0800000e+003    +9.4838564e-005
+5.0880000e+003    +2.4157309e-004
+5.0960000e+003    +2.5413756e-004
+5.1040000e+003    +1.5300293e-003
+5.1120000e+003    +2.6044081e-004
+5.1200000e+003    +3.4889102e-004
+5.1280000e+003    +6.6273671e-004
+5.1360000e+003    +7.7258900e-004
+5.1440000e+003    +3.0197811e-003
+5.1520000e+003    +2.9137819e-003
+5.1600000e+003    +1.6785087e-003
+5.1680000e+003    +1.0840783e-003
+5.1760000e+003    +3.0784597e-004
+5.1840000e+003    +3.2813224e-004
+5.1920000e+003    +3.5815965e-004
+5.2000000e+003    +2.0166012e-004
+5.2080000e+003    +9.9419663e-004
+5.2160000e+003    +1.1204161e-003
+5.2240000e+003    +1.8078885e-003
+5.2320000e+003    +5.9610454e-004
+5.2400000e+003    +3.2063946e-004
+5.2480000e+003    +3.0395619e-004
+5.2560000e+003    +1.7113538e-003
+5.2640000e+003    +1.5392099e-003
+5.2720000e+003    +1.2731103e-003
+5.2800000e+003    +4.6326898e-004
+5.2880000e+003    +6.3509273e-004
+5.2960000e+003    +5.0436280e-004
+5.3040000e+003    +8.5256965e-004
+5.3120000e+003    +4.3099016e-004
+5.3200000e+003    +5.1215355e-004
+5.3280000e+003    +3.3808863e-004
+5.3360000e+003    +4.8110250e-004
+5.3440000e+003    +4.6010310e-004
+5.3520000e+003    +6.2873325e-004
+5.3600000e+003    +5.1057304e-004
+5.3680000e+003    +3.7109508e-004
+5.3760000e+003    +1.9300093e-004
+5.3840000e+003    +6.0155574e-004
+5.3920000e+003    +3.2082346e-004
+5.4000000e+003    +4.1053767e-004
+5.4080000e+003    +6.9049333e-004
+5.4160000e+003    +7.5349386e-004
+5.4240000e+003    +2.7205644e-003
+5.4320000e+003    +2.8029180e-003
+5.4400000e+003    +9.9274586e-004
+5.4480000e+003    +8.6039404e-004
+5.4560000e+003    +1.4186655e-003
+5.4640000e+003    +4.9917289e-004
+5.4720000e+003    +8.5877546e-004
+5.4800000e+003    +6.2969042e-004
+5.4880000e+003    +7.5828133e-004
+5.4960000e+003    +1.0241157e-003
+5.5040000e+003    +1.5977729e-003
+5.5120000e+003    +2.0427322e-003
+5.5200000e+003    +1.0293854e-003
+5.5280000e+003    +1.3299260e-003
+5.5360000e+003    +8.3780353e-004
+5.5440000e+003    +3.2551598e-005
+5.5520000e+003    +5.1253074e-004
+5.5600000e+003    +4.7384237e-004
+5.5680000e+003    +1.1851169e-003
+5.5760000e+003    +4.0264011e-004
+5.5840000e+003    +5.1379506e-004
+5.5920000e+003    +3.6087484e-004
+5.6000000e+003    +3.6865580e-004
+5.6080000e+003    +4.3947250e-004
+5.6160000e+003    +1.4725921e-004
+5.6240000e+003    +2.4160703e-004
+5.6320000e+003    +4.0641765e-004
+5.6400000e+003    +7.7779876e-004
+5.6480000e+003    +2.4809255e-003
+5.6560000e+003    +2.7587083e-003
+5.6640000e+003    +2.9752739e-003
+5.6720000e+003    +3.1757675e-004
+5.6800000e+003    +9.4128062e-004
+5.6880000e+003    +4.6699218e-004
+5.6960000e+003    +4.3014041e-004
+5.7040000e+003    +4.9026846e-004
+5.7120000e+003    +5.3109799e-004
+5.7200000e+003    +2.6771466e-003
+5.7280000e+003    +2.5464131e-003
+5.7360000e+003    +4.7271763e-004
+5.7440000e+003    +5.0321448e-004
+5.7520000e+003    +3.7580464e-004
+5.7600000e+003    +1.3778037e-004
+5.7680000e+003    +1.6456761e-003
+5.7760000e+003    +1.2334192e-003
+5.7840000e+003    +3.4139038e-004
+5.7920000e+003    +5.0311175e-004
+5.8000000e+003    +7.9552369e-004
+5.8080000e+003    +4.2195633e-004
+5.8160000e+003    +3.0929653e-004
+5.8240000e+003    +2.0653861e-004
+5.8320000e+003    +1.2822899e-003
+5.8400000e+003    +7.7744783e-004
+5.8480000e+003    +5.1635661e-004
+5.8560000e+003    +2.8265646e-004
+5.8640000e+003    +1.5844688e-004
+5.8720000e+003    +3.6491541e-004
+5.8800000e+003    +4.7861913e-004
+5.8880000e+003    +1.5424487e-004
+5.8960000e+003    +6.2028301e-004
+5.9040000e+003    +9.1487524e-004
+5.9120000e+003    +2.6754025e-004
+5.9200000e+003    +2.6496002e-004
+5.9280000e+003    +4.8473134e-004
+5.9360000e+003    +6.6556351e-004
+5.9440000e+003    +5.3314434e-005
+5.9520000e+003    +9.8564502e-005
+5.9600000e+003    +1.5205848e-004
+5.9680000e+003    +6.1706058e-004
+5.9760000e+003    +9.0259314e-004
+5.9840000e+003    +3.5409708e-004
+5.9920000e+003    +3.3260300e-004
+6.0000000e+003    +3.4338844e-004
+6.0080000e+003    +1.9331875e-004
+6.0160000e+003    +8.7334379e-004
+6.0240000e+003    +4.7121098e-004
+6.0320000e+003    +4.9577985e-004
+6.0400000e+003    +8.8295987e-004
+6.0480000e+003    +1.3598172e-003
+6.0560000e+003    +1.3131591e-003
+6.0640000e+003    +1.1063332e-003
+6.0720000e+003    +2.2520977e-003
+6.0800000e+003    +1.2213400e-003
+6.0880000e+003    +2.3052250e-003
+6.0960000e+003    +1.9678145e-003
+6.1040000e+003    +1.8942268e-003
+6.1120000e+003    +3.6259557e-003
+6.1200000e+003    +2.1208884e-004
+6.1280000e+003    +2.7922564e-004
+6.1360000e+003    +3.3297882e-004
+6.1440000e+003    +3.3371610e-004
+6.1520000e+003    +4.7661198e-004
+6.1600000e+003    +3.3105403e-004
+6.1680000e+003    +6.6009589e-004
+6.1760000e+003    +4.0538193e-004
+6.1840000e+003    +3.5805212e-004
+6.1920000e+003    +2.0177562e-004
+6.2000000e+003    +8.9260930e-004
+6.2080000e+003    +8.7291864e-004
+6.2160000e+003    +1.5873698e-003
+6.2240000e+003    +3.0799590e-003
+6.2320000e+003    +4.8709934e-004
+6.2400000e+003    +5.4567005e-004
+6.2480000e+003    +7.7436220e-005
+6.2560000e+003    +3.3771447e-004
+6.2640000e+003    +1.5648606e-003
+6.2720000e+003    +1.3791310e-003
+6.2800000e+003    +3.0886554e-004
+6.2880000e+003    +2.3633888e-004
+6.2960000e+003    +5.8334525e-004
+6.3040000e+003    +5.4046029e-004
+6.3120000e+003    +1.2449821e-003
+6.3200000e+003    +1.2819851e-003
+6.3280000e+003    +2.3779101e-004
+6.3360000e+003    +1.7089315e-004
+6.3440000e+003    +1.0188416e-003
+6.3520000e+003    +8.6960063e-004
+6.3600000e+003    +8.4768096e-004
+6.3680000e+003    +5.9971784e-004
+6.3760000e+003    +3.1025277e-004
+6.3840000e+003    +7.7461690e-004
+6.3920000e+003    +4.2550210e-004
