# SR785 Measurement - Timestamp: Jan 04 2019 - 02:02:46
#---------- Measurement Setup ------------
# Start Frequency (Hz): 0.000000
# Frequency Span (Hz): 6400.000000
# Frequency Resolution: 800
# Number of Averages: 2
# Averaging Mode: None
# Window function: BMH
#---------- Measurement Parameters ----------
# Measurement Group:  "FFT" "FFT"
# Measurements:  "FFT 1" "FFT 2"
# View:  "Log Magnitude" "Log Magnitude"
# Unit:  "dBVpk" "Vrms/rtHz"
#---------- Input Parameters ----------
# Input Source: Analog
# Input Mode: Single ended, Single ended
# Input Grounding: Float, Float
# Input Coupling: AC, DC
# Input Range: -14.0dBVpk, 22.0dBVpk
# Auto Range: On, On
# Auto Range Mode: Up Only, Normal
# Anti-Aliasing Filter: On, On
#---------- Source Parameters ----------
# Source Type: Sine
# Source Amplitude: 500.0mVpk
# Source On: 0

#---------- Measurement Data ----------
# [Freq(Hz) Display 0(dBVpk) Display 1(Vrms/rtHz) ]
+0.0000000e+000    +4.2237112e-001
+8.0000000e+000    +2.8768942e-001
+1.6000000e+001    +8.6236477e-002
+2.4000000e+001    +3.8248333e-003
+3.2000000e+001    +3.6703986e-003
+4.0000000e+001    +1.4087958e-004
+4.8000000e+001    +1.0023815e-004
+5.6000000e+001    +7.3328934e-005
+6.4000000e+001    +9.0904476e-005
+7.2000000e+001    +6.5878499e-005
+8.0000000e+001    +6.0679962e-005
+8.8000000e+001    +6.3879328e-005
+9.6000000e+001    +3.8897568e-005
+1.0400000e+002    +8.5418877e-005
+1.1200000e+002    +4.6824443e-005
+1.2000000e+002    +5.6983263e-005
+1.2800000e+002    +1.0514661e-004
+1.3600000e+002    +2.9496139e-005
+1.4400000e+002    +2.2710910e-005
+1.5200000e+002    +3.9810271e-005
+1.6000000e+002    +3.2125350e-005
+1.6800000e+002    +2.3171746e-005
+1.7600000e+002    +1.9730101e-005
+1.8400000e+002    +4.9856080e-005
+1.9200000e+002    +6.8822723e-005
+2.0000000e+002    +7.0681403e-005
+2.0800000e+002    +1.0039753e-004
+2.1600000e+002    +8.0936334e-005
+2.2400000e+002    +6.3686392e-005
+2.3200000e+002    +4.8564867e-005
+2.4000000e+002    +2.5721369e-004
+2.4800000e+002    +3.3413700e-004
+2.5600000e+002    +1.0821749e-004
+2.6400000e+002    +6.7231500e-005
+2.7200000e+002    +8.0373742e-005
+2.8000000e+002    +5.9039699e-004
+2.8800000e+002    +7.6343690e-004
+2.9600000e+002    +8.5180334e-004
+3.0400000e+002    +2.6556274e-003
+3.1200000e+002    +1.8939158e-003
+3.2000000e+002    +1.0847227e-002
+3.2800000e+002    +7.7908165e-003
+3.3600000e+002    +8.3278874e-003
+3.4400000e+002    +1.1183661e-004
+3.5200000e+002    +7.7544784e-005
+3.6000000e+002    +9.6242940e-005
+3.6800000e+002    +8.0491373e-005
+3.7600000e+002    +3.6302379e-005
+3.8400000e+002    +1.0307947e-004
+3.9200000e+002    +1.2174380e-004
+4.0000000e+002    +4.8074449e-005
+4.0800000e+002    +6.2095387e-005
+4.1600000e+002    +8.9641268e-005
+4.2400000e+002    +1.1260564e-004
+4.3200000e+002    +1.4923979e-004
+4.4000000e+002    +3.8688224e-005
+4.4800000e+002    +7.9590245e-005
+4.5600000e+002    +7.6135597e-004
+4.6400000e+002    +7.4551569e-004
+4.7200000e+002    +9.0210373e-003
+4.8000000e+002    +1.3027849e-002
+4.8800000e+002    +5.5416124e-003
+4.9600000e+002    +6.4254319e-003
+5.0400000e+002    +4.8777875e-003
+5.1200000e+002    +7.5345291e-005
+5.2000000e+002    +1.2475347e-004
+5.2800000e+002    +1.2875465e-004
+5.3600000e+002    +7.9052974e-005
+5.4400000e+002    +1.3377845e-004
+5.5200000e+002    +1.3859224e-004
+5.6000000e+002    +1.4118067e-004
+5.6800000e+002    +5.8601865e-005
+5.7600000e+002    +1.1683349e-004
+5.8400000e+002    +9.3757255e-005
+5.9200000e+002    +8.8940888e-006
+6.0000000e+002    +7.7872588e-005
+6.0800000e+002    +4.4320586e-005
+6.1600000e+002    +1.4415024e-004
+6.2400000e+002    +1.6403689e-004
+6.3200000e+002    +1.4471018e-004
+6.4000000e+002    +2.0322905e-004
+6.4800000e+002    +1.2907623e-004
+6.5600000e+002    +3.5522400e-005
+6.6400000e+002    +3.5196055e-005
+6.7200000e+002    +5.1083378e-005
+6.8000000e+002    +1.7219293e-004
+6.8800000e+002    +1.0306560e-004
+6.9600000e+002    +1.6790285e-004
+7.0400000e+002    +2.0262036e-004
+7.1200000e+002    +8.2707760e-005
+7.2000000e+002    +5.2990716e-005
+7.2800000e+002    +1.3110177e-004
+7.3600000e+002    +2.0860787e-004
+7.4400000e+002    +5.0381266e-005
+7.5200000e+002    +1.3326681e-005
+7.6000000e+002    +9.4691030e-005
+7.6800000e+002    +1.9627933e-004
+7.7600000e+002    +2.2437135e-004
+7.8400000e+002    +2.6053403e-004
+7.9200000e+002    +1.2733990e-004
+8.0000000e+002    +6.4369415e-005
+8.0800000e+002    +1.2003003e-004
+8.1600000e+002    +3.7455360e-005
+8.2400000e+002    +2.7510739e-004
+8.3200000e+002    +2.3930120e-004
+8.4000000e+002    +1.4003595e-004
+8.4800000e+002    +2.0911375e-005
+8.5600000e+002    +8.8731176e-005
+8.6400000e+002    +1.1639132e-004
+8.7200000e+002    +4.4794739e-005
+8.8000000e+002    +8.3020102e-005
+8.8800000e+002    +1.1110850e-004
+8.9600000e+002    +4.7659523e-005
+9.0400000e+002    +1.6447982e-004
+9.1200000e+002    +2.2061623e-004
+9.2000000e+002    +1.2313084e-004
+9.2800000e+002    +2.1756392e-005
+9.3600000e+002    +2.6573220e-004
+9.4400000e+002    +1.9712713e-004
+9.5200000e+002    +1.6732463e-003
+9.6000000e+002    +2.4753097e-003
+9.6800000e+002    +9.2945952e-004
+9.7600000e+002    +1.0415467e-003
+9.8400000e+002    +3.9514496e-005
+9.9200000e+002    +1.5406165e-004
+1.0000000e+003    +1.2083292e-004
+1.0080000e+003    +5.1269421e-005
+1.0160000e+003    +1.2156241e-004
+1.0240000e+003    +5.3534281e-005
+1.0320000e+003    +3.4912515e-005
+1.0400000e+003    +2.2349838e-004
+1.0480000e+003    +1.5982510e-004
+1.0560000e+003    +9.4873561e-005
+1.0640000e+003    +1.0549647e-004
+1.0720000e+003    +9.1779191e-005
+1.0800000e+003    +1.1567248e-004
+1.0880000e+003    +1.0698188e-004
+1.0960000e+003    +2.8049684e-004
+1.1040000e+003    +2.8968340e-004
+1.1120000e+003    +3.3853884e-004
+1.1200000e+003    +6.3598483e-005
+1.1280000e+003    +1.6785134e-004
+1.1360000e+003    +3.5110911e-004
+1.1440000e+003    +3.3636321e-004
+1.1520000e+003    +1.3799263e-004
+1.1600000e+003    +2.4221767e-005
+1.1680000e+003    +3.8436259e-004
+1.1760000e+003    +1.3315515e-004
+1.1840000e+003    +5.6687226e-005
+1.1920000e+003    +2.4071682e-004
+1.2000000e+003    +9.2944370e-005
+1.2080000e+003    +1.7827425e-004
+1.2160000e+003    +2.9418583e-004
+1.2240000e+003    +1.6578824e-004
+1.2320000e+003    +1.5809889e-004
+1.2400000e+003    +2.1723572e-005
+1.2480000e+003    +5.5531604e-005
+1.2560000e+003    +2.0583681e-004
+1.2640000e+003    +2.3368349e-004
+1.2720000e+003    +3.1180965e-004
+1.2800000e+003    +3.2212518e-004
+1.2880000e+003    +3.2949512e-004
+1.2960000e+003    +2.6259443e-004
+1.3040000e+003    +1.1493934e-004
+1.3120000e+003    +3.4938459e-004
+1.3200000e+003    +4.8913079e-004
+1.3280000e+003    +4.1530002e-004
+1.3360000e+003    +3.1468389e-004
+1.3440000e+003    +2.6291524e-004
+1.3520000e+003    +3.6598012e-004
+1.3600000e+003    +6.9528382e-005
+1.3680000e+003    +2.7712266e-004
+1.3760000e+003    +2.0863306e-004
+1.3840000e+003    +8.7435837e-005
+1.3920000e+003    +3.8309864e-004
+1.4000000e+003    +4.7428143e-004
+1.4080000e+003    +1.6209192e-004
+1.4160000e+003    +2.4521921e-004
+1.4240000e+003    +2.7136403e-004
+1.4320000e+003    +4.1917007e-004
+1.4400000e+003    +1.0829683e-004
+1.4480000e+003    +1.6110188e-004
+1.4560000e+003    +2.7033567e-004
+1.4640000e+003    +1.9740501e-004
+1.4720000e+003    +8.8340015e-004
+1.4800000e+003    +1.0232829e-003
+1.4880000e+003    +8.9079957e-004
+1.4960000e+003    +8.1512571e-004
+1.5040000e+003    +1.2848612e-002
+1.5120000e+003    +1.0174731e-002
+1.5200000e+003    +3.3136914e-004
+1.5280000e+003    +3.1080749e-004
+1.5360000e+003    +3.5147398e-004
+1.5440000e+003    +3.7994105e-004
+1.5520000e+003    +5.4883629e-005
+1.5600000e+003    +2.5489571e-004
+1.5680000e+003    +2.3417354e-004
+1.5760000e+003    +2.7970629e-004
+1.5840000e+003    +1.9504975e-004
+1.5920000e+003    +1.6892736e-004
+1.6000000e+003    +2.2270852e-004
+1.6080000e+003    +2.1566224e-004
+1.6160000e+003    +4.6792784e-004
+1.6240000e+003    +9.5088595e-005
+1.6320000e+003    +2.1730286e-004
+1.6400000e+003    +3.0154028e-004
+1.6480000e+003    +4.1314360e-004
+1.6560000e+003    +3.5107287e-004
+1.6640000e+003    +2.3208564e-004
+1.6720000e+003    +1.5222904e-004
+1.6800000e+003    +3.3722242e-004
+1.6880000e+003    +1.0267362e-003
+1.6960000e+003    +1.2429934e-003
+1.7040000e+003    +8.6877611e-004
+1.7120000e+003    +3.6109262e-004
+1.7200000e+003    +2.8861954e-005
+1.7280000e+003    +6.2664476e-005
+1.7360000e+003    +5.8835116e-004
+1.7440000e+003    +4.4652360e-004
+1.7520000e+003    +1.1214136e-004
+1.7600000e+003    +1.2201638e-004
+1.7680000e+003    +2.3174990e-004
+1.7760000e+003    +1.8094423e-004
+1.7840000e+003    +5.5599870e-004
+1.7920000e+003    +6.1490881e-004
+1.8000000e+003    +3.8848803e-004
+1.8080000e+003    +4.0923976e-004
+1.8160000e+003    +3.5232826e-004
+1.8240000e+003    +5.3637006e-005
+1.8320000e+003    +4.8380138e-004
+1.8400000e+003    +5.7579920e-004
+1.8480000e+003    +5.4677506e-004
+1.8560000e+003    +2.2763811e-004
+1.8640000e+003    +1.3901392e-004
+1.8720000e+003    +9.1911701e-005
+1.8800000e+003    +1.0252875e-004
+1.8880000e+003    +2.6911628e-004
+1.8960000e+003    +9.1248169e-004
+1.9040000e+003    +8.0882455e-004
+1.9120000e+003    +6.9910975e-004
+1.9200000e+003    +6.7270419e-004
+1.9280000e+003    +5.2688108e-004
+1.9360000e+003    +9.3461358e-004
+1.9440000e+003    +6.7451323e-004
+1.9520000e+003    +2.8162351e-004
+1.9600000e+003    +3.1393176e-004
+1.9680000e+003    +6.2421552e-004
+1.9760000e+003    +4.3000135e-004
+1.9840000e+003    +7.7083381e-004
+1.9920000e+003    +7.1902707e-004
+2.0000000e+003    +6.3201290e-004
+2.0080000e+003    +8.8299433e-004
+2.0160000e+003    +9.7283034e-004
+2.0240000e+003    +8.1237522e-004
+2.0320000e+003    +7.5552886e-004
+2.0400000e+003    +1.1231664e-003
+2.0480000e+003    +5.1573024e-004
+2.0560000e+003    +3.2090291e-004
+2.0640000e+003    +4.0722455e-004
+2.0720000e+003    +7.1083842e-004
+2.0800000e+003    +4.4372369e-004
+2.0880000e+003    +7.1169744e-004
+2.0960000e+003    +5.8680319e-004
+2.1040000e+003    +6.8175775e-004
+2.1120000e+003    +2.1315360e-004
+2.1200000e+003    +1.3315865e-004
+2.1280000e+003    +6.3393312e-004
+2.1360000e+003    +6.7689992e-004
+2.1440000e+003    +9.5996301e-004
+2.1520000e+003    +4.7769933e-004
+2.1600000e+003    +8.8847673e-004
+2.1680000e+003    +5.9423235e-004
+2.1760000e+003    +6.2341831e-004
+2.1840000e+003    +4.0309704e-004
+2.1920000e+003    +3.9629158e-004
+2.2000000e+003    +7.2407199e-004
+2.2080000e+003    +1.1660057e-003
+2.2160000e+003    +6.7974004e-004
+2.2240000e+003    +6.2921218e-004
+2.2320000e+003    +5.7358918e-004
+2.2400000e+003    +8.3230383e-004
+2.2480000e+003    +5.9274241e-004
+2.2560000e+003    +2.1614677e-004
+2.2640000e+003    +2.0696208e-004
+2.2720000e+003    +4.5409671e-004
+2.2800000e+003    +2.8911146e-004
+2.2880000e+003    +3.8014655e-004
+2.2960000e+003    +8.3439134e-004
+2.3040000e+003    +4.3747603e-004
+2.3120000e+003    +7.7046402e-004
+2.3200000e+003    +9.6887938e-004
+2.3280000e+003    +9.9615473e-004
+2.3360000e+003    +7.8282185e-004
+2.3440000e+003    +6.6120317e-004
+2.3520000e+003    +3.8303723e-004
+2.3600000e+003    +1.8426894e-004
+2.3680000e+003    +4.8206194e-004
+2.3760000e+003    +3.7534485e-004
+2.3840000e+003    +7.7306712e-004
+2.3920000e+003    +1.7091737e-004
+2.4000000e+003    +1.2078955e-004
+2.4080000e+003    +6.4230408e-004
+2.4160000e+003    +4.3289430e-004
+2.4240000e+003    +6.6460617e-004
+2.4320000e+003    +6.1129429e-004
+2.4400000e+003    +1.3095876e-003
+2.4480000e+003    +1.1504823e-003
+2.4560000e+003    +6.0010114e-004
+2.4640000e+003    +5.0856225e-004
+2.4720000e+003    +7.6170673e-004
+2.4800000e+003    +2.8142736e-003
+2.4880000e+003    +2.3477327e-003
+2.4960000e+003    +1.1403185e-003
+2.5040000e+003    +1.7797971e-003
+2.5120000e+003    +9.8528422e-004
+2.5200000e+003    +6.1589194e-004
+2.5280000e+003    +3.6398665e-004
+2.5360000e+003    +7.6965871e-004
+2.5440000e+003    +8.1049401e-004
+2.5520000e+003    +7.5689470e-004
+2.5600000e+003    +6.0482742e-004
+2.5680000e+003    +6.6685892e-004
+2.5760000e+003    +4.0611299e-004
+2.5840000e+003    +6.9538917e-004
+2.5920000e+003    +1.4326689e-003
+2.6000000e+003    +8.3568273e-004
+2.6080000e+003    +1.9363983e-003
+2.6160000e+003    +1.9761992e-003
+2.6240000e+003    +1.3453704e-003
+2.6320000e+003    +2.4083923e-003
+2.6400000e+003    +2.2281944e-003
+2.6480000e+003    +1.0970217e-003
+2.6560000e+003    +6.2009337e-004
+2.6640000e+003    +4.1396797e-004
+2.6720000e+003    +2.3090489e-004
+2.6800000e+003    +9.9715206e-004
+2.6880000e+003    +1.8321616e-003
+2.6960000e+003    +2.0012968e-004
+2.7040000e+003    +1.0823063e-003
+2.7120000e+003    +1.0483577e-003
+2.7200000e+003    +8.7489188e-004
+2.7280000e+003    +3.0382138e-004
+2.7360000e+003    +2.6934613e-003
+2.7440000e+003    +1.1698495e-003
+2.7520000e+003    +3.2574460e-003
+2.7600000e+003    +4.3518511e-003
+2.7680000e+003    +5.0553260e-003
+2.7760000e+003    +1.7877624e-004
+2.7840000e+003    +5.1857955e-003
+2.7920000e+003    +4.0122243e-003
+2.8000000e+003    +7.0350803e-004
+2.8080000e+003    +5.3106213e-004
+2.8160000e+003    +2.9734648e-003
+2.8240000e+003    +1.8071879e-003
+2.8320000e+003    +1.1835442e-003
+2.8400000e+003    +1.1511425e-003
+2.8480000e+003    +9.7003160e-004
+2.8560000e+003    +2.4221567e-003
+2.8640000e+003    +3.2988696e-003
+2.8720000e+003    +3.4155292e-004
+2.8800000e+003    +2.2425868e-004
+2.8880000e+003    +1.1668702e-003
+2.8960000e+003    +1.4525180e-003
+2.9040000e+003    +1.4506493e-003
+2.9120000e+003    +1.8307650e-003
+2.9200000e+003    +1.3107903e-003
+2.9280000e+003    +1.5449750e-003
+2.9360000e+003    +9.7668753e-004
+2.9440000e+003    +5.2088551e-004
+2.9520000e+003    +1.0197751e-003
+2.9600000e+003    +8.7583519e-004
+2.9680000e+003    +7.4086821e-004
+2.9760000e+003    +1.0741135e-003
+2.9840000e+003    +1.3579478e-003
+2.9920000e+003    +8.5220137e-004
+3.0000000e+003    +2.7129863e-004
+3.0080000e+003    +4.9807061e-004
+3.0160000e+003    +5.6473864e-004
+3.0240000e+003    +3.0008606e-003
+3.0320000e+003    +2.8318563e-003
+3.0400000e+003    +1.9152528e-003
+3.0480000e+003    +2.1629978e-003
+3.0560000e+003    +1.9608978e-003
+3.0640000e+003    +8.5186691e-004
+3.0720000e+003    +6.2135216e-005
+3.0800000e+003    +9.1919472e-005
+3.0880000e+003    +3.5143289e-004
+3.0960000e+003    +2.2308811e-004
+3.1040000e+003    +8.2065433e-004
+3.1120000e+003    +1.3998514e-003
+3.1200000e+003    +1.3450809e-003
+3.1280000e+003    +9.9030300e-004
+3.1360000e+003    +1.9407563e-003
+3.1440000e+003    +2.2290105e-003
+3.1520000e+003    +1.9132928e-003
+3.1600000e+003    +2.0987545e-003
+3.1680000e+003    +2.2906733e-003
+3.1760000e+003    +4.2785596e-004
+3.1840000e+003    +2.8940142e-004
+3.1920000e+003    +1.3962855e-003
+3.2000000e+003    +1.3300983e-003
+3.2080000e+003    +1.2600113e-003
+3.2160000e+003    +2.8868816e-003
+3.2240000e+003    +2.8257531e-003
+3.2320000e+003    +3.3851373e-003
+3.2400000e+003    +3.4675128e-003
+3.2480000e+003    +2.6656124e-003
+3.2560000e+003    +1.3535677e-003
+3.2640000e+003    +1.0476183e-003
+3.2720000e+003    +2.3888301e-003
+3.2800000e+003    +2.4019922e-003
+3.2880000e+003    +2.4551840e-003
+3.2960000e+003    +4.5439124e-004
+3.3040000e+003    +9.7299274e-004
+3.3120000e+003    +5.1348628e-003
+3.3200000e+003    +4.2076851e-003
+3.3280000e+003    +1.7553271e-004
+3.3360000e+003    +1.9938682e-004
+3.3440000e+003    +1.1653927e-003
+3.3520000e+003    +9.2991733e-004
+3.3600000e+003    +8.3979097e-004
+3.3680000e+003    +9.2050765e-004
+3.3760000e+003    +8.6327066e-004
+3.3840000e+003    +1.1523375e-003
+3.3920000e+003    +1.5871371e-003
+3.4000000e+003    +2.5653692e-003
+3.4080000e+003    +2.6602938e-003
+3.4160000e+003    +5.6360289e-004
+3.4240000e+003    +2.5314893e-004
+3.4320000e+003    +2.8500662e-004
+3.4400000e+003    +5.1487109e-004
+3.4480000e+003    +6.6512299e-004
+3.4560000e+003    +9.5847435e-004
+3.4640000e+003    +1.0284670e-003
+3.4720000e+003    +4.1643283e-003
+3.4800000e+003    +2.5629255e-003
+3.4880000e+003    +1.6038349e-003
+3.4960000e+003    +4.3887264e-004
+3.5040000e+003    +3.4936771e-004
+3.5120000e+003    +1.6783862e-003
+3.5200000e+003    +6.2308129e-004
+3.5280000e+003    +4.5826717e-004
+3.5360000e+003    +1.2093692e-003
+3.5440000e+003    +1.0257683e-003
+3.5520000e+003    +1.5688509e-003
+3.5600000e+003    +1.7027584e-003
+3.5680000e+003    +1.8376091e-003
+3.5760000e+003    +2.5100012e-003
+3.5840000e+003    +7.3755073e-004
+3.5920000e+003    +1.3193910e-003
+3.6000000e+003    +1.3164036e-003
+3.6080000e+003    +8.6753455e-004
+3.6160000e+003    +2.1946503e-004
+3.6240000e+003    +1.0345680e-004
+3.6320000e+003    +1.5142829e-003
+3.6400000e+003    +1.2803877e-003
+3.6480000e+003    +1.2483609e-004
+3.6560000e+003    +5.5063557e-004
+3.6640000e+003    +1.2772833e-003
+3.6720000e+003    +8.9893973e-004
+3.6800000e+003    +3.6800772e-004
+3.6880000e+003    +4.0977323e-004
+3.6960000e+003    +9.6148410e-004
+3.7040000e+003    +9.8667305e-004
+3.7120000e+003    +3.1220549e-004
+3.7200000e+003    +3.7177061e-004
+3.7280000e+003    +3.4846991e-004
+3.7360000e+003    +6.4518146e-004
+3.7440000e+003    +5.4471323e-004
+3.7520000e+003    +6.7770528e-004
+3.7600000e+003    +2.2923943e-004
+3.7680000e+003    +6.2774000e-004
+3.7760000e+003    +1.1452489e-003
+3.7840000e+003    +7.5547496e-004
+3.7920000e+003    +3.6391831e-004
+3.8000000e+003    +1.5800059e-004
+3.8080000e+003    +2.5953917e-004
+3.8160000e+003    +3.5628624e-004
+3.8240000e+003    +4.4944527e-004
+3.8320000e+003    +6.4941338e-004
+3.8400000e+003    +4.6948250e-004
+3.8480000e+003    +3.0801399e-004
+3.8560000e+003    +1.0168798e-003
+3.8640000e+003    +6.2909198e-004
+3.8720000e+003    +5.7078066e-004
+3.8800000e+003    +5.4357958e-004
+3.8880000e+003    +8.8001956e-004
+3.8960000e+003    +1.6558649e-003
+3.9040000e+003    +1.2714089e-003
+3.9120000e+003    +8.7484717e-004
+3.9200000e+003    +6.4594980e-004
+3.9280000e+003    +4.3613004e-004
+3.9360000e+003    +1.4611804e-003
+3.9440000e+003    +6.4853445e-004
+3.9520000e+003    +1.8973053e-003
+3.9600000e+003    +1.3730030e-003
+3.9680000e+003    +1.1235852e-003
+3.9760000e+003    +1.6042955e-003
+3.9840000e+003    +1.0149852e-004
+3.9920000e+003    +2.8111145e-004
+4.0000000e+003    +4.7988648e-004
+4.0080000e+003    +6.3429377e-004
+4.0160000e+003    +4.5061955e-004
+4.0240000e+003    +7.5009803e-004
+4.0320000e+003    +4.0614419e-004
+4.0400000e+003    +7.0207741e-004
+4.0480000e+003    +7.3462952e-004
+4.0560000e+003    +1.6320628e-004
+4.0640000e+003    +4.3710679e-004
+4.0720000e+003    +2.9520909e-004
+4.0800000e+003    +4.3008209e-004
+4.0880000e+003    +2.8749992e-004
+4.0960000e+003    +1.8108157e-004
+4.1040000e+003    +1.9689785e-004
+4.1120000e+003    +4.2832081e-004
+4.1200000e+003    +3.2334149e-004
+4.1280000e+003    +3.2330351e-004
+4.1360000e+003    +3.2783227e-004
+4.1440000e+003    +6.4374116e-004
+4.1520000e+003    +8.8773225e-004
+4.1600000e+003    +1.9701688e-004
+4.1680000e+003    +3.4008620e-004
+4.1760000e+003    +2.1249897e-004
+4.1840000e+003    +2.5817723e-004
+4.1920000e+003    +8.7473623e-004
+4.2000000e+003    +1.0209200e-003
+4.2080000e+003    +1.1407197e-003
+4.2160000e+003    +7.5162773e-004
+4.2240000e+003    +1.1184195e-003
+4.2320000e+003    +5.1151600e-004
+4.2400000e+003    +1.2953259e-003
+4.2480000e+003    +8.6628669e-004
+4.2560000e+003    +1.8383305e-003
+4.2640000e+003    +1.3756723e-003
+4.2720000e+003    +8.0789306e-004
+4.2800000e+003    +3.5163437e-003
+4.2880000e+003    +4.5699622e-003
+4.2960000e+003    +8.5575168e-004
+4.3040000e+003    +3.2746498e-004
+4.3120000e+003    +5.4091023e-004
+4.3200000e+003    +6.2781613e-004
+4.3280000e+003    +1.1608081e-003
+4.3360000e+003    +1.0283410e-003
+4.3440000e+003    +5.5712252e-004
+4.3520000e+003    +7.5688306e-004
+4.3600000e+003    +5.7561655e-004
+4.3680000e+003    +2.5403756e-003
+4.3760000e+003    +2.0610220e-003
+4.3840000e+003    +1.3580611e-003
+4.3920000e+003    +9.8673534e-004
+4.4000000e+003    +3.0630582e-004
+4.4080000e+003    +2.5238644e-004
+4.4160000e+003    +7.2243134e-004
+4.4240000e+003    +5.3728127e-004
+4.4320000e+003    +2.8593864e-004
+4.4400000e+003    +1.8247707e-003
+4.4480000e+003    +1.3085075e-003
+4.4560000e+003    +3.9372017e-004
+4.4640000e+003    +2.6532900e-004
+4.4720000e+003    +4.6394498e-004
+4.4800000e+003    +2.8805618e-004
+4.4880000e+003    +1.5115321e-003
+4.4960000e+003    +1.1040471e-003
+4.5040000e+003    +9.5859065e-004
+4.5120000e+003    +8.1629364e-004
+4.5200000e+003    +1.2187372e-003
+4.5280000e+003    +2.0127413e-003
+4.5360000e+003    +4.5270481e-004
+4.5440000e+003    +4.3571988e-004
+4.5520000e+003    +2.0158275e-004
+4.5600000e+003    +8.3219598e-004
+4.5680000e+003    +8.7041687e-004
+4.5760000e+003    +8.8817783e-004
+4.5840000e+003    +1.1348907e-003
+4.5920000e+003    +1.3130114e-003
+4.6000000e+003    +1.0300213e-003
+4.6080000e+003    +1.8581128e-003
+4.6160000e+003    +3.2391428e-004
+4.6240000e+003    +1.3284519e-004
+4.6320000e+003    +3.4219516e-004
+4.6400000e+003    +3.1681196e-004
+4.6480000e+003    +4.4911599e-004
+4.6560000e+003    +1.2799851e-003
+4.6640000e+003    +5.1508681e-004
+4.6720000e+003    +8.8729622e-004
+4.6800000e+003    +1.0337505e-003
+4.6880000e+003    +1.0479497e-003
+4.6960000e+003    +1.2253898e-003
+4.7040000e+003    +5.7382666e-004
+4.7120000e+003    +1.2357073e-003
+4.7200000e+003    +1.1368262e-003
+4.7280000e+003    +1.2173197e-004
+4.7360000e+003    +7.5231132e-004
+4.7440000e+003    +5.6953833e-004
+4.7520000e+003    +3.2394825e-004
+4.7600000e+003    +2.9654670e-004
+4.7680000e+003    +8.8709698e-004
+4.7760000e+003    +1.1345973e-003
+4.7840000e+003    +1.0134452e-003
+4.7920000e+003    +7.6834788e-004
+4.8000000e+003    +4.6183658e-003
+4.8080000e+003    +5.7837041e-003
+4.8160000e+003    +9.4255112e-004
+4.8240000e+003    +1.0972212e-003
+4.8320000e+003    +7.2619336e-004
+4.8400000e+003    +4.9115723e-004
+4.8480000e+003    +5.6133518e-004
+4.8560000e+003    +1.2050897e-003
+4.8640000e+003    +9.4222621e-004
+4.8720000e+003    +5.2401260e-004
+4.8800000e+003    +1.6555312e-004
+4.8880000e+003    +2.3912417e-004
+4.8960000e+003    +5.8793015e-004
+4.9040000e+003    +7.6685147e-004
+4.9120000e+003    +8.1389962e-004
+4.9200000e+003    +1.2893268e-003
+4.9280000e+003    +1.1533723e-003
+4.9360000e+003    +4.6685609e-004
+4.9440000e+003    +7.3537762e-005
+4.9520000e+003    +2.1326936e-005
+4.9600000e+003    +5.3153292e-004
+4.9680000e+003    +5.4282957e-004
+4.9760000e+003    +8.4560848e-004
+4.9840000e+003    +6.1706838e-004
+4.9920000e+003    +8.8987232e-004
+5.0000000e+003    +4.4691746e-004
+5.0080000e+003    +1.8086698e-004
+5.0160000e+003    +2.7987311e-004
+5.0240000e+003    +5.3013407e-004
+5.0320000e+003    +5.8282312e-004
+5.0400000e+003    +7.5983064e-004
+5.0480000e+003    +4.9607526e-004
+5.0560000e+003    +2.1333904e-004
+5.0640000e+003    +8.2933414e-004
+5.0720000e+003    +5.0918019e-004
+5.0800000e+003    +3.9613212e-004
+5.0880000e+003    +5.0030102e-004
+5.0960000e+003    +7.7202002e-004
+5.1040000e+003    +7.2591117e-004
+5.1120000e+003    +3.8872653e-004
+5.1200000e+003    +6.5372896e-004
+5.1280000e+003    +1.0369545e-003
+5.1360000e+003    +1.2359142e-003
+5.1440000e+003    +6.3530123e-004
+5.1520000e+003    +9.4185385e-004
+5.1600000e+003    +1.0051257e-003
+5.1680000e+003    +2.5333356e-004
+5.1760000e+003    +8.0865539e-005
+5.1840000e+003    +7.9376000e-004
+5.1920000e+003    +4.9275171e-004
+5.2000000e+003    +5.9237093e-004
+5.2080000e+003    +1.8173108e-004
+5.2160000e+003    +3.6373077e-004
+5.2240000e+003    +1.3079380e-003
+5.2320000e+003    +1.3869437e-003
+5.2400000e+003    +5.5799331e-004
+5.2480000e+003    +1.2545524e-003
+5.2560000e+003    +1.7449794e-003
+5.2640000e+003    +6.4632227e-004
+5.2720000e+003    +7.1998214e-004
+5.2800000e+003    +4.1365356e-004
+5.2880000e+003    +1.7598650e-003
+5.2960000e+003    +1.5885902e-003
+5.3040000e+003    +9.0192392e-004
+5.3120000e+003    +5.6127482e-004
+5.3200000e+003    +5.2692590e-004
+5.3280000e+003    +9.5617346e-004
+5.3360000e+003    +9.7886147e-004
+5.3440000e+003    +1.0071412e-003
+5.3520000e+003    +7.1233534e-004
+5.3600000e+003    +9.9638873e-004
+5.3680000e+003    +9.6726534e-004
+5.3760000e+003    +8.1068760e-004
+5.3840000e+003    +7.2418014e-004
+5.3920000e+003    +7.4311753e-004
+5.4000000e+003    +3.0492185e-004
+5.4080000e+003    +2.8829710e-004
+5.4160000e+003    +4.7394019e-004
+5.4240000e+003    +1.0566931e-003
+5.4320000e+003    +9.9127332e-004
+5.4400000e+003    +3.2060849e-004
+5.4480000e+003    +8.1695127e-004
+5.4560000e+003    +1.0791629e-003
+5.4640000e+003    +1.1153880e-003
+5.4720000e+003    +2.9474222e-003
+5.4800000e+003    +2.8577526e-003
+5.4880000e+003    +1.3467486e-003
+5.4960000e+003    +1.2195759e-003
+5.5040000e+003    +8.3291176e-004
+5.5120000e+003    +8.0164248e-004
+5.5200000e+003    +6.4899103e-004
+5.5280000e+003    +1.9836992e-004
+5.5360000e+003    +3.5923798e-004
+5.5440000e+003    +5.6855305e-004
+5.5520000e+003    +2.6626638e-004
+5.5600000e+003    +2.7551441e-004
+5.5680000e+003    +2.6353286e-003
+5.5760000e+003    +2.5206865e-003
+5.5840000e+003    +7.7263862e-003
+5.5920000e+003    +6.5000118e-003
+5.6000000e+003    +9.7199652e-004
+5.6080000e+003    +5.4663129e-004
+5.6160000e+003    +3.7539061e-004
+5.6240000e+003    +5.5650872e-004
+5.6320000e+003    +5.9083378e-004
+5.6400000e+003    +7.1341783e-004
+5.6480000e+003    +6.3512445e-004
+5.6560000e+003    +8.6878182e-004
+5.6640000e+003    +5.3501022e-005
+5.6720000e+003    +1.3549766e-004
+5.6800000e+003    +2.0636804e-003
+5.6880000e+003    +1.5601085e-003
+5.6960000e+003    +2.0512333e-003
+5.7040000e+003    +1.5643641e-003
+5.7120000e+003    +1.0741772e-003
+5.7200000e+003    +1.0029128e-003
+5.7280000e+003    +3.2686957e-004
+5.7360000e+003    +3.7451435e-004
+5.7440000e+003    +3.5210917e-004
+5.7520000e+003    +5.7090912e-004
+5.7600000e+003    +4.9975776e-004
+5.7680000e+003    +1.0953638e-004
+5.7760000e+003    +2.5631548e-004
+5.7840000e+003    +8.3714107e-004
+5.7920000e+003    +5.7739712e-004
+5.8000000e+003    +2.7213263e-004
+5.8080000e+003    +8.3865901e-004
+5.8160000e+003    +5.0708913e-004
+5.8240000e+003    +2.1724621e-004
+5.8320000e+003    +3.6971415e-003
+5.8400000e+003    +3.9056742e-003
+5.8480000e+003    +4.8576333e-004
+5.8560000e+003    +3.0446687e-004
+5.8640000e+003    +2.6483933e-004
+5.8720000e+003    +6.5861107e-004
+5.8800000e+003    +9.2834886e-004
+5.8880000e+003    +6.9439085e-004
+5.8960000e+003    +3.2987699e-004
+5.9040000e+003    +5.7154824e-004
+5.9120000e+003    +1.1811407e-003
+5.9200000e+003    +1.7928761e-004
+5.9280000e+003    +2.3727970e-004
+5.9360000e+003    +5.8080960e-004
+5.9440000e+003    +5.9693964e-004
+5.9520000e+003    +6.1244209e-004
+5.9600000e+003    +1.7517999e-004
+5.9680000e+003    +5.8122172e-005
+5.9760000e+003    +4.4056168e-004
+5.9840000e+003    +2.5630859e-004
+5.9920000e+003    +1.8423171e-004
+6.0000000e+003    +1.9740935e-004
+6.0080000e+003    +2.9956904e-004
+6.0160000e+003    +2.0640497e-003
+6.0240000e+003    +9.8649866e-004
+6.0320000e+003    +4.8515250e-004
+6.0400000e+003    +4.2106057e-004
+6.0480000e+003    +1.2594498e-004
+6.0560000e+003    +2.3185743e-004
+6.0640000e+003    +4.6665134e-004
+6.0720000e+003    +3.1630174e-004
+6.0800000e+003    +3.3497286e-004
+6.0880000e+003    +1.6795135e-004
+6.0960000e+003    +2.4927936e-003
+6.1040000e+003    +7.0214446e-004
+6.1120000e+003    +8.1063109e-004
+6.1200000e+003    +3.1139553e-004
+6.1280000e+003    +1.1253520e-003
+6.1360000e+003    +7.7594776e-004
+6.1440000e+003    +5.3745444e-004
+6.1520000e+003    +3.8215844e-004
+6.1600000e+003    +9.8307757e-004
+6.1680000e+003    +1.7371599e-003
+6.1760000e+003    +1.7627329e-004
+6.1840000e+003    +1.4946026e-004
+6.1920000e+003    +8.5090782e-005
+6.2000000e+003    +7.2403107e-004
+6.2080000e+003    +1.1195885e-003
+6.2160000e+003    +1.0778047e-003
+6.2240000e+003    +8.3501410e-004
+6.2320000e+003    +4.4522848e-004
+6.2400000e+003    +3.3541708e-004
+6.2480000e+003    +5.8193947e-004
+6.2560000e+003    +3.4656670e-004
+6.2640000e+003    +3.1809654e-004
+6.2720000e+003    +3.8176778e-004
+6.2800000e+003    +4.9134652e-004
+6.2880000e+003    +9.2934573e-004
+6.2960000e+003    +1.4761632e-003
+6.3040000e+003    +5.3116214e-003
+6.3120000e+003    +6.0638101e-003
+6.3200000e+003    +5.0509986e-003
+6.3280000e+003    +6.2010699e-004
+6.3360000e+003    +1.5237812e-003
+6.3440000e+003    +9.1607543e-004
+6.3520000e+003    +4.9907510e-004
+6.3600000e+003    +3.1210130e-004
+6.3680000e+003    +2.6613398e-004
+6.3760000e+003    +7.4091583e-004
+6.3840000e+003    +5.0770363e-004
+6.3920000e+003    +2.3392454e-004
