# SR785 Measurement - Timestamp: Jan 04 2019 - 05:21:51
#---------- Measurement Setup ------------
# Start Frequency (Hz): 0.000000
# Frequency Span (Hz): 6400.000000
# Frequency Resolution: 800
# Number of Averages: 2
# Averaging Mode: None
# Window function: BMH
#---------- Measurement Parameters ----------
# Measurement Group:  "FFT" "FFT"
# Measurements:  "FFT 1" "FFT 2"
# View:  "Log Magnitude" "Log Magnitude"
# Unit:  "dBVpk" "Vrms/rtHz"
#---------- Input Parameters ----------
# Input Source: Analog
# Input Mode: Single ended, Single ended
# Input Grounding: Float, Float
# Input Coupling: AC, DC
# Input Range: -14.0dBVpk, 22.0dBVpk
# Auto Range: On, On
# Auto Range Mode: Up Only, Normal
# Anti-Aliasing Filter: On, On
#---------- Source Parameters ----------
# Source Type: Sine
# Source Amplitude: 500.0mVpk
# Source On: 0

#---------- Measurement Data ----------
# [Freq(Hz) Display 0(dBVpk) Display 1(Vrms/rtHz) ]
+0.0000000e+000    +5.3047711e-001
+8.0000000e+000    +4.1893846e-001
+1.6000000e+001    +1.1726363e-001
+2.4000000e+001    +8.6291293e-003
+3.2000000e+001    +8.5690961e-004
+4.0000000e+001    +1.7415418e-004
+4.8000000e+001    +4.6643466e-004
+5.6000000e+001    +1.7645948e-004
+6.4000000e+001    +5.5634864e-005
+7.2000000e+001    +1.0022176e-004
+8.0000000e+001    +6.7653433e-005
+8.8000000e+001    +8.9824222e-005
+9.6000000e+001    +1.4023334e-004
+1.0400000e+002    +2.4522971e-005
+1.1200000e+002    +3.3336106e-005
+1.2000000e+002    +4.4777378e-005
+1.2800000e+002    +1.5018397e-004
+1.3600000e+002    +1.2009541e-004
+1.4400000e+002    +8.6590160e-005
+1.5200000e+002    +7.4768104e-005
+1.6000000e+002    +3.6693207e-005
+1.6800000e+002    +1.1661485e-004
+1.7600000e+002    +2.0515014e-005
+1.8400000e+002    +4.2046995e-005
+1.9200000e+002    +5.3918120e-005
+2.0000000e+002    +5.8391328e-005
+2.0800000e+002    +1.9914725e-005
+2.1600000e+002    +3.6871388e-005
+2.2400000e+002    +3.5244666e-005
+2.3200000e+002    +4.9891620e-005
+2.4000000e+002    +1.6716505e-005
+2.4800000e+002    +1.4984212e-004
+2.5600000e+002    +7.1620714e-005
+2.6400000e+002    +3.6035755e-005
+2.7200000e+002    +1.5696736e-005
+2.8000000e+002    +4.3631444e-005
+2.8800000e+002    +3.5634865e-005
+2.9600000e+002    +2.5869265e-005
+3.0400000e+002    +2.4125766e-005
+3.1200000e+002    +2.9500707e-005
+3.2000000e+002    +5.0059745e-005
+3.2800000e+002    +7.9248770e-005
+3.3600000e+002    +6.5643122e-005
+3.4400000e+002    +7.2163304e-005
+3.5200000e+002    +3.8941365e-005
+3.6000000e+002    +5.1745141e-005
+3.6800000e+002    +4.4258635e-005
+3.7600000e+002    +3.5442965e-005
+3.8400000e+002    +1.9529555e-006
+3.9200000e+002    +7.7396951e-005
+4.0000000e+002    +1.1506490e-004
+4.0800000e+002    +8.7353896e-005
+4.1600000e+002    +5.3970303e-005
+4.2400000e+002    +3.0694027e-005
+4.3200000e+002    +2.9148794e-005
+4.4000000e+002    +8.4387131e-005
+4.4800000e+002    +1.1730696e-004
+4.5600000e+002    +3.7179612e-005
+4.6400000e+002    +1.7276010e-005
+4.7200000e+002    +8.2775259e-006
+4.8000000e+002    +1.7983599e-005
+4.8800000e+002    +6.7451765e-005
+4.9600000e+002    +8.8376008e-005
+5.0400000e+002    +6.8257192e-005
+5.1200000e+002    +1.4433982e-005
+5.2000000e+002    +5.0542829e-005
+5.2800000e+002    +1.5349232e-004
+5.3600000e+002    +1.6533624e-004
+5.4400000e+002    +1.3833059e-004
+5.5200000e+002    +1.3349768e-004
+5.6000000e+002    +5.1598825e-005
+5.6800000e+002    +6.2207982e-005
+5.7600000e+002    +6.2445994e-005
+5.8400000e+002    +2.2358883e-005
+5.9200000e+002    +2.4630855e-005
+6.0000000e+002    +1.2606174e-004
+6.0800000e+002    +3.2246029e-005
+6.1600000e+002    +8.4968015e-005
+6.2400000e+002    +2.0294875e-004
+6.3200000e+002    +1.9103131e-004
+6.4000000e+002    +1.9109550e-004
+6.4800000e+002    +1.3727995e-004
+6.5600000e+002    +1.3509011e-004
+6.6400000e+002    +1.9871314e-004
+6.7200000e+002    +1.5295381e-004
+6.8000000e+002    +1.8173168e-004
+6.8800000e+002    +2.2019322e-004
+6.9600000e+002    +2.0225761e-004
+7.0400000e+002    +1.5962290e-004
+7.1200000e+002    +2.2956386e-004
+7.2000000e+002    +1.8140176e-004
+7.2800000e+002    +1.7308306e-004
+7.3600000e+002    +1.8620350e-004
+7.4400000e+002    +1.6990952e-004
+7.5200000e+002    +8.9241774e-005
+7.6000000e+002    +7.5641205e-005
+7.6800000e+002    +2.1982605e-004
+7.7600000e+002    +1.5501480e-004
+7.8400000e+002    +1.0351816e-005
+7.9200000e+002    +1.5767150e-004
+8.0000000e+002    +9.3069262e-005
+8.0800000e+002    +1.2910833e-004
+8.1600000e+002    +1.3647000e-004
+8.2400000e+002    +1.4767954e-004
+8.3200000e+002    +1.2959121e-004
+8.4000000e+002    +1.2325555e-004
+8.4800000e+002    +1.7629447e-004
+8.5600000e+002    +1.1870320e-004
+8.6400000e+002    +7.2199131e-005
+8.7200000e+002    +2.1999532e-004
+8.8000000e+002    +2.9408457e-004
+8.8800000e+002    +1.0911758e-004
+8.9600000e+002    +2.2916596e-004
+9.0400000e+002    +3.4722331e-004
+9.1200000e+002    +2.7846359e-004
+9.2000000e+002    +1.6338009e-004
+9.2800000e+002    +1.4586317e-004
+9.3600000e+002    +4.2754837e-004
+9.4400000e+002    +1.0386916e-004
+9.5200000e+002    +2.7969018e-005
+9.6000000e+002    +1.2651121e-004
+9.6800000e+002    +3.9958375e-004
+9.7600000e+002    +2.8018717e-004
+9.8400000e+002    +3.0986246e-004
+9.9200000e+002    +2.4980417e-004
+1.0000000e+003    +2.8533352e-004
+1.0080000e+003    +1.7137690e-004
+1.0160000e+003    +7.7968318e-005
+1.0240000e+003    +6.5577711e-005
+1.0320000e+003    +1.5930696e-004
+1.0400000e+003    +2.4804953e-004
+1.0480000e+003    +3.7220825e-004
+1.0560000e+003    +3.0012082e-004
+1.0640000e+003    +1.2939799e-004
+1.0720000e+003    +2.0878512e-004
+1.0800000e+003    +3.8471029e-004
+1.0880000e+003    +1.5938394e-004
+1.0960000e+003    +7.2344737e-005
+1.1040000e+003    +2.2271085e-004
+1.1120000e+003    +1.1474799e-004
+1.1200000e+003    +1.4843913e-004
+1.1280000e+003    +3.0442426e-004
+1.1360000e+003    +2.2974162e-004
+1.1440000e+003    +1.3101766e-004
+1.1520000e+003    +3.0295929e-004
+1.1600000e+003    +4.0136938e-004
+1.1680000e+003    +2.5193457e-004
+1.1760000e+003    +3.6516812e-004
+1.1840000e+003    +3.8596938e-004
+1.1920000e+003    +4.6283711e-004
+1.2000000e+003    +3.4504646e-004
+1.2080000e+003    +2.2500957e-004
+1.2160000e+003    +3.3524734e-004
+1.2240000e+003    +4.6796896e-004
+1.2320000e+003    +8.2945116e-005
+1.2400000e+003    +1.0407488e-004
+1.2480000e+003    +1.7063461e-004
+1.2560000e+003    +5.2418298e-004
+1.2640000e+003    +5.6596519e-004
+1.2720000e+003    +2.7940763e-004
+1.2800000e+003    +3.0530611e-004
+1.2880000e+003    +2.6241574e-004
+1.2960000e+003    +2.9295663e-004
+1.3040000e+003    +2.3962458e-004
+1.3120000e+003    +1.3197176e-004
+1.3200000e+003    +5.0460487e-005
+1.3280000e+003    +1.9507363e-004
+1.3360000e+003    +4.5977332e-004
+1.3440000e+003    +5.2610907e-004
+1.3520000e+003    +2.3346448e-004
+1.3600000e+003    +2.4624664e-004
+1.3680000e+003    +2.3593959e-004
+1.3760000e+003    +1.5826397e-004
+1.3840000e+003    +2.0187224e-004
+1.3920000e+003    +3.0765979e-004
+1.4000000e+003    +5.4688106e-004
+1.4080000e+003    +2.2550211e-004
+1.4160000e+003    +1.1657056e-004
+1.4240000e+003    +1.4821690e-004
+1.4320000e+003    +4.4934585e-004
+1.4400000e+003    +5.1841530e-004
+1.4480000e+003    +2.3433455e-004
+1.4560000e+003    +2.8618143e-004
+1.4640000e+003    +1.9439265e-004
+1.4720000e+003    +2.9369429e-004
+1.4800000e+003    +1.0892695e-003
+1.4880000e+003    +7.6220575e-004
+1.4960000e+003    +1.8870899e-004
+1.5040000e+003    +2.8570468e-004
+1.5120000e+003    +4.8093297e-004
+1.5200000e+003    +3.8264884e-004
+1.5280000e+003    +3.9377940e-004
+1.5360000e+003    +1.2078902e-004
+1.5440000e+003    +1.8764824e-004
+1.5520000e+003    +1.2379799e-004
+1.5600000e+003    +1.9835707e-004
+1.5680000e+003    +3.6310413e-004
+1.5760000e+003    +2.9343128e-004
+1.5840000e+003    +5.3587265e-004
+1.5920000e+003    +2.2034316e-004
+1.6000000e+003    +5.2753952e-004
+1.6080000e+003    +7.0162083e-004
+1.6160000e+003    +7.2822138e-004
+1.6240000e+003    +7.4463955e-004
+1.6320000e+003    +4.2920280e-004
+1.6400000e+003    +4.5825058e-004
+1.6480000e+003    +5.5580278e-004
+1.6560000e+003    +1.5570411e-004
+1.6640000e+003    +4.5110518e-004
+1.6720000e+003    +1.9755495e-004
+1.6800000e+003    +3.6143989e-004
+1.6880000e+003    +4.1784669e-004
+1.6960000e+003    +5.1709358e-004
+1.7040000e+003    +6.6744973e-004
+1.7120000e+003    +7.6519925e-004
+1.7200000e+003    +6.5053842e-004
+1.7280000e+003    +3.7954995e-004
+1.7360000e+003    +4.3719177e-004
+1.7440000e+003    +6.5445830e-004
+1.7520000e+003    +3.9643192e-004
+1.7600000e+003    +4.7512239e-004
+1.7680000e+003    +6.9350738e-004
+1.7760000e+003    +1.0136777e-003
+1.7840000e+003    +8.2744006e-004
+1.7920000e+003    +2.6543360e-004
+1.8000000e+003    +3.6171899e-004
+1.8080000e+003    +4.1510535e-005
+1.8160000e+003    +3.3337864e-004
+1.8240000e+003    +5.4916088e-004
+1.8320000e+003    +2.3037828e-004
+1.8400000e+003    +2.6050030e-004
+1.8480000e+003    +2.0057381e-004
+1.8560000e+003    +7.2639792e-005
+1.8640000e+003    +8.7364973e-004
+1.8720000e+003    +9.0630166e-004
+1.8800000e+003    +7.6657539e-004
+1.8880000e+003    +9.0261590e-004
+1.8960000e+003    +9.4980811e-004
+1.9040000e+003    +2.9821254e-004
+1.9120000e+003    +3.3902295e-004
+1.9200000e+003    +7.4378605e-004
+1.9280000e+003    +7.1357685e-004
+1.9360000e+003    +5.5171037e-004
+1.9440000e+003    +9.7138945e-005
+1.9520000e+003    +3.5676186e-004
+1.9600000e+003    +7.3746976e-004
+1.9680000e+003    +6.7254907e-004
+1.9760000e+003    +5.8352202e-004
+1.9840000e+003    +5.7509978e-004
+1.9920000e+003    +9.8530960e-004
+2.0000000e+003    +6.2316336e-004
+2.0080000e+003    +5.6396070e-004
+2.0160000e+003    +6.1256281e-004
+2.0240000e+003    +6.2088092e-004
+2.0320000e+003    +8.0938108e-004
+2.0400000e+003    +4.5710610e-004
+2.0480000e+003    +2.7028046e-004
+2.0560000e+003    +2.5360670e-004
+2.0640000e+003    +4.6227084e-004
+2.0720000e+003    +3.2171342e-004
+2.0800000e+003    +1.5319776e-004
+2.0880000e+003    +3.1708617e-004
+2.0960000e+003    +5.5536663e-004
+2.1040000e+003    +7.1749400e-004
+2.1120000e+003    +3.5830538e-004
+2.1200000e+003    +1.0207491e-003
+2.1280000e+003    +1.0221673e-003
+2.1360000e+003    +5.0258945e-004
+2.1440000e+003    +4.3002094e-004
+2.1520000e+003    +1.1365230e-004
+2.1600000e+003    +5.8551668e-004
+2.1680000e+003    +7.1537838e-004
+2.1760000e+003    +2.4103181e-004
+2.1840000e+003    +3.8879184e-004
+2.1920000e+003    +5.3164875e-004
+2.2000000e+003    +4.9125077e-004
+2.2080000e+003    +2.7254137e-004
+2.2160000e+003    +4.7385253e-004
+2.2240000e+003    +1.7498824e-004
+2.2320000e+003    +5.4476166e-004
+2.2400000e+003    +5.0213106e-004
+2.2480000e+003    +8.9325343e-004
+2.2560000e+003    +2.6137466e-004
+2.2640000e+003    +6.9011742e-004
+2.2720000e+003    +3.5361899e-004
+2.2800000e+003    +2.5835829e-003
+2.2880000e+003    +3.5480867e-004
+2.2960000e+003    +5.3429464e-004
+2.3040000e+003    +3.2177701e-004
+2.3120000e+003    +6.0990255e-004
+2.3200000e+003    +1.2487599e-003
+2.3280000e+003    +1.1426873e-004
+2.3360000e+003    +3.2306043e-004
+2.3440000e+003    +2.5165218e-004
+2.3520000e+003    +5.1892497e-005
+2.3600000e+003    +1.8415396e-004
+2.3680000e+003    +8.0723030e-004
+2.3760000e+003    +5.6736136e-004
+2.3840000e+003    +7.0665841e-004
+2.3920000e+003    +5.8618147e-004
+2.4000000e+003    +3.9667706e-004
+2.4080000e+003    +1.4485532e-004
+2.4160000e+003    +8.9468306e-004
+2.4240000e+003    +9.6567681e-005
+2.4320000e+003    +4.7900816e-004
+2.4400000e+003    +6.8653590e-004
+2.4480000e+003    +7.9258950e-004
+2.4560000e+003    +1.7270738e-003
+2.4640000e+003    +1.3977619e-003
+2.4720000e+003    +1.2352488e-003
+2.4800000e+003    +4.2197880e-004
+2.4880000e+003    +7.4123801e-004
+2.4960000e+003    +7.8561372e-004
+2.5040000e+003    +7.6993252e-004
+2.5120000e+003    +6.9493009e-004
+2.5200000e+003    +1.3406732e-003
+2.5280000e+003    +7.2172022e-004
+2.5360000e+003    +1.1157084e-003
+2.5440000e+003    +1.0942328e-003
+2.5520000e+003    +1.0785458e-003
+2.5600000e+003    +7.3574384e-004
+2.5680000e+003    +3.3700366e-005
+2.5760000e+003    +4.9835886e-004
+2.5840000e+003    +2.9932015e-004
+2.5920000e+003    +3.1154053e-004
+2.6000000e+003    +1.4105665e-003
+2.6080000e+003    +8.5568218e-004
+2.6160000e+003    +8.7987224e-004
+2.6240000e+003    +1.6982885e-004
+2.6320000e+003    +6.1400584e-004
+2.6400000e+003    +2.4220943e-004
+2.6480000e+003    +8.5276202e-004
+2.6560000e+003    +3.3975666e-004
+2.6640000e+003    +1.8120985e-004
+2.6720000e+003    +3.2370185e-004
+2.6800000e+003    +2.9938409e-004
+2.6880000e+003    +9.5041626e-004
+2.6960000e+003    +5.7017436e-004
+2.7040000e+003    +6.1603502e-004
+2.7120000e+003    +5.5815448e-004
+2.7200000e+003    +9.1119070e-004
+2.7280000e+003    +1.4335507e-003
+2.7360000e+003    +1.8833744e-003
+2.7440000e+003    +2.9762654e-004
+2.7520000e+003    +9.0006611e-004
+2.7600000e+003    +6.5035169e-004
+2.7680000e+003    +3.7785619e-004
+2.7760000e+003    +3.2625286e-004
+2.7840000e+003    +3.3788267e-004
+2.7920000e+003    +3.4547955e-004
+2.8000000e+003    +1.6046064e-004
+2.8080000e+003    +1.3745414e-003
+2.8160000e+003    +1.6935812e-003
+2.8240000e+003    +2.9518947e-004
+2.8320000e+003    +1.7306025e-004
+2.8400000e+003    +2.0543605e-004
+2.8480000e+003    +4.0811393e-004
+2.8560000e+003    +5.5644760e-004
+2.8640000e+003    +4.0433466e-004
+2.8720000e+003    +5.3658150e-004
+2.8800000e+003    +4.9346016e-004
+2.8880000e+003    +4.1080776e-004
+2.8960000e+003    +2.5565430e-004
+2.9040000e+003    +4.8380138e-004
+2.9120000e+003    +5.8998680e-004
+2.9200000e+003    +6.4954779e-004
+2.9280000e+003    +9.0936822e-004
+2.9360000e+003    +2.0020264e-004
+2.9440000e+003    +1.1505852e-004
+2.9520000e+003    +5.4716540e-004
+2.9600000e+003    +8.7591744e-004
+2.9680000e+003    +2.8152039e-004
+2.9760000e+003    +1.5489563e-003
+2.9840000e+003    +1.0069869e-003
+2.9920000e+003    +3.6399945e-004
+3.0000000e+003    +5.5366132e-004
+3.0080000e+003    +2.4713340e-004
+3.0160000e+003    +4.4734357e-004
+3.0240000e+003    +4.3695758e-004
+3.0320000e+003    +2.7421067e-004
+3.0400000e+003    +6.0051575e-004
+3.0480000e+003    +2.8963282e-004
+3.0560000e+003    +1.2545731e-003
+3.0640000e+003    +7.6732947e-004
+3.0720000e+003    +1.3622254e-003
+3.0800000e+003    +6.7349861e-004
+3.0880000e+003    +1.1769121e-003
+3.0960000e+003    +6.7292317e-004
+3.1040000e+003    +5.8013404e-004
+3.1120000e+003    +7.9223805e-004
+3.1200000e+003    +5.0006626e-004
+3.1280000e+003    +2.2976319e-004
+3.1360000e+003    +2.6783108e-004
+3.1440000e+003    +2.5348994e-004
+3.1520000e+003    +1.2815229e-004
+3.1600000e+003    +5.0300348e-004
+3.1680000e+003    +3.3164286e-004
+3.1760000e+003    +2.4934340e-004
+3.1840000e+003    +1.1953185e-003
+3.1920000e+003    +1.0321639e-003
+3.2000000e+003    +7.4132835e-004
+3.2080000e+003    +9.1020775e-004
+3.2160000e+003    +6.6871615e-004
+3.2240000e+003    +1.8629091e-004
+3.2320000e+003    +3.1658629e-004
+3.2400000e+003    +1.4850595e-003
+3.2480000e+003    +1.5295624e-003
+3.2560000e+003    +1.4043535e-003
+3.2640000e+003    +1.0788869e-003
+3.2720000e+003    +7.7277055e-004
+3.2800000e+003    +1.3056681e-003
+3.2880000e+003    +1.1441655e-003
+3.2960000e+003    +1.2359617e-003
+3.3040000e+003    +5.4300600e-004
+3.3120000e+003    +1.9211625e-004
+3.3200000e+003    +8.5077563e-004
+3.3280000e+003    +4.2615409e-004
+3.3360000e+003    +8.5966033e-004
+3.3440000e+003    +7.3020137e-004
+3.3520000e+003    +9.9936454e-004
+3.3600000e+003    +1.5276793e-003
+3.3680000e+003    +1.5391954e-003
+3.3760000e+003    +7.9833111e-004
+3.3840000e+003    +4.9941795e-004
+3.3920000e+003    +6.7675533e-004
+3.4000000e+003    +1.1970022e-003
+3.4080000e+003    +1.7395017e-003
+3.4160000e+003    +1.2205966e-003
+3.4240000e+003    +1.1925172e-003
+3.4320000e+003    +1.9885905e-003
+3.4400000e+003    +1.2169435e-003
+3.4480000e+003    +1.5964516e-003
+3.4560000e+003    +1.5252199e-003
+3.4640000e+003    +1.9946150e-003
+3.4720000e+003    +1.5774569e-003
+3.4800000e+003    +1.4877629e-004
+3.4880000e+003    +2.8842312e-004
+3.4960000e+003    +5.1926525e-004
+3.5040000e+003    +3.4373190e-004
+3.5120000e+003    +5.9097487e-004
+3.5200000e+003    +1.0029281e-004
+3.5280000e+003    +2.5251726e-004
+3.5360000e+003    +1.4839276e-004
+3.5440000e+003    +6.0957216e-004
+3.5520000e+003    +6.7364727e-004
+3.5600000e+003    +6.9218449e-004
+3.5680000e+003    +3.6578989e-004
+3.5760000e+003    +3.1396604e-004
+3.5840000e+003    +6.0698885e-004
+3.5920000e+003    +7.3061360e-004
+3.6000000e+003    +7.3887839e-004
+3.6080000e+003    +3.3886888e-004
+3.6160000e+003    +5.5608997e-004
+3.6240000e+003    +5.7352590e-004
+3.6320000e+003    +8.1083761e-004
+3.6400000e+003    +4.3052621e-004
+3.6480000e+003    +1.5002600e-003
+3.6560000e+003    +1.7909353e-003
+3.6640000e+003    +1.5770708e-003
+3.6720000e+003    +3.1993841e-004
+3.6800000e+003    +4.1487685e-004
+3.6880000e+003    +7.0328946e-004
+3.6960000e+003    +1.5356868e-003
+3.7040000e+003    +1.9720842e-003
+3.7120000e+003    +8.4580347e-004
+3.7200000e+003    +4.3285175e-004
+3.7280000e+003    +2.5877249e-004
+3.7360000e+003    +6.1131845e-004
+3.7440000e+003    +4.1649389e-004
+3.7520000e+003    +3.1205112e-004
+3.7600000e+003    +3.1747791e-004
+3.7680000e+003    +8.1673381e-004
+3.7760000e+003    +6.1201258e-004
+3.7840000e+003    +1.3040542e-003
+3.7920000e+003    +3.4162437e-004
+3.8000000e+003    +3.1233989e-004
+3.8080000e+003    +3.7140405e-004
+3.8160000e+003    +2.3749552e-004
+3.8240000e+003    +3.9156293e-004
+3.8320000e+003    +2.5241179e-004
+3.8400000e+003    +1.8274784e-004
+3.8480000e+003    +5.1376654e-004
+3.8560000e+003    +6.4749707e-004
+3.8640000e+003    +1.8618550e-004
+3.8720000e+003    +4.2277877e-004
+3.8800000e+003    +8.8692509e-004
+3.8880000e+003    +6.8570120e-004
+3.8960000e+003    +6.2247820e-004
+3.9040000e+003    +4.9690495e-004
+3.9120000e+003    +4.7166698e-004
+3.9200000e+003    +2.3550414e-004
+3.9280000e+003    +3.3342312e-004
+3.9360000e+003    +6.5591175e-004
+3.9440000e+003    +1.0804986e-003
+3.9520000e+003    +1.2317012e-003
+3.9600000e+003    +9.1406045e-004
+3.9680000e+003    +8.2123931e-004
+3.9760000e+003    +1.3337630e-003
+3.9840000e+003    +6.3202123e-004
+3.9920000e+003    +3.3648271e-004
+4.0000000e+003    +7.9109066e-004
+4.0080000e+003    +4.2736580e-004
+4.0160000e+003    +5.8292714e-004
+4.0240000e+003    +5.6649646e-004
+4.0320000e+003    +4.6760659e-004
+4.0400000e+003    +7.3861721e-004
+4.0480000e+003    +4.1417958e-004
+4.0560000e+003    +4.0739920e-004
+4.0640000e+003    +8.2514924e-004
+4.0720000e+003    +7.3310017e-004
+4.0800000e+003    +4.6462932e-004
+4.0880000e+003    +2.6184201e-004
+4.0960000e+003    +2.0595335e-003
+4.1040000e+003    +1.8725360e-003
+4.1120000e+003    +1.6024339e-003
+4.1200000e+003    +8.0480060e-004
+4.1280000e+003    +4.0559316e-004
+4.1360000e+003    +5.5011228e-004
+4.1440000e+003    +7.4798689e-004
+4.1520000e+003    +9.3480496e-004
+4.1600000e+003    +6.8510219e-004
+4.1680000e+003    +1.7320957e-004
+4.1760000e+003    +8.6954002e-005
+4.1840000e+003    +3.5605280e-004
+4.1920000e+003    +4.2119165e-004
+4.2000000e+003    +4.3071722e-004
+4.2080000e+003    +5.8897422e-004
+4.2160000e+003    +1.8263923e-004
+4.2240000e+003    +1.7687253e-004
+4.2320000e+003    +4.8639337e-004
+4.2400000e+003    +3.8384282e-004
+4.2480000e+003    +8.0897106e-004
+4.2560000e+003    +6.0290832e-004
+4.2640000e+003    +9.8772068e-004
+4.2720000e+003    +9.4029517e-004
+4.2800000e+003    +5.4327078e-004
+4.2880000e+003    +1.5593311e-003
+4.2960000e+003    +1.4750251e-003
+4.3040000e+003    +8.7648456e-004
+4.3120000e+003    +9.2788314e-004
+4.3200000e+003    +5.4047868e-004
+4.3280000e+003    +3.0156097e-004
+4.3360000e+003    +1.6365766e-003
+4.3440000e+003    +1.1769225e-003
+4.3520000e+003    +1.2558547e-003
+4.3600000e+003    +1.1030462e-003
+4.3680000e+003    +1.1474767e-003
+4.3760000e+003    +7.5185468e-004
+4.3840000e+003    +5.3476152e-004
+4.3920000e+003    +3.2170158e-004
+4.4000000e+003    +6.9223391e-004
+4.4080000e+003    +9.3477778e-004
+4.4160000e+003    +4.6784335e-004
+4.4240000e+003    +3.4588852e-004
+4.4320000e+003    +7.3312555e-004
+4.4400000e+003    +1.1231498e-003
+4.4480000e+003    +2.6048999e-004
+4.4560000e+003    +3.1636632e-004
+4.4640000e+003    +3.2371090e-004
+4.4720000e+003    +1.0426565e-003
+4.4800000e+003    +9.3737186e-004
+4.4880000e+003    +9.8819798e-004
+4.4960000e+003    +1.3421114e-003
+4.5040000e+003    +1.1603449e-003
+4.5120000e+003    +1.7906207e-004
+4.5200000e+003    +4.2288951e-004
+4.5280000e+003    +6.3121883e-004
+4.5360000e+003    +9.0408185e-004
+4.5440000e+003    +2.9574064e-004
+4.5520000e+003    +1.7472234e-004
+4.5600000e+003    +2.9067663e-004
+4.5680000e+003    +1.7072633e-004
+4.5760000e+003    +8.2607841e-004
+4.5840000e+003    +7.8692031e-004
+4.5920000e+003    +4.3833785e-004
+4.6000000e+003    +3.2586229e-004
+4.6080000e+003    +3.9723143e-004
+4.6160000e+003    +4.2910644e-004
+4.6240000e+003    +1.3090708e-004
+4.6320000e+003    +6.0322415e-004
+4.6400000e+003    +1.0868378e-003
+4.6480000e+003    +1.0377546e-003
+4.6560000e+003    +2.7409103e-004
+4.6640000e+003    +7.9607376e-004
+4.6720000e+003    +9.5437787e-004
+4.6800000e+003    +1.1896101e-003
+4.6880000e+003    +8.3474594e-004
+4.6960000e+003    +5.6294736e-004
+4.7040000e+003    +1.0570280e-003
+4.7120000e+003    +1.1174664e-003
+4.7200000e+003    +5.0792529e-004
+4.7280000e+003    +8.6419337e-004
+4.7360000e+003    +6.9138396e-004
+4.7440000e+003    +8.7987275e-005
+4.7520000e+003    +4.0995167e-004
+4.7600000e+003    +5.2048045e-004
+4.7680000e+003    +6.8465702e-004
+4.7760000e+003    +3.5517037e-004
+4.7840000e+003    +1.0572990e-003
+4.7920000e+003    +1.1495511e-003
+4.8000000e+003    +3.6062588e-004
+4.8080000e+003    +2.3304920e-004
+4.8160000e+003    +8.5869955e-004
+4.8240000e+003    +8.3662098e-004
+4.8320000e+003    +3.9419532e-004
+4.8400000e+003    +5.1260978e-004
+4.8480000e+003    +9.3780831e-004
+4.8560000e+003    +9.8754989e-004
+4.8640000e+003    +3.1522385e-004
+4.8720000e+003    +6.1654957e-004
+4.8800000e+003    +4.7435434e-004
+4.8880000e+003    +3.8787024e-004
+4.8960000e+003    +3.6291601e-004
+4.9040000e+003    +1.1542331e-003
+4.9120000e+003    +1.0479940e-003
+4.9200000e+003    +2.2383852e-004
+4.9280000e+003    +5.1539653e-004
+4.9360000e+003    +4.2767561e-004
+4.9440000e+003    +1.1391815e-004
+4.9520000e+003    +6.8983709e-004
+4.9600000e+003    +8.8204618e-004
+4.9680000e+003    +3.8032336e-004
+4.9760000e+003    +4.1329127e-004
+4.9840000e+003    +2.8276618e-004
+4.9920000e+003    +7.6755736e-004
+5.0000000e+003    +4.2782308e-004
+5.0080000e+003    +2.3060656e-004
+5.0160000e+003    +5.2548555e-004
+5.0240000e+003    +6.2321196e-004
+5.0320000e+003    +1.7890771e-004
+5.0400000e+003    +8.7441027e-004
+5.0480000e+003    +3.0797443e-004
+5.0560000e+003    +3.5799807e-004
+5.0640000e+003    +4.1168372e-004
+5.0720000e+003    +5.3605629e-004
+5.0800000e+003    +4.0869936e-004
+5.0880000e+003    +7.7602448e-004
+5.0960000e+003    +4.7129762e-004
+5.1040000e+003    +6.2615948e-004
+5.1120000e+003    +7.8403164e-004
+5.1200000e+003    +7.4437226e-004
+5.1280000e+003    +9.5756131e-004
+5.1360000e+003    +3.6568870e-004
+5.1440000e+003    +6.2185415e-004
+5.1520000e+003    +4.1669217e-004
+5.1600000e+003    +5.3574971e-004
+5.1680000e+003    +3.2668730e-004
+5.1760000e+003    +3.7541945e-004
+5.1840000e+003    +1.7929805e-004
+5.1920000e+003    +1.0889904e-003
+5.2000000e+003    +6.8449316e-004
+5.2080000e+003    +4.5467992e-004
+5.2160000e+003    +7.3841162e-004
+5.2240000e+003    +5.1414745e-004
+5.2320000e+003    +3.7140568e-004
+5.2400000e+003    +1.3099874e-004
+5.2480000e+003    +2.6327375e-004
+5.2560000e+003    +3.2259204e-004
+5.2640000e+003    +4.6056733e-004
+5.2720000e+003    +3.9855143e-004
+5.2800000e+003    +1.5796511e-004
+5.2880000e+003    +2.9358952e-004
+5.2960000e+003    +3.7448041e-004
+5.3040000e+003    +2.7664064e-004
+5.3120000e+003    +2.6284758e-004
+5.3200000e+003    +5.6454551e-004
+5.3280000e+003    +2.4054773e-004
+5.3360000e+003    +3.7668683e-004
+5.3440000e+003    +3.4350346e-004
+5.3520000e+003    +4.0326527e-004
+5.3600000e+003    +6.1399775e-004
+5.3680000e+003    +6.4529234e-004
+5.3760000e+003    +7.3319115e-004
+5.3840000e+003    +7.4751355e-004
+5.3920000e+003    +4.7819549e-004
+5.4000000e+003    +7.7352650e-004
+5.4080000e+003    +3.2869910e-004
+5.4160000e+003    +5.2604405e-004
+5.4240000e+003    +3.7691023e-004
+5.4320000e+003    +4.2810454e-004
+5.4400000e+003    +5.5103598e-004
+5.4480000e+003    +1.0695933e-004
+5.4560000e+003    +4.7216078e-004
+5.4640000e+003    +2.8147636e-004
+5.4720000e+003    +5.3270138e-004
+5.4800000e+003    +6.0355739e-004
+5.4880000e+003    +7.8064861e-004
+5.4960000e+003    +4.1818083e-004
+5.5040000e+003    +3.6622331e-004
+5.5120000e+003    +2.1012516e-004
+5.5200000e+003    +4.3924071e-004
+5.5280000e+003    +7.0945872e-004
+5.5360000e+003    +5.1352434e-004
+5.5440000e+003    +4.0484950e-004
+5.5520000e+003    +6.7451468e-004
+5.5600000e+003    +3.6749674e-004
+5.5680000e+003    +3.5664064e-004
+5.5760000e+003    +7.9772697e-004
+5.5840000e+003    +7.3233311e-004
+5.5920000e+003    +1.6617750e-004
+5.6000000e+003    +1.8817725e-004
+5.6080000e+003    +4.4860717e-004
+5.6160000e+003    +8.2121493e-004
+5.6240000e+003    +8.3278283e-004
+5.6320000e+003    +8.4483449e-004
+5.6400000e+003    +5.9004483e-004
+5.6480000e+003    +4.6668516e-004
+5.6560000e+003    +5.4506352e-004
+5.6640000e+003    +3.6822437e-004
+5.6720000e+003    +1.6406678e-004
+5.6800000e+003    +2.4021545e-005
+5.6880000e+003    +4.4102097e-005
+5.6960000e+003    +2.9287380e-004
+5.7040000e+003    +3.1192249e-004
+5.7120000e+003    +3.8813351e-004
+5.7200000e+003    +1.2162703e-003
+5.7280000e+003    +1.3794354e-003
+5.7360000e+003    +1.0898797e-003
+5.7440000e+003    +3.9757811e-004
+5.7520000e+003    +3.8786812e-004
+5.7600000e+003    +2.1280716e-004
+5.7680000e+003    +5.4295384e-004
+5.7760000e+003    +3.5942066e-004
+5.7840000e+003    +3.1819244e-004
+5.7920000e+003    +5.8998972e-005
+5.8000000e+003    +7.2528340e-004
+5.8080000e+003    +8.1529981e-004
+5.8160000e+003    +5.1115360e-004
+5.8240000e+003    +7.6815428e-004
+5.8320000e+003    +5.9128384e-004
+5.8400000e+003    +2.6039334e-004
+5.8480000e+003    +3.3585451e-004
+5.8560000e+003    +1.5483408e-004
+5.8640000e+003    +2.6726280e-004
+5.8720000e+003    +3.6987392e-004
+5.8800000e+003    +1.7618563e-004
+5.8880000e+003    +1.8063914e-004
+5.8960000e+003    +1.3262870e-004
+5.9040000e+003    +6.2881300e-004
+5.9120000e+003    +7.0385070e-004
+5.9200000e+003    +5.1100040e-004
+5.9280000e+003    +3.1878095e-004
+5.9360000e+003    +1.6693752e-004
+5.9440000e+003    +5.3031690e-004
+5.9520000e+003    +6.0517812e-004
+5.9600000e+003    +8.9927734e-004
+5.9680000e+003    +8.4891415e-004
+5.9760000e+003    +6.8089750e-004
+5.9840000e+003    +3.2737275e-004
+5.9920000e+003    +3.0583300e-004
+6.0000000e+003    +2.6723684e-004
+6.0080000e+003    +9.3872315e-004
+6.0160000e+003    +7.0542545e-004
+6.0240000e+003    +4.2144541e-004
+6.0320000e+003    +1.6514628e-004
+6.0400000e+003    +7.5503840e-004
+6.0480000e+003    +1.0343954e-003
+6.0560000e+003    +8.0474932e-004
+6.0640000e+003    +1.1389577e-003
+6.0720000e+003    +3.7103865e-004
+6.0800000e+003    +6.4449757e-004
+6.0880000e+003    +6.6712883e-004
+6.0960000e+003    +8.2015165e-004
+6.1040000e+003    +3.1092440e-004
+6.1120000e+003    +6.6084607e-004
+6.1200000e+003    +5.5964442e-004
+6.1280000e+003    +2.3772092e-004
+6.1360000e+003    +3.5284818e-004
+6.1440000e+003    +5.1600242e-004
+6.1520000e+003    +6.4983417e-004
+6.1600000e+003    +7.0685241e-004
+6.1680000e+003    +1.2245351e-004
+6.1760000e+003    +1.8844915e-004
+6.1840000e+003    +2.3995896e-004
+6.1920000e+003    +2.3171975e-004
+6.2000000e+003    +6.6383567e-005
+6.2080000e+003    +3.5244395e-004
+6.2160000e+003    +5.0961587e-004
+6.2240000e+003    +5.3147599e-004
+6.2320000e+003    +4.1122633e-004
+6.2400000e+003    +6.7174980e-005
+6.2480000e+003    +7.1748573e-004
+6.2560000e+003    +5.7424168e-004
+6.2640000e+003    +6.7081122e-004
+6.2720000e+003    +4.9293053e-004
+6.2800000e+003    +1.9114933e-004
+6.2880000e+003    +3.6121893e-004
+6.2960000e+003    +3.3467196e-004
+6.3040000e+003    +2.9261585e-004
+6.3120000e+003    +1.1837054e-004
+6.3200000e+003    +3.8384218e-004
+6.3280000e+003    +6.3676777e-004
+6.3360000e+003    +7.9354999e-005
+6.3440000e+003    +2.3434407e-004
+6.3520000e+003    +2.2017800e-004
+6.3600000e+003    +4.9224799e-004
+6.3680000e+003    +4.4008670e-004
+6.3760000e+003    +2.9940857e-004
+6.3840000e+003    +7.9446012e-004
+6.3920000e+003    +9.0299308e-004
