# SR785 Measurement - Timestamp: Jan 04 2019 - 01:11:11
#---------- Measurement Setup ------------
# Start Frequency (Hz): 0.000000
# Frequency Span (Hz): 6400.000000
# Frequency Resolution: 800
# Number of Averages: 2
# Averaging Mode: None
# Window function: BMH
#---------- Measurement Parameters ----------
# Measurement Group:  "FFT" "FFT"
# Measurements:  "FFT 1" "FFT 2"
# View:  "Log Magnitude" "Log Magnitude"
# Unit:  "dBVpk" "Vrms/rtHz"
#---------- Input Parameters ----------
# Input Source: Analog
# Input Mode: Single ended, Single ended
# Input Grounding: Float, Float
# Input Coupling: AC, DC
# Input Range: -14.0dBVpk, 22.0dBVpk
# Auto Range: On, On
# Auto Range Mode: Up Only, Normal
# Anti-Aliasing Filter: On, On
#---------- Source Parameters ----------
# Source Type: Sine
# Source Amplitude: 500.0mVpk
# Source On: 0

#---------- Measurement Data ----------
# [Freq(Hz) Display 0(dBVpk) Display 1(Vrms/rtHz) ]
+0.0000000e+000    +1.7594136e-001
+8.0000000e+000    +1.1582546e-001
+1.6000000e+001    +3.3994045e-002
+2.4000000e+001    +4.2705410e-003
+3.2000000e+001    +3.8999836e-003
+4.0000000e+001    +4.4773817e-003
+4.8000000e+001    +4.2933030e-003
+5.6000000e+001    +2.1044251e-003
+6.4000000e+001    +7.5754611e-004
+7.2000000e+001    +4.6688554e-005
+8.0000000e+001    +5.5294080e-005
+8.8000000e+001    +2.2478660e-005
+9.6000000e+001    +5.9406277e-005
+1.0400000e+002    +9.8273391e-005
+1.1200000e+002    +9.4752701e-005
+1.2000000e+002    +9.8858756e-005
+1.2800000e+002    +5.1227951e-005
+1.3600000e+002    +1.2315430e-004
+1.4400000e+002    +1.0680970e-004
+1.5200000e+002    +1.6000849e-004
+1.6000000e+002    +1.2458565e-004
+1.6800000e+002    +5.6047240e-005
+1.7600000e+002    +5.4639640e-005
+1.8400000e+002    +2.0968255e-005
+1.9200000e+002    +3.4066885e-005
+2.0000000e+002    +3.7251899e-005
+2.0800000e+002    +5.2017826e-005
+2.1600000e+002    +6.1377432e-005
+2.2400000e+002    +6.6837594e-005
+2.3200000e+002    +3.3212295e-005
+2.4000000e+002    +3.3044758e-005
+2.4800000e+002    +3.0962237e-005
+2.5600000e+002    +1.1067068e-005
+2.6400000e+002    +4.3317028e-005
+2.7200000e+002    +6.2015606e-005
+2.8000000e+002    +5.7875346e-005
+2.8800000e+002    +3.0929041e-005
+2.9600000e+002    +5.9486425e-005
+3.0400000e+002    +6.3586827e-005
+3.1200000e+002    +3.8703391e-005
+3.2000000e+002    +4.0165152e-005
+3.2800000e+002    +2.9347896e-006
+3.3600000e+002    +3.7704827e-005
+3.4400000e+002    +4.1837968e-005
+3.5200000e+002    +5.4638440e-005
+3.6000000e+002    +1.5350412e-005
+3.6800000e+002    +1.2146014e-004
+3.7600000e+002    +1.4709333e-004
+3.8400000e+002    +8.8218367e-005
+3.9200000e+002    +1.0280204e-004
+4.0000000e+002    +4.6259222e-005
+4.0800000e+002    +7.9477417e-005
+4.1600000e+002    +5.3229036e-005
+4.2400000e+002    +3.2037569e-005
+4.3200000e+002    +4.6168752e-005
+4.4000000e+002    +9.4223607e-005
+4.4800000e+002    +1.0230677e-004
+4.5600000e+002    +5.8307342e-005
+4.6400000e+002    +1.5523052e-005
+4.7200000e+002    +2.9242203e-005
+4.8000000e+002    +5.3766253e-005
+4.8800000e+002    +3.5151450e-005
+4.9600000e+002    +6.1688341e-005
+5.0400000e+002    +4.4353153e-005
+5.1200000e+002    +8.7866116e-005
+5.2000000e+002    +6.5263601e-005
+5.2800000e+002    +2.8704351e-005
+5.3600000e+002    +7.8447127e-005
+5.4400000e+002    +1.5384529e-004
+5.5200000e+002    +8.7951921e-005
+5.6000000e+002    +5.4533197e-005
+5.6800000e+002    +1.1112131e-004
+5.7600000e+002    +1.2954781e-004
+5.8400000e+002    +1.4455996e-004
+5.9200000e+002    +1.6583620e-004
+6.0000000e+002    +1.9222766e-004
+6.0800000e+002    +1.8066820e-004
+6.1600000e+002    +1.8914897e-004
+6.2400000e+002    +1.6597392e-004
+6.3200000e+002    +1.3840587e-004
+6.4000000e+002    +5.4149376e-005
+6.4800000e+002    +8.4691485e-005
+6.5600000e+002    +7.9477853e-005
+6.6400000e+002    +5.1402556e-005
+6.7200000e+002    +3.0986484e-005
+6.8000000e+002    +2.4312985e-004
+6.8800000e+002    +2.0112589e-004
+6.9600000e+002    +1.6055263e-004
+7.0400000e+002    +2.1001318e-004
+7.1200000e+002    +1.3400897e-004
+7.2000000e+002    +1.8583413e-004
+7.2800000e+002    +1.1659616e-004
+7.3600000e+002    +4.8791051e-005
+7.4400000e+002    +6.2890831e-005
+7.5200000e+002    +1.3740110e-004
+7.6000000e+002    +1.7675887e-004
+7.6800000e+002    +1.5506272e-004
+7.7600000e+002    +1.2083498e-004
+7.8400000e+002    +1.4670480e-004
+7.9200000e+002    +1.3415360e-004
+8.0000000e+002    +2.0421816e-004
+8.0800000e+002    +1.6820573e-004
+8.1600000e+002    +9.4817740e-005
+8.2400000e+002    +2.4224014e-004
+8.3200000e+002    +2.9266550e-004
+8.4000000e+002    +3.9442544e-004
+8.4800000e+002    +1.0116831e-004
+8.5600000e+002    +6.5174740e-005
+8.6400000e+002    +8.5901542e-005
+8.7200000e+002    +9.5887277e-005
+8.8000000e+002    +4.4086872e-004
+8.8800000e+002    +4.4902135e-004
+8.9600000e+002    +1.2598136e-004
+9.0400000e+002    +3.4956817e-004
+9.1200000e+002    +2.0874488e-004
+9.2000000e+002    +9.8787037e-005
+9.2800000e+002    +2.3907324e-004
+9.3600000e+002    +3.4172207e-004
+9.4400000e+002    +3.2937410e-004
+9.5200000e+002    +2.4976785e-004
+9.6000000e+002    +1.0072181e-004
+9.6800000e+002    +3.4515975e-005
+9.7600000e+002    +1.7440820e-004
+9.8400000e+002    +4.3742297e-005
+9.9200000e+002    +1.2380676e-004
+1.0000000e+003    +1.6708927e-004
+1.0080000e+003    +2.5985183e-004
+1.0160000e+003    +2.2586600e-004
+1.0240000e+003    +1.2847708e-004
+1.0320000e+003    +1.2035282e-004
+1.0400000e+003    +1.1989864e-004
+1.0480000e+003    +3.4627592e-004
+1.0560000e+003    +3.2664838e-004
+1.0640000e+003    +1.9929490e-004
+1.0720000e+003    +3.6459602e-004
+1.0800000e+003    +3.5551214e-004
+1.0880000e+003    +3.3671648e-004
+1.0960000e+003    +3.1064817e-004
+1.1040000e+003    +1.4255130e-004
+1.1120000e+003    +3.6521221e-004
+1.1200000e+003    +3.8996604e-004
+1.1280000e+003    +2.2712232e-004
+1.1360000e+003    +3.0431681e-004
+1.1440000e+003    +2.5883684e-004
+1.1520000e+003    +5.6966842e-004
+1.1600000e+003    +5.1694713e-004
+1.1680000e+003    +3.8808450e-004
+1.1760000e+003    +5.0511648e-004
+1.1840000e+003    +5.3056149e-004
+1.1920000e+003    +1.9965945e-004
+1.2000000e+003    +2.4708023e-004
+1.2080000e+003    +2.9259146e-004
+1.2160000e+003    +2.7932957e-004
+1.2240000e+003    +4.0451804e-004
+1.2320000e+003    +7.9592515e-005
+1.2400000e+003    +1.3318636e-004
+1.2480000e+003    +2.2247317e-005
+1.2560000e+003    +1.8187270e-004
+1.2640000e+003    +1.5629356e-004
+1.2720000e+003    +3.3958661e-004
+1.2800000e+003    +3.4774048e-004
+1.2880000e+003    +2.6765352e-004
+1.2960000e+003    +3.8151949e-005
+1.3040000e+003    +3.1114809e-004
+1.3120000e+003    +1.8746023e-004
+1.3200000e+003    +4.6337050e-004
+1.3280000e+003    +3.2787654e-004
+1.3360000e+003    +1.2808236e-004
+1.3440000e+003    +2.1433017e-004
+1.3520000e+003    +2.9270488e-004
+1.3600000e+003    +4.2395576e-004
+1.3680000e+003    +1.6260476e-004
+1.3760000e+003    +1.0689499e-004
+1.3840000e+003    +3.8933477e-004
+1.3920000e+003    +3.5940527e-004
+1.4000000e+003    +3.5270603e-004
+1.4080000e+003    +3.2546915e-004
+1.4160000e+003    +3.6844658e-004
+1.4240000e+003    +1.6433207e-004
+1.4320000e+003    +3.3914135e-004
+1.4400000e+003    +4.2948610e-004
+1.4480000e+003    +5.5098481e-004
+1.4560000e+003    +5.4111460e-004
+1.4640000e+003    +4.6750315e-004
+1.4720000e+003    +3.0121731e-004
+1.4800000e+003    +9.7897217e-005
+1.4880000e+003    +1.2295900e-004
+1.4960000e+003    +4.6083998e-004
+1.5040000e+003    +1.3661812e-003
+1.5120000e+003    +1.2426550e-003
+1.5200000e+003    +3.2469086e-004
+1.5280000e+003    +1.7741264e-004
+1.5360000e+003    +1.3512505e-004
+1.5440000e+003    +5.3409667e-004
+1.5520000e+003    +3.6515266e-004
+1.5600000e+003    +2.2734974e-004
+1.5680000e+003    +5.6639197e-004
+1.5760000e+003    +1.6826198e-004
+1.5840000e+003    +1.9753652e-004
+1.5920000e+003    +2.0785067e-004
+1.6000000e+003    +1.4521441e-004
+1.6080000e+003    +4.8142960e-004
+1.6160000e+003    +6.0458941e-004
+1.6240000e+003    +1.0338237e-003
+1.6320000e+003    +8.1559439e-004
+1.6400000e+003    +3.9214161e-004
+1.6480000e+003    +4.8523533e-004
+1.6560000e+003    +5.5616477e-004
+1.6640000e+003    +6.4010615e-004
+1.6720000e+003    +5.0632446e-004
+1.6800000e+003    +3.6559135e-004
+1.6880000e+003    +4.1418709e-004
+1.6960000e+003    +3.3810089e-004
+1.7040000e+003    +3.4372284e-004
+1.7120000e+003    +9.6900119e-005
+1.7200000e+003    +5.6429766e-004
+1.7280000e+003    +6.7184126e-005
+1.7360000e+003    +5.4822740e-004
+1.7440000e+003    +1.0471836e-003
+1.7520000e+003    +8.2785171e-004
+1.7600000e+003    +5.5011286e-004
+1.7680000e+003    +5.3750729e-004
+1.7760000e+003    +2.3163555e-004
+1.7840000e+003    +2.5779696e-004
+1.7920000e+003    +2.7350709e-004
+1.8000000e+003    +1.9157027e-004
+1.8080000e+003    +2.9230167e-004
+1.8160000e+003    +4.1679628e-004
+1.8240000e+003    +4.8659259e-004
+1.8320000e+003    +4.3320860e-004
+1.8400000e+003    +4.6680149e-004
+1.8480000e+003    +6.9118204e-004
+1.8560000e+003    +6.8414980e-004
+1.8640000e+003    +5.4228655e-004
+1.8720000e+003    +1.0976995e-003
+1.8800000e+003    +8.9822052e-004
+1.8880000e+003    +9.1621926e-004
+1.8960000e+003    +8.8529399e-004
+1.9040000e+003    +1.7467352e-004
+1.9120000e+003    +2.6088970e-004
+1.9200000e+003    +8.6908619e-004
+1.9280000e+003    +5.4725196e-004
+1.9360000e+003    +1.9351857e-004
+1.9440000e+003    +6.3823134e-004
+1.9520000e+003    +5.0110283e-004
+1.9600000e+003    +7.2712166e-004
+1.9680000e+003    +6.6918728e-004
+1.9760000e+003    +3.5069496e-004
+1.9840000e+003    +3.5501656e-004
+1.9920000e+003    +2.5157884e-004
+2.0000000e+003    +6.6203711e-004
+2.0080000e+003    +7.7365938e-004
+2.0160000e+003    +1.0771558e-003
+2.0240000e+003    +5.1647855e-004
+2.0320000e+003    +5.2061933e-004
+2.0400000e+003    +2.9112762e-004
+2.0480000e+003    +7.5479678e-004
+2.0560000e+003    +5.8452395e-004
+2.0640000e+003    +5.2432972e-004
+2.0720000e+003    +3.5811227e-004
+2.0800000e+003    +3.1852938e-004
+2.0880000e+003    +1.6062589e-004
+2.0960000e+003    +2.1380497e-004
+2.1040000e+003    +2.0750407e-004
+2.1120000e+003    +2.9239315e-004
+2.1200000e+003    +5.3045462e-004
+2.1280000e+003    +7.8359275e-004
+2.1360000e+003    +6.4229773e-004
+2.1440000e+003    +4.9820734e-004
+2.1520000e+003    +9.0397865e-004
+2.1600000e+003    +3.6293452e-004
+2.1680000e+003    +1.6676597e-004
+2.1760000e+003    +3.3691747e-004
+2.1840000e+003    +4.7513074e-004
+2.1920000e+003    +6.5318297e-004
+2.2000000e+003    +2.1281184e-004
+2.2080000e+003    +2.9424913e-004
+2.2160000e+003    +1.8303811e-004
+2.2240000e+003    +7.7592221e-004
+2.2320000e+003    +6.0928578e-004
+2.2400000e+003    +3.9629158e-004
+2.2480000e+003    +6.7927374e-004
+2.2560000e+003    +7.0803968e-004
+2.2640000e+003    +7.8506407e-004
+2.2720000e+003    +6.8212353e-004
+2.2800000e+003    +7.3084509e-004
+2.2880000e+003    +7.1921851e-004
+2.2960000e+003    +8.5401617e-004
+2.3040000e+003    +4.7160743e-004
+2.3120000e+003    +4.3182453e-004
+2.3200000e+003    +4.4125880e-004
+2.3280000e+003    +4.2866636e-004
+2.3360000e+003    +1.0460644e-003
+2.3440000e+003    +1.0784297e-003
+2.3520000e+003    +6.4930180e-004
+2.3600000e+003    +7.2806072e-004
+2.3680000e+003    +7.0071046e-004
+2.3760000e+003    +7.0211018e-004
+2.3840000e+003    +5.7696365e-004
+2.3920000e+003    +5.4225710e-004
+2.4000000e+003    +1.7606573e-004
+2.4080000e+003    +6.5283489e-004
+2.4160000e+003    +7.1405026e-004
+2.4240000e+003    +1.0910362e-003
+2.4320000e+003    +1.0625195e-003
+2.4400000e+003    +8.3001598e-004
+2.4480000e+003    +8.4959529e-004
+2.4560000e+003    +1.3469023e-003
+2.4640000e+003    +5.3481170e-004
+2.4720000e+003    +2.7294099e-004
+2.4800000e+003    +2.0886478e-003
+2.4880000e+003    +2.3895463e-003
+2.4960000e+003    +2.6419878e-003
+2.5040000e+003    +9.8623766e-004
+2.5120000e+003    +9.2661718e-004
+2.5200000e+003    +5.8995670e-004
+2.5280000e+003    +2.7201447e-004
+2.5360000e+003    +1.8782170e-004
+2.5440000e+003    +4.7592487e-004
+2.5520000e+003    +4.7396988e-004
+2.5600000e+003    +5.7056919e-004
+2.5680000e+003    +3.0700379e-004
+2.5760000e+003    +1.6954947e-004
+2.5840000e+003    +1.6019781e-004
+2.5920000e+003    +1.0938579e-003
+2.6000000e+003    +9.8861253e-004
+2.6080000e+003    +4.2596582e-004
+2.6160000e+003    +5.5775658e-004
+2.6240000e+003    +6.3235650e-004
+2.6320000e+003    +3.1927781e-004
+2.6400000e+003    +9.4015890e-004
+2.6480000e+003    +6.9340691e-004
+2.6560000e+003    +6.0936273e-004
+2.6640000e+003    +4.4626431e-004
+2.6720000e+003    +1.3790356e-003
+2.6800000e+003    +9.4571436e-004
+2.6880000e+003    +9.7707740e-004
+2.6960000e+003    +8.2071649e-004
+2.7040000e+003    +7.5952243e-004
+2.7120000e+003    +3.3276866e-004
+2.7200000e+003    +6.5279799e-004
+2.7280000e+003    +2.3542077e-004
+2.7360000e+003    +2.6325727e-004
+2.7440000e+003    +3.5750159e-004
+2.7520000e+003    +4.8288490e-005
+2.7600000e+003    +1.5982949e-003
+2.7680000e+003    +1.8900583e-003
+2.7760000e+003    +1.6361130e-003
+2.7840000e+003    +1.1095642e-003
+2.7920000e+003    +5.6810625e-004
+2.8000000e+003    +5.0179078e-004
+2.8080000e+003    +8.3264202e-004
+2.8160000e+003    +6.9775933e-004
+2.8240000e+003    +9.3725452e-004
+2.8320000e+003    +6.6949963e-004
+2.8400000e+003    +8.5773604e-004
+2.8480000e+003    +5.4627610e-004
+2.8560000e+003    +4.0876801e-004
+2.8640000e+003    +5.0720805e-004
+2.8720000e+003    +4.4520598e-004
+2.8800000e+003    +1.9847711e-004
+2.8880000e+003    +1.9259947e-004
+2.8960000e+003    +7.3028839e-004
+2.9040000e+003    +5.6709576e-004
+2.9120000e+003    +1.7079223e-004
+2.9200000e+003    +7.4878929e-004
+2.9280000e+003    +5.5273232e-004
+2.9360000e+003    +7.4068928e-004
+2.9440000e+003    +7.2211534e-004
+2.9520000e+003    +4.1878366e-004
+2.9600000e+003    +1.5242355e-003
+2.9680000e+003    +1.1130142e-003
+2.9760000e+003    +3.4489267e-004
+2.9840000e+003    +4.4457417e-004
+2.9920000e+003    +5.2276708e-004
+3.0000000e+003    +2.2988531e-003
+3.0080000e+003    +1.9911740e-003
+3.0160000e+003    +1.8967991e-003
+3.0240000e+003    +8.1968174e-004
+3.0320000e+003    +8.1657240e-004
+3.0400000e+003    +9.3874166e-004
+3.0480000e+003    +7.4462767e-004
+3.0560000e+003    +9.3007355e-004
+3.0640000e+003    +4.9586425e-004
+3.0720000e+003    +6.2063523e-004
+3.0800000e+003    +1.4071139e-003
+3.0880000e+003    +1.8000884e-003
+3.0960000e+003    +2.7726035e-004
+3.1040000e+003    +3.2466039e-004
+3.1120000e+003    +9.6276337e-005
+3.1200000e+003    +8.5309544e-004
+3.1280000e+003    +8.0991490e-004
+3.1360000e+003    +4.2782378e-004
+3.1440000e+003    +4.8375572e-004
+3.1520000e+003    +3.1678969e-004
+3.1600000e+003    +7.1650406e-004
+3.1680000e+003    +5.9343170e-004
+3.1760000e+003    +9.1099314e-004
+3.1840000e+003    +3.0888605e-004
+3.1920000e+003    +1.0379524e-003
+3.2000000e+003    +1.2241774e-003
+3.2080000e+003    +1.3279598e-003
+3.2160000e+003    +2.4709772e-004
+3.2240000e+003    +1.0985514e-004
+3.2320000e+003    +8.3871838e-004
+3.2400000e+003    +9.0060389e-004
+3.2480000e+003    +6.3763949e-004
+3.2560000e+003    +5.3460215e-004
+3.2640000e+003    +3.1798723e-004
+3.2720000e+003    +6.2792923e-004
+3.2800000e+003    +8.9583558e-004
+3.2880000e+003    +5.3699967e-004
+3.2960000e+003    +5.0555373e-004
+3.3040000e+003    +3.1766985e-004
+3.3120000e+003    +3.0082301e-004
+3.3200000e+003    +1.9380638e-004
+3.3280000e+003    +8.1207376e-004
+3.3360000e+003    +6.0674199e-004
+3.3440000e+003    +6.8082759e-004
+3.3520000e+003    +9.9222444e-004
+3.3600000e+003    +2.8101192e-004
+3.3680000e+003    +1.5789532e-004
+3.3760000e+003    +1.4990391e-004
+3.3840000e+003    +2.6513723e-004
+3.3920000e+003    +7.2153322e-005
+3.4000000e+003    +7.5806322e-004
+3.4080000e+003    +8.0459652e-004
+3.4160000e+003    +7.9909363e-004
+3.4240000e+003    +6.2361616e-004
+3.4320000e+003    +4.1057667e-004
+3.4400000e+003    +1.1348384e-003
+3.4480000e+003    +7.3038740e-004
+3.4560000e+003    +3.8963626e-004
+3.4640000e+003    +7.1172713e-004
+3.4720000e+003    +7.2851451e-004
+3.4800000e+003    +1.3587219e-003
+3.4880000e+003    +8.0749934e-004
+3.4960000e+003    +1.4966290e-003
+3.5040000e+003    +1.6964901e-003
+3.5120000e+003    +1.6656851e-003
+3.5200000e+003    +2.7112695e-004
+3.5280000e+003    +3.8930550e-004
+3.5360000e+003    +7.8372139e-004
+3.5440000e+003    +7.4284588e-004
+3.5520000e+003    +6.1358092e-004
+3.5600000e+003    +5.8640481e-004
+3.5680000e+003    +7.3089323e-004
+3.5760000e+003    +6.1091053e-004
+3.5840000e+003    +4.7515446e-004
+3.5920000e+003    +9.7236049e-004
+3.6000000e+003    +2.8153972e-004
+3.6080000e+003    +9.4950886e-004
+3.6160000e+003    +7.3820651e-005
+3.6240000e+003    +1.4771312e-004
+3.6320000e+003    +5.6013680e-004
+3.6400000e+003    +7.6225220e-004
+3.6480000e+003    +4.0683665e-004
+3.6560000e+003    +5.5867439e-004
+3.6640000e+003    +8.1013684e-004
+3.6720000e+003    +5.3834327e-004
+3.6800000e+003    +3.1247505e-004
+3.6880000e+003    +1.1935219e-004
+3.6960000e+003    +4.8789580e-004
+3.7040000e+003    +7.5625221e-004
+3.7120000e+003    +1.3192577e-003
+3.7200000e+003    +1.4807027e-003
+3.7280000e+003    +8.4197312e-004
+3.7360000e+003    +1.1180376e-003
+3.7440000e+003    +5.4601947e-004
+3.7520000e+003    +9.1753452e-004
+3.7600000e+003    +8.8642567e-004
+3.7680000e+003    +7.8578625e-004
+3.7760000e+003    +9.8779658e-004
+3.7840000e+003    +3.3241956e-004
+3.7920000e+003    +9.7588729e-004
+3.8000000e+003    +1.0738047e-003
+3.8080000e+003    +2.8417920e-004
+3.8160000e+003    +6.1217218e-004
+3.8240000e+003    +9.4664103e-004
+3.8320000e+003    +1.4938578e-003
+3.8400000e+003    +8.4699021e-004
+3.8480000e+003    +1.0372727e-003
+3.8560000e+003    +4.0610830e-004
+3.8640000e+003    +2.3569544e-004
+3.8720000e+003    +4.8102593e-004
+3.8800000e+003    +6.1754585e-004
+3.8880000e+003    +8.5688935e-004
+3.8960000e+003    +5.3115895e-005
+3.9040000e+003    +2.3201901e-004
+3.9120000e+003    +6.8241416e-004
+3.9200000e+003    +4.8984477e-004
+3.9280000e+003    +7.7005936e-004
+3.9360000e+003    +9.1053010e-004
+3.9440000e+003    +9.3359000e-004
+3.9520000e+003    +5.6771777e-004
+3.9600000e+003    +1.3917551e-003
+3.9680000e+003    +1.1414903e-003
+3.9760000e+003    +9.3040348e-004
+3.9840000e+003    +6.4182188e-004
+3.9920000e+003    +7.1585691e-004
+4.0000000e+003    +2.1768973e-004
+4.0080000e+003    +1.6652517e-003
+4.0160000e+003    +4.2192484e-004
+4.0240000e+003    +8.0118800e-004
+4.0320000e+003    +1.0860052e-003
+4.0400000e+003    +9.5842913e-004
+4.0480000e+003    +1.5592361e-003
+4.0560000e+003    +5.5822707e-004
+4.0640000e+003    +1.9634496e-004
+4.0720000e+003    +1.1409126e-003
+4.0800000e+003    +4.5578580e-004
+4.0880000e+003    +1.1022242e-003
+4.0960000e+003    +1.0510286e-003
+4.1040000e+003    +1.1325462e-003
+4.1120000e+003    +3.3247593e-004
+4.1200000e+003    +5.3001189e-004
+4.1280000e+003    +4.8180530e-004
+4.1360000e+003    +8.5241190e-004
+4.1440000e+003    +6.7772350e-004
+4.1520000e+003    +1.9081603e-004
+4.1600000e+003    +2.9788679e-004
+4.1680000e+003    +3.9227834e-004
+4.1760000e+003    +3.1670119e-004
+4.1840000e+003    +3.0917497e-004
+4.1920000e+003    +4.7328917e-004
+4.2000000e+003    +3.5621389e-004
+4.2080000e+003    +3.6167391e-004
+4.2160000e+003    +2.1073141e-004
+4.2240000e+003    +2.1670245e-004
+4.2320000e+003    +6.2169542e-004
+4.2400000e+003    +9.1336471e-005
+4.2480000e+003    +2.2629791e-004
+4.2560000e+003    +3.1272904e-004
+4.2640000e+003    +3.7077049e-004
+4.2720000e+003    +3.4378888e-004
+4.2800000e+003    +5.6684361e-004
+4.2880000e+003    +1.9496582e-004
+4.2960000e+003    +2.7081769e-004
+4.3040000e+003    +6.0523133e-004
+4.3120000e+003    +4.3740423e-004
+4.3200000e+003    +8.2583132e-004
+4.3280000e+003    +7.1965891e-004
+4.3360000e+003    +5.3610600e-004
+4.3440000e+003    +3.8330164e-004
+4.3520000e+003    +3.7821854e-004
+4.3600000e+003    +2.2934140e-004
+4.3680000e+003    +3.6696129e-004
+4.3760000e+003    +1.6552660e-004
+4.3840000e+003    +4.3647113e-004
+4.3920000e+003    +2.4838952e-004
+4.4000000e+003    +6.5097214e-005
+4.4080000e+003    +5.1503931e-004
+4.4160000e+003    +6.7985314e-004
+4.4240000e+003    +7.1783992e-004
+4.4320000e+003    +7.1841117e-004
+4.4400000e+003    +5.2711021e-005
+4.4480000e+003    +3.6502760e-004
+4.4560000e+003    +3.2620755e-004
+4.4640000e+003    +3.7901671e-004
+4.4720000e+003    +9.9828649e-005
+4.4800000e+003    +1.0546074e-003
+4.4880000e+003    +7.0120074e-004
+4.4960000e+003    +4.6222439e-004
+4.5040000e+003    +2.4100958e-004
+4.5120000e+003    +1.6744004e-004
+4.5200000e+003    +3.8207200e-004
+4.5280000e+003    +9.7704789e-005
+4.5360000e+003    +1.9753652e-004
+4.5440000e+003    +3.9068281e-004
+4.5520000e+003    +1.2670826e-004
+4.5600000e+003    +6.1438617e-004
+4.5680000e+003    +4.0878955e-004
+4.5760000e+003    +5.9866719e-004
+4.5840000e+003    +6.5027527e-004
+4.5920000e+003    +8.7812881e-004
+4.6000000e+003    +1.1084975e-003
+4.6080000e+003    +9.8403823e-004
+4.6160000e+003    +4.3924214e-004
+4.6240000e+003    +3.1284339e-004
+4.6320000e+003    +1.6366682e-004
+4.6400000e+003    +1.2599830e-004
+4.6480000e+003    +3.8107031e-004
+4.6560000e+003    +5.8188896e-005
+4.6640000e+003    +1.9009470e-004
+4.6720000e+003    +6.9252279e-004
+4.6800000e+003    +7.3406915e-004
+4.6880000e+003    +2.2055206e-004
+4.6960000e+003    +2.9348073e-004
+4.7040000e+003    +1.7653282e-004
+4.7120000e+003    +5.9064955e-004
+4.7200000e+003    +5.0198555e-004
+4.7280000e+003    +6.1049510e-004
+4.7360000e+003    +1.4242216e-003
+4.7440000e+003    +1.0408756e-003
+4.7520000e+003    +1.8164022e-004
+4.7600000e+003    +1.7984222e-004
+4.7680000e+003    +3.6187927e-004
+4.7760000e+003    +5.1011832e-004
+4.7840000e+003    +4.0140771e-004
+4.7920000e+003    +2.7395069e-004
+4.8000000e+003    +1.0280582e-003
+4.8080000e+003    +1.7515239e-003
+4.8160000e+003    +3.5343113e-004
+4.8240000e+003    +2.1023340e-004
+4.8320000e+003    +1.7196922e-004
+4.8400000e+003    +7.2811707e-004
+4.8480000e+003    +8.4660714e-005
+4.8560000e+003    +2.7176892e-004
+4.8640000e+003    +1.3401727e-003
+4.8720000e+003    +1.6152820e-003
+4.8800000e+003    +5.0845422e-004
+4.8880000e+003    +6.7468948e-004
+4.8960000e+003    +2.8463543e-004
+4.9040000e+003    +5.6793477e-004
+4.9120000e+003    +2.8147417e-004
+4.9200000e+003    +4.5457511e-004
+4.9280000e+003    +5.4329884e-004
+4.9360000e+003    +3.6072647e-004
+4.9440000e+003    +3.7639742e-004
+4.9520000e+003    +1.3737885e-004
+4.9600000e+003    +2.9681073e-004
+4.9680000e+003    +3.0264843e-004
+4.9760000e+003    +1.0188109e-004
+4.9840000e+003    +5.1508966e-004
+4.9920000e+003    +3.0907113e-004
+5.0000000e+003    +3.4180202e-004
+5.0080000e+003    +5.8822235e-004
+5.0160000e+003    +4.3975873e-004
+5.0240000e+003    +1.5097557e-004
+5.0320000e+003    +5.1619846e-004
+5.0400000e+003    +8.4422110e-004
+5.0480000e+003    +4.6729788e-004
+5.0560000e+003    +1.0309820e-003
+5.0640000e+003    +8.0704107e-005
+5.0720000e+003    +8.6708125e-005
+5.0800000e+003    +6.4237109e-005
+5.0880000e+003    +1.1427355e-003
+5.0960000e+003    +1.7254021e-004
+5.1040000e+003    +2.3961854e-004
+5.1120000e+003    +4.2650892e-004
+5.1200000e+003    +3.2648633e-004
+5.1280000e+003    +1.6421358e-004
+5.1360000e+003    +5.8835378e-004
+5.1440000e+003    +8.7591214e-004
+5.1520000e+003    +2.4414301e-004
+5.1600000e+003    +1.5852005e-004
+5.1680000e+003    +3.8133314e-004
+5.1760000e+003    +4.0954541e-004
+5.1840000e+003    +5.0979049e-004
+5.1920000e+003    +4.9665762e-004
+5.2000000e+003    +6.0751726e-004
+5.2080000e+003    +5.7453429e-004
+5.2160000e+003    +5.1704590e-004
+5.2240000e+003    +6.2600791e-004
+5.2320000e+003    +2.0526323e-004
+5.2400000e+003    +8.3652725e-005
+5.2480000e+003    +6.9575541e-004
+5.2560000e+003    +6.4189202e-004
+5.2640000e+003    +1.3793135e-003
+5.2720000e+003    +1.0819837e-003
+5.2800000e+003    +1.1229661e-003
+5.2880000e+003    +9.4806449e-004
+5.2960000e+003    +3.2744772e-004
+5.3040000e+003    +2.6740707e-004
+5.3120000e+003    +3.2433795e-004
+5.3200000e+003    +1.3531925e-004
+5.3280000e+003    +4.5675164e-004
+5.3360000e+003    +7.8771607e-004
+5.3440000e+003    +7.7826687e-004
+5.3520000e+003    +7.0175104e-004
+5.3600000e+003    +4.4662581e-004
+5.3680000e+003    +4.3610635e-004
+5.3760000e+003    +3.3332504e-004
+5.3840000e+003    +6.7511224e-004
+5.3920000e+003    +3.0387609e-004
+5.4000000e+003    +2.3623095e-004
+5.4080000e+003    +1.2460221e-004
+5.4160000e+003    +7.4033072e-005
+5.4240000e+003    +2.6235223e-004
+5.4320000e+003    +4.4420603e-004
+5.4400000e+003    +5.9967302e-004
+5.4480000e+003    +6.0572528e-004
+5.4560000e+003    +1.9889540e-004
+5.4640000e+003    +9.3124458e-005
+5.4720000e+003    +5.0366914e-004
+5.4800000e+003    +2.8951853e-004
+5.4880000e+003    +3.6078808e-004
+5.4960000e+003    +3.4866048e-004
+5.5040000e+003    +8.7631278e-004
+5.5120000e+003    +5.3074182e-004
+5.5200000e+003    +2.8686423e-004
+5.5280000e+003    +4.6396255e-004
+5.5360000e+003    +4.7658163e-004
+5.5440000e+003    +8.5691665e-004
+5.5520000e+003    +3.5215385e-004
+5.5600000e+003    +5.3456571e-004
+5.5680000e+003    +4.6618967e-004
+5.5760000e+003    +3.8762565e-004
+5.5840000e+003    +2.3508976e-004
+5.5920000e+003    +3.0482913e-004
+5.6000000e+003    +4.0363913e-004
+5.6080000e+003    +3.1731988e-004
+5.6160000e+003    +6.8961221e-005
+5.6240000e+003    +3.3502106e-004
+5.6320000e+003    +2.3817249e-004
+5.6400000e+003    +4.5297804e-004
+5.6480000e+003    +1.2083126e-004
+5.6560000e+003    +5.8261008e-005
+5.6640000e+003    +5.9875986e-004
+5.6720000e+003    +4.9089006e-004
+5.6800000e+003    +4.2849392e-004
+5.6880000e+003    +4.2564346e-004
+5.6960000e+003    +1.2862911e-003
+5.7040000e+003    +2.9540705e-004
+5.7120000e+003    +4.4548861e-004
+5.7200000e+003    +7.4378279e-004
+5.7280000e+003    +4.1653047e-004
+5.7360000e+003    +6.5884000e-004
+5.7440000e+003    +3.0311369e-004
+5.7520000e+003    +1.5282279e-004
+5.7600000e+003    +2.8564321e-004
+5.7680000e+003    +4.1374032e-004
+5.7760000e+003    +2.8786299e-004
+5.7840000e+003    +1.9972687e-004
+5.7920000e+003    +2.3510021e-005
+5.8000000e+003    +1.6428417e-004
+5.8080000e+003    +2.7277847e-004
+5.8160000e+003    +3.2749696e-004
+5.8240000e+003    +8.6593250e-004
+5.8320000e+003    +5.2364281e-005
+5.8400000e+003    +1.5339367e-004
+5.8480000e+003    +2.1733747e-004
+5.8560000e+003    +8.0396421e-004
+5.8640000e+003    +8.8144204e-004
+5.8720000e+003    +3.6500517e-004
+5.8800000e+003    +1.5594988e-004
+5.8880000e+003    +5.4112379e-004
+5.8960000e+003    +6.3386350e-004
+5.9040000e+003    +5.6097907e-004
+5.9120000e+003    +3.3190841e-004
+5.9200000e+003    +5.9168611e-004
+5.9280000e+003    +5.9979287e-004
+5.9360000e+003    +2.8644470e-004
+5.9440000e+003    +4.3502936e-004
+5.9520000e+003    +5.8469595e-004
+5.9600000e+003    +1.9764575e-005
+5.9680000e+003    +2.2178565e-004
+5.9760000e+003    +4.0195548e-004
+5.9840000e+003    +7.2253449e-004
+5.9920000e+003    +5.2806048e-004
+6.0000000e+003    +5.3359318e-004
+6.0080000e+003    +2.6823292e-004
+6.0160000e+003    +8.8895584e-004
+6.0240000e+003    +7.7785808e-004
+6.0320000e+003    +7.6986029e-004
+6.0400000e+003    +5.7660299e-004
+6.0480000e+003    +4.6577217e-004
+6.0560000e+003    +1.0216713e-004
+6.0640000e+003    +9.4000097e-005
+6.0720000e+003    +6.8666553e-004
+6.0800000e+003    +1.7928280e-004
+6.0880000e+003    +3.3925922e-004
+6.0960000e+003    +7.1154194e-005
+6.1040000e+003    +1.4676908e-005
+6.1120000e+003    +3.7566519e-005
+6.1200000e+003    +9.3102275e-004
+6.1280000e+003    +8.2640816e-004
+6.1360000e+003    +1.6896176e-003
+6.1440000e+003    +4.1335888e-004
+6.1520000e+003    +4.5377499e-004
+6.1600000e+003    +4.9967685e-004
+6.1680000e+003    +1.8606044e-004
+6.1760000e+003    +3.1003400e-004
+6.1840000e+003    +2.7088431e-004
+6.1920000e+003    +2.1904026e-004
+6.2000000e+003    +3.0534013e-004
+6.2080000e+003    +7.7305484e-004
+6.2160000e+003    +4.3938926e-004
+6.2240000e+003    +5.0771871e-004
+6.2320000e+003    +7.1662245e-004
+6.2400000e+003    +6.1612797e-004
+6.2480000e+003    +7.1723684e-004
+6.2560000e+003    +4.3635492e-004
+6.2640000e+003    +3.0336404e-004
+6.2720000e+003    +9.8867062e-004
+6.2800000e+003    +1.2154980e-003
+6.2880000e+003    +4.3404868e-004
+6.2960000e+003    +2.9848740e-004
+6.3040000e+003    +7.2673656e-004
+6.3120000e+003    +3.5980958e-004
+6.3200000e+003    +5.4292136e-004
+6.3280000e+003    +3.1124768e-004
+6.3360000e+003    +1.9351613e-004
+6.3440000e+003    +9.4010733e-004
+6.3520000e+003    +9.2315895e-004
+6.3600000e+003    +1.1583109e-003
+6.3680000e+003    +2.4991666e-004
+6.3760000e+003    +1.8591963e-004
+6.3840000e+003    +5.7777413e-004
+6.3920000e+003    +8.2271895e-004
