# SR785 Measurement - Timestamp: Jan 03 2019 - 23:19:28
#---------- Measurement Setup ------------
# Start Frequency (Hz): 0.000000
# Frequency Span (Hz): 6400.000000
# Frequency Resolution: 800
# Number of Averages: 2
# Averaging Mode: None
# Window function: BMH
#---------- Measurement Parameters ----------
# Measurement Group:  "FFT" "FFT"
# Measurements:  "FFT 1" "FFT 2"
# View:  "Log Magnitude" "Log Magnitude"
# Unit:  "dBVpk" "Vrms/rtHz"
#---------- Input Parameters ----------
# Input Source: Analog
# Input Mode: Single ended, Single ended
# Input Grounding: Float, Float
# Input Coupling: AC, DC
# Input Range: -14.0dBVpk, 22.0dBVpk
# Auto Range: On, On
# Auto Range Mode: Up Only, Normal
# Anti-Aliasing Filter: On, On
#---------- Source Parameters ----------
# Source Type: Sine
# Source Amplitude: 500.0mVpk
# Source On: 0

#---------- Measurement Data ----------
# [Freq(Hz) Display 0(dBVpk) Display 1(Vrms/rtHz) ]
+0.0000000e+000    +2.5834769e-001
+8.0000000e+000    +1.7441265e-001
+1.6000000e+001    +5.1099729e-002
+2.4000000e+001    +5.8568609e-003
+3.2000000e+001    +2.2435202e-003
+4.0000000e+001    +1.9209252e-003
+4.8000000e+001    +1.2433238e-004
+5.6000000e+001    +5.1955438e-005
+6.4000000e+001    +2.6131642e-005
+7.2000000e+001    +1.1860849e-005
+8.0000000e+001    +4.6774243e-005
+8.8000000e+001    +2.1330074e-005
+9.6000000e+001    +7.1380884e-005
+1.0400000e+002    +1.1903136e-004
+1.1200000e+002    +1.6240144e-004
+1.2000000e+002    +1.3846584e-004
+1.2800000e+002    +9.6521573e-005
+1.3600000e+002    +9.6968550e-005
+1.4400000e+002    +4.3654974e-005
+1.5200000e+002    +7.1627794e-005
+1.6000000e+002    +9.2794784e-005
+1.6800000e+002    +5.7901598e-005
+1.7600000e+002    +3.2585638e-005
+1.8400000e+002    +7.1013477e-005
+1.9200000e+002    +3.2556814e-005
+2.0000000e+002    +1.7011886e-005
+2.0800000e+002    +3.3362983e-005
+2.1600000e+002    +2.2731518e-005
+2.2400000e+002    +5.5650989e-006
+2.3200000e+002    +4.2250987e-005
+2.4000000e+002    +9.9794452e-006
+2.4800000e+002    +5.2189389e-005
+2.5600000e+002    +6.6540604e-005
+2.6400000e+002    +3.9821811e-005
+2.7200000e+002    +2.5075497e-005
+2.8000000e+002    +6.9451249e-005
+2.8800000e+002    +7.0994924e-005
+2.9600000e+002    +7.7848395e-005
+3.0400000e+002    +6.0662107e-005
+3.1200000e+002    +4.9252696e-005
+3.2000000e+002    +3.4514913e-005
+3.2800000e+002    +5.5364064e-005
+3.3600000e+002    +1.8365341e-005
+3.4400000e+002    +3.3007047e-005
+3.5200000e+002    +6.8221001e-005
+3.6000000e+002    +1.1112582e-004
+3.6800000e+002    +9.2781032e-005
+3.7600000e+002    +7.1956172e-005
+3.8400000e+002    +7.1614741e-005
+3.9200000e+002    +8.5253596e-005
+4.0000000e+002    +6.8423920e-005
+4.0800000e+002    +5.3953889e-005
+4.1600000e+002    +8.9763686e-005
+4.2400000e+002    +1.0165287e-004
+4.3200000e+002    +6.4128166e-005
+4.4000000e+002    +1.1281324e-004
+4.4800000e+002    +8.9975540e-005
+4.5600000e+002    +9.4445670e-005
+4.6400000e+002    +1.0042311e-004
+4.7200000e+002    +6.6064364e-005
+4.8000000e+002    +2.3073622e-005
+4.8800000e+002    +7.4610325e-005
+4.9600000e+002    +4.1071642e-005
+5.0400000e+002    +2.0155841e-005
+5.1200000e+002    +7.2678718e-005
+5.2000000e+002    +5.5525812e-005
+5.2800000e+002    +1.5432821e-004
+5.3600000e+002    +1.0576676e-004
+5.4400000e+002    +3.9752747e-005
+5.5200000e+002    +3.3958884e-005
+5.6000000e+002    +1.6730221e-004
+5.6800000e+002    +8.9481371e-005
+5.7600000e+002    +8.4271393e-005
+5.8400000e+002    +1.3107932e-004
+5.9200000e+002    +6.0786919e-005
+6.0000000e+002    +1.2831434e-004
+6.0800000e+002    +1.1698437e-004
+6.1600000e+002    +1.5237251e-005
+6.2400000e+002    +1.0478208e-004
+6.3200000e+002    +1.6644575e-004
+6.4000000e+002    +1.7099037e-004
+6.4800000e+002    +7.2677525e-005
+6.5600000e+002    +1.0121719e-004
+6.6400000e+002    +1.4174683e-004
+6.7200000e+002    +3.5017281e-005
+6.8000000e+002    +6.3343425e-005
+6.8800000e+002    +7.3193158e-005
+6.9600000e+002    +2.0133800e-004
+7.0400000e+002    +1.4449617e-004
+7.1200000e+002    +1.8986691e-004
+7.2000000e+002    +2.8614921e-004
+7.2800000e+002    +2.0219998e-004
+7.3600000e+002    +1.5300639e-004
+7.4400000e+002    +9.8150456e-005
+7.5200000e+002    +8.6052205e-005
+7.6000000e+002    +1.5095370e-004
+7.6800000e+002    +1.8438582e-004
+7.7600000e+002    +1.9333827e-004
+7.8400000e+002    +1.8302786e-004
+7.9200000e+002    +1.6038111e-004
+8.0000000e+002    +1.7375356e-004
+8.0800000e+002    +2.1878237e-004
+8.1600000e+002    +1.2272545e-004
+8.2400000e+002    +2.1349287e-004
+8.3200000e+002    +2.0377467e-004
+8.4000000e+002    +1.8159994e-004
+8.4800000e+002    +2.0152521e-004
+8.5600000e+002    +1.2980880e-004
+8.6400000e+002    +2.0742150e-004
+8.7200000e+002    +2.0315833e-004
+8.8000000e+002    +1.6885069e-004
+8.8800000e+002    +1.3768607e-004
+8.9600000e+002    +5.0925737e-005
+9.0400000e+002    +1.9656120e-004
+9.1200000e+002    +2.0483458e-004
+9.2000000e+002    +3.3274380e-004
+9.2800000e+002    +3.1932883e-005
+9.3600000e+002    +2.7862782e-004
+9.4400000e+002    +1.9565686e-004
+9.5200000e+002    +2.7311381e-004
+9.6000000e+002    +1.7906856e-004
+9.6800000e+002    +1.4095099e-004
+9.7600000e+002    +2.4783774e-004
+9.8400000e+002    +2.8864632e-004
+9.9200000e+002    +3.0308671e-004
+1.0000000e+003    +2.5259974e-004
+1.0080000e+003    +8.4678097e-005
+1.0160000e+003    +1.5212435e-004
+1.0240000e+003    +2.3301275e-004
+1.0320000e+003    +2.3017488e-004
+1.0400000e+003    +5.1783620e-005
+1.0480000e+003    +1.2960508e-004
+1.0560000e+003    +2.0602312e-004
+1.0640000e+003    +3.2925897e-004
+1.0720000e+003    +3.4271536e-004
+1.0800000e+003    +1.0322001e-004
+1.0880000e+003    +8.5666172e-005
+1.0960000e+003    +2.4544791e-004
+1.1040000e+003    +2.2356711e-004
+1.1120000e+003    +2.3494422e-004
+1.1200000e+003    +1.1927621e-004
+1.1280000e+003    +1.2424497e-004
+1.1360000e+003    +8.2669540e-005
+1.1440000e+003    +5.8636557e-005
+1.1520000e+003    +5.7450656e-005
+1.1600000e+003    +9.8082804e-005
+1.1680000e+003    +4.1072501e-005
+1.1760000e+003    +1.8264724e-004
+1.1840000e+003    +3.3431445e-004
+1.1920000e+003    +4.2834951e-004
+1.2000000e+003    +4.2223625e-004
+1.2080000e+003    +4.1138075e-005
+1.2160000e+003    +2.9013221e-005
+1.2240000e+003    +2.7486932e-004
+1.2320000e+003    +3.4134166e-004
+1.2400000e+003    +1.7008992e-004
+1.2480000e+003    +2.8161824e-004
+1.2560000e+003    +5.4542837e-004
+1.2640000e+003    +3.7338934e-004
+1.2720000e+003    +1.2107721e-004
+1.2800000e+003    +1.5523750e-004
+1.2880000e+003    +2.4311917e-004
+1.2960000e+003    +5.1613330e-005
+1.3040000e+003    +2.1407864e-004
+1.3120000e+003    +5.5557583e-005
+1.3200000e+003    +4.5961133e-005
+1.3280000e+003    +1.6669255e-004
+1.3360000e+003    +2.4417785e-004
+1.3440000e+003    +4.1717719e-004
+1.3520000e+003    +4.7967472e-004
+1.3600000e+003    +4.3763671e-004
+1.3680000e+003    +5.9598021e-004
+1.3760000e+003    +4.1857403e-004
+1.3840000e+003    +6.8515108e-004
+1.3920000e+003    +2.9808423e-004
+1.4000000e+003    +2.8364430e-004
+1.4080000e+003    +1.6525103e-004
+1.4160000e+003    +3.5910626e-004
+1.4240000e+003    +2.9807523e-004
+1.4320000e+003    +1.2158130e-004
+1.4400000e+003    +3.1885429e-004
+1.4480000e+003    +3.1761074e-004
+1.4560000e+003    +3.4537088e-004
+1.4640000e+003    +3.3122566e-004
+1.4720000e+003    +4.5344629e-004
+1.4800000e+003    +4.3436763e-004
+1.4880000e+003    +5.9955718e-004
+1.4960000e+003    +2.0256352e-004
+1.5040000e+003    +4.2115466e-004
+1.5120000e+003    +2.4801030e-004
+1.5200000e+003    +7.5584499e-004
+1.5280000e+003    +6.0000859e-004
+1.5360000e+003    +2.1445256e-004
+1.5440000e+003    +1.3729194e-004
+1.5520000e+003    +1.2653322e-004
+1.5600000e+003    +1.5368794e-004
+1.5680000e+003    +1.8277303e-004
+1.5760000e+003    +1.1196426e-004
+1.5840000e+003    +2.2787467e-004
+1.5920000e+003    +4.5810619e-004
+1.6000000e+003    +5.2897359e-004
+1.6080000e+003    +4.8725685e-004
+1.6160000e+003    +3.8229630e-004
+1.6240000e+003    +5.2079913e-004
+1.6320000e+003    +5.3172553e-004
+1.6400000e+003    +6.8395486e-004
+1.6480000e+003    +6.4207282e-004
+1.6560000e+003    +4.7467815e-004
+1.6640000e+003    +4.5138857e-004
+1.6720000e+003    +1.1077717e-004
+1.6800000e+003    +9.1009439e-005
+1.6880000e+003    +1.7400279e-004
+1.6960000e+003    +1.8669122e-004
+1.7040000e+003    +5.5385527e-004
+1.7120000e+003    +6.0498482e-004
+1.7200000e+003    +5.7109032e-004
+1.7280000e+003    +3.7858041e-004
+1.7360000e+003    +1.6924919e-004
+1.7440000e+003    +3.3257835e-004
+1.7520000e+003    +2.1928486e-004
+1.7600000e+003    +1.6652499e-004
+1.7680000e+003    +2.1212017e-004
+1.7760000e+003    +1.9853584e-004
+1.7840000e+003    +3.8493570e-004
+1.7920000e+003    +2.5509478e-004
+1.8000000e+003    +2.1085014e-004
+1.8080000e+003    +1.9779554e-004
+1.8160000e+003    +3.6299211e-004
+1.8240000e+003    +2.5015109e-004
+1.8320000e+003    +2.1525439e-004
+1.8400000e+003    +1.6287465e-004
+1.8480000e+003    +9.3627743e-005
+1.8560000e+003    +3.6940945e-004
+1.8640000e+003    +4.1367536e-004
+1.8720000e+003    +4.3034897e-004
+1.8800000e+003    +3.8104309e-004
+1.8880000e+003    +3.6574111e-004
+1.8960000e+003    +4.2127192e-004
+1.9040000e+003    +6.7113130e-004
+1.9120000e+003    +7.6475530e-004
+1.9200000e+003    +2.6256288e-004
+1.9280000e+003    +7.5015321e-004
+1.9360000e+003    +4.9449713e-004
+1.9440000e+003    +3.9877029e-004
+1.9520000e+003    +4.9139804e-004
+1.9600000e+003    +4.0975367e-004
+1.9680000e+003    +3.7883321e-004
+1.9760000e+003    +8.0956996e-004
+1.9840000e+003    +7.7016339e-005
+1.9920000e+003    +5.0936919e-004
+2.0000000e+003    +6.9573667e-004
+2.0080000e+003    +5.6565460e-004
+2.0160000e+003    +2.6637208e-004
+2.0240000e+003    +2.1387436e-004
+2.0320000e+003    +9.9530409e-004
+2.0400000e+003    +1.1046964e-003
+2.0480000e+003    +1.0715651e-003
+2.0560000e+003    +3.5095436e-004
+2.0640000e+003    +1.9899414e-004
+2.0720000e+003    +6.9724931e-004
+2.0800000e+003    +4.3586318e-004
+2.0880000e+003    +4.3585288e-004
+2.0960000e+003    +4.4459733e-004
+2.1040000e+003    +7.0479297e-004
+2.1120000e+003    +6.3873082e-004
+2.1200000e+003    +6.1834545e-004
+2.1280000e+003    +6.5904908e-004
+2.1360000e+003    +3.1513802e-004
+2.1440000e+003    +2.2348882e-004
+2.1520000e+003    +3.4494037e-004
+2.1600000e+003    +7.7664881e-004
+2.1680000e+003    +1.1792508e-003
+2.1760000e+003    +1.3188043e-003
+2.1840000e+003    +6.2678201e-004
+2.1920000e+003    +3.1274912e-004
+2.2000000e+003    +1.1600991e-003
+2.2080000e+003    +6.9936004e-004
+2.2160000e+003    +6.5280801e-005
+2.2240000e+003    +2.7592960e-004
+2.2320000e+003    +3.2485722e-004
+2.2400000e+003    +2.6063432e-004
+2.2480000e+003    +5.0955632e-004
+2.2560000e+003    +9.7000500e-004
+2.2640000e+003    +9.9707057e-004
+2.2720000e+003    +7.7363139e-004
+2.2800000e+003    +6.9268781e-004
+2.2880000e+003    +3.8467839e-004
+2.2960000e+003    +5.1608996e-004
+2.3040000e+003    +8.4485771e-004
+2.3120000e+003    +1.2234612e-003
+2.3200000e+003    +6.3857972e-004
+2.3280000e+003    +3.9598951e-004
+2.3360000e+003    +4.3133361e-004
+2.3440000e+003    +5.1687763e-004
+2.3520000e+003    +7.8125566e-004
+2.3600000e+003    +7.1637740e-004
+2.3680000e+003    +1.0449946e-003
+2.3760000e+003    +9.6832478e-004
+2.3840000e+003    +1.9547531e-004
+2.3920000e+003    +1.3852811e-004
+2.4000000e+003    +1.3060123e-003
+2.4080000e+003    +8.3973154e-004
+2.4160000e+003    +2.4894800e-004
+2.4240000e+003    +7.3993171e-004
+2.4320000e+003    +1.3815999e-003
+2.4400000e+003    +9.7328919e-004
+2.4480000e+003    +8.8628457e-004
+2.4560000e+003    +2.4138112e-004
+2.4640000e+003    +1.4280571e-004
+2.4720000e+003    +9.7422737e-005
+2.4800000e+003    +2.4362179e-004
+2.4880000e+003    +6.0374924e-004
+2.4960000e+003    +1.0026594e-003
+2.5040000e+003    +1.0698758e-003
+2.5120000e+003    +1.0095637e-003
+2.5200000e+003    +7.4187148e-004
+2.5280000e+003    +5.4751307e-004
+2.5360000e+003    +4.7760204e-004
+2.5440000e+003    +2.9269457e-004
+2.5520000e+003    +8.9023443e-004
+2.5600000e+003    +7.6065282e-004
+2.5680000e+003    +1.4580386e-003
+2.5760000e+003    +4.7453589e-004
+2.5840000e+003    +5.9394538e-004
+2.5920000e+003    +1.7906089e-003
+2.6000000e+003    +1.4709189e-003
+2.6080000e+003    +1.9883153e-004
+2.6160000e+003    +7.5557450e-004
+2.6240000e+003    +8.1050157e-004
+2.6320000e+003    +8.3300733e-004
+2.6400000e+003    +2.8616807e-004
+2.6480000e+003    +8.9535717e-004
+2.6560000e+003    +1.6199230e-004
+2.6640000e+003    +1.5434219e-003
+2.6720000e+003    +4.5326509e-004
+2.6800000e+003    +6.2664818e-005
+2.6880000e+003    +3.1319293e-004
+2.6960000e+003    +3.4742200e-004
+2.7040000e+003    +4.3981473e-004
+2.7120000e+003    +3.7301789e-004
+2.7200000e+003    +2.0164684e-004
+2.7280000e+003    +7.3531948e-005
+2.7360000e+003    +1.2438255e-003
+2.7440000e+003    +6.0126063e-004
+2.7520000e+003    +5.4232229e-004
+2.7600000e+003    +2.3943419e-004
+2.7680000e+003    +5.5474136e-004
+2.7760000e+003    +1.0637317e-003
+2.7840000e+003    +1.9344805e-003
+2.7920000e+003    +1.3150724e-003
+2.8000000e+003    +6.8911340e-004
+2.8080000e+003    +5.0505216e-004
+2.8160000e+003    +1.0253505e-003
+2.8240000e+003    +5.1279360e-004
+2.8320000e+003    +9.0187491e-004
+2.8400000e+003    +7.4061367e-004
+2.8480000e+003    +9.0633944e-004
+2.8560000e+003    +7.5838168e-004
+2.8640000e+003    +3.4537999e-004
+2.8720000e+003    +8.2965335e-004
+2.8800000e+003    +5.7360431e-004
+2.8880000e+003    +1.3320625e-004
+2.8960000e+003    +2.7007415e-004
+2.9040000e+003    +1.6858596e-004
+2.9120000e+003    +2.6807821e-004
+2.9200000e+003    +5.4731563e-004
+2.9280000e+003    +1.1963854e-003
+2.9360000e+003    +8.6113543e-004
+2.9440000e+003    +1.8172839e-004
+2.9520000e+003    +4.4504961e-004
+2.9600000e+003    +2.2620239e-004
+2.9680000e+003    +4.2106037e-004
+2.9760000e+003    +1.2537413e-003
+2.9840000e+003    +1.4795375e-003
+2.9920000e+003    +1.8610558e-003
+3.0000000e+003    +1.4907897e-003
+3.0080000e+003    +1.0877356e-003
+3.0160000e+003    +8.4908516e-004
+3.0240000e+003    +3.7345514e-004
+3.0320000e+003    +6.4549537e-004
+3.0400000e+003    +1.1917639e-004
+3.0480000e+003    +2.5596324e-004
+3.0560000e+003    +8.5013278e-004
+3.0640000e+003    +9.1510732e-004
+3.0720000e+003    +2.1683669e-003
+3.0800000e+003    +2.6749489e-003
+3.0880000e+003    +3.2294891e-003
+3.0960000e+003    +1.3451459e-003
+3.1040000e+003    +1.6649811e-003
+3.1120000e+003    +7.1182323e-004
+3.1200000e+003    +4.9188820e-004
+3.1280000e+003    +1.9767082e-003
+3.1360000e+003    +7.5837044e-004
+3.1440000e+003    +8.6626480e-004
+3.1520000e+003    +4.8847118e-004
+3.1600000e+003    +1.1870248e-004
+3.1680000e+003    +3.6588770e-003
+3.1760000e+003    +4.0924447e-003
+3.1840000e+003    +3.3790679e-003
+3.1920000e+003    +7.9164543e-004
+3.2000000e+003    +4.4045408e-004
+3.2080000e+003    +6.7611848e-004
+3.2160000e+003    +2.2385682e-003
+3.2240000e+003    +2.5179826e-003
+3.2320000e+003    +2.6135560e-004
+3.2400000e+003    +3.0021623e-004
+3.2480000e+003    +1.6047553e-003
+3.2560000e+003    +1.8128926e-003
+3.2640000e+003    +8.2605483e-004
+3.2720000e+003    +1.3525330e-003
+3.2800000e+003    +2.0302844e-003
+3.2880000e+003    +6.4778433e-004
+3.2960000e+003    +7.3990086e-004
+3.3040000e+003    +2.1056153e-003
+3.3120000e+003    +2.6912205e-003
+3.3200000e+003    +1.8952638e-003
+3.3280000e+003    +1.4100972e-003
+3.3360000e+003    +1.7164929e-003
+3.3440000e+003    +3.0235766e-004
+3.3520000e+003    +8.0056768e-004
+3.3600000e+003    +1.0443504e-003
+3.3680000e+003    +1.1593847e-003
+3.3760000e+003    +1.1512613e-003
+3.3840000e+003    +1.5088219e-004
+3.3920000e+003    +4.6280050e-004
+3.4000000e+003    +1.7091117e-003
+3.4080000e+003    +1.9591525e-003
+3.4160000e+003    +5.0774880e-004
+3.4240000e+003    +5.5509229e-004
+3.4320000e+003    +5.1426177e-004
+3.4400000e+003    +1.0281034e-003
+3.4480000e+003    +5.9856265e-004
+3.4560000e+003    +2.4636453e-003
+3.4640000e+003    +1.6168160e-003
+3.4720000e+003    +1.0953591e-003
+3.4800000e+003    +9.7636046e-004
+3.4880000e+003    +1.0171466e-003
+3.4960000e+003    +7.9133175e-004
+3.5040000e+003    +1.3984143e-003
+3.5120000e+003    +7.2358124e-004
+3.5200000e+003    +8.7892939e-004
+3.5280000e+003    +2.3648760e-003
+3.5360000e+003    +1.7825018e-003
+3.5440000e+003    +1.1860627e-003
+3.5520000e+003    +1.0220528e-003
+3.5600000e+003    +4.3427988e-004
+3.5680000e+003    +4.2657636e-004
+3.5760000e+003    +6.2569289e-004
+3.5840000e+003    +4.3352786e-004
+3.5920000e+003    +2.1554646e-003
+3.6000000e+003    +1.9563893e-003
+3.6080000e+003    +5.4578990e-004
+3.6160000e+003    +5.1600527e-004
+3.6240000e+003    +3.0533964e-004
+3.6320000e+003    +1.0576803e-003
+3.6400000e+003    +1.0096019e-003
+3.6480000e+003    +5.3238915e-004
+3.6560000e+003    +4.9559399e-004
+3.6640000e+003    +6.0068129e-004
+3.6720000e+003    +7.1810122e-004
+3.6800000e+003    +1.0147329e-003
+3.6880000e+003    +6.7403755e-004
+3.6960000e+003    +5.7634315e-004
+3.7040000e+003    +3.2252067e-004
+3.7120000e+003    +3.5015130e-004
+3.7200000e+003    +3.3184228e-004
+3.7280000e+003    +3.4372587e-004
+3.7360000e+003    +1.2723076e-004
+3.7440000e+003    +1.2071437e-004
+3.7520000e+003    +3.5973452e-003
+3.7600000e+003    +4.6570189e-004
+3.7680000e+003    +6.8536552e-004
+3.7760000e+003    +3.2432337e-004
+3.7840000e+003    +3.9833007e-004
+3.7920000e+003    +6.7667919e-004
+3.8000000e+003    +7.2967767e-004
+3.8080000e+003    +6.1133760e-005
+3.8160000e+003    +1.7775249e-004
+3.8240000e+003    +2.2810798e-004
+3.8320000e+003    +1.6262957e-004
+3.8400000e+003    +4.2012753e-004
+3.8480000e+003    +1.2228824e-004
+3.8560000e+003    +2.5066937e-004
+3.8640000e+003    +2.4862826e-004
+3.8720000e+003    +2.4574209e-004
+3.8800000e+003    +1.1113961e-003
+3.8880000e+003    +1.0081280e-003
+3.8960000e+003    +3.8661216e-003
+3.9040000e+003    +4.0522749e-003
+3.9120000e+003    +1.7470737e-003
+3.9200000e+003    +6.1953673e-004
+3.9280000e+003    +9.9489116e-004
+3.9360000e+003    +5.0537888e-004
+3.9440000e+003    +5.9928076e-004
+3.9520000e+003    +7.3582178e-004
+3.9600000e+003    +1.1809423e-003
+3.9680000e+003    +1.3769356e-003
+3.9760000e+003    +7.3381729e-004
+3.9840000e+003    +5.8662216e-003
+3.9920000e+003    +5.8211773e-003
+4.0000000e+003    +4.8701512e-003
+4.0080000e+003    +2.6702699e-003
+4.0160000e+003    +4.2518852e-003
+4.0240000e+003    +2.4819036e-003
+4.0320000e+003    +1.4307408e-003
+4.0400000e+003    +4.6978984e-004
+4.0480000e+003    +8.1452320e-004
+4.0560000e+003    +1.0575079e-003
+4.0640000e+003    +2.8783202e-003
+4.0720000e+003    +3.6098401e-003
+4.0800000e+003    +1.1235562e-003
+4.0880000e+003    +8.3725917e-004
+4.0960000e+003    +1.4996160e-004
+4.1040000e+003    +3.8400322e-004
+4.1120000e+003    +9.4414671e-004
+4.1200000e+003    +5.8434717e-004
+4.1280000e+003    +3.3078063e-004
+4.1360000e+003    +1.7166107e-004
+4.1440000e+003    +6.5133785e-004
+4.1520000e+003    +5.0229213e-004
+4.1600000e+003    +5.4051989e-004
+4.1680000e+003    +2.0006585e-003
+4.1760000e+003    +2.8345345e-003
+4.1840000e+003    +3.7166921e-003
+4.1920000e+003    +8.1111229e-004
+4.2000000e+003    +1.0840556e-003
+4.2080000e+003    +9.5446222e-004
+4.2160000e+003    +2.2270901e-003
+4.2240000e+003    +1.0863624e-003
+4.2320000e+003    +1.3963652e-003
+4.2400000e+003    +3.5666218e-003
+4.2480000e+003    +3.5298399e-003
+4.2560000e+003    +1.9498980e-003
+4.2640000e+003    +2.6713989e-003
+4.2720000e+003    +2.6105589e-003
+4.2800000e+003    +2.1795877e-003
+4.2880000e+003    +2.3900592e-003
+4.2960000e+003    +2.2570721e-003
+4.3040000e+003    +4.7866773e-004
+4.3120000e+003    +8.5625687e-004
+4.3200000e+003    +7.0156384e-004
+4.3280000e+003    +1.0159363e-003
+4.3360000e+003    +8.0715097e-004
+4.3440000e+003    +9.6299330e-004
+4.3520000e+003    +1.1382733e-003
+4.3600000e+003    +1.8865098e-003
+4.3680000e+003    +1.1275857e-003
+4.3760000e+003    +2.9357147e-004
+4.3840000e+003    +2.6542516e-004
+4.3920000e+003    +1.9422485e-003
+4.4000000e+003    +2.7215038e-003
+4.4080000e+003    +1.5063192e-003
+4.4160000e+003    +1.4574920e-003
+4.4240000e+003    +2.1361480e-003
+4.4320000e+003    +2.4174966e-003
+4.4400000e+003    +2.5652102e-003
+4.4480000e+003    +1.9155324e-003
+4.4560000e+003    +1.2611026e-003
+4.4640000e+003    +1.2267574e-003
+4.4720000e+003    +1.1802961e-003
+4.4800000e+003    +1.7860888e-003
+4.4880000e+003    +2.2827433e-003
+4.4960000e+003    +8.0754008e-004
+4.5040000e+003    +1.0489156e-003
+4.5120000e+003    +7.2157127e-004
+4.5200000e+003    +1.8230754e-004
+4.5280000e+003    +2.6634533e-004
+4.5360000e+003    +7.5159472e-004
+4.5440000e+003    +2.0893887e-004
+4.5520000e+003    +2.7960404e-003
+4.5600000e+003    +1.9534894e-003
+4.5680000e+003    +8.8753831e-004
+4.5760000e+003    +1.8811281e-003
+4.5840000e+003    +1.4356654e-003
+4.5920000e+003    +9.2042430e-004
+4.6000000e+003    +6.6691200e-004
+4.6080000e+003    +2.4136575e-003
+4.6160000e+003    +2.0365133e-003
+4.6240000e+003    +1.7766225e-003
+4.6320000e+003    +1.0470825e-003
+4.6400000e+003    +1.5521433e-003
+4.6480000e+003    +1.0092766e-003
+4.6560000e+003    +1.2373541e-003
+4.6640000e+003    +1.1679104e-003
+4.6720000e+003    +1.5349316e-003
+4.6800000e+003    +4.9527740e-004
+4.6880000e+003    +5.2864844e-004
+4.6960000e+003    +3.8469507e-004
+4.7040000e+003    +2.6288134e-004
+4.7120000e+003    +1.0376760e-003
+4.7200000e+003    +6.7306176e-004
+4.7280000e+003    +5.9546449e-004
+4.7360000e+003    +9.3930459e-004
+4.7440000e+003    +1.0480550e-003
+4.7520000e+003    +3.0403811e-004
+4.7600000e+003    +6.5668818e-004
+4.7680000e+003    +1.2418468e-003
+4.7760000e+003    +1.0759525e-003
+4.7840000e+003    +9.2089886e-004
+4.7920000e+003    +8.8048546e-004
+4.8000000e+003    +7.2898896e-004
+4.8080000e+003    +4.7499148e-004
+4.8160000e+003    +1.0405545e-003
+4.8240000e+003    +4.8905076e-004
+4.8320000e+003    +7.8303675e-004
+4.8400000e+003    +1.0343471e-003
+4.8480000e+003    +1.5085834e-003
+4.8560000e+003    +7.5557700e-004
+4.8640000e+003    +3.7162899e-004
+4.8720000e+003    +5.1441399e-004
+4.8800000e+003    +8.4948709e-004
+4.8880000e+003    +4.7754700e-004
+4.8960000e+003    +1.2351702e-003
+4.9040000e+003    +6.9421326e-004
+4.9120000e+003    +7.8341982e-004
+4.9200000e+003    +2.8473922e-004
+4.9280000e+003    +2.6347660e-004
+4.9360000e+003    +3.0251886e-004
+4.9440000e+003    +7.4065308e-004
+4.9520000e+003    +9.1252575e-004
+4.9600000e+003    +8.3805562e-004
+4.9680000e+003    +3.0880823e-004
+4.9760000e+003    +9.4074337e-004
+4.9840000e+003    +1.1781326e-003
+4.9920000e+003    +8.0791349e-004
+5.0000000e+003    +7.6610333e-004
+5.0080000e+003    +3.9737974e-004
+5.0160000e+003    +3.3011902e-004
+5.0240000e+003    +5.1316898e-004
+5.0320000e+003    +4.8283531e-004
+5.0400000e+003    +4.1265873e-004
+5.0480000e+003    +6.7076483e-004
+5.0560000e+003    +2.8467918e-004
+5.0640000e+003    +3.1733554e-004
+5.0720000e+003    +1.0654038e-004
+5.0800000e+003    +6.3111627e-005
+5.0880000e+003    +5.1993300e-004
+5.0960000e+003    +4.8181455e-004
+5.1040000e+003    +9.1815781e-004
+5.1120000e+003    +7.3967583e-004
+5.1200000e+003    +1.1525204e-003
+5.1280000e+003    +8.7339029e-004
+5.1360000e+003    +8.6189219e-004
+5.1440000e+003    +9.0413197e-004
+5.1520000e+003    +5.5492629e-004
+5.1600000e+003    +7.7667908e-004
+5.1680000e+003    +5.9239857e-004
+5.1760000e+003    +6.3755619e-004
+5.1840000e+003    +8.2749093e-004
+5.1920000e+003    +6.3355599e-004
+5.2000000e+003    +4.3166027e-004
+5.2080000e+003    +1.5291007e-003
+5.2160000e+003    +1.1848776e-003
+5.2240000e+003    +5.0069171e-004
+5.2320000e+003    +1.3837321e-003
+5.2400000e+003    +4.1993085e-004
+5.2480000e+003    +8.9054042e-004
+5.2560000e+003    +2.7019400e-004
+5.2640000e+003    +6.6166140e-005
+5.2720000e+003    +8.4409368e-004
+5.2800000e+003    +4.2169349e-004
+5.2880000e+003    +1.4327058e-005
+5.2960000e+003    +3.1367264e-004
+5.3040000e+003    +2.9936963e-004
+5.3120000e+003    +3.9409602e-004
+5.3200000e+003    +2.8286228e-004
+5.3280000e+003    +2.9412413e-004
+5.3360000e+003    +4.9799512e-004
+5.3440000e+003    +4.5117599e-004
+5.3520000e+003    +1.0832727e-003
+5.3600000e+003    +5.1441853e-004
+5.3680000e+003    +9.4628148e-004
+5.3760000e+003    +1.0733973e-003
+5.3840000e+003    +3.9091773e-004
+5.3920000e+003    +8.1401180e-005
+5.4000000e+003    +2.1468663e-004
+5.4080000e+003    +1.3813937e-004
+5.4160000e+003    +2.8207438e-004
+5.4240000e+003    +7.1286189e-004
+5.4320000e+003    +6.2999438e-004
+5.4400000e+003    +8.4567716e-004
+5.4480000e+003    +5.3849461e-004
+5.4560000e+003    +4.5187725e-004
+5.4640000e+003    +6.4278417e-004
+5.4720000e+003    +5.5656157e-004
+5.4800000e+003    +6.0780346e-004
+5.4880000e+003    +6.9964956e-004
+5.4960000e+003    +3.9495021e-004
+5.5040000e+003    +5.6361652e-004
+5.5120000e+003    +6.2390824e-004
+5.5200000e+003    +4.9478281e-004
+5.5280000e+003    +6.0047815e-004
+5.5360000e+003    +7.3244527e-004
+5.5440000e+003    +3.7120265e-004
+5.5520000e+003    +9.5032755e-004
+5.5600000e+003    +5.2042789e-004
+5.5680000e+003    +5.5131735e-004
+5.5760000e+003    +1.1924367e-003
+5.5840000e+003    +1.1076623e-003
+5.5920000e+003    +1.3321531e-003
+5.6000000e+003    +1.9340250e-003
+5.6080000e+003    +2.1692610e-004
+5.6160000e+003    +2.4262664e-004
+5.6240000e+003    +2.2732677e-004
+5.6320000e+003    +7.3335541e-004
+5.6400000e+003    +8.2677027e-004
+5.6480000e+003    +8.1399840e-004
+5.6560000e+003    +5.2026677e-004
+5.6640000e+003    +9.3473980e-005
+5.6720000e+003    +1.8061444e-004
+5.6800000e+003    +2.8518270e-004
+5.6880000e+003    +4.4339616e-004
+5.6960000e+003    +4.0749583e-004
+5.7040000e+003    +4.5121662e-004
+5.7120000e+003    +7.8209676e-004
+5.7200000e+003    +2.2157267e-004
+5.7280000e+003    +3.4365492e-004
+5.7360000e+003    +6.9701811e-004
+5.7440000e+003    +1.3779338e-003
+5.7520000e+003    +4.4984641e-004
+5.7600000e+003    +3.5531761e-004
+5.7680000e+003    +1.8513355e-004
+5.7760000e+003    +2.3817002e-004
+5.7840000e+003    +1.8872599e-004
+5.7920000e+003    +8.0738275e-004
+5.8000000e+003    +4.9562176e-004
+5.8080000e+003    +4.1076515e-004
+5.8160000e+003    +2.4431892e-004
+5.8240000e+003    +9.0105587e-004
+5.8320000e+003    +9.0177788e-004
+5.8400000e+003    +7.9891115e-004
+5.8480000e+003    +6.3075847e-004
+5.8560000e+003    +5.1282340e-004
+5.8640000e+003    +3.5678380e-004
+5.8720000e+003    +3.9152661e-004
+5.8800000e+003    +3.0726244e-004
+5.8880000e+003    +5.8363832e-004
+5.8960000e+003    +6.6768570e-004
+5.9040000e+003    +6.4024149e-004
+5.9120000e+003    +5.0160510e-004
+5.9200000e+003    +3.9966841e-004
+5.9280000e+003    +5.5618555e-004
+5.9360000e+003    +8.7027543e-004
+5.9440000e+003    +9.8094065e-004
+5.9520000e+003    +1.0155815e-003
+5.9600000e+003    +6.2665023e-004
+5.9680000e+003    +8.8245206e-004
+5.9760000e+003    +8.8035397e-004
+5.9840000e+003    +6.3138141e-004
+5.9920000e+003    +1.3691762e-003
+6.0000000e+003    +1.3208222e-003
+6.0080000e+003    +6.4777868e-004
+6.0160000e+003    +3.2912593e-004
+6.0240000e+003    +7.8602746e-004
+6.0320000e+003    +6.9788616e-004
+6.0400000e+003    +1.0329160e-003
+6.0480000e+003    +4.0292295e-004
+6.0560000e+003    +1.4755450e-004
+6.0640000e+003    +3.6612479e-004
+6.0720000e+003    +2.1999290e-004
+6.0800000e+003    +7.0340297e-004
+6.0880000e+003    +5.8081024e-004
+6.0960000e+003    +4.5315313e-004
+6.1040000e+003    +3.7774109e-004
+6.1120000e+003    +5.8156898e-004
+6.1200000e+003    +3.9355984e-004
+6.1280000e+003    +2.5589060e-004
+6.1360000e+003    +4.8944319e-004
+6.1440000e+003    +3.8244072e-004
+6.1520000e+003    +1.0365311e-004
+6.1600000e+003    +1.1442848e-003
+6.1680000e+003    +9.3722006e-004
+6.1760000e+003    +2.1430499e-004
+6.1840000e+003    +1.0601708e-003
+6.1920000e+003    +1.1517854e-003
+6.2000000e+003    +8.2611467e-004
+6.2080000e+003    +5.8450084e-004
+6.2160000e+003    +4.2510006e-004
+6.2240000e+003    +2.4668394e-005
+6.2320000e+003    +8.2467559e-005
+6.2400000e+003    +7.1263302e-004
+6.2480000e+003    +6.1939354e-004
+6.2560000e+003    +8.5987512e-004
+6.2640000e+003    +8.9567085e-004
+6.2720000e+003    +5.0832529e-004
+6.2800000e+003    +3.8026113e-004
+6.2880000e+003    +2.2003855e-004
+6.2960000e+003    +3.6218931e-004
+6.3040000e+003    +5.2666158e-004
+6.3120000e+003    +8.0224918e-004
+6.3200000e+003    +3.1866250e-004
+6.3280000e+003    +2.6778653e-005
+6.3360000e+003    +9.1342494e-004
+6.3440000e+003    +1.3876025e-003
+6.3520000e+003    +1.3750381e-003
+6.3600000e+003    +1.4139980e-003
+6.3680000e+003    +8.4193057e-004
+6.3760000e+003    +8.0034795e-004
+6.3840000e+003    +6.7631819e-004
+6.3920000e+003    +4.4480388e-004
