# SR785 Measurement - Timestamp: Jan 03 2019 - 21:53:12
#---------- Measurement Setup ------------
# Start Frequency (Hz): 0.000000
# Frequency Span (Hz): 6400.000000
# Frequency Resolution: 800
# Number of Averages: 2
# Averaging Mode: None
# Window function: BMH
#---------- Measurement Parameters ----------
# Measurement Group:  "FFT" "FFT"
# Measurements:  "FFT 1" "FFT 2"
# View:  "Log Magnitude" "Log Magnitude"
# Unit:  "dBVpk" "Vrms/rtHz"
#---------- Input Parameters ----------
# Input Source: Analog
# Input Mode: Single ended, Single ended
# Input Grounding: Float, Float
# Input Coupling: AC, DC
# Input Range: -14.0dBVpk, 22.0dBVpk
# Auto Range: On, On
# Auto Range Mode: Up Only, Normal
# Anti-Aliasing Filter: On, On
#---------- Source Parameters ----------
# Source Type: Sine
# Source Amplitude: 500.0mVpk
# Source On: 0

#---------- Measurement Data ----------
# [Freq(Hz) Display 0(dBVpk) Display 1(Vrms/rtHz) ]
+0.0000000e+000    +2.7410552e-001
+8.0000000e+000    +1.9162150e-001
+1.6000000e+001    +5.7337146e-002
+2.4000000e+001    +6.0669570e-003
+3.2000000e+001    +1.9210549e-003
+4.0000000e+001    +8.4468239e-004
+4.8000000e+001    +6.2826504e-005
+5.6000000e+001    +4.4343364e-005
+6.4000000e+001    +1.9996296e-005
+7.2000000e+001    +5.0915784e-005
+8.0000000e+001    +2.7311082e-005
+8.8000000e+001    +3.5439032e-005
+9.6000000e+001    +7.0655718e-005
+1.0400000e+002    +9.7277909e-005
+1.1200000e+002    +9.5987132e-005
+1.2000000e+002    +1.1400361e-004
+1.2800000e+002    +1.1476544e-004
+1.3600000e+002    +1.3699957e-004
+1.4400000e+002    +8.5854590e-005
+1.5200000e+002    +1.6713477e-004
+1.6000000e+002    +1.0218564e-004
+1.6800000e+002    +5.4632019e-005
+1.7600000e+002    +5.8795984e-005
+1.8400000e+002    +8.8957975e-005
+1.9200000e+002    +2.6219586e-005
+2.0000000e+002    +5.9721104e-005
+2.0800000e+002    +3.5210938e-005
+2.1600000e+002    +3.4477340e-005
+2.2400000e+002    +2.7463326e-005
+2.3200000e+002    +4.9649756e-005
+2.4000000e+002    +3.4240282e-005
+2.4800000e+002    +4.4820270e-005
+2.5600000e+002    +2.2283008e-005
+2.6400000e+002    +1.0639209e-005
+2.7200000e+002    +3.7916718e-005
+2.8000000e+002    +3.1306401e-005
+2.8800000e+002    +2.1898917e-005
+2.9600000e+002    +1.0708730e-005
+3.0400000e+002    +5.2443684e-005
+3.1200000e+002    +6.8734065e-005
+3.2000000e+002    +1.1606915e-004
+3.2800000e+002    +1.1111613e-004
+3.3600000e+002    +5.4081938e-005
+3.4400000e+002    +3.6425470e-005
+3.5200000e+002    +1.3255177e-004
+3.6000000e+002    +9.9353645e-005
+3.6800000e+002    +1.0977749e-004
+3.7600000e+002    +1.9135859e-005
+3.8400000e+002    +6.7018584e-005
+3.9200000e+002    +1.0444996e-004
+4.0000000e+002    +1.1142265e-004
+4.0800000e+002    +1.2169635e-004
+4.1600000e+002    +6.5071414e-005
+4.2400000e+002    +9.1788563e-005
+4.3200000e+002    +1.6305751e-004
+4.4000000e+002    +8.6546723e-005
+4.4800000e+002    +2.4403835e-004
+4.5600000e+002    +2.5322064e-004
+4.6400000e+002    +2.6591081e-004
+4.7200000e+002    +1.1199647e-004
+4.8000000e+002    +1.2051751e-004
+4.8800000e+002    +7.4487303e-005
+4.9600000e+002    +1.4761057e-004
+5.0400000e+002    +1.7399019e-004
+5.1200000e+002    +3.5539176e-004
+5.2000000e+002    +9.6110725e-006
+5.2800000e+002    +7.7322038e-005
+5.3600000e+002    +1.1773709e-004
+5.4400000e+002    +1.1357178e-004
+5.5200000e+002    +1.3275727e-004
+5.6000000e+002    +9.5834228e-005
+5.6800000e+002    +9.4107396e-005
+5.7600000e+002    +2.0439604e-004
+5.8400000e+002    +1.2905413e-004
+5.9200000e+002    +1.6833137e-004
+6.0000000e+002    +1.0295900e-004
+6.0800000e+002    +8.8498738e-005
+6.1600000e+002    +3.3224951e-005
+6.2400000e+002    +1.2056906e-004
+6.3200000e+002    +1.5122160e-004
+6.4000000e+002    +5.0936025e-005
+6.4800000e+002    +6.7927562e-005
+6.5600000e+002    +7.8940568e-005
+6.6400000e+002    +6.2824780e-005
+6.7200000e+002    +6.0438597e-005
+6.8000000e+002    +8.3284776e-006
+6.8800000e+002    +1.5636129e-004
+6.9600000e+002    +1.1507406e-004
+7.0400000e+002    +5.9789465e-005
+7.1200000e+002    +1.8578302e-004
+7.2000000e+002    +2.3359421e-004
+7.2800000e+002    +6.6661698e-005
+7.3600000e+002    +1.1919039e-004
+7.4400000e+002    +1.9091881e-004
+7.5200000e+002    +1.7299641e-004
+7.6000000e+002    +9.0502435e-005
+7.6800000e+002    +1.2568901e-004
+7.7600000e+002    +1.8259411e-004
+7.8400000e+002    +6.0098140e-005
+7.9200000e+002    +7.3302610e-005
+8.0000000e+002    +1.7837655e-004
+8.0800000e+002    +1.6071252e-004
+8.1600000e+002    +1.7194902e-004
+8.2400000e+002    +1.8370886e-004
+8.3200000e+002    +1.1069152e-004
+8.4000000e+002    +6.7707457e-005
+8.4800000e+002    +2.7188713e-005
+8.5600000e+002    +9.4707146e-005
+8.6400000e+002    +8.4567255e-005
+8.7200000e+002    +1.5085080e-004
+8.8000000e+002    +1.4499472e-004
+8.8800000e+002    +1.2765269e-004
+8.9600000e+002    +5.0945589e-005
+9.0400000e+002    +2.1749025e-004
+9.1200000e+002    +1.8076006e-004
+9.2000000e+002    +2.9204535e-005
+9.2800000e+002    +2.1569882e-004
+9.3600000e+002    +3.4899160e-004
+9.4400000e+002    +1.0104658e-004
+9.5200000e+002    +1.9099681e-004
+9.6000000e+002    +3.7501941e-005
+9.6800000e+002    +8.9719051e-006
+9.7600000e+002    +1.8085337e-004
+9.8400000e+002    +8.4915788e-005
+9.9200000e+002    +3.8542628e-005
+1.0000000e+003    +3.6874507e-004
+1.0080000e+003    +3.5248304e-004
+1.0160000e+003    +2.0453680e-004
+1.0240000e+003    +1.7606902e-004
+1.0320000e+003    +1.7259041e-004
+1.0400000e+003    +2.2607886e-004
+1.0480000e+003    +9.1137932e-005
+1.0560000e+003    +9.0775211e-005
+1.0640000e+003    +1.6864706e-004
+1.0720000e+003    +4.0988144e-004
+1.0800000e+003    +3.9349587e-004
+1.0880000e+003    +5.6164652e-005
+1.0960000e+003    +1.3763884e-004
+1.1040000e+003    +2.3155850e-004
+1.1120000e+003    +9.5821080e-005
+1.1200000e+003    +1.0702441e-005
+1.1280000e+003    +4.3000653e-004
+1.1360000e+003    +3.9302435e-004
+1.1440000e+003    +3.1576754e-004
+1.1520000e+003    +3.5502747e-004
+1.1600000e+003    +1.9043783e-004
+1.1680000e+003    +3.5611319e-004
+1.1760000e+003    +1.6194276e-004
+1.1840000e+003    +2.2229821e-004
+1.1920000e+003    +2.4944663e-004
+1.2000000e+003    +1.2007247e-004
+1.2080000e+003    +1.9106991e-004
+1.2160000e+003    +1.8628550e-004
+1.2240000e+003    +5.1307434e-005
+1.2320000e+003    +1.6046592e-004
+1.2400000e+003    +1.4539118e-004
+1.2480000e+003    +9.8811121e-005
+1.2560000e+003    +2.4846822e-004
+1.2640000e+003    +1.4941662e-004
+1.2720000e+003    +2.3062959e-004
+1.2800000e+003    +4.5920323e-004
+1.2880000e+003    +3.4507902e-004
+1.2960000e+003    +3.4806706e-004
+1.3040000e+003    +4.0536703e-004
+1.3120000e+003    +2.9984498e-004
+1.3200000e+003    +3.5352795e-004
+1.3280000e+003    +2.4312023e-004
+1.3360000e+003    +2.4635615e-004
+1.3440000e+003    +2.5131009e-004
+1.3520000e+003    +1.2812618e-004
+1.3600000e+003    +3.4257295e-004
+1.3680000e+003    +1.2264962e-004
+1.3760000e+003    +3.2559209e-004
+1.3840000e+003    +3.2326943e-004
+1.3920000e+003    +3.2389010e-004
+1.4000000e+003    +1.8244021e-004
+1.4080000e+003    +3.7739286e-004
+1.4160000e+003    +3.1274639e-004
+1.4240000e+003    +1.6847930e-004
+1.4320000e+003    +7.0296446e-005
+1.4400000e+003    +1.9163349e-004
+1.4480000e+003    +1.4710255e-004
+1.4560000e+003    +1.7071856e-004
+1.4640000e+003    +4.7574463e-004
+1.4720000e+003    +3.8477004e-004
+1.4800000e+003    +1.3371010e-004
+1.4880000e+003    +2.0320607e-005
+1.4960000e+003    +3.5832959e-004
+1.5040000e+003    +4.8144360e-004
+1.5120000e+003    +5.0206215e-004
+1.5200000e+003    +3.4039328e-004
+1.5280000e+003    +6.3231133e-004
+1.5360000e+003    +3.2377525e-004
+1.5440000e+003    +4.4758504e-004
+1.5520000e+003    +1.3613589e-004
+1.5600000e+003    +6.1021768e-005
+1.5680000e+003    +3.7677388e-004
+1.5760000e+003    +4.7214783e-004
+1.5840000e+003    +1.6852563e-004
+1.5920000e+003    +1.9845161e-004
+1.6000000e+003    +8.1168336e-004
+1.6080000e+003    +6.0717546e-004
+1.6160000e+003    +2.6518892e-004
+1.6240000e+003    +2.4639943e-004
+1.6320000e+003    +1.3149533e-004
+1.6400000e+003    +5.8212638e-004
+1.6480000e+003    +3.7852491e-004
+1.6560000e+003    +5.8017991e-004
+1.6640000e+003    +6.8398606e-004
+1.6720000e+003    +2.4394593e-004
+1.6800000e+003    +4.6031203e-004
+1.6880000e+003    +4.6380312e-004
+1.6960000e+003    +4.9827050e-004
+1.7040000e+003    +3.6890098e-004
+1.7120000e+003    +2.3582901e-004
+1.7200000e+003    +7.2906225e-004
+1.7280000e+003    +6.3994771e-004
+1.7360000e+003    +6.6950184e-004
+1.7440000e+003    +7.5401732e-004
+1.7520000e+003    +4.9169111e-004
+1.7600000e+003    +8.2199527e-005
+1.7680000e+003    +1.6645314e-004
+1.7760000e+003    +8.7981090e-005
+1.7840000e+003    +5.5837666e-004
+1.7920000e+003    +6.4393308e-004
+1.8000000e+003    +6.4257742e-004
+1.8080000e+003    +1.1378583e-004
+1.8160000e+003    +1.7858221e-004
+1.8240000e+003    +6.7015272e-004
+1.8320000e+003    +2.0163001e-004
+1.8400000e+003    +6.0595642e-004
+1.8480000e+003    +3.7411650e-004
+1.8560000e+003    +6.7158206e-004
+1.8640000e+003    +4.0360057e-005
+1.8720000e+003    +1.0032905e-003
+1.8800000e+003    +1.8437398e-003
+1.8880000e+003    +2.9144698e-004
+1.8960000e+003    +3.1285061e-004
+1.9040000e+003    +2.3716888e-004
+1.9120000e+003    +4.2533138e-004
+1.9200000e+003    +1.1012487e-003
+1.9280000e+003    +5.6018354e-004
+1.9360000e+003    +3.0614983e-004
+1.9440000e+003    +2.2675616e-004
+1.9520000e+003    +4.9831730e-004
+1.9600000e+003    +2.6387349e-004
+1.9680000e+003    +1.4693500e-004
+1.9760000e+003    +4.4138212e-004
+1.9840000e+003    +3.1878270e-004
+1.9920000e+003    +2.8236365e-004
+2.0000000e+003    +6.5285136e-004
+2.0080000e+003    +4.4905339e-004
+2.0160000e+003    +7.9731501e-005
+2.0240000e+003    +3.2649422e-004
+2.0320000e+003    +1.6309046e-003
+2.0400000e+003    +2.3173299e-003
+2.0480000e+003    +2.4619093e-003
+2.0560000e+003    +1.0841277e-004
+2.0640000e+003    +2.2871087e-004
+2.0720000e+003    +8.9448859e-004
+2.0800000e+003    +1.2507070e-003
+2.0880000e+003    +1.4576336e-003
+2.0960000e+003    +1.0970501e-003
+2.1040000e+003    +5.4870854e-004
+2.1120000e+003    +2.6663352e-004
+2.1200000e+003    +4.3213804e-004
+2.1280000e+003    +7.4601639e-004
+2.1360000e+003    +7.4616878e-004
+2.1440000e+003    +1.0892438e-003
+2.1520000e+003    +7.8726863e-004
+2.1600000e+003    +6.7327276e-004
+2.1680000e+003    +3.9685651e-004
+2.1760000e+003    +3.6951003e-004
+2.1840000e+003    +1.2920406e-003
+2.1920000e+003    +4.1658056e-004
+2.2000000e+003    +6.1129901e-004
+2.2080000e+003    +7.9314364e-004
+2.2160000e+003    +1.9833278e-004
+2.2240000e+003    +4.9179909e-004
+2.2320000e+003    +7.4039085e-004
+2.2400000e+003    +6.4784870e-004
+2.2480000e+003    +9.5623493e-004
+2.2560000e+003    +9.4137882e-004
+2.2640000e+003    +9.9632971e-004
+2.2720000e+003    +1.2825539e-003
+2.2800000e+003    +9.0423028e-004
+2.2880000e+003    +9.9408801e-004
+2.2960000e+003    +1.8834220e-003
+2.3040000e+003    +2.0059186e-003
+2.3120000e+003    +1.8795754e-003
+2.3200000e+003    +5.1287690e-004
+2.3280000e+003    +4.2341542e-004
+2.3360000e+003    +6.7317998e-004
+2.3440000e+003    +9.7802083e-004
+2.3520000e+003    +1.0090007e-003
+2.3600000e+003    +6.2531309e-004
+2.3680000e+003    +1.9354833e-004
+2.3760000e+003    +6.5163395e-004
+2.3840000e+003    +5.1017123e-004
+2.3920000e+003    +1.7951502e-003
+2.4000000e+003    +1.5636892e-003
+2.4080000e+003    +1.1189568e-003
+2.4160000e+003    +1.9801327e-003
+2.4240000e+003    +1.7415131e-003
+2.4320000e+003    +7.2470191e-004
+2.4400000e+003    +4.9621938e-004
+2.4480000e+003    +2.6666075e-003
+2.4560000e+003    +2.6134885e-004
+2.4640000e+003    +1.2032699e-004
+2.4720000e+003    +4.9300876e-004
+2.4800000e+003    +1.1072567e-003
+2.4880000e+003    +8.7188702e-004
+2.4960000e+003    +7.6166197e-004
+2.5040000e+003    +4.3898035e-004
+2.5120000e+003    +1.5083854e-003
+2.5200000e+003    +1.2529789e-003
+2.5280000e+003    +1.0135075e-003
+2.5360000e+003    +5.1147636e-004
+2.5440000e+003    +2.3741691e-004
+2.5520000e+003    +1.0249926e-003
+2.5600000e+003    +6.0075911e-004
+2.5680000e+003    +8.2664820e-004
+2.5760000e+003    +6.4029946e-004
+2.5840000e+003    +1.4023250e-004
+2.5920000e+003    +3.3774265e-004
+2.6000000e+003    +8.9494884e-004
+2.6080000e+003    +3.8965917e-004
+2.6160000e+003    +7.1722304e-004
+2.6240000e+003    +5.6213146e-004
+2.6320000e+003    +1.2570142e-003
+2.6400000e+003    +1.3203524e-003
+2.6480000e+003    +4.0400159e-004
+2.6560000e+003    +8.7223458e-004
+2.6640000e+003    +2.1628113e-003
+2.6720000e+003    +1.9915316e-003
+2.6800000e+003    +2.2667178e-003
+2.6880000e+003    +2.0144901e-003
+2.6960000e+003    +1.0265181e-003
+2.7040000e+003    +3.0400257e-005
+2.7120000e+003    +1.1566994e-003
+2.7200000e+003    +1.1092615e-003
+2.7280000e+003    +9.9459023e-004
+2.7360000e+003    +1.0597606e-003
+2.7440000e+003    +1.3617402e-003
+2.7520000e+003    +1.9131016e-003
+2.7600000e+003    +1.3999582e-003
+2.7680000e+003    +5.0264737e-004
+2.7760000e+003    +4.7462966e-004
+2.7840000e+003    +8.2809076e-004
+2.7920000e+003    +1.9468945e-003
+2.8000000e+003    +1.7664150e-003
+2.8080000e+003    +1.7819079e-003
+2.8160000e+003    +1.6610965e-003
+2.8240000e+003    +9.1595773e-004
+2.8320000e+003    +5.6219316e-004
+2.8400000e+003    +8.1892795e-004
+2.8480000e+003    +3.9884209e-004
+2.8560000e+003    +4.4469596e-004
+2.8640000e+003    +4.9975584e-004
+2.8720000e+003    +3.9734156e-003
+2.8800000e+003    +2.9415966e-003
+2.8880000e+003    +1.0259136e-003
+2.8960000e+003    +7.7235914e-004
+2.9040000e+003    +1.8085565e-003
+2.9120000e+003    +2.4081755e-003
+2.9200000e+003    +1.6477281e-003
+2.9280000e+003    +1.9885949e-003
+2.9360000e+003    +1.7207084e-003
+2.9440000e+003    +1.8598088e-003
+2.9520000e+003    +2.1190217e-003
+2.9600000e+003    +1.7926981e-003
+2.9680000e+003    +1.3274460e-003
+2.9760000e+003    +1.3797845e-003
+2.9840000e+003    +1.8021560e-003
+2.9920000e+003    +2.1126447e-003
+3.0000000e+003    +1.3830964e-003
+3.0080000e+003    +1.0933321e-003
+3.0160000e+003    +9.7078754e-004
+3.0240000e+003    +8.7444962e-004
+3.0320000e+003    +1.6545046e-003
+3.0400000e+003    +2.2123770e-003
+3.0480000e+003    +4.7413929e-004
+3.0560000e+003    +5.2132923e-004
+3.0640000e+003    +8.1420934e-004
+3.0720000e+003    +2.0418767e-004
+3.0800000e+003    +1.2437846e-003
+3.0880000e+003    +5.4638949e-004
+3.0960000e+003    +2.7381745e-004
+3.1040000e+003    +2.9969274e-003
+3.1120000e+003    +2.2717719e-003
+3.1200000e+003    +1.4255467e-003
+3.1280000e+003    +2.1316344e-003
+3.1360000e+003    +1.3283616e-003
+3.1440000e+003    +1.7989118e-004
+3.1520000e+003    +7.4039740e-003
+3.1600000e+003    +2.9001692e-003
+3.1680000e+003    +2.6416178e-003
+3.1760000e+003    +2.7670048e-003
+3.1840000e+003    +1.0427161e-003
+3.1920000e+003    +1.0859040e-003
+3.2000000e+003    +2.6690476e-003
+3.2080000e+003    +2.4540857e-003
+3.2160000e+003    +8.1081977e-003
+3.2240000e+003    +1.0069557e-002
+3.2320000e+003    +9.0021983e-004
+3.2400000e+003    +3.8234645e-004
+3.2480000e+003    +1.4510739e-003
+3.2560000e+003    +1.5960888e-003
+3.2640000e+003    +1.4565681e-003
+3.2720000e+003    +1.1637688e-003
+3.2800000e+003    +7.3827463e-003
+3.2880000e+003    +6.4278031e-003
+3.2960000e+003    +6.5055056e-003
+3.3040000e+003    +5.1288900e-004
+3.3120000e+003    +3.9657950e-004
+3.3200000e+003    +1.1239054e-003
+3.3280000e+003    +1.4008369e-003
+3.3360000e+003    +1.2720518e-003
+3.3440000e+003    +3.7575720e-004
+3.3520000e+003    +8.6550332e-005
+3.3600000e+003    +1.7329222e-003
+3.3680000e+003    +1.9995209e-003
+3.3760000e+003    +7.7603938e-004
+3.3840000e+003    +4.3650228e-004
+3.3920000e+003    +7.3650276e-004
+3.4000000e+003    +7.8402093e-004
+3.4080000e+003    +1.7503502e-003
+3.4160000e+003    +3.3062958e-004
+3.4240000e+003    +5.3289795e-004
+3.4320000e+003    +3.2172524e-003
+3.4400000e+003    +2.9914372e-003
+3.4480000e+003    +5.8784493e-004
+3.4560000e+003    +5.1620160e-004
+3.4640000e+003    +5.3407293e-004
+3.4720000e+003    +5.1714922e-004
+3.4800000e+003    +2.5391890e-004
+3.4880000e+003    +1.9005369e-003
+3.4960000e+003    +2.3156982e-003
+3.5040000e+003    +2.2988620e-003
+3.5120000e+003    +1.3369703e-003
+3.5200000e+003    +6.6482805e-004
+3.5280000e+003    +2.3767615e-004
+3.5360000e+003    +1.0150889e-003
+3.5440000e+003    +1.1152796e-003
+3.5520000e+003    +2.8761374e-003
+3.5600000e+003    +2.3583639e-003
+3.5680000e+003    +2.1412929e-003
+3.5760000e+003    +1.1109398e-003
+3.5840000e+003    +4.3395386e-004
+3.5920000e+003    +5.1807164e-004
+3.6000000e+003    +7.9445180e-004
+3.6080000e+003    +2.5185826e-003
+3.6160000e+003    +2.5636221e-003
+3.6240000e+003    +6.2335876e-004
+3.6320000e+003    +2.6215268e-005
+3.6400000e+003    +4.3229820e-004
+3.6480000e+003    +1.7434359e-003
+3.6560000e+003    +1.7009991e-003
+3.6640000e+003    +4.3502959e-004
+3.6720000e+003    +5.0488417e-004
+3.6800000e+003    +1.1715817e-003
+3.6880000e+003    +1.7722497e-003
+3.6960000e+003    +1.4072978e-003
+3.7040000e+003    +9.0302731e-004
+3.7120000e+003    +3.9133191e-004
+3.7200000e+003    +1.0988391e-003
+3.7280000e+003    +1.2150069e-003
+3.7360000e+003    +2.9420778e-003
+3.7440000e+003    +2.3291106e-003
+3.7520000e+003    +1.0790041e-003
+3.7600000e+003    +1.2942491e-003
+3.7680000e+003    +1.4338380e-003
+3.7760000e+003    +9.4240054e-004
+3.7840000e+003    +8.6209801e-004
+3.7920000e+003    +1.6669530e-003
+3.8000000e+003    +4.3803235e-004
+3.8080000e+003    +3.4922350e-004
+3.8160000e+003    +3.7296649e-004
+3.8240000e+003    +5.0071947e-004
+3.8320000e+003    +3.4709848e-003
+3.8400000e+003    +3.8153794e-005
+3.8480000e+003    +2.1530403e-004
+3.8560000e+003    +1.2299870e-004
+3.8640000e+003    +7.4456964e-004
+3.8720000e+003    +5.5147172e-004
+3.8800000e+003    +7.4146676e-004
+3.8880000e+003    +3.3855964e-003
+3.8960000e+003    +3.2316882e-003
+3.9040000e+003    +1.1009760e-003
+3.9120000e+003    +2.0651878e-003
+3.9200000e+003    +2.9609415e-003
+3.9280000e+003    +2.0619070e-003
+3.9360000e+003    +8.8347628e-004
+3.9440000e+003    +1.2596558e-003
+3.9520000e+003    +1.6443179e-003
+3.9600000e+003    +2.4756155e-004
+3.9680000e+003    +8.1063289e-004
+3.9760000e+003    +6.2383903e-004
+3.9840000e+003    +4.5844179e-004
+3.9920000e+003    +2.3834161e-004
+4.0000000e+003    +5.0751638e-004
+4.0080000e+003    +1.1865309e-003
+4.0160000e+003    +1.1110374e-003
+4.0240000e+003    +1.1031461e-003
+4.0320000e+003    +1.7562689e-003
+4.0400000e+003    +2.3837865e-003
+4.0480000e+003    +6.6159747e-004
+4.0560000e+003    +1.1397433e-003
+4.0640000e+003    +1.3130661e-003
+4.0720000e+003    +6.3672476e-004
+4.0800000e+003    +4.4570805e-004
+4.0880000e+003    +4.8320601e-004
+4.0960000e+003    +1.0762663e-003
+4.1040000e+003    +2.0760958e-004
+4.1120000e+003    +1.0539569e-004
+4.1200000e+003    +4.9213535e-004
+4.1280000e+003    +5.2022852e-004
+4.1360000e+003    +4.8097418e-004
+4.1440000e+003    +1.4242185e-004
+4.1520000e+003    +1.7814100e-005
+4.1600000e+003    +1.5753289e-003
+4.1680000e+003    +6.0549518e-004
+4.1760000e+003    +5.8627606e-004
+4.1840000e+003    +4.9206562e-004
+4.1920000e+003    +7.2627270e-004
+4.2000000e+003    +1.8262108e-003
+4.2080000e+003    +4.4135642e-004
+4.2160000e+003    +2.0814732e-004
+4.2240000e+003    +1.0527426e-003
+4.2320000e+003    +2.8662937e-004
+4.2400000e+003    +3.4457774e-004
+4.2480000e+003    +1.7906679e-004
+4.2560000e+003    +4.4032111e-004
+4.2640000e+003    +3.2760235e-004
+4.2720000e+003    +3.3363202e-004
+4.2800000e+003    +4.7659787e-004
+4.2880000e+003    +6.5820443e-004
+4.2960000e+003    +8.3612325e-004
+4.3040000e+003    +6.9516897e-004
+4.3120000e+003    +4.7535120e-004
+4.3200000e+003    +6.9331401e-004
+4.3280000e+003    +3.8938652e-004
+4.3360000e+003    +3.4443781e-004
+4.3440000e+003    +5.4750737e-004
+4.3520000e+003    +3.1243611e-004
+4.3600000e+003    +4.8870000e-004
+4.3680000e+003    +6.8423955e-004
+4.3760000e+003    +1.4085638e-003
+4.3840000e+003    +1.7745307e-003
+4.3920000e+003    +1.5877018e-003
+4.4000000e+003    +7.2176103e-004
+4.4080000e+003    +2.2402611e-004
+4.4160000e+003    +1.4139654e-003
+4.4240000e+003    +7.9182844e-004
+4.4320000e+003    +1.5215852e-004
+4.4400000e+003    +5.2032364e-004
+4.4480000e+003    +3.9688157e-004
+4.4560000e+003    +1.3562119e-004
+4.4640000e+003    +1.0280639e-003
+4.4720000e+003    +7.3799054e-004
+4.4800000e+003    +2.9954291e-004
+4.4880000e+003    +1.8047757e-004
+4.4960000e+003    +1.5347454e-004
+4.5040000e+003    +4.2846685e-004
+4.5120000e+003    +5.4492470e-004
+4.5200000e+003    +7.4279489e-004
+4.5280000e+003    +5.6073675e-004
+4.5360000e+003    +1.5591744e-003
+4.5440000e+003    +5.8737816e-004
+4.5520000e+003    +1.3766446e-003
+4.5600000e+003    +6.9392938e-004
+4.5680000e+003    +2.8423086e-004
+4.5760000e+003    +2.9025425e-004
+4.5840000e+003    +6.6472805e-004
+4.5920000e+003    +5.2722829e-004
+4.6000000e+003    +1.2077548e-003
+4.6080000e+003    +9.3211816e-004
+4.6160000e+003    +1.3120667e-003
+4.6240000e+003    +4.5340671e-004
+4.6320000e+003    +7.2394323e-004
+4.6400000e+003    +8.4625633e-004
+4.6480000e+003    +3.7753148e-004
+4.6560000e+003    +4.7496095e-004
+4.6640000e+003    +3.6693551e-004
+4.6720000e+003    +2.9200205e-004
+4.6800000e+003    +3.8715501e-004
+4.6880000e+003    +3.5554005e-004
+4.6960000e+003    +5.6330347e-004
+4.7040000e+003    +2.0788216e-003
+4.7120000e+003    +1.7341403e-003
+4.7200000e+003    +2.2441693e-004
+4.7280000e+003    +2.7151706e-004
+4.7360000e+003    +4.9907563e-004
+4.7440000e+003    +7.6021743e-004
+4.7520000e+003    +1.0461931e-003
+4.7600000e+003    +9.1876485e-004
+4.7680000e+003    +1.1185994e-003
+4.7760000e+003    +7.2283758e-004
+4.7840000e+003    +6.9941184e-004
+4.7920000e+003    +1.4855830e-003
+4.8000000e+003    +9.6195663e-004
+4.8080000e+003    +5.2638870e-004
+4.8160000e+003    +6.4244337e-004
+4.8240000e+003    +9.1857574e-004
+4.8320000e+003    +5.5694819e-004
+4.8400000e+003    +1.0206376e-003
+4.8480000e+003    +1.5450064e-003
+4.8560000e+003    +9.6012588e-004
+4.8640000e+003    +4.3618825e-004
+4.8720000e+003    +8.4105332e-004
+4.8800000e+003    +1.6628555e-004
+4.8880000e+003    +3.7418943e-004
+4.8960000e+003    +2.7802613e-004
+4.9040000e+003    +2.8087912e-004
+4.9120000e+003    +2.0651991e-004
+4.9200000e+003    +2.8408732e-004
+4.9280000e+003    +5.0751946e-004
+4.9360000e+003    +3.1507714e-004
+4.9440000e+003    +1.9758043e-003
+4.9520000e+003    +2.4817253e-003
+4.9600000e+003    +1.8102262e-003
+4.9680000e+003    +1.0922282e-004
+4.9760000e+003    +1.8132161e-004
+4.9840000e+003    +2.6448030e-004
+4.9920000e+003    +5.4469827e-004
+5.0000000e+003    +1.0283428e-003
+5.0080000e+003    +1.8706547e-004
+5.0160000e+003    +1.0515596e-003
+5.0240000e+003    +9.5170173e-005
+5.0320000e+003    +1.4740942e-004
+5.0400000e+003    +9.0547063e-004
+5.0480000e+003    +5.1629398e-004
+5.0560000e+003    +4.9168168e-004
+5.0640000e+003    +1.4428642e-003
+5.0720000e+003    +1.9145684e-003
+5.0800000e+003    +5.3906697e-005
+5.0880000e+003    +3.0424967e-004
+5.0960000e+003    +1.2950231e-003
+5.1040000e+003    +1.1129268e-003
+5.1120000e+003    +2.8472560e-004
+5.1200000e+003    +6.5802271e-004
+5.1280000e+003    +5.2254729e-004
+5.1360000e+003    +4.3132369e-004
+5.1440000e+003    +7.9643045e-004
+5.1520000e+003    +6.8522105e-004
+5.1600000e+003    +2.9483595e-004
+5.1680000e+003    +1.2750617e-003
+5.1760000e+003    +1.7884800e-003
+5.1840000e+003    +1.8593831e-003
+5.1920000e+003    +3.5394277e-004
+5.2000000e+003    +4.2701216e-004
+5.2080000e+003    +3.6168564e-004
+5.2160000e+003    +2.6264967e-004
+5.2240000e+003    +4.3807540e-004
+5.2320000e+003    +6.6209017e-005
+5.2400000e+003    +3.1319706e-004
+5.2480000e+003    +9.1897824e-004
+5.2560000e+003    +1.0827282e-003
+5.2640000e+003    +8.3626877e-004
+5.2720000e+003    +9.6688734e-004
+5.2800000e+003    +7.6280936e-004
+5.2880000e+003    +4.3774437e-004
+5.2960000e+003    +3.0282943e-004
+5.3040000e+003    +4.3851549e-005
+5.3120000e+003    +4.1239557e-004
+5.3200000e+003    +6.2185654e-004
+5.3280000e+003    +4.9472577e-004
+5.3360000e+003    +4.8026443e-004
+5.3440000e+003    +7.1899232e-004
+5.3520000e+003    +4.9789588e-004
+5.3600000e+003    +1.8538568e-003
+5.3680000e+003    +8.6887338e-004
+5.3760000e+003    +2.5472365e-004
+5.3840000e+003    +4.0530716e-004
+5.3920000e+003    +3.1557187e-004
+5.4000000e+003    +4.1673039e-004
+5.4080000e+003    +9.8762312e-004
+5.4160000e+003    +1.2072133e-003
+5.4240000e+003    +5.7339179e-004
+5.4320000e+003    +2.7112814e-004
+5.4400000e+003    +2.8619368e-004
+5.4480000e+003    +5.0955324e-004
+5.4560000e+003    +3.8458928e-004
+5.4640000e+003    +3.0407534e-004
+5.4720000e+003    +2.5672049e-004
+5.4800000e+003    +7.9523947e-005
+5.4880000e+003    +3.0271590e-004
+5.4960000e+003    +1.0568724e-003
+5.5040000e+003    +3.4693046e-004
+5.5120000e+003    +3.8516271e-004
+5.5200000e+003    +4.2484436e-004
+5.5280000e+003    +4.6689785e-004
+5.5360000e+003    +1.0148353e-003
+5.5440000e+003    +9.4702671e-004
+5.5520000e+003    +4.2500603e-004
+5.5600000e+003    +5.4235087e-004
+5.5680000e+003    +7.6687423e-004
+5.5760000e+003    +9.1854803e-004
+5.5840000e+003    +1.0375388e-003
+5.5920000e+003    +8.7396300e-004
+5.6000000e+003    +7.8051275e-004
+5.6080000e+003    +7.8188122e-004
+5.6160000e+003    +3.1499742e-004
+5.6240000e+003    +2.2699132e-004
+5.6320000e+003    +4.5716230e-004
+5.6400000e+003    +1.1500586e-003
+5.6480000e+003    +1.5354989e-003
+5.6560000e+003    +2.2232018e-003
+5.6640000e+003    +5.8261905e-004
+5.6720000e+003    +2.5105028e-004
+5.6800000e+003    +7.9235545e-004
+5.6880000e+003    +9.5853012e-004
+5.6960000e+003    +7.2700070e-004
+5.7040000e+003    +1.6951504e-003
+5.7120000e+003    +2.0494559e-003
+5.7200000e+003    +3.7775392e-004
+5.7280000e+003    +1.7697927e-004
+5.7360000e+003    +2.4722610e-004
+5.7440000e+003    +2.0430125e-004
+5.7520000e+003    +1.2040674e-004
+5.7600000e+003    +3.8055622e-004
+5.7680000e+003    +2.8753211e-004
+5.7760000e+003    +2.7968435e-004
+5.7840000e+003    +6.7352341e-004
+5.7920000e+003    +9.7257935e-004
+5.8000000e+003    +7.4036286e-004
+5.8080000e+003    +5.0805550e-004
+5.8160000e+003    +6.6550908e-004
+5.8240000e+003    +4.0772406e-004
+5.8320000e+003    +1.1001356e-004
+5.8400000e+003    +7.3232583e-004
+5.8480000e+003    +8.6073653e-004
+5.8560000e+003    +8.1492931e-004
+5.8640000e+003    +6.6642486e-004
+5.8720000e+003    +1.2867925e-003
+5.8800000e+003    +1.1605317e-003
+5.8880000e+003    +1.1212800e-003
+5.8960000e+003    +1.5181868e-004
+5.9040000e+003    +1.3060610e-004
+5.9120000e+003    +2.2982500e-004
+5.9200000e+003    +1.0613005e-003
+5.9280000e+003    +1.2405141e-003
+5.9360000e+003    +8.0127642e-004
+5.9440000e+003    +8.8239292e-004
+5.9520000e+003    +6.1883614e-004
+5.9600000e+003    +3.0336573e-004
+5.9680000e+003    +7.0413935e-004
+5.9760000e+003    +5.2598485e-004
+5.9840000e+003    +2.2891887e-004
+5.9920000e+003    +5.2922918e-004
+6.0000000e+003    +4.0859391e-004
+6.0080000e+003    +1.5356599e-003
+6.0160000e+003    +9.4432192e-004
+6.0240000e+003    +2.0739724e-004
+6.0320000e+003    +5.0030049e-004
+6.0400000e+003    +1.9404974e-003
+6.0480000e+003    +2.7413844e-004
+6.0560000e+003    +6.2381098e-004
+6.0640000e+003    +8.3878427e-004
+6.0720000e+003    +7.4033602e-004
+6.0800000e+003    +5.4943381e-004
+6.0880000e+003    +1.1947976e-003
+6.0960000e+003    +1.2111058e-003
+6.1040000e+003    +6.7601679e-004
+6.1120000e+003    +6.7632378e-004
+6.1200000e+003    +5.7364459e-004
+6.1280000e+003    +5.2317185e-004
+6.1360000e+003    +3.1174941e-004
+6.1440000e+003    +1.1532551e-004
+6.1520000e+003    +3.1807803e-004
+6.1600000e+003    +1.0393379e-004
+6.1680000e+003    +8.1003364e-004
+6.1760000e+003    +7.6276914e-004
+6.1840000e+003    +3.0599776e-004
+6.1920000e+003    +2.7798201e-004
+6.2000000e+003    +2.3448577e-003
+6.2080000e+003    +1.9318941e-003
+6.2160000e+003    +1.1903627e-003
+6.2240000e+003    +6.8109186e-004
+6.2320000e+003    +4.3592849e-004
+6.2400000e+003    +3.7926584e-004
+6.2480000e+003    +2.7917535e-004
+6.2560000e+003    +8.8320085e-004
+6.2640000e+003    +1.2919697e-003
+6.2720000e+003    +1.0736266e-004
+6.2800000e+003    +1.0858181e-004
+6.2880000e+003    +1.9560532e-004
+6.2960000e+003    +6.3892934e-005
+6.3040000e+003    +8.0741156e-004
+6.3120000e+003    +8.0654636e-004
+6.3200000e+003    +1.9223473e-004
+6.3280000e+003    +3.6288353e-004
+6.3360000e+003    +6.4062118e-004
+6.3440000e+003    +2.4698558e-004
+6.3520000e+003    +2.0531204e-003
+6.3600000e+003    +2.3666203e-003
+6.3680000e+003    +1.9968564e-003
+6.3760000e+003    +7.9865375e-004
+6.3840000e+003    +1.2553199e-003
+6.3920000e+003    +3.0311136e-004
