# SR785 Measurement - Timestamp: Jan 03 2019 - 21:44:13
#---------- Measurement Setup ------------
# Start Frequency (Hz): 0.000000
# Frequency Span (Hz): 6400.000000
# Frequency Resolution: 800
# Number of Averages: 2
# Averaging Mode: None
# Window function: BMH
#---------- Measurement Parameters ----------
# Measurement Group:  "FFT" "FFT"
# Measurements:  "FFT 1" "FFT 2"
# View:  "Log Magnitude" "Log Magnitude"
# Unit:  "dBVpk" "Vrms/rtHz"
#---------- Input Parameters ----------
# Input Source: Analog
# Input Mode: Single ended, Single ended
# Input Grounding: Float, Float
# Input Coupling: AC, DC
# Input Range: -14.0dBVpk, 22.0dBVpk
# Auto Range: On, On
# Auto Range Mode: Up Only, Normal
# Anti-Aliasing Filter: On, On
#---------- Source Parameters ----------
# Source Type: Sine
# Source Amplitude: 500.0mVpk
# Source On: 0

#---------- Measurement Data ----------
# [Freq(Hz) Display 0(dBVpk) Display 1(Vrms/rtHz) ]
+0.0000000e+000    +1.2555656e-001
+8.0000000e+000    +8.6153880e-002
+1.6000000e+001    +2.3002539e-002
+2.4000000e+001    +5.0128661e-003
+3.2000000e+001    +3.4555448e-003
+4.0000000e+001    +1.6926777e-003
+4.8000000e+001    +6.1097660e-004
+5.6000000e+001    +6.9077920e-005
+6.4000000e+001    +8.1587292e-005
+7.2000000e+001    +5.2166532e-005
+8.0000000e+001    +3.8921702e-005
+8.8000000e+001    +1.8925990e-005
+9.6000000e+001    +5.3908887e-005
+1.0400000e+002    +7.0956499e-005
+1.1200000e+002    +6.3041058e-005
+1.2000000e+002    +5.4910994e-005
+1.2800000e+002    +1.1965016e-004
+1.3600000e+002    +1.1810623e-004
+1.4400000e+002    +4.9532366e-005
+1.5200000e+002    +2.8758104e-005
+1.6000000e+002    +1.1372120e-004
+1.6800000e+002    +4.8343234e-005
+1.7600000e+002    +7.0175141e-005
+1.8400000e+002    +1.6364669e-005
+1.9200000e+002    +6.4855296e-005
+2.0000000e+002    +1.5085685e-005
+2.0800000e+002    +4.0536324e-005
+2.1600000e+002    +5.9825910e-005
+2.2400000e+002    +5.9486752e-005
+2.3200000e+002    +4.2611198e-005
+2.4000000e+002    +3.4207140e-005
+2.4800000e+002    +4.6128520e-005
+2.5600000e+002    +4.1533651e-005
+2.6400000e+002    +3.5688900e-005
+2.7200000e+002    +3.0886487e-005
+2.8000000e+002    +3.7497659e-005
+2.8800000e+002    +1.0727465e-004
+2.9600000e+002    +1.3031275e-004
+3.0400000e+002    +6.9067304e-005
+3.1200000e+002    +5.2516400e-005
+3.2000000e+002    +6.8260335e-005
+3.2800000e+002    +6.2892832e-005
+3.3600000e+002    +4.4630327e-005
+3.4400000e+002    +6.7668290e-005
+3.5200000e+002    +6.6570421e-005
+3.6000000e+002    +2.2357508e-005
+3.6800000e+002    +3.3873606e-005
+3.7600000e+002    +7.4936746e-005
+3.8400000e+002    +2.0406911e-005
+3.9200000e+002    +6.9828588e-005
+4.0000000e+002    +4.6631842e-005
+4.0800000e+002    +8.9385241e-005
+4.1600000e+002    +6.0258040e-005
+4.2400000e+002    +6.1977757e-005
+4.3200000e+002    +1.2682474e-004
+4.4000000e+002    +3.3128639e-005
+4.4800000e+002    +1.7975091e-005
+4.5600000e+002    +5.5321285e-005
+4.6400000e+002    +9.6039526e-005
+4.7200000e+002    +1.5221817e-004
+4.8000000e+002    +1.3902858e-004
+4.8800000e+002    +1.3203394e-004
+4.9600000e+002    +1.2657477e-004
+5.0400000e+002    +1.2644455e-004
+5.1200000e+002    +2.8314333e-005
+5.2000000e+002    +7.0773654e-005
+5.2800000e+002    +9.9772435e-005
+5.3600000e+002    +1.2116040e-004
+5.4400000e+002    +7.9682926e-005
+5.5200000e+002    +9.4210052e-005
+5.6000000e+002    +9.8673539e-005
+5.6800000e+002    +4.0409941e-005
+5.7600000e+002    +1.8763753e-004
+5.8400000e+002    +2.1247423e-004
+5.9200000e+002    +1.8572867e-004
+6.0000000e+002    +1.0077524e-004
+6.0800000e+002    +1.2372264e-004
+6.1600000e+002    +1.2997902e-004
+6.2400000e+002    +9.3073351e-005
+6.3200000e+002    +6.8671681e-005
+6.4000000e+002    +1.5784800e-004
+6.4800000e+002    +2.1458953e-004
+6.5600000e+002    +2.1625358e-004
+6.6400000e+002    +1.9554465e-004
+6.7200000e+002    +2.7277129e-004
+6.8000000e+002    +2.2034341e-004
+6.8800000e+002    +1.3424060e-004
+6.9600000e+002    +6.6344946e-005
+7.0400000e+002    +1.1573136e-004
+7.1200000e+002    +1.4920571e-004
+7.2000000e+002    +7.6072552e-005
+7.2800000e+002    +5.6994213e-005
+7.3600000e+002    +7.8331796e-005
+7.4400000e+002    +9.1323338e-005
+7.5200000e+002    +8.8409681e-005
+7.6000000e+002    +1.4941080e-004
+7.6800000e+002    +1.1786941e-004
+7.7600000e+002    +2.4589864e-004
+7.8400000e+002    +1.2574933e-004
+7.9200000e+002    +9.1172958e-005
+8.0000000e+002    +1.0479681e-004
+8.0800000e+002    +1.3510851e-004
+8.1600000e+002    +9.0172347e-005
+8.2400000e+002    +6.3486441e-005
+8.3200000e+002    +2.3575172e-004
+8.4000000e+002    +3.1647264e-004
+8.4800000e+002    +7.4372649e-005
+8.5600000e+002    +7.0833439e-006
+8.6400000e+002    +1.9492365e-005
+8.7200000e+002    +6.3445608e-005
+8.8000000e+002    +8.7628629e-005
+8.8800000e+002    +2.8763426e-004
+8.9600000e+002    +2.7106312e-004
+9.0400000e+002    +1.2802184e-004
+9.1200000e+002    +1.5559269e-004
+9.2000000e+002    +1.3494403e-004
+9.2800000e+002    +1.4103459e-004
+9.3600000e+002    +1.0500263e-004
+9.4400000e+002    +4.8027653e-004
+9.5200000e+002    +4.0778966e-004
+9.6000000e+002    +3.7891787e-004
+9.6800000e+002    +6.2130066e-004
+9.7600000e+002    +6.7646825e-004
+9.8400000e+002    +4.2088982e-003
+9.9200000e+002    +4.3036574e-003
+1.0000000e+003    +7.1321578e-005
+1.0080000e+003    +1.2442394e-004
+1.0160000e+003    +2.3390578e-004
+1.0240000e+003    +1.2485377e-004
+1.0320000e+003    +4.2756292e-004
+1.0400000e+003    +5.1343214e-004
+1.0480000e+003    +2.2592551e-004
+1.0560000e+003    +2.9790821e-005
+1.0640000e+003    +1.7733680e-004
+1.0720000e+003    +4.0445541e-004
+1.0800000e+003    +3.5577026e-004
+1.0880000e+003    +1.3017567e-004
+1.0960000e+003    +2.0792038e-004
+1.1040000e+003    +1.7559806e-004
+1.1120000e+003    +4.2255185e-004
+1.1200000e+003    +3.0049638e-004
+1.1280000e+003    +3.5968595e-004
+1.1360000e+003    +2.8072373e-004
+1.1440000e+003    +3.3663830e-005
+1.1520000e+003    +2.7959299e-004
+1.1600000e+003    +1.2764044e-004
+1.1680000e+003    +1.7815860e-004
+1.1760000e+003    +8.1260536e-005
+1.1840000e+003    +1.0794290e-004
+1.1920000e+003    +4.9816986e-004
+1.2000000e+003    +6.6136214e-004
+1.2080000e+003    +3.1571067e-004
+1.2160000e+003    +1.1988160e-004
+1.2240000e+003    +1.2122706e-004
+1.2320000e+003    +1.2492426e-004
+1.2400000e+003    +1.9307269e-004
+1.2480000e+003    +8.6520689e-005
+1.2560000e+003    +8.6228596e-005
+1.2640000e+003    +1.7405421e-004
+1.2720000e+003    +2.2013135e-004
+1.2800000e+003    +1.8245493e-004
+1.2880000e+003    +2.2706972e-004
+1.2960000e+003    +3.4671740e-004
+1.3040000e+003    +3.8324881e-004
+1.3120000e+003    +2.2614813e-004
+1.3200000e+003    +1.9132707e-004
+1.3280000e+003    +1.4702181e-004
+1.3360000e+003    +3.0889336e-004
+1.3440000e+003    +1.9897305e-004
+1.3520000e+003    +7.6822515e-005
+1.3600000e+003    +3.8121990e-004
+1.3680000e+003    +6.8915426e-004
+1.3760000e+003    +7.1805314e-004
+1.3840000e+003    +3.8739442e-004
+1.3920000e+003    +9.5732110e-005
+1.4000000e+003    +5.0586462e-004
+1.4080000e+003    +2.4297013e-004
+1.4160000e+003    +2.3156333e-004
+1.4240000e+003    +3.3915977e-004
+1.4320000e+003    +2.8178509e-004
+1.4400000e+003    +1.4346451e-004
+1.4480000e+003    +2.1005815e-004
+1.4560000e+003    +6.4818065e-005
+1.4640000e+003    +5.9015365e-005
+1.4720000e+003    +6.3629739e-004
+1.4800000e+003    +4.4884314e-004
+1.4880000e+003    +1.7824577e-004
+1.4960000e+003    +1.8235118e-004
+1.5040000e+003    +1.7038318e-004
+1.5120000e+003    +7.0375175e-004
+1.5200000e+003    +8.5423049e-004
+1.5280000e+003    +2.5076984e-004
+1.5360000e+003    +7.1383151e-004
+1.5440000e+003    +3.1299097e-004
+1.5520000e+003    +1.5893570e-004
+1.5600000e+003    +3.5720810e-004
+1.5680000e+003    +3.7124730e-004
+1.5760000e+003    +4.7363952e-004
+1.5840000e+003    +3.5527840e-004
+1.5920000e+003    +1.6339005e-004
+1.6000000e+003    +2.2055206e-004
+1.6080000e+003    +2.3449786e-004
+1.6160000e+003    +7.2426279e-005
+1.6240000e+003    +2.3715261e-004
+1.6320000e+003    +1.7581509e-004
+1.6400000e+003    +2.4991488e-004
+1.6480000e+003    +1.5727979e-004
+1.6560000e+003    +2.5302888e-004
+1.6640000e+003    +2.6252453e-004
+1.6720000e+003    +7.1777213e-005
+1.6800000e+003    +4.4697511e-004
+1.6880000e+003    +4.9144286e-004
+1.6960000e+003    +7.1046426e-004
+1.7040000e+003    +3.8219368e-004
+1.7120000e+003    +3.0112438e-004
+1.7200000e+003    +4.0724312e-004
+1.7280000e+003    +7.2939292e-004
+1.7360000e+003    +6.5704196e-004
+1.7440000e+003    +4.6681918e-004
+1.7520000e+003    +5.8553502e-004
+1.7600000e+003    +4.5060026e-004
+1.7680000e+003    +5.4955599e-004
+1.7760000e+003    +3.9094070e-004
+1.7840000e+003    +5.4305460e-004
+1.7920000e+003    +6.6802412e-004
+1.8000000e+003    +9.2614320e-004
+1.8080000e+003    +1.0214088e-003
+1.8160000e+003    +1.1543802e-003
+1.8240000e+003    +8.0111454e-004
+1.8320000e+003    +6.4221665e-004
+1.8400000e+003    +5.4847577e-004
+1.8480000e+003    +6.3697790e-004
+1.8560000e+003    +7.9303695e-004
+1.8640000e+003    +8.7203155e-004
+1.8720000e+003    +1.2472115e-003
+1.8800000e+003    +6.5323460e-004
+1.8880000e+003    +8.4652629e-004
+1.8960000e+003    +9.9370773e-005
+1.9040000e+003    +8.5587009e-005
+1.9120000e+003    +1.5743831e-004
+1.9200000e+003    +1.3724739e-004
+1.9280000e+003    +1.4529646e-004
+1.9360000e+003    +3.0052409e-004
+1.9440000e+003    +4.9975858e-004
+1.9520000e+003    +7.1226613e-004
+1.9600000e+003    +1.0062713e-003
+1.9680000e+003    +6.1021099e-004
+1.9760000e+003    +4.6117784e-004
+1.9840000e+003    +3.4457378e-004
+1.9920000e+003    +5.4456911e-004
+2.0000000e+003    +8.3217042e-004
+2.0080000e+003    +7.9097948e-004
+2.0160000e+003    +9.2502328e-004
+2.0240000e+003    +9.0435689e-004
+2.0320000e+003    +9.7456225e-004
+2.0400000e+003    +8.1273250e-004
+2.0480000e+003    +1.0588912e-003
+2.0560000e+003    +1.4806669e-003
+2.0640000e+003    +5.0483370e-004
+2.0720000e+003    +1.3717440e-004
+2.0800000e+003    +7.9386675e-004
+2.0880000e+003    +1.0941864e-003
+2.0960000e+003    +9.1332867e-004
+2.1040000e+003    +1.8502280e-004
+2.1120000e+003    +3.2441685e-004
+2.1200000e+003    +2.8276648e-003
+2.1280000e+003    +2.5816858e-003
+2.1360000e+003    +8.7690179e-004
+2.1440000e+003    +8.2043628e-004
+2.1520000e+003    +2.4968627e-004
+2.1600000e+003    +8.8946498e-004
+2.1680000e+003    +7.4958429e-004
+2.1760000e+003    +7.9034577e-004
+2.1840000e+003    +6.1313005e-004
+2.1920000e+003    +2.5254706e-004
+2.2000000e+003    +1.1202636e-003
+2.2080000e+003    +7.7736675e-004
+2.2160000e+003    +4.1530479e-004
+2.2240000e+003    +1.6157459e-003
+2.2320000e+003    +2.0960176e-003
+2.2400000e+003    +2.2463263e-003
+2.2480000e+003    +2.4101129e-003
+2.2560000e+003    +2.2823812e-004
+2.2640000e+003    +4.4839983e-004
+2.2720000e+003    +1.4602703e-003
+2.2800000e+003    +9.6296740e-004
+2.2880000e+003    +2.8669610e-004
+2.2960000e+003    +9.6469710e-004
+2.3040000e+003    +3.0553012e-004
+2.3120000e+003    +1.7213613e-003
+2.3200000e+003    +1.7884339e-003
+2.3280000e+003    +2.5633026e-003
+2.3360000e+003    +1.5891468e-003
+2.3440000e+003    +1.7269676e-003
+2.3520000e+003    +1.7992556e-003
+2.3600000e+003    +1.1093011e-003
+2.3680000e+003    +1.0054082e-003
+2.3760000e+003    +1.4509201e-003
+2.3840000e+003    +1.8829558e-003
+2.3920000e+003    +8.5955649e-004
+2.4000000e+003    +5.8249978e-004
+2.4080000e+003    +2.7645633e-003
+2.4160000e+003    +2.9568416e-003
+2.4240000e+003    +5.9516740e-004
+2.4320000e+003    +7.5710873e-004
+2.4400000e+003    +1.7988497e-003
+2.4480000e+003    +4.2440844e-004
+2.4560000e+003    +1.2170143e-003
+2.4640000e+003    +1.3728997e-003
+2.4720000e+003    +1.1534097e-003
+2.4800000e+003    +1.7869833e-003
+2.4880000e+003    +2.1198478e-003
+2.4960000e+003    +1.3047567e-003
+2.5040000e+003    +1.0065818e-003
+2.5120000e+003    +1.1165392e-003
+2.5200000e+003    +9.5691130e-004
+2.5280000e+003    +6.1182177e-004
+2.5360000e+003    +1.2491946e-003
+2.5440000e+003    +8.9765608e-004
+2.5520000e+003    +1.1262920e-003
+2.5600000e+003    +1.8234159e-003
+2.5680000e+003    +2.8936964e-004
+2.5760000e+003    +6.1252346e-004
+2.5840000e+003    +1.5262836e-003
+2.5920000e+003    +1.1122916e-003
+2.6000000e+003    +9.4182853e-004
+2.6080000e+003    +5.7331531e-004
+2.6160000e+003    +5.4146792e-004
+2.6240000e+003    +9.3670154e-004
+2.6320000e+003    +1.3128095e-003
+2.6400000e+003    +1.3211159e-003
+2.6480000e+003    +1.0556965e-003
+2.6560000e+003    +9.9164236e-004
+2.6640000e+003    +1.3909774e-003
+2.6720000e+003    +1.2450990e-003
+2.6800000e+003    +1.3678074e-003
+2.6880000e+003    +2.9229652e-003
+2.6960000e+003    +1.1859982e-003
+2.7040000e+003    +3.5935949e-004
+2.7120000e+003    +1.8316929e-003
+2.7200000e+003    +1.0884190e-003
+2.7280000e+003    +1.4212840e-003
+2.7360000e+003    +1.8971219e-003
+2.7440000e+003    +9.5818553e-004
+2.7520000e+003    +8.2809757e-004
+2.7600000e+003    +5.2486942e-004
+2.7680000e+003    +5.9924589e-004
+2.7760000e+003    +7.6709484e-004
+2.7840000e+003    +3.7726152e-003
+2.7920000e+003    +4.0241960e-003
+2.8000000e+003    +3.3262875e-003
+2.8080000e+003    +4.2567523e-003
+2.8160000e+003    +2.9204022e-003
+2.8240000e+003    +3.5065375e-003
+2.8320000e+003    +2.3100176e-003
+2.8400000e+003    +2.0510440e-003
+2.8480000e+003    +1.4463553e-003
+2.8560000e+003    +7.0803543e-003
+2.8640000e+003    +6.0892194e-003
+2.8720000e+003    +4.9673615e-004
+2.8800000e+003    +1.0827543e-003
+2.8880000e+003    +6.3606235e-004
+2.8960000e+003    +1.3516846e-003
+2.9040000e+003    +1.3409897e-003
+2.9120000e+003    +1.5168879e-003
+2.9200000e+003    +1.5281499e-003
+2.9280000e+003    +2.3962248e-003
+2.9360000e+003    +2.6402087e-003
+2.9440000e+003    +2.7943894e-003
+2.9520000e+003    +3.8238592e-003
+2.9600000e+003    +3.3278675e-003
+2.9680000e+003    +2.3493906e-003
+2.9760000e+003    +1.4816207e-003
+2.9840000e+003    +2.3096243e-003
+2.9920000e+003    +7.5302701e-003
+3.0000000e+003    +7.5791758e-003
+3.0080000e+003    +1.1762662e-003
+3.0160000e+003    +7.8592863e-004
+3.0240000e+003    +3.4906997e-003
+3.0320000e+003    +3.7958161e-003
+3.0400000e+003    +3.5656861e-003
+3.0480000e+003    +4.2267549e-003
+3.0560000e+003    +2.8343697e-003
+3.0640000e+003    +1.9851569e-003
+3.0720000e+003    +1.9028180e-003
+3.0800000e+003    +1.5835271e-003
+3.0880000e+003    +1.9807937e-003
+3.0960000e+003    +9.3400420e-004
+3.1040000e+003    +1.2479540e-003
+3.1120000e+003    +3.4985866e-003
+3.1200000e+003    +2.6996313e-003
+3.1280000e+003    +9.6053287e-004
+3.1360000e+003    +1.9953782e-003
+3.1440000e+003    +2.6251618e-003
+3.1520000e+003    +8.4852881e-004
+3.1600000e+003    +6.8643678e-004
+3.1680000e+003    +2.4469799e-004
+3.1760000e+003    +3.3580768e-004
+3.1840000e+003    +7.3886095e-003
+3.1920000e+003    +1.2060104e-002
+3.2000000e+003    +1.3084422e-002
+3.2080000e+003    +1.2505628e-003
+3.2160000e+003    +2.1082016e-003
+3.2240000e+003    +1.2227052e-003
+3.2320000e+003    +1.2089555e-003
+3.2400000e+003    +1.1636558e-003
+3.2480000e+003    +8.8165691e-003
+3.2560000e+003    +4.7211880e-003
+3.2640000e+003    +8.0479179e-003
+3.2720000e+003    +1.5900430e-004
+3.2800000e+003    +4.3499257e-004
+3.2880000e+003    +5.8897457e-004
+3.2960000e+003    +1.0791541e-003
+3.3040000e+003    +1.0630691e-003
+3.3120000e+003    +1.4366517e-003
+3.3200000e+003    +1.9028264e-003
+3.3280000e+003    +1.3717139e-003
+3.3360000e+003    +9.5009175e-004
+3.3440000e+003    +2.6154679e-003
+3.3520000e+003    +2.4926909e-003
+3.3600000e+003    +1.6788184e-003
+3.3680000e+003    +1.2148649e-003
+3.3760000e+003    +1.8531232e-003
+3.3840000e+003    +6.5428263e-004
+3.3920000e+003    +6.0541544e-004
+3.4000000e+003    +1.0982957e-003
+3.4080000e+003    +5.1672553e-004
+3.4160000e+003    +5.2411249e-004
+3.4240000e+003    +7.2670146e-004
+3.4320000e+003    +1.7322174e-004
+3.4400000e+003    +1.3417430e-003
+3.4480000e+003    +1.7291732e-003
+3.4560000e+003    +1.0265897e-003
+3.4640000e+003    +1.0009282e-003
+3.4720000e+003    +6.6798930e-003
+3.4800000e+003    +5.5466951e-003
+3.4880000e+003    +3.7925481e-003
+3.4960000e+003    +9.0157794e-004
+3.5040000e+003    +1.6620861e-003
+3.5120000e+003    +1.3109125e-003
+3.5200000e+003    +8.1451604e-004
+3.5280000e+003    +1.0325968e-003
+3.5360000e+003    +8.9596049e-004
+3.5440000e+003    +2.9956955e-003
+3.5520000e+003    +3.1897158e-003
+3.5600000e+003    +2.3335824e-003
+3.5680000e+003    +1.9532107e-003
+3.5760000e+003    +1.9357426e-003
+3.5840000e+003    +7.6917210e-004
+3.5920000e+003    +2.1715535e-004
+3.6000000e+003    +8.1853598e-004
+3.6080000e+003    +3.0019644e-004
+3.6160000e+003    +9.1662322e-004
+3.6240000e+003    +8.1497314e-004
+3.6320000e+003    +1.4347223e-003
+3.6400000e+003    +1.1131705e-003
+3.6480000e+003    +1.7297590e-003
+3.6560000e+003    +2.1523573e-003
+3.6640000e+003    +1.4965468e-003
+3.6720000e+003    +6.4886454e-004
+3.6800000e+003    +3.9376967e-004
+3.6880000e+003    +1.2329426e-003
+3.6960000e+003    +1.7336569e-003
+3.7040000e+003    +5.0475058e-004
+3.7120000e+003    +6.8454578e-004
+3.7200000e+003    +1.5769211e-004
+3.7280000e+003    +1.1830304e-003
+3.7360000e+003    +2.7330339e-004
+3.7440000e+003    +3.0068366e-004
+3.7520000e+003    +3.2561104e-004
+3.7600000e+003    +1.0959149e-003
+3.7680000e+003    +2.7029992e-003
+3.7760000e+003    +2.5866113e-003
+3.7840000e+003    +4.7271294e-004
+3.7920000e+003    +9.0764102e-004
+3.8000000e+003    +1.1844647e-003
+3.8080000e+003    +6.5910444e-004
+3.8160000e+003    +9.4396947e-004
+3.8240000e+003    +4.7367439e-004
+3.8320000e+003    +8.4865739e-004
+3.8400000e+003    +8.6837937e-004
+3.8480000e+003    +1.7045690e-003
+3.8560000e+003    +1.5468913e-003
+3.8640000e+003    +2.2955074e-003
+3.8720000e+003    +2.1618237e-003
+3.8800000e+003    +1.9449661e-003
+3.8880000e+003    +9.1279834e-004
+3.8960000e+003    +3.4601500e-004
+3.9040000e+003    +1.0308806e-003
+3.9120000e+003    +1.3481770e-003
+3.9200000e+003    +1.2211020e-003
+3.9280000e+003    +1.2245505e-003
+3.9360000e+003    +7.9378305e-004
+3.9440000e+003    +8.9377142e-004
+3.9520000e+003    +1.6144045e-003
+3.9600000e+003    +1.9639381e-003
+3.9680000e+003    +1.6709624e-003
+3.9760000e+003    +7.1953569e-004
+3.9840000e+003    +1.5243853e-004
+3.9920000e+003    +3.4553703e-004
+4.0000000e+003    +3.5825346e-004
+4.0080000e+003    +8.2077010e-004
+4.0160000e+003    +8.3642994e-004
+4.0240000e+003    +4.9294787e-005
+4.0320000e+003    +7.8611811e-005
+4.0400000e+003    +1.1066534e-003
+4.0480000e+003    +8.4378698e-004
+4.0560000e+003    +6.1714696e-004
+4.0640000e+003    +3.9114634e-004
+4.0720000e+003    +3.3912496e-004
+4.0800000e+003    +1.3928672e-003
+4.0880000e+003    +1.0501076e-003
+4.0960000e+003    +4.8851036e-004
+4.1040000e+003    +3.1009968e-004
+4.1120000e+003    +3.1270774e-004
+4.1200000e+003    +1.5170046e-003
+4.1280000e+003    +1.1578690e-003
+4.1360000e+003    +1.1358974e-003
+4.1440000e+003    +3.8999473e-004
+4.1520000e+003    +5.1414862e-004
+4.1600000e+003    +1.3789380e-003
+4.1680000e+003    +8.6325215e-004
+4.1760000e+003    +8.1573543e-004
+4.1840000e+003    +7.3851499e-004
+4.1920000e+003    +7.1833859e-004
+4.2000000e+003    +5.1845086e-004
+4.2080000e+003    +9.2433899e-004
+4.2160000e+003    +1.2178310e-003
+4.2240000e+003    +2.2001946e-003
+4.2320000e+003    +1.9718308e-003
+4.2400000e+003    +2.0447955e-003
+4.2480000e+003    +1.9992443e-003
+4.2560000e+003    +1.6212823e-003
+4.2640000e+003    +1.1011343e-003
+4.2720000e+003    +1.6857153e-003
+4.2800000e+003    +1.2402498e-003
+4.2880000e+003    +1.2450143e-003
+4.2960000e+003    +1.1510054e-003
+4.3040000e+003    +8.1269903e-004
+4.3120000e+003    +7.4173626e-004
+4.3200000e+003    +6.2738272e-004
+4.3280000e+003    +3.6997729e-004
+4.3360000e+003    +4.8077988e-004
+4.3440000e+003    +4.5743797e-004
+4.3520000e+003    +1.2237212e-003
+4.3600000e+003    +9.1629219e-004
+4.3680000e+003    +7.7158230e-004
+4.3760000e+003    +6.5248983e-004
+4.3840000e+003    +1.4006508e-004
+4.3920000e+003    +6.1764516e-004
+4.4000000e+003    +2.3913915e-004
+4.4080000e+003    +6.4842944e-004
+4.4160000e+003    +6.6130335e-004
+4.4240000e+003    +9.0250990e-004
+4.4320000e+003    +7.8571378e-004
+4.4400000e+003    +9.7032881e-004
+4.4480000e+003    +3.1803804e-004
+4.4560000e+003    +6.0543965e-004
+4.4640000e+003    +3.9447655e-004
+4.4720000e+003    +5.9000496e-004
+4.4800000e+003    +7.0223544e-004
+4.4880000e+003    +1.0945927e-004
+4.4960000e+003    +7.4770319e-004
+4.5040000e+003    +1.1710569e-003
+4.5120000e+003    +7.4815034e-004
+4.5200000e+003    +1.1665456e-003
+4.5280000e+003    +4.7147696e-004
+4.5360000e+003    +1.6100773e-004
+4.5440000e+003    +3.2579218e-004
+4.5520000e+003    +2.2094263e-004
+4.5600000e+003    +1.2581347e-004
+4.5680000e+003    +2.2497647e-004
+4.5760000e+003    +3.2275642e-004
+4.5840000e+003    +3.8725813e-004
+4.5920000e+003    +4.0836181e-004
+4.6000000e+003    +4.7411976e-004
+4.6080000e+003    +1.0616688e-004
+4.6160000e+003    +6.4272457e-004
+4.6240000e+003    +4.4901320e-004
+4.6320000e+003    +5.4796686e-004
+4.6400000e+003    +6.8284100e-004
+4.6480000e+003    +2.2421314e-003
+4.6560000e+003    +3.7234416e-004
+4.6640000e+003    +2.9957792e-004
+4.6720000e+003    +9.1403286e-004
+4.6800000e+003    +7.3737866e-004
+4.6880000e+003    +6.1871862e-004
+4.6960000e+003    +7.4439717e-004
+4.7040000e+003    +4.2508770e-004
+4.7120000e+003    +1.2144728e-003
+4.7200000e+003    +4.5668270e-004
+4.7280000e+003    +3.5212369e-004
+4.7360000e+003    +1.0141481e-003
+4.7440000e+003    +6.4319716e-004
+4.7520000e+003    +1.6866659e-004
+4.7600000e+003    +2.1232299e-004
+4.7680000e+003    +1.0894891e-003
+4.7760000e+003    +1.0019337e-003
+4.7840000e+003    +3.3882889e-004
+4.7920000e+003    +5.6039612e-004
+4.8000000e+003    +6.6951249e-004
+4.8080000e+003    +3.9626655e-004
+4.8160000e+003    +6.4660195e-004
+4.8240000e+003    +7.4499077e-004
+4.8320000e+003    +1.0200393e-003
+4.8400000e+003    +1.1238129e-003
+4.8480000e+003    +1.2778303e-003
+4.8560000e+003    +5.6448230e-004
+4.8640000e+003    +1.4203972e-004
+4.8720000e+003    +7.3725806e-004
+4.8800000e+003    +1.0754329e-003
+4.8880000e+003    +7.4744789e-004
+4.8960000e+003    +4.2418111e-004
+4.9040000e+003    +1.8862655e-004
+4.9120000e+003    +3.7080530e-004
+4.9200000e+003    +6.0541410e-004
+4.9280000e+003    +3.5562340e-004
+4.9360000e+003    +3.7095087e-004
+4.9440000e+003    +1.1413412e-003
+4.9520000e+003    +1.1613155e-004
+4.9600000e+003    +5.4901623e-004
+4.9680000e+003    +1.3539556e-003
+4.9760000e+003    +1.2914768e-003
+4.9840000e+003    +1.0758716e-003
+4.9920000e+003    +4.2994117e-004
+5.0000000e+003    +3.5227663e-004
+5.0080000e+003    +5.1633990e-004
+5.0160000e+003    +5.8172003e-004
+5.0240000e+003    +2.1232580e-004
+5.0320000e+003    +5.7979272e-004
+5.0400000e+003    +5.4169208e-004
+5.0480000e+003    +1.2503657e-003
+5.0560000e+003    +1.0318777e-003
+5.0640000e+003    +2.6683079e-004
+5.0720000e+003    +9.7465480e-004
+5.0800000e+003    +5.5635074e-004
+5.0880000e+003    +5.1365321e-004
+5.0960000e+003    +4.8706538e-004
+5.1040000e+003    +2.1230971e-004
+5.1120000e+003    +2.1879029e-004
+5.1200000e+003    +2.8297084e-004
+5.1280000e+003    +4.9545692e-004
+5.1360000e+003    +4.6016119e-004
+5.1440000e+003    +1.4676900e-003
+5.1520000e+003    +1.2123558e-003
+5.1600000e+003    +9.0536528e-004
+5.1680000e+003    +9.1745745e-004
+5.1760000e+003    +3.2181694e-004
+5.1840000e+003    +4.0056856e-004
+5.1920000e+003    +1.0562164e-004
+5.2000000e+003    +9.1515406e-004
+5.2080000e+003    +2.3499750e-004
+5.2160000e+003    +5.5748381e-004
+5.2240000e+003    +4.9349183e-004
+5.2320000e+003    +5.0481322e-004
+5.2400000e+003    +1.6588993e-004
+5.2480000e+003    +1.8532482e-004
+5.2560000e+003    +1.4248597e-003
+5.2640000e+003    +5.9378560e-004
+5.2720000e+003    +6.0344144e-004
+5.2800000e+003    +3.8985559e-004
+5.2880000e+003    +1.0431163e-003
+5.2960000e+003    +1.2776529e-003
+5.3040000e+003    +1.6164184e-004
+5.3120000e+003    +4.0936042e-004
+5.3200000e+003    +1.4594087e-004
+5.3280000e+003    +7.8343187e-004
+5.3360000e+003    +1.1149435e-003
+5.3440000e+003    +1.3363480e-003
+5.3520000e+003    +1.2583972e-003
+5.3600000e+003    +2.2052482e-004
+5.3680000e+003    +3.3976936e-005
+5.3760000e+003    +1.7976541e-004
+5.3840000e+003    +3.7197417e-004
+5.3920000e+003    +4.5509447e-004
+5.4000000e+003    +2.2122044e-004
+5.4080000e+003    +4.7857314e-004
+5.4160000e+003    +3.0027243e-004
+5.4240000e+003    +3.4691542e-004
+5.4320000e+003    +1.5368212e-004
+5.4400000e+003    +8.5074111e-004
+5.4480000e+003    +1.0737197e-003
+5.4560000e+003    +1.2774663e-003
+5.4640000e+003    +1.2669803e-003
+5.4720000e+003    +2.2261807e-004
+5.4800000e+003    +1.1918895e-004
+5.4880000e+003    +2.3406661e-004
+5.4960000e+003    +4.7233707e-004
+5.5040000e+003    +3.2820972e-004
+5.5120000e+003    +3.8503946e-004
+5.5200000e+003    +7.6213421e-004
+5.5280000e+003    +4.0241537e-004
+5.5360000e+003    +4.0299393e-004
+5.5440000e+003    +1.1572386e-003
+5.5520000e+003    +1.1651976e-003
+5.5600000e+003    +9.8576839e-004
+5.5680000e+003    +8.0088415e-005
+5.5760000e+003    +1.5607390e-003
+5.5840000e+003    +2.1139036e-003
+5.5920000e+003    +1.5043144e-003
+5.6000000e+003    +9.5930189e-004
+5.6080000e+003    +9.5592841e-004
+5.6160000e+003    +3.4747578e-004
+5.6240000e+003    +3.3782574e-004
+5.6320000e+003    +5.1104807e-004
+5.6400000e+003    +2.7643176e-004
+5.6480000e+003    +7.7486061e-004
+5.6560000e+003    +2.9615968e-004
+5.6640000e+003    +5.8708480e-004
+5.6720000e+003    +7.9621095e-004
+5.6800000e+003    +7.3013647e-004
+5.6880000e+003    +2.2469653e-004
+5.6960000e+003    +1.1986297e-003
+5.7040000e+003    +9.8455907e-004
+5.7120000e+003    +9.2877861e-004
+5.7200000e+003    +1.1800253e-003
+5.7280000e+003    +1.3040421e-003
+5.7360000e+003    +9.7277533e-004
+5.7440000e+003    +1.4784024e-003
+5.7520000e+003    +6.6897721e-004
+5.7600000e+003    +5.9852091e-004
+5.7680000e+003    +9.6911826e-005
+5.7760000e+003    +1.6941837e-004
+5.7840000e+003    +3.2779016e-004
+5.7920000e+003    +2.3232466e-004
+5.8000000e+003    +3.3011995e-004
+5.8080000e+003    +1.9306039e-003
+5.8160000e+003    +2.3993340e-003
+5.8240000e+003    +2.4743803e-004
+5.8320000e+003    +2.9546639e-004
+5.8400000e+003    +2.3079438e-004
+5.8480000e+003    +8.7418372e-004
+5.8560000e+003    +1.0229863e-003
+5.8640000e+003    +1.2087511e-003
+5.8720000e+003    +2.9860047e-004
+5.8800000e+003    +4.9145415e-004
+5.8880000e+003    +5.5611593e-004
+5.8960000e+003    +1.7036073e-004
+5.9040000e+003    +2.9023734e-004
+5.9120000e+003    +2.9777249e-004
+5.9200000e+003    +2.0449504e-004
+5.9280000e+003    +2.5190387e-003
+5.9360000e+003    +2.6205857e-003
+5.9440000e+003    +9.7193354e-004
+5.9520000e+003    +2.1401847e-004
+5.9600000e+003    +1.8003878e-004
+5.9680000e+003    +1.6102204e-003
+5.9760000e+003    +1.8648236e-003
+5.9840000e+003    +5.7486939e-004
+5.9920000e+003    +6.3993927e-004
+6.0000000e+003    +5.6478730e-004
+6.0080000e+003    +7.7863183e-004
+6.0160000e+003    +3.9480280e-004
+6.0240000e+003    +1.5802869e-003
+6.0320000e+003    +2.5927144e-004
+6.0400000e+003    +2.1407334e-004
+6.0480000e+003    +7.6699379e-004
+6.0560000e+003    +9.9220325e-004
+6.0640000e+003    +1.0782137e-003
+6.0720000e+003    +1.0790474e-003
+6.0800000e+003    +8.2930730e-004
+6.0880000e+003    +3.7460151e-004
+6.0960000e+003    +1.6443215e-004
+6.1040000e+003    +1.8801152e-004
+6.1120000e+003    +5.8155623e-004
+6.1200000e+003    +3.3899894e-004
+6.1280000e+003    +8.5219811e-004
+6.1360000e+003    +6.7683670e-004
+6.1440000e+003    +5.9487048e-004
+6.1520000e+003    +6.7424960e-004
+6.1600000e+003    +3.1847309e-004
+6.1680000e+003    +4.6244622e-004
+6.1760000e+003    +3.3381706e-004
+6.1840000e+003    +8.8021916e-004
+6.1920000e+003    +2.8399783e-004
+6.2000000e+003    +4.0080040e-004
+6.2080000e+003    +5.6963624e-004
+6.2160000e+003    +9.8261039e-004
+6.2240000e+003    +8.8781997e-004
+6.2320000e+003    +9.0046594e-004
+6.2400000e+003    +9.6734980e-004
+6.2480000e+003    +7.8309909e-004
+6.2560000e+003    +4.9717975e-004
+6.2640000e+003    +7.5251085e-004
+6.2720000e+003    +9.0531009e-004
+6.2800000e+003    +6.2538275e-005
+6.2880000e+003    +2.0362047e-004
+6.2960000e+003    +1.6177003e-004
+6.3040000e+003    +1.8114947e-004
+6.3120000e+003    +2.3660136e-003
+6.3200000e+003    +2.2400718e-003
+6.3280000e+003    +1.8760416e-003
+6.3360000e+003    +4.0587183e-004
+6.3440000e+003    +4.9332064e-004
+6.3520000e+003    +5.9199642e-004
+6.3600000e+003    +4.9334584e-004
+6.3680000e+003    +4.9960084e-004
+6.3760000e+003    +6.9449609e-004
+6.3840000e+003    +3.5248246e-004
+6.3920000e+003    +2.7231360e-004
