# SR785 Measurement - Timestamp: Jan 26 2019 - 00:37:37
#---------- Measurement Setup ------------
# Start Frequency (Hz): 0.000000
# Frequency Span (Hz): 12800.000000
# Frequency Resolution: 800
# Number of Averages: 2
# Averaging Mode: None
# Window function: BMH
#---------- Measurement Parameters ----------
# Measurement Group:  "FFT" "FFT"
# Measurements:  "FFT 1" "FFT 2"
# View:  "Log Magnitude" "Log Magnitude"
# Unit:  "Vrms/rtHz" "Vpk"
#---------- Input Parameters ----------
# Input Source: Analog
# Input Mode: Single ended, Single ended
# Input Grounding: Float, Float
# Input Coupling: AC, AC
# Input Range: 6.0dBVpk, 6.0dBVpk
# Auto Range: Off, Off
# Auto Range Mode: Up Only, Normal
# Anti-Aliasing Filter: On, On
#---------- Source Parameters ----------
# Source Type: Sine
# Source Amplitude: 500.0mVpk
# Source On: 0

#---------- Measurement Data ----------
# [Freq(Hz) Display 0(Vrms/rtHz) Display 1(Vpk) ]
+0.0000000e+000    +2.1153500e-002
+1.6000000e+001    +3.4417279e-002
+3.2000000e+001    +1.9367581e-002
+4.8000000e+001    +5.8572437e-003
+6.4000000e+001    +1.6002660e-003
+8.0000000e+001    +5.8660738e-004
+9.6000000e+001    +3.3274855e-004
+1.1200000e+002    +1.6748197e-004
+1.2800000e+002    +1.1528475e-004
+1.4400000e+002    +2.5367216e-004
+1.6000000e+002    +4.1688164e-004
+1.7600000e+002    +6.1749259e-004
+1.9200000e+002    +4.3201423e-004
+2.0800000e+002    +7.6419885e-005
+2.2400000e+002    +8.3708495e-005
+2.4000000e+002    +1.0155515e-004
+2.5600000e+002    +2.1418526e-004
+2.7200000e+002    +2.9647461e-004
+2.8800000e+002    +3.5712242e-004
+3.0400000e+002    +3.5908577e-004
+3.2000000e+002    +2.5825022e-004
+3.3600000e+002    +1.7811763e-004
+3.5200000e+002    +2.0334333e-004
+3.6800000e+002    +1.9565396e-004
+3.8400000e+002    +6.5315071e-005
+4.0000000e+002    +1.6423251e-004
+4.1600000e+002    +2.7792357e-004
+4.3200000e+002    +1.7181400e-004
+4.4800000e+002    +4.4929406e-005
+4.6400000e+002    +8.1638726e-005
+4.8000000e+002    +1.2911756e-004
+4.9600000e+002    +1.4055228e-004
+5.1200000e+002    +1.3819397e-004
+5.2800000e+002    +1.5480000e-004
+5.4400000e+002    +1.4271135e-004
+5.6000000e+002    +1.2537744e-004
+5.7600000e+002    +1.1386951e-004
+5.9200000e+002    +8.9153240e-005
+6.0800000e+002    +1.2903933e-004
+6.2400000e+002    +2.3028876e-004
+6.4000000e+002    +2.2184203e-004
+6.5600000e+002    +2.0710051e-004
+6.7200000e+002    +1.8576323e-004
+6.8800000e+002    +1.6412299e-004
+7.0400000e+002    +5.8492005e-005
+7.2000000e+002    +6.8511719e-005
+7.3600000e+002    +1.4388878e-004
+7.5200000e+002    +1.3204517e-004
+7.6800000e+002    +3.1001593e-005
+7.8400000e+002    +5.6208330e-005
+8.0000000e+002    +1.1980772e-004
+8.1600000e+002    +1.0031875e-004
+8.3200000e+002    +1.6001781e-004
+8.4800000e+002    +7.0765964e-005
+8.6400000e+002    +6.3411622e-005
+8.8000000e+002    +6.5067274e-005
+8.9600000e+002    +8.8226989e-005
+9.1200000e+002    +2.7110492e-004
+9.2800000e+002    +2.1100797e-004
+9.4400000e+002    +1.0847981e-004
+9.6000000e+002    +6.8265661e-005
+9.7600000e+002    +9.6518925e-005
+9.9200000e+002    +1.6661963e-004
+1.0080000e+003    +2.3389910e-004
+1.0240000e+003    +1.3465357e-004
+1.0400000e+003    +2.8407158e-005
+1.0560000e+003    +7.8745186e-005
+1.0720000e+003    +1.2698973e-004
+1.0880000e+003    +2.3242978e-004
+1.1040000e+003    +2.3510073e-004
+1.1200000e+003    +1.3417850e-004
+1.1360000e+003    +1.3991768e-004
+1.1520000e+003    +1.1237116e-004
+1.1680000e+003    +9.8602279e-005
+1.1840000e+003    +8.3701329e-005
+1.2000000e+003    +5.1522456e-005
+1.2160000e+003    +6.6018540e-005
+1.2320000e+003    +1.7668204e-004
+1.2480000e+003    +5.2709805e-005
+1.2640000e+003    +6.5921478e-005
+1.2800000e+003    +9.1163951e-005
+1.2960000e+003    +5.0008326e-005
+1.3120000e+003    +2.6924767e-005
+1.3280000e+003    +3.5379122e-005
+1.3440000e+003    +5.5895325e-005
+1.3600000e+003    +1.0528246e-004
+1.3760000e+003    +6.8489986e-005
+1.3920000e+003    +8.7813940e-005
+1.4080000e+003    +5.9709892e-005
+1.4240000e+003    +1.2225320e-005
+1.4400000e+003    +3.9798822e-005
+1.4560000e+003    +3.9611452e-005
+1.4720000e+003    +1.4026591e-004
+1.4880000e+003    +2.0048101e-004
+1.5040000e+003    +2.0305697e-004
+1.5200000e+003    +1.6362585e-004
+1.5360000e+003    +1.1194091e-004
+1.5520000e+003    +5.9288530e-005
+1.5680000e+003    +8.6329579e-005
+1.5840000e+003    +5.7405196e-005
+1.6000000e+003    +1.9253901e-005
+1.6160000e+003    +7.9828023e-006
+1.6320000e+003    +1.0184843e-004
+1.6480000e+003    +8.7496628e-005
+1.6640000e+003    +2.8107981e-005
+1.6800000e+003    +4.9198596e-005
+1.6960000e+003    +7.9965575e-005
+1.7120000e+003    +9.4629810e-005
+1.7280000e+003    +5.2998919e-005
+1.7440000e+003    +2.6942746e-005
+1.7600000e+003    +5.4685373e-005
+1.7760000e+003    +1.3465527e-004
+1.7920000e+003    +1.3317466e-004
+1.8080000e+003    +1.0333902e-004
+1.8240000e+003    +7.9098034e-005
+1.8400000e+003    +1.1380496e-004
+1.8560000e+003    +1.5501770e-004
+1.8720000e+003    +1.9172241e-004
+1.8880000e+003    +1.3963836e-004
+1.9040000e+003    +6.2880543e-005
+1.9200000e+003    +5.0495069e-005
+1.9360000e+003    +1.1746361e-005
+1.9520000e+003    +8.8294828e-006
+1.9680000e+003    +1.0846587e-004
+1.9840000e+003    +8.8307235e-005
+2.0000000e+003    +4.1421030e-005
+2.0160000e+003    +7.1116316e-005
+2.0320000e+003    +8.8117398e-005
+2.0480000e+003    +1.8041466e-004
+2.0640000e+003    +1.0528535e-004
+2.0800000e+003    +1.2292659e-004
+2.0960000e+003    +8.4645937e-005
+2.1120000e+003    +4.7462705e-005
+2.1280000e+003    +6.3915948e-005
+2.1440000e+003    +5.3306590e-005
+2.1600000e+003    +8.3840765e-005
+2.1760000e+003    +4.2463333e-005
+2.1920000e+003    +6.0630813e-005
+2.2080000e+003    +9.1194583e-005
+2.2240000e+003    +1.6398627e-004
+2.2400000e+003    +5.8310990e-005
+2.2560000e+003    +4.9927130e-005
+2.2720000e+003    +7.3939249e-005
+2.2880000e+003    +8.6858963e-005
+2.3040000e+003    +9.0967878e-005
+2.3200000e+003    +4.5302902e-005
+2.3360000e+003    +1.2776213e-004
+2.3520000e+003    +1.8936174e-004
+2.3680000e+003    +2.0793876e-004
+2.3840000e+003    +2.1218631e-005
+2.4000000e+003    +3.5664809e-005
+2.4160000e+003    +7.0659909e-005
+2.4320000e+003    +8.4391206e-005
+2.4480000e+003    +1.0357000e-004
+2.4640000e+003    +1.1437114e-004
+2.4800000e+003    +7.9692902e-005
+2.4960000e+003    +9.0836234e-005
+2.5120000e+003    +5.8356014e-005
+2.5280000e+003    +8.4242340e-005
+2.5440000e+003    +1.1881638e-004
+2.5600000e+003    +9.0849695e-005
+2.5760000e+003    +6.6334171e-005
+2.5920000e+003    +8.1897466e-005
+2.6080000e+003    +8.5924934e-005
+2.6240000e+003    +7.7329081e-005
+2.6400000e+003    +3.7361100e-005
+2.6560000e+003    +4.3314412e-005
+2.6720000e+003    +1.2575464e-004
+2.6880000e+003    +5.6289111e-005
+2.7040000e+003    +6.6118428e-006
+2.7200000e+003    +3.8597511e-005
+2.7360000e+003    +3.4455428e-005
+2.7520000e+003    +4.7756326e-005
+2.7680000e+003    +6.1934697e-005
+2.7840000e+003    +5.7426314e-006
+2.8000000e+003    +1.2495917e-004
+2.8160000e+003    +1.2618215e-004
+2.8320000e+003    +8.1501254e-005
+2.8480000e+003    +1.1715919e-004
+2.8640000e+003    +1.6258324e-005
+2.8800000e+003    +6.9460017e-005
+2.8960000e+003    +1.2451359e-004
+2.9120000e+003    +1.2039359e-004
+2.9280000e+003    +5.7410551e-005
+2.9440000e+003    +3.7561116e-005
+2.9600000e+003    +5.2727748e-005
+2.9760000e+003    +3.3895856e-005
+2.9920000e+003    +5.0667342e-005
+3.0080000e+003    +9.5913070e-005
+3.0240000e+003    +1.6131712e-004
+3.0400000e+003    +1.2783938e-004
+3.0560000e+003    +4.3887772e-005
+3.0720000e+003    +8.0645026e-005
+3.0880000e+003    +9.0595197e-005
+3.1040000e+003    +7.0244598e-005
+3.1200000e+003    +4.8380403e-005
+3.1360000e+003    +5.6145418e-005
+3.1520000e+003    +1.0445822e-004
+3.1680000e+003    +7.3826654e-005
+3.1840000e+003    +7.1593036e-005
+3.2000000e+003    +9.2734794e-005
+3.2160000e+003    +7.0531940e-005
+3.2320000e+003    +8.4107684e-005
+3.2480000e+003    +9.0261099e-005
+3.2640000e+003    +1.3277127e-004
+3.2800000e+003    +1.8451807e-004
+3.2960000e+003    +1.4462775e-004
+3.3120000e+003    +1.3614808e-004
+3.3280000e+003    +8.5182764e-005
+3.3440000e+003    +2.0320786e-005
+3.3600000e+003    +2.2837223e-004
+3.3760000e+003    +1.8325659e-004
+3.3920000e+003    +6.0268030e-005
+3.4080000e+003    +1.2716015e-004
+3.4240000e+003    +1.6527326e-004
+3.4400000e+003    +2.6625410e-005
+3.4560000e+003    +1.5026125e-005
+3.4720000e+003    +7.4892167e-005
+3.4880000e+003    +1.3584667e-004
+3.5040000e+003    +1.5403476e-004
+3.5200000e+003    +2.2667016e-004
+3.5360000e+003    +1.8394875e-004
+3.5520000e+003    +1.2122972e-004
+3.5680000e+003    +1.0139366e-004
+3.5840000e+003    +4.1272491e-005
+3.6000000e+003    +5.0901308e-005
+3.6160000e+003    +6.9503956e-005
+3.6320000e+003    +5.5018296e-005
+3.6480000e+003    +1.2393242e-004
+3.6640000e+003    +7.6805394e-005
+3.6800000e+003    +7.1209375e-005
+3.6960000e+003    +8.3015817e-005
+3.7120000e+003    +6.0016639e-005
+3.7280000e+003    +3.4717184e-005
+3.7440000e+003    +4.7191406e-005
+3.7600000e+003    +7.0946066e-005
+3.7760000e+003    +6.5242035e-005
+3.7920000e+003    +1.1463145e-004
+3.8080000e+003    +2.2206013e-004
+3.8240000e+003    +2.6617519e-004
+3.8400000e+003    +2.0868667e-004
+3.8560000e+003    +9.9461591e-003
+3.8720000e+003    +8.7717092e-003
+3.8880000e+003    +8.6929798e-003
+3.9040000e+003    +7.4751438e-003
+3.9200000e+003    +4.1164192e-003
+3.9360000e+003    +3.0164060e-004
+3.9520000e+003    +3.2074651e-004
+3.9680000e+003    +1.9865435e-004
+3.9840000e+003    +3.2246206e-004
+4.0000000e+003    +1.1809721e-004
+4.0160000e+003    +1.0223260e-004
+4.0320000e+003    +9.8875687e-005
+4.0480000e+003    +8.5620188e-005
+4.0640000e+003    +8.0515769e-005
+4.0800000e+003    +1.6739363e-003
+4.0960000e+003    +1.8720931e-003
+4.1120000e+003    +1.5570403e-003
+4.1280000e+003    +1.8104470e-003
+4.1440000e+003    +4.1894601e-003
+4.1600000e+003    +6.8903244e-003
+4.1760000e+003    +6.0816426e-003
+4.1920000e+003    +2.8564148e-003
+4.2080000e+003    +7.3218555e-004
+4.2240000e+003    +1.2303286e-004
+4.2400000e+003    +1.4515997e-004
+4.2560000e+003    +1.8634440e-004
+4.2720000e+003    +1.7988941e-004
+4.2880000e+003    +2.8759683e-003
+4.3040000e+003    +2.9167107e-003
+4.3200000e+003    +2.9062161e-003
+4.3360000e+003    +2.8273312e-003
+4.3520000e+003    +1.4296432e-004
+4.3680000e+003    +1.8120668e-004
+4.3840000e+003    +1.2840136e-004
+4.4000000e+003    +1.6532807e-005
+4.4160000e+003    +5.8485843e-005
+4.4320000e+003    +1.1485475e-004
+4.4480000e+003    +9.9827441e-005
+4.4640000e+003    +2.0274530e-004
+4.4800000e+003    +1.9030113e-004
+4.4960000e+003    +1.1238820e-004
+4.5120000e+003    +1.0892283e-004
+4.5280000e+003    +7.3088602e-005
+4.5440000e+003    +3.6524190e-005
+4.5600000e+003    +1.1425806e-004
+4.5760000e+003    +1.5947732e-004
+4.5920000e+003    +1.3847032e-004
+4.6080000e+003    +1.2298998e-004
+4.6240000e+003    +1.5175642e-004
+4.6400000e+003    +1.3059263e-004
+4.6560000e+003    +1.3288560e-004
+4.6720000e+003    +6.5434586e-005
+4.6880000e+003    +1.0817686e-004
+4.7040000e+003    +7.8655838e-005
+4.7200000e+003    +9.0202841e-005
+4.7360000e+003    +3.7320551e-005
+4.7520000e+003    +1.4318449e-004
+4.7680000e+003    +8.7480112e-006
+4.7840000e+003    +4.3383046e-005
+4.8000000e+003    +3.3178509e-005
+4.8160000e+003    +5.7415215e-005
+4.8320000e+003    +9.5021591e-005
+4.8480000e+003    +2.3460344e-003
+4.8640000e+003    +3.1519807e-003
+4.8800000e+003    +2.6450919e-003
+4.8960000e+003    +1.2600896e-003
+4.9120000e+003    +9.1734561e-005
+4.9280000e+003    +6.7831941e-005
+4.9440000e+003    +5.0554925e-005
+4.9600000e+003    +9.5457435e-005
+4.9760000e+003    +1.4172240e-004
+4.9920000e+003    +5.6193272e-005
+5.0080000e+003    +4.4302291e-005
+5.0240000e+003    +4.1540901e-005
+5.0400000e+003    +1.7776938e-004
+5.0560000e+003    +1.3486256e-003
+5.0720000e+003    +8.7277102e-004
+5.0880000e+003    +3.9145717e-004
+5.1040000e+003    +6.4791524e-004
+5.1200000e+003    +7.5351003e-005
+5.1360000e+003    +4.7721940e-005
+5.1520000e+003    +1.0457773e-004
+5.1680000e+003    +1.0457888e-004
+5.1840000e+003    +3.7449234e-005
+5.2000000e+003    +1.2760400e-004
+5.2160000e+003    +1.1017729e-004
+5.2320000e+003    +1.1978160e-004
+5.2480000e+003    +1.3301596e-004
+5.2640000e+003    +1.9361953e-004
+5.2800000e+003    +9.8542318e-005
+5.2960000e+003    +7.5446202e-005
+5.3120000e+003    +1.3112782e-004
+5.3280000e+003    +1.3577130e-004
+5.3440000e+003    +3.3139190e-004
+5.3600000e+003    +3.2986686e-004
+5.3760000e+003    +5.7784293e-004
+5.3920000e+003    +2.0310179e-004
+5.4080000e+003    +6.5005329e-003
+5.4240000e+003    +4.2057727e-003
+5.4400000e+003    +5.1920540e-003
+5.4560000e+003    +5.4674866e-003
+5.4720000e+003    +7.6685320e-003
+5.4880000e+003    +1.7127485e-004
+5.5040000e+003    +3.2701317e-004
+5.5200000e+003    +2.7295150e-004
+5.5360000e+003    +1.9661926e-004
+5.5520000e+003    +7.2078263e-005
+5.5680000e+003    +1.3905964e-004
+5.5840000e+003    +1.3984895e-004
+5.6000000e+003    +6.5117871e-005
+5.6160000e+003    +1.3869239e-005
+5.6320000e+003    +9.0662361e-005
+5.6480000e+003    +7.6136559e-005
+5.6640000e+003    +1.3033535e-004
+5.6800000e+003    +1.6864271e-004
+5.6960000e+003    +1.1001996e-004
+5.7120000e+003    +7.5391967e-005
+5.7280000e+003    +4.3648310e-005
+5.7440000e+003    +3.1879601e-005
+5.7600000e+003    +1.6890584e-004
+5.7760000e+003    +8.9518122e-005
+5.7920000e+003    +2.8530814e-005
+5.8080000e+003    +5.9628064e-006
+5.8240000e+003    +3.8942264e-005
+5.8400000e+003    +7.4505704e-005
+5.8560000e+003    +1.3854598e-004
+5.8720000e+003    +9.1917253e-005
+5.8880000e+003    +4.0007541e-005
+5.9040000e+003    +1.2145007e-004
+5.9200000e+003    +5.8120193e-005
+5.9360000e+003    +5.9591937e-005
+5.9520000e+003    +1.1248813e-004
+5.9680000e+003    +9.7978620e-005
+5.9840000e+003    +1.2442701e-004
+6.0000000e+003    +5.9338348e-005
+6.0160000e+003    +6.5935230e-005
+6.0320000e+003    +8.3095154e-005
+6.0480000e+003    +1.6013398e-003
+6.0640000e+003    +1.3957031e-003
+6.0800000e+003    +1.2018043e-003
+6.0960000e+003    +1.5274001e-003
+6.1120000e+003    +9.8462985e-004
+6.1280000e+003    +9.4649347e-004
+6.1440000e+003    +1.4350074e-003
+6.1600000e+003    +1.8937360e-003
+6.1760000e+003    +1.3906315e-003
+6.1920000e+003    +6.5755576e-004
+6.2080000e+003    +7.1572955e-004
+6.2240000e+003    +1.8875303e-003
+6.2400000e+003    +1.5222118e-003
+6.2560000e+003    +1.6565314e-003
+6.2720000e+003    +1.6321451e-003
+6.2880000e+003    +1.6219874e-003
+6.3040000e+003    +8.8000223e-003
+6.3200000e+003    +4.1211518e-003
+6.3360000e+003    +7.1577751e-003
+6.3520000e+003    +5.6003104e-003
+6.3680000e+003    +4.6499730e-003
+6.3840000e+003    +4.0191221e-003
+6.4000000e+003    +2.7214517e-003
+6.4160000e+003    +1.4692490e-003
+6.4320000e+003    +3.3495740e-005
+6.4480000e+003    +3.8288206e-005
+6.4640000e+003    +1.5631047e-004
+6.4800000e+003    +1.4124472e-004
+6.4960000e+003    +1.3252252e-004
+6.5120000e+003    +1.6394281e-004
+6.5280000e+003    +1.7244494e-004
+6.5440000e+003    +9.7557931e-005
+6.5600000e+003    +1.2438461e-004
+6.5760000e+003    +1.3233836e-004
+6.5920000e+003    +9.1393551e-005
+6.6080000e+003    +1.2833935e-004
+6.6240000e+003    +4.1578136e-005
+6.6400000e+003    +6.7830450e-005
+6.6560000e+003    +1.2800160e-004
+6.6720000e+003    +1.4962174e-004
+6.6880000e+003    +8.1423619e-005
+6.7040000e+003    +9.5854011e-005
+6.7200000e+003    +9.3370276e-005
+6.7360000e+003    +1.0268670e-004
+6.7520000e+003    +7.4848598e-005
+6.7680000e+003    +6.8014582e-005
+6.7840000e+003    +4.7550337e-005
+6.8000000e+003    +7.4808420e-005
+6.8160000e+003    +1.6937485e-004
+6.8320000e+003    +1.9290263e-004
+6.8480000e+003    +1.4192007e-004
+6.8640000e+003    +4.2785927e-005
+6.8800000e+003    +6.9043876e-005
+6.8960000e+003    +9.1622329e-005
+6.9120000e+003    +4.0893006e-005
+6.9280000e+003    +1.0305785e-004
+6.9440000e+003    +1.0523057e-004
+6.9600000e+003    +9.7269149e-005
+6.9760000e+003    +1.1595846e-004
+6.9920000e+003    +7.8774676e-005
+7.0080000e+003    +1.0541236e-004
+7.0240000e+003    +1.1842702e-004
+7.0400000e+003    +1.9497716e-005
+7.0560000e+003    +7.9483529e-005
+7.0720000e+003    +1.4448696e-004
+7.0880000e+003    +1.1551910e-004
+7.1040000e+003    +4.7995447e-005
+7.1200000e+003    +8.6046915e-005
+7.1360000e+003    +1.3973883e-004
+7.1520000e+003    +1.5473278e-004
+7.1680000e+003    +1.4780006e-004
+7.1840000e+003    +1.3530580e-004
+7.2000000e+003    +1.3555844e-004
+7.2160000e+003    +7.3777061e-005
+7.2320000e+003    +8.6681663e-005
+7.2480000e+003    +4.6991259e-005
+7.2640000e+003    +2.7251564e-005
+7.2800000e+003    +3.2900709e-005
+7.2960000e+003    +9.0865360e-005
+7.3120000e+003    +1.6584212e-004
+7.3280000e+003    +2.0279072e-004
+7.3440000e+003    +1.6209592e-004
+7.3600000e+003    +5.9009210e-005
+7.3760000e+003    +6.1771978e-005
+7.3920000e+003    +6.0413451e-005
+7.4080000e+003    +9.0544476e-005
+7.4240000e+003    +1.5842923e-004
+7.4400000e+003    +1.1571338e-004
+7.4560000e+003    +1.2004894e-004
+7.4720000e+003    +1.7815577e-004
+7.4880000e+003    +1.7853438e-004
+7.5040000e+003    +1.6163226e-004
+7.5200000e+003    +1.5331690e-004
+7.5360000e+003    +1.3939901e-004
+7.5520000e+003    +9.9244833e-005
+7.5680000e+003    +4.8109883e-005
+7.5840000e+003    +3.8883602e-005
+7.6000000e+003    +1.1713443e-005
+7.6160000e+003    +8.7245200e-005
+7.6320000e+003    +1.5557816e-004
+7.6480000e+003    +1.5901390e-004
+7.6640000e+003    +1.3023079e-004
+7.6800000e+003    +1.0340077e-004
+7.6960000e+003    +9.1991154e-005
+7.7120000e+003    +8.9675326e-005
+7.7280000e+003    +6.6465029e-005
+7.7440000e+003    +6.8692418e-005
+7.7600000e+003    +6.1055878e-005
+7.7760000e+003    +5.7042420e-005
+7.7920000e+003    +5.5562708e-005
+7.8080000e+003    +8.6728789e-005
+7.8240000e+003    +9.5537958e-005
+7.8400000e+003    +4.6594123e-005
+7.8560000e+003    +2.0536558e-005
+7.8720000e+003    +4.4873745e-005
+7.8880000e+003    +1.6413561e-004
+7.9040000e+003    +1.6056947e-004
+7.9200000e+003    +7.6088254e-005
+7.9360000e+003    +9.7556862e-005
+7.9520000e+003    +1.3868015e-004
+7.9680000e+003    +3.4639132e-005
+7.9840000e+003    +7.5195130e-005
+8.0000000e+003    +1.0702688e-004
+8.0160000e+003    +1.3264596e-004
+8.0320000e+003    +4.9881870e-005
+8.0480000e+003    +3.5467645e-005
+8.0640000e+003    +9.4213676e-005
+8.0800000e+003    +1.0287900e-004
+8.0960000e+003    +3.5686429e-005
+8.1120000e+003    +1.1401457e-004
+8.1280000e+003    +1.6848724e-004
+8.1440000e+003    +1.3636432e-004
+8.1600000e+003    +7.8399418e-005
+8.1760000e+003    +2.0077145e-004
+8.1920000e+003    +1.1546502e-004
+8.2080000e+003    +7.9383055e-005
+8.2240000e+003    +9.9045406e-005
+8.2400000e+003    +2.6630527e-005
+8.2560000e+003    +1.0525946e-004
+8.2720000e+003    +1.4405935e-004
+8.2880000e+003    +1.6946833e-004
+8.3040000e+003    +8.8956906e-005
+8.3200000e+003    +9.0451176e-005
+8.3360000e+003    +9.4546936e-005
+8.3520000e+003    +9.3107999e-005
+8.3680000e+003    +1.4013030e-004
+8.3840000e+003    +1.0027910e-004
+8.4000000e+003    +2.7648852e-005
+8.4160000e+003    +4.1429899e-005
+8.4320000e+003    +2.0242868e-004
+8.4480000e+003    +4.4282791e-005
+8.4640000e+003    +8.1267855e-005
+8.4800000e+003    +5.7335903e-005
+8.4960000e+003    +4.3786407e-005
+8.5120000e+003    +1.0265948e-004
+8.5280000e+003    +1.0576409e-004
+8.5440000e+003    +1.1977358e-004
+8.5600000e+003    +1.4045848e-004
+8.5760000e+003    +1.2306651e-004
+8.5920000e+003    +7.6352953e-005
+8.6080000e+003    +6.2894491e-005
+8.6240000e+003    +3.3698885e-005
+8.6400000e+003    +1.8185245e-004
+8.6560000e+003    +1.5896755e-004
+8.6720000e+003    +1.0012717e-004
+8.6880000e+003    +5.5600911e-005
+8.7040000e+003    +5.9023336e-005
+8.7200000e+003    +1.0639180e-004
+8.7360000e+003    +7.7122786e-005
+8.7520000e+003    +8.2145212e-005
+8.7680000e+003    +1.2120650e-004
+8.7840000e+003    +3.6767775e-005
+8.8000000e+003    +8.9644018e-005
+8.8160000e+003    +1.5456587e-004
+8.8320000e+003    +1.4732819e-004
+8.8480000e+003    +3.3272154e-005
+8.8640000e+003    +4.6605481e-005
+8.8800000e+003    +3.1242394e-005
+8.8960000e+003    +9.6135424e-005
+8.9120000e+003    +1.1623705e-004
+8.9280000e+003    +1.0185347e-004
+8.9440000e+003    +6.7956207e-005
+8.9600000e+003    +4.7633734e-005
+8.9760000e+003    +1.1438653e-004
+8.9920000e+003    +4.8862032e-005
+9.0080000e+003    +8.7604007e-005
+9.0240000e+003    +1.4352186e-004
+9.0400000e+003    +6.5085565e-005
+9.0560000e+003    +1.0579789e-004
+9.0720000e+003    +1.5217431e-004
+9.0880000e+003    +6.6242828e-005
+9.1040000e+003    +4.8944989e-005
+9.1200000e+003    +5.7430661e-005
+9.1360000e+003    +1.5379622e-004
+9.1520000e+003    +1.8924172e-004
+9.1680000e+003    +1.6621099e-004
+9.1840000e+003    +1.3892207e-004
+9.2000000e+003    +1.2012265e-004
+9.2160000e+003    +8.3349994e-005
+9.2320000e+003    +1.1175007e-004
+9.2480000e+003    +1.3645599e-004
+9.2640000e+003    +1.4058052e-004
+9.2800000e+003    +7.4621465e-005
+9.2960000e+003    +1.2657442e-004
+9.3120000e+003    +1.8312606e-004
+9.3280000e+003    +1.4935691e-004
+9.3440000e+003    +6.1854509e-005
+9.3600000e+003    +1.2008553e-004
+9.3760000e+003    +1.4543779e-004
+9.3920000e+003    +1.1942304e-004
+9.4080000e+003    +4.3584714e-005
+9.4240000e+003    +1.2948980e-004
+9.4400000e+003    +2.0341511e-004
+9.4560000e+003    +2.3065960e-004
+9.4720000e+003    +2.2193984e-004
+9.4880000e+003    +9.7713695e-005
+9.5040000e+003    +1.3867054e-004
+9.5200000e+003    +1.1912622e-004
+9.5360000e+003    +7.5295175e-005
+9.5520000e+003    +5.2156738e-005
+9.5680000e+003    +6.9419075e-006
+9.5840000e+003    +3.0730345e-005
+9.6000000e+003    +3.0737901e-005
+9.6160000e+003    +3.7192636e-005
+9.6320000e+003    +5.1408031e-005
+9.6480000e+003    +2.5117022e-005
+9.6640000e+003    +8.1841106e-005
+9.6800000e+003    +1.2551359e-004
+9.6960000e+003    +1.6085868e-004
+9.7120000e+003    +9.4602387e-005
+9.7280000e+003    +5.9696911e-005
+9.7440000e+003    +8.7233420e-005
+9.7600000e+003    +1.5016551e-004
+9.7760000e+003    +1.4857127e-004
+9.7920000e+003    +1.7065840e-004
+9.8080000e+003    +2.4501671e-004
+9.8240000e+003    +2.3861355e-004
+9.8400000e+003    +2.2707047e-005
+9.8560000e+003    +1.6297627e-005
+9.8720000e+003    +3.3288557e-005
+9.8880000e+003    +9.2152797e-005
+9.9040000e+003    +4.1112206e-005
+9.9200000e+003    +4.5076009e-005
+9.9360000e+003    +2.3228857e-005
+9.9520000e+003    +4.7322785e-005
+9.9680000e+003    +1.9457726e-005
+9.9840000e+003    +2.1864584e-004
+1.0000000e+004    +1.9201713e-004
+1.0016000e+004    +1.3444461e-004
+1.0032000e+004    +1.0903022e-004
+1.0048000e+004    +6.5346707e-005
+1.0064000e+004    +1.3654126e-004
+1.0080000e+004    +1.6509769e-004
+1.0096000e+004    +1.4644938e-004
+1.0112000e+004    +8.2155944e-005
+1.0128000e+004    +2.8253962e-005
+1.0144000e+004    +5.4875072e-005
+1.0160000e+004    +2.3846400e-005
+1.0176000e+004    +1.0459507e-005
+1.0192000e+004    +2.5517770e-004
+1.0208000e+004    +2.1843793e-004
+1.0224000e+004    +1.2618880e-004
+1.0240000e+004    +6.6336208e-005
+1.0256000e+004    +1.2351111e-004
+1.0272000e+004    +2.8449702e-005
+1.0288000e+004    +4.2661897e-005
+1.0304000e+004    +5.4841283e-005
+1.0320000e+004    +3.0602630e-005
+1.0336000e+004    +7.6373748e-005
+1.0352000e+004    +1.7474200e-004
+1.0368000e+004    +2.0499421e-004
+1.0384000e+004    +9.5733798e-005
+1.0400000e+004    +1.0033356e-004
+1.0416000e+004    +2.3582292e-004
+1.0432000e+004    +1.4438023e-004
+1.0448000e+004    +2.9221181e-005
+1.0464000e+004    +9.8011107e-005
+1.0480000e+004    +9.0851892e-005
+1.0496000e+004    +8.4217281e-005
+1.0512000e+004    +4.9274171e-005
+1.0528000e+004    +3.4351287e-005
+1.0544000e+004    +9.3179173e-005
+1.0560000e+004    +2.2159700e-005
+1.0576000e+004    +9.8212986e-005
+1.0592000e+004    +1.4080659e-004
+1.0608000e+004    +8.5678308e-005
+1.0624000e+004    +5.9899921e-005
+1.0640000e+004    +1.4006462e-005
+1.0656000e+004    +7.9255209e-005
+1.0672000e+004    +1.2392148e-004
+1.0688000e+004    +1.5147876e-004
+1.0704000e+004    +4.7648067e-005
+1.0720000e+004    +4.1286177e-005
+1.0736000e+004    +9.0010122e-005
+1.0752000e+004    +1.6248277e-004
+1.0768000e+004    +5.6591518e-005
+1.0784000e+004    +7.7249650e-005
+1.0800000e+004    +1.0731864e-004
+1.0816000e+004    +9.6477816e-005
+1.0832000e+004    +1.0174354e-004
+1.0848000e+004    +1.3158761e-005
+1.0864000e+004    +5.6737539e-005
+1.0880000e+004    +8.2751729e-005
+1.0896000e+004    +1.0779059e-004
+1.0912000e+004    +6.0824172e-005
+1.0928000e+004    +8.7695524e-005
+1.0944000e+004    +1.1335234e-004
+1.0960000e+004    +1.8550479e-004
+1.0976000e+004    +1.7680516e-004
+1.0992000e+004    +5.3031981e-005
+1.1008000e+004    +9.6665281e-005
+1.1024000e+004    +1.1111546e-004
+1.1040000e+004    +1.2741185e-004
+1.1056000e+004    +8.3540384e-005
+1.1072000e+004    +4.5150107e-005
+1.1088000e+004    +5.0872644e-005
+1.1104000e+004    +2.0583693e-005
+1.1120000e+004    +1.3508767e-004
+1.1136000e+004    +1.0423567e-004
+1.1152000e+004    +5.2505446e-005
+1.1168000e+004    +6.2506013e-005
+1.1184000e+004    +6.7068417e-005
+1.1200000e+004    +9.8920646e-005
+1.1216000e+004    +1.3025753e-004
+1.1232000e+004    +1.1162530e-004
+1.1248000e+004    +3.9305283e-005
+1.1264000e+004    +1.6684682e-004
+1.1280000e+004    +2.7796201e-004
+1.1296000e+004    +3.1116483e-004
+1.1312000e+004    +3.2404999e-004
+1.1328000e+004    +1.3698258e-004
+1.1344000e+004    +1.8890905e-004
+1.1360000e+004    +2.1374642e-004
+1.1376000e+004    +1.7956026e-004
+1.1392000e+004    +2.4886875e-005
+1.1408000e+004    +3.0648429e-005
+1.1424000e+004    +2.5324457e-004
+1.1440000e+004    +4.3191059e-004
+1.1456000e+004    +1.0961675e-004
+1.1472000e+004    +1.3162923e-004
+1.1488000e+004    +1.8818810e-004
+1.1504000e+004    +1.9778468e-004
+1.1520000e+004    +2.2433761e-004
+1.1536000e+004    +6.3296634e-004
+1.1552000e+004    +3.2620755e-004
+1.1568000e+004    +6.7335670e-005
+1.1584000e+004    +2.4988319e-004
+1.1600000e+004    +1.7928871e-004
+1.1616000e+004    +5.0935523e-005
+1.1632000e+004    +1.1565445e-004
+1.1648000e+004    +1.6980610e-004
+1.1664000e+004    +1.6491435e-004
+1.1680000e+004    +4.7994970e-005
+1.1696000e+004    +1.0407579e-005
+1.1712000e+004    +8.7495191e-006
+1.1728000e+004    +6.0165879e-005
+1.1744000e+004    +2.6070100e-004
+1.1760000e+004    +1.9544666e-004
+1.1776000e+004    +1.0545988e-004
+1.1792000e+004    +2.0203399e-004
+1.1808000e+004    +2.8194944e-004
+1.1824000e+004    +1.0449200e-004
+1.1840000e+004    +7.1281807e-005
+1.1856000e+004    +7.8415607e-005
+1.1872000e+004    +1.0400776e-004
+1.1888000e+004    +5.9308906e-005
+1.1904000e+004    +8.0512320e-005
+1.1920000e+004    +1.0478410e-004
+1.1936000e+004    +8.7869688e-005
+1.1952000e+004    +1.6554013e-004
+1.1968000e+004    +1.3659929e-004
+1.1984000e+004    +1.3036397e-004
+1.2000000e+004    +1.3400360e-004
+1.2016000e+004    +8.8974288e-005
+1.2032000e+004    +1.4350831e-004
+1.2048000e+004    +1.2567555e-004
+1.2064000e+004    +1.0241871e-004
+1.2080000e+004    +1.6351353e-004
+1.2096000e+004    +2.4821245e-004
+1.2112000e+004    +2.4122056e-004
+1.2128000e+004    +2.3956632e-004
+1.2144000e+004    +2.7989922e-004
+1.2160000e+004    +3.7354086e-005
+1.2176000e+004    +8.4905905e-006
+1.2192000e+004    +9.7996584e-005
+1.2208000e+004    +1.1216666e-004
+1.2224000e+004    +2.1913588e-004
+1.2240000e+004    +1.5332835e-004
+1.2256000e+004    +1.0143474e-004
+1.2272000e+004    +1.0808402e-004
+1.2288000e+004    +1.2248174e-004
+1.2304000e+004    +6.1052262e-005
+1.2320000e+004    +8.2456056e-005
+1.2336000e+004    +1.1740289e-004
+1.2352000e+004    +1.1101789e-004
+1.2368000e+004    +3.5421838e-004
+1.2384000e+004    +1.7332828e-004
+1.2400000e+004    +7.0235190e-005
+1.2416000e+004    +2.1299884e-004
+1.2432000e+004    +3.9971538e-004
+1.2448000e+004    +5.8678578e-004
+1.2464000e+004    +1.0848349e-003
+1.2480000e+004    +1.5403983e-003
+1.2496000e+004    +6.6244428e-004
+1.2512000e+004    +7.7872543e-004
+1.2528000e+004    +3.6095289e-004
+1.2544000e+004    +6.2867877e-004
+1.2560000e+004    +3.7130559e-004
+1.2576000e+004    +3.8592023e-004
+1.2592000e+004    +3.6202770e-004
+1.2608000e+004    +5.8101374e-004
+1.2624000e+004    +4.7455568e-004
+1.2640000e+004    +1.3876299e-004
+1.2656000e+004    +3.0624648e-004
+1.2672000e+004    +4.0951910e-004
+1.2688000e+004    +3.9378222e-004
+1.2704000e+004    +2.5640090e-004
+1.2720000e+004    +1.9515450e-004
+1.2736000e+004    +1.0308580e-004
+1.2752000e+004    +8.2121856e-005
+1.2768000e+004    +8.8276211e-005
+1.2784000e+004    +6.9956970e-004
