# SR785 Measurement - Timestamp: Jan 25 2019 - 19:55:01
#---------- Measurement Setup ------------
# Start Frequency (Hz): 0.000000
# Frequency Span (Hz): 12800.000000
# Frequency Resolution: 800
# Number of Averages: 2
# Averaging Mode: None
# Window function: BMH
#---------- Measurement Parameters ----------
# Measurement Group:  "FFT" "FFT"
# Measurements:  "FFT 1" "FFT 2"
# View:  "Log Magnitude" "Log Magnitude"
# Unit:  "Vrms/rtHz" "Vpk"
#---------- Input Parameters ----------
# Input Source: Analog
# Input Mode: Single ended, Single ended
# Input Grounding: Float, Float
# Input Coupling: AC, AC
# Input Range: 6.0dBVpk, 6.0dBVpk
# Auto Range: Off, Off
# Auto Range Mode: Up Only, Normal
# Anti-Aliasing Filter: On, On
#---------- Source Parameters ----------
# Source Type: Sine
# Source Amplitude: 500.0mVpk
# Source On: 0

#---------- Measurement Data ----------
# [Freq(Hz) Display 0(Vrms/rtHz) Display 1(Vpk) ]
+0.0000000e+000    +5.8761798e-002
+1.6000000e+001    +4.7063909e-002
+3.2000000e+001    +2.2733396e-002
+4.8000000e+001    +5.2115521e-003
+6.4000000e+001    +5.0406356e-004
+8.0000000e+001    +4.5895425e-004
+9.6000000e+001    +3.4886287e-004
+1.1200000e+002    +2.6058211e-004
+1.2800000e+002    +2.7281846e-004
+1.4400000e+002    +3.3106658e-004
+1.6000000e+002    +4.9253023e-004
+1.7600000e+002    +6.1798602e-004
+1.9200000e+002    +4.7873685e-004
+2.0800000e+002    +1.0646910e-004
+2.2400000e+002    +3.2867418e-005
+2.4000000e+002    +1.5954537e-004
+2.5600000e+002    +2.2687334e-004
+2.7200000e+002    +1.4063795e-004
+2.8800000e+002    +2.5172514e-004
+3.0400000e+002    +3.0847173e-004
+3.2000000e+002    +1.5701089e-004
+3.3600000e+002    +1.8102700e-004
+3.5200000e+002    +1.5001794e-004
+3.6800000e+002    +5.8833051e-005
+3.8400000e+002    +5.0938990e-005
+4.0000000e+002    +2.7526327e-004
+4.1600000e+002    +3.5806568e-004
+4.3200000e+002    +2.9621803e-004
+4.4800000e+002    +1.6731332e-004
+4.6400000e+002    +1.0801344e-004
+4.8000000e+002    +1.0050380e-004
+4.9600000e+002    +1.0236003e-004
+5.1200000e+002    +1.5859108e-004
+5.2800000e+002    +2.1668854e-004
+5.4400000e+002    +1.5970705e-004
+5.6000000e+002    +7.5014781e-005
+5.7600000e+002    +1.7446153e-005
+5.9200000e+002    +5.6466641e-005
+6.0800000e+002    +2.3882715e-004
+6.2400000e+002    +2.1691289e-004
+6.4000000e+002    +2.5643216e-004
+6.5600000e+002    +2.4017668e-004
+6.7200000e+002    +9.7452910e-005
+6.8800000e+002    +7.4029413e-005
+7.0400000e+002    +1.3388513e-004
+7.2000000e+002    +1.8296146e-004
+7.3600000e+002    +1.6777884e-004
+7.5200000e+002    +1.7742463e-004
+7.6800000e+002    +1.5408178e-004
+7.8400000e+002    +1.0518108e-004
+8.0000000e+002    +2.9144730e-004
+8.1600000e+002    +1.9844943e-004
+8.3200000e+002    +2.2387379e-005
+8.4800000e+002    +8.4629675e-005
+8.6400000e+002    +8.8756125e-005
+8.8000000e+002    +4.9063950e-005
+8.9600000e+002    +1.0081873e-004
+9.1200000e+002    +2.1837786e-004
+9.2800000e+002    +2.1570698e-004
+9.4400000e+002    +1.0843200e-004
+9.6000000e+002    +1.1569293e-005
+9.7600000e+002    +1.6972726e-005
+9.9200000e+002    +1.2142528e-004
+1.0080000e+003    +1.8725576e-005
+1.0240000e+003    +1.0677594e-004
+1.0400000e+003    +1.1807199e-004
+1.0560000e+003    +4.0598949e-005
+1.0720000e+003    +1.1228082e-004
+1.0880000e+003    +1.7889749e-004
+1.1040000e+003    +1.9024931e-004
+1.1200000e+003    +1.0838200e-004
+1.1360000e+003    +8.7504217e-005
+1.1520000e+003    +1.5421558e-004
+1.1680000e+003    +1.4885751e-004
+1.1840000e+003    +1.1624330e-004
+1.2000000e+003    +1.1858016e-004
+1.2160000e+003    +2.0563645e-004
+1.2320000e+003    +1.1054899e-004
+1.2480000e+003    +8.5481828e-005
+1.2640000e+003    +1.4873489e-004
+1.2800000e+003    +4.9346883e-005
+1.2960000e+003    +6.7547371e-005
+1.3120000e+003    +6.0985400e-005
+1.3280000e+003    +2.2694236e-005
+1.3440000e+003    +5.8346726e-005
+1.3600000e+003    +9.1585112e-005
+1.3760000e+003    +1.2013577e-004
+1.3920000e+003    +2.1054859e-004
+1.4080000e+003    +3.5909188e-004
+1.4240000e+003    +3.0287649e-004
+1.4400000e+003    +1.0890130e-004
+1.4560000e+003    +1.3655970e-004
+1.4720000e+003    +1.2349314e-004
+1.4880000e+003    +8.1431841e-005
+1.5040000e+003    +9.7328651e-005
+1.5200000e+003    +8.6035201e-005
+1.5360000e+003    +1.3428211e-004
+1.5520000e+003    +1.6496968e-004
+1.5680000e+003    +8.8776978e-005
+1.5840000e+003    +1.4354014e-004
+1.6000000e+003    +1.3306504e-004
+1.6160000e+003    +1.0434003e-004
+1.6320000e+003    +8.8165405e-005
+1.6480000e+003    +7.1899311e-005
+1.6640000e+003    +7.4984564e-005
+1.6800000e+003    +5.5368077e-005
+1.6960000e+003    +2.3334071e-005
+1.7120000e+003    +1.3108276e-004
+1.7280000e+003    +1.4571239e-004
+1.7440000e+003    +1.4072962e-004
+1.7600000e+003    +9.0554517e-005
+1.7760000e+003    +8.9737274e-005
+1.7920000e+003    +4.9198810e-005
+1.8080000e+003    +6.4187829e-005
+1.8240000e+003    +1.3593037e-004
+1.8400000e+003    +1.4228704e-004
+1.8560000e+003    +1.2453014e-004
+1.8720000e+003    +9.2461509e-005
+1.8880000e+003    +1.0104763e-004
+1.9040000e+003    +1.4876078e-004
+1.9200000e+003    +1.5086951e-004
+1.9360000e+003    +5.3607862e-005
+1.9520000e+003    +6.1678591e-005
+1.9680000e+003    +6.2705905e-005
+1.9840000e+003    +6.0160597e-005
+2.0000000e+003    +3.2764550e-005
+2.0160000e+003    +3.0862688e-005
+2.0320000e+003    +5.2199764e-005
+2.0480000e+003    +7.0695452e-005
+2.0640000e+003    +7.0180693e-005
+2.0800000e+003    +6.5269909e-005
+2.0960000e+003    +4.6482324e-005
+2.1120000e+003    +8.2880935e-005
+2.1280000e+003    +9.8943892e-005
+2.1440000e+003    +2.3301529e-005
+2.1600000e+003    +9.1367467e-005
+2.1760000e+003    +1.2751730e-004
+2.1920000e+003    +8.5061358e-005
+2.2080000e+003    +2.5391806e-005
+2.2240000e+003    +1.8726985e-004
+2.2400000e+003    +1.2230677e-004
+2.2560000e+003    +5.7336158e-005
+2.2720000e+003    +8.7150802e-005
+2.2880000e+003    +5.6123474e-005
+2.3040000e+003    +1.2819907e-004
+2.3200000e+003    +1.6959370e-004
+2.3360000e+003    +1.1413619e-004
+2.3520000e+003    +8.8289009e-005
+2.3680000e+003    +6.8518646e-005
+2.3840000e+003    +3.9723294e-005
+2.4000000e+003    +3.1320116e-005
+2.4160000e+003    +1.6395801e-005
+2.4320000e+003    +3.6073201e-005
+2.4480000e+003    +6.2716994e-005
+2.4640000e+003    +5.0332059e-005
+2.4800000e+003    +1.1626870e-004
+2.4960000e+003    +1.1847274e-004
+2.5120000e+003    +8.0982820e-005
+2.5280000e+003    +6.8448862e-005
+2.5440000e+003    +7.9949161e-005
+2.5600000e+003    +5.3955846e-005
+2.5760000e+003    +6.2751984e-005
+2.5920000e+003    +1.3460804e-004
+2.6080000e+003    +1.0916437e-004
+2.6240000e+003    +6.5841479e-005
+2.6400000e+003    +9.0819776e-005
+2.6560000e+003    +8.2812439e-005
+2.6720000e+003    +1.0347964e-004
+2.6880000e+003    +7.7512865e-005
+2.7040000e+003    +4.3016404e-005
+2.7200000e+003    +2.4650741e-005
+2.7360000e+003    +7.3547446e-005
+2.7520000e+003    +5.3600328e-005
+2.7680000e+003    +8.8794528e-005
+2.7840000e+003    +4.0245315e-005
+2.8000000e+003    +1.4625736e-004
+2.8160000e+003    +1.6084765e-004
+2.8320000e+003    +1.4940875e-004
+2.8480000e+003    +4.5581706e-005
+2.8640000e+003    +1.0715127e-005
+2.8800000e+003    +1.1345108e-005
+2.8960000e+003    +2.2476093e-005
+2.9120000e+003    +9.5153977e-005
+2.9280000e+003    +1.0084741e-004
+2.9440000e+003    +3.0952753e-005
+2.9600000e+003    +2.4947445e-005
+2.9760000e+003    +2.3032340e-005
+2.9920000e+003    +3.5109562e-005
+3.0080000e+003    +7.2278446e-005
+3.0240000e+003    +9.1279129e-005
+3.0400000e+003    +8.5659114e-005
+3.0560000e+003    +4.3823489e-005
+3.0720000e+003    +6.8930029e-005
+3.0880000e+003    +3.7292863e-005
+3.1040000e+003    +5.7891426e-005
+3.1200000e+003    +6.5105647e-005
+3.1360000e+003    +1.2562292e-004
+3.1520000e+003    +1.4553164e-004
+3.1680000e+003    +3.0402694e-005
+3.1840000e+003    +2.0590067e-005
+3.2000000e+003    +4.5765799e-005
+3.2160000e+003    +4.1463802e-005
+3.2320000e+003    +3.1654978e-005
+3.2480000e+003    +7.7914410e-005
+3.2640000e+003    +1.0463637e-004
+3.2800000e+003    +1.2408955e-004
+3.2960000e+003    +9.0829351e-005
+3.3120000e+003    +9.5719814e-005
+3.3280000e+003    +4.7020316e-005
+3.3440000e+003    +2.5351692e-005
+3.3600000e+003    +5.7800666e-005
+3.3760000e+003    +1.2084313e-004
+3.3920000e+003    +5.9843060e-005
+3.4080000e+003    +1.4957780e-005
+3.4240000e+003    +1.5523614e-005
+3.4400000e+003    +1.4458432e-004
+3.4560000e+003    +1.0027718e-004
+3.4720000e+003    +2.6112828e-005
+3.4880000e+003    +6.5187043e-005
+3.5040000e+003    +4.6256075e-005
+3.5200000e+003    +5.3601329e-005
+3.5360000e+003    +5.6512167e-006
+3.5520000e+003    +5.1828214e-005
+3.5680000e+003    +9.3729257e-005
+3.5840000e+003    +6.5290333e-005
+3.6000000e+003    +8.6640750e-005
+3.6160000e+003    +8.8292109e-005
+3.6320000e+003    +1.8077475e-005
+3.6480000e+003    +4.7669258e-005
+3.6640000e+003    +1.0211224e-004
+3.6800000e+003    +9.3158618e-005
+3.6960000e+003    +6.5550426e-005
+3.7120000e+003    +1.1397758e-004
+3.7280000e+003    +1.1092706e-004
+3.7440000e+003    +7.4338030e-005
+3.7600000e+003    +7.0083282e-005
+3.7760000e+003    +6.5124594e-005
+3.7920000e+003    +6.3354419e-005
+3.8080000e+003    +8.4796629e-005
+3.8240000e+003    +9.7615899e-005
+3.8400000e+003    +7.1121234e-005
+3.8560000e+003    +8.2820807e-005
+3.8720000e+003    +8.7257271e-005
+3.8880000e+003    +1.3660455e-004
+3.9040000e+003    +1.2406176e-004
+3.9200000e+003    +6.3109896e-005
+3.9360000e+003    +5.4639160e-005
+3.9520000e+003    +6.7507033e-005
+3.9680000e+003    +1.4569047e-004
+3.9840000e+003    +8.0983889e-005
+4.0000000e+003    +2.1779839e-005
+4.0160000e+003    +4.1944768e-005
+4.0320000e+003    +8.0925136e-005
+4.0480000e+003    +1.3618836e-004
+4.0640000e+003    +9.3405346e-005
+4.0800000e+003    +3.9882325e-005
+4.0960000e+003    +2.1725145e-005
+4.1120000e+003    +1.0084292e-004
+4.1280000e+003    +3.5083514e-005
+4.1440000e+003    +2.5006708e-005
+4.1600000e+003    +6.0992632e-005
+4.1760000e+003    +9.7858203e-005
+4.1920000e+003    +8.9234331e-005
+4.2080000e+003    +1.0485257e-004
+4.2240000e+003    +1.3670627e-004
+4.2400000e+003    +1.0086391e-004
+4.2560000e+003    +9.4697680e-005
+4.2720000e+003    +8.9740824e-005
+4.2880000e+003    +9.5559888e-005
+4.3040000e+003    +1.0143702e-004
+4.3200000e+003    +2.8862176e-005
+4.3360000e+003    +1.7810267e-005
+4.3520000e+003    +1.4515240e-005
+4.3680000e+003    +1.9077748e-005
+4.3840000e+003    +6.7224566e-005
+4.4000000e+003    +9.7764561e-005
+4.4160000e+003    +5.9217553e-005
+4.4320000e+003    +4.4202981e-005
+4.4480000e+003    +5.4005275e-005
+4.4640000e+003    +7.5303775e-005
+4.4800000e+003    +1.4366509e-004
+4.4960000e+003    +1.8037981e-004
+4.5120000e+003    +1.6432756e-004
+4.5280000e+003    +2.5043499e-005
+4.5440000e+003    +2.1955035e-005
+4.5600000e+003    +6.0896342e-005
+4.5760000e+003    +9.7668752e-005
+4.5920000e+003    +4.2086667e-005
+4.6080000e+003    +6.8342080e-005
+4.6240000e+003    +5.0623636e-005
+4.6400000e+003    +9.4872725e-005
+4.6560000e+003    +1.0135920e-004
+4.6720000e+003    +1.3647352e-004
+4.6880000e+003    +1.8639219e-004
+4.7040000e+003    +1.7069635e-004
+4.7200000e+003    +2.9719209e-005
+4.7360000e+003    +5.6741774e-005
+4.7520000e+003    +1.1908418e-004
+4.7680000e+003    +1.3634935e-004
+4.7840000e+003    +1.3913684e-004
+4.8000000e+003    +1.0165086e-004
+4.8160000e+003    +6.7292945e-005
+4.8320000e+003    +6.0142829e-005
+4.8480000e+003    +4.1755182e-005
+4.8640000e+003    +3.0566600e-005
+4.8800000e+003    +7.1501912e-005
+4.8960000e+003    +8.3256884e-005
+4.9120000e+003    +8.7106797e-005
+4.9280000e+003    +1.2366982e-004
+4.9440000e+003    +1.7131360e-004
+4.9600000e+003    +1.2188229e-004
+4.9760000e+003    +7.9548481e-005
+4.9920000e+003    +1.3877205e-004
+5.0080000e+003    +1.6642098e-004
+5.0240000e+003    +1.4461139e-004
+5.0400000e+003    +1.1111222e-004
+5.0560000e+003    +5.8699618e-005
+5.0720000e+003    +3.1040014e-005
+5.0880000e+003    +4.1768661e-005
+5.1040000e+003    +4.8734353e-005
+5.1200000e+003    +1.3215773e-004
+5.1360000e+003    +1.4582259e-004
+5.1520000e+003    +1.2088261e-004
+5.1680000e+003    +7.0507936e-005
+5.1840000e+003    +3.9131537e-005
+5.2000000e+003    +2.5736990e-005
+5.2160000e+003    +9.9286357e-005
+5.2320000e+003    +1.3650619e-004
+5.2480000e+003    +1.0013596e-004
+5.2640000e+003    +1.1084288e-004
+5.2800000e+003    +6.2405757e-005
+5.2960000e+003    +9.0248810e-005
+5.3120000e+003    +6.6365712e-005
+5.3280000e+003    +2.1036465e-005
+5.3440000e+003    +5.5134038e-005
+5.3600000e+003    +3.4311219e-005
+5.3760000e+003    +1.3755621e-005
+5.3920000e+003    +7.2613398e-006
+5.4080000e+003    +9.0125526e-005
+5.4240000e+003    +8.0920247e-005
+5.4400000e+003    +8.3652449e-005
+5.4560000e+003    +4.7490281e-005
+5.4720000e+003    +7.9652134e-005
+5.4880000e+003    +5.6634533e-005
+5.5040000e+003    +1.8733021e-005
+5.5200000e+003    +1.5436117e-005
+5.5360000e+003    +6.4530897e-005
+5.5520000e+003    +9.9001270e-005
+5.5680000e+003    +1.0154484e-004
+5.5840000e+003    +7.5809156e-005
+5.6000000e+003    +5.9005000e-005
+5.6160000e+003    +2.0330337e-005
+5.6320000e+003    +9.7945493e-005
+5.6480000e+003    +9.2027120e-005
+5.6640000e+003    +3.2714262e-005
+5.6800000e+003    +4.2318537e-005
+5.6960000e+003    +7.6757511e-005
+5.7120000e+003    +9.6664531e-005
+5.7280000e+003    +1.1534610e-004
+5.7440000e+003    +6.3309773e-005
+5.7600000e+003    +3.6894875e-005
+5.7760000e+003    +3.3357563e-005
+5.7920000e+003    +9.2780319e-005
+5.8080000e+003    +9.8314289e-005
+5.8240000e+003    +2.4477833e-005
+5.8400000e+003    +5.0353727e-005
+5.8560000e+003    +6.5151915e-005
+5.8720000e+003    +5.3088141e-005
+5.8880000e+003    +6.5464694e-005
+5.9040000e+003    +6.7363617e-005
+5.9200000e+003    +1.4547924e-004
+5.9360000e+003    +1.6072874e-004
+5.9520000e+003    +1.0916498e-004
+5.9680000e+003    +3.2768690e-005
+5.9840000e+003    +8.0139958e-005
+6.0000000e+003    +1.0388126e-004
+6.0160000e+003    +8.2945386e-005
+6.0320000e+003    +3.7059912e-005
+6.0480000e+003    +5.7115616e-005
+6.0640000e+003    +8.2833540e-005
+6.0800000e+003    +1.1274767e-004
+6.0960000e+003    +1.0647968e-004
+6.1120000e+003    +7.2025017e-005
+6.1280000e+003    +4.9698298e-005
+6.1440000e+003    +4.1411524e-005
+6.1600000e+003    +3.3486587e-005
+6.1760000e+003    +4.7615224e-005
+6.1920000e+003    +1.1736777e-004
+6.2080000e+003    +7.7786535e-005
+6.2240000e+003    +8.5914086e-005
+6.2400000e+003    +7.0533330e-005
+6.2560000e+003    +4.3079359e-005
+6.2720000e+003    +6.1042338e-005
+6.2880000e+003    +5.8792823e-005
+6.3040000e+003    +3.9229104e-005
+6.3200000e+003    +4.8142483e-005
+6.3360000e+003    +1.0420008e-005
+6.3520000e+003    +6.2561834e-005
+6.3680000e+003    +1.3234417e-004
+6.3840000e+003    +1.5757830e-004
+6.4000000e+003    +2.7348531e-005
+6.4160000e+003    +9.1495865e-005
+6.4320000e+003    +5.3345699e-005
+6.4480000e+003    +2.0743504e-005
+6.4640000e+003    +8.4973522e-005
+6.4800000e+003    +1.6374644e-004
+6.4960000e+003    +2.0250781e-004
+6.5120000e+003    +1.2347985e-004
+6.5280000e+003    +1.0708694e-005
+6.5440000e+003    +1.4622806e-003
+6.5600000e+003    +2.0560981e-003
+6.5760000e+003    +2.4699289e-003
+6.5920000e+003    +2.3089170e-003
+6.6080000e+003    +9.7702003e-005
+6.6240000e+003    +1.0062029e-004
+6.6400000e+003    +1.0365863e-004
+6.6560000e+003    +1.3100062e-004
+6.6720000e+003    +5.6458954e-005
+6.6880000e+003    +6.7758250e-005
+6.7040000e+003    +4.6129582e-005
+6.7200000e+003    +3.9777373e-005
+6.7360000e+003    +8.5468317e-005
+6.7520000e+003    +8.2959872e-005
+6.7680000e+003    +4.2045423e-005
+6.7840000e+003    +1.5195475e-004
+6.8000000e+003    +1.5836801e-004
+6.8160000e+003    +4.9264218e-005
+6.8320000e+003    +5.2447140e-005
+6.8480000e+003    +2.9022842e-005
+6.8640000e+003    +3.5849880e-005
+6.8800000e+003    +1.2125941e-004
+6.8960000e+003    +1.6259163e-004
+6.9120000e+003    +1.4182567e-004
+6.9280000e+003    +1.2585748e-004
+6.9440000e+003    +7.8453239e-005
+6.9600000e+003    +6.6014771e-005
+6.9760000e+003    +2.5095989e-005
+6.9920000e+003    +8.2571569e-005
+7.0080000e+003    +1.1575989e-004
+7.0240000e+003    +8.0138379e-005
+7.0400000e+003    +1.3326784e-004
+7.0560000e+003    +1.1083387e-004
+7.0720000e+003    +4.7417911e-005
+7.0880000e+003    +1.1069285e-004
+7.1040000e+003    +6.0587557e-004
+7.1200000e+003    +8.3213247e-004
+7.1360000e+003    +1.0643707e-003
+7.1520000e+003    +8.9938944e-004
+7.1680000e+003    +1.2295818e-004
+7.1840000e+003    +1.0121046e-004
+7.2000000e+003    +1.3022106e-004
+7.2160000e+003    +9.2056020e-005
+7.2320000e+003    +1.9385437e-004
+7.2480000e+003    +1.2122972e-004
+7.2640000e+003    +3.0539126e-005
+7.2800000e+003    +4.0314131e-005
+7.2960000e+003    +2.4007702e-005
+7.3120000e+003    +3.8196253e-005
+7.3280000e+003    +7.6116245e-005
+7.3440000e+003    +6.1851722e-005
+7.3600000e+003    +1.7366269e-004
+7.3760000e+003    +1.5061711e-004
+7.3920000e+003    +9.5878750e-005
+7.4080000e+003    +1.1427581e-004
+7.4240000e+003    +1.0428369e-004
+7.4400000e+003    +4.8732534e-005
+7.4560000e+003    +7.6107804e-005
+7.4720000e+003    +1.1704965e-004
+7.4880000e+003    +1.1304386e-004
+7.5040000e+003    +1.9005714e-004
+7.5200000e+003    +2.7954174e-004
+7.5360000e+003    +2.9298349e-004
+7.5520000e+003    +2.6185164e-004
+7.5680000e+003    +4.4432651e-005
+7.5840000e+003    +6.0548187e-005
+7.6000000e+003    +7.1848888e-005
+7.6160000e+003    +2.5029369e-005
+7.6320000e+003    +3.9904404e-005
+7.6480000e+003    +1.4821047e-004
+7.6640000e+003    +1.5077282e-004
+7.6800000e+003    +1.4143653e-004
+7.6960000e+003    +1.6338978e-004
+7.7120000e+003    +5.2221490e-005
+7.7280000e+003    +6.9528076e-005
+7.7440000e+003    +6.9508234e-005
+7.7600000e+003    +3.6936664e-005
+7.7760000e+003    +2.0082591e-005
+7.7920000e+003    +1.8502361e-004
+7.8080000e+003    +1.2170991e-004
+7.8240000e+003    +7.3282412e-005
+7.8400000e+003    +9.8711251e-005
+7.8560000e+003    +5.0143801e-005
+7.8720000e+003    +4.9587325e-005
+7.8880000e+003    +7.6838034e-005
+7.9040000e+003    +9.1613780e-005
+7.9200000e+003    +1.0140250e-004
+7.9360000e+003    +9.2984686e-005
+7.9520000e+003    +8.6180036e-005
+7.9680000e+003    +4.6402471e-005
+7.9840000e+003    +2.1348584e-005
+8.0000000e+003    +2.7202626e-005
+8.0160000e+003    +1.5417434e-005
+8.0320000e+003    +2.0540752e-005
+8.0480000e+003    +5.3671058e-005
+8.0640000e+003    +1.1628090e-004
+8.0800000e+003    +9.5337607e-005
+8.0960000e+003    +1.0340105e-004
+8.1120000e+003    +1.6214790e-004
+8.1280000e+003    +2.4699181e-004
+8.1440000e+003    +2.3988073e-004
+8.1600000e+003    +1.4294799e-004
+8.1760000e+003    +1.5506042e-004
+8.1920000e+003    +3.8479837e-005
+8.2080000e+003    +3.4427561e-005
+8.2240000e+003    +5.6167428e-005
+8.2400000e+003    +9.1939153e-005
+8.2560000e+003    +6.8749540e-004
+8.2720000e+003    +6.9491827e-004
+8.2880000e+003    +7.0211285e-004
+8.3040000e+003    +7.0447655e-004
+8.3200000e+003    +7.7226880e-004
+8.3360000e+003    +8.3493843e-004
+8.3520000e+003    +8.1965834e-004
+8.3680000e+003    +7.6698582e-004
+8.3840000e+003    +1.2001837e-004
+8.4000000e+003    +2.3087916e-005
+8.4160000e+003    +4.2630058e-005
+8.4320000e+003    +6.8887508e-005
+8.4480000e+003    +8.7885317e-005
+8.4640000e+003    +2.9551604e-005
+8.4800000e+003    +7.2797317e-005
+8.4960000e+003    +1.3032963e-004
+8.5120000e+003    +1.2937610e-004
+8.5280000e+003    +1.0254035e-004
+8.5440000e+003    +1.2021745e-004
+8.5600000e+003    +1.9150667e-004
+8.5760000e+003    +2.1074461e-004
+8.5920000e+003    +1.0116458e-004
+8.6080000e+003    +1.2247683e-004
+8.6240000e+003    +1.4355022e-004
+8.6400000e+003    +1.5962264e-004
+8.6560000e+003    +7.7742137e-005
+8.6720000e+003    +1.6986279e-004
+8.6880000e+003    +1.3377052e-004
+8.7040000e+003    +6.9869995e-005
+8.7200000e+003    +1.1554579e-004
+8.7360000e+003    +9.4948482e-005
+8.7520000e+003    +9.8600765e-005
+8.7680000e+003    +8.3688188e-005
+8.7840000e+003    +4.3397911e-005
+8.8000000e+003    +1.0011645e-004
+8.8160000e+003    +6.4187472e-005
+8.8320000e+003    +2.5057112e-005
+8.8480000e+003    +5.3298863e-005
+8.8640000e+003    +6.7946581e-005
+8.8800000e+003    +8.2886763e-005
+8.8960000e+003    +1.2553950e-004
+8.9120000e+003    +8.7443710e-005
+8.9280000e+003    +3.9550177e-005
+8.9440000e+003    +8.8924186e-005
+8.9600000e+003    +1.2721748e-004
+8.9760000e+003    +1.3673217e-004
+8.9920000e+003    +8.1396443e-005
+9.0080000e+003    +1.0089979e-004
+9.0240000e+003    +5.9716251e-005
+9.0400000e+003    +7.2698194e-006
+9.0560000e+003    +2.0763808e-005
+9.0720000e+003    +1.0466624e-004
+9.0880000e+003    +1.6860449e-004
+9.1040000e+003    +1.2233706e-004
+9.1200000e+003    +3.7437640e-005
+9.1360000e+003    +1.3676046e-005
+9.1520000e+003    +1.3008688e-004
+9.1680000e+003    +6.1709274e-005
+9.1840000e+003    +1.1380945e-004
+9.2000000e+003    +8.1809390e-005
+9.2160000e+003    +1.2852717e-004
+9.2320000e+003    +7.5011987e-005
+9.2480000e+003    +5.1614465e-005
+9.2640000e+003    +1.1063708e-004
+9.2800000e+003    +1.0084890e-004
+9.2960000e+003    +1.2288780e-004
+9.3120000e+003    +1.0566062e-004
+9.3280000e+003    +6.8094909e-005
+9.3440000e+003    +9.1075810e-005
+9.3600000e+003    +1.4109290e-004
+9.3760000e+003    +1.2724171e-004
+9.3920000e+003    +1.2293598e-004
+9.4080000e+003    +1.2350346e-004
+9.4240000e+003    +1.4579073e-004
+9.4400000e+003    +1.4925953e-004
+9.4560000e+003    +1.1726041e-004
+9.4720000e+003    +1.3572226e-004
+9.4880000e+003    +2.0817966e-004
+9.5040000e+003    +9.1649192e-005
+9.5200000e+003    +7.0291891e-005
+9.5360000e+003    +7.5899101e-005
+9.5520000e+003    +2.1238957e-005
+9.5680000e+003    +1.4030666e-004
+9.5840000e+003    +1.5571437e-004
+9.6000000e+003    +1.5279838e-004
+9.6160000e+003    +1.4618439e-004
+9.6320000e+003    +7.2631177e-005
+9.6480000e+003    +7.7573990e-005
+9.6640000e+003    +9.8532801e-005
+9.6800000e+003    +9.4266754e-005
+9.6960000e+003    +3.7639227e-005
+9.7120000e+003    +8.3810854e-005
+9.7280000e+003    +7.6400422e-005
+9.7440000e+003    +8.6068649e-005
+9.7600000e+003    +6.7524015e-005
+9.7760000e+003    +1.4703731e-004
+9.7920000e+003    +8.5622349e-005
+9.8080000e+003    +7.6728014e-005
+9.8240000e+003    +6.9780916e-005
+9.8400000e+003    +2.6180982e-005
+9.8560000e+003    +8.6907516e-005
+9.8720000e+003    +5.9225873e-005
+9.8880000e+003    +6.2974781e-005
+9.9040000e+003    +2.8959182e-004
+9.9200000e+003    +2.3864000e-004
+9.9360000e+003    +2.5341340e-004
+9.9520000e+003    +1.9674798e-004
+9.9680000e+003    +8.7504028e-005
+9.9840000e+003    +7.0888753e-005
+1.0000000e+004    +4.0053560e-006
+1.0016000e+004    +8.8608707e-005
+1.0032000e+004    +1.3212871e-004
+1.0048000e+004    +1.2065136e-004
+1.0064000e+004    +6.4416221e-005
+1.0080000e+004    +4.4330856e-005
+1.0096000e+004    +4.9589176e-005
+1.0112000e+004    +1.0753726e-004
+1.0128000e+004    +1.0167676e-004
+1.0144000e+004    +2.3389397e-005
+1.0160000e+004    +6.2742612e-005
+1.0176000e+004    +3.6281937e-005
+1.0192000e+004    +1.3902415e-005
+1.0208000e+004    +4.0582814e-005
+1.0224000e+004    +3.9130464e-005
+1.0240000e+004    +9.2593778e-005
+1.0256000e+004    +6.4001972e-005
+1.0272000e+004    +5.2562318e-005
+1.0288000e+004    +6.0873477e-005
+1.0304000e+004    +1.5745568e-004
+1.0320000e+004    +6.5159140e-005
+1.0336000e+004    +1.6208562e-005
+1.0352000e+004    +1.5580988e-005
+1.0368000e+004    +7.2233539e-005
+1.0384000e+004    +8.1434700e-005
+1.0400000e+004    +1.1039634e-004
+1.0416000e+004    +9.6008633e-005
+1.0432000e+004    +1.7198830e-004
+1.0448000e+004    +1.2175001e-004
+1.0464000e+004    +1.5814507e-005
+1.0480000e+004    +4.8307262e-005
+1.0496000e+004    +3.1954416e-005
+1.0512000e+004    +7.0474962e-005
+1.0528000e+004    +2.2653085e-005
+1.0544000e+004    +7.5100987e-005
+1.0560000e+004    +6.5853332e-005
+1.0576000e+004    +3.3647717e-005
+1.0592000e+004    +4.6759400e-005
+1.0608000e+004    +7.4291602e-005
+1.0624000e+004    +7.0671776e-005
+1.0640000e+004    +6.5639877e-005
+1.0656000e+004    +3.4541299e-005
+1.0672000e+004    +8.4938358e-005
+1.0688000e+004    +1.9587374e-004
+1.0704000e+004    +1.9103456e-004
+1.0720000e+004    +7.7385143e-005
+1.0736000e+004    +9.0806017e-005
+1.0752000e+004    +7.2824660e-005
+1.0768000e+004    +5.7867786e-005
+1.0784000e+004    +9.0479982e-005
+1.0800000e+004    +7.4470619e-005
+1.0816000e+004    +7.6630691e-005
+1.0832000e+004    +9.5902018e-005
+1.0848000e+004    +9.7774115e-005
+1.0864000e+004    +1.4490956e-004
+1.0880000e+004    +2.3694713e-005
+1.0896000e+004    +1.1983987e-004
+1.0912000e+004    +1.1290915e-004
+1.0928000e+004    +1.8631280e-004
+1.0944000e+004    +1.2200801e-004
+1.0960000e+004    +2.3344897e-004
+1.0976000e+004    +2.1524105e-004
+1.0992000e+004    +1.4279450e-004
+1.1008000e+004    +4.7134239e-005
+1.1024000e+004    +7.4657684e-005
+1.1040000e+004    +7.6590484e-005
+1.1056000e+004    +7.3822841e-005
+1.1072000e+004    +1.3171192e-004
+1.1088000e+004    +1.5671448e-004
+1.1104000e+004    +6.1879909e-005
+1.1120000e+004    +9.6244839e-005
+1.1136000e+004    +6.6410976e-005
+1.1152000e+004    +9.0093570e-005
+1.1168000e+004    +1.0338260e-004
+1.1184000e+004    +1.0536035e-004
+1.1200000e+004    +7.4344316e-005
+1.1216000e+004    +8.1120226e-005
+1.1232000e+004    +5.3803455e-005
+1.1248000e+004    +5.5235345e-005
+1.1264000e+004    +1.6595496e-004
+1.1280000e+004    +1.1320607e-004
+1.1296000e+004    +5.7867532e-005
+1.1312000e+004    +8.7022483e-005
+1.1328000e+004    +1.3271530e-004
+1.1344000e+004    +3.2094995e-005
+1.1360000e+004    +5.1434396e-005
+1.1376000e+004    +7.4760799e-005
+1.1392000e+004    +1.4800655e-005
+1.1408000e+004    +3.2716704e-005
+1.1424000e+004    +3.7889375e-005
+1.1440000e+004    +7.3309377e-005
+1.1456000e+004    +7.1183575e-005
+1.1472000e+004    +2.7282609e-005
+1.1488000e+004    +2.4295625e-005
+1.1504000e+004    +3.6950456e-005
+1.1520000e+004    +4.2568342e-004
+1.1536000e+004    +5.1261485e-004
+1.1552000e+004    +3.9125051e-004
+1.1568000e+004    +3.0842499e-004
+1.1584000e+004    +2.3169990e-004
+1.1600000e+004    +4.5480375e-004
+1.1616000e+004    +5.7192205e-004
+1.1632000e+004    +4.4454218e-004
+1.1648000e+004    +2.0234301e-004
+1.1664000e+004    +1.5514030e-004
+1.1680000e+004    +1.2837726e-004
+1.1696000e+004    +1.0038001e-004
+1.1712000e+004    +5.7343899e-005
+1.1728000e+004    +9.8582089e-004
+1.1744000e+004    +9.2086045e-004
+1.1760000e+004    +9.1789471e-004
+1.1776000e+004    +2.6480993e-004
+1.1792000e+004    +2.0677753e-004
+1.1808000e+004    +2.8648842e-004
+1.1824000e+004    +2.1897546e-004
+1.1840000e+004    +8.7204309e-005
+1.1856000e+004    +2.0142943e-004
+1.1872000e+004    +2.6926791e-004
+1.1888000e+004    +3.1497009e-004
+1.1904000e+004    +2.9494520e-004
+1.1920000e+004    +7.3546318e-005
+1.1936000e+004    +6.1512961e-005
+1.1952000e+004    +4.7848120e-005
+1.1968000e+004    +3.8280556e-005
+1.1984000e+004    +2.4483274e-004
+1.2000000e+004    +1.5557543e-004
+1.2016000e+004    +2.2897481e-004
+1.2032000e+004    +3.2213528e-004
+1.2048000e+004    +2.8423945e-004
+1.2064000e+004    +9.1666251e-004
+1.2080000e+004    +1.6832786e-003
+1.2096000e+004    +1.0947879e-004
+1.2112000e+004    +1.6489190e-004
+1.2128000e+004    +1.5525642e-004
+1.2144000e+004    +1.0970375e-004
+1.2160000e+004    +6.4240492e-005
+1.2176000e+004    +6.0505190e-005
+1.2192000e+004    +9.1842499e-005
+1.2208000e+004    +8.2626619e-005
+1.2224000e+004    +4.1556912e-005
+1.2240000e+004    +1.8758181e-004
+1.2256000e+004    +1.4685515e-004
+1.2272000e+004    +1.4661437e-004
+1.2288000e+004    +8.1508588e-005
+1.2304000e+004    +1.4095849e-004
+1.2320000e+004    +9.6050280e-005
+1.2336000e+004    +7.1173810e-005
+1.2352000e+004    +2.9561859e-005
+1.2368000e+004    +2.0822412e-005
+1.2384000e+004    +7.8675708e-005
+1.2400000e+004    +1.3099141e-004
+1.2416000e+004    +1.4376885e-004
+1.2432000e+004    +5.5845147e-005
+1.2448000e+004    +1.0267362e-004
+1.2464000e+004    +6.7715708e-005
+1.2480000e+004    +9.4413117e-005
+1.2496000e+004    +1.4596315e-004
+1.2512000e+004    +1.9158122e-004
+1.2528000e+004    +2.0365210e-004
+1.2544000e+004    +1.9660340e-004
+1.2560000e+004    +9.0280126e-005
+1.2576000e+004    +1.8242448e-005
+1.2592000e+004    +4.5478177e-005
+1.2608000e+004    +6.3038984e-005
+1.2624000e+004    +2.2309203e-005
+1.2640000e+004    +5.0104616e-005
+1.2656000e+004    +6.7745161e-005
+1.2672000e+004    +1.1265950e-004
+1.2688000e+004    +7.5234602e-005
+1.2704000e+004    +7.6660901e-005
+1.2720000e+004    +1.0866416e-004
+1.2736000e+004    +1.3312174e-004
+1.2752000e+004    +8.8042740e-005
+1.2768000e+004    +3.7118025e-005
+1.2784000e+004    +5.6289358e-005
