# SR785 Measurement - Timestamp: Jan 26 2019 - 06:01:52
#---------- Measurement Setup ------------
# Start Frequency (Hz): 0.000000
# Frequency Span (Hz): 12800.000000
# Frequency Resolution: 800
# Number of Averages: 2
# Averaging Mode: None
# Window function: BMH
#---------- Measurement Parameters ----------
# Measurement Group:  "FFT" "FFT"
# Measurements:  "FFT 1" "FFT 2"
# View:  "Log Magnitude" "Log Magnitude"
# Unit:  "Vrms/rtHz" "Vpk"
#---------- Input Parameters ----------
# Input Source: Analog
# Input Mode: Single ended, Single ended
# Input Grounding: Float, Float
# Input Coupling: AC, AC
# Input Range: 6.0dBVpk, 6.0dBVpk
# Auto Range: Off, Off
# Auto Range Mode: Up Only, Normal
# Anti-Aliasing Filter: On, On
#---------- Source Parameters ----------
# Source Type: Sine
# Source Amplitude: 500.0mVpk
# Source On: 0

#---------- Measurement Data ----------
# [Freq(Hz) Display 0(Vrms/rtHz) Display 1(Vpk) ]
+0.0000000e+000    +4.4256907e-002
+1.6000000e+001    +2.8749060e-002
+3.2000000e+001    +6.7608063e-003
+4.8000000e+001    +3.5561033e-004
+6.4000000e+001    +8.9743437e-004
+8.0000000e+001    +3.4613602e-004
+9.6000000e+001    +1.7168040e-004
+1.1200000e+002    +3.4194315e-004
+1.2800000e+002    +1.8852230e-004
+1.4400000e+002    +2.3110487e-004
+1.6000000e+002    +4.2620907e-004
+1.7600000e+002    +6.4190786e-004
+1.9200000e+002    +4.9803860e-004
+2.0800000e+002    +2.0655550e-004
+2.2400000e+002    +3.0557239e-005
+2.4000000e+002    +1.3014574e-004
+2.5600000e+002    +1.0251710e-004
+2.7200000e+002    +2.2872580e-004
+2.8800000e+002    +2.9784671e-004
+3.0400000e+002    +2.7785386e-004
+3.2000000e+002    +9.3582421e-005
+3.3600000e+002    +2.2651740e-005
+3.5200000e+002    +7.6349766e-005
+3.6800000e+002    +5.6068104e-005
+3.8400000e+002    +8.6159984e-005
+4.0000000e+002    +3.9756153e-005
+4.1600000e+002    +1.4514531e-004
+4.3200000e+002    +2.1806195e-004
+4.4800000e+002    +1.7603317e-004
+4.6400000e+002    +1.6152838e-004
+4.8000000e+002    +1.4550975e-004
+4.9600000e+002    +4.4809938e-005
+5.1200000e+002    +8.8403467e-005
+5.2800000e+002    +1.9670650e-004
+5.4400000e+002    +2.5022897e-004
+5.6000000e+002    +1.6158461e-004
+5.7600000e+002    +2.7609960e-005
+5.9200000e+002    +4.0772720e-005
+6.0800000e+002    +1.1485071e-004
+6.2400000e+002    +1.9331428e-004
+6.4000000e+002    +2.4447966e-004
+6.5600000e+002    +8.2798710e-005
+6.7200000e+002    +1.0771180e-004
+6.8800000e+002    +1.6425784e-004
+7.0400000e+002    +1.8865679e-004
+7.2000000e+002    +1.5166581e-004
+7.3600000e+002    +4.1347012e-005
+7.5200000e+002    +6.7815039e-005
+7.6800000e+002    +1.0637668e-004
+7.8400000e+002    +1.7272055e-004
+8.0000000e+002    +2.1508134e-004
+8.1600000e+002    +1.5515307e-004
+8.3200000e+002    +6.7176603e-005
+8.4800000e+002    +7.6037228e-005
+8.6400000e+002    +3.8199272e-005
+8.8000000e+002    +6.2702667e-005
+8.9600000e+002    +2.3401162e-004
+9.1200000e+002    +2.7396542e-004
+9.2800000e+002    +1.4424192e-004
+9.4400000e+002    +3.3688084e-005
+9.6000000e+002    +6.3835221e-005
+9.7600000e+002    +1.1959644e-004
+9.9200000e+002    +1.5869968e-004
+1.0080000e+003    +1.4926847e-004
+1.0240000e+003    +4.4408509e-005
+1.0400000e+003    +9.1851471e-005
+1.0560000e+003    +8.6723456e-005
+1.0720000e+003    +7.9784302e-005
+1.0880000e+003    +6.3818683e-005
+1.1040000e+003    +3.6812573e-005
+1.1200000e+003    +2.6003077e-005
+1.1360000e+003    +8.3345789e-005
+1.1520000e+003    +1.1241966e-004
+1.1680000e+003    +9.3396418e-005
+1.1840000e+003    +1.2134112e-004
+1.2000000e+003    +1.0617924e-004
+1.2160000e+003    +3.2663942e-005
+1.2320000e+003    +6.7626250e-005
+1.2480000e+003    +1.2600106e-004
+1.2640000e+003    +8.5353997e-005
+1.2800000e+003    +9.3872208e-005
+1.2960000e+003    +1.0906033e-004
+1.3120000e+003    +1.4442226e-004
+1.3280000e+003    +4.0862531e-005
+1.3440000e+003    +8.7611217e-005
+1.3600000e+003    +8.5369742e-005
+1.3760000e+003    +6.5148262e-005
+1.3920000e+003    +8.3639134e-005
+1.4080000e+003    +5.0224135e-005
+1.4240000e+003    +3.4948796e-005
+1.4400000e+003    +6.6521978e-005
+1.4560000e+003    +7.4298703e-005
+1.4720000e+003    +8.3328036e-005
+1.4880000e+003    +4.3978940e-005
+1.5040000e+003    +8.1843800e-006
+1.5200000e+003    +3.4719662e-005
+1.5360000e+003    +7.6250413e-005
+1.5520000e+003    +1.3030552e-004
+1.5680000e+003    +6.7038010e-005
+1.5840000e+003    +4.6799309e-005
+1.6000000e+003    +8.4079897e-005
+1.6160000e+003    +7.4980613e-005
+1.6320000e+003    +5.0498507e-005
+1.6480000e+003    +8.7856562e-005
+1.6640000e+003    +1.0470164e-004
+1.6800000e+003    +9.4922740e-005
+1.6960000e+003    +6.0337748e-005
+1.7120000e+003    +9.5514471e-005
+1.7280000e+003    +1.4132794e-004
+1.7440000e+003    +1.2481383e-004
+1.7600000e+003    +9.0095447e-005
+1.7760000e+003    +1.3092045e-004
+1.7920000e+003    +1.1488117e-004
+1.8080000e+003    +1.0692692e-004
+1.8240000e+003    +8.8368921e-005
+1.8400000e+003    +6.0577113e-005
+1.8560000e+003    +4.8896807e-005
+1.8720000e+003    +8.7825319e-005
+1.8880000e+003    +7.5709337e-005
+1.9040000e+003    +7.7612414e-005
+1.9200000e+003    +7.4755131e-005
+1.9360000e+003    +2.4282797e-005
+1.9520000e+003    +3.4994107e-005
+1.9680000e+003    +1.1751167e-004
+1.9840000e+003    +1.2534337e-004
+2.0000000e+003    +8.9602690e-005
+2.0160000e+003    +5.2868036e-005
+2.0320000e+003    +7.1132010e-005
+2.0480000e+003    +7.3316944e-005
+2.0640000e+003    +8.0654856e-005
+2.0800000e+003    +7.5846452e-005
+2.0960000e+003    +3.9700666e-005
+2.1120000e+003    +2.0189374e-003
+2.1280000e+003    +2.2163047e-003
+2.1440000e+003    +4.3916693e-003
+2.1600000e+003    +3.8799718e-003
+2.1760000e+003    +2.1160079e-002
+2.1920000e+003    +2.0915790e-002
+2.2080000e+003    +1.4506151e-002
+2.2240000e+003    +8.8617653e-003
+2.2400000e+003    +8.3300685e-005
+2.2560000e+003    +1.2021534e-004
+2.2720000e+003    +1.1057266e-004
+2.2880000e+003    +5.7854824e-005
+2.3040000e+003    +2.7083806e-005
+2.3200000e+003    +3.2164455e-005
+2.3360000e+003    +4.1127281e-005
+2.3520000e+003    +4.5416451e-005
+2.3680000e+003    +5.8230438e-005
+2.3840000e+003    +8.0152284e-005
+2.4000000e+003    +4.2169744e-005
+2.4160000e+003    +5.3880780e-005
+2.4320000e+003    +1.4125937e-004
+2.4480000e+003    +3.5380366e-005
+2.4640000e+003    +7.0347945e-005
+2.4800000e+003    +6.6937762e-005
+2.4960000e+003    +7.5434858e-005
+2.5120000e+003    +6.0958420e-005
+2.5280000e+003    +6.7047215e-005
+2.5440000e+003    +4.6797664e-005
+2.5600000e+003    +3.6620320e-005
+2.5760000e+003    +3.5732028e-005
+2.5920000e+003    +5.7324258e-005
+2.6080000e+003    +3.5290552e-005
+2.6240000e+003    +2.5976084e-005
+2.6400000e+003    +4.7519072e-005
+2.6560000e+003    +5.5046814e-005
+2.6720000e+003    +4.9561251e-005
+2.6880000e+003    +5.8122681e-005
+2.7040000e+003    +7.1500974e-005
+2.7200000e+003    +4.9857339e-005
+2.7360000e+003    +6.1306644e-005
+2.7520000e+003    +4.2483061e-005
+2.7680000e+003    +1.7404160e-005
+2.7840000e+003    +1.6445038e-005
+2.8000000e+003    +3.1166299e-005
+2.8160000e+003    +4.3885746e-005
+2.8320000e+003    +2.4350185e-005
+2.8480000e+003    +9.9426106e-005
+2.8640000e+003    +1.1398009e-004
+2.8800000e+003    +1.2017891e-004
+2.8960000e+003    +7.9063830e-005
+2.9120000e+003    +1.7573944e-005
+2.9280000e+003    +2.1114030e-005
+2.9440000e+003    +6.3785621e-005
+2.9600000e+003    +6.8400557e-005
+2.9760000e+003    +5.0533115e-005
+2.9920000e+003    +9.6753938e-005
+3.0080000e+003    +8.5960513e-005
+3.0240000e+003    +7.6578290e-005
+3.0400000e+003    +5.9116988e-005
+3.0560000e+003    +5.8335834e-005
+3.0720000e+003    +5.0446859e-005
+3.0880000e+003    +7.1753893e-005
+3.1040000e+003    +8.7416258e-005
+3.1200000e+003    +9.7829950e-005
+3.1360000e+003    +2.7854525e-005
+3.1520000e+003    +1.9940280e-005
+3.1680000e+003    +3.8674672e-005
+3.1840000e+003    +2.8968625e-005
+3.2000000e+003    +3.8395345e-005
+3.2160000e+003    +3.6649886e-005
+3.2320000e+003    +5.1366729e-005
+3.2480000e+003    +3.1378666e-005
+3.2640000e+003    +3.4011198e-005
+3.2800000e+003    +6.1046499e-005
+3.2960000e+003    +5.0131908e-005
+3.3120000e+003    +6.9351809e-005
+3.3280000e+003    +5.6612960e-005
+3.3440000e+003    +4.8569080e-005
+3.3600000e+003    +5.1181738e-005
+3.3760000e+003    +2.4961884e-005
+3.3920000e+003    +3.5375549e-005
+3.4080000e+003    +7.2444811e-005
+3.4240000e+003    +9.6913951e-005
+3.4400000e+003    +1.0207726e-004
+3.4560000e+003    +8.9957655e-005
+3.4720000e+003    +1.1222863e-004
+3.4880000e+003    +3.6078469e-005
+3.5040000e+003    +1.0166493e-004
+3.5200000e+003    +1.2280808e-004
+3.5360000e+003    +8.2841449e-005
+3.5520000e+003    +1.0244053e-004
+3.5680000e+003    +8.1871127e-005
+3.5840000e+003    +7.2017509e-005
+3.6000000e+003    +3.0133970e-005
+3.6160000e+003    +2.5346293e-005
+3.6320000e+003    +5.7584981e-005
+3.6480000e+003    +8.7191765e-005
+3.6640000e+003    +8.7269633e-005
+3.6800000e+003    +9.8872872e-005
+3.6960000e+003    +4.0077313e-005
+3.7120000e+003    +4.1941868e-005
+3.7280000e+003    +9.5073774e-005
+3.7440000e+003    +1.3076990e-004
+3.7600000e+003    +1.0096318e-004
+3.7760000e+003    +5.7548699e-005
+3.7920000e+003    +1.4182396e-005
+3.8080000e+003    +4.4316013e-005
+3.8240000e+003    +5.9530135e-005
+3.8400000e+003    +3.5497407e-005
+3.8560000e+003    +9.6016222e-005
+3.8720000e+003    +1.1276593e-004
+3.8880000e+003    +1.0658016e-004
+3.9040000e+003    +3.9038157e-005
+3.9200000e+003    +2.2245167e-007
+3.9360000e+003    +3.8714908e-005
+3.9520000e+003    +7.3748473e-005
+3.9680000e+003    +4.8105179e-005
+3.9840000e+003    +5.3399144e-005
+4.0000000e+003    +4.6312227e-005
+4.0160000e+003    +2.7579450e-005
+4.0320000e+003    +4.9022867e-005
+4.0480000e+003    +5.6500627e-005
+4.0640000e+003    +4.5499506e-005
+4.0800000e+003    +4.5255623e-005
+4.0960000e+003    +4.8433554e-005
+4.1120000e+003    +9.7809761e-006
+4.1280000e+003    +2.0203433e-005
+4.1440000e+003    +8.2676619e-005
+4.1600000e+003    +1.2627272e-004
+4.1760000e+003    +5.1157691e-005
+4.1920000e+003    +4.0905488e-005
+4.2080000e+003    +3.5629895e-005
+4.2240000e+003    +3.5244762e-003
+4.2400000e+003    +3.5459974e-003
+4.2560000e+003    +3.2090853e-004
+4.2720000e+003    +3.1828729e-003
+4.2880000e+003    +1.2386549e-004
+4.3040000e+003    +9.3485680e-005
+4.3200000e+003    +5.0659888e-005
+4.3360000e+003    +3.9536455e-005
+4.3520000e+003    +3.8059028e-005
+4.3680000e+003    +7.1627321e-005
+4.3840000e+003    +9.3900868e-005
+4.4000000e+003    +8.2539482e-005
+4.4160000e+003    +3.6061796e-005
+4.4320000e+003    +3.9160766e-002
+4.4480000e+003    +2.9843677e-002
+4.4640000e+003    +1.4826328e-002
+4.4800000e+003    +8.3484541e-004
+4.4960000e+003    +8.4991669e-003
+4.5120000e+003    +5.6251055e-003
+4.5280000e+003    +7.7348528e-003
+4.5440000e+003    +1.1472720e-002
+4.5600000e+003    +6.3199243e-003
+4.5760000e+003    +1.7983974e-003
+4.5920000e+003    +3.4005262e-004
+4.6080000e+003    +4.8069647e-003
+4.6240000e+003    +4.8959046e-003
+4.6400000e+003    +9.5322849e-003
+4.6560000e+003    +6.6645015e-003
+4.6720000e+003    +8.1135455e-004
+4.6880000e+003    +3.0150188e-003
+4.7040000e+003    +6.0406486e-003
+4.7200000e+003    +7.9970052e-003
+4.7360000e+003    +9.6227350e-003
+4.7520000e+003    +1.0923317e-002
+4.7680000e+003    +1.0387667e-002
+4.7840000e+003    +1.7330231e-003
+4.8000000e+003    +6.3042440e-003
+4.8160000e+003    +7.1226927e-003
+4.8320000e+003    +1.9539839e-002
+4.8480000e+003    +1.7679716e-002
+4.8640000e+003    +2.3186883e-002
+4.8800000e+003    +3.0690851e-002
+4.8960000e+003    +1.0031765e-002
+4.9120000e+003    +9.2352945e-003
+4.9280000e+003    +1.0754370e-002
+4.9440000e+003    +1.0169795e-002
+4.9600000e+003    +1.0933621e-002
+4.9760000e+003    +4.3355785e-003
+4.9920000e+003    +3.7898133e-003
+5.0080000e+003    +8.6336827e-004
+5.0240000e+003    +8.0611920e-003
+5.0400000e+003    +1.4158397e-002
+5.0560000e+003    +1.8966377e-002
+5.0720000e+003    +1.7692445e-002
+5.0880000e+003    +4.6508536e-003
+5.1040000e+003    +6.7534987e-003
+5.1200000e+003    +6.0998658e-003
+5.1360000e+003    +4.4033197e-003
+5.1520000e+003    +4.4085807e-003
+5.1680000e+003    +2.3883029e-003
+5.1840000e+003    +2.6088211e-004
+5.2000000e+003    +1.3792386e-003
+5.2160000e+003    +1.2403172e-003
+5.2320000e+003    +6.2096207e-003
+5.2480000e+003    +7.8696264e-003
+5.2640000e+003    +8.8595329e-003
+5.2800000e+003    +9.2188418e-003
+5.2960000e+003    +6.4911861e-003
+5.3120000e+003    +1.6218757e-002
+5.3280000e+003    +1.9034296e-002
+5.3440000e+003    +1.3850796e-002
+5.3600000e+003    +8.3698757e-004
+5.3760000e+003    +7.1663427e-004
+5.3920000e+003    +6.0270145e-004
+5.4080000e+003    +7.7596994e-004
+5.4240000e+003    +9.8193903e-004
+5.4400000e+003    +8.8431036e-005
+5.4560000e+003    +4.1919171e-005
+5.4720000e+003    +1.8903955e-005
+5.4880000e+003    +2.1382177e-005
+5.5040000e+003    +4.0789240e-005
+5.5200000e+003    +3.6956055e-005
+5.5360000e+003    +6.5178247e-005
+5.5520000e+003    +5.2949712e-005
+5.5680000e+003    +3.2764514e-005
+5.5840000e+003    +5.5144086e-005
+5.6000000e+003    +3.6010242e-005
+5.6160000e+003    +4.4918652e-005
+5.6320000e+003    +1.7050819e-005
+5.6480000e+003    +4.1406842e-005
+5.6640000e+003    +1.1273238e-005
+5.6800000e+003    +2.6905203e-005
+5.6960000e+003    +4.2716783e-005
+5.7120000e+003    +5.7421330e-005
+5.7280000e+003    +2.3968249e-005
+5.7440000e+003    +3.9954339e-005
+5.7600000e+003    +1.0386563e-004
+5.7760000e+003    +1.4065516e-004
+5.7920000e+003    +8.8548892e-005
+5.8080000e+003    +3.9467755e-005
+5.8240000e+003    +3.9427345e-005
+5.8400000e+003    +3.7022415e-005
+5.8560000e+003    +4.3128341e-005
+5.8720000e+003    +5.7346861e-005
+5.8880000e+003    +6.0099988e-005
+5.9040000e+003    +3.6908408e-005
+5.9200000e+003    +2.5814108e-005
+5.9360000e+003    +9.5351006e-006
+5.9520000e+003    +1.7331429e-005
+5.9680000e+003    +6.5770670e-005
+5.9840000e+003    +4.2902164e-005
+6.0000000e+003    +2.3216133e-005
+6.0160000e+003    +3.3679284e-005
+6.0320000e+003    +9.5654257e-005
+6.0480000e+003    +1.0817116e-004
+6.0640000e+003    +8.8895882e-005
+6.0800000e+003    +3.3701661e-005
+6.0960000e+003    +6.9633890e-005
+6.1120000e+003    +3.4887304e-005
+6.1280000e+003    +8.7164102e-005
+6.1440000e+003    +7.2561197e-005
+6.1600000e+003    +5.6962810e-005
+6.1760000e+003    +8.0008351e-005
+6.1920000e+003    +4.9353494e-005
+6.2080000e+003    +1.9815398e-005
+6.2240000e+003    +1.9046689e-005
+6.2400000e+003    +1.1158321e-006
+6.2560000e+003    +4.1081159e-005
+6.2720000e+003    +5.1377672e-005
+6.2880000e+003    +5.0976923e-005
+6.3040000e+003    +5.5834294e-005
+6.3200000e+003    +3.1035514e-005
+6.3360000e+003    +4.6826244e-005
+6.3520000e+003    +4.5260740e-006
+6.3680000e+003    +3.9918821e-005
+6.3840000e+003    +4.8139260e-005
+6.4000000e+003    +9.5063748e-005
+6.4160000e+003    +6.9060021e-005
+6.4320000e+003    +3.5704263e-005
+6.4480000e+003    +1.1160600e-005
+6.4640000e+003    +4.1413573e-006
+6.4800000e+003    +5.2731917e-005
+6.4960000e+003    +3.4412820e-005
+6.5120000e+003    +8.6013380e-005
+6.5280000e+003    +1.5025794e-004
+6.5440000e+003    +2.5828964e-005
+6.5600000e+003    +2.7670534e-005
+6.5760000e+003    +4.5087490e-005
+6.5920000e+003    +8.5409964e-005
+6.6080000e+003    +4.1929849e-005
+6.6240000e+003    +5.9214690e-005
+6.6400000e+003    +6.2890897e-005
+6.6560000e+003    +4.2181553e-005
+6.6720000e+003    +4.0021205e-005
+6.6880000e+003    +2.5660354e-005
+6.7040000e+003    +1.8907464e-005
+6.7200000e+003    +2.4560373e-005
+6.7360000e+003    +3.1369502e-005
+6.7520000e+003    +5.6270386e-005
+6.7680000e+003    +8.8631379e-005
+6.7840000e+003    +1.2400348e-004
+6.8000000e+003    +2.8490245e-005
+6.8160000e+003    +3.2541055e-005
+6.8320000e+003    +7.6678662e-006
+6.8480000e+003    +2.0000140e-005
+6.8640000e+003    +2.7063355e-005
+6.8800000e+003    +3.9319228e-005
+6.8960000e+003    +3.5832170e-005
+6.9120000e+003    +3.9122217e-005
+6.9280000e+003    +7.5217424e-005
+6.9440000e+003    +5.3019638e-005
+6.9600000e+003    +1.4486964e-005
+6.9760000e+003    +3.3644206e-005
+6.9920000e+003    +3.5779649e-005
+7.0080000e+003    +4.9777700e-005
+7.0240000e+003    +5.8362486e-005
+7.0400000e+003    +4.2950567e-005
+7.0560000e+003    +3.1764197e-005
+7.0720000e+003    +1.0094661e-005
+7.0880000e+003    +2.7063057e-005
+7.1040000e+003    +2.0706209e-005
+7.1200000e+003    +3.4647805e-005
+7.1360000e+003    +2.2099492e-005
+7.1520000e+003    +3.6494166e-005
+7.1680000e+003    +2.8744025e-005
+7.1840000e+003    +3.2147120e-005
+7.2000000e+003    +2.9572182e-005
+7.2160000e+003    +2.2932112e-005
+7.2320000e+003    +3.9814469e-005
+7.2480000e+003    +4.3767901e-005
+7.2640000e+003    +2.6555896e-005
+7.2800000e+003    +6.3226347e-005
+7.2960000e+003    +8.8534405e-005
+7.3120000e+003    +1.1752115e-004
+7.3280000e+003    +1.0476328e-004
+7.3440000e+003    +7.7829936e-005
+7.3600000e+003    +7.2312258e-005
+7.3760000e+003    +5.7482015e-005
+7.3920000e+003    +5.2904095e-005
+7.4080000e+003    +2.7072270e-005
+7.4240000e+003    +2.0430809e-005
+7.4400000e+003    +3.4707962e-005
+7.4560000e+003    +5.6392910e-005
+7.4720000e+003    +4.3804823e-005
+7.4880000e+003    +1.4975873e-005
+7.5040000e+003    +4.6605328e-005
+7.5200000e+003    +1.2507413e-005
+7.5360000e+003    +2.2466371e-005
+7.5520000e+003    +2.9759209e-005
+7.5680000e+003    +3.2414500e-005
+7.5840000e+003    +1.1171180e-005
+7.6000000e+003    +3.5497214e-005
+7.6160000e+003    +3.2838452e-005
+7.6320000e+003    +1.8067098e-005
+7.6480000e+003    +2.5201995e-005
+7.6640000e+003    +1.6144337e-005
+7.6800000e+003    +2.4841584e-005
+7.6960000e+003    +2.3287897e-005
+7.7120000e+003    +3.1764404e-005
+7.7280000e+003    +7.2657342e-005
+7.7440000e+003    +9.1699920e-005
+7.7600000e+003    +6.0628750e-005
+7.7760000e+003    +6.9647882e-005
+7.7920000e+003    +9.0856876e-005
+7.8080000e+003    +1.0822920e-004
+7.8240000e+003    +9.7708005e-005
+7.8400000e+003    +4.7522517e-005
+7.8560000e+003    +5.2173405e-006
+7.8720000e+003    +1.1269878e-004
+7.8880000e+003    +1.5037322e-004
+7.9040000e+003    +1.2628292e-004
+7.9200000e+003    +2.3675182e-005
+7.9360000e+003    +7.0547736e-005
+7.9520000e+003    +1.1256430e-004
+7.9680000e+003    +1.4236994e-004
+7.9840000e+003    +1.4534449e-004
+8.0000000e+003    +4.7931095e-005
+8.0160000e+003    +7.7232013e-005
+8.0320000e+003    +1.1224292e-004
+8.0480000e+003    +1.3928136e-004
+8.0640000e+003    +6.5587788e-005
+8.0800000e+003    +5.1868061e-005
+8.0960000e+003    +5.0997973e-005
+8.1120000e+003    +7.9212667e-005
+8.1280000e+003    +5.7715752e-005
+8.1440000e+003    +4.4080458e-005
+8.1600000e+003    +3.0961965e-005
+8.1760000e+003    +2.9553097e-005
+8.1920000e+003    +6.2902225e-005
+8.2080000e+003    +3.8024609e-005
+8.2240000e+003    +1.8370825e-005
+8.2400000e+003    +2.4922230e-005
+8.2560000e+003    +4.4709486e-005
+8.2720000e+003    +6.8234258e-005
+8.2880000e+003    +5.8463243e-005
+8.3040000e+003    +5.1541298e-005
+8.3200000e+003    +5.7984049e-005
+8.3360000e+003    +9.1078611e-005
+8.3520000e+003    +1.9513372e-004
+8.3680000e+003    +2.3228003e-004
+8.3840000e+003    +1.7606758e-004
+8.4000000e+003    +1.0270700e-004
+8.4160000e+003    +1.0259429e-004
+8.4320000e+003    +5.2519747e-005
+8.4480000e+003    +4.9210859e-005
+8.4640000e+003    +6.6451459e-005
+8.4800000e+003    +5.7229550e-005
+8.4960000e+003    +1.9840521e-005
+8.5120000e+003    +4.9529485e-006
+8.5280000e+003    +5.4369684e-005
+8.5440000e+003    +4.7009322e-005
+8.5600000e+003    +7.0924332e-005
+8.5760000e+003    +5.0551764e-005
+8.5920000e+003    +1.4209892e-005
+8.6080000e+003    +6.7437250e-005
+8.6240000e+003    +1.6978858e-005
+8.6400000e+003    +3.4756278e-005
+8.6560000e+003    +6.4337124e-005
+8.6720000e+003    +7.8104553e-005
+8.6880000e+003    +9.6233009e-005
+8.7040000e+003    +1.3412732e-004
+8.7200000e+003    +1.5920590e-004
+8.7360000e+003    +7.5988486e-005
+8.7520000e+003    +8.4393061e-005
+8.7680000e+003    +8.7866698e-005
+8.7840000e+003    +5.1895120e-005
+8.8000000e+003    +2.1545917e-005
+8.8160000e+003    +9.0514959e-006
+8.8320000e+003    +2.1139511e-003
+8.8480000e+003    +2.4203185e-003
+8.8640000e+003    +2.6347514e-003
+8.8800000e+003    +2.6377907e-003
+8.8960000e+003    +2.8145148e-003
+8.9120000e+003    +4.1598454e-003
+8.9280000e+003    +4.8763095e-003
+8.9440000e+003    +5.3337412e-003
+8.9600000e+003    +3.7724494e-005
+8.9760000e+003    +3.5691366e-005
+8.9920000e+003    +2.0309008e-005
+9.0080000e+003    +2.9878413e-005
+9.0240000e+003    +3.8043025e-003
+9.0400000e+003    +5.6892273e-004
+9.0560000e+003    +1.3989056e-003
+9.0720000e+003    +1.5245032e-003
+9.0880000e+003    +6.2160874e-003
+9.1040000e+003    +6.7287995e-003
+9.1200000e+003    +5.6534507e-003
+9.1360000e+003    +1.4515280e-003
+9.1520000e+003    +1.4298610e-002
+9.1680000e+003    +4.0622111e-002
+9.1840000e+003    +5.2079145e-002
+9.2000000e+003    +4.3482404e-002
+9.2160000e+003    +2.4722140e-002
+9.2320000e+003    +4.8645716e-003
+9.2480000e+003    +3.8238131e-003
+9.2640000e+003    +3.5918041e-003
+9.2800000e+003    +3.2293738e-003
+9.2960000e+003    +3.6014414e-003
+9.3120000e+003    +4.0049269e-003
+9.3280000e+003    +5.1255240e-003
+9.3440000e+003    +3.7219722e-003
+9.3600000e+003    +1.8840828e-003
+9.3760000e+003    +5.2844123e-003
+9.3920000e+003    +4.6243630e-003
+9.4080000e+003    +5.7647703e-003
+9.4240000e+003    +1.3021835e-003
+9.4400000e+003    +1.8094622e-003
+9.4560000e+003    +2.1106463e-003
+9.4720000e+003    +2.0781884e-003
+9.4880000e+003    +1.9115007e-003
+9.5040000e+003    +8.0857637e-005
+9.5200000e+003    +6.5289831e-005
+9.5360000e+003    +2.3984332e-005
+9.5520000e+003    +8.7444190e-005
+9.5680000e+003    +2.0569167e-005
+9.5840000e+003    +8.5153679e-006
+9.6000000e+003    +1.8843466e-005
+9.6160000e+003    +7.1649971e-005
+9.6320000e+003    +1.0365163e-004
+9.6480000e+003    +5.3227809e-004
+9.6640000e+003    +4.8675103e-004
+9.6800000e+003    +5.1251638e-005
+9.6960000e+003    +5.2014628e-005
+9.7120000e+003    +2.3148377e-005
+9.7280000e+003    +6.5742151e-006
+9.7440000e+003    +2.3442592e-005
+9.7600000e+003    +5.8303114e-005
+9.7760000e+003    +5.3847307e-005
+9.7920000e+003    +4.4005603e-005
+9.8080000e+003    +2.5953790e-005
+9.8240000e+003    +1.6489896e-003
+9.8400000e+003    +1.5547230e-003
+9.8560000e+003    +1.0993923e-003
+9.8720000e+003    +8.4694137e-004
+9.8880000e+003    +5.3566382e-005
+9.9040000e+003    +4.2150627e-005
+9.9200000e+003    +1.3662930e-005
+9.9360000e+003    +1.6071454e-005
+9.9520000e+003    +7.6864532e-004
+9.9680000e+003    +7.9548481e-004
+9.9840000e+003    +9.2062791e-004
+1.0000000e+004    +8.2017377e-004
+1.0016000e+004    +4.7774312e-005
+1.0032000e+004    +3.8358477e-005
+1.0048000e+004    +8.7854060e-006
+1.0064000e+004    +9.0123249e-006
+1.0080000e+004    +4.1441592e-005
+1.0096000e+004    +3.5500489e-004
+1.0112000e+004    +2.3428773e-004
+1.0128000e+004    +1.5999778e-005
+1.0144000e+004    +2.8962741e-004
+1.0160000e+004    +1.6157920e-004
+1.0176000e+004    +1.2736674e-004
+1.0192000e+004    +1.4288735e-004
+1.0208000e+004    +9.5832125e-005
+1.0224000e+004    +6.8132897e-005
+1.0240000e+004    +1.8887462e-005
+1.0256000e+004    +5.4562603e-005
+1.0272000e+004    +3.9463986e-005
+1.0288000e+004    +1.1358986e-003
+1.0304000e+004    +1.6299988e-003
+1.0320000e+004    +9.9426485e-004
+1.0336000e+004    +2.6104544e-004
+1.0352000e+004    +1.3566631e-005
+1.0368000e+004    +3.8782895e-005
+1.0384000e+004    +4.1927869e-005
+1.0400000e+004    +2.7196056e-005
+1.0416000e+004    +3.6434471e-005
+1.0432000e+004    +2.3527606e-004
+1.0448000e+004    +1.6952938e-004
+1.0464000e+004    +2.6908156e-004
+1.0480000e+004    +3.0786169e-004
+1.0496000e+004    +7.1882816e-005
+1.0512000e+004    +9.1917049e-005
+1.0528000e+004    +7.0090668e-005
+1.0544000e+004    +5.4425767e-005
+1.0560000e+004    +6.9107358e-005
+1.0576000e+004    +6.6094182e-004
+1.0592000e+004    +6.4289710e-004
+1.0608000e+004    +7.0750428e-004
+1.0624000e+004    +5.2293699e-004
+1.0640000e+004    +3.4606250e-003
+1.0656000e+004    +3.2381862e-003
+1.0672000e+004    +2.9862227e-003
+1.0688000e+004    +3.1223772e-003
+1.0704000e+004    +3.5998265e-003
+1.0720000e+004    +8.0894133e-005
+1.0736000e+004    +7.5446122e-005
+1.0752000e+004    +6.0030216e-005
+1.0768000e+004    +4.8486600e-005
+1.0784000e+004    +8.5425723e-005
+1.0800000e+004    +9.1519272e-005
+1.0816000e+004    +5.9208189e-005
+1.0832000e+004    +3.1462707e-005
+1.0848000e+004    +4.8179473e-004
+1.0864000e+004    +7.8831217e-004
+1.0880000e+004    +8.8103133e-004
+1.0896000e+004    +9.6244313e-004
+1.0912000e+004    +7.2469714e-004
+1.0928000e+004    +1.7619346e-005
+1.0944000e+004    +5.9601552e-006
+1.0960000e+004    +4.9677892e-006
+1.0976000e+004    +1.8564058e-005
+1.0992000e+004    +3.3177671e-004
+1.1008000e+004    +2.5699957e-004
+1.1024000e+004    +1.1838555e-004
+1.1040000e+004    +9.1532638e-005
+1.1056000e+004    +6.8939116e-005
+1.1072000e+004    +7.2977142e-005
+1.1088000e+004    +5.0258503e-005
+1.1104000e+004    +6.4650962e-006
+1.1120000e+004    +4.3958711e-004
+1.1136000e+004    +4.9983023e-004
+1.1152000e+004    +8.6659397e-004
+1.1168000e+004    +8.1303599e-004
+1.1184000e+004    +7.0372201e-004
+1.1200000e+004    +7.9619000e-005
+1.1216000e+004    +6.8820074e-005
+1.1232000e+004    +1.7079392e-005
+1.1248000e+004    +4.9044993e-005
+1.1264000e+004    +9.8114368e-005
+1.1280000e+004    +7.9273399e-005
+1.1296000e+004    +1.3864566e-004
+1.1312000e+004    +2.4516738e-004
+1.1328000e+004    +8.3370408e-004
+1.1344000e+004    +4.7684700e-004
+1.1360000e+004    +9.4545376e-004
+1.1376000e+004    +2.2356895e-004
+1.1392000e+004    +9.8839821e-004
+1.1408000e+004    +3.1107669e-005
+1.1424000e+004    +2.2418593e-005
+1.1440000e+004    +2.0738131e-005
+1.1456000e+004    +6.1768995e-005
+1.1472000e+004    +1.3163252e-002
+1.1488000e+004    +1.3364786e-002
+1.1504000e+004    +9.3764151e-003
+1.1520000e+004    +5.7577901e-003
+1.1536000e+004    +6.5917755e-003
+1.1552000e+004    +1.5671302e-004
+1.1568000e+004    +1.8563223e-004
+1.1584000e+004    +1.4830749e-004
+1.1600000e+004    +3.2653614e-005
+1.1616000e+004    +4.7055848e-005
+1.1632000e+004    +5.5619534e-005
+1.1648000e+004    +3.2314219e-005
+1.1664000e+004    +3.2460943e-005
+1.1680000e+004    +3.5632597e-004
+1.1696000e+004    +2.6285564e-004
+1.1712000e+004    +8.9186826e-005
+1.1728000e+004    +1.6387009e-004
+1.1744000e+004    +4.4900655e-005
+1.1760000e+004    +3.4729881e-005
+1.1776000e+004    +1.8412060e-005
+1.1792000e+004    +9.8591236e-006
+1.1808000e+004    +8.7953949e-006
+1.1824000e+004    +1.6008546e-004
+1.1840000e+004    +2.7847415e-004
+1.1856000e+004    +8.1944960e-004
+1.1872000e+004    +5.8605918e-005
+1.1888000e+004    +7.0744914e-005
+1.1904000e+004    +5.4114014e-005
+1.1920000e+004    +2.3584766e-005
+1.1936000e+004    +1.9281720e-003
+1.1952000e+004    +1.5515877e-003
+1.1968000e+004    +1.4480142e-003
+1.1984000e+004    +1.8353669e-003
+1.2000000e+004    +2.0998863e-003
+1.2016000e+004    +2.3728062e-005
+1.2032000e+004    +3.0999076e-005
+1.2048000e+004    +6.4422231e-005
+1.2064000e+004    +8.2457147e-005
+1.2080000e+004    +3.5425904e-004
+1.2096000e+004    +2.8492310e-004
+1.2112000e+004    +2.7424155e-004
+1.2128000e+004    +5.7206558e-005
+1.2144000e+004    +5.0199989e-005
+1.2160000e+004    +4.0153071e-005
+1.2176000e+004    +5.5300032e-005
+1.2192000e+004    +4.6815549e-005
+1.2208000e+004    +3.2799933e-005
+1.2224000e+004    +3.9337276e-005
+1.2240000e+004    +9.3248877e-005
+1.2256000e+004    +9.4474606e-005
+1.2272000e+004    +1.4455869e-005
+1.2288000e+004    +3.1490388e-005
+1.2304000e+004    +3.6128098e-005
+1.2320000e+004    +4.2110289e-005
+1.2336000e+004    +4.8432437e-005
+1.2352000e+004    +6.2732972e-005
+1.2368000e+004    +4.3762135e-005
+1.2384000e+004    +3.5969464e-005
+1.2400000e+004    +6.2055311e-005
+1.2416000e+004    +1.0883132e-004
+1.2432000e+004    +1.1723421e-004
+1.2448000e+004    +1.4306465e-004
+1.2464000e+004    +2.0906600e-004
+1.2480000e+004    +2.3540163e-004
+1.2496000e+004    +2.2215146e-004
+1.2512000e+004    +2.8493186e-004
+1.2528000e+004    +2.0680002e-004
+1.2544000e+004    +1.6661899e-005
+1.2560000e+004    +3.2196465e-005
+1.2576000e+004    +3.1184543e-005
+1.2592000e+004    +4.5244892e-006
+1.2608000e+004    +4.7990703e-005
+1.2624000e+004    +6.5358043e-005
+1.2640000e+004    +1.2410556e-004
+1.2656000e+004    +7.6599652e-005
+1.2672000e+004    +2.3044394e-004
+1.2688000e+004    +2.4799342e-004
+1.2704000e+004    +1.9613101e-006
+1.2720000e+004    +3.2252261e-005
+1.2736000e+004    +6.1533632e-005
+1.2752000e+004    +6.7386180e-005
+1.2768000e+004    +4.7015052e-005
+1.2784000e+004    +1.0603344e-004
