# SR785 Measurement - Timestamp: Jan 26 2019 - 04:17:04
#---------- Measurement Setup ------------
# Start Frequency (Hz): 0.000000
# Frequency Span (Hz): 12800.000000
# Frequency Resolution: 800
# Number of Averages: 2
# Averaging Mode: None
# Window function: BMH
#---------- Measurement Parameters ----------
# Measurement Group:  "FFT" "FFT"
# Measurements:  "FFT 1" "FFT 2"
# View:  "Log Magnitude" "Log Magnitude"
# Unit:  "Vrms/rtHz" "Vpk"
#---------- Input Parameters ----------
# Input Source: Analog
# Input Mode: Single ended, Single ended
# Input Grounding: Float, Float
# Input Coupling: AC, AC
# Input Range: 6.0dBVpk, 6.0dBVpk
# Auto Range: Off, Off
# Auto Range Mode: Up Only, Normal
# Anti-Aliasing Filter: On, On
#---------- Source Parameters ----------
# Source Type: Sine
# Source Amplitude: 500.0mVpk
# Source On: 0

#---------- Measurement Data ----------
# [Freq(Hz) Display 0(Vrms/rtHz) Display 1(Vpk) ]
+0.0000000e+000    +1.5877202e-004
+1.6000000e+001    +1.1819547e-004
+3.2000000e+001    +5.5045002e-005
+4.8000000e+001    +4.3636428e-005
+6.4000000e+001    +5.0366831e-005
+8.0000000e+001    +2.2267210e-005
+9.6000000e+001    +5.0256349e-006
+1.1200000e+002    +1.7855280e-005
+1.2800000e+002    +1.4045779e-005
+1.4400000e+002    +7.9980155e-006
+1.6000000e+002    +5.0930154e-005
+1.7600000e+002    +8.3084204e-005
+1.9200000e+002    +6.5915112e-005
+2.0800000e+002    +5.2402127e-005
+2.2400000e+002    +2.1234760e-005
+2.4000000e+002    +2.7162694e-005
+2.5600000e+002    +3.2633328e-005
+2.7200000e+002    +3.6688856e-005
+2.8800000e+002    +2.9070969e-005
+3.0400000e+002    +3.1125433e-005
+3.2000000e+002    +2.8167979e-005
+3.3600000e+002    +3.0186358e-005
+3.5200000e+002    +9.1238553e-006
+3.6800000e+002    +3.0031777e-005
+3.8400000e+002    +3.8815611e-005
+4.0000000e+002    +4.6623089e-005
+4.1600000e+002    +3.4599561e-005
+4.3200000e+002    +2.2861495e-005
+4.4800000e+002    +1.6209184e-005
+4.6400000e+002    +3.2313652e-005
+4.8000000e+002    +4.2122218e-005
+4.9600000e+002    +4.1624040e-005
+5.1200000e+002    +4.3203036e-005
+5.2800000e+002    +1.8623570e-005
+5.4400000e+002    +2.0621561e-005
+5.6000000e+002    +4.4725344e-005
+5.7600000e+002    +2.8076705e-005
+5.9200000e+002    +2.6824295e-005
+6.0800000e+002    +4.5300218e-005
+6.2400000e+002    +1.8577761e-005
+6.4000000e+002    +1.6682181e-005
+6.5600000e+002    +2.3524946e-005
+6.7200000e+002    +2.1470772e-005
+6.8800000e+002    +2.5211957e-005
+7.0400000e+002    +6.7301153e-005
+7.2000000e+002    +5.2392003e-005
+7.3600000e+002    +4.0979437e-005
+7.5200000e+002    +4.2775733e-005
+7.6800000e+002    +4.5564095e-005
+7.8400000e+002    +3.7557613e-005
+8.0000000e+002    +1.4169882e-005
+8.1600000e+002    +1.7569680e-005
+8.3200000e+002    +4.3759395e-005
+8.4800000e+002    +1.3399881e-005
+8.6400000e+002    +2.2158898e-005
+8.8000000e+002    +1.6483000e-005
+8.9600000e+002    +2.7182921e-005
+9.1200000e+002    +3.5514131e-005
+9.2800000e+002    +2.0499117e-005
+9.4400000e+002    +5.0951519e-005
+9.6000000e+002    +5.1195508e-005
+9.7600000e+002    +2.8527775e-005
+9.9200000e+002    +3.6564114e-005
+1.0080000e+003    +3.9016988e-005
+1.0240000e+003    +3.3899130e-005
+1.0400000e+003    +1.7362456e-005
+1.0560000e+003    +4.1777286e-005
+1.0720000e+003    +3.6569694e-005
+1.0880000e+003    +2.1760501e-005
+1.1040000e+003    +1.8587044e-006
+1.1200000e+003    +1.1336840e-005
+1.1360000e+003    +1.3509924e-005
+1.1520000e+003    +1.8359515e-005
+1.1680000e+003    +5.4476645e-006
+1.1840000e+003    +1.4994366e-005
+1.2000000e+003    +1.1926625e-005
+1.2160000e+003    +8.6671862e-006
+1.2320000e+003    +7.9760130e-006
+1.2480000e+003    +2.7815528e-005
+1.2640000e+003    +2.9375879e-005
+1.2800000e+003    +2.6883647e-005
+1.2960000e+003    +3.1502215e-005
+1.3120000e+003    +1.8543402e-005
+1.3280000e+003    +1.7570606e-005
+1.3440000e+003    +3.7629143e-005
+1.3600000e+003    +2.7983791e-005
+1.3760000e+003    +3.6680682e-005
+1.3920000e+003    +5.0888342e-005
+1.4080000e+003    +5.3321924e-005
+1.4240000e+003    +3.0631978e-005
+1.4400000e+003    +4.4283228e-005
+1.4560000e+003    +4.0917035e-005
+1.4720000e+003    +3.2597589e-005
+1.4880000e+003    +2.3308003e-005
+1.5040000e+003    +1.8501591e-005
+1.5200000e+003    +1.6283460e-005
+1.5360000e+003    +1.8240966e-005
+1.5520000e+003    +1.7932631e-005
+1.5680000e+003    +1.0780077e-005
+1.5840000e+003    +1.9170178e-005
+1.6000000e+003    +1.0221976e-005
+1.6160000e+003    +2.4696225e-005
+1.6320000e+003    +4.0438346e-005
+1.6480000e+003    +4.1886735e-005
+1.6640000e+003    +2.0434331e-005
+1.6800000e+003    +1.5345389e-005
+1.6960000e+003    +1.1138870e-005
+1.7120000e+003    +2.7240854e-005
+1.7280000e+003    +6.9183428e-005
+1.7440000e+003    +4.2533371e-005
+1.7600000e+003    +2.9342484e-005
+1.7760000e+003    +2.0831056e-005
+1.7920000e+003    +3.7908267e-005
+1.8080000e+003    +2.7257907e-005
+1.8240000e+003    +2.3042736e-005
+1.8400000e+003    +2.9691519e-005
+1.8560000e+003    +2.1004224e-005
+1.8720000e+003    +2.3084393e-005
+1.8880000e+003    +3.3164306e-005
+1.9040000e+003    +4.8095990e-005
+1.9200000e+003    +2.5248552e-005
+1.9360000e+003    +1.2287222e-005
+1.9520000e+003    +1.5622305e-005
+1.9680000e+003    +2.3373712e-005
+1.9840000e+003    +4.7766131e-005
+2.0000000e+003    +7.8729881e-006
+2.0160000e+003    +1.4257369e-005
+2.0320000e+003    +4.0000778e-006
+2.0480000e+003    +2.3988414e-005
+2.0640000e+003    +2.5604153e-005
+2.0800000e+003    +2.7592232e-005
+2.0960000e+003    +1.5964244e-005
+2.1120000e+003    +1.5325875e-005
+2.1280000e+003    +9.5293135e-006
+2.1440000e+003    +7.9699548e-006
+2.1600000e+003    +2.4308940e-005
+2.1760000e+003    +2.6110305e-005
+2.1920000e+003    +2.3190378e-005
+2.2080000e+003    +2.0618436e-005
+2.2240000e+003    +3.2562104e-005
+2.2400000e+003    +4.0808281e-005
+2.2560000e+003    +5.5861889e-005
+2.2720000e+003    +6.4712112e-005
+2.2880000e+003    +6.3387190e-005
+2.3040000e+003    +6.4800130e-005
+2.3200000e+003    +3.9032373e-005
+2.3360000e+003    +5.6961308e-005
+2.3520000e+003    +8.2696046e-005
+2.3680000e+003    +9.1124020e-005
+2.3840000e+003    +1.0400840e-005
+2.4000000e+003    +5.9377389e-006
+2.4160000e+003    +6.7014093e-006
+2.4320000e+003    +1.6168320e-005
+2.4480000e+003    +2.1271955e-005
+2.4640000e+003    +4.1786690e-005
+2.4800000e+003    +6.7610956e-005
+2.4960000e+003    +7.6279219e-005
+2.5120000e+003    +6.4144289e-005
+2.5280000e+003    +2.7550639e-005
+2.5440000e+003    +3.5652240e-005
+2.5600000e+003    +2.4755109e-005
+2.5760000e+003    +1.2690324e-005
+2.5920000e+003    +1.3071082e-005
+2.6080000e+003    +8.2084443e-006
+2.6240000e+003    +1.2152625e-005
+2.6400000e+003    +1.0424035e-005
+2.6560000e+003    +2.3552186e-005
+2.6720000e+003    +2.9555984e-005
+2.6880000e+003    +3.5975230e-005
+2.7040000e+003    +5.5445151e-005
+2.7200000e+003    +1.8094295e-005
+2.7360000e+003    +3.3368040e-005
+2.7520000e+003    +3.2982738e-005
+2.7680000e+003    +3.9623501e-005
+2.7840000e+003    +3.1183587e-005
+2.8000000e+003    +2.6014501e-005
+2.8160000e+003    +1.3788842e-005
+2.8320000e+003    +2.1583161e-005
+2.8480000e+003    +3.4465684e-005
+2.8640000e+003    +1.6444461e-005
+2.8800000e+003    +1.4438579e-005
+2.8960000e+003    +2.2744749e-005
+2.9120000e+003    +3.2598200e-005
+2.9280000e+003    +2.5667568e-005
+2.9440000e+003    +1.3740902e-005
+2.9600000e+003    +1.2167096e-006
+2.9760000e+003    +1.6001834e-005
+2.9920000e+003    +2.9238961e-005
+3.0080000e+003    +4.6908990e-006
+3.0240000e+003    +1.3624071e-005
+3.0400000e+003    +8.6111750e-006
+3.0560000e+003    +1.2121468e-005
+3.0720000e+003    +4.8006619e-005
+3.0880000e+003    +4.4122877e-005
+3.1040000e+003    +3.1593623e-005
+3.1200000e+003    +2.4710818e-005
+3.1360000e+003    +9.4969755e-006
+3.1520000e+003    +5.4180778e-006
+3.1680000e+003    +5.4933184e-006
+3.1840000e+003    +1.9149100e-005
+3.2000000e+003    +1.9151475e-005
+3.2160000e+003    +8.0633963e-006
+3.2320000e+003    +2.2187138e-005
+3.2480000e+003    +3.7360154e-005
+3.2640000e+003    +4.5795256e-005
+3.2800000e+003    +5.2170082e-005
+3.2960000e+003    +4.5252495e-005
+3.3120000e+003    +2.5480031e-005
+3.3280000e+003    +5.8768296e-006
+3.3440000e+003    +2.4937010e-005
+3.3600000e+003    +2.0889322e-005
+3.3760000e+003    +1.9064724e-005
+3.3920000e+003    +4.6123860e-005
+3.4080000e+003    +6.3853309e-005
+3.4240000e+003    +6.5817410e-005
+3.4400000e+003    +4.3123608e-005
+3.4560000e+003    +1.7865379e-005
+3.4720000e+003    +7.4079580e-006
+3.4880000e+003    +1.8986806e-005
+3.5040000e+003    +1.3731597e-005
+3.5200000e+003    +2.2334077e-006
+3.5360000e+003    +1.6068367e-005
+3.5520000e+003    +2.4156963e-005
+3.5680000e+003    +2.1938577e-005
+3.5840000e+003    +1.8141838e-005
+3.6000000e+003    +1.5685366e-005
+3.6160000e+003    +1.5953627e-005
+3.6320000e+003    +1.0753738e-005
+3.6480000e+003    +3.9410425e-006
+3.6640000e+003    +8.7680410e-006
+3.6800000e+003    +1.8050501e-005
+3.6960000e+003    +2.1996899e-005
+3.7120000e+003    +1.0458014e-005
+3.7280000e+003    +9.2874498e-006
+3.7440000e+003    +1.4196277e-005
+3.7600000e+003    +2.5218464e-005
+3.7760000e+003    +2.3657565e-005
+3.7920000e+003    +3.2168551e-005
+3.8080000e+003    +2.1040392e-005
+3.8240000e+003    +8.5238989e-006
+3.8400000e+003    +1.8908500e-005
+3.8560000e+003    +2.9055045e-006
+3.8720000e+003    +2.0593368e-005
+3.8880000e+003    +1.9978170e-005
+3.9040000e+003    +4.6553727e-005
+3.9200000e+003    +6.0346891e-005
+3.9360000e+003    +4.8968803e-005
+3.9520000e+003    +2.5807165e-005
+3.9680000e+003    +9.9061290e-006
+3.9840000e+003    +1.2546667e-006
+4.0000000e+003    +1.9564774e-005
+4.0160000e+003    +1.7472281e-005
+4.0320000e+003    +3.7323132e-006
+4.0480000e+003    +2.7739465e-005
+4.0640000e+003    +3.2668569e-005
+4.0800000e+003    +3.1922787e-005
+4.0960000e+003    +2.8468075e-005
+4.1120000e+003    +3.7683760e-005
+4.1280000e+003    +1.6615442e-005
+4.1440000e+003    +1.7482453e-006
+4.1600000e+003    +6.1225314e-006
+4.1760000e+003    +7.8303592e-006
+4.1920000e+003    +3.8899489e-005
+4.2080000e+003    +3.3496661e-005
+4.2240000e+003    +2.2657985e-005
+4.2400000e+003    +2.8829205e-005
+4.2560000e+003    +3.2082840e-005
+4.2720000e+003    +2.0798101e-005
+4.2880000e+003    +1.3731416e-005
+4.3040000e+003    +1.1692653e-005
+4.3200000e+003    +2.2404936e-006
+4.3360000e+003    +1.3089221e-005
+4.3520000e+003    +2.0543504e-005
+4.3680000e+003    +3.5931571e-005
+4.3840000e+003    +3.9739567e-005
+4.4000000e+003    +1.7054526e-005
+4.4160000e+003    +2.6238335e-005
+4.4320000e+003    +1.0904572e-005
+4.4480000e+003    +2.1633361e-005
+4.4640000e+003    +3.5689838e-005
+4.4800000e+003    +1.1067882e-005
+4.4960000e+003    +1.0114598e-005
+4.5120000e+003    +4.9355658e-006
+4.5280000e+003    +1.5957532e-005
+4.5440000e+003    +1.7063254e-005
+4.5600000e+003    +1.4216929e-005
+4.5760000e+003    +1.5830612e-005
+4.5920000e+003    +2.4491435e-005
+4.6080000e+003    +2.9873592e-005
+4.6240000e+003    +3.1882996e-006
+4.6400000e+003    +1.2244584e-005
+4.6560000e+003    +1.9995749e-005
+4.6720000e+003    +2.0797233e-005
+4.6880000e+003    +2.7385369e-005
+4.7040000e+003    +2.2871336e-005
+4.7200000e+003    +3.3284796e-006
+4.7360000e+003    +1.9397978e-005
+4.7520000e+003    +7.9836263e-006
+4.7680000e+003    +9.4136949e-006
+4.7840000e+003    +1.3899012e-005
+4.8000000e+003    +2.2333956e-005
+4.8160000e+003    +2.8123046e-005
+4.8320000e+003    +2.1231519e-005
+4.8480000e+003    +2.7251923e-005
+4.8640000e+003    +4.9057919e-005
+4.8800000e+003    +3.9183000e-005
+4.8960000e+003    +3.5361143e-005
+4.9120000e+003    +2.7757196e-005
+4.9280000e+003    +2.9534931e-005
+4.9440000e+003    +2.4087334e-005
+4.9600000e+003    +1.7557260e-005
+4.9760000e+003    +2.3123914e-005
+4.9920000e+003    +1.3665345e-005
+5.0080000e+003    +1.2134425e-005
+5.0240000e+003    +1.9027188e-005
+5.0400000e+003    +2.2838489e-005
+5.0560000e+003    +4.5340970e-005
+5.0720000e+003    +5.1060499e-005
+5.0880000e+003    +2.7017752e-005
+5.1040000e+003    +2.8744720e-005
+5.1200000e+003    +2.0575762e-005
+5.1360000e+003    +1.4562267e-005
+5.1520000e+003    +1.6928821e-005
+5.1680000e+003    +3.7529747e-004
+5.1840000e+003    +1.5367217e-004
+5.2000000e+003    +3.6275484e-005
+5.2160000e+003    +4.9708719e-006
+5.2320000e+003    +8.7975877e-006
+5.2480000e+003    +1.8933659e-005
+5.2640000e+003    +1.7968205e-005
+5.2800000e+003    +2.4541934e-005
+5.2960000e+003    +7.2394083e-005
+5.3120000e+003    +5.1558109e-005
+5.3280000e+003    +6.3756146e-005
+5.3440000e+003    +9.0830545e-005
+5.3600000e+003    +3.2773944e-005
+5.3760000e+003    +1.6056127e-005
+5.3920000e+003    +2.2694559e-005
+5.4080000e+003    +3.2002696e-005
+5.4240000e+003    +1.5473721e-005
+5.4400000e+003    +1.2678945e-005
+5.4560000e+003    +1.5257106e-005
+5.4720000e+003    +1.4115905e-005
+5.4880000e+003    +1.6473048e-005
+5.5040000e+003    +1.3626331e-005
+5.5200000e+003    +1.7877408e-005
+5.5360000e+003    +3.7389207e-005
+5.5520000e+003    +4.0308732e-005
+5.5680000e+003    +2.8592623e-005
+5.5840000e+003    +2.1881204e-005
+5.6000000e+003    +1.7534914e-005
+5.6160000e+003    +1.7879920e-005
+5.6320000e+003    +3.7749811e-005
+5.6480000e+003    +2.8086017e-005
+5.6640000e+003    +1.8720581e-005
+5.6800000e+003    +1.2838937e-005
+5.6960000e+003    +9.2353248e-006
+5.7120000e+003    +3.2339172e-005
+5.7280000e+003    +3.3597731e-005
+5.7440000e+003    +2.8911367e-005
+5.7600000e+003    +1.0361084e-005
+5.7760000e+003    +2.2664080e-005
+5.7920000e+003    +1.4971122e-005
+5.8080000e+003    +6.9418998e-006
+5.8240000e+003    +2.0587717e-005
+5.8400000e+003    +4.4994667e-005
+5.8560000e+003    +5.1968160e-005
+5.8720000e+003    +2.3200080e-005
+5.8880000e+003    +3.1672432e-006
+5.9040000e+003    +1.4567033e-005
+5.9200000e+003    +9.2043592e-006
+5.9360000e+003    +1.8677569e-005
+5.9520000e+003    +1.4460838e-005
+5.9680000e+003    +1.1912857e-005
+5.9840000e+003    +1.1924190e-005
+6.0000000e+003    +2.3725717e-005
+6.0160000e+003    +2.5249134e-005
+6.0320000e+003    +1.5865848e-005
+6.0480000e+003    +1.2938449e-005
+6.0640000e+003    +8.7969020e-006
+6.0800000e+003    +6.3748162e-006
+6.0960000e+003    +1.3682145e-005
+6.1120000e+003    +1.8766083e-005
+6.1280000e+003    +1.4735423e-005
+6.1440000e+003    +2.0310657e-005
+6.1600000e+003    +1.9149395e-005
+6.1760000e+003    +1.3637660e-005
+6.1920000e+003    +1.6207332e-005
+6.2080000e+003    +2.6649363e-005
+6.2240000e+003    +1.9946039e-005
+6.2400000e+003    +8.5223182e-006
+6.2560000e+003    +1.1861552e-005
+6.2720000e+003    +1.0094229e-005
+6.2880000e+003    +8.0939444e-006
+6.3040000e+003    +1.6952723e-005
+6.3200000e+003    +2.7235830e-005
+6.3360000e+003    +2.4816803e-005
+6.3520000e+003    +1.8877759e-005
+6.3680000e+003    +5.8092251e-006
+6.3840000e+003    +9.5101650e-006
+6.4000000e+003    +1.0981323e-005
+6.4160000e+003    +2.7779879e-006
+6.4320000e+003    +1.4013122e-005
+6.4480000e+003    +1.6170592e-005
+6.4640000e+003    +1.6463320e-005
+6.4800000e+003    +1.4415388e-005
+6.4960000e+003    +7.1524528e-006
+6.5120000e+003    +6.9764137e-006
+6.5280000e+003    +1.4128683e-005
+6.5440000e+003    +2.3727227e-005
+6.5600000e+003    +1.5650221e-005
+6.5760000e+003    +1.5325908e-005
+6.5920000e+003    +2.4837438e-005
+6.6080000e+003    +2.7982871e-005
+6.6240000e+003    +2.1681324e-005
+6.6400000e+003    +1.0294860e-005
+6.6560000e+003    +1.7123556e-006
+6.6720000e+003    +4.3400913e-005
+6.6880000e+003    +2.7291897e-005
+6.7040000e+003    +1.9945666e-005
+6.7200000e+003    +1.3146082e-005
+6.7360000e+003    +1.5818519e-005
+6.7520000e+003    +1.0464550e-005
+6.7680000e+003    +1.3130042e-005
+6.7840000e+003    +2.8791530e-005
+6.8000000e+003    +3.3659209e-005
+6.8160000e+003    +2.3415143e-005
+6.8320000e+003    +1.2674088e-005
+6.8480000e+003    +1.3502791e-005
+6.8640000e+003    +1.1062002e-005
+6.8800000e+003    +1.7398961e-005
+6.8960000e+003    +2.3031102e-005
+6.9120000e+003    +1.8195400e-005
+6.9280000e+003    +1.6032134e-005
+6.9440000e+003    +6.7582905e-006
+6.9600000e+003    +3.5026203e-006
+6.9760000e+003    +1.3919996e-005
+6.9920000e+003    +1.6154994e-005
+7.0080000e+003    +1.3913837e-005
+7.0240000e+003    +1.7554814e-005
+7.0400000e+003    +2.6068656e-005
+7.0560000e+003    +5.2822547e-006
+7.0720000e+003    +1.0510852e-005
+7.0880000e+003    +2.5678337e-005
+7.1040000e+003    +2.0218567e-005
+7.1200000e+003    +9.4715670e-006
+7.1360000e+003    +6.4207848e-006
+7.1520000e+003    +2.6333400e-005
+7.1680000e+003    +2.8279661e-005
+7.1840000e+003    +1.5086960e-005
+7.2000000e+003    +7.7061932e-006
+7.2160000e+003    +8.6436276e-006
+7.2320000e+003    +4.3883147e-006
+7.2480000e+003    +2.0657410e-005
+7.2640000e+003    +1.2788515e-005
+7.2800000e+003    +3.7566149e-006
+7.2960000e+003    +9.7949041e-006
+7.3120000e+003    +1.9309769e-005
+7.3280000e+003    +1.3406474e-005
+7.3440000e+003    +2.2187211e-005
+7.3600000e+003    +1.9714358e-005
+7.3760000e+003    +2.3084798e-005
+7.3920000e+003    +9.3721237e-006
+7.4080000e+003    +9.3665167e-006
+7.4240000e+003    +6.2909407e-006
+7.4400000e+003    +1.2340653e-005
+7.4560000e+003    +1.4429736e-005
+7.4720000e+003    +1.4128233e-005
+7.4880000e+003    +9.2517566e-006
+7.5040000e+003    +2.5313143e-006
+7.5200000e+003    +3.1484303e-006
+7.5360000e+003    +2.4918754e-006
+7.5520000e+003    +4.4977578e-006
+7.5680000e+003    +4.6493656e-006
+7.5840000e+003    +2.7878052e-006
+7.6000000e+003    +6.3395123e-006
+7.6160000e+003    +1.0048383e-005
+7.6320000e+003    +9.6192762e-006
+7.6480000e+003    +5.0229542e-006
+7.6640000e+003    +3.2786106e-006
+7.6800000e+003    +3.1411655e-006
+7.6960000e+003    +3.1683701e-006
+7.7120000e+003    +3.9285437e-006
+7.7280000e+003    +3.0503805e-005
+7.7440000e+003    +2.8602797e-005
+7.7600000e+003    +2.0437943e-005
+7.7760000e+003    +4.1723742e-006
+7.7920000e+003    +6.9870152e-006
+7.8080000e+003    +9.3039835e-006
+7.8240000e+003    +1.1951164e-005
+7.8400000e+003    +1.0668535e-005
+7.8560000e+003    +7.6828337e-006
+7.8720000e+003    +7.1042409e-006
+7.8880000e+003    +5.9584936e-006
+7.9040000e+003    +6.7349347e-006
+7.9200000e+003    +8.9276664e-006
+7.9360000e+003    +4.8455895e-006
+7.9520000e+003    +6.3249813e-006
+7.9680000e+003    +6.0208636e-006
+7.9840000e+003    +9.9709023e-006
+8.0000000e+003    +1.1039288e-005
+8.0160000e+003    +1.0849052e-005
+8.0320000e+003    +5.1796414e-006
+8.0480000e+003    +7.2924595e-006
+8.0640000e+003    +8.9409095e-006
+8.0800000e+003    +4.8088177e-006
+8.0960000e+003    +6.6350121e-006
+8.1120000e+003    +1.1688777e-005
+8.1280000e+003    +1.1166398e-005
+8.1440000e+003    +8.3095792e-006
+8.1600000e+003    +8.0389273e-006
+8.1760000e+003    +5.7387801e-006
+8.1920000e+003    +7.4069171e-006
+8.2080000e+003    +7.3867759e-006
+8.2240000e+003    +7.0668289e-006
+8.2400000e+003    +7.3015208e-006
+8.2560000e+003    +3.4314799e-006
+8.2720000e+003    +5.3627350e-006
+8.2880000e+003    +8.9711366e-006
+8.3040000e+003    +5.4062880e-006
+8.3200000e+003    +1.8119881e-006
+8.3360000e+003    +1.8023727e-006
+8.3520000e+003    +2.9745815e-006
+8.3680000e+003    +6.9922185e-006
+8.3840000e+003    +5.1917405e-006
+8.4000000e+003    +2.0276257e-006
+8.4160000e+003    +4.1578728e-006
+8.4320000e+003    +7.5818725e-006
+8.4480000e+003    +5.1930288e-006
+8.4640000e+003    +4.9595164e-006
+8.4800000e+003    +7.7201157e-006
+8.4960000e+003    +5.8667079e-006
+8.5120000e+003    +3.9687329e-006
+8.5280000e+003    +5.3111053e-006
+8.5440000e+003    +5.8932419e-006
+8.5600000e+003    +2.3249193e-005
+8.5760000e+003    +3.1560550e-005
+8.5920000e+003    +3.6580175e-005
+8.6080000e+003    +3.4126071e-005
+8.6240000e+003    +1.1174713e-005
+8.6400000e+003    +1.5588124e-005
+8.6560000e+003    +1.8808121e-005
+8.6720000e+003    +1.9276935e-005
+8.6880000e+003    +2.1835052e-005
+8.7040000e+003    +2.4796729e-005
+8.7200000e+003    +1.0321888e-005
+8.7360000e+003    +7.9723704e-006
+8.7520000e+003    +2.2963104e-005
+8.7680000e+003    +2.2482978e-005
+8.7840000e+003    +2.0923755e-005
+8.8000000e+003    +1.7662404e-006
+8.8160000e+003    +1.1958410e-005
+8.8320000e+003    +2.3830720e-005
+8.8480000e+003    +2.8845194e-005
+8.8640000e+003    +2.5781223e-005
+8.8800000e+003    +1.0639373e-003
+8.8960000e+003    +3.7234968e-003
+8.9120000e+003    +5.0100712e-003
+8.9280000e+003    +3.9843963e-003
+8.9440000e+003    +1.9645581e-003
+8.9600000e+003    +5.0562392e-003
+8.9760000e+003    +1.3341402e-003
+8.9920000e+003    +4.5589642e-003
+9.0080000e+003    +6.0391799e-003
+9.0240000e+003    +3.2243675e-003
+9.0400000e+003    +2.1945769e-003
+9.0560000e+003    +6.5588439e-004
+9.0720000e+003    +2.0983962e-005
+9.0880000e+003    +2.0431729e-005
+9.1040000e+003    +1.4639681e-005
+9.1200000e+003    +1.3078116e-005
+9.1360000e+003    +1.4066196e-005
+9.1520000e+003    +2.4450810e-005
+9.1680000e+003    +7.0731630e-006
+9.1840000e+003    +8.3783898e-006
+9.2000000e+003    +8.5529991e-006
+9.2160000e+003    +2.7122433e-005
+9.2320000e+003    +1.9996802e-005
+9.2480000e+003    +8.2663910e-006
+9.2640000e+003    +5.2871055e-006
+9.2800000e+003    +3.8099458e-006
+9.2960000e+003    +1.1758943e-005
+9.3120000e+003    +1.8332763e-005
+9.3280000e+003    +2.3471874e-005
+9.3440000e+003    +1.9791980e-005
+9.3600000e+003    +1.3704035e-005
+9.3760000e+003    +5.1837715e-006
+9.3920000e+003    +1.2460740e-005
+9.4080000e+003    +2.2124936e-005
+9.4240000e+003    +1.8469034e-005
+9.4400000e+003    +1.2948624e-005
+9.4560000e+003    +1.7460708e-003
+9.4720000e+003    +1.3979913e-003
+9.4880000e+003    +1.1596101e-003
+9.5040000e+003    +4.3662763e-004
+9.5200000e+003    +4.5218744e-004
+9.5360000e+003    +1.2652891e-003
+9.5520000e+003    +3.2076729e-003
+9.5680000e+003    +2.3788018e-003
+9.5840000e+003    +1.0997063e-003
+9.6000000e+003    +4.4068624e-003
+9.6160000e+003    +6.3958103e-003
+9.6320000e+003    +4.1570263e-003
+9.6480000e+003    +6.3803764e-003
+9.6640000e+003    +8.0753034e-003
+9.6800000e+003    +8.2132723e-003
+9.6960000e+003    +7.1870307e-003
+9.7120000e+003    +6.6169701e-003
+9.7280000e+003    +5.3665106e-005
+9.7440000e+003    +5.0733419e-005
+9.7600000e+003    +4.4958422e-005
+9.7760000e+003    +3.5768142e-005
+9.7920000e+003    +1.9269191e-005
+9.8080000e+003    +1.3222587e-005
+9.8240000e+003    +2.9159486e-005
+9.8400000e+003    +1.4178037e-005
+9.8560000e+003    +1.6552132e-005
+9.8720000e+003    +1.6819751e-005
+9.8880000e+003    +1.4304440e-005
+9.9040000e+003    +1.1976543e-005
+9.9200000e+003    +2.1657414e-005
+9.9360000e+003    +2.4162693e-005
+9.9520000e+003    +2.1981181e-005
+9.9680000e+003    +1.8598170e-005
+9.9840000e+003    +2.5135312e-005
+1.0000000e+004    +1.2995283e-005
+1.0016000e+004    +7.1415921e-006
+1.0032000e+004    +1.4496240e-005
+1.0048000e+004    +2.4716299e-005
+1.0064000e+004    +1.6456870e-005
+1.0080000e+004    +1.2837345e-005
+1.0096000e+004    +1.2979597e-005
+1.0112000e+004    +3.4649058e-006
+1.0128000e+004    +2.6736171e-003
+1.0144000e+004    +2.6013844e-003
+1.0160000e+004    +1.6232720e-003
+1.0176000e+004    +6.6126557e-004
+1.0192000e+004    +6.7933009e-004
+1.0208000e+004    +3.6577724e-003
+1.0224000e+004    +5.6025828e-003
+1.0240000e+004    +5.0657499e-003
+1.0256000e+004    +3.5583959e-003
+1.0272000e+004    +1.2022484e-005
+1.0288000e+004    +1.5603260e-005
+1.0304000e+004    +2.1723095e-005
+1.0320000e+004    +1.8640405e-005
+1.0336000e+004    +1.9830437e-005
+1.0352000e+004    +2.1567572e-005
+1.0368000e+004    +1.8909872e-005
+1.0384000e+004    +2.3157707e-005
+1.0400000e+004    +1.2425711e-005
+1.0416000e+004    +7.0932433e-006
+1.0432000e+004    +2.0974634e-005
+1.0448000e+004    +2.3094533e-005
+1.0464000e+004    +2.1345677e-005
+1.0480000e+004    +1.7256654e-005
+1.0496000e+004    +2.4280453e-005
+1.0512000e+004    +2.2469159e-005
+1.0528000e+004    +1.0418189e-005
+1.0544000e+004    +3.3847991e-005
+1.0560000e+004    +3.5087713e-005
+1.0576000e+004    +2.1762222e-005
+1.0592000e+004    +9.9388335e-006
+1.0608000e+004    +1.2276110e-005
+1.0624000e+004    +1.4658548e-005
+1.0640000e+004    +6.5012141e-006
+1.0656000e+004    +1.2441848e-005
+1.0672000e+004    +2.6535028e-005
+1.0688000e+004    +2.0382793e-005
+1.0704000e+004    +1.9872350e-005
+1.0720000e+004    +2.2833927e-005
+1.0736000e+004    +1.3501071e-005
+1.0752000e+004    +1.6649665e-005
+1.0768000e+004    +2.3273149e-005
+1.0784000e+004    +2.6112999e-005
+1.0800000e+004    +1.9222934e-005
+1.0816000e+004    +4.5231879e-003
+1.0832000e+004    +1.0934065e-003
+1.0848000e+004    +6.8005919e-003
+1.0864000e+004    +9.7656474e-003
+1.0880000e+004    +1.4530676e-005
+1.0896000e+004    +7.2816424e-006
+1.0912000e+004    +9.5979549e-006
+1.0928000e+004    +1.3992828e-005
+1.0944000e+004    +1.0605783e-005
+1.0960000e+004    +2.5671993e-006
+1.0976000e+004    +1.1211163e-005
+1.0992000e+004    +1.1457029e-005
+1.1008000e+004    +1.1236129e-005
+1.1024000e+004    +9.7129769e-006
+1.1040000e+004    +1.3408123e-005
+1.1056000e+004    +8.9383084e-006
+1.1072000e+004    +1.4135028e-005
+1.1088000e+004    +1.9507310e-005
+1.1104000e+004    +1.9203400e-005
+1.1120000e+004    +1.0765848e-005
+1.1136000e+004    +2.1627948e-005
+1.1152000e+004    +1.0634129e-005
+1.1168000e+004    +3.8217227e-006
+1.1184000e+004    +1.7207991e-005
+1.1200000e+004    +2.2931761e-005
+1.1216000e+004    +2.6514583e-005
+1.1232000e+004    +1.7874405e-005
+1.1248000e+004    +2.3928989e-005
+1.1264000e+004    +1.5874873e-005
+1.1280000e+004    +1.0381273e-005
+1.1296000e+004    +4.9159717e-006
+1.1312000e+004    +1.9068639e-006
+1.1328000e+004    +1.5162935e-005
+1.1344000e+004    +1.6773482e-005
+1.1360000e+004    +6.9181451e-006
+1.1376000e+004    +1.3061815e-005
+1.1392000e+004    +4.3140703e-006
+1.1408000e+004    +4.5268944e-006
+1.1424000e+004    +8.2516199e-006
+1.1440000e+004    +3.0007814e-003
+1.1456000e+004    +3.3021201e-003
+1.1472000e+004    +4.0620663e-003
+1.1488000e+004    +4.7787898e-003
+1.1504000e+004    +2.5665876e-003
+1.1520000e+004    +3.9025131e-003
+1.1536000e+004    +4.5893360e-003
+1.1552000e+004    +4.3815067e-003
+1.1568000e+004    +2.9674212e-003
+1.1584000e+004    +6.9381585e-006
+1.1600000e+004    +5.6486483e-006
+1.1616000e+004    +5.7933648e-006
+1.1632000e+004    +1.0321389e-005
+1.1648000e+004    +5.3334925e-006
+1.1664000e+004    +1.5409667e-005
+1.1680000e+004    +1.7867871e-005
+1.1696000e+004    +8.2359065e-006
+1.1712000e+004    +1.6435995e-005
+1.1728000e+004    +3.0604882e-005
+1.1744000e+004    +3.2337255e-005
+1.1760000e+004    +2.8421540e-005
+1.1776000e+004    +2.6450702e-005
+1.1792000e+004    +7.1086647e-006
+1.1808000e+004    +1.6889333e-005
+1.1824000e+004    +2.7826096e-005
+1.1840000e+004    +2.0088832e-005
+1.1856000e+004    +9.4020334e-006
+1.1872000e+004    +9.3318722e-006
+1.1888000e+004    +6.3967409e-006
+1.1904000e+004    +3.3149488e-006
+1.1920000e+004    +5.5852261e-006
+1.1936000e+004    +1.3861734e-005
+1.1952000e+004    +1.1435049e-005
+1.1968000e+004    +1.1779852e-005
+1.1984000e+004    +1.5595810e-005
+1.2000000e+004    +8.8801153e-006
+1.2016000e+004    +1.6486403e-006
+1.2032000e+004    +1.4228376e-005
+1.2048000e+004    +1.1167985e-003
+1.2064000e+004    +1.6452470e-003
+1.2080000e+004    +1.4800273e-003
+1.2096000e+004    +1.3865593e-003
+1.2112000e+004    +2.8340677e-003
+1.2128000e+004    +3.7126094e-003
+1.2144000e+004    +2.3971340e-003
+1.2160000e+004    +2.0797839e-003
+1.2176000e+004    +7.6846010e-004
+1.2192000e+004    +1.0430316e-003
+1.2208000e+004    +5.2202342e-004
+1.2224000e+004    +1.2483109e-003
+1.2240000e+004    +9.2097671e-006
+1.2256000e+004    +1.1892079e-005
+1.2272000e+004    +2.3225899e-005
+1.2288000e+004    +1.1863453e-005
+1.2304000e+004    +1.6329634e-005
+1.2320000e+004    +1.6596317e-005
+1.2336000e+004    +1.7430817e-005
+1.2352000e+004    +1.9300422e-005
+1.2368000e+004    +1.6741302e-005
+1.2384000e+004    +2.0348671e-005
+1.2400000e+004    +2.6636932e-005
+1.2416000e+004    +1.9626694e-005
+1.2432000e+004    +8.8950746e-006
+1.2448000e+004    +9.3551907e-006
+1.2464000e+004    +3.9326651e-006
+1.2480000e+004    +2.0124993e-005
+1.2496000e+004    +1.1305031e-005
+1.2512000e+004    +1.2119285e-005
+1.2528000e+004    +8.1191683e-006
+1.2544000e+004    +7.7328486e-006
+1.2560000e+004    +3.3425977e-006
+1.2576000e+004    +1.4478886e-005
+1.2592000e+004    +2.9842840e-005
+1.2608000e+004    +3.7462683e-005
+1.2624000e+004    +1.7373974e-005
+1.2640000e+004    +1.2175356e-005
+1.2656000e+004    +4.4064586e-006
+1.2672000e+004    +5.9340305e-006
+1.2688000e+004    +7.7066243e-006
+1.2704000e+004    +2.2403041e-005
+1.2720000e+004    +1.8983201e-005
+1.2736000e+004    +8.5128258e-006
+1.2752000e+004    +3.4050431e-006
+1.2768000e+004    +1.9352983e-006
+1.2784000e+004    +2.5893419e-006
