# SR785 Measurement - Timestamp: Jan 26 2019 - 10:14:38
#---------- Measurement Setup ------------
# Start Frequency (Hz): 0.000000
# Frequency Span (Hz): 12800.000000
# Frequency Resolution: 800
# Number of Averages: 2
# Averaging Mode: None
# Window function: BMH
#---------- Measurement Parameters ----------
# Measurement Group:  "FFT" "FFT"
# Measurements:  "FFT 1" "FFT 2"
# View:  "Log Magnitude" "Log Magnitude"
# Unit:  "Vrms/rtHz" "Vpk"
#---------- Input Parameters ----------
# Input Source: Analog
# Input Mode: Single ended, Single ended
# Input Grounding: Float, Float
# Input Coupling: AC, AC
# Input Range: 6.0dBVpk, 6.0dBVpk
# Auto Range: Off, Off
# Auto Range Mode: Up Only, Normal
# Anti-Aliasing Filter: On, On
#---------- Source Parameters ----------
# Source Type: Sine
# Source Amplitude: 500.0mVpk
# Source On: 0

#---------- Measurement Data ----------
# [Freq(Hz) Display 0(Vrms/rtHz) Display 1(Vpk) ]
+0.0000000e+000    +1.0472676e-003
+1.6000000e+001    +7.7726046e-004
+3.2000000e+001    +2.6655904e-004
+4.8000000e+001    +1.2661063e-003
+6.4000000e+001    +1.6900416e-003
+8.0000000e+001    +1.4461108e-003
+9.6000000e+001    +1.1357989e-003
+1.1200000e+002    +1.0984868e-003
+1.2800000e+002    +8.2230801e-004
+1.4400000e+002    +1.4600538e-003
+1.6000000e+002    +1.5073714e-003
+1.7600000e+002    +4.0630877e-004
+1.9200000e+002    +6.4278772e-004
+2.0800000e+002    +1.4453258e-003
+2.2400000e+002    +1.3971988e-003
+2.4000000e+002    +4.7925304e-004
+2.5600000e+002    +2.0560552e-003
+2.7200000e+002    +1.4587535e-003
+2.8800000e+002    +5.9257128e-004
+3.0400000e+002    +6.5491255e-004
+3.2000000e+002    +1.0057108e-003
+3.3600000e+002    +1.0883443e-003
+3.5200000e+002    +1.9904156e-003
+3.6800000e+002    +1.8238262e-003
+3.8400000e+002    +1.6364121e-003
+4.0000000e+002    +2.0242701e-003
+4.1600000e+002    +1.4375874e-003
+4.3200000e+002    +1.2510085e-003
+4.4800000e+002    +6.4308452e-004
+4.6400000e+002    +9.0133789e-004
+4.8000000e+002    +1.1845543e-003
+4.9600000e+002    +1.7141134e-003
+5.1200000e+002    +1.5990497e-003
+5.2800000e+002    +9.4958703e-004
+5.4400000e+002    +6.7785522e-004
+5.6000000e+002    +4.9836928e-004
+5.7600000e+002    +1.6578960e-003
+5.9200000e+002    +1.5727875e-003
+6.0800000e+002    +9.1913418e-004
+6.2400000e+002    +9.6420047e-004
+6.4000000e+002    +7.8225479e-004
+6.5600000e+002    +4.9876008e-004
+6.7200000e+002    +6.8980263e-004
+6.8800000e+002    +1.5716689e-003
+7.0400000e+002    +1.5009767e-003
+7.2000000e+002    +1.3253117e-003
+7.3600000e+002    +1.4749975e-003
+7.5200000e+002    +5.6754425e-004
+7.6800000e+002    +1.7690730e-003
+7.8400000e+002    +2.2363891e-003
+8.0000000e+002    +1.7763348e-003
+8.1600000e+002    +9.2667976e-004
+8.3200000e+002    +1.7110428e-003
+8.4800000e+002    +8.9118350e-004
+8.6400000e+002    +2.4870102e-004
+8.8000000e+002    +5.2811438e-004
+8.9600000e+002    +1.1961096e-003
+9.1200000e+002    +1.8778768e-003
+9.2800000e+002    +2.6785682e-003
+9.4400000e+002    +2.8157048e-003
+9.6000000e+002    +1.7318247e-003
+9.7600000e+002    +1.7670008e-003
+9.9200000e+002    +1.5402538e-003
+1.0080000e+003    +1.9369947e-003
+1.0240000e+003    +2.4038325e-003
+1.0400000e+003    +4.2151436e-004
+1.0560000e+003    +7.4846210e-004
+1.0720000e+003    +3.3552499e-004
+1.0880000e+003    +8.7723933e-004
+1.1040000e+003    +1.2363342e-003
+1.1200000e+003    +1.6454404e-003
+1.1360000e+003    +1.4432532e-003
+1.1520000e+003    +1.2435155e-003
+1.1680000e+003    +1.5572369e-003
+1.1840000e+003    +2.1882117e-004
+1.2000000e+003    +8.1526849e-004
+1.2160000e+003    +1.0965642e-003
+1.2320000e+003    +1.5068237e-003
+1.2480000e+003    +1.6222332e-003
+1.2640000e+003    +1.3091434e-003
+1.2800000e+003    +8.7783189e-004
+1.2960000e+003    +5.2842329e-004
+1.3120000e+003    +1.3086088e-003
+1.3280000e+003    +1.4394448e-003
+1.3440000e+003    +8.6068927e-004
+1.3600000e+003    +5.7073176e-004
+1.3760000e+003    +6.2465947e-004
+1.3920000e+003    +1.1453753e-003
+1.4080000e+003    +5.8992009e-004
+1.4240000e+003    +1.2890083e-003
+1.4400000e+003    +1.5147785e-003
+1.4560000e+003    +8.2596956e-004
+1.4720000e+003    +6.6300709e-004
+1.4880000e+003    +2.2066613e-003
+1.5040000e+003    +1.9263045e-003
+1.5200000e+003    +1.5863453e-003
+1.5360000e+003    +5.8244925e-004
+1.5520000e+003    +2.4473225e-003
+1.5680000e+003    +1.5017020e-003
+1.5840000e+003    +1.5255455e-004
+1.6000000e+003    +6.2887448e-005
+1.6160000e+003    +5.8815099e-004
+1.6320000e+003    +1.0897714e-003
+1.6480000e+003    +1.6686101e-003
+1.6640000e+003    +1.8421706e-003
+1.6800000e+003    +9.3649747e-004
+1.6960000e+003    +1.7374374e-003
+1.7120000e+003    +1.8278979e-003
+1.7280000e+003    +1.0997033e-003
+1.7440000e+003    +6.1800133e-004
+1.7600000e+003    +1.5162969e-003
+1.7760000e+003    +1.0582613e-003
+1.7920000e+003    +8.4990129e-004
+1.8080000e+003    +1.2812400e-003
+1.8240000e+003    +1.5521261e-003
+1.8400000e+003    +9.2686649e-004
+1.8560000e+003    +6.0624920e-004
+1.8720000e+003    +7.8262633e-004
+1.8880000e+003    +4.2951369e-004
+1.9040000e+003    +5.5301248e-004
+1.9200000e+003    +6.8866980e-004
+1.9360000e+003    +6.8171095e-004
+1.9520000e+003    +3.8463363e-004
+1.9680000e+003    +2.8362562e-004
+1.9840000e+003    +9.2018530e-004
+2.0000000e+003    +1.0379211e-003
+2.0160000e+003    +6.4552407e-004
+2.0320000e+003    +1.6348525e-003
+2.0480000e+003    +8.5052813e-004
+2.0640000e+003    +4.2538627e-004
+2.0800000e+003    +1.0464280e-003
+2.0960000e+003    +4.0806847e-004
+2.1120000e+003    +6.0789421e-004
+2.1280000e+003    +7.9478073e-004
+2.1440000e+003    +7.9491426e-004
+2.1600000e+003    +5.8178644e-004
+2.1760000e+003    +4.0915282e-004
+2.1920000e+003    +7.3224865e-004
+2.2080000e+003    +1.4794156e-003
+2.2240000e+003    +7.5310806e-004
+2.2400000e+003    +6.9781410e-004
+2.2560000e+003    +1.7673218e-003
+2.2720000e+003    +1.7901321e-003
+2.2880000e+003    +1.5799972e-003
+2.3040000e+003    +7.9254602e-004
+2.3200000e+003    +6.5499742e-004
+2.3360000e+003    +1.3056294e-004
+2.3520000e+003    +1.1859358e-004
+2.3680000e+003    +1.0093669e-003
+2.3840000e+003    +1.3190404e-003
+2.4000000e+003    +1.6710918e-003
+2.4160000e+003    +1.9462415e-003
+2.4320000e+003    +2.0232601e-003
+2.4480000e+003    +1.5074774e-003
+2.4640000e+003    +1.1401138e-003
+2.4800000e+003    +1.3053793e-003
+2.4960000e+003    +1.2124602e-003
+2.5120000e+003    +1.9330176e-003
+2.5280000e+003    +2.2845687e-003
+2.5440000e+003    +1.9121640e-003
+2.5600000e+003    +2.4514410e-003
+2.5760000e+003    +2.4024565e-003
+2.5920000e+003    +1.7760530e-003
+2.6080000e+003    +1.0681398e-003
+2.6240000e+003    +8.7645231e-004
+2.6400000e+003    +6.2440988e-004
+2.6560000e+003    +7.0954947e-004
+2.6720000e+003    +1.3940781e-003
+2.6880000e+003    +1.5093704e-003
+2.7040000e+003    +4.3772467e-004
+2.7200000e+003    +7.6743728e-004
+2.7360000e+003    +1.0364645e-003
+2.7520000e+003    +7.2813703e-004
+2.7680000e+003    +1.0873475e-003
+2.7840000e+003    +1.3530112e-003
+2.8000000e+003    +1.4778312e-003
+2.8160000e+003    +1.4825979e-003
+2.8320000e+003    +1.2759581e-004
+2.8480000e+003    +2.7246447e-004
+2.8640000e+003    +4.5603083e-004
+2.8800000e+003    +9.5640239e-004
+2.8960000e+003    +1.3615997e-003
+2.9120000e+003    +1.0263992e-003
+2.9280000e+003    +1.1694636e-003
+2.9440000e+003    +1.2255518e-003
+2.9600000e+003    +9.4984821e-004
+2.9760000e+003    +1.0255582e-003
+2.9920000e+003    +8.8502187e-004
+3.0080000e+003    +5.7834218e-004
+3.0240000e+003    +2.5105607e-004
+3.0400000e+003    +6.9672434e-004
+3.0560000e+003    +6.0242991e-004
+3.0720000e+003    +6.1684888e-004
+3.0880000e+003    +8.3498936e-004
+3.1040000e+003    +7.8620139e-004
+3.1200000e+003    +1.0267345e-003
+3.1360000e+003    +1.1613716e-003
+3.1520000e+003    +1.0035781e-003
+3.1680000e+003    +1.0697113e-003
+3.1840000e+003    +1.3530959e-003
+3.2000000e+003    +1.2934777e-003
+3.2160000e+003    +1.4177570e-003
+3.2320000e+003    +1.4117943e-003
+3.2480000e+003    +1.4307605e-003
+3.2640000e+003    +1.2223917e-003
+3.2800000e+003    +1.2120064e-003
+3.2960000e+003    +1.3306979e-003
+3.3120000e+003    +2.5611408e-003
+3.3280000e+003    +2.9895098e-003
+3.3440000e+003    +1.3048799e-003
+3.3600000e+003    +2.3804256e-003
+3.3760000e+003    +6.2322253e-003
+3.3920000e+003    +1.6769733e-002
+3.4080000e+003    +1.2290494e-002
+3.4240000e+003    +1.2178687e-002
+3.4400000e+003    +2.0840985e-003
+3.4560000e+003    +1.8077724e-002
+3.4720000e+003    +9.6597690e-003
+3.4880000e+003    +2.2941953e-002
+3.5040000e+003    +4.2131446e-002
+3.5200000e+003    +4.6028472e-002
+3.5360000e+003    +2.2277271e-003
+3.5520000e+003    +3.4230619e-003
+3.5680000e+003    +2.9130925e-003
+3.5840000e+003    +1.8489456e-003
+3.6000000e+003    +9.1022125e-004
+3.6160000e+003    +2.3649177e-003
+3.6320000e+003    +6.2375033e-004
+3.6480000e+003    +1.4761827e-003
+3.6640000e+003    +2.1339396e-003
+3.6800000e+003    +1.7689302e-003
+3.6960000e+003    +1.7338614e-003
+3.7120000e+003    +2.5997653e-003
+3.7280000e+003    +3.0183210e-003
+3.7440000e+003    +2.7784547e-003
+3.7600000e+003    +4.0301960e-004
+3.7760000e+003    +2.2019346e-003
+3.7920000e+003    +3.3800604e-003
+3.8080000e+003    +2.7648639e-003
+3.8240000e+003    +2.5200860e-003
+3.8400000e+003    +1.4424548e-003
+3.8560000e+003    +4.8972835e-004
+3.8720000e+003    +1.2566078e-003
+3.8880000e+003    +1.2137416e-003
+3.9040000e+003    +8.6084714e-005
+3.9200000e+003    +1.3839904e-003
+3.9360000e+003    +2.1159051e-003
+3.9520000e+003    +1.7139544e-003
+3.9680000e+003    +1.4383673e-003
+3.9840000e+003    +1.4441060e-003
+4.0000000e+003    +1.1345319e-003
+4.0160000e+003    +8.4331649e-004
+4.0320000e+003    +1.6884085e-003
+4.0480000e+003    +1.5187945e-003
+4.0640000e+003    +9.3982765e-004
+4.0800000e+003    +8.8725385e-004
+4.0960000e+003    +8.8637602e-004
+4.1120000e+003    +1.9709771e-003
+4.1280000e+003    +2.2400483e-003
+4.1440000e+003    +1.4874559e-003
+4.1600000e+003    +1.1205508e-003
+4.1760000e+003    +3.4272438e-004
+4.1920000e+003    +5.1458005e-004
+4.2080000e+003    +5.5147143e-004
+4.2240000e+003    +2.1310037e-004
+4.2400000e+003    +8.8849920e-004
+4.2560000e+003    +1.1597744e-003
+4.2720000e+003    +6.0960161e-004
+4.2880000e+003    +1.3752902e-003
+4.3040000e+003    +1.5167363e-003
+4.3200000e+003    +1.1256522e-003
+4.3360000e+003    +1.3261719e-003
+4.3520000e+003    +1.6867169e-003
+4.3680000e+003    +6.8300561e-004
+4.3840000e+003    +8.3064049e-004
+4.4000000e+003    +1.7276807e-003
+4.4160000e+003    +2.6734322e-003
+4.4320000e+003    +1.9640275e-003
+4.4480000e+003    +2.0539782e-003
+4.4640000e+003    +1.2430201e-003
+4.4800000e+003    +1.0777231e-003
+4.4960000e+003    +1.3517906e-003
+4.5120000e+003    +1.1308508e-003
+4.5280000e+003    +1.1056380e-003
+4.5440000e+003    +1.5303108e-003
+4.5600000e+003    +1.1462610e-003
+4.5760000e+003    +5.0490245e-004
+4.5920000e+003    +1.3946860e-004
+4.6080000e+003    +3.7497538e-004
+4.6240000e+003    +7.2297017e-004
+4.6400000e+003    +1.5035787e-003
+4.6560000e+003    +1.2869387e-003
+4.6720000e+003    +9.0146408e-004
+4.6880000e+003    +8.7397883e-004
+4.7040000e+003    +1.1156722e-003
+4.7200000e+003    +1.2430296e-003
+4.7360000e+003    +1.2578917e-003
+4.7520000e+003    +1.3892291e-003
+4.7680000e+003    +1.4845721e-003
+4.7840000e+003    +6.5087527e-004
+4.8000000e+003    +5.5578572e-004
+4.8160000e+003    +1.5060646e-003
+4.8320000e+003    +1.5727098e-003
+4.8480000e+003    +8.5600355e-004
+4.8640000e+003    +1.3352355e-003
+4.8800000e+003    +1.3375466e-003
+4.8960000e+003    +1.3896784e-004
+4.9120000e+003    +7.3441939e-004
+4.9280000e+003    +9.6477708e-004
+4.9440000e+003    +1.0391108e-003
+4.9600000e+003    +9.6000516e-004
+4.9760000e+003    +6.5938488e-004
+4.9920000e+003    +1.5156444e-004
+5.0080000e+003    +2.2324419e-004
+5.0240000e+003    +1.3552711e-004
+5.0400000e+003    +6.4856006e-004
+5.0560000e+003    +1.2197834e-003
+5.0720000e+003    +8.7131088e-004
+5.0880000e+003    +5.5641826e-004
+5.1040000e+003    +8.7374565e-004
+5.1200000e+003    +7.1896985e-004
+5.1360000e+003    +1.0348180e-003
+5.1520000e+003    +6.9328508e-004
+5.1680000e+003    +1.8200635e-003
+5.1840000e+003    +1.3001149e-003
+5.2000000e+003    +1.1653581e-003
+5.2160000e+003    +4.8478934e-004
+5.2320000e+003    +8.1853149e-004
+5.2480000e+003    +1.1954767e-003
+5.2640000e+003    +1.7180910e-003
+5.2800000e+003    +2.2716511e-003
+5.2960000e+003    +1.2457854e-003
+5.3120000e+003    +9.0224686e-004
+5.3280000e+003    +2.9100603e-004
+5.3440000e+003    +6.9547090e-004
+5.3600000e+003    +1.5620934e-003
+5.3760000e+003    +8.7710016e-004
+5.3920000e+003    +6.8768975e-004
+5.4080000e+003    +1.2883072e-003
+5.4240000e+003    +1.3097300e-003
+5.4400000e+003    +6.8126165e-004
+5.4560000e+003    +2.4824010e-004
+5.4720000e+003    +5.1140785e-004
+5.4880000e+003    +1.6279169e-003
+5.5040000e+003    +1.8232977e-003
+5.5200000e+003    +1.8202313e-003
+5.5360000e+003    +1.4936634e-003
+5.5520000e+003    +2.2507319e-003
+5.5680000e+003    +1.6442592e-003
+5.5840000e+003    +1.1653299e-003
+5.6000000e+003    +1.0158755e-003
+5.6160000e+003    +1.1108117e-003
+5.6320000e+003    +5.0788064e-004
+5.6480000e+003    +4.7134343e-004
+5.6640000e+003    +3.1970718e-004
+5.6800000e+003    +1.2541035e-003
+5.6960000e+003    +9.0146012e-004
+5.7120000e+003    +4.2252586e-004
+5.7280000e+003    +7.2227750e-004
+5.7440000e+003    +4.4600444e-004
+5.7600000e+003    +6.1349873e-004
+5.7760000e+003    +4.7259257e-004
+5.7920000e+003    +2.4766594e-004
+5.8080000e+003    +4.2932227e-004
+5.8240000e+003    +1.8394511e-003
+5.8400000e+003    +1.6020398e-003
+5.8560000e+003    +1.5959933e-003
+5.8720000e+003    +8.1775716e-004
+5.8880000e+003    +1.0836784e-003
+5.9040000e+003    +1.8070291e-003
+5.9200000e+003    +1.7220050e-003
+5.9360000e+003    +9.2635676e-004
+5.9520000e+003    +6.7093386e-004
+5.9680000e+003    +5.7840726e-004
+5.9840000e+003    +1.1726066e-003
+6.0000000e+003    +7.4655720e-004
+6.0160000e+003    +1.1879029e-003
+6.0320000e+003    +1.3675048e-003
+6.0480000e+003    +7.6542608e-004
+6.0640000e+003    +4.4972688e-004
+6.0800000e+003    +4.6861370e-004
+6.0960000e+003    +1.0189648e-003
+6.1120000e+003    +1.1078198e-003
+6.1280000e+003    +7.3812547e-004
+6.1440000e+003    +7.5381080e-004
+6.1600000e+003    +1.2352135e-003
+6.1760000e+003    +1.5311519e-003
+6.1920000e+003    +1.4630009e-003
+6.2080000e+003    +5.0853461e-004
+6.2240000e+003    +1.1637234e-003
+6.2400000e+003    +1.3814603e-003
+6.2560000e+003    +1.4980240e-003
+6.2720000e+003    +1.5487931e-003
+6.2880000e+003    +5.9526769e-004
+6.3040000e+003    +9.3065275e-005
+6.3200000e+003    +8.8518369e-004
+6.3360000e+003    +1.5802826e-003
+6.3520000e+003    +1.6865003e-003
+6.3680000e+003    +1.7971084e-003
+6.3840000e+003    +1.1389026e-003
+6.4000000e+003    +4.9451861e-004
+6.4160000e+003    +7.5805408e-004
+6.4320000e+003    +5.5578479e-004
+6.4480000e+003    +4.6166900e-004
+6.4640000e+003    +1.0477984e-004
+6.4800000e+003    +1.4828763e-003
+6.4960000e+003    +1.2573428e-003
+6.5120000e+003    +1.1899954e-003
+6.5280000e+003    +1.4147994e-003
+6.5440000e+003    +7.8363193e-004
+6.5600000e+003    +6.9469435e-004
+6.5760000e+003    +6.2369590e-004
+6.5920000e+003    +1.0204449e-003
+6.6080000e+003    +9.1618707e-004
+6.6240000e+003    +3.2396105e-003
+6.6400000e+003    +2.2273150e-003
+6.6560000e+003    +9.6590904e-004
+6.6720000e+003    +1.3448388e-003
+6.6880000e+003    +2.0865300e-003
+6.7040000e+003    +2.2564910e-003
+6.7200000e+003    +2.8809223e-003
+6.7360000e+003    +1.2379446e-003
+6.7520000e+003    +2.3364320e-003
+6.7680000e+003    +2.5039511e-003
+6.7840000e+003    +2.5066070e-003
+6.8000000e+003    +2.2980003e-003
+6.8160000e+003    +1.9611788e-003
+6.8320000e+003    +1.9087292e-003
+6.8480000e+003    +1.1238653e-003
+6.8640000e+003    +2.4288677e-004
+6.8800000e+003    +4.0217000e-003
+6.8960000e+003    +3.8719010e-003
+6.9120000e+003    +3.0574773e-003
+6.9280000e+003    +1.8364191e-003
+6.9440000e+003    +5.0540693e-004
+6.9600000e+003    +3.9272369e-003
+6.9760000e+003    +4.3798164e-003
+6.9920000e+003    +1.6942275e-003
+7.0080000e+003    +1.6103177e-003
+7.0240000e+003    +1.9242477e-003
+7.0400000e+003    +2.7490642e-003
+7.0560000e+003    +2.5191882e-003
+7.0720000e+003    +8.3931995e-004
+7.0880000e+003    +1.1090544e-003
+7.1040000e+003    +1.7419501e-003
+7.1200000e+003    +1.6777625e-003
+7.1360000e+003    +5.5586873e-004
+7.1520000e+003    +4.8827307e-004
+7.1680000e+003    +2.0213283e-003
+7.1840000e+003    +2.9971101e-003
+7.2000000e+003    +8.8720804e-004
+7.2160000e+003    +3.7837200e-004
+7.2320000e+003    +2.4398598e-004
+7.2480000e+003    +1.4355764e-003
+7.2640000e+003    +3.3247375e-003
+7.2800000e+003    +3.1263086e-003
+7.2960000e+003    +5.1396233e-003
+7.3120000e+003    +6.5386286e-003
+7.3280000e+003    +7.0558739e-004
+7.3440000e+003    +6.7105651e-004
+7.3600000e+003    +1.8704175e-003
+7.3760000e+003    +2.0771879e-003
+7.3920000e+003    +8.4289204e-004
+7.4080000e+003    +2.9018158e-003
+7.4240000e+003    +4.1993107e-003
+7.4400000e+003    +1.0459886e-003
+7.4560000e+003    +7.7471598e-003
+7.4720000e+003    +8.6119268e-003
+7.4880000e+003    +5.6774523e-003
+7.5040000e+003    +2.4848143e-003
+7.5200000e+003    +1.8394738e-002
+7.5360000e+003    +1.0114939e-002
+7.5520000e+003    +5.0410815e-003
+7.5680000e+003    +1.4033897e-002
+7.5840000e+003    +1.0720688e-002
+7.6000000e+003    +6.8503222e-003
+7.6160000e+003    +3.8456267e-003
+7.6320000e+003    +2.7744565e-003
+7.6480000e+003    +4.6537984e-003
+7.6640000e+003    +6.9930092e-003
+7.6800000e+003    +7.6740151e-003
+7.6960000e+003    +7.6707760e-003
+7.7120000e+003    +6.1751567e-003
+7.7280000e+003    +1.0046860e-003
+7.7440000e+003    +1.1374262e-003
+7.7600000e+003    +7.8995578e-004
+7.7760000e+003    +5.7091855e-004
+7.7920000e+003    +2.2498437e-003
+7.8080000e+003    +8.4378605e-004
+7.8240000e+003    +8.8745501e-004
+7.8400000e+003    +1.3551016e-003
+7.8560000e+003    +1.8639351e-003
+7.8720000e+003    +8.2376064e-004
+7.8880000e+003    +1.2289117e-004
+7.9040000e+003    +5.6753989e-004
+7.9200000e+003    +1.1516090e-003
+7.9360000e+003    +2.5741299e-004
+7.9520000e+003    +2.3817067e-004
+7.9680000e+003    +7.7836344e-004
+7.9840000e+003    +9.7467890e-004
+8.0000000e+003    +1.3692845e-003
+8.0160000e+003    +7.8170182e-004
+8.0320000e+003    +6.3378765e-004
+8.0480000e+003    +1.0521578e-003
+8.0640000e+003    +8.8780880e-004
+8.0800000e+003    +7.7139935e-004
+8.0960000e+003    +5.0951017e-004
+8.1120000e+003    +7.6750852e-004
+8.1280000e+003    +5.9881277e-004
+8.1440000e+003    +1.3515843e-003
+8.1600000e+003    +1.4183735e-003
+8.1760000e+003    +7.7669363e-004
+8.1920000e+003    +1.0629430e-003
+8.2080000e+003    +4.8632288e-004
+8.2240000e+003    +6.2075414e-004
+8.2400000e+003    +6.1700534e-004
+8.2560000e+003    +6.9570460e-004
+8.2720000e+003    +1.1333131e-003
+8.2880000e+003    +1.1803706e-003
+8.3040000e+003    +8.3927112e-004
+8.3200000e+003    +6.2469614e-004
+8.3360000e+003    +6.6668505e-004
+8.3520000e+003    +4.9386261e-004
+8.3680000e+003    +1.0141075e-003
+8.3840000e+003    +1.4662452e-003
+8.4000000e+003    +2.0480421e-003
+8.4160000e+003    +1.0312950e-003
+8.4320000e+003    +4.9870834e-004
+8.4480000e+003    +1.2738374e-003
+8.4640000e+003    +1.6315674e-003
+8.4800000e+003    +4.5948720e-004
+8.4960000e+003    +2.8517988e-004
+8.5120000e+003    +9.0642605e-004
+8.5280000e+003    +1.4213745e-003
+8.5440000e+003    +4.4986740e-004
+8.5600000e+003    +2.1468886e-004
+8.5760000e+003    +4.5232574e-004
+8.5920000e+003    +4.4538299e-004
+8.6080000e+003    +7.8953308e-004
+8.6240000e+003    +3.5952861e-004
+8.6400000e+003    +2.1342280e-004
+8.6560000e+003    +8.0625241e-004
+8.6720000e+003    +9.3601330e-004
+8.6880000e+003    +5.7807553e-004
+8.7040000e+003    +1.1851463e-003
+8.7200000e+003    +1.6302342e-003
+8.7360000e+003    +1.3258931e-003
+8.7520000e+003    +6.0328608e-004
+8.7680000e+003    +8.5138588e-004
+8.7840000e+003    +6.0008076e-004
+8.8000000e+003    +4.8114531e-004
+8.8160000e+003    +9.0212398e-004
+8.8320000e+003    +7.3875143e-004
+8.8480000e+003    +5.9500011e-004
+8.8640000e+003    +8.1606646e-005
+8.8800000e+003    +4.5088926e-004
+8.8960000e+003    +8.9031307e-004
+8.9120000e+003    +5.4799812e-004
+8.9280000e+003    +3.4707619e-004
+8.9440000e+003    +1.0407967e-003
+8.9600000e+003    +6.3132006e-004
+8.9760000e+003    +1.0049486e-003
+8.9920000e+003    +9.2583464e-004
+9.0080000e+003    +5.6935515e-004
+9.0240000e+003    +3.7423338e-004
+9.0400000e+003    +3.1295556e-003
+9.0560000e+003    +2.9217075e-003
+9.0720000e+003    +2.3008683e-003
+9.0880000e+003    +1.4920244e-003
+9.1040000e+003    +1.3854370e-003
+9.1200000e+003    +1.3680657e-003
+9.1360000e+003    +2.6684161e-003
+9.1520000e+003    +2.4441550e-003
+9.1680000e+003    +9.5846015e-004
+9.1840000e+003    +7.0566987e-004
+9.2000000e+003    +8.5865665e-004
+9.2160000e+003    +5.1617919e-004
+9.2320000e+003    +2.3579898e-003
+9.2480000e+003    +2.7802123e-003
+9.2640000e+003    +2.5226495e-003
+9.2800000e+003    +9.6992298e-004
+9.2960000e+003    +1.7083387e-003
+9.3120000e+003    +1.4533632e-002
+9.3280000e+003    +5.9565310e-003
+9.3440000e+003    +3.6637513e-003
+9.3600000e+003    +2.3036615e-003
+9.3760000e+003    +2.4381795e-003
+9.3920000e+003    +1.5644482e-003
+9.4080000e+003    +2.1301310e-003
+9.4240000e+003    +3.9057557e-003
+9.4400000e+003    +1.9058906e-002
+9.4560000e+003    +1.4189070e-002
+9.4720000e+003    +1.0032613e-002
+9.4880000e+003    +4.6861474e-003
+9.5040000e+003    +3.9893757e-003
+9.5200000e+003    +2.3381669e-002
+9.5360000e+003    +1.9334702e-002
+9.5520000e+003    +9.8209158e-003
+9.5680000e+003    +5.7787946e-003
+9.5840000e+003    +6.1529414e-003
+9.6000000e+003    +4.1988036e-003
+9.6160000e+003    +2.4240257e-003
+9.6320000e+003    +1.5331025e-003
+9.6480000e+003    +2.8260648e-003
+9.6640000e+003    +3.6890765e-003
+9.6800000e+003    +6.0485266e-003
+9.6960000e+003    +7.4307839e-003
+9.7120000e+003    +3.5746116e-003
+9.7280000e+003    +3.7260978e-003
+9.7440000e+003    +5.1853969e-003
+9.7600000e+003    +6.6352887e-003
+9.7760000e+003    +7.6115993e-003
+9.7920000e+003    +8.8858018e-003
+9.8080000e+003    +1.0932381e-002
+9.8240000e+003    +7.2308723e-003
+9.8400000e+003    +5.1845061e-003
+9.8560000e+003    +9.3668355e-003
+9.8720000e+003    +1.6921705e-002
+9.8880000e+003    +2.1647552e-002
+9.9040000e+003    +3.7117493e-003
+9.9200000e+003    +2.2565592e-003
+9.9360000e+003    +1.2443911e-003
+9.9520000e+003    +2.6642371e-003
+9.9680000e+003    +2.5058144e-003
+9.9840000e+003    +1.8504993e-003
+1.0000000e+004    +1.3064410e-003
+1.0016000e+004    +1.3202488e-003
+1.0032000e+004    +1.4938348e-003
+1.0048000e+004    +2.0877710e-003
+1.0064000e+004    +7.1097771e-004
+1.0080000e+004    +1.0944514e-003
+1.0096000e+004    +9.0634148e-004
+1.0112000e+004    +1.6241117e-003
+1.0128000e+004    +8.6259039e-004
+1.0144000e+004    +2.7993487e-003
+1.0160000e+004    +2.1933713e-003
+1.0176000e+004    +1.7492234e-003
+1.0192000e+004    +1.2902289e-003
+1.0208000e+004    +1.9979530e-003
+1.0224000e+004    +7.8095123e-004
+1.0240000e+004    +4.5587588e-004
+1.0256000e+004    +7.1755465e-004
+1.0272000e+004    +2.1280318e-003
+1.0288000e+004    +1.8648655e-003
+1.0304000e+004    +2.5265855e-003
+1.0320000e+004    +2.8039229e-003
+1.0336000e+004    +1.7175270e-003
+1.0352000e+004    +5.0484732e-004
+1.0368000e+004    +4.3604459e-004
+1.0384000e+004    +7.7656272e-004
+1.0400000e+004    +3.5448879e-004
+1.0416000e+004    +2.5429262e-003
+1.0432000e+004    +2.4586665e-003
+1.0448000e+004    +2.0227549e-003
+1.0464000e+004    +9.3171350e-004
+1.0480000e+004    +1.9222132e-003
+1.0496000e+004    +2.4051683e-003
+1.0512000e+004    +2.9123041e-003
+1.0528000e+004    +2.1624125e-003
+1.0544000e+004    +8.4320817e-004
+1.0560000e+004    +1.4693491e-003
+1.0576000e+004    +1.8296487e-003
+1.0592000e+004    +1.5278714e-003
+1.0608000e+004    +7.1259664e-004
+1.0624000e+004    +3.3248416e-003
+1.0640000e+004    +3.4389195e-003
+1.0656000e+004    +2.1889110e-003
+1.0672000e+004    +1.3684008e-003
+1.0688000e+004    +1.2489711e-003
+1.0704000e+004    +1.5993016e-003
+1.0720000e+004    +2.9462269e-003
+1.0736000e+004    +3.0544777e-003
+1.0752000e+004    +1.8561593e-003
+1.0768000e+004    +5.7348085e-004
+1.0784000e+004    +7.6598645e-004
+1.0800000e+004    +1.5361893e-003
+1.0816000e+004    +2.1399085e-003
+1.0832000e+004    +1.1083923e-003
+1.0848000e+004    +9.9161512e-004
+1.0864000e+004    +8.4382773e-004
+1.0880000e+004    +1.3645045e-003
+1.0896000e+004    +1.5456605e-004
+1.0912000e+004    +2.7281200e-004
+1.0928000e+004    +6.1194471e-004
+1.0944000e+004    +9.1259339e-004
+1.0960000e+004    +7.4978964e-004
+1.0976000e+004    +9.2109555e-004
+1.0992000e+004    +6.8846298e-004
+1.1008000e+004    +9.3353109e-004
+1.1024000e+004    +8.7801355e-004
+1.1040000e+004    +8.3427090e-004
+1.1056000e+004    +6.5878715e-004
+1.1072000e+004    +8.4122649e-004
+1.1088000e+004    +1.1496375e-003
+1.1104000e+004    +1.2494504e-003
+1.1120000e+004    +1.8157761e-003
+1.1136000e+004    +1.2113998e-003
+1.1152000e+004    +3.8640591e-004
+1.1168000e+004    +3.0476355e-004
+1.1184000e+004    +4.6382553e-004
+1.1200000e+004    +3.3513914e-004
+1.1216000e+004    +5.9630029e-004
+1.1232000e+004    +7.5166236e-004
+1.1248000e+004    +1.6468221e-003
+1.1264000e+004    +1.5151976e-003
+1.1280000e+004    +7.0594728e-004
+1.1296000e+004    +5.4467731e-004
+1.1312000e+004    +1.4800061e-003
+1.1328000e+004    +1.0335837e-003
+1.1344000e+004    +1.1993643e-003
+1.1360000e+004    +1.1748838e-003
+1.1376000e+004    +8.5777935e-004
+1.1392000e+004    +7.0048892e-004
+1.1408000e+004    +7.7405834e-004
+1.1424000e+004    +2.4203039e-003
+1.1440000e+004    +2.8246967e-003
+1.1456000e+004    +1.1162451e-003
+1.1472000e+004    +1.5827101e-003
+1.1488000e+004    +1.7255660e-003
+1.1504000e+004    +1.2212072e-003
+1.1520000e+004    +8.2976907e-004
+1.1536000e+004    +9.0693822e-004
+1.1552000e+004    +1.2703561e-003
+1.1568000e+004    +1.4606727e-003
+1.1584000e+004    +1.6653632e-003
+1.1600000e+004    +4.3846856e-004
+1.1616000e+004    +4.7049313e-004
+1.1632000e+004    +1.1863844e-003
+1.1648000e+004    +2.3545928e-003
+1.1664000e+004    +2.1076044e-003
+1.1680000e+004    +1.0945091e-003
+1.1696000e+004    +9.7001722e-004
+1.1712000e+004    +8.8337343e-004
+1.1728000e+004    +5.7485234e-003
+1.1744000e+004    +2.2715400e-003
+1.1760000e+004    +1.7215758e-004
+1.1776000e+004    +6.1015738e-004
+1.1792000e+004    +2.5176452e-003
+1.1808000e+004    +6.6917262e-004
+1.1824000e+004    +3.2177207e-003
+1.1840000e+004    +4.9982690e-003
+1.1856000e+004    +5.5448529e-003
+1.1872000e+004    +1.3913868e-003
+1.1888000e+004    +7.6529960e-004
+1.1904000e+004    +1.0998289e-003
+1.1920000e+004    +1.3592590e-003
+1.1936000e+004    +2.3675468e-003
+1.1952000e+004    +2.1313266e-003
+1.1968000e+004    +1.8037505e-003
+1.1984000e+004    +9.4214967e-004
+1.2000000e+004    +8.2951947e-004
+1.2016000e+004    +1.0556281e-003
+1.2032000e+004    +9.7288482e-004
+1.2048000e+004    +1.8922105e-003
+1.2064000e+004    +2.0272571e-003
+1.2080000e+004    +2.2588100e-003
+1.2096000e+004    +1.7059685e-003
+1.2112000e+004    +8.5031154e-004
+1.2128000e+004    +5.5796240e-004
+1.2144000e+004    +5.3283884e-003
+1.2160000e+004    +6.4413603e-003
+1.2176000e+004    +5.9933076e-003
+1.2192000e+004    +5.4222671e-003
+1.2208000e+004    +1.2901070e-003
+1.2224000e+004    +1.8907951e-004
+1.2240000e+004    +4.0556892e-004
+1.2256000e+004    +2.2751730e-004
+1.2272000e+004    +2.1983837e-003
+1.2288000e+004    +2.8874981e-003
+1.2304000e+004    +3.5436484e-003
+1.2320000e+004    +3.7458034e-003
+1.2336000e+004    +3.5143020e-003
+1.2352000e+004    +4.5971680e-004
+1.2368000e+004    +6.6222501e-004
+1.2384000e+004    +1.1058529e-003
+1.2400000e+004    +1.2331504e-003
+1.2416000e+004    +2.3675519e-004
+1.2432000e+004    +1.1353226e-003
+1.2448000e+004    +1.5457097e-003
+1.2464000e+004    +1.5308528e-003
+1.2480000e+004    +2.4986741e-004
+1.2496000e+004    +5.9284235e-004
+1.2512000e+004    +4.7381534e-004
+1.2528000e+004    +3.7651605e-004
+1.2544000e+004    +1.8618826e-003
+1.2560000e+004    +1.5820925e-003
+1.2576000e+004    +1.0797064e-003
+1.2592000e+004    +3.3795781e-004
+1.2608000e+004    +6.5993244e-004
+1.2624000e+004    +1.1752374e-003
+1.2640000e+004    +1.3988266e-003
+1.2656000e+004    +1.3038631e-003
+1.2672000e+004    +7.3949964e-004
+1.2688000e+004    +5.6124275e-004
+1.2704000e+004    +4.5708477e-004
+1.2720000e+004    +4.1141058e-004
+1.2736000e+004    +5.9475913e-004
+1.2752000e+004    +8.2907238e-004
+1.2768000e+004    +7.8902440e-004
+1.2784000e+004    +1.1260459e-003
