# SR785 Measurement - Timestamp: Jan 26 2019 - 06:50:17
#---------- Measurement Setup ------------
# Start Frequency (Hz): 0.000000
# Frequency Span (Hz): 12800.000000
# Frequency Resolution: 800
# Number of Averages: 2
# Averaging Mode: None
# Window function: BMH
#---------- Measurement Parameters ----------
# Measurement Group:  "FFT" "FFT"
# Measurements:  "FFT 1" "FFT 2"
# View:  "Log Magnitude" "Log Magnitude"
# Unit:  "Vrms/rtHz" "Vpk"
#---------- Input Parameters ----------
# Input Source: Analog
# Input Mode: Single ended, Single ended
# Input Grounding: Float, Float
# Input Coupling: AC, AC
# Input Range: 6.0dBVpk, 6.0dBVpk
# Auto Range: Off, Off
# Auto Range Mode: Up Only, Normal
# Anti-Aliasing Filter: On, On
#---------- Source Parameters ----------
# Source Type: Sine
# Source Amplitude: 500.0mVpk
# Source On: 0

#---------- Measurement Data ----------
# [Freq(Hz) Display 0(Vrms/rtHz) Display 1(Vpk) ]
+0.0000000e+000    +3.6811400e-003
+1.6000000e+001    +5.6777918e-003
+3.2000000e+001    +3.7786262e-003
+4.8000000e+001    +1.1702580e-003
+6.4000000e+001    +6.0226093e-004
+8.0000000e+001    +4.6424867e-004
+9.6000000e+001    +2.3537011e-004
+1.1200000e+002    +1.9560069e-004
+1.2800000e+002    +7.1085207e-003
+1.4400000e+002    +8.5592270e-003
+1.6000000e+002    +5.7232850e-003
+1.7600000e+002    +3.8789834e-003
+1.9200000e+002    +8.3444724e-003
+2.0800000e+002    +5.3656165e-002
+2.2400000e+002    +8.1347570e-002
+2.4000000e+002    +8.5770711e-002
+2.5600000e+002    +6.4231962e-002
+2.7200000e+002    +2.1922119e-002
+2.8800000e+002    +2.3028174e-002
+3.0400000e+002    +2.3205290e-002
+3.2000000e+002    +2.2343785e-002
+3.3600000e+002    +2.1306364e-002
+3.5200000e+002    +7.5685106e-002
+3.6800000e+002    +1.0585313e-001
+3.8400000e+002    +1.2160015e-001
+4.0000000e+002    +8.5211597e-002
+4.1600000e+002    +2.5410032e-002
+4.3200000e+002    +4.8177862e-003
+4.4800000e+002    +4.7513568e-003
+4.6400000e+002    +5.0917882e-003
+4.8000000e+002    +5.4323291e-003
+4.9600000e+002    +6.2006889e-003
+5.1200000e+002    +7.5730284e-005
+5.2800000e+002    +6.8330526e-005
+5.4400000e+002    +9.1311907e-005
+5.6000000e+002    +1.1279949e-004
+5.7600000e+002    +1.7203797e-004
+5.9200000e+002    +1.0857549e-004
+6.0800000e+002    +9.1624439e-005
+6.2400000e+002    +5.6541834e-005
+6.4000000e+002    +3.8033962e-004
+6.5600000e+002    +2.5164030e-004
+6.7200000e+002    +8.6041626e-005
+6.8800000e+002    +4.9624086e-005
+7.0400000e+002    +4.0592397e-005
+7.2000000e+002    +2.4810428e-005
+7.3600000e+002    +6.6665067e-005
+7.5200000e+002    +4.5070763e-005
+7.6800000e+002    +9.0102178e-005
+7.8400000e+002    +2.8242951e-004
+8.0000000e+002    +3.7728722e-004
+8.1600000e+002    +2.9418583e-004
+8.3200000e+002    +1.6187112e-004
+8.4800000e+002    +7.5005810e-005
+8.6400000e+002    +1.5719968e-004
+8.8000000e+002    +1.2532678e-004
+8.9600000e+002    +1.7352660e-004
+9.1200000e+002    +2.5626709e-004
+9.2800000e+002    +1.7603510e-004
+9.4400000e+002    +1.9656088e-004
+9.6000000e+002    +1.3543817e-004
+9.7600000e+002    +1.5372600e-004
+9.9200000e+002    +1.7178127e-004
+1.0080000e+003    +8.4780520e-005
+1.0240000e+003    +1.3485931e-004
+1.0400000e+003    +1.3135478e-004
+1.0560000e+003    +2.9928220e-005
+1.0720000e+003    +6.0335562e-005
+1.0880000e+003    +9.4056057e-005
+1.1040000e+003    +8.5376494e-005
+1.1200000e+003    +7.4281081e-005
+1.1360000e+003    +8.9803609e-005
+1.1520000e+003    +1.6742460e-004
+1.1680000e+003    +1.7500389e-004
+1.1840000e+003    +1.5593936e-004
+1.2000000e+003    +1.4485572e-004
+1.2160000e+003    +1.4782790e-004
+1.2320000e+003    +9.1952381e-005
+1.2480000e+003    +8.0216902e-005
+1.2640000e+003    +3.0607134e-005
+1.2800000e+003    +6.9160487e-005
+1.2960000e+003    +1.4159687e-004
+1.3120000e+003    +7.2011499e-005
+1.3280000e+003    +3.2252261e-005
+1.3440000e+003    +8.0885075e-005
+1.3600000e+003    +7.1853465e-005
+1.3760000e+003    +5.7934409e-005
+1.3920000e+003    +1.1656320e-004
+1.4080000e+003    +7.3282012e-005
+1.4240000e+003    +3.5493198e-005
+1.4400000e+003    +7.0918104e-005
+1.4560000e+003    +6.7056710e-005
+1.4720000e+003    +8.1680148e-005
+1.4880000e+003    +7.2905779e-005
+1.5040000e+003    +7.1345778e-005
+1.5200000e+003    +6.6218468e-005
+1.5360000e+003    +7.6000251e-005
+1.5520000e+003    +7.1794871e-005
+1.5680000e+003    +4.1206564e-005
+1.5840000e+003    +3.8739996e-005
+1.6000000e+003    +6.3119252e-005
+1.6160000e+003    +3.5274745e-005
+1.6320000e+003    +5.6084358e-005
+1.6480000e+003    +1.1537212e-004
+1.6640000e+003    +1.1723158e-004
+1.6800000e+003    +6.2826439e-005
+1.6960000e+003    +1.2364626e-004
+1.7120000e+003    +1.3853647e-004
+1.7280000e+003    +1.2118893e-004
+1.7440000e+003    +8.1457503e-005
+1.7600000e+003    +6.4229425e-005
+1.7760000e+003    +8.1647784e-005
+1.7920000e+003    +1.1946022e-004
+1.8080000e+003    +1.2237507e-004
+1.8240000e+003    +3.4913475e-005
+1.8400000e+003    +8.0255137e-005
+1.8560000e+003    +8.5745778e-005
+1.8720000e+003    +6.2449559e-005
+1.8880000e+003    +1.3312239e-004
+1.9040000e+003    +7.5499986e-005
+1.9200000e+003    +9.1185473e-005
+1.9360000e+003    +1.1799838e-004
+1.9520000e+003    +1.0799173e-004
+1.9680000e+003    +1.0756306e-004
+1.9840000e+003    +1.2944886e-004
+2.0000000e+003    +1.4574168e-004
+2.0160000e+003    +9.8904573e-005
+2.0320000e+003    +1.1397401e-004
+2.0480000e+003    +7.4459909e-005
+2.0640000e+003    +3.9035887e-005
+2.0800000e+003    +9.7044278e-005
+2.0960000e+003    +1.7738061e-005
+2.1120000e+003    +5.5465247e-005
+2.1280000e+003    +7.4053882e-005
+2.1440000e+003    +5.3428703e-005
+2.1600000e+003    +4.9937218e-005
+2.1760000e+003    +1.2572978e-004
+2.1920000e+003    +1.1103874e-004
+2.2080000e+003    +4.5378270e-005
+2.2240000e+003    +5.5129800e-005
+2.2400000e+003    +7.7231758e-005
+2.2560000e+003    +2.7891279e-005
+2.2720000e+003    +2.4474231e-005
+2.2880000e+003    +1.2846961e-005
+2.3040000e+003    +1.0705039e-004
+2.3200000e+003    +7.8300582e-005
+2.3360000e+003    +1.0026474e-004
+2.3520000e+003    +9.5187410e-005
+2.3680000e+003    +3.7112157e-005
+2.3840000e+003    +5.0295763e-005
+2.4000000e+003    +4.9830414e-005
+2.4160000e+003    +2.9885074e-005
+2.4320000e+003    +7.3380237e-005
+2.4480000e+003    +9.1317423e-005
+2.4640000e+003    +7.8649107e-005
+2.4800000e+003    +4.1411433e-005
+2.4960000e+003    +2.5657622e-005
+2.5120000e+003    +6.6848748e-005
+2.5280000e+003    +5.5210425e-005
+2.5440000e+003    +2.0529929e-005
+2.5600000e+003    +7.9335659e-005
+2.5760000e+003    +8.8543347e-006
+2.5920000e+003    +3.3664458e-006
+2.6080000e+003    +2.2984292e-005
+2.6240000e+003    +3.9533461e-005
+2.6400000e+003    +8.1836348e-005
+2.6560000e+003    +1.0321265e-004
+2.6720000e+003    +1.1299869e-004
+2.6880000e+003    +1.0980383e-004
+2.7040000e+003    +6.1293926e-005
+2.7200000e+003    +4.8978534e-005
+2.7360000e+003    +5.8473965e-005
+2.7520000e+003    +5.3465847e-005
+2.7680000e+003    +7.7269078e-006
+2.7840000e+003    +4.9586019e-005
+2.8000000e+003    +6.9955662e-005
+2.8160000e+003    +8.5045482e-005
+2.8320000e+003    +7.1462433e-005
+2.8480000e+003    +7.2757924e-005
+2.8640000e+003    +1.0753904e-004
+2.8800000e+003    +9.4661715e-005
+2.8960000e+003    +3.4211873e-005
+2.9120000e+003    +3.2595784e-004
+2.9280000e+003    +2.7075628e-004
+2.9440000e+003    +3.5510078e-004
+2.9600000e+003    +2.9230278e-004
+2.9760000e+003    +3.4191855e-004
+2.9920000e+003    +6.9858111e-003
+3.0080000e+003    +5.7705296e-003
+3.0240000e+003    +2.9359902e-003
+3.0400000e+003    +2.7362045e-003
+3.0560000e+003    +4.9265111e-003
+3.0720000e+003    +6.9076782e-003
+3.0880000e+003    +6.9178906e-003
+3.1040000e+003    +5.8484427e-003
+3.1200000e+003    +3.7616605e-003
+3.1360000e+003    +2.3455901e-007
+3.1520000e+003    +2.4060927e-007
+3.1680000e+003    +2.4660133e-007
+3.1840000e+003    +2.5230622e-007
+3.2000000e+003    +4.5143366e-005
+3.2160000e+003    +2.0027233e-005
+3.2320000e+003    +1.4892347e-005
+3.2480000e+003    +5.0231582e-005
+3.2640000e+003    +6.4451597e-005
+3.2800000e+003    +3.5257013e-005
+3.2960000e+003    +4.3911630e-005
+3.3120000e+003    +5.5070632e-005
+3.3280000e+003    +8.4597159e-005
+3.3440000e+003    +9.0849695e-005
+3.3600000e+003    +2.9035848e-005
+3.3760000e+003    +5.4286353e-005
+3.3920000e+003    +8.8697576e-005
+3.4080000e+003    +4.5309218e-005
+3.4240000e+003    +7.3750089e-005
+3.4400000e+003    +6.4200161e-005
+3.4560000e+003    +2.9391107e-005
+3.4720000e+003    +1.2763336e-005
+3.4880000e+003    +5.2918211e-005
+3.5040000e+003    +6.6459121e-005
+3.5200000e+003    +5.9362003e-005
+3.5360000e+003    +4.8891761e-005
+3.5520000e+003    +6.7632493e-005
+3.5680000e+003    +5.1791008e-005
+3.5840000e+003    +2.6830539e-005
+3.6000000e+003    +4.2166779e-005
+3.6160000e+003    +9.0855778e-005
+3.6320000e+003    +6.0758230e-005
+3.6480000e+003    +2.9593879e-005
+3.6640000e+003    +4.7003334e-005
+3.6800000e+003    +8.4123109e-005
+3.6960000e+003    +4.3547978e-005
+3.7120000e+003    +2.7879338e-005
+3.7280000e+003    +4.8448393e-005
+3.7440000e+003    +9.5069488e-005
+3.7600000e+003    +1.1149301e-004
+3.7760000e+003    +7.7041790e-005
+3.7920000e+003    +3.9311199e-005
+3.8080000e+003    +4.2931144e-005
+3.8240000e+003    +1.6683225e-005
+3.8400000e+003    +4.7076159e-005
+3.8560000e+003    +7.6871533e-005
+3.8720000e+003    +3.9504608e-005
+3.8880000e+003    +5.8849655e-005
+3.9040000e+003    +7.5425582e-005
+3.9200000e+003    +9.9614590e-005
+3.9360000e+003    +4.9414924e-005
+3.9520000e+003    +5.5304037e-005
+3.9680000e+003    +5.5154200e-005
+3.9840000e+003    +6.7668734e-005
+4.0000000e+003    +5.3470074e-005
+4.0160000e+003    +2.0727864e-005
+4.0320000e+003    +8.1653161e-005
+4.0480000e+003    +6.8740177e-005
+4.0640000e+003    +3.0700834e-005
+4.0800000e+003    +3.4908644e-005
+4.0960000e+003    +6.9916045e-005
+4.1120000e+003    +7.4406300e-005
+4.1280000e+003    +7.6240867e-005
+4.1440000e+003    +7.0471557e-005
+4.1600000e+003    +7.3220246e-005
+4.1760000e+003    +1.2986226e-005
+4.1920000e+003    +1.8344423e-005
+4.2080000e+003    +1.3022350e-005
+4.2240000e+003    +2.0040783e-005
+4.2400000e+003    +3.0392348e-005
+4.2560000e+003    +3.9936749e-005
+4.2720000e+003    +4.1800824e-005
+4.2880000e+003    +2.5988007e-005
+4.3040000e+003    +2.1090073e-005
+4.3200000e+003    +1.1306751e-004
+4.3360000e+003    +1.0630755e-004
+4.3520000e+003    +6.9144997e-005
+4.3680000e+003    +2.8983419e-005
+4.3840000e+003    +6.9585585e-005
+4.4000000e+003    +8.1931285e-005
+4.4160000e+003    +4.1123218e-005
+4.4320000e+003    +1.8900324e-005
+4.4480000e+003    +4.4840945e-005
+4.4640000e+003    +8.3083476e-005
+4.4800000e+003    +4.9289647e-005
+4.4960000e+003    +2.8005246e-005
+4.5120000e+003    +2.6079906e-005
+4.5280000e+003    +9.3772491e-005
+4.5440000e+003    +5.0488859e-005
+4.5600000e+003    +7.3832729e-005
+4.5760000e+003    +1.0817371e-004
+4.5920000e+003    +1.2732536e-004
+4.6080000e+003    +4.2802276e-005
+4.6240000e+003    +1.8743554e-005
+4.6400000e+003    +3.1692711e-005
+4.6560000e+003    +2.4389170e-005
+4.6720000e+003    +3.3195854e-005
+4.6880000e+003    +2.0530764e-005
+4.7040000e+003    +5.8749392e-005
+4.7200000e+003    +5.8218102e-005
+4.7360000e+003    +5.5810760e-005
+4.7520000e+003    +9.8770659e-005
+4.7680000e+003    +1.3457236e-004
+4.7840000e+003    +1.1116542e-004
+4.8000000e+003    +4.8656348e-005
+4.8160000e+003    +3.6320838e-005
+4.8320000e+003    +4.5792240e-005
+4.8480000e+003    +5.0881416e-005
+4.8640000e+003    +5.2487234e-005
+4.8800000e+003    +8.8483583e-005
+4.8960000e+003    +1.0234660e-004
+4.9120000e+003    +9.5386924e-005
+4.9280000e+003    +6.6751199e-005
+4.9440000e+003    +1.6920236e-005
+4.9600000e+003    +1.7581933e-005
+4.9760000e+003    +4.2611198e-005
+4.9920000e+003    +7.4617536e-005
+5.0080000e+003    +9.0078138e-005
+5.0240000e+003    +5.7314632e-005
+5.0400000e+003    +1.7327073e-005
+5.0560000e+003    +4.3099608e-005
+5.0720000e+003    +8.4347485e-005
+5.0880000e+003    +5.8594145e-005
+5.1040000e+003    +4.7760834e-005
+5.1200000e+003    +3.8249003e-005
+5.1360000e+003    +4.9239883e-005
+5.1520000e+003    +2.8490213e-005
+5.1680000e+003    +2.8447328e-005
+5.1840000e+003    +3.3121873e-005
+5.2000000e+003    +5.4186014e-005
+5.2160000e+003    +4.3524411e-005
+5.2320000e+003    +3.1931097e-005
+5.2480000e+003    +7.9852307e-006
+5.2640000e+003    +2.9756920e-005
+5.2800000e+003    +4.2624630e-005
+5.2960000e+003    +9.2114160e-006
+5.3120000e+003    +6.3818057e-005
+5.3280000e+003    +6.2600520e-005
+5.3440000e+003    +6.8578025e-005
+5.3600000e+003    +9.0416921e-005
+5.3760000e+003    +5.6416382e-005
+5.3920000e+003    +3.3179273e-005
+5.4080000e+003    +1.5031999e-005
+5.4240000e+003    +2.1414340e-005
+5.4400000e+003    +1.4638797e-005
+5.4560000e+003    +7.9364232e-005
+5.4720000e+003    +1.0385907e-004
+5.4880000e+003    +7.5509022e-005
+5.5040000e+003    +3.5341036e-005
+5.5200000e+003    +4.4874338e-005
+5.5360000e+003    +7.7833436e-005
+5.5520000e+003    +1.1121145e-004
+5.5680000e+003    +1.1331357e-004
+5.5840000e+003    +1.5714455e-004
+5.6000000e+003    +5.2280408e-005
+5.6160000e+003    +7.2467323e-005
+5.6320000e+003    +7.1028684e-005
+5.6480000e+003    +4.4955807e-005
+5.6640000e+003    +5.5565819e-004
+5.6800000e+003    +5.5721856e-004
+5.6960000e+003    +4.9247994e-004
+5.7120000e+003    +4.3673502e-004
+5.7280000e+003    +2.1874874e-003
+5.7440000e+003    +2.1947057e-003
+5.7600000e+003    +2.0438493e-003
+5.7760000e+003    +1.6646339e-003
+5.7920000e+003    +1.1817730e-003
+5.8080000e+003    +1.9844290e-004
+5.8240000e+003    +2.0192689e-004
+5.8400000e+003    +1.7752702e-004
+5.8560000e+003    +1.5389909e-004
+5.8720000e+003    +1.4327369e-002
+5.8880000e+003    +1.5312613e-002
+5.9040000e+003    +1.3396564e-002
+5.9200000e+003    +1.2532610e-002
+5.9360000e+003    +1.2527232e-004
+5.9520000e+003    +3.1397070e-005
+5.9680000e+003    +5.9873684e-005
+5.9840000e+003    +8.3078456e-005
+6.0000000e+003    +1.3606043e-005
+6.0160000e+003    +4.9968588e-005
+6.0320000e+003    +6.9517693e-005
+6.0480000e+003    +6.5829619e-005
+6.0640000e+003    +7.1272727e-005
+6.0800000e+003    +7.1344526e-005
+6.0960000e+003    +7.5378637e-005
+6.1120000e+003    +6.7832982e-005
+6.1280000e+003    +7.6849086e-005
+6.1440000e+003    +1.0447238e-004
+6.1600000e+003    +1.0587766e-004
+6.1760000e+003    +1.0118841e-004
+6.1920000e+003    +7.4231917e-005
+6.2080000e+003    +3.8024195e-005
+6.2240000e+003    +3.6894875e-005
+6.2400000e+003    +3.0451067e-005
+6.2560000e+003    +4.8291775e-005
+6.2720000e+003    +7.3931697e-005
+6.2880000e+003    +2.8910574e-005
+6.3040000e+003    +9.8323035e-006
+6.3200000e+003    +1.6252703e-005
+6.3360000e+003    +2.1263922e-005
+6.3520000e+003    +5.6654870e-005
+6.3680000e+003    +5.3326959e-005
+6.3840000e+003    +3.0747960e-005
+6.4000000e+003    +4.3723762e-006
+6.4160000e+003    +1.1175093e-005
+6.4320000e+003    +1.8007684e-005
+6.4480000e+003    +3.3276428e-005
+6.4640000e+003    +4.5241464e-005
+6.4800000e+003    +4.4233908e-005
+6.4960000e+003    +4.5559191e-005
+6.5120000e+003    +5.7081452e-005
+6.5280000e+003    +7.7087228e-005
+6.5440000e+003    +4.6334149e-005
+6.5600000e+003    +8.0192156e-005
+6.5760000e+003    +4.8447593e-005
+6.5920000e+003    +3.5273933e-005
+6.6080000e+003    +3.1807365e-005
+6.6240000e+003    +4.1221858e-005
+6.6400000e+003    +4.4679455e-005
+6.6560000e+003    +3.0209467e-005
+6.6720000e+003    +3.1569351e-005
+6.6880000e+003    +2.7988401e-005
+6.7040000e+003    +3.8551811e-005
+6.7200000e+003    +4.7237754e-005
+6.7360000e+003    +2.4187935e-005
+6.7520000e+003    +8.6095297e-006
+6.7680000e+003    +7.0418964e-006
+6.7840000e+003    +3.3531913e-005
+6.8000000e+003    +4.4541084e-005
+6.8160000e+003    +5.5573873e-005
+6.8320000e+003    +7.5202974e-005
+6.8480000e+003    +4.5909888e-005
+6.8640000e+003    +4.4886558e-005
+6.8800000e+003    +1.4075636e-005
+6.8960000e+003    +2.5857737e-005
+6.9120000e+003    +6.6330162e-005
+6.9280000e+003    +2.5930320e-005
+6.9440000e+003    +3.8398804e-005
+6.9600000e+003    +6.7027489e-005
+6.9760000e+003    +7.6238859e-005
+6.9920000e+003    +9.9258243e-005
+7.0080000e+003    +8.9434812e-005
+7.0240000e+003    +7.0168513e-005
+7.0400000e+003    +4.1037430e-005
+7.0560000e+003    +6.1948573e-005
+7.0720000e+003    +1.1886948e-005
+7.0880000e+003    +3.9593233e-005
+7.1040000e+003    +2.9450157e-005
+7.1200000e+003    +2.4605311e-005
+7.1360000e+003    +3.7213918e-005
+7.1520000e+003    +3.1090971e-005
+7.1680000e+003    +2.7499293e-005
+7.1840000e+003    +2.0567270e-005
+7.2000000e+003    +7.0941001e-005
+7.2160000e+003    +7.5271535e-005
+7.2320000e+003    +5.0624636e-005
+7.2480000e+003    +5.2169911e-005
+7.2640000e+003    +4.2980428e-005
+7.2800000e+003    +7.2664043e-005
+7.2960000e+003    +7.8467194e-005
+7.3120000e+003    +8.3076273e-005
+7.3280000e+003    +2.2825605e-005
+7.3440000e+003    +4.7681453e-005
+7.3600000e+003    +4.5597124e-005
+7.3760000e+003    +2.7112606e-005
+7.3920000e+003    +1.3676933e-005
+7.4080000e+003    +6.4625201e-005
+7.4240000e+003    +2.3574228e-005
+7.4400000e+003    +2.7858807e-005
+7.4560000e+003    +2.7810733e-005
+7.4720000e+003    +5.1476938e-005
+7.4880000e+003    +2.7244563e-005
+7.5040000e+003    +2.5331159e-005
+7.5200000e+003    +3.6702033e-005
+7.5360000e+003    +4.2190168e-005
+7.5520000e+003    +1.9782769e-005
+7.5680000e+003    +2.1212343e-005
+7.5840000e+003    +5.9712449e-005
+7.6000000e+003    +1.1995836e-004
+7.6160000e+003    +6.3144063e-005
+7.6320000e+003    +2.5523121e-005
+7.6480000e+003    +3.6011192e-005
+7.6640000e+003    +3.9133600e-005
+7.6800000e+003    +3.7359867e-005
+7.6960000e+003    +4.6790370e-005
+7.7120000e+003    +4.4456610e-005
+7.7280000e+003    +4.0981777e-005
+7.7440000e+003    +6.0722814e-005
+7.7600000e+003    +5.2107800e-005
+7.7760000e+003    +2.7214308e-005
+7.7920000e+003    +3.7453799e-005
+7.8080000e+003    +3.7609152e-005
+7.8240000e+003    +1.7450848e-005
+7.8400000e+003    +4.9110731e-005
+7.8560000e+003    +7.1739320e-005
+7.8720000e+003    +3.8213449e-005
+7.8880000e+003    +9.4977891e-005
+7.9040000e+003    +6.6090266e-005
+7.9200000e+003    +6.1730214e-005
+7.9360000e+003    +9.0275767e-005
+7.9520000e+003    +1.1244188e-004
+7.9680000e+003    +4.3147429e-005
+7.9840000e+003    +5.5609213e-005
+8.0000000e+003    +4.1091986e-005
+8.0160000e+003    +1.3895258e-005
+8.0320000e+003    +1.6040021e-005
+8.0480000e+003    +4.0856608e-005
+8.0640000e+003    +7.3001502e-005
+8.0800000e+003    +6.0384140e-005
+8.0960000e+003    +5.1059604e-005
+8.1120000e+003    +2.1252066e-005
+8.1280000e+003    +1.5526137e-005
+8.1440000e+003    +1.3424267e-006
+8.1600000e+003    +1.1184435e-005
+8.1760000e+003    +4.4925706e-005
+8.1920000e+003    +3.3486733e-005
+8.2080000e+003    +1.4433079e-005
+8.2240000e+003    +3.3374927e-005
+8.2400000e+003    +3.4779754e-005
+8.2560000e+003    +4.2173215e-005
+8.2720000e+003    +5.8249942e-005
+8.2880000e+003    +6.4362772e-005
+8.3040000e+003    +4.4583358e-005
+8.3200000e+003    +5.1878484e-005
+8.3360000e+003    +4.4418211e-005
+8.3520000e+003    +3.6059500e-005
+8.3680000e+003    +2.0655845e-005
+8.3840000e+003    +4.5230983e-005
+8.4000000e+003    +4.2206662e-005
+8.4160000e+003    +9.8074837e-005
+8.4320000e+003    +3.9289193e-005
+8.4480000e+003    +4.2931235e-005
+8.4640000e+003    +3.5761270e-005
+8.4800000e+003    +3.6938167e-005
+8.4960000e+003    +2.2786866e-005
+8.5120000e+003    +7.7581659e-005
+8.5280000e+003    +8.6919354e-005
+8.5440000e+003    +3.8005663e-005
+8.5600000e+003    +8.5654036e-005
+8.5760000e+003    +7.5846245e-003
+8.5920000e+003    +8.4428182e-003
+8.6080000e+003    +5.6647281e-003
+8.6240000e+003    +2.4649752e-003
+8.6400000e+003    +1.9715679e-005
+8.6560000e+003    +3.2346950e-005
+8.6720000e+003    +6.6006432e-005
+8.6880000e+003    +6.0742619e-005
+8.7040000e+003    +6.0941824e-005
+8.7200000e+003    +6.0146795e-005
+8.7360000e+003    +5.9424019e-005
+8.7520000e+003    +6.8869515e-005
+8.7680000e+003    +4.3183874e-005
+8.7840000e+003    +4.3376614e-005
+8.8000000e+003    +2.5885149e-005
+8.8160000e+003    +1.3038989e-005
+8.8320000e+003    +3.2508309e-005
+8.8480000e+003    +3.5916346e-005
+8.8640000e+003    +9.9752278e-006
+8.8800000e+003    +3.0040681e-005
+8.8960000e+003    +5.1136689e-005
+8.9120000e+003    +4.3644573e-005
+8.9280000e+003    +6.3619154e-005
+8.9440000e+003    +5.1125797e-005
+8.9600000e+003    +1.5925065e-005
+8.9760000e+003    +7.7899356e-005
+8.9920000e+003    +4.4490302e-005
+9.0080000e+003    +1.1737647e-005
+9.0240000e+003    +1.1304001e-005
+9.0400000e+003    +7.4202500e-005
+9.0560000e+003    +7.6048251e-005
+9.0720000e+003    +5.4091677e-005
+9.0880000e+003    +5.3755331e-005
+9.1040000e+003    +6.4231608e-005
+9.1200000e+003    +1.3312350e-004
+9.1360000e+003    +8.8058987e-005
+9.1520000e+003    +3.3217766e-005
+9.1680000e+003    +1.2110055e-005
+9.1840000e+003    +5.3137359e-005
+9.2000000e+003    +4.0117331e-005
+9.2160000e+003    +2.5808582e-005
+9.2320000e+003    +4.6645258e-005
+9.2480000e+003    +5.9526868e-005
+9.2640000e+003    +4.2628748e-005
+9.2800000e+003    +2.4797300e-005
+9.2960000e+003    +6.5803244e-005
+9.3120000e+003    +9.4048104e-005
+9.3280000e+003    +9.1136229e-005
+9.3440000e+003    +9.5977230e-005
+9.3600000e+003    +6.4801345e-005
+9.3760000e+003    +2.8627712e-005
+9.3920000e+003    +2.0401758e-005
+9.4080000e+003    +1.4109522e-005
+9.4240000e+003    +3.1309391e-005
+9.4400000e+003    +4.9497030e-005
+9.4560000e+003    +5.7475891e-006
+9.4720000e+003    +3.0870688e-005
+9.4880000e+003    +5.3947908e-005
+9.5040000e+003    +5.3187323e-005
+9.5200000e+003    +5.6786961e-005
+9.5360000e+003    +4.5466844e-005
+9.5520000e+003    +4.1937034e-005
+9.5680000e+003    +4.3735956e-005
+9.5840000e+003    +5.1978659e-005
+9.6000000e+003    +6.4448410e-005
+9.6160000e+003    +3.0784511e-005
+9.6320000e+003    +3.2694083e-005
+9.6480000e+003    +4.0927098e-005
+9.6640000e+003    +8.5756794e-005
+9.6800000e+003    +7.8238787e-005
+9.6960000e+003    +4.0697403e-005
+9.7120000e+003    +2.4097015e-005
+9.7280000e+003    +2.2789944e-005
+9.7440000e+003    +1.9328223e-005
+9.7600000e+003    +4.8457703e-005
+9.7760000e+003    +4.6933561e-005
+9.7920000e+003    +3.7382968e-005
+9.8080000e+003    +1.6859614e-005
+9.8240000e+003    +3.1326788e-005
+9.8400000e+003    +3.5572710e-005
+9.8560000e+003    +5.0267830e-005
+9.8720000e+003    +3.4201053e-005
+9.8880000e+003    +4.2912576e-005
+9.9040000e+003    +2.2521248e-005
+9.9200000e+003    +1.4581450e-005
+9.9360000e+003    +4.0608043e-005
+9.9520000e+003    +2.9067616e-005
+9.9680000e+003    +3.0589163e-005
+9.9840000e+003    +4.3358476e-005
+1.0000000e+004    +6.0497088e-005
+1.0016000e+004    +1.8867502e-005
+1.0032000e+004    +3.9574934e-005
+1.0048000e+004    +5.4429769e-005
+1.0064000e+004    +3.8300990e-005
+1.0080000e+004    +8.3595341e-006
+1.0096000e+004    +2.2819766e-005
+1.0112000e+004    +1.7120754e-005
+1.0128000e+004    +4.0348405e-005
+1.0144000e+004    +2.7805603e-005
+1.0160000e+004    +3.6590980e-005
+1.0176000e+004    +2.0547543e-005
+1.0192000e+004    +1.9825691e-005
+1.0208000e+004    +2.9258807e-005
+1.0224000e+004    +4.5690740e-005
+1.0240000e+004    +2.7576332e-005
+1.0256000e+004    +2.8035241e-005
+1.0272000e+004    +1.4173772e-005
+1.0288000e+004    +3.2874563e-005
+1.0304000e+004    +5.3426826e-005
+1.0320000e+004    +3.1150223e-005
+1.0336000e+004    +1.6567750e-005
+1.0352000e+004    +3.8991209e-005
+1.0368000e+004    +5.5442109e-005
+1.0384000e+004    +5.0395043e-005
+1.0400000e+004    +6.3268082e-005
+1.0416000e+004    +2.0585592e-005
+1.0432000e+004    +3.3968281e-005
+1.0448000e+004    +4.7450409e-005
+1.0464000e+004    +2.8449920e-005
+1.0480000e+004    +2.0628037e-005
+1.0496000e+004    +3.5571145e-005
+1.0512000e+004    +3.8896713e-005
+1.0528000e+004    +4.4741260e-005
+1.0544000e+004    +3.7907183e-005
+1.0560000e+004    +2.7397189e-005
+1.0576000e+004    +2.9007806e-005
+1.0592000e+004    +5.7050998e-005
+1.0608000e+004    +5.3972377e-005
+1.0624000e+004    +7.3072792e-005
+1.0640000e+004    +6.9488699e-005
+1.0656000e+004    +1.3271690e-004
+1.0672000e+004    +9.3998453e-005
+1.0688000e+004    +2.3562299e-005
+1.0704000e+004    +3.0624109e-005
+1.0720000e+004    +3.9331142e-005
+1.0736000e+004    +1.7031098e-005
+1.0752000e+004    +3.4035220e-005
+1.0768000e+004    +1.9789089e-005
+1.0784000e+004    +7.3639967e-006
+1.0800000e+004    +5.0354611e-005
+1.0816000e+004    +4.7888170e-005
+1.0832000e+004    +3.5959078e-005
+1.0848000e+004    +1.8185394e-005
+1.0864000e+004    +6.8550626e-006
+1.0880000e+004    +2.1646976e-005
+1.0896000e+004    +2.2421917e-005
+1.0912000e+004    +5.3781128e-005
+1.0928000e+004    +5.6813155e-005
+1.0944000e+004    +3.9201976e-005
+1.0960000e+004    +5.7434322e-006
+1.0976000e+004    +3.6538189e-005
+1.0992000e+004    +1.7356890e-005
+1.1008000e+004    +6.7830151e-005
+1.1024000e+004    +5.4995344e-005
+1.1040000e+004    +5.3316831e-005
+1.1056000e+004    +4.6915065e-005
+1.1072000e+004    +7.9627609e-004
+1.1088000e+004    +1.3897226e-003
+1.1104000e+004    +1.9147228e-003
+1.1120000e+004    +2.7897358e-003
+1.1136000e+004    +3.0294165e-003
+1.1152000e+004    +8.2050607e-004
+1.1168000e+004    +1.0096745e-003
+1.1184000e+004    +1.1936713e-003
+1.1200000e+004    +4.3370092e-005
+1.1216000e+004    +8.3021558e-005
+1.1232000e+004    +8.6817963e-005
+1.1248000e+004    +3.9670864e-005
+1.1264000e+004    +2.1101028e-005
+1.1280000e+004    +5.2687181e-005
+1.1296000e+004    +1.2749456e-005
+1.1312000e+004    +3.9405750e-005
+1.1328000e+004    +2.7826280e-005
+1.1344000e+004    +2.0659950e-003
+1.1360000e+004    +3.1867335e-003
+1.1376000e+004    +3.0212072e-003
+1.1392000e+004    +1.9580482e-003
+1.1408000e+004    +1.7128266e-002
+1.1424000e+004    +1.5696798e-002
+1.1440000e+004    +7.9668891e-003
+1.1456000e+004    +7.0522414e-003
+1.1472000e+004    +4.9389975e-005
+1.1488000e+004    +3.7512527e-005
+1.1504000e+004    +2.6959317e-005
+1.1520000e+004    +2.8572664e-005
+1.1536000e+004    +1.5878988e-005
+1.1552000e+004    +1.4441591e-005
+1.1568000e+004    +1.6582655e-005
+1.1584000e+004    +1.5037661e-005
+1.1600000e+004    +5.8216247e-005
+1.1616000e+004    +6.5373686e-005
+1.1632000e+004    +3.7258891e-005
+1.1648000e+004    +1.3722991e-005
+1.1664000e+004    +1.2830130e-005
+1.1680000e+004    +4.0777064e-005
+1.1696000e+004    +5.3641481e-005
+1.1712000e+004    +7.8574354e-005
+1.1728000e+004    +9.4292016e-005
+1.1744000e+004    +6.5714587e-005
+1.1760000e+004    +2.7827075e-005
+1.1776000e+004    +3.4451459e-005
+1.1792000e+004    +4.6104520e-005
+1.1808000e+004    +3.0811327e-005
+1.1824000e+004    +2.3947650e-005
+1.1840000e+004    +5.3402309e-005
+1.1856000e+004    +5.7146732e-005
+1.1872000e+004    +4.4358898e-005
+1.1888000e+004    +2.9324930e-005
+1.1904000e+004    +2.0732325e-005
+1.1920000e+004    +5.0279697e-005
+1.1936000e+004    +2.9817360e-005
+1.1952000e+004    +4.7506397e-005
+1.1968000e+004    +9.3997209e-005
+1.1984000e+004    +6.9011207e-005
+1.2000000e+004    +4.7986487e-005
+1.2016000e+004    +1.4253894e-005
+1.2032000e+004    +6.3113497e-005
+1.2048000e+004    +5.9295755e-005
+1.2064000e+004    +3.0311467e-005
+1.2080000e+004    +3.5951696e-005
+1.2096000e+004    +4.2211064e-005
+1.2112000e+004    +4.2744650e-005
+1.2128000e+004    +5.5269073e-005
+1.2144000e+004    +6.1900704e-005
+1.2160000e+004    +4.6207850e-005
+1.2176000e+004    +1.6514012e-005
+1.2192000e+004    +2.8235479e-005
+1.2208000e+004    +2.8316945e-005
+1.2224000e+004    +2.3013836e-005
+1.2240000e+004    +1.2298627e-005
+1.2256000e+004    +2.9100731e-005
+1.2272000e+004    +7.0771794e-006
+1.2288000e+004    +2.5320147e-005
+1.2304000e+004    +2.5573558e-005
+1.2320000e+004    +1.8298677e-005
+1.2336000e+004    +2.7545889e-006
+1.2352000e+004    +2.4081886e-005
+1.2368000e+004    +3.8947950e-005
+1.2384000e+004    +4.1334166e-005
+1.2400000e+004    +3.9320523e-005
+1.2416000e+004    +4.1542362e-006
+1.2432000e+004    +4.2301905e-005
+1.2448000e+004    +6.2120213e-005
+1.2464000e+004    +7.0419272e-005
+1.2480000e+004    +9.9788755e-005
+1.2496000e+004    +7.3651208e-005
+1.2512000e+004    +3.9147955e-005
+1.2528000e+004    +2.3392993e-005
+1.2544000e+004    +2.8485583e-005
+1.2560000e+004    +1.7977105e-005
+1.2576000e+004    +1.1220177e-005
+1.2592000e+004    +4.5611145e-005
+1.2608000e+004    +3.0554016e-005
+1.2624000e+004    +2.2819791e-005
+1.2640000e+004    +2.2291842e-005
+1.2656000e+004    +4.5478577e-005
+1.2672000e+004    +1.4784917e-005
+1.2688000e+004    +5.6966874e-005
+1.2704000e+004    +1.0921395e-004
+1.2720000e+004    +5.0637533e-005
+1.2736000e+004    +4.4808265e-005
+1.2752000e+004    +3.8712868e-005
+1.2768000e+004    +2.6890821e-005
+1.2784000e+004    +5.8668238e-006
