# SR785 Measurement - Timestamp: Jan 26 2019 - 10:12:48
#---------- Measurement Setup ------------
# Start Frequency (Hz): 0.000000
# Frequency Span (Hz): 12800.000000
# Frequency Resolution: 800
# Number of Averages: 2
# Averaging Mode: None
# Window function: BMH
#---------- Measurement Parameters ----------
# Measurement Group:  "FFT" "FFT"
# Measurements:  "FFT 1" "FFT 2"
# View:  "Log Magnitude" "Log Magnitude"
# Unit:  "Vrms/rtHz" "Vpk"
#---------- Input Parameters ----------
# Input Source: Analog
# Input Mode: Single ended, Single ended
# Input Grounding: Float, Float
# Input Coupling: AC, AC
# Input Range: 6.0dBVpk, 6.0dBVpk
# Auto Range: Off, Off
# Auto Range Mode: Up Only, Normal
# Anti-Aliasing Filter: On, On
#---------- Source Parameters ----------
# Source Type: Sine
# Source Amplitude: 500.0mVpk
# Source On: 0

#---------- Measurement Data ----------
# [Freq(Hz) Display 0(Vrms/rtHz) Display 1(Vpk) ]
+0.0000000e+000    +3.6536865e-003
+1.6000000e+001    +2.5942095e-003
+3.2000000e+001    +7.9030282e-004
+4.8000000e+001    +2.7291104e-004
+6.4000000e+001    +6.3627888e-004
+8.0000000e+001    +8.0537249e-004
+9.6000000e+001    +6.5046165e-004
+1.1200000e+002    +5.4188661e-004
+1.2800000e+002    +5.3057546e-004
+1.4400000e+002    +5.0375378e-004
+1.6000000e+002    +8.8690949e-004
+1.7600000e+002    +9.1709086e-004
+1.9200000e+002    +9.9734752e-004
+2.0800000e+002    +8.4699114e-004
+2.2400000e+002    +8.2786439e-004
+2.4000000e+002    +8.9708611e-004
+2.5600000e+002    +9.6032512e-004
+2.7200000e+002    +5.1598938e-004
+2.8800000e+002    +6.0414581e-004
+3.0400000e+002    +4.4894937e-004
+3.2000000e+002    +5.2913534e-004
+3.3600000e+002    +4.2710875e-004
+3.5200000e+002    +3.9114055e-004
+3.6800000e+002    +1.0252042e-004
+3.8400000e+002    +2.8565529e-004
+4.0000000e+002    +1.0368356e-003
+4.1600000e+002    +6.2208361e-004
+4.3200000e+002    +5.5385497e-004
+4.4800000e+002    +1.5501183e-003
+4.6400000e+002    +2.2204050e-003
+4.8000000e+002    +1.0985978e-003
+4.9600000e+002    +7.4301881e-004
+5.1200000e+002    +2.1373609e-004
+5.2800000e+002    +2.6485327e-004
+5.4400000e+002    +1.8524467e-003
+5.6000000e+002    +1.8594597e-003
+5.7600000e+002    +1.4828852e-003
+5.9200000e+002    +8.5193053e-004
+6.0800000e+002    +5.6234689e-004
+6.2400000e+002    +5.1936647e-004
+6.4000000e+002    +7.7102677e-004
+6.5600000e+002    +9.0869347e-004
+6.7200000e+002    +9.9195924e-004
+6.8800000e+002    +9.8599086e-004
+7.0400000e+002    +7.8329555e-004
+7.2000000e+002    +3.2485937e-004
+7.3600000e+002    +5.3307816e-004
+7.5200000e+002    +6.3890230e-004
+7.6800000e+002    +2.9130958e-004
+7.8400000e+002    +3.9435268e-004
+8.0000000e+002    +6.7584612e-004
+8.1600000e+002    +4.6723144e-004
+8.3200000e+002    +2.8553128e-004
+8.4800000e+002    +5.2885740e-004
+8.6400000e+002    +1.0663534e-003
+8.8000000e+002    +1.3124255e-003
+8.9600000e+002    +1.2702933e-003
+9.1200000e+002    +1.1213435e-003
+9.2800000e+002    +1.2350067e-003
+9.4400000e+002    +1.3201270e-003
+9.6000000e+002    +1.2755854e-003
+9.7600000e+002    +1.3107967e-003
+9.9200000e+002    +1.3019597e-003
+1.0080000e+003    +9.4470562e-004
+1.0240000e+003    +1.2731201e-003
+1.0400000e+003    +1.2378828e-003
+1.0560000e+003    +5.0484424e-004
+1.0720000e+003    +3.4685791e-004
+1.0880000e+003    +6.3794974e-004
+1.1040000e+003    +6.7484210e-004
+1.1200000e+003    +7.0984982e-004
+1.1360000e+003    +7.4509549e-004
+1.1520000e+003    +2.5841047e-004
+1.1680000e+003    +1.1331015e-003
+1.1840000e+003    +1.7953729e-003
+1.2000000e+003    +1.7067498e-003
+1.2160000e+003    +1.5028863e-003
+1.2320000e+003    +9.8105753e-004
+1.2480000e+003    +9.8167325e-004
+1.2640000e+003    +3.9406723e-004
+1.2800000e+003    +7.2570918e-005
+1.2960000e+003    +6.1450322e-004
+1.3120000e+003    +2.2187612e-003
+1.3280000e+003    +2.5810425e-003
+1.3440000e+003    +2.0311840e-003
+1.3600000e+003    +7.2029728e-004
+1.3760000e+003    +9.4469162e-003
+1.3920000e+003    +1.1676847e-002
+1.4080000e+003    +1.0042074e-002
+1.4240000e+003    +1.1550372e-002
+1.4400000e+003    +1.3125552e-002
+1.4560000e+003    +1.2194577e-002
+1.4720000e+003    +1.1640806e-002
+1.4880000e+003    +2.8010027e-002
+1.5040000e+003    +2.7931318e-002
+1.5200000e+003    +2.1532685e-002
+1.5360000e+003    +1.3873291e-003
+1.5520000e+003    +2.5212704e-003
+1.5680000e+003    +3.0256968e-003
+1.5840000e+003    +3.0964939e-003
+1.6000000e+003    +1.6852444e-003
+1.6160000e+003    +4.4622977e-004
+1.6320000e+003    +8.1512798e-004
+1.6480000e+003    +1.4275523e-003
+1.6640000e+003    +1.0935434e-003
+1.6800000e+003    +9.4808894e-004
+1.6960000e+003    +1.8580800e-003
+1.7120000e+003    +2.4388153e-003
+1.7280000e+003    +1.0295273e-003
+1.7440000e+003    +5.4057926e-004
+1.7600000e+003    +8.1240997e-004
+1.7760000e+003    +9.7294251e-004
+1.7920000e+003    +7.3021743e-004
+1.8080000e+003    +5.2715535e-004
+1.8240000e+003    +1.0607094e-003
+1.8400000e+003    +1.4748388e-003
+1.8560000e+003    +1.8772202e-003
+1.8720000e+003    +7.0308911e-004
+1.8880000e+003    +7.3593610e-004
+1.9040000e+003    +5.4712757e-004
+1.9200000e+003    +1.4859884e-003
+1.9360000e+003    +9.1698213e-004
+1.9520000e+003    +1.2852415e-003
+1.9680000e+003    +8.3726883e-004
+1.9840000e+003    +7.0432224e-004
+2.0000000e+003    +8.8582054e-004
+2.0160000e+003    +6.6887733e-004
+2.0320000e+003    +3.6546172e-004
+2.0480000e+003    +3.7991101e-004
+2.0640000e+003    +1.4989995e-003
+2.0800000e+003    +1.0915772e-003
+2.0960000e+003    +1.1291875e-003
+2.1120000e+003    +1.1350203e-003
+2.1280000e+003    +1.1229982e-003
+2.1440000e+003    +3.9585953e-004
+2.1600000e+003    +2.8902607e-004
+2.1760000e+003    +6.1972108e-004
+2.1920000e+003    +7.6324627e-004
+2.2080000e+003    +6.5534090e-004
+2.2240000e+003    +1.5065375e-003
+2.2400000e+003    +1.6155180e-003
+2.2560000e+003    +1.0629325e-003
+2.2720000e+003    +1.1287351e-003
+2.2880000e+003    +3.4333358e-004
+2.3040000e+003    +9.3608827e-004
+2.3200000e+003    +1.1260855e-003
+2.3360000e+003    +9.3002559e-004
+2.3520000e+003    +4.9961073e-004
+2.3680000e+003    +6.5279944e-004
+2.3840000e+003    +8.0222712e-004
+2.4000000e+003    +2.3775434e-003
+2.4160000e+003    +1.0684037e-003
+2.4320000e+003    +6.8843388e-004
+2.4480000e+003    +5.7625520e-004
+2.4640000e+003    +2.9006738e-003
+2.4800000e+003    +2.4842415e-003
+2.4960000e+003    +2.2536127e-003
+2.5120000e+003    +2.2195580e-003
+2.5280000e+003    +1.8284820e-003
+2.5440000e+003    +9.4001857e-004
+2.5600000e+003    +5.9292954e-004
+2.5760000e+003    +1.0467658e-003
+2.5920000e+003    +6.7292579e-004
+2.6080000e+003    +6.5473968e-004
+2.6240000e+003    +6.1497162e-004
+2.6400000e+003    +3.5903984e-004
+2.6560000e+003    +7.6142949e-004
+2.6720000e+003    +2.1933869e-003
+2.6880000e+003    +1.4376434e-003
+2.7040000e+003    +5.1459699e-004
+2.7200000e+003    +1.2059958e-003
+2.7360000e+003    +2.0670649e-003
+2.7520000e+003    +1.9923726e-003
+2.7680000e+003    +1.0655622e-003
+2.7840000e+003    +6.9109368e-004
+2.8000000e+003    +8.1062794e-004
+2.8160000e+003    +1.5174235e-003
+2.8320000e+003    +1.9907313e-003
+2.8480000e+003    +1.6656613e-003
+2.8640000e+003    +1.6991316e-003
+2.8800000e+003    +3.4843872e-003
+2.8960000e+003    +4.1047684e-003
+2.9120000e+003    +3.6973588e-003
+2.9280000e+003    +2.4816245e-003
+2.9440000e+003    +5.4450333e-004
+2.9600000e+003    +4.1649619e-004
+2.9760000e+003    +6.3399610e-004
+2.9920000e+003    +9.4476109e-004
+3.0080000e+003    +2.2285774e-003
+3.0240000e+003    +1.8534701e-003
+3.0400000e+003    +6.8158860e-004
+3.0560000e+003    +1.7332723e-003
+3.0720000e+003    +7.9658913e-004
+3.0880000e+003    +8.0802967e-004
+3.1040000e+003    +9.9401001e-004
+3.1200000e+003    +1.9124695e-003
+3.1360000e+003    +2.1755772e-003
+3.1520000e+003    +1.4048084e-003
+3.1680000e+003    +2.2309080e-003
+3.1840000e+003    +2.0296457e-003
+3.2000000e+003    +1.2289151e-003
+3.2160000e+003    +1.4956861e-003
+3.2320000e+003    +2.7773003e-003
+3.2480000e+003    +2.2380252e-003
+3.2640000e+003    +9.4373885e-004
+3.2800000e+003    +3.3796078e-003
+3.2960000e+003    +1.8444981e-003
+3.3120000e+003    +2.8198520e-003
+3.3280000e+003    +4.1459543e-003
+3.3440000e+003    +1.1000208e-003
+3.3600000e+003    +1.4584797e-004
+3.3760000e+003    +9.7069482e-004
+3.3920000e+003    +1.5482932e-003
+3.4080000e+003    +1.7142997e-003
+3.4240000e+003    +2.8512792e-003
+3.4400000e+003    +1.9226121e-003
+3.4560000e+003    +1.4789788e-003
+3.4720000e+003    +1.5791379e-003
+3.4880000e+003    +1.2821188e-003
+3.5040000e+003    +1.9766919e-003
+3.5200000e+003    +2.9751400e-003
+3.5360000e+003    +3.5981294e-003
+3.5520000e+003    +1.3308520e-003
+3.5680000e+003    +1.4082761e-003
+3.5840000e+003    +1.7575083e-003
+3.6000000e+003    +2.4499316e-003
+3.6160000e+003    +9.5015438e-004
+3.6320000e+003    +1.8411798e-003
+3.6480000e+003    +1.7881413e-003
+3.6640000e+003    +1.1761306e-003
+3.6800000e+003    +1.1266778e-003
+3.6960000e+003    +1.6308563e-004
+3.7120000e+003    +4.8973132e-004
+3.7280000e+003    +1.1356330e-003
+3.7440000e+003    +1.4524718e-003
+3.7600000e+003    +7.0292549e-004
+3.7760000e+003    +2.2300740e-003
+3.7920000e+003    +2.7321849e-003
+3.8080000e+003    +1.5683075e-003
+3.8240000e+003    +2.0069431e-003
+3.8400000e+003    +2.5948177e-003
+3.8560000e+003    +2.0662537e-003
+3.8720000e+003    +9.4651838e-004
+3.8880000e+003    +7.2265707e-004
+3.9040000e+003    +2.8239463e-003
+3.9200000e+003    +2.6497035e-003
+3.9360000e+003    +5.6433852e-004
+3.9520000e+003    +3.7969875e-003
+3.9680000e+003    +1.7867753e-003
+3.9840000e+003    +3.8103892e-003
+4.0000000e+003    +1.9379414e-003
+4.0160000e+003    +8.4170827e-004
+4.0320000e+003    +1.5762468e-003
+4.0480000e+003    +3.0442344e-003
+4.0640000e+003    +1.8490745e-003
+4.0800000e+003    +1.5132416e-003
+4.0960000e+003    +3.4371000e-003
+4.1120000e+003    +1.4913414e-002
+4.1280000e+003    +5.2318363e-003
+4.1440000e+003    +2.3476332e-003
+4.1600000e+003    +2.5450336e-003
+4.1760000e+003    +6.1110072e-003
+4.1920000e+003    +3.3469421e-003
+4.2080000e+003    +2.7762561e-003
+4.2240000e+003    +6.6968710e-003
+4.2400000e+003    +4.5984655e-004
+4.2560000e+003    +1.8014201e-003
+4.2720000e+003    +3.2227766e-003
+4.2880000e+003    +2.0688076e-003
+4.3040000e+003    +8.9619710e-004
+4.3200000e+003    +3.3261322e-003
+4.3360000e+003    +2.8399783e-003
+4.3520000e+003    +4.4860840e-003
+4.3680000e+003    +8.3610676e-003
+4.3840000e+003    +6.4261060e-004
+4.4000000e+003    +6.6126994e-004
+4.4160000e+003    +1.5206583e-003
+4.4320000e+003    +2.2012880e-003
+4.4480000e+003    +1.3361837e-003
+4.4640000e+003    +4.4764797e-004
+4.4800000e+003    +1.0621800e-003
+4.4960000e+003    +1.5301293e-003
+4.5120000e+003    +6.6534942e-004
+4.5280000e+003    +7.7799434e-004
+4.5440000e+003    +1.2765430e-003
+4.5600000e+003    +1.2985541e-003
+4.5760000e+003    +1.3018796e-003
+4.5920000e+003    +1.4633004e-003
+4.6080000e+003    +4.7769961e-003
+4.6240000e+003    +4.0352391e-003
+4.6400000e+003    +2.9268558e-003
+4.6560000e+003    +1.6773518e-003
+4.6720000e+003    +1.9730793e-003
+4.6880000e+003    +2.9596072e-003
+4.7040000e+003    +2.0869642e-003
+4.7200000e+003    +1.7514941e-003
+4.7360000e+003    +1.6680222e-003
+4.7520000e+003    +2.3742265e-003
+4.7680000e+003    +2.0909929e-003
+4.7840000e+003    +9.7257725e-004
+4.8000000e+003    +7.6055847e-004
+4.8160000e+003    +1.8098725e-004
+4.8320000e+003    +3.3830845e-004
+4.8480000e+003    +3.1688120e-004
+4.8640000e+003    +1.1397051e-003
+4.8800000e+003    +5.6779356e-004
+4.8960000e+003    +6.9600105e-004
+4.9120000e+003    +4.9392198e-004
+4.9280000e+003    +1.0324954e-003
+4.9440000e+003    +1.0690310e-003
+4.9600000e+003    +5.9318152e-004
+4.9760000e+003    +2.4363931e-004
+4.9920000e+003    +5.3702976e-004
+5.0080000e+003    +3.7969771e-004
+5.0240000e+003    +7.3739159e-004
+5.0400000e+003    +4.1292026e-004
+5.0560000e+003    +5.0123158e-004
+5.0720000e+003    +8.0115942e-004
+5.0880000e+003    +8.3026482e-004
+5.1040000e+003    +4.6620067e-004
+5.1200000e+003    +8.9124567e-004
+5.1360000e+003    +7.2677847e-004
+5.1520000e+003    +1.0937625e-003
+5.1680000e+003    +7.1852439e-004
+5.1840000e+003    +5.6150719e-004
+5.2000000e+003    +9.8833465e-004
+5.2160000e+003    +2.0555777e-003
+5.2320000e+003    +1.8681044e-003
+5.2480000e+003    +9.4686815e-004
+5.2640000e+003    +6.4009492e-004
+5.2800000e+003    +3.5596406e-004
+5.2960000e+003    +1.3723812e-003
+5.3120000e+003    +1.3114812e-003
+5.3280000e+003    +9.6056558e-004
+5.3440000e+003    +8.7859749e-004
+5.3600000e+003    +7.3221209e-004
+5.3760000e+003    +2.3793883e-003
+5.3920000e+003    +2.0708973e-003
+5.4080000e+003    +1.3651368e-003
+5.4240000e+003    +5.7253842e-003
+5.4400000e+003    +8.1637474e-003
+5.4560000e+003    +7.3899399e-003
+5.4720000e+003    +3.1362013e-003
+5.4880000e+003    +5.5973874e-003
+5.5040000e+003    +2.8150957e-003
+5.5200000e+003    +1.5807997e-003
+5.5360000e+003    +3.3009511e-003
+5.5520000e+003    +3.5285649e-003
+5.5680000e+003    +3.3664475e-003
+5.5840000e+003    +2.9079237e-003
+5.6000000e+003    +2.1844285e-003
+5.6160000e+003    +6.5408618e-004
+5.6320000e+003    +1.0219709e-003
+5.6480000e+003    +1.6815588e-003
+5.6640000e+003    +1.2463224e-003
+5.6800000e+003    +7.7536784e-004
+5.6960000e+003    +1.0674030e-003
+5.7120000e+003    +2.1230867e-003
+5.7280000e+003    +1.3220068e-003
+5.7440000e+003    +1.3208729e-003
+5.7600000e+003    +2.2399612e-003
+5.7760000e+003    +3.9625522e-003
+5.7920000e+003    +4.0400028e-003
+5.8080000e+003    +3.1115115e-003
+5.8240000e+003    +2.5149998e-003
+5.8400000e+003    +1.2402309e-003
+5.8560000e+003    +9.5528155e-004
+5.8720000e+003    +1.4503977e-003
+5.8880000e+003    +1.6873430e-003
+5.9040000e+003    +5.3072174e-004
+5.9200000e+003    +1.0549040e-003
+5.9360000e+003    +7.4082264e-004
+5.9520000e+003    +7.9569622e-004
+5.9680000e+003    +1.1388145e-003
+5.9840000e+003    +4.9542671e-004
+6.0000000e+003    +2.7623362e-004
+6.0160000e+003    +1.4506844e-004
+6.0320000e+003    +1.4692668e-003
+6.0480000e+003    +8.6374232e-004
+6.0640000e+003    +1.9772986e-003
+6.0800000e+003    +1.9502833e-003
+6.0960000e+003    +1.1780575e-003
+6.1120000e+003    +8.1163301e-004
+6.1280000e+003    +1.6909846e-003
+6.1440000e+003    +1.5060670e-003
+6.1600000e+003    +3.9361796e-004
+6.1760000e+003    +1.5998654e-003
+6.1920000e+003    +1.9098246e-003
+6.2080000e+003    +1.5214991e-003
+6.2240000e+003    +1.5728859e-003
+6.2400000e+003    +1.9974967e-003
+6.2560000e+003    +1.5730595e-003
+6.2720000e+003    +1.2983546e-003
+6.2880000e+003    +9.7032241e-004
+6.3040000e+003    +7.6619547e-004
+6.3200000e+003    +1.7054339e-005
+6.3360000e+003    +6.6775759e-004
+6.3520000e+003    +1.2329067e-003
+6.3680000e+003    +1.8135725e-003
+6.3840000e+003    +1.7860309e-003
+6.4000000e+003    +8.5564272e-004
+6.4160000e+003    +1.0782717e-003
+6.4320000e+003    +1.1141952e-003
+6.4480000e+003    +7.3641259e-004
+6.4640000e+003    +2.0734328e-003
+6.4800000e+003    +3.1505034e-003
+6.4960000e+003    +3.1705485e-003
+6.5120000e+003    +2.4943650e-003
+6.5280000e+003    +7.0485834e-004
+6.5440000e+003    +8.8198321e-005
+6.5600000e+003    +1.2082761e-003
+6.5760000e+003    +1.5315731e-003
+6.5920000e+003    +8.3757134e-004
+6.6080000e+003    +1.6105281e-003
+6.6240000e+003    +6.3962140e-004
+6.6400000e+003    +1.0806575e-003
+6.6560000e+003    +9.8045554e-004
+6.6720000e+003    +5.7550089e-004
+6.6880000e+003    +6.1340479e-004
+6.7040000e+003    +8.3579973e-004
+6.7200000e+003    +1.1636001e-003
+6.7360000e+003    +8.0490886e-004
+6.7520000e+003    +2.2936468e-003
+6.7680000e+003    +1.5351659e-003
+6.7840000e+003    +1.0151691e-003
+6.8000000e+003    +1.2869826e-003
+6.8160000e+003    +1.2002423e-003
+6.8320000e+003    +1.0354659e-003
+6.8480000e+003    +8.4374851e-004
+6.8640000e+003    +2.6676428e-004
+6.8800000e+003    +4.2774604e-004
+6.8960000e+003    +5.4418331e-004
+6.9120000e+003    +4.2327226e-004
+6.9280000e+003    +3.0308487e-004
+6.9440000e+003    +8.7761070e-004
+6.9600000e+003    +5.4311688e-004
+6.9760000e+003    +6.8784837e-004
+6.9920000e+003    +1.9951296e-004
+7.0080000e+003    +7.5410423e-004
+7.0240000e+003    +8.5712929e-004
+7.0400000e+003    +5.8183592e-004
+7.0560000e+003    +4.8758037e-004
+7.0720000e+003    +5.9677643e-004
+7.0880000e+003    +1.6471241e-003
+7.1040000e+003    +1.3551833e-003
+7.1200000e+003    +1.6402355e-003
+7.1360000e+003    +2.2483978e-003
+7.1520000e+003    +1.0150599e-003
+7.1680000e+003    +2.2014137e-003
+7.1840000e+003    +2.6193028e-003
+7.2000000e+003    +1.8341019e-003
+7.2160000e+003    +8.0817606e-004
+7.2320000e+003    +1.0995759e-003
+7.2480000e+003    +1.1538632e-003
+7.2640000e+003    +1.6720204e-003
+7.2800000e+003    +1.3819291e-003
+7.2960000e+003    +9.8359096e-004
+7.3120000e+003    +1.9093297e-003
+7.3280000e+003    +2.0910732e-003
+7.3440000e+003    +1.0278083e-003
+7.3600000e+003    +4.8562576e-004
+7.3760000e+003    +1.9653346e-003
+7.3920000e+003    +1.9442211e-003
+7.4080000e+003    +1.2901786e-003
+7.4240000e+003    +2.0415392e-003
+7.4400000e+003    +1.2564196e-003
+7.4560000e+003    +1.6836491e-003
+7.4720000e+003    +6.2995666e-004
+7.4880000e+003    +1.4216750e-003
+7.5040000e+003    +2.4400554e-003
+7.5200000e+003    +1.3649975e-003
+7.5360000e+003    +1.8313088e-003
+7.5520000e+003    +2.4197816e-003
+7.5680000e+003    +2.2563783e-003
+7.5840000e+003    +1.8107352e-003
+7.6000000e+003    +2.5654242e-003
+7.6160000e+003    +3.2943089e-003
+7.6320000e+003    +3.0697028e-003
+7.6480000e+003    +2.3887921e-003
+7.6640000e+003    +6.3341617e-004
+7.6800000e+003    +9.2431466e-004
+7.6960000e+003    +1.3866620e-003
+7.7120000e+003    +1.4499240e-003
+7.7280000e+003    +5.5992469e-004
+7.7440000e+003    +2.8166757e-004
+7.7600000e+003    +1.1471757e-003
+7.7760000e+003    +1.8036347e-003
+7.7920000e+003    +9.3200867e-004
+7.8080000e+003    +1.1423680e-003
+7.8240000e+003    +8.3512551e-004
+7.8400000e+003    +7.1618432e-004
+7.8560000e+003    +1.3921203e-003
+7.8720000e+003    +1.4793465e-003
+7.8880000e+003    +2.0372178e-003
+7.9040000e+003    +1.9218080e-003
+7.9200000e+003    +7.3402963e-004
+7.9360000e+003    +4.9305073e-004
+7.9520000e+003    +7.0360693e-004
+7.9680000e+003    +5.2003947e-004
+7.9840000e+003    +6.9908291e-004
+8.0000000e+003    +4.4348065e-004
+8.0160000e+003    +8.1270351e-004
+8.0320000e+003    +9.2880253e-004
+8.0480000e+003    +6.4450601e-004
+8.0640000e+003    +9.8869775e-004
+8.0800000e+003    +1.0258274e-003
+8.0960000e+003    +6.4546807e-004
+8.1120000e+003    +7.2156807e-004
+8.1280000e+003    +1.3921707e-004
+8.1440000e+003    +4.6502333e-004
+8.1600000e+003    +8.5185008e-004
+8.1760000e+003    +1.7010421e-003
+8.1920000e+003    +1.0631917e-003
+8.2080000e+003    +1.0527183e-003
+8.2240000e+003    +1.7176477e-003
+8.2400000e+003    +2.2852586e-003
+8.2560000e+003    +6.6832820e-004
+8.2720000e+003    +1.1304907e-003
+8.2880000e+003    +1.6135104e-003
+8.3040000e+003    +1.6021207e-003
+8.3200000e+003    +6.7481841e-004
+8.3360000e+003    +5.8840995e-004
+8.3520000e+003    +1.4684137e-004
+8.3680000e+003    +6.3824572e-004
+8.3840000e+003    +1.1678245e-003
+8.4000000e+003    +7.7337911e-004
+8.4160000e+003    +2.8094946e-004
+8.4320000e+003    +5.9363176e-004
+8.4480000e+003    +9.4873819e-004
+8.4640000e+003    +4.0606126e-005
+8.4800000e+003    +7.9611130e-004
+8.4960000e+003    +8.3414634e-004
+8.5120000e+003    +6.4360054e-004
+8.5280000e+003    +6.4414315e-004
+8.5440000e+003    +6.0044555e-004
+8.5600000e+003    +1.1317488e-003
+8.5760000e+003    +1.7145708e-003
+8.5920000e+003    +1.7040862e-003
+8.6080000e+003    +2.9833799e-003
+8.6240000e+003    +2.2518975e-003
+8.6400000e+003    +1.1033721e-003
+8.6560000e+003    +1.3989464e-003
+8.6720000e+003    +2.5651101e-003
+8.6880000e+003    +4.0812939e-003
+8.7040000e+003    +5.5692131e-003
+8.7200000e+003    +5.2224011e-003
+8.7360000e+003    +4.0978291e-003
+8.7520000e+003    +2.9542521e-003
+8.7680000e+003    +3.5525931e-004
+8.7840000e+003    +2.2416476e-003
+8.8000000e+003    +2.1822865e-003
+8.8160000e+003    +2.6698213e-003
+8.8320000e+003    +2.6587739e-003
+8.8480000e+003    +2.5904069e-003
+8.8640000e+003    +1.7549263e-003
+8.8800000e+003    +2.2689253e-003
+8.8960000e+003    +1.4042895e-003
+8.9120000e+003    +8.8602380e-004
+8.9280000e+003    +4.3449664e-004
+8.9440000e+003    +8.4511976e-004
+8.9600000e+003    +5.5643357e-004
+8.9760000e+003    +4.2591788e-004
+8.9920000e+003    +1.3474955e-003
+9.0080000e+003    +1.2392324e-003
+9.0240000e+003    +1.6464063e-003
+9.0400000e+003    +3.0201194e-003
+9.0560000e+003    +3.1537081e-003
+9.0720000e+003    +2.7772712e-003
+9.0880000e+003    +1.7537051e-003
+9.1040000e+003    +2.6359016e-003
+9.1200000e+003    +1.7238418e-003
+9.1360000e+003    +6.6923286e-004
+9.1520000e+003    +6.1206700e-004
+9.1680000e+003    +1.0523641e-003
+9.1840000e+003    +1.1160594e-003
+9.2000000e+003    +7.9485407e-004
+9.2160000e+003    +1.0686290e-004
+9.2320000e+003    +4.1115770e-004
+9.2480000e+003    +1.9833660e-003
+9.2640000e+003    +1.4281841e-003
+9.2800000e+003    +1.1478863e-003
+9.2960000e+003    +1.3174873e-003
+9.3120000e+003    +7.1693095e-004
+9.3280000e+003    +4.3654972e-004
+9.3440000e+003    +9.3476544e-004
+9.3600000e+003    +1.3492514e-003
+9.3760000e+003    +2.1689776e-003
+9.3920000e+003    +2.2188660e-003
+9.4080000e+003    +2.1582828e-003
+9.4240000e+003    +2.0962097e-003
+9.4400000e+003    +2.3294240e-003
+9.4560000e+003    +8.8529545e-004
+9.4720000e+003    +1.0419881e-003
+9.4880000e+003    +2.7050669e-003
+9.5040000e+003    +3.2424573e-003
+9.5200000e+003    +2.7096120e-004
+9.5360000e+003    +5.4080989e-003
+9.5520000e+003    +6.0452102e-003
+9.5680000e+003    +7.9092477e-003
+9.5840000e+003    +2.6372839e-003
+9.6000000e+003    +4.0950067e-003
+9.6160000e+003    +4.7345287e-003
+9.6320000e+003    +4.9170135e-003
+9.6480000e+003    +1.1333125e-002
+9.6640000e+003    +1.7121736e-002
+9.6800000e+003    +2.2086617e-002
+9.6960000e+003    +1.8769421e-002
+9.7120000e+003    +2.1144629e-003
+9.7280000e+003    +4.3151504e-003
+9.7440000e+003    +5.8120224e-003
+9.7600000e+003    +5.4113241e-003
+9.7760000e+003    +3.3662331e-003
+9.7920000e+003    +2.8121595e-003
+9.8080000e+003    +2.8893326e-003
+9.8240000e+003    +3.5819388e-003
+9.8400000e+003    +4.7738841e-003
+9.8560000e+003    +2.5578302e-003
+9.8720000e+003    +8.2758901e-004
+9.8880000e+003    +2.7338534e-003
+9.9040000e+003    +3.8885439e-003
+9.9200000e+003    +7.8320957e-004
+9.9360000e+003    +9.6922356e-004
+9.9520000e+003    +2.5701267e-003
+9.9680000e+003    +3.4632629e-003
+9.9840000e+003    +2.1703569e-003
+1.0000000e+004    +2.1840509e-003
+1.0016000e+004    +1.4622590e-003
+1.0032000e+004    +6.5893581e-004
+1.0048000e+004    +1.3708338e-003
+1.0064000e+004    +1.8436061e-003
+1.0080000e+004    +1.9061961e-003
+1.0096000e+004    +1.4801362e-003
+1.0112000e+004    +1.8763022e-003
+1.0128000e+004    +7.6018443e-004
+1.0144000e+004    +7.9916514e-005
+1.0160000e+004    +9.0298516e-004
+1.0176000e+004    +1.4306026e-003
+1.0192000e+004    +9.9605240e-004
+1.0208000e+004    +3.6438490e-004
+1.0224000e+004    +8.7108993e-004
+1.0240000e+004    +1.2321353e-003
+1.0256000e+004    +1.5057818e-003
+1.0272000e+004    +8.8527263e-004
+1.0288000e+004    +6.0782849e-004
+1.0304000e+004    +4.9917732e-004
+1.0320000e+004    +1.0548860e-003
+1.0336000e+004    +1.0539164e-003
+1.0352000e+004    +4.2347680e-004
+1.0368000e+004    +6.9533195e-004
+1.0384000e+004    +9.0129435e-004
+1.0400000e+004    +1.9338307e-003
+1.0416000e+004    +2.1041143e-003
+1.0432000e+004    +1.7004873e-003
+1.0448000e+004    +1.1421039e-003
+1.0464000e+004    +8.8953873e-004
+1.0480000e+004    +4.9136567e-004
+1.0496000e+004    +6.1209587e-004
+1.0512000e+004    +1.2255425e-003
+1.0528000e+004    +2.6268268e-003
+1.0544000e+004    +2.9675108e-003
+1.0560000e+004    +1.9585276e-003
+1.0576000e+004    +4.7556078e-004
+1.0592000e+004    +1.1769334e-003
+1.0608000e+004    +1.5467436e-003
+1.0624000e+004    +1.2601020e-003
+1.0640000e+004    +9.8244101e-004
+1.0656000e+004    +2.4409316e-004
+1.0672000e+004    +9.6473208e-004
+1.0688000e+004    +8.3864428e-004
+1.0704000e+004    +3.9639667e-004
+1.0720000e+004    +5.3778087e-004
+1.0736000e+004    +9.2945900e-004
+1.0752000e+004    +1.0396660e-003
+1.0768000e+004    +4.2052948e-004
+1.0784000e+004    +2.3487807e-004
+1.0800000e+004    +4.0439013e-004
+1.0816000e+004    +2.3736570e-003
+1.0832000e+004    +1.8087174e-003
+1.0848000e+004    +1.1598252e-003
+1.0864000e+004    +9.8419376e-004
+1.0880000e+004    +5.9514289e-004
+1.0896000e+004    +4.5023576e-004
+1.0912000e+004    +4.6727940e-004
+1.0928000e+004    +6.8684050e-005
+1.0944000e+004    +5.7593739e-004
+1.0960000e+004    +3.1670084e-004
+1.0976000e+004    +6.3992346e-005
+1.0992000e+004    +1.8013795e-004
+1.1008000e+004    +2.7894863e-004
+1.1024000e+004    +5.7354983e-004
+1.1040000e+004    +8.5953338e-004
+1.1056000e+004    +7.9221022e-004
+1.1072000e+004    +3.9227467e-004
+1.1088000e+004    +1.0014889e-003
+1.1104000e+004    +1.4189919e-003
+1.1120000e+004    +1.1961772e-003
+1.1136000e+004    +5.8265071e-004
+1.1152000e+004    +6.1352766e-004
+1.1168000e+004    +4.6369416e-004
+1.1184000e+004    +7.7932887e-004
+1.1200000e+004    +6.4591755e-004
+1.1216000e+004    +1.0637842e-003
+1.1232000e+004    +8.4569247e-004
+1.1248000e+004    +8.7393518e-004
+1.1264000e+004    +6.7339622e-004
+1.1280000e+004    +4.7092134e-004
+1.1296000e+004    +6.8993709e-004
+1.1312000e+004    +8.7858061e-004
+1.1328000e+004    +1.1225254e-003
+1.1344000e+004    +1.5229365e-003
+1.1360000e+004    +4.1746127e-004
+1.1376000e+004    +3.8163681e-004
+1.1392000e+004    +7.6112151e-004
+1.1408000e+004    +1.2927855e-003
+1.1424000e+004    +5.8992981e-004
+1.1440000e+004    +1.3822918e-003
+1.1456000e+004    +1.2157522e-003
+1.1472000e+004    +4.9283478e-004
+1.1488000e+004    +7.5418293e-004
+1.1504000e+004    +1.6701149e-003
+1.1520000e+004    +1.2240941e-003
+1.1536000e+004    +1.0979635e-003
+1.1552000e+004    +1.4760700e-003
+1.1568000e+004    +7.0508168e-004
+1.1584000e+004    +2.0270536e-004
+1.1600000e+004    +5.5943523e-004
+1.1616000e+004    +2.7452954e-004
+1.1632000e+004    +4.9898907e-004
+1.1648000e+004    +9.5360586e-004
+1.1664000e+004    +1.2220959e-003
+1.1680000e+004    +6.8252621e-004
+1.1696000e+004    +8.0942333e-004
+1.1712000e+004    +3.1387041e-004
+1.1728000e+004    +1.0105751e-003
+1.1744000e+004    +1.4733118e-003
+1.1760000e+004    +1.3936274e-003
+1.1776000e+004    +5.7867978e-004
+1.1792000e+004    +5.6389690e-004
+1.1808000e+004    +4.1760385e-004
+1.1824000e+004    +4.3075506e-004
+1.1840000e+004    +1.1393029e-004
+1.1856000e+004    +4.5324321e-004
+1.1872000e+004    +2.0470451e-004
+1.1888000e+004    +6.8094081e-004
+1.1904000e+004    +6.3788070e-004
+1.1920000e+004    +8.5093727e-004
+1.1936000e+004    +7.8741641e-004
+1.1952000e+004    +5.3003547e-004
+1.1968000e+004    +6.4167922e-004
+1.1984000e+004    +5.0656911e-004
+1.2000000e+004    +1.6839552e-004
+1.2016000e+004    +5.3329009e-004
+1.2032000e+004    +6.0645328e-004
+1.2048000e+004    +7.4321422e-004
+1.2064000e+004    +5.6523428e-004
+1.2080000e+004    +7.5837708e-004
+1.2096000e+004    +1.2386224e-003
+1.2112000e+004    +8.4953837e-004
+1.2128000e+004    +6.4075238e-004
+1.2144000e+004    +7.0316670e-004
+1.2160000e+004    +9.9680014e-004
+1.2176000e+004    +8.3126361e-004
+1.2192000e+004    +3.7360156e-004
+1.2208000e+004    +5.0382043e-004
+1.2224000e+004    +1.9264716e-004
+1.2240000e+004    +4.4551675e-004
+1.2256000e+004    +3.2446103e-004
+1.2272000e+004    +3.8401753e-004
+1.2288000e+004    +6.6519348e-004
+1.2304000e+004    +8.2319422e-004
+1.2320000e+004    +8.0603466e-004
+1.2336000e+004    +5.9388962e-004
+1.2352000e+004    +2.4626785e-004
+1.2368000e+004    +2.1133141e-004
+1.2384000e+004    +4.8719937e-004
+1.2400000e+004    +2.6409552e-004
+1.2416000e+004    +1.3002504e-004
+1.2432000e+004    +2.2524946e-004
+1.2448000e+004    +3.4775480e-004
+1.2464000e+004    +1.7013651e-003
+1.2480000e+004    +1.1182942e-003
+1.2496000e+004    +8.0672128e-004
+1.2512000e+004    +1.4877287e-003
+1.2528000e+004    +1.0225405e-003
+1.2544000e+004    +8.6496421e-004
+1.2560000e+004    +5.5405230e-004
+1.2576000e+004    +5.1917316e-004
+1.2592000e+004    +5.7767803e-004
+1.2608000e+004    +2.1510248e-003
+1.2624000e+004    +2.4334323e-003
+1.2640000e+004    +2.1093860e-003
+1.2656000e+004    +1.4628571e-003
+1.2672000e+004    +3.1717445e-004
+1.2688000e+004    +2.1788233e-003
+1.2704000e+004    +1.5257935e-003
+1.2720000e+004    +2.7510314e-004
+1.2736000e+004    +4.6546315e-003
+1.2752000e+004    +3.2629191e-003
+1.2768000e+004    +2.2347323e-003
+1.2784000e+004    +4.0307181e-004
