# SR785 Measurement - Timestamp: Jan 25 2019 - 22:52:12
#---------- Measurement Setup ------------
# Start Frequency (Hz): 0.000000
# Frequency Span (Hz): 12800.000000
# Frequency Resolution: 800
# Number of Averages: 2
# Averaging Mode: None
# Window function: BMH
#---------- Measurement Parameters ----------
# Measurement Group:  "FFT" "FFT"
# Measurements:  "FFT 1" "FFT 2"
# View:  "Log Magnitude" "Log Magnitude"
# Unit:  "Vrms/rtHz" "Vpk"
#---------- Input Parameters ----------
# Input Source: Analog
# Input Mode: Single ended, Single ended
# Input Grounding: Float, Float
# Input Coupling: AC, AC
# Input Range: 6.0dBVpk, 6.0dBVpk
# Auto Range: Off, Off
# Auto Range Mode: Up Only, Normal
# Anti-Aliasing Filter: On, On
#---------- Source Parameters ----------
# Source Type: Sine
# Source Amplitude: 500.0mVpk
# Source On: 0

#---------- Measurement Data ----------
# [Freq(Hz) Display 0(Vrms/rtHz) Display 1(Vpk) ]
+0.0000000e+000    +6.7310795e-002
+1.6000000e+001    +5.1664967e-002
+3.2000000e+001    +2.1711495e-002
+4.8000000e+001    +1.0778047e-003
+6.4000000e+001    +9.2459482e-004
+8.0000000e+001    +4.6252468e-004
+9.6000000e+001    +1.3468513e-004
+1.1200000e+002    +9.6539166e-005
+1.2800000e+002    +2.8482472e-004
+1.4400000e+002    +7.8146324e-005
+1.6000000e+002    +2.4239166e-004
+1.7600000e+002    +5.9240311e-004
+1.9200000e+002    +4.6980503e-004
+2.0800000e+002    +2.4629707e-004
+2.2400000e+002    +4.1091174e-005
+2.4000000e+002    +8.3151557e-005
+2.5600000e+002    +8.6998785e-005
+2.7200000e+002    +3.3310149e-004
+2.8800000e+002    +4.5864118e-004
+3.0400000e+002    +4.7349394e-004
+3.2000000e+002    +2.8867926e-004
+3.3600000e+002    +1.9994727e-004
+3.5200000e+002    +1.7107009e-004
+3.6800000e+002    +7.9142512e-005
+3.8400000e+002    +1.2803786e-004
+4.0000000e+002    +2.0777161e-004
+4.1600000e+002    +2.5547962e-004
+4.3200000e+002    +2.2178917e-004
+4.4800000e+002    +1.1526912e-004
+4.6400000e+002    +7.7702884e-005
+4.8000000e+002    +8.7713343e-005
+4.9600000e+002    +3.8974558e-005
+5.1200000e+002    +8.0135564e-005
+5.2800000e+002    +1.4898242e-004
+5.4400000e+002    +1.3511875e-004
+5.6000000e+002    +1.0295991e-004
+5.7600000e+002    +6.6180888e-005
+5.9200000e+002    +4.3961125e-005
+6.0800000e+002    +1.1610854e-005
+6.2400000e+002    +6.7334629e-005
+6.4000000e+002    +4.9468235e-004
+6.5600000e+002    +4.2964151e-004
+6.7200000e+002    +2.6781505e-004
+6.8800000e+002    +1.5559884e-004
+7.0400000e+002    +4.8780072e-005
+7.2000000e+002    +4.8690232e-005
+7.3600000e+002    +6.4480046e-005
+7.5200000e+002    +1.2904294e-004
+7.6800000e+002    +1.4641804e-004
+7.8400000e+002    +1.3694950e-004
+8.0000000e+002    +1.1768488e-004
+8.1600000e+002    +6.1168874e-005
+8.3200000e+002    +6.6902421e-006
+8.4800000e+002    +1.1803097e-004
+8.6400000e+002    +1.4436519e-004
+8.8000000e+002    +1.2933776e-004
+8.9600000e+002    +1.8809132e-004
+9.1200000e+002    +3.0720359e-004
+9.2800000e+002    +2.2932189e-004
+9.4400000e+002    +4.0901134e-005
+9.6000000e+002    +1.2744172e-004
+9.7600000e+002    +1.4170808e-004
+9.9200000e+002    +9.0107911e-005
+1.0080000e+003    +4.0173709e-005
+1.0240000e+003    +1.3165813e-004
+1.0400000e+003    +2.1651968e-004
+1.0560000e+003    +1.4006816e-004
+1.0720000e+003    +8.6573427e-006
+1.0880000e+003    +1.0671170e-004
+1.1040000e+003    +7.4080883e-005
+1.1200000e+003    +6.2650921e-005
+1.1360000e+003    +5.0653216e-005
+1.1520000e+003    +6.6696331e-005
+1.1680000e+003    +5.5208668e-005
+1.1840000e+003    +2.9855491e-005
+1.2000000e+003    +7.2705217e-005
+1.2160000e+003    +9.8404787e-005
+1.2320000e+003    +6.8059475e-005
+1.2480000e+003    +6.8719957e-005
+1.2640000e+003    +1.4246705e-004
+1.2800000e+003    +1.2417501e-004
+1.2960000e+003    +1.1005264e-004
+1.3120000e+003    +9.8534634e-005
+1.3280000e+003    +1.5025695e-004
+1.3440000e+003    +1.1777711e-004
+1.3600000e+003    +5.6907986e-005
+1.3760000e+003    +3.6936057e-005
+1.3920000e+003    +8.6384003e-005
+1.4080000e+003    +7.6078315e-005
+1.4240000e+003    +7.9993064e-005
+1.4400000e+003    +1.6067740e-004
+1.4560000e+003    +3.3082240e-004
+1.4720000e+003    +3.7214125e-004
+1.4880000e+003    +9.8929442e-005
+1.5040000e+003    +1.0812723e-004
+1.5200000e+003    +1.7102878e-004
+1.5360000e+003    +1.5482107e-004
+1.5520000e+003    +1.2597583e-004
+1.5680000e+003    +8.4568834e-005
+1.5840000e+003    +5.9971717e-005
+1.6000000e+003    +1.2201384e-004
+1.6160000e+003    +1.5727426e-004
+1.6320000e+003    +1.4547349e-004
+1.6480000e+003    +1.1431980e-004
+1.6640000e+003    +4.2728370e-005
+1.6800000e+003    +4.3422457e-005
+1.6960000e+003    +3.8546688e-005
+1.7120000e+003    +2.3133767e-005
+1.7280000e+003    +3.5658191e-005
+1.7440000e+003    +4.3754015e-005
+1.7600000e+003    +7.2467010e-005
+1.7760000e+003    +1.3881175e-004
+1.7920000e+003    +1.4991181e-004
+1.8080000e+003    +1.1438377e-004
+1.8240000e+003    +8.5778360e-005
+1.8400000e+003    +3.8962280e-005
+1.8560000e+003    +3.1312586e-005
+1.8720000e+003    +6.6324261e-005
+1.8880000e+003    +1.0943349e-004
+1.9040000e+003    +9.4391762e-006
+1.9200000e+003    +2.5659792e-006
+1.9360000e+003    +6.6156550e-005
+1.9520000e+003    +1.2432467e-004
+1.9680000e+003    +7.8844161e-005
+1.9840000e+003    +9.9568555e-005
+2.0000000e+003    +9.0729176e-005
+2.0160000e+003    +5.2510924e-005
+2.0320000e+003    +4.3652577e-005
+2.0480000e+003    +1.1311239e-004
+2.0640000e+003    +8.6469787e-005
+2.0800000e+003    +3.6335838e-005
+2.0960000e+003    +1.0121130e-005
+2.1120000e+003    +8.8448811e-005
+2.1280000e+003    +5.5030014e-005
+2.1440000e+003    +3.3671295e-005
+2.1600000e+003    +5.4012155e-005
+2.1760000e+003    +7.6356897e-005
+2.1920000e+003    +8.8367080e-005
+2.2080000e+003    +8.3241168e-005
+2.2240000e+003    +5.6656612e-005
+2.2400000e+003    +3.3734130e-005
+2.2560000e+003    +5.7175665e-005
+2.2720000e+003    +1.6769431e-005
+2.2880000e+003    +4.4256787e-005
+2.3040000e+003    +6.0489583e-005
+2.3200000e+003    +8.0786376e-005
+2.3360000e+003    +7.4388656e-005
+2.3520000e+003    +6.1814855e-005
+2.3680000e+003    +1.9068973e-005
+2.3840000e+003    +4.5905254e-005
+2.4000000e+003    +1.1364568e-004
+2.4160000e+003    +1.1398572e-004
+2.4320000e+003    +1.2630115e-004
+2.4480000e+003    +1.3749332e-004
+2.4640000e+003    +9.3726791e-005
+2.4800000e+003    +9.4645497e-005
+2.4960000e+003    +7.8611723e-005
+2.5120000e+003    +5.3215947e-005
+2.5280000e+003    +2.9357952e-005
+2.5440000e+003    +4.4201184e-005
+2.5600000e+003    +3.1028667e-005
+2.5760000e+003    +2.5693960e-005
+2.5920000e+003    +4.4368057e-006
+2.6080000e+003    +5.4062348e-005
+2.6240000e+003    +1.1523571e-004
+2.6400000e+003    +1.6817426e-004
+2.6560000e+003    +1.2328234e-004
+2.6720000e+003    +6.5455424e-005
+2.6880000e+003    +9.6386655e-005
+2.7040000e+003    +4.7629026e-005
+2.7200000e+003    +5.1359904e-005
+2.7360000e+003    +1.5035960e-004
+2.7520000e+003    +8.2053899e-005
+2.7680000e+003    +4.3995744e-005
+2.7840000e+003    +1.5099091e-005
+2.8000000e+003    +7.5932272e-005
+2.8160000e+003    +1.3443214e-004
+2.8320000e+003    +1.2434275e-004
+2.8480000e+003    +8.5501160e-005
+2.8640000e+003    +1.0244880e-004
+2.8800000e+003    +1.0315810e-004
+2.8960000e+003    +4.1654213e-005
+2.9120000e+003    +1.6357017e-005
+2.9280000e+003    +7.7289696e-006
+2.9440000e+003    +5.7879159e-005
+2.9600000e+003    +9.4295116e-005
+2.9760000e+003    +8.9197005e-005
+2.9920000e+003    +7.8064346e-005
+3.0080000e+003    +1.0011063e-004
+3.0240000e+003    +1.2000500e-004
+3.0400000e+003    +1.4607658e-004
+3.0560000e+003    +1.1884938e-004
+3.0720000e+003    +6.2805469e-005
+3.0880000e+003    +9.4458221e-005
+3.1040000e+003    +5.0948052e-005
+3.1200000e+003    +1.1927464e-005
+3.1360000e+003    +7.6110395e-005
+3.1520000e+003    +9.5708048e-005
+3.1680000e+003    +7.7274082e-005
+3.1840000e+003    +6.9064117e-005
+3.2000000e+003    +4.4874338e-005
+3.2160000e+003    +7.0323775e-005
+3.2320000e+003    +5.4993834e-005
+3.2480000e+003    +2.9703388e-005
+3.2640000e+003    +1.6930104e-005
+3.2800000e+003    +1.0012271e-004
+3.2960000e+003    +5.4302211e-005
+3.3120000e+003    +5.6108813e-005
+3.3280000e+003    +1.5938271e-005
+3.3440000e+003    +4.4190849e-005
+3.3600000e+003    +1.2116764e-004
+3.3760000e+003    +8.4558247e-005
+3.3920000e+003    +8.9876703e-005
+3.4080000e+003    +9.8049321e-005
+3.4240000e+003    +1.2292147e-004
+3.4400000e+003    +1.6312575e-004
+3.4560000e+003    +1.5950605e-004
+3.4720000e+003    +8.4315165e-005
+3.4880000e+003    +8.8218469e-005
+3.5040000e+003    +4.8039150e-005
+3.5200000e+003    +6.5636777e-005
+3.5360000e+003    +9.3690782e-005
+3.5520000e+003    +4.7605448e-005
+3.5680000e+003    +4.3248929e-005
+3.5840000e+003    +1.9325338e-005
+3.6000000e+003    +5.4802338e-005
+3.6160000e+003    +8.4567160e-005
+3.6320000e+003    +1.3634037e-004
+3.6480000e+003    +1.2729077e-004
+3.6640000e+003    +4.5591616e-005
+3.6800000e+003    +3.5526533e-005
+3.6960000e+003    +5.6236786e-005
+3.7120000e+003    +6.8961446e-005
+3.7280000e+003    +4.3335152e-005
+3.7440000e+003    +2.5160798e-005
+3.7600000e+003    +8.9834384e-006
+3.7760000e+003    +9.8916520e-005
+3.7920000e+003    +4.4782788e-005
+3.8080000e+003    +3.9958155e-005
+3.8240000e+003    +4.0598192e-005
+3.8400000e+003    +1.1653524e-005
+3.8560000e+003    +7.7007287e-005
+3.8720000e+003    +8.8334869e-005
+3.8880000e+003    +6.5944572e-005
+3.9040000e+003    +1.5086165e-005
+3.9200000e+003    +1.3036090e-004
+3.9360000e+003    +2.0070819e-004
+3.9520000e+003    +1.9275094e-004
+3.9680000e+003    +6.6616485e-005
+3.9840000e+003    +5.4940425e-005
+4.0000000e+003    +1.1352840e-004
+4.0160000e+003    +1.2854976e-004
+4.0320000e+003    +1.3646400e-004
+4.0480000e+003    +1.4222223e-004
+4.0640000e+003    +3.9601102e-005
+4.0800000e+003    +5.5093737e-005
+4.0960000e+003    +8.7508830e-005
+4.1120000e+003    +6.7576599e-005
+4.1280000e+003    +3.6311707e-005
+4.1440000e+003    +3.5081586e-005
+4.1600000e+003    +5.3147163e-005
+4.1760000e+003    +9.6099757e-005
+4.1920000e+003    +1.1033624e-004
+4.2080000e+003    +7.5366144e-005
+4.2240000e+003    +1.0956363e-004
+4.2400000e+003    +1.4209221e-004
+4.2560000e+003    +1.0611187e-004
+4.2720000e+003    +5.5566736e-005
+4.2880000e+003    +8.8748326e-005
+4.3040000e+003    +8.0891201e-005
+4.3200000e+003    +8.3111394e-005
+4.3360000e+003    +8.8142944e-005
+4.3520000e+003    +1.2832187e-004
+4.3680000e+003    +8.6808337e-005
+4.3840000e+003    +1.0071789e-004
+4.4000000e+003    +7.8611891e-005
+4.4160000e+003    +4.9060665e-005
+4.4320000e+003    +3.9971670e-005
+4.4480000e+003    +4.6824392e-005
+4.4640000e+003    +1.1946022e-004
+4.4800000e+003    +1.3357679e-004
+4.4960000e+003    +6.7777073e-005
+4.5120000e+003    +6.4194734e-005
+4.5280000e+003    +5.3492095e-005
+4.5440000e+003    +7.4197531e-005
+4.5600000e+003    +6.4804830e-005
+4.5760000e+003    +9.8768709e-005
+4.5920000e+003    +7.7924757e-005
+4.6080000e+003    +4.6241701e-005
+4.6240000e+003    +1.4097930e-004
+4.6400000e+003    +8.2671177e-005
+4.6560000e+003    +3.9044415e-005
+4.6720000e+003    +8.6974433e-005
+4.6880000e+003    +9.4764036e-005
+4.7040000e+003    +9.0713736e-005
+4.7200000e+003    +9.3342496e-005
+4.7360000e+003    +7.4659903e-005
+4.7520000e+003    +6.0142302e-005
+4.7680000e+003    +6.3702682e-005
+4.7840000e+003    +1.9862142e-005
+4.8000000e+003    +3.6000321e-005
+4.8160000e+003    +4.7858735e-005
+4.8320000e+003    +3.8773655e-005
+4.8480000e+003    +6.8745612e-005
+4.8640000e+003    +8.4298597e-005
+4.8800000e+003    +1.0311127e-004
+4.8960000e+003    +1.1402446e-004
+4.9120000e+003    +6.6412799e-006
+4.9280000e+003    +5.1475356e-005
+4.9440000e+003    +5.2238636e-005
+4.9600000e+003    +1.4911605e-005
+4.9760000e+003    +2.2731891e-005
+4.9920000e+003    +1.1382664e-004
+5.0080000e+003    +6.3254745e-005
+5.0240000e+003    +8.3873267e-005
+5.0400000e+003    +1.2917626e-004
+5.0560000e+003    +5.3516709e-005
+5.0720000e+003    +3.6045923e-005
+5.0880000e+003    +3.5495577e-005
+5.1040000e+003    +3.2504347e-005
+5.1200000e+003    +2.8308894e-005
+5.1360000e+003    +5.5330034e-005
+5.1520000e+003    +2.3879280e-005
+5.1680000e+003    +4.8645772e-005
+5.1840000e+003    +1.1390352e-004
+5.2000000e+003    +3.0363930e-005
+5.2160000e+003    +9.9162598e-006
+5.2320000e+003    +3.3159900e-005
+5.2480000e+003    +1.7648312e-005
+5.2640000e+003    +5.3811607e-005
+5.2800000e+003    +1.4028201e-004
+5.2960000e+003    +1.0441000e-004
+5.3120000e+003    +4.0568870e-005
+5.3280000e+003    +3.3924600e-005
+5.3440000e+003    +4.3234020e-005
+5.3600000e+003    +5.8832276e-005
+5.3760000e+003    +9.9795769e-005
+5.3920000e+003    +1.4810498e-004
+5.4080000e+003    +1.9833278e-004
+5.4240000e+003    +1.1437247e-004
+5.4400000e+003    +8.7151275e-005
+5.4560000e+003    +4.7777197e-005
+5.4720000e+003    +3.4283767e-005
+5.4880000e+003    +3.9077568e-005
+5.5040000e+003    +1.1132941e-004
+5.5200000e+003    +1.8836082e-004
+5.5360000e+003    +1.9806839e-004
+5.5520000e+003    +8.9619716e-006
+5.5680000e+003    +4.5278932e-005
+5.5840000e+003    +7.5129028e-005
+5.6000000e+003    +2.7047878e-005
+5.6160000e+003    +1.1019132e-004
+5.6320000e+003    +9.6544572e-005
+5.6480000e+003    +3.1033982e-005
+5.6640000e+003    +7.4418058e-005
+5.6800000e+003    +8.2665363e-005
+5.6960000e+003    +6.3742496e-005
+5.7120000e+003    +1.0234609e-004
+5.7280000e+003    +1.2957926e-004
+5.7440000e+003    +1.1180204e-004
+5.7600000e+003    +9.4658593e-005
+5.7760000e+003    +5.6891866e-005
+5.7920000e+003    +2.5495449e-006
+5.8080000e+003    +7.1037415e-005
+5.8240000e+003    +1.0437400e-004
+5.8400000e+003    +7.0951908e-005
+5.8560000e+003    +1.7845717e-004
+5.8720000e+003    +1.8614779e-004
+5.8880000e+003    +1.4246337e-004
+5.9040000e+003    +8.6674241e-005
+5.9200000e+003    +6.9902228e-005
+5.9360000e+003    +4.3778185e-005
+5.9520000e+003    +4.9223017e-005
+5.9680000e+003    +9.9151825e-005
+5.9840000e+003    +8.8704583e-005
+6.0000000e+003    +7.1308816e-005
+6.0160000e+003    +7.0712143e-005
+6.0320000e+003    +5.9431131e-005
+6.0480000e+003    +7.2623603e-005
+6.0640000e+003    +5.2333533e-005
+6.0800000e+003    +1.1993176e-005
+6.0960000e+003    +4.0322895e-005
+6.1120000e+003    +7.2373499e-005
+6.1280000e+003    +9.2455928e-005
+6.1440000e+003    +4.3298009e-005
+6.1600000e+003    +5.6571142e-005
+6.1760000e+003    +1.1079737e-004
+6.1920000e+003    +9.6187265e-005
+6.2080000e+003    +9.0756781e-005
+6.2240000e+003    +1.9117715e-005
+6.2400000e+003    +8.3036233e-005
+6.2560000e+003    +1.1087330e-004
+6.2720000e+003    +7.4550466e-005
+6.2880000e+003    +6.3438085e-005
+6.3040000e+003    +4.4682791e-005
+6.3200000e+003    +8.5650181e-006
+6.3360000e+003    +5.6090641e-005
+6.3520000e+003    +5.2418814e-005
+6.3680000e+003    +2.9741896e-005
+6.3840000e+003    +3.9134502e-005
+6.4000000e+003    +4.9415361e-005
+6.4160000e+003    +3.5532503e-005
+6.4320000e+003    +8.3375991e-005
+6.4480000e+003    +1.5522847e-004
+6.4640000e+003    +1.8535087e-004
+6.4800000e+003    +5.8363385e-005
+6.4960000e+003    +4.5878445e-005
+6.5120000e+003    +7.3708405e-005
+6.5280000e+003    +6.8693400e-005
+6.5440000e+003    +7.3215982e-005
+6.5600000e+003    +3.2136602e-005
+6.5760000e+003    +7.0220078e-005
+6.5920000e+003    +1.0427453e-004
+6.6080000e+003    +9.6130250e-005
+6.6240000e+003    +1.3836272e-004
+6.6400000e+003    +1.6362540e-004
+6.6560000e+003    +1.7605955e-004
+6.6720000e+003    +1.8129802e-004
+6.6880000e+003    +1.3851898e-004
+6.7040000e+003    +8.5285610e-005
+6.7200000e+003    +9.8665958e-005
+6.7360000e+003    +7.1682152e-005
+6.7520000e+003    +3.0686817e-005
+6.7680000e+003    +5.4497643e-005
+6.7840000e+003    +4.4489960e-005
+6.8000000e+003    +7.5954202e-005
+6.8160000e+003    +1.0709676e-004
+6.8320000e+003    +1.2100598e-004
+6.8480000e+003    +7.2335766e-005
+6.8640000e+003    +3.2555527e-005
+6.8800000e+003    +2.6839025e-005
+6.8960000e+003    +5.2494495e-005
+6.9120000e+003    +9.8689685e-005
+6.9280000e+003    +1.1181960e-004
+6.9440000e+003    +9.5287694e-005
+6.9600000e+003    +9.1661568e-005
+6.9760000e+003    +8.7748595e-005
+6.9920000e+003    +9.0346759e-005
+7.0080000e+003    +6.1709885e-005
+7.0240000e+003    +3.9035072e-005
+7.0400000e+003    +7.8152247e-005
+7.0560000e+003    +3.8440987e-005
+7.0720000e+003    +2.5184374e-005
+7.0880000e+003    +4.2552430e-005
+7.1040000e+003    +3.7493708e-005
+7.1200000e+003    +1.0019816e-004
+7.1360000e+003    +1.3933390e-004
+7.1520000e+003    +1.4813214e-004
+7.1680000e+003    +9.5799725e-005
+7.1840000e+003    +5.8835183e-005
+7.2000000e+003    +6.8303299e-005
+7.2160000e+003    +7.3989519e-005
+7.2320000e+003    +7.3682430e-005
+7.2480000e+003    +9.0058260e-005
+7.2640000e+003    +1.1582460e-004
+7.2800000e+003    +1.0547158e-004
+7.2960000e+003    +7.5583004e-005
+7.3120000e+003    +1.3018418e-005
+7.3280000e+003    +6.6763736e-005
+7.3440000e+003    +3.5814039e-005
+7.3600000e+003    +8.5816704e-005
+7.3760000e+003    +7.5441727e-005
+7.3920000e+003    +4.7328394e-005
+7.4080000e+003    +4.5042761e-005
+7.4240000e+003    +2.1133883e-005
+7.4400000e+003    +6.1745736e-006
+7.4560000e+003    +3.0904703e-005
+7.4720000e+003    +7.8478741e-005
+7.4880000e+003    +6.1982792e-005
+7.5040000e+003    +2.4552446e-005
+7.5200000e+003    +5.2465624e-005
+7.5360000e+003    +5.2183546e-005
+7.5520000e+003    +2.7922746e-005
+7.5680000e+003    +8.6872031e-005
+7.5840000e+003    +1.0156161e-004
+7.6000000e+003    +2.7540416e-005
+7.6160000e+003    +2.1474969e-005
+7.6320000e+003    +3.9328941e-005
+7.6480000e+003    +4.7147179e-005
+7.6640000e+003    +1.3424312e-004
+7.6800000e+003    +1.7623352e-004
+7.6960000e+003    +5.7963105e-005
+7.7120000e+003    +4.1234667e-005
+7.7280000e+003    +4.6300534e-005
+7.7440000e+003    +1.0400999e-004
+7.7600000e+003    +1.2343106e-004
+7.7760000e+003    +1.1546147e-004
+7.7920000e+003    +5.5946042e-005
+7.8080000e+003    +8.4571620e-005
+7.8240000e+003    +1.1145054e-004
+7.8400000e+003    +1.1559820e-005
+7.8560000e+003    +2.0147168e-005
+7.8720000e+003    +6.4513683e-006
+7.8880000e+003    +3.8245016e-005
+7.9040000e+003    +6.6458175e-005
+7.9200000e+003    +1.0930824e-004
+7.9360000e+003    +5.3240787e-005
+7.9520000e+003    +9.3882103e-005
+7.9680000e+003    +2.8183445e-005
+7.9840000e+003    +4.8387734e-005
+8.0000000e+003    +1.0349924e-004
+8.0160000e+003    +1.3774172e-004
+8.0320000e+003    +1.3983229e-004
+8.0480000e+003    +6.5038061e-005
+8.0640000e+003    +3.9149199e-005
+8.0800000e+003    +3.3431996e-005
+8.0960000e+003    +3.4233515e-005
+8.1120000e+003    +1.1787226e-004
+8.1280000e+003    +2.4839374e-005
+8.1440000e+003    +1.3043285e-004
+8.1600000e+003    +1.4878300e-004
+8.1760000e+003    +7.3292955e-005
+8.1920000e+003    +1.1424470e-004
+8.2080000e+003    +7.6187731e-005
+8.2240000e+003    +5.0278315e-005
+8.2400000e+003    +7.8435580e-005
+8.2560000e+003    +7.8695746e-005
+8.2720000e+003    +4.6044672e-005
+8.2880000e+003    +1.4013184e-005
+8.3040000e+003    +4.7535563e-005
+8.3200000e+003    +1.6521701e-005
+8.3360000e+003    +4.0329229e-005
+8.3520000e+003    +7.6140488e-005
+8.3680000e+003    +1.1073583e-004
+8.3840000e+003    +3.1603548e-005
+8.4000000e+003    +8.1746723e-005
+8.4160000e+003    +1.2609462e-004
+8.4320000e+003    +1.3013516e-004
+8.4480000e+003    +1.0161477e-004
+8.4640000e+003    +9.0779897e-005
+8.4800000e+003    +6.4368076e-005
+8.4960000e+003    +6.5180034e-006
+8.5120000e+003    +2.1574393e-005
+8.5280000e+003    +8.5228887e-005
+8.5440000e+003    +1.1338376e-004
+8.5600000e+003    +1.2626163e-004
+8.5760000e+003    +1.3824223e-004
+8.5920000e+003    +1.1918640e-004
+8.6080000e+003    +1.1426672e-004
+8.6240000e+003    +9.1040216e-005
+8.6400000e+003    +7.3373631e-005
+8.6560000e+003    +5.9704973e-005
+8.6720000e+003    +1.2868037e-004
+8.6880000e+003    +6.4036059e-005
+8.7040000e+003    +5.8685440e-005
+8.7200000e+003    +5.7305508e-005
+8.7360000e+003    +1.2939614e-004
+8.7520000e+003    +4.7723723e-005
+8.7680000e+003    +4.9543352e-005
+8.7840000e+003    +5.8661797e-005
+8.8000000e+003    +6.2619903e-005
+8.8160000e+003    +1.6673192e-005
+8.8320000e+003    +4.9613955e-005
+8.8480000e+003    +1.0219658e-004
+8.8640000e+003    +1.0089536e-004
+8.8800000e+003    +9.0899986e-005
+8.8960000e+003    +5.8914175e-005
+8.9120000e+003    +4.9617931e-005
+8.9280000e+003    +1.1511987e-004
+8.9440000e+003    +1.3652418e-004
+8.9600000e+003    +4.9335125e-005
+8.9760000e+003    +4.7814614e-005
+8.9920000e+003    +8.8902321e-005
+9.0080000e+003    +1.1598444e-004
+9.0240000e+003    +7.5758646e-005
+9.0400000e+003    +7.0465372e-005
+9.0560000e+003    +1.0156161e-004
+9.0720000e+003    +1.4339318e-004
+9.0880000e+003    +1.3299201e-004
+9.1040000e+003    +1.9529062e-004
+9.1200000e+003    +2.2143879e-004
+9.1360000e+003    +1.4398748e-004
+9.1520000e+003    +5.4895321e-005
+9.1680000e+003    +9.5941086e-006
+9.1840000e+003    +3.5979258e-005
+9.2000000e+003    +4.0876352e-005
+9.2160000e+003    +3.7434929e-005
+9.2320000e+003    +2.3163504e-005
+9.2480000e+003    +1.9939294e-005
+9.2640000e+003    +5.8151854e-005
+9.2800000e+003    +1.3362709e-004
+9.2960000e+003    +1.9736589e-004
+9.3120000e+003    +1.7903130e-004
+9.3280000e+003    +1.1936025e-004
+9.3440000e+003    +9.3719485e-005
+9.3600000e+003    +8.1465201e-005
+9.3760000e+003    +7.5884433e-005
+9.3920000e+003    +5.0602463e-005
+9.4080000e+003    +4.0913710e-005
+9.4240000e+003    +8.4285362e-005
+9.4400000e+003    +1.1943091e-004
+9.4560000e+003    +7.1003029e-005
+9.4720000e+003    +3.2491927e-005
+9.4880000e+003    +2.6138156e-005
+9.5040000e+003    +2.5818530e-005
+9.5200000e+003    +3.8246613e-005
+9.5360000e+003    +3.1776788e-005
+9.5520000e+003    +5.2105224e-005
+9.5680000e+003    +7.5910350e-005
+9.5840000e+003    +8.3619758e-005
+9.6000000e+003    +3.5587476e-005
+9.6160000e+003    +4.2458250e-005
+9.6320000e+003    +9.4328461e-005
+9.6480000e+003    +1.0400474e-004
+9.6640000e+003    +5.8002577e-005
+9.6800000e+003    +6.7842368e-005
+9.6960000e+003    +9.0159076e-005
+9.7120000e+003    +5.7179681e-005
+9.7280000e+003    +4.4891931e-005
+9.7440000e+003    +7.1177950e-005
+9.7600000e+003    +8.3614526e-005
+9.7760000e+003    +8.1014485e-005
+9.7920000e+003    +7.9235462e-005
+9.8080000e+003    +5.6144185e-005
+9.8240000e+003    +6.7567766e-005
+9.8400000e+003    +1.0636103e-004
+9.8560000e+003    +5.8888629e-005
+9.8720000e+003    +1.4748817e-004
+9.8880000e+003    +2.6604457e-005
+9.9040000e+003    +7.0230717e-006
+9.9200000e+003    +6.8579378e-005
+9.9360000e+003    +9.4737406e-005
+9.9520000e+003    +4.7507387e-005
+9.9680000e+003    +5.4858145e-005
+9.9840000e+003    +1.2020385e-004
+1.0000000e+004    +1.6348220e-004
+1.0016000e+004    +3.1395484e-005
+1.0032000e+004    +2.3135623e-005
+1.0048000e+004    +4.5436205e-005
+1.0064000e+004    +8.1400198e-005
+1.0080000e+004    +8.6702603e-005
+1.0096000e+004    +1.2629706e-004
+1.0112000e+004    +9.2158771e-005
+1.0128000e+004    +4.3446682e-005
+1.0144000e+004    +4.8712795e-005
+1.0160000e+004    +5.1367802e-005
+1.0176000e+004    +3.3331351e-005
+1.0192000e+004    +3.2753258e-005
+1.0208000e+004    +2.1279642e-005
+1.0224000e+004    +1.7363924e-005
+1.0240000e+004    +2.8818476e-005
+1.0256000e+004    +5.3564680e-005
+1.0272000e+004    +9.3114642e-005
+1.0288000e+004    +1.2809488e-004
+1.0304000e+004    +1.6448306e-004
+1.0320000e+004    +1.4078124e-004
+1.0336000e+004    +7.9038742e-005
+1.0352000e+004    +3.7899154e-005
+1.0368000e+004    +9.8525335e-005
+1.0384000e+004    +9.0512272e-005
+1.0400000e+004    +1.2623460e-004
+1.0416000e+004    +1.3446469e-004
+1.0432000e+004    +1.5409075e-004
+1.0448000e+004    +1.7563652e-004
+1.0464000e+004    +1.4424381e-004
+1.0480000e+004    +1.3372088e-004
+1.0496000e+004    +1.6488883e-004
+1.0512000e+004    +2.4341311e-005
+1.0528000e+004    +4.7096062e-005
+1.0544000e+004    +5.9983304e-005
+1.0560000e+004    +7.7242701e-005
+1.0576000e+004    +9.4976640e-005
+1.0592000e+004    +6.5969558e-005
+1.0608000e+004    +1.3031111e-004
+1.0624000e+004    +1.1790818e-004
+1.0640000e+004    +3.5801342e-005
+1.0656000e+004    +1.4189125e-005
+1.0672000e+004    +4.3854630e-005
+1.0688000e+004    +7.9658610e-005
+1.0704000e+004    +1.5747453e-004
+1.0720000e+004    +1.5619502e-004
+1.0736000e+004    +7.9760131e-005
+1.0752000e+004    +4.9059588e-005
+1.0768000e+004    +1.1461540e-004
+1.0784000e+004    +6.8887966e-005
+1.0800000e+004    +4.5421140e-005
+1.0816000e+004    +4.0637300e-005
+1.0832000e+004    +1.3988205e-004
+1.0848000e+004    +2.0541891e-004
+1.0864000e+004    +1.4500043e-004
+1.0880000e+004    +1.2379562e-004
+1.0896000e+004    +1.7732132e-004
+1.0912000e+004    +1.8166815e-004
+1.0928000e+004    +7.5501724e-005
+1.0944000e+004    +2.2794149e-005
+1.0960000e+004    +7.3332398e-005
+1.0976000e+004    +1.3125365e-004
+1.0992000e+004    +7.5570642e-005
+1.1008000e+004    +5.2973090e-005
+1.1024000e+004    +1.9969704e-005
+1.1040000e+004    +7.5791511e-005
+1.1056000e+004    +1.2088759e-004
+1.1072000e+004    +7.8260186e-005
+1.1088000e+004    +2.6433485e-005
+1.1104000e+004    +9.3471615e-005
+1.1120000e+004    +1.0984971e-004
+1.1136000e+004    +6.1131279e-005
+1.1152000e+004    +2.8933977e-005
+1.1168000e+004    +8.7274326e-005
+1.1184000e+004    +9.4807336e-005
+1.1200000e+004    +5.5584063e-005
+1.1216000e+004    +6.0128172e-005
+1.1232000e+004    +1.5898528e-004
+1.1248000e+004    +1.8935790e-004
+1.1264000e+004    +4.0165065e-005
+1.1280000e+004    +5.9543669e-005
+1.1296000e+004    +1.0559330e-004
+1.1312000e+004    +6.6942615e-005
+1.1328000e+004    +8.0480677e-005
+1.1344000e+004    +9.3857372e-005
+1.1360000e+004    +1.3936144e-004
+1.1376000e+004    +1.7072858e-004
+1.1392000e+004    +1.7649174e-004
+1.1408000e+004    +6.8232985e-005
+1.1424000e+004    +7.9827762e-005
+1.1440000e+004    +8.1179918e-005
+1.1456000e+004    +1.2957890e-004
+1.1472000e+004    +7.0166745e-005
+1.1488000e+004    +9.0608824e-005
+1.1504000e+004    +5.4312943e-005
+1.1520000e+004    +7.5395437e-005
+1.1536000e+004    +1.3441604e-004
+1.1552000e+004    +1.0332796e-004
+1.1568000e+004    +9.0766742e-005
+1.1584000e+004    +8.6827211e-005
+1.1600000e+004    +7.8632096e-005
+1.1616000e+004    +8.3532126e-005
+1.1632000e+004    +4.7736143e-005
+1.1648000e+004    +4.9577906e-005
+1.1664000e+004    +7.8549776e-005
+1.1680000e+004    +1.0322862e-004
+1.1696000e+004    +1.4945674e-004
+1.1712000e+004    +1.6464830e-004
+1.1728000e+004    +9.0374240e-005
+1.1744000e+004    +5.0447081e-005
+1.1760000e+004    +4.3250970e-005
+1.1776000e+004    +3.6465088e-005
+1.1792000e+004    +7.0304013e-005
+1.1808000e+004    +9.3486604e-005
+1.1824000e+004    +7.1472241e-005
+1.1840000e+004    +2.5152125e-005
+1.1856000e+004    +1.3327975e-004
+1.1872000e+004    +1.8191795e-004
+1.1888000e+004    +1.1905614e-004
+1.1904000e+004    +1.1006406e-004
+1.1920000e+004    +8.6931570e-005
+1.1936000e+004    +5.4937769e-005
+1.1952000e+004    +4.5173016e-005
+1.1968000e+004    +6.7155364e-005
+1.1984000e+004    +1.4402923e-004
+1.2000000e+004    +1.2874723e-004
+1.2016000e+004    +1.0257368e-004
+1.2032000e+004    +7.0428010e-005
+1.2048000e+004    +8.0522128e-005
+1.2064000e+004    +7.1180446e-005
+1.2080000e+004    +3.4119141e-006
+1.2096000e+004    +8.0862344e-005
+1.2112000e+004    +5.2498068e-005
+1.2128000e+004    +3.6908772e-005
+1.2144000e+004    +3.8016053e-005
+1.2160000e+004    +1.0434038e-004
+1.2176000e+004    +4.6937996e-005
+1.2192000e+004    +5.6305922e-005
+1.2208000e+004    +1.8312585e-005
+1.2224000e+004    +1.3311984e-005
+1.2240000e+004    +3.5063218e-005
+1.2256000e+004    +9.0822068e-005
+1.2272000e+004    +6.8312220e-005
+1.2288000e+004    +8.9539753e-005
+1.2304000e+004    +8.4969601e-005
+1.2320000e+004    +2.8124079e-003
+1.2336000e+004    +2.5063716e-003
+1.2352000e+004    +4.1005453e-003
+1.2368000e+004    +5.2339161e-005
+1.2384000e+004    +8.4668798e-005
+1.2400000e+004    +6.1614017e-005
+1.2416000e+004    +3.3186378e-005
+1.2432000e+004    +2.8230583e-011
+1.2448000e+004    +1.5089064e-011
+1.2464000e+004    +1.3122979e-011
+1.2480000e+004    +4.9333176e-012
+1.2496000e+004    +8.5525392e-003
+1.2512000e+004    +7.7591073e-003
+1.2528000e+004    +4.7575035e-003
+1.2544000e+004    +3.2333918e-003
+1.2560000e+004    +4.8228665e-003
+1.2576000e+004    +3.4923845e-003
+1.2592000e+004    +7.1681957e-003
+1.2608000e+004    +9.5485523e-003
+1.2624000e+004    +8.3294827e-003
+1.2640000e+004    +1.9771552e-003
+1.2656000e+004    +1.1707117e-003
+1.2672000e+004    +2.9788793e-003
+1.2688000e+004    +8.3645927e-003
+1.2704000e+004    +3.6923953e-003
+1.2720000e+004    +2.9032070e-003
+1.2736000e+004    +1.2555970e-004
+1.2752000e+004    +1.0246494e-003
+1.2768000e+004    +1.8709834e-004
+1.2784000e+004    +2.1343591e-004
