# Comments from moku data file:% Moku:Phasemeter 
# 
# % Ch 1 - DC coupling, 50 Ohm impedance, 1 V range
# 
# % Ch 1 bandwidth = 1.0000000000e+04 (Hz)
# 
# % Acquisition rate: 1.2500000000e+05 Hz
# 
# % External 10 MHz clock
# 
# % Acquired 2020-05-12 T 12:51:25 -0700
# 
# % Time, Set frequency 1 (Hz), Frequency 1 (Hz), Phase 1 (cyc), I 1 (V), Q 1 (V)
# 
# #########################################################
# ASD calculated by mokuReadFreqNoise.py
# Frequency [Hz]         Freq ASD1 [Hz/rtHz]      Freq ASDlb1 [Hz/rtHz]    Freq ASDub1 [Hz/rtHz]    
# 
0.000000000000000000e+00 1.260438014660808790e+02 7.506990723236290819e+01 2.287568892131481562e+02
1.000000000000000056e-01 2.418264043603201117e+02 1.381713240392062687e+02 3.161201131430691476e+02
2.000000000000000111e-01 1.172199643617003346e+02 5.596006716150029092e+01 2.000490408434661731e+02
3.000000000000000444e-01 7.932406723480397659e+01 5.559702929826858764e+01 1.449322527492002735e+02
4.000000000000000222e-01 6.616868631495020736e+01 2.609591755553270431e+01 1.093513026940610331e+02
5.000000000000000000e-01 4.508765553294242068e+01 2.394401626230417079e+01 7.997613907508439013e+01
6.000000000000000888e-01 6.170549926917085060e+01 4.241451800193056698e+01 7.873907720260717724e+01
7.000000000000000666e-01 5.581016335491038660e+01 4.821555063012339559e+01 9.406130812412990849e+01
8.000000000000000444e-01 4.177589306534913050e+01 2.502940819686044804e+01 6.894167858696751239e+01
9.000000000000000222e-01 4.889861456529158090e+01 4.202839506900900801e+01 5.826105175881676246e+01
1.000000000000000000e+00 3.599096446242042902e+01 2.218050763695060112e+01 4.789100440354990695e+01
1.100000000000000089e+00 2.623269753037348906e+01 1.965359991208882917e+01 3.869180163959877916e+01
1.200000000000000178e+00 2.150663628385423110e+01 1.463445823690481085e+01 3.878506733549141927e+01
1.300000000000000044e+00 2.231931914582457921e+01 1.541625260641699313e+01 3.587388263727633841e+01
1.400000000000000133e+00 1.539895170525304557e+01 1.132732180968918456e+01 3.541325032188111521e+01
1.500000000000000000e+00 2.380798815007900870e+01 1.019838564031362438e+01 3.587836513598900012e+01
1.600000000000000089e+00 1.770067647215333650e+01 1.101208786719931787e+01 2.647973880107115718e+01
1.700000000000000178e+00 1.493881729881283071e+01 1.231490842585644430e+01 2.392326539940274799e+01
1.800000000000000044e+00 1.578380431349550861e+01 5.898907372545896699e+00 2.358966453062067359e+01
1.900000000000000133e+00 2.228903999130726987e+01 1.638394221990281352e+01 3.325805489994935016e+01
2.000000000000000000e+00 2.431979375814064070e+01 1.889507137822169014e+01 2.719187514486547386e+01
2.100000000000000089e+00 1.300794385712259427e+01 6.280423110656380814e+00 2.681634601106365068e+01
2.200000000000000178e+00 1.529200634870050557e+01 7.437267508433570207e+00 2.336669335768480948e+01
2.300000000000000266e+00 1.438002319484444769e+01 9.435702312088860566e+00 1.929789110232766447e+01
2.400000000000000355e+00 1.498655758444479957e+01 9.728305788356026440e+00 2.524527330522743185e+01
2.500000000000000000e+00 2.035059369805833995e+01 1.225807862372574419e+01 3.677900705880782795e+01
2.600000000000000089e+00 1.421544723371085617e+01 8.345268517541910569e+00 2.295307240086333422e+01
2.700000000000000178e+00 1.833404001644167991e+01 8.050313062598284830e+00 2.123350516792816123e+01
2.800000000000000266e+00 1.646963926005751588e+01 9.770903687927972925e+00 2.251830391973243550e+01
2.900000000000000355e+00 1.184417671392667870e+01 8.080672878527440872e+00 2.073248249536317545e+01
3.000000000000000000e+00 1.186677130216160059e+01 5.441759085866302748e+00 1.750477728063688332e+01
3.100000000000000089e+00 6.957114665095438077e+00 5.972319447826592409e+00 1.305784644800881900e+01
3.200000000000000178e+00 1.425128020713727039e+01 6.193832698483469734e+00 1.572912839756134673e+01
3.300000000000000266e+00 1.635470057590536541e+01 7.914395377782956764e+00 2.200181915824022738e+01
3.400000000000000355e+00 9.741026905847297357e+00 7.663855041032268112e+00 2.741079866332026427e+01
3.500000000000000000e+00 2.018524581174687427e+01 7.684044459369614444e+00 2.585793855713865952e+01
3.600000000000000089e+00 1.477161895827141080e+01 7.690657089175361172e+00 2.856308242820572474e+01
3.700000000000000178e+00 1.986194543252159761e+01 1.061939958661095851e+01 2.298275423475322654e+01
3.800000000000000266e+00 1.345530399984929737e+01 4.667654448655638610e+00 2.951767881516069991e+01
3.900000000000000355e+00 1.409225279141312726e+01 7.008801240256465448e+00 2.341562964136262437e+01
4.000000000000000000e+00 1.324356353073253878e+01 4.865221341807579591e+00 1.695365454601343558e+01
4.100000000000000533e+00 1.544015111365030890e+01 1.176761519484519880e+01 2.274965021966794865e+01
4.200000000000000178e+00 1.326986996065085833e+01 6.798142884408017395e+00 2.286903638064486799e+01
4.299999999999999822e+00 1.594193378844223297e+01 1.010677620869924986e+01 2.599267838288193389e+01
4.400000000000000355e+00 1.962613539488735626e+01 7.987251193365549895e+00 2.320088204193184822e+01
4.500000000000000000e+00 1.405277663405991717e+01 5.752432544253309743e+00 1.961803526194022496e+01
4.600000000000000533e+00 1.205796259159474637e+01 6.930277247516436923e+00 2.092654743640033388e+01
4.700000000000000178e+00 1.308003456406382803e+01 7.460117844420445898e+00 2.148278709157358435e+01
4.800000000000000711e+00 1.133457473205172583e+01 6.544702317301657857e+00 1.737139347657524624e+01
4.900000000000000355e+00 1.211529549702039787e+01 7.219786688181408785e+00 1.656484767643545197e+01
5.000000000000000000e+00 1.252996277379139656e+01 8.715358602652560904e+00 1.673414944510657065e+01
5.100000000000000533e+00 9.023508808537288317e+00 5.394539005498849349e+00 1.973043117108749911e+01
5.200000000000000178e+00 1.039479789886378214e+01 8.264486919877626292e+00 2.324031471036685659e+01
5.300000000000000711e+00 1.133708892680072289e+01 7.184106157714665208e+00 2.453410454669502627e+01
5.400000000000000355e+00 1.048193361125402134e+01 7.391093028129713360e+00 1.742338682871247002e+01
5.500000000000000000e+00 1.295092076083864008e+01 6.980499207723071642e+00 2.057299478307186646e+01
5.600000000000000533e+00 1.038270535709677311e+01 5.343778152643832158e+00 2.380501839398480968e+01
5.700000000000000178e+00 1.013215495521033560e+01 5.079101135923756338e+00 2.388721638922015345e+01
5.800000000000000711e+00 1.386563054361566216e+01 8.500721779485466811e+00 1.752447606664609481e+01
5.900000000000000355e+00 8.083485809025773960e+00 6.109757784135307013e+00 1.363983655513241722e+01
6.000000000000000000e+00 1.044568248086698503e+01 5.328496680430824028e+00 1.624684026867238629e+01
6.100000000000000533e+00 1.350166946807709145e+01 8.792811831019859525e+00 1.900166544653555789e+01
6.200000000000000178e+00 1.402184385358864382e+01 7.598536231679871022e+00 2.696106509866110557e+01
6.300000000000000711e+00 1.049206016707341504e+01 8.237723932399115156e+00 2.855201979158371373e+01
6.400000000000000355e+00 1.302939577609459221e+01 3.858149158543790147e+00 2.131182800306700287e+01
6.500000000000000000e+00 1.851412976135694421e+01 9.042845680776608219e+00 2.259666326656465429e+01
6.600000000000000533e+00 1.359986287583500442e+01 8.983096981913622159e+00 1.849890643828288361e+01
6.700000000000000178e+00 1.621383478816735391e+01 9.622975265114774857e+00 2.168439478208118132e+01
6.800000000000000711e+00 1.972835963613007237e+01 1.025849402866790783e+01 2.448132356411469246e+01
6.900000000000000355e+00 1.327711888961839293e+01 8.976031394678706476e+00 2.579181547345077519e+01
7.000000000000000000e+00 1.783290717249375135e+01 1.364414612114804193e+01 3.489686714305717175e+01
7.100000000000000533e+00 1.720938014134972249e+01 1.331458239091406170e+01 3.157723025259437932e+01
7.200000000000000178e+00 2.335536149541021445e+01 6.308212551274753110e+00 2.977560439823253091e+01
7.300000000000000711e+00 1.964095083204265535e+01 1.096365050057305623e+01 3.066867560904775303e+01
7.400000000000000355e+00 2.047463266298889906e+01 1.642810386004060774e+01 2.321607384821559705e+01
7.500000000000000000e+00 1.572088251220908539e+01 1.138710851188096562e+01 1.866401301298488136e+01
7.600000000000000533e+00 1.093492268578757631e+01 7.714776477604231353e+00 2.107962494302935141e+01
7.700000000000000178e+00 1.385672344643212561e+01 3.459565946033016370e+00 1.926463684459667292e+01
7.800000000000000711e+00 1.305962581257814570e+01 8.222422156086318878e+00 1.901233940112224730e+01
7.900000000000000355e+00 1.271951805666393476e+01 7.658252984664396301e+00 2.455189957813011148e+01
8.000000000000000000e+00 1.226583630899651745e+01 9.150517228360588007e+00 2.252542848719069823e+01
8.099999999999999645e+00 1.524296384370251367e+01 8.811255129573694944e+00 2.342814351829671793e+01
8.200000000000001066e+00 1.016432156245985929e+01 7.022244494074139531e+00 2.019987723681307301e+01
8.300000000000000711e+00 1.516766782524369184e+01 4.087115437874677681e+00 1.758509715832868636e+01
8.400000000000000355e+00 1.375015500318254347e+01 8.746910828538609906e+00 2.144299499976008150e+01
8.500000000000000000e+00 1.665886940994292331e+01 1.051088149454175458e+01 2.515720640183265289e+01
8.599999999999999645e+00 1.848474680260440905e+01 8.016295139707189321e+00 2.597238874959775501e+01
8.700000000000001066e+00 1.019981575988180822e+01 3.303363034058044434e+00 2.225890679791178428e+01
8.800000000000000711e+00 1.121181883399707502e+01 8.754076729186904160e+00 1.729945361889125977e+01
8.900000000000000355e+00 1.084408950337651767e+01 5.024834526797230971e+00 1.650686354957883140e+01
9.000000000000000000e+00 1.197032706790914247e+01 5.179787427110555065e+00 1.839341279583161537e+01
9.099999999999999645e+00 1.222754080510139829e+01 6.254931431282074072e+00 2.069615320426388294e+01
9.200000000000001066e+00 1.607298060720480493e+01 5.080037812597410607e+00 2.124626698324051333e+01
9.300000000000000711e+00 1.198566680652447047e+01 7.789914435632729450e+00 2.211776629214207546e+01
9.400000000000000355e+00 1.162399962997445080e+01 6.490798756022662985e+00 1.838396586752450190e+01
9.500000000000000000e+00 9.006546191267986501e+00 6.773800643931787491e+00 1.837542499243609484e+01
9.600000000000001421e+00 1.134845937324661413e+01 4.580544153354469294e+00 1.808589011434560945e+01
9.700000000000001066e+00 1.079670908324182399e+01 5.247896664198168359e+00 1.743021832683925254e+01
9.800000000000000711e+00 8.104697438411683663e+00 6.492921584909211674e+00 1.848065601444278983e+01
9.900000000000000355e+00 9.630280138672191015e+00 4.419696135076095267e+00 1.397998107615634744e+01
1.000000000000000000e+01 1.084285700470407576e+01 5.609000456383118838e+00 1.845533662802740693e+01
1.100000000000000000e+01 1.227511438003298672e+01 5.126285343486709500e+00 2.032088254381574899e+01
1.200000000000000000e+01 1.364651843979507895e+01 6.022892133952672644e+00 2.051704590691768715e+01
1.300000000000000000e+01 1.150147892379125736e+01 5.427532113370497235e+00 2.139458698663557001e+01
1.400000000000000000e+01 1.084299106730574813e+01 6.033825646224721062e+00 2.017169034212469114e+01
1.500000000000000000e+01 1.139404316001682282e+01 4.266800163025463277e+00 1.939515993622926615e+01
1.600000000000000000e+01 8.556929151963496238e+00 3.148181405949149525e+00 1.528486855286635304e+01
1.700000000000000000e+01 7.824676739283228599e+00 2.961641115254643353e+00 1.455587164109679854e+01
1.800000000000000000e+01 7.685358831510780142e+00 2.323202552625273309e+00 1.399745765217923399e+01
1.900000000000000000e+01 6.850047938388770241e+00 2.222494210441059881e+00 1.554019220429987236e+01
2.000000000000000000e+01 7.561774132857338238e+00 2.256742140550652032e+00 1.459083533830267143e+01
2.100000000000000000e+01 6.015882182538689449e+00 1.763731550844416907e+00 1.414835638936740381e+01
2.200000000000000000e+01 5.701250090071960486e+00 1.653476353917572750e+00 1.511159449370967423e+01
2.300000000000000000e+01 5.063242631860131127e+00 1.431936885013881167e+00 1.127864144906194710e+01
2.400000000000000000e+01 3.962109691639150721e+00 1.098744261670240974e+00 9.667357157344936169e+00
2.500000000000000000e+01 2.930856628440332123e+00 9.668150673080019297e-01 9.221596035396153468e+00
2.600000000000000000e+01 2.778959519241654963e+00 9.462832291144832597e-01 9.506921409393962463e+00
2.700000000000000000e+01 2.086457013732693433e+00 6.764728453149527754e-01 9.932779662536736609e+00
2.800000000000000000e+01 2.398699310094291270e+00 6.567854606373856319e-01 9.204889298466680359e+00
2.900000000000000000e+01 1.869501114077954940e+00 6.114510964205582821e-01 7.419917062796034024e+00
3.000000000000000000e+01 1.661983404860115421e+00 5.083498801383552479e-01 5.829253967465458430e+00
3.100000000000000000e+01 1.209410630743504633e+00 3.943916456702507012e-01 4.211522301171257254e+00
3.200000000000000000e+01 1.184270200303536358e+00 3.569207556371604140e-01 4.494979931885909608e+00
3.300000000000000000e+01 9.707304172678704601e-01 3.070837456533492826e-01 4.211282781607020631e+00
3.400000000000000000e+01 8.603982120045196025e-01 3.083159164588135104e-01 3.660088318866272061e+00
3.500000000000000000e+01 7.413089797346765764e-01 2.698148076062091283e-01 3.446704868334850680e+00
3.600000000000000000e+01 6.303157941127544017e-01 2.401240124205747950e-01 2.821190428685373064e+00
3.700000000000000000e+01 5.970027116000113931e-01 2.303398456700590513e-01 1.955753024684335539e+00
3.800000000000000000e+01 5.009707916611441103e-01 2.062642350066423991e-01 1.619237525278436340e+00
3.900000000000000000e+01 4.830928557615799535e-01 2.038796143494909507e-01 1.464369157003261090e+00
4.000000000000000000e+01 4.533082491028647687e-01 1.968386161082926467e-01 1.279119442895913838e+00
4.100000000000000000e+01 3.901561474544828489e-01 1.743801670095471712e-01 1.249943438075197921e+00
4.200000000000000000e+01 3.381867339707725351e-01 1.454255725651473763e-01 1.050103542779634802e+00
4.300000000000000000e+01 3.643846968770752537e-01 1.394258594722794786e-01 9.611091665482044410e-01
4.400000000000000000e+01 3.635570655903683224e-01 1.425918086246826533e-01 6.745886270847992749e-01
4.500000000000000000e+01 3.032790690941704059e-01 1.480423866422778678e-01 7.798780124913093914e-01
4.600000000000000000e+01 3.178712194310019945e-01 1.284083870391273807e-01 6.011230645227310099e-01
4.700000000000000000e+01 3.377833025520617372e-01 1.496316189895735560e-01 7.422145024553794546e-01
4.800000000000000000e+01 3.567141140751652895e-01 1.533730029821869234e-01 6.784603364558765559e-01
4.900000000000000000e+01 3.059058768810557494e-01 1.434053923052929502e-01 6.747736542563641526e-01
5.000000000000000000e+01 2.868263672917438778e-01 1.500608729858634582e-01 6.191029462837963626e-01
5.100000000000000000e+01 3.006810174843119188e-01 1.528022754567024410e-01 5.704010556969730805e-01
5.200000000000000000e+01 2.694799077174686031e-01 1.473846403369025448e-01 5.607585360118111373e-01
5.300000000000000000e+01 3.041578935756786284e-01 1.321105912646447778e-01 6.082089784752028327e-01
5.400000000000000000e+01 3.117831583036443366e-01 1.422436327943506773e-01 5.559097025567099060e-01
5.500000000000000000e+01 2.880348845974106675e-01 1.413672729638455194e-01 5.594815682129216095e-01
5.600000000000000000e+01 2.634155677231851400e-01 1.580786062247225288e-01 5.326050745022549160e-01
5.700000000000000000e+01 2.946713042279185957e-01 1.313945535495191219e-01 6.029790063208507744e-01
5.800000000000000000e+01 2.904848956970270679e-01 1.164850952888981800e-01 5.794296365692177542e-01
5.900000000000000000e+01 2.736932762054749002e-01 1.083859440276261216e-01 5.864068181768832266e-01
6.000000000000000000e+01 2.558309802445570269e-01 1.301056512125185749e-01 5.628199566750137217e-01
6.100000000000000000e+01 2.728170250001853425e-01 1.382950901798392085e-01 5.174390332554640315e-01
6.200000000000000000e+01 2.741798396478705158e-01 1.415645079067878453e-01 5.189890835648091061e-01
6.300000000000000000e+01 3.062081496795995283e-01 1.580868978227624178e-01 6.370413575240535531e-01
6.400000000000000000e+01 3.312846593206955070e-01 1.716776263623623344e-01 7.015409411002643258e-01
6.500000000000000000e+01 2.897947569261057899e-01 1.125100970408719203e-01 5.673118197167595911e-01
6.600000000000000000e+01 2.297180074325582411e-01 1.090826431131459162e-01 4.389374110686244390e-01
6.700000000000000000e+01 2.291431646665962607e-01 1.173990474303034798e-01 4.930911738910315201e-01
6.800000000000000000e+01 2.494310125121873001e-01 1.186615997730810917e-01 5.509670743423368267e-01
6.900000000000000000e+01 2.496551290874117757e-01 1.261452767691003118e-01 5.567498080362887070e-01
7.000000000000000000e+01 2.416933252673687249e-01 1.215837616773046692e-01 4.575980099095074416e-01
7.100000000000000000e+01 2.115131216417790172e-01 1.114598073559788655e-01 4.839414853474218736e-01
7.200000000000000000e+01 2.113596862255158193e-01 1.018641960760962722e-01 4.693373189477282326e-01
7.300000000000000000e+01 2.100528040362380777e-01 1.108950460287573547e-01 3.452652678268225972e-01
7.400000000000000000e+01 2.031405593943927945e-01 8.267747155220764310e-02 4.532506252946320591e-01
7.500000000000000000e+01 2.322824249070482017e-01 8.777857404962009780e-02 4.523578282138241979e-01
7.600000000000000000e+01 1.843594081654920946e-01 1.009210238599600462e-01 3.661729287306894620e-01
7.700000000000000000e+01 1.714702448211311570e-01 9.407878071413901255e-02 3.295142262367499741e-01
7.800000000000000000e+01 1.721865636149652601e-01 8.363830934330750144e-02 3.181352190871321595e-01
7.900000000000000000e+01 1.973994132876828456e-01 6.582294037386932084e-02 3.786767951199330184e-01
8.000000000000000000e+01 1.963736983299377015e-01 9.599665529381441742e-02 4.193347447359190849e-01
8.100000000000000000e+01 1.729304378555033828e-01 6.767640256860046888e-02 3.610174052093741426e-01
8.200000000000000000e+01 1.392843331470456081e-01 7.795610951021912649e-02 3.264305887507470971e-01
8.300000000000000000e+01 1.424556364991479696e-01 5.493062100331998904e-02 2.935738399994527459e-01
8.400000000000000000e+01 1.258930258913715794e-01 5.751613589540245652e-02 2.610249164098304431e-01
8.500000000000000000e+01 1.304987688519745614e-01 6.098429663248970678e-02 2.928093365771176071e-01
8.600000000000000000e+01 1.412099498632669869e-01 5.696484645427473542e-02 2.750455781904903030e-01
8.700000000000000000e+01 1.188621709455163628e-01 5.224936589617085181e-02 2.389464539399147602e-01
8.800000000000000000e+01 1.253278626743097590e-01 5.465267815431749249e-02 2.421208165273501522e-01
8.900000000000000000e+01 1.108201558140519682e-01 5.605516956040808990e-02 2.292565749952375775e-01
9.000000000000000000e+01 9.547951369874443928e-02 4.769512215859043891e-02 2.369466549476064443e-01
9.100000000000000000e+01 9.297017434551652082e-02 3.838392524829497415e-02 1.919629553953014767e-01
9.200000000000000000e+01 1.007447771373399803e-01 4.652559491555268573e-02 2.154644254473551124e-01
9.300000000000000000e+01 1.118221083013625494e-01 5.154129786597583252e-02 2.294629360437528687e-01
9.400000000000000000e+01 1.009814244080234208e-01 4.829960056524502943e-02 2.007591619426899732e-01
9.500000000000000000e+01 1.070869364904382254e-01 4.932130172745714802e-02 1.920189365379914026e-01
9.600000000000000000e+01 1.121250030710279760e-01 3.927686213221495692e-02 2.219888221380743043e-01
9.700000000000000000e+01 1.167248151216476737e-01 5.204464928532467199e-02 2.390726043893010022e-01
9.800000000000000000e+01 1.169455474146952612e-01 4.320585870840762399e-02 2.078238630520188035e-01
9.900000000000000000e+01 1.115617456360211424e-01 4.250043693531461303e-02 2.079511057739679147e-01
1.000000000000000000e+02 1.249639631742875678e-01 5.764144566853118129e-02 2.442332149136190456e-01
1.100000000000000000e+02 1.685298447917054354e-01 8.682575451492036134e-02 2.757425800363848545e-01
1.200000000000000000e+02 1.630915131728578882e-01 7.015804008304055150e-02 3.152499940541065859e-01
1.300000000000000000e+02 1.974194885655397858e-01 9.502349017311903512e-02 3.108688747981735445e-01
1.400000000000000000e+02 1.882427476031748592e-01 9.623803912357092871e-02 2.985202432021485941e-01
1.500000000000000000e+02 1.348437693669112536e-01 5.457111460137634845e-02 2.769448541410863274e-01
1.600000000000000000e+02 1.340254157487978937e-01 6.489167629410527716e-02 2.324164346504160872e-01
1.700000000000000000e+02 8.199309918177688505e-02 3.604982276823764237e-02 1.677994401865458007e-01
1.800000000000000000e+02 4.876470618228323506e-02 2.335994041969477464e-02 9.910289448767500842e-02
1.900000000000000000e+02 3.878693261087810817e-02 1.911416158353743122e-02 6.682315549768269580e-02
2.000000000000000000e+02 4.340771551524081479e-02 2.244774489667882011e-02 7.890594817911084080e-02
2.100000000000000000e+02 5.812591125107931939e-02 2.844584182821388932e-02 1.020613726578158548e-01
2.200000000000000000e+02 6.048185307370110286e-02 2.979572402512671928e-02 1.114072965973203072e-01
2.300000000000000000e+02 6.438019034776480687e-02 2.919508317955894078e-02 1.188540832464718700e-01
2.400000000000000000e+02 7.451591781807517800e-02 3.568690737589827466e-02 1.265027969621315973e-01
2.500000000000000000e+02 5.848429304282491692e-02 2.608698083499035383e-02 1.036614215109873949e-01
2.600000000000000000e+02 8.448856520329925401e-02 3.980613825555142510e-02 1.520370900662915969e-01
2.700000000000000000e+02 1.138217993730192279e-01 5.038435565920042908e-02 2.279010993811079466e-01
2.800000000000000000e+02 1.149842396540976253e-01 4.842240667010819233e-02 2.161252606230296136e-01
2.900000000000000000e+02 6.885837059383570491e-02 3.184023253076544852e-02 1.250076019029736363e-01
3.000000000000000000e+02 3.937530805697127961e-02 1.847883984404712424e-02 6.559831244252221916e-02
3.100000000000000000e+02 3.167532579433347123e-02 1.591661322932805267e-02 5.354408379616167057e-02
3.200000000000000000e+02 3.253222715684343097e-02 1.598022677431493524e-02 5.282475061220975876e-02
3.300000000000000000e+02 3.323576056193755512e-02 1.610590089892790719e-02 5.299044339648808360e-02
3.400000000000000000e+02 3.341177285914718326e-02 1.684532722883635286e-02 5.426609432632317764e-02
3.500000000000000000e+02 3.224820730011668246e-02 1.640681522685165719e-02 5.455498344003422567e-02
3.600000000000000000e+02 3.194210100553062509e-02 1.591334192661230870e-02 5.283780210203368327e-02
3.700000000000000000e+02 3.091009716520553424e-02 1.533928223549115358e-02 5.008629292449515852e-02
3.800000000000000000e+02 3.350523880420668704e-02 1.612139588570479787e-02 5.455203247170163638e-02
3.900000000000000000e+02 3.841194280582769377e-02 1.928100941351045677e-02 6.088378836388648463e-02
4.000000000000000000e+02 3.749477318280518973e-02 1.940628566444697542e-02 6.248090332160857741e-02
4.100000000000000000e+02 3.489994884161216199e-02 1.772226165527478539e-02 5.749410580448031938e-02
4.200000000000000000e+02 3.763173248632131762e-02 1.845613868811575228e-02 6.157619202369501304e-02
4.300000000000000000e+02 3.869976253722871157e-02 1.867377522517923299e-02 6.267981242895899474e-02
4.400000000000000000e+02 3.609480085678940658e-02 1.882014386983724141e-02 5.856252641204335446e-02
4.500000000000000000e+02 3.173241036849259317e-02 1.492008403677604067e-02 5.318251051144285563e-02
4.600000000000000000e+02 2.937190375999398570e-02 1.417002861965717050e-02 4.698823753062189579e-02
4.700000000000000000e+02 3.055854788960625165e-02 1.511721493227144442e-02 4.934119027638754484e-02
4.800000000000000000e+02 3.721140302391306998e-02 1.841287993507418480e-02 5.616502713718610207e-02
4.900000000000000000e+02 2.940292269303717773e-02 1.481639187330156988e-02 4.751717866609216773e-02
5.000000000000000000e+02 2.548688176479441125e-02 1.228385803096432131e-02 4.332077111141750120e-02
5.100000000000000000e+02 2.638818698205776248e-02 1.277726370760353877e-02 4.329133872886367640e-02
5.200000000000000000e+02 2.746211683011632806e-02 1.375187387903025436e-02 4.497728012127202857e-02
5.300000000000000000e+02 2.990832419050798788e-02 1.476721089036723937e-02 4.943501678703247221e-02
5.400000000000000000e+02 3.287456688539300287e-02 1.639083328570083847e-02 5.266065713688688338e-02
5.500000000000000000e+02 3.117671823026449754e-02 1.564350795765483138e-02 5.150898918091811884e-02
5.600000000000000000e+02 3.310102080388765272e-02 1.611334542719855545e-02 5.332243711350329041e-02
5.700000000000000000e+02 3.448873908026715840e-02 1.668273770094999900e-02 5.687296897631840403e-02
5.800000000000000000e+02 3.299367155520894351e-02 1.641153622681220531e-02 5.335912507175181313e-02
5.900000000000000000e+02 2.906659337319577804e-02 1.515096486926984821e-02 4.866256253882387389e-02
6.000000000000000000e+02 3.054567281173576482e-02 1.639376103583982738e-02 5.105714709725733824e-02
6.100000000000000000e+02 2.816792278172586608e-02 1.388512453463242903e-02 4.503739475570453510e-02
6.200000000000000000e+02 3.354209498958008601e-02 1.552867822770883331e-02 5.604271090205682065e-02
6.300000000000000000e+02 9.984343114145353970e-02 5.096742574303116113e-02 1.658841841340273349e-01
6.400000000000000000e+02 1.141555667766937648e-01 5.623043114212805671e-02 1.872980015403706844e-01
6.500000000000000000e+02 9.089849318932280431e-02 4.668095743935872510e-02 1.471798698526202709e-01
6.600000000000000000e+02 1.071332870495454448e-01 5.634480694144180374e-02 1.738411061925580203e-01
6.700000000000000000e+02 9.000111883940993540e-02 4.289299543034563733e-02 1.390918292276343560e-01
6.800000000000000000e+02 7.273495239204316731e-02 3.586995655887265794e-02 1.223379158857988425e-01
6.900000000000000000e+02 6.402905799688363153e-02 3.315020051945027912e-02 1.057530624825250010e-01
7.000000000000000000e+02 4.590996988935154566e-02 2.240542809110813993e-02 7.340499810357171973e-02
7.100000000000000000e+02 3.917811363634589317e-02 2.117015395437393116e-02 6.451943864634059056e-02
7.200000000000000000e+02 6.282884350171254184e-02 3.067035302406272146e-02 9.947400054625228638e-02
7.300000000000000000e+02 4.949373220184963285e-02 2.397335229440821294e-02 8.005748061530368331e-02
7.400000000000000000e+02 2.494303519757628054e-02 1.200466324812570970e-02 4.145061577090826399e-02
7.500000000000000000e+02 2.443747084159492849e-02 1.217981261613912403e-02 4.023436108010235851e-02
7.600000000000000000e+02 2.684413976488067219e-02 1.353733727455442952e-02 4.460545197541985335e-02
7.700000000000000000e+02 3.191912557349090712e-02 1.603250462797405074e-02 5.193144746498862957e-02
7.800000000000000000e+02 4.634927301178733833e-02 2.296242486382510037e-02 7.554461688152076804e-02
7.900000000000000000e+02 1.152868975144347718e-01 5.417354472127709764e-02 2.236584097048029129e-01
8.000000000000000000e+02 2.038390994469700679e-01 9.850223870804239445e-02 3.459382057929776266e-01
8.100000000000000000e+02 1.418897673259042480e-01 7.075394581614359579e-02 2.403230115395705857e-01
8.200000000000000000e+02 1.126919406478352897e-01 5.803341364774584205e-02 1.855644235998786251e-01
8.300000000000000000e+02 1.425635550559318510e-01 7.212623502355539062e-02 2.310590956233791737e-01
8.400000000000000000e+02 3.054863659000359166e-01 1.776005638058836267e-01 4.350392586905084680e-01
8.500000000000000000e+02 2.479093926691893768e-01 1.260100138450765683e-01 4.060006414194963220e-01
8.600000000000000000e+02 1.813481448199920076e-01 9.427480408032343218e-02 2.942531287466680912e-01
8.700000000000000000e+02 1.349735378353721649e-01 6.851223096403881441e-02 2.201062629156238515e-01
8.800000000000000000e+02 8.728984917836206392e-02 4.149391703111084823e-02 1.381910113266515694e-01
8.900000000000000000e+02 5.707879590177579454e-02 2.895746623549214777e-02 9.624899972059718090e-02
9.000000000000000000e+02 5.922602658353191135e-02 3.119398330113543755e-02 9.427686308702028228e-02
9.100000000000000000e+02 7.561941054393597761e-02 3.421344938018160836e-02 1.193182136535292232e-01
9.200000000000000000e+02 6.282064782505279721e-02 3.163865378202125600e-02 1.033675862871183404e-01
9.300000000000000000e+02 4.519817123242148016e-02 2.301104148668299543e-02 7.446813153110298789e-02
9.400000000000000000e+02 3.869908168036623186e-02 1.873105081728906537e-02 6.290879054265414994e-02
9.500000000000000000e+02 3.499251069804187181e-02 1.726322535800326255e-02 5.893062554841461964e-02
9.600000000000000000e+02 4.046667550565368615e-02 2.009255584045488430e-02 6.778466859654559695e-02
9.700000000000000000e+02 4.736076875484998561e-02 2.343377428123194842e-02 7.770746357733247789e-02
9.800000000000000000e+02 5.387303048918993392e-02 2.654354871418309475e-02 8.908712962345397002e-02
9.900000000000000000e+02 6.529596876999627098e-02 3.325818728013676256e-02 1.078653163109809937e-01
1.000000000000000000e+03 8.455913612281698577e-02 4.271353741806208082e-02 1.368862880970054263e-01
1.100000000000000000e+03 7.372480048104938788e-02 3.709382365524459962e-02 1.198441536935744012e-01
1.200000000000000000e+03 5.514672363511199937e-02 2.818925538140678450e-02 8.997798609723511865e-02
1.300000000000000000e+03 4.292925299068155176e-02 2.173765681804106301e-02 6.993100451103151372e-02
1.400000000000000000e+03 3.405635354777500345e-02 1.697272833211543874e-02 5.610748108953375612e-02
1.500000000000000000e+03 3.853006578383250114e-02 1.889958702367406165e-02 6.302597553596134272e-02
1.600000000000000000e+03 3.674513673432914379e-02 1.851523268084659737e-02 5.935805583179451506e-02
1.700000000000000000e+03 2.622078617587621577e-02 1.303055256882748245e-02 4.344914515975057540e-02
1.800000000000000000e+03 2.481932925444493149e-02 1.235114433995962956e-02 4.052967793608171915e-02
1.900000000000000000e+03 2.485617597348280944e-02 1.238389238867063612e-02 4.100371668932320524e-02
2.000000000000000000e+03 2.487997410524211972e-02 1.257137335611615593e-02 4.084452329328166348e-02
2.100000000000000000e+03 2.520914025551441312e-02 1.250393794236988494e-02 4.136517497846106672e-02
2.200000000000000000e+03 2.526689469353513712e-02 1.274672616222085643e-02 4.186642491208068806e-02
2.300000000000000000e+03 2.535524396043151857e-02 1.243726166632547897e-02 4.195197348067469800e-02
2.400000000000000000e+03 2.517151357185083357e-02 1.250804822059208010e-02 4.155201034179906855e-02
2.500000000000000000e+03 2.552788625806686612e-02 1.271438490698472389e-02 4.172962724648050098e-02
2.600000000000000000e+03 2.569703244593605704e-02 1.276069878185746333e-02 4.228974709043272634e-02
2.700000000000000000e+03 2.591874999419783998e-02 1.295800160086864848e-02 4.250744514735980972e-02
2.800000000000000000e+03 2.598908617503485965e-02 1.289492341911858270e-02 4.238994721847996056e-02
2.900000000000000000e+03 2.627137248993199892e-02 1.314036726255884274e-02 4.301763568844033797e-02
3.000000000000000000e+03 2.717686164352374478e-02 1.343834751337328812e-02 4.422721819442101965e-02
3.100000000000000000e+03 2.712103915245605429e-02 1.382296458383124038e-02 4.483185608850617787e-02
3.200000000000000000e+03 2.793016902029978391e-02 1.399829123150215550e-02 4.572545256241949269e-02
3.300000000000000000e+03 3.133551527886672267e-02 1.552323127204238012e-02 5.111844892964494125e-02
3.400000000000000000e+03 3.039484925796632001e-02 1.501366747514331669e-02 5.000910318718024966e-02
3.500000000000000000e+03 2.947468368529115174e-02 1.479084324091771603e-02 4.836261350500304507e-02
3.600000000000000000e+03 4.036336772955968766e-02 2.043709241344822750e-02 6.363978516762759663e-02
3.700000000000000000e+03 4.410643287042587124e-02 2.284567697187201568e-02 6.853629271432579162e-02
3.800000000000000000e+03 3.220020726478012296e-02 1.597383246544700416e-02 5.316765311724209325e-02
3.900000000000000000e+03 2.883158950262508860e-02 1.437432110160436274e-02 4.716489873587965259e-02
4.000000000000000000e+03 2.900891903792898741e-02 1.455131752954712948e-02 4.706834859437498270e-02
4.100000000000000000e+03 2.926483280199438514e-02 1.435139909151207475e-02 4.774037121685267143e-02
4.200000000000000000e+03 2.928949604735210654e-02 1.459733338591525167e-02 4.803939230278280598e-02
4.300000000000000000e+03 2.974174318846517853e-02 1.489264090111470581e-02 4.871577435235527331e-02
4.400000000000000000e+03 3.012071019164408447e-02 1.509276958399570663e-02 4.933977040985774998e-02
4.500000000000000000e+03 3.043792348359838917e-02 1.535658241294561577e-02 4.982090793986994337e-02
4.600000000000000000e+03 3.083286491593769177e-02 1.535320401763535549e-02 5.088994164171170564e-02
4.700000000000000000e+03 3.671532832569719684e-02 1.775553990632158796e-02 6.271026473869796558e-02
4.800000000000000000e+03 7.056273318024822161e-02 3.344827138553522344e-02 1.094583030816579927e-01
4.900000000000000000e+03 9.170817975965145363e-02 5.573775000852119327e-02 1.232959441016682756e-01
5.000000000000000000e+03 5.288723704608020576e-02 2.500616772014531072e-02 9.510278000083612071e-02
5.100000000000000000e+03 3.468358144026297690e-02 1.732341199435631640e-02 5.797028201604271375e-02
5.200000000000000000e+03 3.366582402316904005e-02 1.681829322643624974e-02 5.491287551880390944e-02
5.300000000000000000e+03 3.393171356881197198e-02 1.665030438480860284e-02 5.577017827947065159e-02
5.400000000000000000e+03 3.449157079749286953e-02 1.702510981079190591e-02 5.631768940084428549e-02
5.500000000000000000e+03 3.468992217952043128e-02 1.726252143701877823e-02 5.655850401552862255e-02
5.600000000000000000e+03 3.475015518998452596e-02 1.763180140815530025e-02 5.703402607545803721e-02
5.700000000000000000e+03 3.588206121776241209e-02 1.780534719376012515e-02 5.818905412532258264e-02
5.800000000000000000e+03 3.610847439383742252e-02 1.809225519148544362e-02 5.915770319503803332e-02
5.900000000000000000e+03 3.705375462304675432e-02 1.839639746883247814e-02 6.017531628417677886e-02
6.000000000000000000e+03 3.794272977245686379e-02 1.905340217238623082e-02 6.210904921534606687e-02
6.100000000000000000e+03 3.914300010435160793e-02 1.946313229377576517e-02 6.375684678188381360e-02
6.200000000000000000e+03 3.920338409509484257e-02 1.958893615386755882e-02 6.431588771509119673e-02
6.300000000000000000e+03 3.914756755549517186e-02 1.979044945295214269e-02 6.418796964805198457e-02
6.400000000000000000e+03 3.916241826011617605e-02 1.952665891635116391e-02 6.395111184976420837e-02
6.500000000000000000e+03 3.973950589454983834e-02 1.972882864509582432e-02 6.514522206719983166e-02
6.600000000000000000e+03 4.054814676421628072e-02 2.025592886358703812e-02 6.638669643339596693e-02
6.700000000000000000e+03 4.115854577697118655e-02 2.041423604693112445e-02 6.708514514730130884e-02
6.800000000000000000e+03 4.183715328208664069e-02 2.073259503533331910e-02 6.862934339432130715e-02
6.900000000000000000e+03 4.220756435754015323e-02 2.139377660921928936e-02 6.929819044582717635e-02
7.000000000000000000e+03 4.383272628647807978e-02 2.180498897459924937e-02 7.239427141529079790e-02
7.100000000000000000e+03 4.849612983900536411e-02 2.377329359215779939e-02 8.421357500289472497e-02
7.200000000000000000e+03 6.870843748893368241e-02 3.244775003059022916e-02 1.234533123824673034e-01
7.300000000000000000e+03 9.892368286048637549e-02 4.859342938922553423e-02 1.475303030546164240e-01
7.400000000000000000e+03 8.584510531434996761e-02 3.991021847514177739e-02 1.404800020731787891e-01
7.500000000000000000e+03 5.759557319471175080e-02 2.740481166613400674e-02 1.030276963849199728e-01
7.600000000000000000e+03 4.912222972158791778e-02 2.432563439673844641e-02 8.115170386656075929e-02
7.700000000000000000e+03 4.795376989418656533e-02 2.361649169175850452e-02 7.816884813434722690e-02
7.800000000000000000e+03 4.858542774335178338e-02 2.381176293511800754e-02 7.933617597325273718e-02
7.900000000000000000e+03 4.932787575202082081e-02 2.476000252370851376e-02 8.106603232114202584e-02
8.000000000000000000e+03 5.090642675145522905e-02 2.514802489147559619e-02 8.252944231192203828e-02
8.100000000000000000e+03 5.081688564821831844e-02 2.540580131332755009e-02 8.407129888099323933e-02
8.200000000000000000e+03 5.355812000960532421e-02 2.678071030296297686e-02 9.005000301057805578e-02
8.300000000000000000e+03 6.291617198327065230e-02 3.052699676450065097e-02 1.304366741540718411e-01
8.400000000000000000e+03 1.091733469584652283e-01 4.288913992414786908e-02 3.099867101805502401e-01
8.500000000000000000e+03 2.492874632540757751e-01 7.608407112973597508e-02 3.661778818156665727e-01
8.600000000000000000e+03 2.355498702750791484e-01 7.140438369781930417e-02 3.637946379169743616e-01
8.700000000000000000e+03 9.817152508973044089e-02 4.180588776155747671e-02 3.011785247769215856e-01
8.800000000000000000e+03 6.580817069113144291e-02 3.165672277351832403e-02 1.252857382659839092e-01
8.900000000000000000e+03 5.881346717402580887e-02 2.893553919052645890e-02 9.778271823191113377e-02
9.000000000000000000e+03 5.814669195911095767e-02 2.841688735010558520e-02 9.483977181161487580e-02
9.100000000000000000e+03 5.888659595285826442e-02 2.961816568342783701e-02 9.678645874464217314e-02
9.200000000000000000e+03 6.134123347178473129e-02 3.081590926825242271e-02 9.872182861446535118e-02
9.300000000000000000e+03 6.155421637279066133e-02 3.049170584923600533e-02 1.006607011350764136e-01
9.400000000000000000e+03 6.273470357364401007e-02 3.143951963883950124e-02 1.045661010959680753e-01
9.500000000000000000e+03 6.793319945467150844e-02 3.318930007832431722e-02 1.151447287555291688e-01
9.600000000000000000e+03 8.143305510574770645e-02 3.936972877892041395e-02 1.463935299301010184e-01
9.700000000000000000e+03 1.063630279352541369e-01 4.999629547628353654e-02 1.773449580563702110e-01
9.800000000000000000e+03 1.122101425501234179e-01 5.268617013745407335e-02 1.800058328398053686e-01
9.900000000000000000e+03 9.066132975766297286e-02 4.280848501645637127e-02 1.603550967793617443e-01
1.000000000000000000e+04 7.469665081165097198e-02 3.714357955981454490e-02 1.285776276011785790e-01
1.010000000000000000e+04 6.908750835487055542e-02 3.408827151815185114e-02 1.152068265363475064e-01
1.020000000000000000e+04 6.819866916800493284e-02 3.408954615298835644e-02 1.124335888561483893e-01
1.030000000000000000e+04 6.862849026934542129e-02 3.419884716692120352e-02 1.133566714823834726e-01
1.040000000000000000e+04 7.002635468931608931e-02 3.512085061302722827e-02 1.148837390587992002e-01
1.050000000000000000e+04 7.181828651985319723e-02 3.526976238750270665e-02 1.180244260480408092e-01
1.060000000000000000e+04 7.405069359158233944e-02 3.579796202002363814e-02 1.261057032387782606e-01
1.070000000000000000e+04 8.367230498010862216e-02 4.029518916476008267e-02 1.627647636424478517e-01
1.080000000000000000e+04 1.102039855141487834e-01 4.836856685144099582e-02 3.253418730643732881e-01
1.090000000000000000e+04 2.008555028002597109e-01 6.727876879097563489e-02 4.021330229055427030e-01
1.100000000000000000e+04 2.482779090216858386e-01 7.834376995267601507e-02 4.200407857740585671e-01
1.110000000000000000e+04 1.638666329251175502e-01 6.196797038283795994e-02 3.911696501774784562e-01
1.120000000000000000e+04 1.028969533984506884e-01 4.688990770044864503e-02 2.732945319985848331e-01
1.130000000000000000e+04 8.374899972970585582e-02 4.165802976632446836e-02 1.525814212578914808e-01
1.140000000000000000e+04 7.868693924348905966e-02 3.891074537920247156e-02 1.321716174098528651e-01
1.150000000000000000e+04 7.722827868086677705e-02 3.825506954929352998e-02 1.285646233098798885e-01
1.160000000000000000e+04 7.823375099710208613e-02 3.886838190204500165e-02 1.288812423858175238e-01
1.170000000000000000e+04 7.806829516818424020e-02 3.871019775062557733e-02 1.298315949198524666e-01
1.180000000000000000e+04 7.816486901198109460e-02 3.888104760228037332e-02 1.285864093209942438e-01
1.190000000000000000e+04 7.896385631992708376e-02 3.916798643984833322e-02 1.306828482157807170e-01
1.200000000000000000e+04 8.067888630190474253e-02 4.014779643676982118e-02 1.332473891204447314e-01
1.210000000000000000e+04 8.212420433726469460e-02 4.104146289357084310e-02 1.355791450644852347e-01
1.220000000000000000e+04 8.276556327621428788e-02 4.155200357855803189e-02 1.359166966814902011e-01
1.230000000000000000e+04 8.553054921042305137e-02 4.237007839750016325e-02 1.412232537103725871e-01
1.240000000000000000e+04 8.432545799976086387e-02 4.194488391464053917e-02 1.371200078087247698e-01
1.250000000000000000e+04 8.058436759466448829e-02 3.973175875411899538e-02 1.344914390714902486e-01
1.260000000000000000e+04 8.002465811781681038e-02 4.064045488618308472e-02 1.347225918310167581e-01
1.270000000000000000e+04 8.104624041179935012e-02 4.014521645513371290e-02 1.339886440336878481e-01
1.280000000000000000e+04 8.089317314126051595e-02 3.926658021250360037e-02 1.352564016749919218e-01
1.290000000000000000e+04 8.097710223128883056e-02 4.064158820404059624e-02 1.340418260612084023e-01
1.300000000000000000e+04 8.203190969226252516e-02 4.154462247395068059e-02 1.355462109471377852e-01
1.310000000000000000e+04 8.425407594031386616e-02 4.221974116511387209e-02 1.379265064467637136e-01
1.320000000000000000e+04 8.616085260010898639e-02 4.232043634910022389e-02 1.408153994869753567e-01
1.330000000000000000e+04 8.653673020051552700e-02 4.356837761517103752e-02 1.425951223265558010e-01
1.340000000000000000e+04 8.817990428791315505e-02 4.420325749487954287e-02 1.454727598459242544e-01
1.350000000000000000e+04 8.795296405577524013e-02 4.314269830212788537e-02 1.432168959881348347e-01
1.360000000000000000e+04 8.608158462591807003e-02 4.220847999666013650e-02 1.407891504324789989e-01
1.370000000000000000e+04 8.480103965225284368e-02 4.176262640429713457e-02 1.380319634620247315e-01
1.380000000000000000e+04 8.335521444339506758e-02 4.158044307463405753e-02 1.376223026972328289e-01
1.390000000000000000e+04 8.288597416177731492e-02 4.095336571310042445e-02 1.362153637216317881e-01
1.400000000000000000e+04 8.282495401490577724e-02 4.150153801430311179e-02 1.347095407248350418e-01
1.410000000000000000e+04 8.261752270386070462e-02 4.114829752261615209e-02 1.341874841573178212e-01
1.420000000000000000e+04 8.306008227365424545e-02 4.108679646872877289e-02 1.347344136419240945e-01
1.430000000000000000e+04 8.226041352255292205e-02 4.135469663754840625e-02 1.365038175712230406e-01
1.440000000000000000e+04 8.372879067045733981e-02 4.131488658958946264e-02 1.367123473607893547e-01
1.450000000000000000e+04 8.382359657800207697e-02 4.128575380870122546e-02 1.379374928957648183e-01
1.460000000000000000e+04 8.429178346534010879e-02 4.230743987455490990e-02 1.388390671140220245e-01
1.470000000000000000e+04 8.468032193780113126e-02 4.190243980718872524e-02 1.393856366861543628e-01
1.480000000000000000e+04 8.391242627259651310e-02 4.155047176052811125e-02 1.380573884807769769e-01
1.490000000000000000e+04 8.392045100965010718e-02 4.141610286695687065e-02 1.362520719039315154e-01
1.500000000000000000e+04 8.253783467429588738e-02 4.125686980948729127e-02 1.355053223911804883e-01
1.510000000000000000e+04 8.166759371293826064e-02 4.116860151694805986e-02 1.335594611915962848e-01
1.520000000000000000e+04 8.084875328985380305e-02 3.999950394472004400e-02 1.333520485688833579e-01
1.530000000000000000e+04 8.131911447664402770e-02 4.069070166318487780e-02 1.333761231478369780e-01
1.540000000000000000e+04 8.076027170453478621e-02 4.056160413349863686e-02 1.331081576743770312e-01
1.550000000000000000e+04 8.104153583842370334e-02 3.949302798870413939e-02 1.336888064005553600e-01
1.560000000000000000e+04 8.107386083165696311e-02 4.031989089227412670e-02 1.335183437445413013e-01
1.570000000000000000e+04 8.452488496878932112e-02 4.143660478375964934e-02 1.406543915135542722e-01
1.580000000000000000e+04 8.550847571077774267e-02 4.232699871671276315e-02 1.399988441608506773e-01
1.590000000000000000e+04 8.361097857653136678e-02 4.045753060290202541e-02 1.373477112980563963e-01
1.600000000000000000e+04 8.240236840822259823e-02 4.082245334713952706e-02 1.348834731597590431e-01
1.610000000000000000e+04 8.075916486862311228e-02 4.065484084592835973e-02 1.335933049760915092e-01
1.620000000000000000e+04 8.024768337914049698e-02 3.986443313575144254e-02 1.317339684382322351e-01
1.630000000000000000e+04 7.943569236325449812e-02 3.955279142718594321e-02 1.294515050309514304e-01
1.640000000000000000e+04 7.941355853715593993e-02 3.923504968529599457e-02 1.285600277971996330e-01
1.650000000000000000e+04 7.831306198064220958e-02 3.833912452204096821e-02 1.292496561208310024e-01
1.660000000000000000e+04 8.139026703726012779e-02 4.038983517871709561e-02 1.346868975807054003e-01
1.670000000000000000e+04 8.418149338482058819e-02 4.188252965865459088e-02 1.379300400373414948e-01
1.680000000000000000e+04 7.760757453747224588e-02 3.937605933107503342e-02 1.280770349755039061e-01
1.690000000000000000e+04 7.790306473482899730e-02 3.879645536386443910e-02 1.277380905760318319e-01
1.700000000000000000e+04 7.858776936493869214e-02 3.949302455542693518e-02 1.282810721272378829e-01
1.710000000000000000e+04 7.792852366640050377e-02 3.868133743552435583e-02 1.274750731869931375e-01
1.720000000000000000e+04 7.743762272357540555e-02 3.916629666451390546e-02 1.270146485674870929e-01
1.730000000000000000e+04 7.661006853051290089e-02 3.776283057314324537e-02 1.262331832330444992e-01
1.740000000000000000e+04 7.599863876809183350e-02 3.818279165052847896e-02 1.251627733340756887e-01
1.750000000000000000e+04 7.734168343179696758e-02 3.835295301591953865e-02 1.272011777204923311e-01
1.760000000000000000e+04 7.698629835425851997e-02 3.793823387076826481e-02 1.274104680103369247e-01
1.770000000000000000e+04 7.603770855838763720e-02 3.750916473547288854e-02 1.248790051065263723e-01
1.780000000000000000e+04 7.515752024038514778e-02 3.762328402857424703e-02 1.228519916959061598e-01
1.790000000000000000e+04 7.538688606588313246e-02 3.747084621731486959e-02 1.227457181897099736e-01
1.800000000000000000e+04 7.455510641537599348e-02 3.764034397875767879e-02 1.223173583125665570e-01
1.810000000000000000e+04 7.399862440419474607e-02 3.591254139192584516e-02 1.213536849677607499e-01
1.820000000000000000e+04 7.301488531245407809e-02 3.705670589631616246e-02 1.203749248421970286e-01
1.830000000000000000e+04 7.346500373149905672e-02 3.659893409529788727e-02 1.201276580609658279e-01
1.840000000000000000e+04 7.327839164490786150e-02 3.714362713532183558e-02 1.200805453299855774e-01
1.850000000000000000e+04 7.406789570925760569e-02 3.658475722031467869e-02 1.208871594711295738e-01
1.860000000000000000e+04 7.392466704835727598e-02 3.647298587016786081e-02 1.195813154183554688e-01
1.870000000000000000e+04 7.259709549749207569e-02 3.663553552558056203e-02 1.191170357947990976e-01
1.880000000000000000e+04 7.287327649224230319e-02 3.652270127386345044e-02 1.195017724747384630e-01
1.890000000000000000e+04 7.278062956092279379e-02 3.577345772966197823e-02 1.185842878120021288e-01
1.900000000000000000e+04 7.271394148902357579e-02 3.643930293310809754e-02 1.181704062239351816e-01
1.910000000000000000e+04 7.270074723969011110e-02 3.643364104082634503e-02 1.190360098247980197e-01
1.920000000000000000e+04 8.042108483886879766e-02 4.034394155867122161e-02 1.310081232500174553e-01
1.930000000000000000e+04 7.596746648093684329e-02 3.857748064778517005e-02 1.233922213292525383e-01
1.940000000000000000e+04 7.436272805353505433e-02 3.643510719919316326e-02 1.209453244274759781e-01
1.950000000000000000e+04 7.201142045133826497e-02 3.574225251533047487e-02 1.181851463148891335e-01
1.960000000000000000e+04 7.178360154780803748e-02 3.577100723246508240e-02 1.160874349522685728e-01
1.970000000000000000e+04 7.024575997864790367e-02 3.537126238042172938e-02 1.154843871238449282e-01
1.980000000000000000e+04 7.002694065908253440e-02 3.521167746754671340e-02 1.138669457511092137e-01
1.990000000000000000e+04 6.975191073605550851e-02 3.451741643905488488e-02 1.134904817088977780e-01
2.000000000000000000e+04 6.914430163182787303e-02 3.485619763761709650e-02 1.124153413362961318e-01
2.010000000000000000e+04 6.923678682458342393e-02 3.524509774602173351e-02 1.134096017233429815e-01
2.020000000000000000e+04 6.931570703317188609e-02 3.532767974354102114e-02 1.138575085324100844e-01
2.030000000000000000e+04 7.018456295386392430e-02 3.534717034560930921e-02 1.148273573356765054e-01
2.040000000000000000e+04 4.938059251525064863e-01 4.264963043842603940e-01 5.608756322701754504e-01
2.050000000000000000e+04 1.118999973849624352e+00 1.059198670093684180e+00 1.179243668997055794e+00
2.060000000000000000e+04 6.373234756925416633e-01 5.685648387846026219e-01 7.033503078662067809e-01
2.070000000000000000e+04 7.133954205359899214e-02 3.584010704658775054e-02 1.165651028197498690e-01
2.080000000000000000e+04 6.795034331136327876e-02 3.368506361692138323e-02 1.121435927526726745e-01
2.090000000000000000e+04 6.765393956630141870e-02 3.398279242974433512e-02 1.113022645733624666e-01
2.100000000000000000e+04 6.726345089706399494e-02 3.370923397100721031e-02 1.102853992571924124e-01
2.110000000000000000e+04 6.809111742760405594e-02 3.444798012309435026e-02 1.113590447168895659e-01
2.120000000000000000e+04 6.852704018294258903e-02 3.368244014319686508e-02 1.130792406257800781e-01
2.130000000000000000e+04 7.047544759786622537e-02 3.469686279502316034e-02 1.154170285610712499e-01
2.140000000000000000e+04 8.138747966163628611e-02 4.031282010254062798e-02 1.324408853462620550e-01
2.150000000000000000e+04 8.448920528142242481e-02 4.250031400120458241e-02 1.390075644300312330e-01
2.160000000000000000e+04 6.995533737385696560e-02 3.454529447972642942e-02 1.138917538032448162e-01
2.170000000000000000e+04 6.518675088939578088e-02 3.283341056552913084e-02 1.072025614268355270e-01
2.180000000000000000e+04 6.536437097378661187e-02 3.227267606429761598e-02 1.070467968960531757e-01
2.190000000000000000e+04 6.523784862906485682e-02 3.298684186311453409e-02 1.054166173440035520e-01
2.200000000000000000e+04 6.404259660145683597e-02 3.243197135964128591e-02 1.046841535867868017e-01
2.210000000000000000e+04 6.311456812582891263e-02 3.129435595911798929e-02 1.036915072014685524e-01
2.220000000000000000e+04 6.322881664785261202e-02 3.138665672269240481e-02 1.028781468155779977e-01
2.230000000000000000e+04 6.303313612792565968e-02 3.145660950066071077e-02 1.028933917281925486e-01
2.240000000000000000e+04 6.337059826310727229e-02 3.179136058604353776e-02 1.032051227926045756e-01
2.250000000000000000e+04 6.332028028284701626e-02 3.187044054074904958e-02 1.032418032762922599e-01
2.260000000000000000e+04 6.319945155240130896e-02 3.171989926157281481e-02 1.033255028480889459e-01
2.270000000000000000e+04 6.244564858027100429e-02 3.083784829966581056e-02 1.025763035381016125e-01
2.280000000000000000e+04 6.218093908808140780e-02 3.088689901236385538e-02 1.015970078132886478e-01
2.290000000000000000e+04 6.256352813073701169e-02 3.129651945266425511e-02 1.020319948688962752e-01
2.300000000000000000e+04 6.257501593338635204e-02 3.167125987423263095e-02 1.027048955115021506e-01
2.310000000000000000e+04 6.217594108482460413e-02 3.110378546774864028e-02 1.014107158500990452e-01
2.320000000000000000e+04 6.170871528393843952e-02 3.131288437217089743e-02 1.012338592116030500e-01
2.330000000000000000e+04 6.198386975399891585e-02 3.070495876392684981e-02 1.020965387558635390e-01
2.340000000000000000e+04 6.240257823630959017e-02 3.195674901240719984e-02 1.016793498728052886e-01
2.350000000000000000e+04 6.155440218205051467e-02 3.077089678624153266e-02 1.000946860720488552e-01
2.360000000000000000e+04 6.155978549032289915e-02 3.022279553526674781e-02 9.979398628037312868e-02
2.370000000000000000e+04 6.125652259797269988e-02 3.104925389274445710e-02 1.001816669263500964e-01
2.380000000000000000e+04 6.251746016605430611e-02 3.099678839290963273e-02 1.013047093593476278e-01
2.390000000000000000e+04 6.186996536061933200e-02 3.062660835971218673e-02 1.003396175984143379e-01
2.400000000000000000e+04 6.198806740948567540e-02 3.129635325655426292e-02 1.012375702808142458e-01
2.410000000000000000e+04 6.146450544859802245e-02 3.049495669283893221e-02 1.002693121194307285e-01
2.420000000000000000e+04 6.005761074300268454e-02 3.002236093458249613e-02 9.799696491680202903e-02
2.430000000000000000e+04 5.935888949365298456e-02 2.949993025485899215e-02 9.675488259272115033e-02
2.440000000000000000e+04 5.815530214581823842e-02 2.914334381203164889e-02 9.629051650850597999e-02
2.450000000000000000e+04 5.919700922403623583e-02 2.981736718163689737e-02 9.692043705614546145e-02
2.460000000000000000e+04 5.961019040968291993e-02 2.978716334050846362e-02 9.652758579152614926e-02
2.470000000000000000e+04 5.886404454043094037e-02 2.971638762862093691e-02 9.565953715117478384e-02
2.480000000000000000e+04 5.780413798655349017e-02 2.908500253330988800e-02 9.400293777498974768e-02
2.490000000000000000e+04 5.777534389826924355e-02 2.910623175303868673e-02 9.529658698711450382e-02
2.500000000000000000e+04 5.790974507910338215e-02 2.890614447523111308e-02 9.488582181556673434e-02
2.510000000000000000e+04 5.743934567879568909e-02 2.841560856002355376e-02 9.359225474281246404e-02
2.520000000000000000e+04 5.722251028458538724e-02 2.857290674281734444e-02 9.280340941866721538e-02
2.530000000000000000e+04 5.773845953043781759e-02 2.858847762829747757e-02 9.342341851262180030e-02
2.540000000000000000e+04 5.727182386558998806e-02 2.846661140958551411e-02 9.335308591646365728e-02
2.550000000000000000e+04 5.665450513943370847e-02 2.830172159860928557e-02 9.307625607613921603e-02
2.560000000000000000e+04 5.714789224237507015e-02 2.843173950310539169e-02 9.351640095172845946e-02
2.570000000000000000e+04 5.719528743214814803e-02 2.904670511998551363e-02 9.319669558903757867e-02
2.580000000000000000e+04 5.619652841772299068e-02 2.867868594916369099e-02 9.191150612356478733e-02
2.590000000000000000e+04 5.566029757062712635e-02 2.758570188959407962e-02 9.107158080052261961e-02
2.600000000000000000e+04 5.560710773682208535e-02 2.748821928246332480e-02 9.059307870754419734e-02
2.610000000000000000e+04 5.601362949265757674e-02 2.829116546011141431e-02 9.094707996153847396e-02
2.620000000000000000e+04 5.532767497585545230e-02 2.808490947614384128e-02 9.127471052424571130e-02
2.630000000000000000e+04 5.514738714335030295e-02 2.734964285662968078e-02 8.991506319868357300e-02
2.640000000000000000e+04 5.496771733253034975e-02 2.777626472970606483e-02 9.007789006503631735e-02
2.650000000000000000e+04 5.544974169439366440e-02 2.826078603745448697e-02 8.997294613584135015e-02
2.660000000000000000e+04 5.522161704801895055e-02 2.749846570284043834e-02 8.962725529613177478e-02
2.670000000000000000e+04 5.518161333764611681e-02 2.771828776818125936e-02 8.995482045707520191e-02
2.680000000000000000e+04 5.553042093762063092e-02 2.797427677210789429e-02 9.078736995252006947e-02
2.690000000000000000e+04 5.553932001163470328e-02 2.778019192545487168e-02 9.023738417083657093e-02
2.700000000000000000e+04 5.548208385257022424e-02 2.794814539234746764e-02 9.038299712842759459e-02
2.710000000000000000e+04 5.485510584918475846e-02 2.723439517885984859e-02 8.935570899798767064e-02
2.720000000000000000e+04 5.341542498912470183e-02 2.668638910189908078e-02 8.794543502409137015e-02
2.730000000000000000e+04 5.373619629908481243e-02 2.684219411416559689e-02 8.722332807458940684e-02
2.740000000000000000e+04 5.351120885119755449e-02 2.677913074274738264e-02 8.764179202425938231e-02
2.750000000000000000e+04 5.314901435681247677e-02 2.676685751942796052e-02 8.719468993708830162e-02
2.760000000000000000e+04 5.301063963976181126e-02 2.637165056871247637e-02 8.652632349065193795e-02
2.770000000000000000e+04 5.317955926115639637e-02 2.685140005951928976e-02 8.654096581035422564e-02
2.780000000000000000e+04 5.635315091334070631e-02 2.793849576887174127e-02 9.172877128243200895e-02
2.790000000000000000e+04 8.185746218668547014e-01 7.642366696230821210e-01 8.721432071975729894e-01
2.800000000000000000e+04 1.499852911584215631e+00 1.454078847300678046e+00 1.547479641615536305e+00
2.810000000000000000e+04 6.878592510722391085e-01 6.349588522848788052e-01 7.430449463755928186e-01
2.820000000000000000e+04 5.408417966232483692e-02 2.686132961433466276e-02 8.864063081638533237e-02
2.830000000000000000e+04 5.198174473856142369e-02 2.607124275000020572e-02 8.457429604842235660e-02
2.840000000000000000e+04 5.096445589449577485e-02 2.553464260438634281e-02 8.244608552505255927e-02
2.850000000000000000e+04 5.063998476929089387e-02 2.512414123078408890e-02 8.185279399725353677e-02
2.860000000000000000e+04 5.070598812303788588e-02 2.539688770001214541e-02 8.139264765612533314e-02
2.870000000000000000e+04 5.056808089793717043e-02 2.541092079117195091e-02 8.151909504270599127e-02
2.880000000000000000e+04 5.550700639584191937e-02 2.753188545971222562e-02 8.917280936538889147e-02
2.890000000000000000e+04 5.257148205959680937e-02 2.664811245845556328e-02 8.486136884262676650e-02
2.900000000000000000e+04 4.818729001486009994e-02 2.418335811370779867e-02 7.926121230488415714e-02
2.910000000000000000e+04 4.836670926348038413e-02 2.394470810260226207e-02 7.804934673331506700e-02
2.920000000000000000e+04 4.838249587723990330e-02 2.419094268147374202e-02 7.841189758732385051e-02
2.930000000000000000e+04 4.855705297417774874e-02 2.418410467479048184e-02 7.826134924079225508e-02
2.940000000000000000e+04 4.776257621097220601e-02 2.381917368016044784e-02 7.786731974033218873e-02
2.950000000000000000e+04 4.710464932997193016e-02 2.370530987052530889e-02 7.767747261750861110e-02
2.960000000000000000e+04 4.759976810347126691e-02 2.325132982653062286e-02 7.733966412521771361e-02
2.970000000000000000e+04 4.683306755749871986e-02 2.334805815169113327e-02 7.614096700524296268e-02
2.980000000000000000e+04 4.922462957696441266e-02 2.446052062716230768e-02 7.947426535779326950e-02
2.990000000000000000e+04 5.677532867048042109e-02 2.809752033200922650e-02 9.169188479947094905e-02
3.000000000000000000e+04 5.008176967343346692e-02 2.506048853266101134e-02 8.116388469255018945e-02
3.010000000000000000e+04 4.864998074572745440e-02 2.409958443166321240e-02 7.915852211541515859e-02
3.020000000000000000e+04 5.004772031903243629e-02 2.545914050787060137e-02 8.171270052321186195e-02
3.030000000000000000e+04 4.657688376551978593e-02 2.320542712066494054e-02 7.504037118135746531e-02
3.040000000000000000e+04 5.777608309655438840e-02 2.898929792884992127e-02 9.394833251870290947e-02
3.050000000000000000e+04 7.585910033205481295e-02 3.808206010931151908e-02 1.230388946139147760e-01
3.060000000000000000e+04 6.210623796663733431e-02 3.057843788986092104e-02 1.015266980393375595e-01
3.070000000000000000e+04 8.110153853218414477e-02 4.010958953763829604e-02 1.319724738706337941e-01
3.080000000000000000e+04 5.733501251322396103e-02 2.840399237427269213e-02 9.397296130533043523e-02
3.090000000000000000e+04 6.803044034229781267e-02 3.514060605703765716e-02 1.059210846171093623e-01
3.100000000000000000e+04 1.315320301448961171e-01 9.192626370329178009e-02 1.712250012620464001e-01
3.110000000000000000e+04 8.620357813743645403e-02 4.714041531199670426e-02 1.270193995173090895e-01
3.120000000000000000e+04 4.485727433857315122e-02 2.240801582071684506e-02 7.305836836118323463e-02
3.130000000000000000e+04 4.420456171519841077e-02 2.184746845703411031e-02 7.163643201999064791e-02
3.140000000000000000e+04 4.500160401420299355e-02 2.277754043481978324e-02 7.329951812383019016e-02
3.150000000000000000e+04 4.532721605899173167e-02 2.255135625281619316e-02 7.387412695967512932e-02
3.160000000000000000e+04 4.380804719579606266e-02 2.197008880636716968e-02 7.104697808994811514e-02
3.170000000000000000e+04 4.348675313095145406e-02 2.154569170843196463e-02 7.020970686840609376e-02
3.180000000000000000e+04 4.302145628470683408e-02 2.105591298194671793e-02 7.022333802951441495e-02
3.190000000000000000e+04 4.350889135974978644e-02 2.134534212522425090e-02 7.041892783686866386e-02
3.200000000000000000e+04 4.295440852389599551e-02 2.133464264574595412e-02 7.010495796844921912e-02
3.210000000000000000e+04 4.267332702215008433e-02 2.128275995137615673e-02 6.955465203338202784e-02
3.220000000000000000e+04 4.288703335297304464e-02 2.144545668532931229e-02 7.025908457470314561e-02
3.230000000000000000e+04 4.240324831264902922e-02 2.143780207150236539e-02 6.955290302675516678e-02
3.240000000000000000e+04 4.268081807814596423e-02 2.171119810821210000e-02 6.959446534282887065e-02
3.250000000000000000e+04 4.268557985236216129e-02 2.129136822047833152e-02 6.946290301201263340e-02
3.260000000000000000e+04 4.194761620394638069e-02 2.106579325015208934e-02 6.862479486077187329e-02
3.270000000000000000e+04 4.179342139582360033e-02 2.094359310391772158e-02 6.754033142238345666e-02
3.280000000000000000e+04 4.185573876638185031e-02 2.111424557000675037e-02 6.769102818810765476e-02
3.290000000000000000e+04 4.131757128252901839e-02 2.052416107614146376e-02 6.751375954698453363e-02
3.300000000000000000e+04 4.523947547346483106e-02 2.269200676174589273e-02 7.381497952719123790e-02
3.310000000000000000e+04 7.488919724559021940e-02 4.267562123603269725e-02 1.084156991104326812e-01
3.320000000000000000e+04 6.040609417114277402e-02 3.160943923037056597e-02 9.344840835971215953e-02
3.330000000000000000e+04 4.125301435602139744e-02 2.008785431372499958e-02 6.753052405577296413e-02
3.340000000000000000e+04 4.119789394457069182e-02 2.048816555779763363e-02 6.589305777191326041e-02
3.350000000000000000e+04 4.038862969605501452e-02 2.048624677704513966e-02 6.591832395739308237e-02
3.360000000000000000e+04 4.020412579083609828e-02 2.028596271294687628e-02 6.584543939674815383e-02
3.370000000000000000e+04 4.003553098713805852e-02 2.066549416083864749e-02 6.512949112343190128e-02
3.380000000000000000e+04 4.002454175360032479e-02 1.974743750271513651e-02 6.524281498762303511e-02
3.390000000000000000e+04 4.013932407755694404e-02 2.010218561620359667e-02 6.505496266165497476e-02
3.400000000000000000e+04 3.933714744313582951e-02 1.949826896217321526e-02 6.421149852777266465e-02
3.410000000000000000e+04 3.954427211384054647e-02 1.952682153198905327e-02 6.455690993608557970e-02
3.420000000000000000e+04 3.941731330441536341e-02 1.959115940354595742e-02 6.429116088792533046e-02
3.430000000000000000e+04 3.976300556068278202e-02 1.958040345636787374e-02 6.397178705403305798e-02
3.440000000000000000e+04 3.923075951489699703e-02 1.935922852216614976e-02 6.368189672437644944e-02
3.450000000000000000e+04 3.865908764987217167e-02 1.929745066022333852e-02 6.339266261852288808e-02
3.460000000000000000e+04 3.911753501381710213e-02 1.953908220773618171e-02 6.326169617238672216e-02
3.470000000000000000e+04 3.851193604028688849e-02 1.906481304851267641e-02 6.266324226568169287e-02
3.480000000000000000e+04 3.822144843484852339e-02 1.883971667171446124e-02 6.261732126890504069e-02
3.490000000000000000e+04 3.839876773558355272e-02 1.940436349294731577e-02 6.295188478281675548e-02
3.500000000000000000e+04 3.884718017023296166e-02 1.920926154185044823e-02 6.295379707830822680e-02
3.510000000000000000e+04 3.839050986391740611e-02 1.917706808715723132e-02 6.249433048028564530e-02
3.520000000000000000e+04 3.778030223840404128e-02 1.885531164365552778e-02 6.161551608754251702e-02
3.530000000000000000e+04 3.789454397377306494e-02 1.896753785009087923e-02 6.166485326635669922e-02
3.540000000000000000e+04 3.927198748012726559e-02 1.960912366124715339e-02 6.389444977913802393e-02
3.550000000000000000e+04 4.034607727116219789e-02 2.044913277440936483e-02 6.544463381239049027e-02
3.560000000000000000e+04 3.781341509783953808e-02 1.877006159510617028e-02 6.109586173900748846e-02
3.570000000000000000e+04 3.753591095319926824e-02 1.845755093734079144e-02 6.119220233658417135e-02
3.580000000000000000e+04 3.754933209300725938e-02 1.917505793609872514e-02 6.074316902487307546e-02
3.590000000000000000e+04 3.740740607317971644e-02 1.852262292018060433e-02 6.062356111430528688e-02
3.600000000000000000e+04 3.710622277413030273e-02 1.860208994369507568e-02 6.029969611272829877e-02
3.610000000000000000e+04 3.716793247038063797e-02 1.878391299775943046e-02 5.997335580439476510e-02
3.620000000000000000e+04 3.645342618355046360e-02 1.813316442037063436e-02 5.961531582660890144e-02
3.630000000000000000e+04 3.649070396305871544e-02 1.832685126502141965e-02 5.959666428631357760e-02
3.640000000000000000e+04 3.636408358310017075e-02 1.821306386478395434e-02 5.942303775544911099e-02
3.650000000000000000e+04 3.613827132250763824e-02 1.790489816581540203e-02 5.849134162807664156e-02
3.660000000000000000e+04 3.647507450534697576e-02 1.823804683651380348e-02 5.964176942275804111e-02
3.670000000000000000e+04 3.688454558708991610e-02 1.839320555522648906e-02 6.010822878492096816e-02
3.680000000000000000e+04 3.659501922826270681e-02 1.859209083666665124e-02 5.944063959857330548e-02
3.690000000000000000e+04 3.639898599006794605e-02 1.816137104151180001e-02 5.864498698609709598e-02
3.700000000000000000e+04 4.706076807885522378e-02 2.348648078156429647e-02 7.716841470591888352e-02
3.710000000000000000e+04 6.557632869742444082e-02 3.282565645671774862e-02 1.060916472927550258e-01
3.720000000000000000e+04 5.046246334237835390e-02 2.499153605050575752e-02 8.261334333730939450e-02
3.730000000000000000e+04 6.901084300099219471e-02 3.419627705011326485e-02 1.135867821290862389e-01
3.740000000000000000e+04 4.929523717535993360e-02 2.410082953686637844e-02 8.085106397839950110e-02
3.750000000000000000e+04 3.738520342652175421e-02 1.882392692804284520e-02 6.050488484229994690e-02
3.760000000000000000e+04 7.703170966779739059e-02 4.837157044865714184e-02 1.059280882958687081e-01
3.770000000000000000e+04 8.109468548022580325e-02 5.295281281496666548e-02 1.099154318275508552e-01
3.780000000000000000e+04 3.836096604386209086e-02 1.927431656826443865e-02 6.206055063763983581e-02
3.790000000000000000e+04 3.558819193959580213e-02 1.781414623932512861e-02 5.790506508297180166e-02
3.800000000000000000e+04 3.505267602872505495e-02 1.741865747876151713e-02 5.739919747405198419e-02
3.810000000000000000e+04 3.532530396153952396e-02 1.763993810681013102e-02 5.725751803807060253e-02
3.820000000000000000e+04 4.075484851270060049e-02 2.015322286109459335e-02 6.637604877358663225e-02
3.830000000000000000e+04 4.598039386137833806e-02 2.284023510419225939e-02 7.516921040465977810e-02
3.840000000000000000e+04 4.053588710137590728e-02 1.986837871195547972e-02 6.583940905959922985e-02
3.850000000000000000e+04 3.702532488027900776e-02 1.865041918853909200e-02 6.018435701142933747e-02
3.860000000000000000e+04 3.490563268596091201e-02 1.722614771289340818e-02 5.614481045060296799e-02
3.870000000000000000e+04 3.394812054335891172e-02 1.681143261835711666e-02 5.541802315518064292e-02
3.880000000000000000e+04 3.388536836487586468e-02 1.676786992007179428e-02 5.513980857026750532e-02
3.890000000000000000e+04 3.395739270256058900e-02 1.652950139202290572e-02 5.539772626127044408e-02
3.900000000000000000e+04 3.439511651916662971e-02 1.739088335083600889e-02 5.590262834449977181e-02
3.910000000000000000e+04 3.846051413591682067e-02 1.929231877172433648e-02 6.264293149807935446e-02
3.920000000000000000e+04 8.392436538846860528e-02 5.485738320647130101e-02 1.126856386952365535e-01
3.930000000000000000e+04 7.681515811708579389e-02 4.860511870756502317e-02 1.064532381263412486e-01
3.940000000000000000e+04 3.533131508638072404e-02 1.793509325990719216e-02 5.842470884584431701e-02
3.950000000000000000e+04 3.343596568374639783e-02 1.659847526315095731e-02 5.442244312406866596e-02
3.960000000000000000e+04 3.317558334055823593e-02 1.662470500493825123e-02 5.374402450695262012e-02
3.970000000000000000e+04 3.313529782439412347e-02 1.664512101611619055e-02 5.417415426210979434e-02
3.980000000000000000e+04 3.305257482030844740e-02 1.656335871772866841e-02 5.384447907167235620e-02
3.990000000000000000e+04 3.280257756193410978e-02 1.618632002404886416e-02 5.409662620773272868e-02
4.000000000000000000e+04 3.326147541025109566e-02 1.672211496243859036e-02 5.408623383923973071e-02
4.010000000000000000e+04 3.346090639783541598e-02 1.663887998381910135e-02 5.407352612872746295e-02
4.020000000000000000e+04 3.326653382321220070e-02 1.654856580411447758e-02 5.452341458613822051e-02
4.030000000000000000e+04 3.317434754261055357e-02 1.666125793535954552e-02 5.383305444119611954e-02
4.040000000000000000e+04 3.259148810270155044e-02 1.639678167709270745e-02 5.320479976729587668e-02
4.050000000000000000e+04 3.255789413392478487e-02 1.610490223317551095e-02 5.259910919922881206e-02
4.060000000000000000e+04 3.285240682762607944e-02 1.634216032764925983e-02 5.289484263390628604e-02
4.070000000000000000e+04 3.245232637735314535e-02 1.630467332236491818e-02 5.321555666409073793e-02
4.080000000000000000e+04 3.201946304523009545e-02 1.589671524843870587e-02 5.254100097427303467e-02
4.090000000000000000e+04 4.284309675090415548e-02 2.197673545293558905e-02 6.681587893594768957e-02
4.100000000000000000e+04 8.528661259171618769e-02 5.987291988791441227e-02 1.119585932370441850e-01
4.110000000000000000e+04 5.921542832582537413e-02 3.467383723741954832e-02 8.485428096317818025e-02
4.120000000000000000e+04 3.176012966283392469e-02 1.562784447911925653e-02 5.158504629745817166e-02
4.130000000000000000e+04 3.166508772351574186e-02 1.606285712803298682e-02 5.184760298148826524e-02
4.140000000000000000e+04 3.214431666313424113e-02 1.595552222812336024e-02 5.160512176276654817e-02
4.150000000000000000e+04 3.176003583421075499e-02 1.570358690926643500e-02 5.176234636811917478e-02
4.160000000000000000e+04 3.121324954613007713e-02 1.547177415928694712e-02 5.111881598640058422e-02
4.170000000000000000e+04 3.129396169275359962e-02 1.533757144417984865e-02 5.096171164825021027e-02
4.180000000000000000e+04 3.099816711210167872e-02 1.554159433055031861e-02 5.037051583176862385e-02
4.190000000000000000e+04 3.057901029345813301e-02 1.550885684100133770e-02 4.987732287895332850e-02
4.200000000000000000e+04 3.057373702918486300e-02 1.527962062016061454e-02 4.992381708860717249e-02
4.210000000000000000e+04 3.080958883046083785e-02 1.542410601009473400e-02 5.019260880838360278e-02
4.220000000000000000e+04 3.092557745415071280e-02 1.564629549521123070e-02 5.039245753546532647e-02
4.230000000000000000e+04 3.091040278068648769e-02 1.541338922960747322e-02 4.981292440362632135e-02
4.240000000000000000e+04 3.057662068800561656e-02 1.512045525668002412e-02 4.989034304334236808e-02
4.250000000000000000e+04 3.033581887072184582e-02 1.497036089103701353e-02 5.010333952074694924e-02
4.260000000000000000e+04 3.059430137328066068e-02 1.516834004401757842e-02 5.047923280935950191e-02
4.270000000000000000e+04 3.132134832651206624e-02 1.555341134172446779e-02 5.038553253159529233e-02
4.280000000000000000e+04 3.106287554357160460e-02 1.562052828497596801e-02 5.031338992982547359e-02
4.290000000000000000e+04 3.102214841005368137e-02 1.539702104769016117e-02 5.081822892068089265e-02
4.300000000000000000e+04 3.090484695121836420e-02 1.551074656531022111e-02 5.037324237633154789e-02
4.310000000000000000e+04 3.051391221069678361e-02 1.528477473528925060e-02 5.012746861724032971e-02
4.320000000000000000e+04 3.063555595710019952e-02 1.564750208125049655e-02 4.994593741589341274e-02
4.330000000000000000e+04 3.070333525893395588e-02 1.525282587486519181e-02 5.038610515111843768e-02
4.340000000000000000e+04 3.044280865153662502e-02 1.534949741622395475e-02 5.004926706299691469e-02
4.350000000000000000e+04 3.043010110348203998e-02 1.527505868021484213e-02 5.000370985199485696e-02
4.360000000000000000e+04 3.011209307985853248e-02 1.493071085179576915e-02 4.938198517305980584e-02
4.370000000000000000e+04 3.012250078814729740e-02 1.511873454943299389e-02 4.894774070776561348e-02
4.380000000000000000e+04 3.006790006763334494e-02 1.498540801230254481e-02 4.943053116403187119e-02
4.390000000000000000e+04 3.071729679822350970e-02 1.533883589581005666e-02 5.012093053131117665e-02
4.400000000000000000e+04 3.098352212061782768e-02 1.548052962307329417e-02 5.010725059722959812e-02
4.410000000000000000e+04 3.120945200559557819e-02 1.560123078281970208e-02 5.113496939324579937e-02
4.420000000000000000e+04 4.190560132324250286e-02 2.117918770403202228e-02 6.817386447576077868e-02
4.430000000000000000e+04 4.379208295417441610e-02 2.202210069776245130e-02 7.081991760629355315e-02
4.440000000000000000e+04 3.153999915664380121e-02 1.591954471145028138e-02 5.133585998246392029e-02
4.450000000000000000e+04 2.997390530192357155e-02 1.488514751584124954e-02 4.872814668599993737e-02
4.460000000000000000e+04 2.997218334219039701e-02 1.488159309320653476e-02 4.876610283981996224e-02
4.470000000000000000e+04 2.969251449213667488e-02 1.475877364131423369e-02 4.816591895983917543e-02
4.480000000000000000e+04 2.958033228588820285e-02 1.451756196281798854e-02 4.811594196293442205e-02
4.490000000000000000e+04 3.002511963357746769e-02 1.492364003741124788e-02 4.945978678104979293e-02
4.500000000000000000e+04 3.027379043417379248e-02 1.533998066752522565e-02 4.960810585562337727e-02
4.510000000000000000e+04 3.043479631161685739e-02 1.520220844150891280e-02 4.940367002690799342e-02
4.520000000000000000e+04 3.023320957060337058e-02 1.507114616905882304e-02 4.907113165318414960e-02
4.530000000000000000e+04 4.613772354378505719e-02 2.327543565483376764e-02 7.523726933176272391e-02
4.540000000000000000e+04 1.004938403319160373e-01 5.014653699957136862e-02 1.633464058534343788e-01
4.550000000000000000e+04 1.016901044412927696e-01 5.028980111926351776e-02 1.674725143609168132e-01
4.560000000000000000e+04 4.991988823933491554e-02 2.488188384918844226e-02 8.206777387714972449e-02
4.570000000000000000e+04 2.966823531387851806e-02 1.494500887305185571e-02 4.830526374235057790e-02
4.580000000000000000e+04 2.938609964129311122e-02 1.484008131082849812e-02 4.751963452805190585e-02
4.590000000000000000e+04 2.930372801838673769e-02 1.414479552910375207e-02 4.759101439745602041e-02
4.600000000000000000e+04 2.934931043750918858e-02 1.497685034923872116e-02 4.848971880244824784e-02
4.610000000000000000e+04 2.973189636605227254e-02 1.475973207353806736e-02 4.800702696603109665e-02
4.620000000000000000e+04 2.953851423339742821e-02 1.496089104472790067e-02 4.801706080645740810e-02
4.630000000000000000e+04 2.987467128570133260e-02 1.502858799415923360e-02 4.877076826984377833e-02
4.640000000000000000e+04 4.301530219178018727e-02 2.113200187920507775e-02 7.409366949162946026e-02
4.650000000000000000e+04 8.222793482463160164e-02 5.066703777959890437e-02 1.114682528968750780e-01
4.660000000000000000e+04 5.532242842784745179e-02 2.924768147038007277e-02 8.434813669104333778e-02
4.670000000000000000e+04 2.982722155520744697e-02 1.499128169127471495e-02 4.839946911456927126e-02
4.680000000000000000e+04 2.953990836843520956e-02 1.477193861514997965e-02 4.810413744632668909e-02
4.690000000000000000e+04 3.052466657476772538e-02 1.508603610397470096e-02 4.971322513861096276e-02
4.700000000000000000e+04 7.219779762596222061e-02 3.605968313462164232e-02 1.171888939896851417e-01
4.710000000000000000e+04 2.257418925363754159e-01 1.106139565222304666e-01 3.650913672810148225e-01
4.720000000000000000e+04 2.185652626033478541e-01 1.098316135831520907e-01 3.545359924164633303e-01
4.730000000000000000e+04 2.336542044492050385e-01 1.085129910724329239e-01 4.013384797788220881e-01
4.740000000000000000e+04 1.177221113531697338e-01 5.569347330966063769e-02 2.018818322536999055e-01
4.750000000000000000e+04 2.923758197337629830e-02 1.458132776093035501e-02 4.783226268992508273e-02
4.760000000000000000e+04 2.874883731296632230e-02 1.428421421457183246e-02 4.707253386512307014e-02
4.770000000000000000e+04 2.898981699743764448e-02 1.477902470376682431e-02 4.705304261202253313e-02
4.780000000000000000e+04 2.877254655108952772e-02 1.445052757013786521e-02 4.690139612290858406e-02
4.790000000000000000e+04 2.834200619695722775e-02 1.388870460295968563e-02 4.693367816886683669e-02
4.800000000000000000e+04 3.285468521643634954e-02 1.662592883535611230e-02 5.353964471231489886e-02
4.810000000000000000e+04 4.015434111218612462e-02 2.093743328996656300e-02 6.283967237029074171e-02
4.820000000000000000e+04 3.040136449958367668e-02 1.539939272529598606e-02 4.952514085059003118e-02
4.830000000000000000e+04 2.893233708963169684e-02 1.463267810315103078e-02 4.748265543799862903e-02
4.840000000000000000e+04 7.603602082545592167e-02 5.305825258536208539e-02 9.993209266836292071e-02
4.850000000000000000e+04 1.523228461127744682e-01 1.277863454633305917e-01 1.763711494163633930e-01
4.860000000000000000e+04 8.208713180284896160e-02 5.836330927694936138e-02 1.065345827238631526e-01
4.870000000000000000e+04 2.888161589783739061e-02 1.425585271980617068e-02 4.729438676431477889e-02
4.880000000000000000e+04 2.895672356649267934e-02 1.464977786700218283e-02 4.694258607353611612e-02
4.890000000000000000e+04 3.334857459571589217e-02 1.619536394958679196e-02 5.455966823850338238e-02
4.900000000000000000e+04 4.801506380061264234e-02 2.381759343902176140e-02 7.780585305226062065e-02
4.910000000000000000e+04 3.957663382507707606e-02 1.983402159068105297e-02 6.460932377786705871e-02
4.920000000000000000e+04 5.681401300028711410e-02 2.785604932247109228e-02 9.301966098512753911e-02
4.930000000000000000e+04 5.119148074893181688e-02 2.502461146505093742e-02 8.476618516629765010e-02
4.940000000000000000e+04 2.983281096150250389e-02 1.489673861449906066e-02 4.837364483432295137e-02
4.950000000000000000e+04 3.058952855713349336e-02 1.544755959106251797e-02 5.004375866760089192e-02
4.960000000000000000e+04 6.682906420020714999e-02 3.998848141277451529e-02 9.388077199457549316e-02
4.970000000000000000e+04 1.067343273583124946e-01 8.165146607518386501e-02 1.311532868705315158e-01
4.980000000000000000e+04 5.165052150598044289e-02 2.891755326494848538e-02 7.591847411675101132e-02
4.990000000000000000e+04 2.887999316172148306e-02 1.450115400932652267e-02 4.715378426837147502e-02
5.000000000000000000e+04 2.885574473156690342e-02 1.439095945497624943e-02 4.655535400987680095e-02
5.010000000000000000e+04 2.880773319620610548e-02 1.438003611585053458e-02 4.691875224243698128e-02
5.020000000000000000e+04 2.898808042155011713e-02 1.469255509143172628e-02 4.686514442424007110e-02
5.030000000000000000e+04 2.861702877560457978e-02 1.423708113842765341e-02 4.638851064290774179e-02
5.040000000000000000e+04 2.848001865700389851e-02 1.414494668753185636e-02 4.682501561822068059e-02
5.050000000000000000e+04 2.844719022573010889e-02 1.443061993660216952e-02 4.648058281455223067e-02
5.060000000000000000e+04 2.824727752876833239e-02 1.418459514042648070e-02 4.681737401369977930e-02
5.070000000000000000e+04 2.889915901045391963e-02 1.469695938880833525e-02 4.684349556005060200e-02
5.080000000000000000e+04 2.877490140540445163e-02 1.443094366023671242e-02 4.690287678074214067e-02
5.090000000000000000e+04 2.863782107524404444e-02 1.442364678268518580e-02 4.655013795966043977e-02
5.100000000000000000e+04 2.853692228401844347e-02 1.437155820038981714e-02 4.616912200456111531e-02
5.110000000000000000e+04 2.865195477354554043e-02 1.424285882246259689e-02 4.657691262427229167e-02
5.120000000000000000e+04 2.869659993342127749e-02 1.436635769592863911e-02 4.640219960857010911e-02
5.130000000000000000e+04 2.925136415105377904e-02 1.451310998484383122e-02 4.710083640813986922e-02
5.140000000000000000e+04 2.895895822925759894e-02 1.452257205306187356e-02 4.722678567476839423e-02
5.150000000000000000e+04 2.901334002458087757e-02 1.444588617507787214e-02 4.726874933609474805e-02
5.160000000000000000e+04 2.851887562409906318e-02 1.441440380814372133e-02 4.649883404715730861e-02
5.170000000000000000e+04 2.844180908042919301e-02 1.420066750188289130e-02 4.636914047528615385e-02
5.180000000000000000e+04 2.822236425858133668e-02 1.416139906113694606e-02 4.628708838850660590e-02
5.190000000000000000e+04 2.773861913655201877e-02 1.411063296457076149e-02 4.607110816914630758e-02
5.200000000000000000e+04 2.854085816820923355e-02 1.404276980278347173e-02 4.621804823430098602e-02
5.210000000000000000e+04 2.858162882137575689e-02 1.403964976334725473e-02 4.642566103721749993e-02
5.220000000000000000e+04 2.846537193482893621e-02 1.453542333299514405e-02 4.644331039019639062e-02
5.230000000000000000e+04 2.870589659371804159e-02 1.460351298364098716e-02 4.654769012902972708e-02
5.240000000000000000e+04 3.093250942151131583e-02 1.569265591866911280e-02 5.015774051971541581e-02
5.250000000000000000e+04 3.283119288867536456e-02 1.644966610140879623e-02 5.287769574896534347e-02
5.260000000000000000e+04 2.924264858892199059e-02 1.470460696736112897e-02 4.763570067081076415e-02
5.270000000000000000e+04 2.916247625026075624e-02 1.438290545319633601e-02 4.739166771006043943e-02
5.280000000000000000e+04 2.959710777810741628e-02 1.472291599336112040e-02 4.794727613512493603e-02
5.290000000000000000e+04 2.990100559189729293e-02 1.484295685714540590e-02 4.815863760376242614e-02
5.300000000000000000e+04 2.982270631617233922e-02 1.479259795113672428e-02 4.838855385675234350e-02
5.310000000000000000e+04 2.985605120582668012e-02 1.497199855748977682e-02 4.850431718026827071e-02
5.320000000000000000e+04 3.005401640103649158e-02 1.524445309852045204e-02 4.902738111912077756e-02
5.330000000000000000e+04 3.023930979227461985e-02 1.524352760757838147e-02 4.926241442312405405e-02
5.340000000000000000e+04 3.057049051551907065e-02 1.540450082818022905e-02 5.011739964282261456e-02
5.350000000000000000e+04 3.063902746668546381e-02 1.508985051313076198e-02 4.975928809050885609e-02
5.360000000000000000e+04 3.053888809237598548e-02 1.502429012240166610e-02 4.975280514807495225e-02
5.370000000000000000e+04 3.028435317836233528e-02 1.519312563388305372e-02 4.962175001104422722e-02
5.380000000000000000e+04 3.066823090765587179e-02 1.538842592865228252e-02 4.987472657685992211e-02
5.390000000000000000e+04 3.065736435734724846e-02 1.521078959081108295e-02 5.007734984988139459e-02
5.400000000000000000e+04 3.103981725743508446e-02 1.537514274094672374e-02 5.055572514034360754e-02
5.410000000000000000e+04 3.265117716363565015e-02 1.615342700761024375e-02 5.311619540711660925e-02
5.420000000000000000e+04 4.012931982640267209e-02 2.043839904385665387e-02 6.312338755579807725e-02
5.430000000000000000e+04 3.502228285733770263e-02 1.773424542382142158e-02 5.675121462804993966e-02
5.440000000000000000e+04 3.186786243663811830e-02 1.605789567399098713e-02 5.221725322503357331e-02
5.450000000000000000e+04 3.227157221834973944e-02 1.601875440005572429e-02 5.241990319936421644e-02
5.460000000000000000e+04 3.507737815561202954e-02 1.730110612371758838e-02 5.680937378633846291e-02
5.470000000000000000e+04 6.234569080600000507e-02 3.551591079165536402e-02 9.051193443503836866e-02
5.480000000000000000e+04 6.020970051880857737e-02 3.503683049676321187e-02 8.698777785597121281e-02
5.490000000000000000e+04 3.539536782554109084e-02 1.772838921287015965e-02 5.792313589629406040e-02
5.500000000000000000e+04 5.593702794689273811e-02 2.761995198936431292e-02 9.142625701237769298e-02
5.510000000000000000e+04 3.425719455930036905e-01 1.791281571358165348e-01 5.519654123475867813e-01
5.520000000000000000e+04 4.335639010846125130e-01 2.242030693587216406e-01 6.944517291241486534e-01
5.530000000000000000e+04 1.339774741010625603e-01 6.753458343382724716e-02 2.124696651047154328e-01
5.540000000000000000e+04 4.223331137460074186e-02 2.128242618170270856e-02 6.928832234787131450e-02
5.550000000000000000e+04 4.292989072991882371e-01 2.342028779136787475e-01 6.785494921105480470e-01
5.560000000000000000e+04 9.410662157014808571e-01 4.736187223287045556e-01 1.531136710929559497e+00
5.570000000000000000e+04 7.731839095464959621e-01 3.992658740063639855e-01 1.257843688705835294e+00
5.580000000000000000e+04 2.086335798855315782e-01 1.050669109996354988e-01 3.359478178307117036e-01
5.590000000000000000e+04 5.282643218245990369e-01 4.735049025914549459e-01 5.774321845762365735e-01
5.600000000000000000e+04 8.866234899758421717e-01 8.538336964667680995e-01 9.200901188732685254e-01
5.610000000000000000e+04 3.712178999811551749e-01 3.263505954996983038e-01 4.219112023792306876e-01
5.620000000000000000e+04 3.904364066622507262e-02 1.946245599063980980e-02 6.342225436794521332e-02
5.630000000000000000e+04 3.734232912802026155e-02 1.874935718852161620e-02 6.089970814319883158e-02
5.640000000000000000e+04 4.087276170269030923e-02 2.026236496234033735e-02 6.667753983066326828e-02
5.650000000000000000e+04 4.225102385047237868e-02 2.121658008189707817e-02 6.958150177264423031e-02
5.660000000000000000e+04 5.793623865400673867e-02 3.136837768698216844e-02 8.890559509757001155e-02
5.670000000000000000e+04 5.774180522376299446e-02 3.074380763059392577e-02 8.774364669581465048e-02
5.680000000000000000e+04 4.108031249312438238e-02 2.065029913373972806e-02 6.795968688392732548e-02
5.690000000000000000e+04 5.624277948314027747e-02 2.771296202789723731e-02 9.120384498493060155e-02
5.700000000000000000e+04 5.660419630001352342e-02 2.794351845604642684e-02 9.298002616281822452e-02
5.710000000000000000e+04 4.442766425775416389e-02 2.126572204850924602e-02 7.485557820701765896e-02
5.720000000000000000e+04 4.551604395882651033e-02 2.243765935276158599e-02 7.862418616267291549e-02
5.730000000000000000e+04 4.805713454131816526e-02 2.304683287828540594e-02 8.388775558415541289e-02
5.740000000000000000e+04 5.006476253611778088e-02 2.472233850302571825e-02 8.821717055171478250e-02
5.750000000000000000e+04 5.323605121871814033e-02 2.559784524097732938e-02 9.363349669691355126e-02
5.760000000000000000e+04 5.537476863344797245e-02 2.622026275940341628e-02 9.840008491593385531e-02
5.770000000000000000e+04 5.783093766354315685e-02 2.829552494241718147e-02 1.033058854220415129e-01
5.780000000000000000e+04 6.302040525265537041e-02 2.959806840232971289e-02 1.114913794306190559e-01
5.790000000000000000e+04 6.499208881136349369e-02 3.079787326813219692e-02 1.176074399061192016e-01
5.800000000000000000e+04 6.727096740461409319e-02 3.131610345819878932e-02 1.240090283450615699e-01
5.810000000000000000e+04 7.063031211434356305e-02 3.256203183702401083e-02 1.328866730671709184e-01
5.820000000000000000e+04 7.453193221272848279e-02 3.481825086680132714e-02 1.406597825103811927e-01
5.830000000000000000e+04 7.973209756843323281e-02 3.540557021881368671e-02 1.490865592928799499e-01
5.840000000000000000e+04 8.352200019754375815e-02 3.780572552365546457e-02 1.553362984735458530e-01
5.850000000000000000e+04 8.644378603232065472e-02 3.971260129653934184e-02 1.604147693078987469e-01
5.860000000000000000e+04 8.988668245429891346e-02 4.055755328222984679e-02 1.652306081589402786e-01
5.870000000000000000e+04 9.141436677428792235e-02 4.198878153015831588e-02 1.682135775607964678e-01
5.880000000000000000e+04 9.570920318528940152e-02 4.373697608625212035e-02 1.720870897557515433e-01
5.890000000000000000e+04 9.598607041209829271e-02 4.454855816029678478e-02 1.750582906043290643e-01
5.900000000000000000e+04 9.880709261793152454e-02 4.603642649916647733e-02 1.766790507460597737e-01
5.910000000000000000e+04 1.038060431397773153e-01 4.781643069105931398e-02 1.837786399546243177e-01
5.920000000000000000e+04 1.077394183203202044e-01 4.964755595190036702e-02 1.910578853229912000e-01
5.930000000000000000e+04 1.115087954767637196e-01 5.201496362071837687e-02 1.958604896773487036e-01
5.940000000000000000e+04 1.157872105384714356e-01 5.432110225290928684e-02 1.995336553583977324e-01
5.950000000000000000e+04 1.185089726677726329e-01 5.777010077365451329e-02 2.026354112954709685e-01
5.960000000000000000e+04 1.208063972852820855e-01 5.756524822142169984e-02 2.044524940916360167e-01
5.970000000000000000e+04 1.215971837003074624e-01 5.890912748376605362e-02 2.035481961769475545e-01
5.980000000000000000e+04 1.212591941464361417e-01 5.870539202896993963e-02 2.013443051287859276e-01
5.990000000000000000e+04 1.225950764627624229e-01 6.064033718835515341e-02 2.032881995566624411e-01
6.000000000000000000e+04 1.233930999525726380e-01 6.063460636333425219e-02 2.044138442027703395e-01
6.010000000000000000e+04 1.253627688415258068e-01 6.184570570419105351e-02 2.062455884415914653e-01
6.020000000000000000e+04 1.267210183051698524e-01 6.288675452072702010e-02 2.118348360111770856e-01
6.030000000000000000e+04 1.329792945033804463e-01 6.724640282716669304e-02 2.170006847715003073e-01
6.040000000000000000e+04 1.390656026519795641e-01 6.960000171894301091e-02 2.261317657529041680e-01
6.050000000000000000e+04 1.440663561109243318e-01 7.238643758564040909e-02 2.333007585926806793e-01
6.060000000000000000e+04 1.488715617945442216e-01 7.534093747876492719e-02 2.412164142450415882e-01
6.070000000000000000e+04 1.534972098668462293e-01 7.620310097257820825e-02 2.549309713444952163e-01
6.080000000000000000e+04 1.600858442251668623e-01 7.961277769861488385e-02 2.647086351356517375e-01
6.090000000000000000e+04 1.669102467628111597e-01 8.311778468309134749e-02 2.713823207899199730e-01
6.100000000000000000e+04 1.694709186132561662e-01 8.439137236590353586e-02 2.788713434356608900e-01
6.110000000000000000e+04 1.674508413964340137e-01 8.009192444024466895e-02 2.895361700705560426e-01
6.120000000000000000e+04 1.719374325260553116e-01 8.307877054556285501e-02 2.893124564860052317e-01
6.130000000000000000e+04 1.746214020646298104e-01 8.820088120549783584e-02 2.881337431423828255e-01
6.140000000000000000e+04 1.749759238771518011e-01 8.788084877770262204e-02 2.886404052500632367e-01
6.150000000000000000e+04 1.710864344741332144e-01 8.463845021851264250e-02 2.854309479812355277e-01
6.160000000000000000e+04 1.687344940961092721e-01 8.228979519647916518e-02 2.849421355819697910e-01
6.170000000000000000e+04 1.724288439216301316e-01 8.636788031239828189e-02 2.872691750718063819e-01
6.180000000000000000e+04 1.734660353235410735e-01 8.556457746872894732e-02 2.834235074304434221e-01
6.190000000000000000e+04 1.709243556888057070e-01 8.443768763472732364e-02 2.770426477186594405e-01
6.200000000000000000e+04 1.607646463333923803e-01 8.014833555290404310e-02 2.737766854901912961e-01
6.210000000000000000e+04 1.600808351466097845e-01 7.829263608025034682e-02 2.688361035840001190e-01
6.220000000000000000e+04 1.620234816036199843e-01 8.070334240528641290e-02 2.643134926824911024e-01
6.230000000000000000e+04 1.592217204887759752e-01 7.837643273960122337e-02 2.621545068886299568e-01
6.240000000000000000e+04 1.540576887819057328e-01 7.566244814873808455e-02 2.603863405013839283e-01
6.250000000000000000e+04 8.806357840085302091e-02 2.586075685603197311e-02 1.880205308763114591e-01
