# Comments from moku data file:% Moku:Phasemeter 
# 
# % Ch 1 - DC coupling, 50 Ohm impedance, 1 V range
# 
# % Ch 1 bandwidth = 1.0000000000e+04 (Hz)
# 
# % Acquisition rate: 1.2500000000e+05 Hz
# 
# % External 10 MHz clock
# 
# % Acquired 2020-05-17 T 21:38:05 -0700
# 
# % Time, Set frequency 1 (Hz), Frequency 1 (Hz), Phase 1 (cyc), I 1 (V), Q 1 (V)
# 
# #########################################################
# ASD calculated by mokuReadFreqNoise.py
# Frequency [Hz]         Freq ASD1 [Hz/rtHz]      Freq ASDlb1 [Hz/rtHz]    Freq ASDub1 [Hz/rtHz]    
# 
0.000000000000000000e+00 2.143407157696364607e+02 6.085768262678408291e+01 2.592748361639953600e+02
1.000000000000000056e-01 2.291128860902707061e+02 1.574841524005419444e+02 2.978160203649943014e+02
2.000000000000000111e-01 1.248085320189580756e+02 8.038566731311209423e+01 2.284160410414581577e+02
3.000000000000000444e-01 1.185647502150980444e+02 5.538006618189974972e+01 1.986169587718695482e+02
4.000000000000000222e-01 8.322049650105057594e+01 2.048085752329189901e+01 1.271652407631548272e+02
5.000000000000000000e-01 7.384078895722424818e+01 2.071748548200039508e+01 1.028805396120942390e+02
6.000000000000000888e-01 5.044298270064130918e+01 3.612364045374982169e+01 7.708151938649257318e+01
7.000000000000000666e-01 3.819411990277435365e+01 3.087745201286607610e+01 6.888383462561655790e+01
8.000000000000000444e-01 3.745376593893897166e+01 1.710820477255048999e+01 6.687388245597145442e+01
9.000000000000000222e-01 2.468742872011059930e+01 1.483889304842018930e+01 5.522945325376295500e+01
1.000000000000000000e+00 3.072907449066592278e+01 2.068136425442883564e+01 4.619852575370225622e+01
1.100000000000000089e+00 3.257876422465921706e+01 1.647986391245999016e+01 4.216191970184355853e+01
1.200000000000000178e+00 3.658709483778524429e+01 2.236385439412453735e+01 5.693637480842857457e+01
1.300000000000000044e+00 3.185843118586282330e+01 1.625424208775280022e+01 3.886662074989737903e+01
1.400000000000000133e+00 2.178093361241731785e+01 1.867014456510809950e+01 3.053421998183650388e+01
1.500000000000000000e+00 2.362259242033095319e+01 1.791615900013038853e+01 3.930184983216435057e+01
1.600000000000000089e+00 2.405173901718375618e+01 1.808445903741159100e+01 2.919365482251582478e+01
1.700000000000000178e+00 1.969346134988654384e+01 9.481839650875780734e+00 2.767075230956650955e+01
1.800000000000000044e+00 2.278762827512870004e+01 9.090168009886156142e+00 2.828822112553431722e+01
1.900000000000000133e+00 2.167254506145757986e+01 1.097279929027781797e+01 2.899679272514975992e+01
2.000000000000000000e+00 2.458517003436088544e+01 1.195245840169202900e+01 3.286098505631714772e+01
2.100000000000000089e+00 2.160481173302161295e+01 1.923897105152915898e+01 3.327814701688429722e+01
2.200000000000000178e+00 1.951016868852456199e+01 8.383085452826330553e+00 2.706027663804962557e+01
2.300000000000000266e+00 1.454733614875623893e+01 8.727786015042136469e+00 2.599991745805994725e+01
2.400000000000000355e+00 2.155153416299129887e+01 1.357488156066612994e+01 2.630900431220845093e+01
2.500000000000000000e+00 1.494915426156502214e+01 5.660544147088596212e+00 2.249260293584727322e+01
2.600000000000000089e+00 1.173574039537201408e+01 6.268527870521086065e+00 1.587125218492120204e+01
2.700000000000000178e+00 1.780635758688788783e+01 1.096104784179019376e+01 2.272711581616102450e+01
2.800000000000000266e+00 1.353522516458919966e+01 1.046450488235952037e+01 2.824741325388124480e+01
2.900000000000000355e+00 1.531061943669614855e+01 1.262786599257364983e+01 3.045174825541554853e+01
3.000000000000000000e+00 1.969833566279795178e+01 1.141122663326629194e+01 3.410449099418001140e+01
3.100000000000000089e+00 1.547311990066938137e+01 1.172226466796674060e+01 2.459970926182974083e+01
3.200000000000000178e+00 1.974992329257089096e+01 1.075026066206923225e+01 2.939586731905051309e+01
3.300000000000000266e+00 2.273772589492875795e+01 1.445930837523188472e+01 4.288005817312367185e+01
3.400000000000000355e+00 2.361744601428880230e+01 1.009700101449377208e+01 3.432306244832427211e+01
3.500000000000000000e+00 2.117459883876860260e+01 1.282357692481989986e+01 2.968067945711298705e+01
3.600000000000000089e+00 2.838995352025868613e+01 1.430501962543760719e+01 3.434637920865539940e+01
3.700000000000000178e+00 2.809398380423072084e+01 1.166578988981493659e+01 3.695509907029106955e+01
3.800000000000000266e+00 2.495350414125606875e+01 1.327342198538644880e+01 3.301474499927002171e+01
3.900000000000000355e+00 2.000264288153233494e+01 1.397109718245679133e+01 3.021356372809747981e+01
4.000000000000000000e+00 1.990285615855455958e+01 1.055804352120462219e+01 2.349445139324523524e+01
4.100000000000000533e+00 1.548976049530289956e+01 8.774201589218366237e+00 2.115744919305191729e+01
4.200000000000000178e+00 1.302213974927765250e+01 4.618264568877469500e+00 2.180311435625408123e+01
4.299999999999999822e+00 1.048591939822396490e+01 6.512432074037442398e+00 1.714417921099301623e+01
4.400000000000000355e+00 1.298077183366828713e+01 5.748779127837293501e+00 1.803295668495235660e+01
4.500000000000000000e+00 1.109465988307381679e+01 6.957357972522691725e+00 1.636486028780312196e+01
4.600000000000000533e+00 1.610409993964062991e+01 1.021818893537299466e+01 2.065370226225936534e+01
4.700000000000000178e+00 1.535289298087538334e+01 1.021174949409674859e+01 1.990582918208579599e+01
4.800000000000000711e+00 9.844120575149798213e+00 6.212674663966229360e+00 1.879344169858234892e+01
4.900000000000000355e+00 9.864116720878682187e+00 4.723019371206294892e+00 1.446636674566371106e+01
5.000000000000000000e+00 1.073727553680683222e+01 6.120526128273487743e+00 2.172702961425533985e+01
5.100000000000000533e+00 8.255237831762391565e+00 5.920318893650776459e+00 2.321250525186851732e+01
5.200000000000000178e+00 8.054422230460954069e+00 5.488660302046433515e+00 1.491206938853910025e+01
5.300000000000000711e+00 1.231692286256185831e+01 6.608633215612193190e+00 1.875912155559463201e+01
5.400000000000000355e+00 8.890794323508782071e+00 6.749743269072798313e+00 2.086362271157003789e+01
5.500000000000000000e+00 1.789255655087756480e+01 9.453475006631137489e+00 2.479272463416176464e+01
5.600000000000000533e+00 2.165016966727743863e+01 1.243301660972027989e+01 2.942154463756027027e+01
5.700000000000000178e+00 1.906747470763174945e+01 8.936830730565063163e+00 2.607351790668529290e+01
5.800000000000000711e+00 1.652671776319255770e+01 7.432174519617417374e+00 1.815069449743656804e+01
5.900000000000000355e+00 1.312295140176096453e+01 1.221053233789215398e+01 2.299587206015123897e+01
6.000000000000000000e+00 1.426788410353069736e+01 7.169811421937065887e+00 1.884931686797323636e+01
6.100000000000000533e+00 8.920290176373228519e+00 5.282613242271949616e+00 1.945316485856481492e+01
6.200000000000000178e+00 9.681364414449625144e+00 5.431021545746937740e+00 2.525258442901014888e+01
6.300000000000000711e+00 1.201162975633671870e+01 3.812666833895445695e+00 2.437048760362302247e+01
6.400000000000000355e+00 1.201080819086945262e+01 8.062076558417548000e+00 1.695454384815270288e+01
6.500000000000000000e+00 1.588515395455926260e+01 4.992739774330749114e+00 2.073978146930599920e+01
6.600000000000000533e+00 1.310299114824222677e+01 9.407736914055908173e+00 1.838908404851248335e+01
6.700000000000000178e+00 1.839653549286326495e+01 5.798021378250481916e+00 2.215412775307679993e+01
6.800000000000000711e+00 1.470436192816397458e+01 9.869687442119618126e+00 1.668305726821419555e+01
6.900000000000000355e+00 1.921949325280156629e+01 5.779213898970871455e+00 2.802305577400763070e+01
7.000000000000000000e+00 2.150766556690065201e+01 1.425092180158552146e+01 4.530247835191190831e+01
7.100000000000000533e+00 2.586156224335913834e+01 9.314282914886893749e+00 3.876063419388835030e+01
7.200000000000000178e+00 3.014152282147730233e+01 1.734063934538933793e+01 3.574110679721684392e+01
7.300000000000000711e+00 2.387849389606476080e+01 1.555776789456397324e+01 3.036520802590123580e+01
7.400000000000000355e+00 2.293425394214571256e+01 1.479371965760741503e+01 2.862398181989948398e+01
7.500000000000000000e+00 1.329955141197808643e+01 5.561310781423006055e+00 2.057898721638904860e+01
7.600000000000000533e+00 1.421398925598798968e+01 8.590194307193062428e+00 2.378440318004129139e+01
7.700000000000000178e+00 7.966204569030058025e+00 3.272443076222116165e+00 1.252573782517664291e+01
7.800000000000000711e+00 1.008845079141031498e+01 5.317905039559515323e+00 1.689489454635903698e+01
7.900000000000000355e+00 8.647030251287988634e+00 5.453756277481363490e+00 1.493614646237793941e+01
8.000000000000000000e+00 8.773865784129924350e+00 3.981773549173476034e+00 1.111620720965043674e+01
8.099999999999999645e+00 7.290235981314284963e+00 4.675966916141518048e+00 1.225288349163221291e+01
8.200000000000001066e+00 1.104774584228672119e+01 8.081075170698539978e+00 1.503895566716555976e+01
8.300000000000000711e+00 1.333951111635890818e+01 1.008294795381236852e+01 1.631314690887385410e+01
8.400000000000000355e+00 8.968485259129121090e+00 6.357530485606723403e+00 1.211963417056538184e+01
8.500000000000000000e+00 9.693712511079480620e+00 5.094525916919917741e+00 1.576807522680958051e+01
8.599999999999999645e+00 1.180991079210122585e+01 8.756786741367779570e+00 1.874116663177735376e+01
8.700000000000001066e+00 9.512039275350021583e+00 5.413091633879747455e+00 1.818273847216169514e+01
8.800000000000000711e+00 1.259208744924831613e+01 6.455688650350732694e+00 1.888924048448091142e+01
8.900000000000000355e+00 1.384875711549392463e+01 5.379517425108462092e+00 2.709152797350801123e+01
9.000000000000000000e+00 1.340464884282111768e+01 8.514105630345895293e+00 1.930081053273023883e+01
9.099999999999999645e+00 1.499504032709482360e+01 1.135289593538802322e+01 1.568339230280868080e+01
9.200000000000001066e+00 1.430374169848439436e+01 8.614813820750390150e+00 1.907573355875301502e+01
9.300000000000000711e+00 9.287765489145643372e+00 7.171734387410790390e+00 1.616869948721467409e+01
9.400000000000000355e+00 1.000321723070626412e+01 7.464709398996586920e+00 1.363655837396271586e+01
9.500000000000000000e+00 9.864549368532355089e+00 8.130845974922497277e+00 1.634097401629715662e+01
9.600000000000001421e+00 9.607081388927957377e+00 6.254238308367511934e+00 1.588861085266991324e+01
9.700000000000001066e+00 1.020522843430434534e+01 5.971493793054295729e+00 1.765890256881343490e+01
9.800000000000000711e+00 1.166692478350517526e+01 8.642883145477028961e+00 2.034004962018805784e+01
9.900000000000000355e+00 1.313188388774330662e+01 7.554585413800567473e+00 1.672418975435750355e+01
1.000000000000000000e+01 1.107113656968416748e+01 4.481226486175916790e+00 1.876512296043668115e+01
1.100000000000000000e+01 1.010163049490466491e+01 4.748787546718378216e+00 1.779846424589830178e+01
1.200000000000000000e+01 8.343259078684042152e+00 3.350289217130068664e+00 1.666882154297608309e+01
1.300000000000000000e+01 9.013678686142425178e+00 3.147965018687845173e+00 1.603381765295895889e+01
1.400000000000000000e+01 7.717117609706853010e+00 2.482573125299110117e+00 1.459486986405169517e+01
1.500000000000000000e+01 6.699451278823890910e+00 2.098501394813069520e+00 1.306406674998718920e+01
1.600000000000000000e+01 6.403957015687069543e+00 1.713089104271828145e+00 1.267545168370983788e+01
1.700000000000000000e+01 5.256160384860800505e+00 1.805459435300463378e+00 1.274935000117686457e+01
1.800000000000000000e+01 4.413884560778408961e+00 1.605284331375025797e+00 1.110198226745355754e+01
1.900000000000000000e+01 3.444336591222197708e+00 1.403150230686451838e+00 8.996117823700698679e+00
2.000000000000000000e+01 2.773311843710799085e+00 9.110727290779517817e-01 9.252170704915698707e+00
2.100000000000000000e+01 2.767042281089983291e+00 9.971607292244802911e-01 8.252864899680636412e+00
2.200000000000000000e+01 2.235273190725700854e+00 7.830590416216395289e-01 7.356669076290010878e+00
2.300000000000000000e+01 1.882925261343617596e+00 7.315774696282251188e-01 5.440404612831340359e+00
2.400000000000000000e+01 1.590462172886904169e+00 7.157523269481915751e-01 4.837944256437866741e+00
2.500000000000000000e+01 1.537789743874866888e+00 5.820961460493445649e-01 4.531003670862312482e+00
2.600000000000000000e+01 1.375209136055788539e+00 4.967403557474411313e-01 4.383691608996366895e+00
2.700000000000000000e+01 1.103280949711470171e+00 4.720682873776054778e-01 3.496555972408334600e+00
2.800000000000000000e+01 9.741297971841259562e-01 4.014549358791305034e-01 3.111900981460876459e+00
2.900000000000000000e+01 8.185065258721783144e-01 4.246169046836043015e-01 2.892114385806338284e+00
3.000000000000000000e+01 7.227514831034637099e-01 4.006347977920394210e-01 2.257356950578705668e+00
3.100000000000000000e+01 6.814641110279450187e-01 2.911317938750266343e-01 1.928038446902586411e+00
3.200000000000000000e+01 6.650807436076181522e-01 3.026170085540522692e-01 1.549346297862239208e+00
3.300000000000000000e+01 5.619225581678012338e-01 2.256712464941323659e-01 1.430091381431414455e+00
3.400000000000000000e+01 5.219630912060549965e-01 2.374638455715716856e-01 1.249699370932557896e+00
3.500000000000000000e+01 4.916539150365482058e-01 2.258182245790179288e-01 1.094549057063815445e+00
3.600000000000000000e+01 4.287510685870348781e-01 2.050925082540045186e-01 8.622827892324175236e-01
3.700000000000000000e+01 3.784246809699609027e-01 1.684795436082829334e-01 7.489274622795818459e-01
3.800000000000000000e+01 3.535099643481252607e-01 1.716219168293942055e-01 7.300749987003318786e-01
3.900000000000000000e+01 3.401367177481400272e-01 1.678185032651865471e-01 6.975698620825037111e-01
4.000000000000000000e+01 3.112271683169363645e-01 1.569756941208846901e-01 6.236703258841277409e-01
4.100000000000000000e+01 2.875192310971624865e-01 1.329562213515632640e-01 5.564926700316635833e-01
4.200000000000000000e+01 2.400848258615504160e-01 1.185750594513210604e-01 4.869379942244237980e-01
4.300000000000000000e+01 2.335371279641354769e-01 1.252354742488935302e-01 4.130440714135840685e-01
4.400000000000000000e+01 2.286497534082729544e-01 1.184342661197859137e-01 4.190930831394754086e-01
4.500000000000000000e+01 2.171648612311626314e-01 1.057915008172735927e-01 4.458830326865687033e-01
4.600000000000000000e+01 2.579301412967503482e-01 1.211814535257709352e-01 4.519122584084377392e-01
4.700000000000000000e+01 2.405807585349351851e-01 1.044655096047324844e-01 4.538607800845733120e-01
4.800000000000000000e+01 2.196619903557456011e-01 1.278587427517444974e-01 3.914451349850733841e-01
4.900000000000000000e+01 1.908445241470259901e-01 1.109418501934608114e-01 3.502597640863034378e-01
5.000000000000000000e+01 1.962357665444199595e-01 1.045889925589322811e-01 3.229799392561830684e-01
5.100000000000000000e+01 2.036016077648958311e-01 9.624957061473925213e-02 3.332379735338282800e-01
5.200000000000000000e+01 2.067670672485998895e-01 1.101467901386604664e-01 3.310777427689890473e-01
5.300000000000000000e+01 2.132685571908403965e-01 1.138480569154100147e-01 3.388339042610169494e-01
5.400000000000000000e+01 1.837055032633802543e-01 7.960301566132037265e-02 3.000627302636704741e-01
5.500000000000000000e+01 1.797856877820422639e-01 9.500862267447050813e-02 3.081906974366269703e-01
5.600000000000000000e+01 1.939373635205768609e-01 8.640633117943644081e-02 2.850058679520228178e-01
5.700000000000000000e+01 1.715553759993833638e-01 8.606059596511332621e-02 2.849989153057051472e-01
5.800000000000000000e+01 1.602315008938776930e-01 8.858770504322159567e-02 2.977893963547394995e-01
5.900000000000000000e+01 1.727860364048466602e-01 7.681339982394108645e-02 2.873022361155963544e-01
6.000000000000000000e+01 1.761583635685985694e-01 8.487323573560134893e-02 3.079374148770376851e-01
6.100000000000000000e+01 1.813970849630510973e-01 7.780705737179668957e-02 2.845020316924705139e-01
6.200000000000000000e+01 1.660632436188176075e-01 7.445629936248140957e-02 2.786973228215238185e-01
6.300000000000000000e+01 1.414202950128740921e-01 7.203912270948852059e-02 2.714212613812105879e-01
6.400000000000000000e+01 1.341327801930729535e-01 6.637328988885841941e-02 2.378846205557544613e-01
6.500000000000000000e+01 1.374186094877732078e-01 6.419626582588622288e-02 2.389016867586443438e-01
6.600000000000000000e+01 1.562281680981881804e-01 7.562704514207978235e-02 2.556556423434103720e-01
6.700000000000000000e+01 1.443425552167357240e-01 6.676913288324812235e-02 2.095629456125277235e-01
6.800000000000000000e+01 1.253778292171061626e-01 7.430478842909853110e-02 2.020910402786533500e-01
6.900000000000000000e+01 1.071527963142784035e-01 6.604841049213482085e-02 1.968431265057994928e-01
7.000000000000000000e+01 1.129932459807172634e-01 4.982171363248347890e-02 1.787921913170347488e-01
7.100000000000000000e+01 1.102027194581130520e-01 5.331198415152902520e-02 1.751110826648129282e-01
7.200000000000000000e+01 1.051888724559122967e-01 5.136646295881887314e-02 1.714231616042115880e-01
7.300000000000000000e+01 9.492852641017435200e-02 4.507641841982188563e-02 1.651980606139683005e-01
7.400000000000000000e+01 9.692205562382986972e-02 5.080392692910681157e-02 1.656807543739365618e-01
7.500000000000000000e+01 8.387763495659279755e-02 4.732605386829003002e-02 1.546746554470155022e-01
7.600000000000000000e+01 9.331597758066180470e-02 4.021138374148905403e-02 1.580534281745646641e-01
7.700000000000000000e+01 8.308628666831210929e-02 4.603288126851252243e-02 1.458506100559470997e-01
7.800000000000000000e+01 8.484186274867040745e-02 3.928736936356727605e-02 1.510533971352769622e-01
7.900000000000000000e+01 8.016552253515595028e-02 3.941081028073448872e-02 1.445036647665255414e-01
8.000000000000000000e+01 6.735371200018550053e-02 3.695589488849607834e-02 1.273603833465957458e-01
8.100000000000000000e+01 7.165441447941060804e-02 3.917663665777564030e-02 1.334751351457267587e-01
8.200000000000000000e+01 7.910256574975925437e-02 3.115772295415522933e-02 1.388816831921901862e-01
8.300000000000000000e+01 7.983597481333566670e-02 4.372142921048417091e-02 1.201649735379913403e-01
8.400000000000000000e+01 7.834035278026889315e-02 4.124130326370537697e-02 1.245729268295314718e-01
8.500000000000000000e+01 7.697492005376707636e-02 3.861670084137901887e-02 1.217500218452206157e-01
8.600000000000000000e+01 8.712498521947857621e-02 3.677877279391074394e-02 1.295780659852036887e-01
8.700000000000000000e+01 7.485602561339151084e-02 3.269288533960283683e-02 1.269253815303129362e-01
8.800000000000000000e+01 6.883518241838969265e-02 3.804333572284188114e-02 1.086070127948265823e-01
8.900000000000000000e+01 6.588475283853141573e-02 3.532304360143616317e-02 1.080935118825150920e-01
9.000000000000000000e+01 6.197017198577847719e-02 3.510773090174843653e-02 1.030398984103268051e-01
9.100000000000000000e+01 7.003008948068409345e-02 3.122652092168609964e-02 1.178453661788650825e-01
9.200000000000000000e+01 7.988276321858828188e-02 4.478052775354911946e-02 1.246369296726216047e-01
9.300000000000000000e+01 6.895741363792540213e-02 3.108880753942104211e-02 1.300407968954909732e-01
9.400000000000000000e+01 6.005247007725566383e-02 2.804645808799969761e-02 1.240016034566373687e-01
9.500000000000000000e+01 6.391777503275623828e-02 3.419984790683516102e-02 1.304107727283390361e-01
9.600000000000000000e+01 7.736837483118606806e-02 3.517877658016132364e-02 1.294041754378465470e-01
9.700000000000000000e+01 7.750997501844508752e-02 4.275157416835149993e-02 1.228293270948166566e-01
9.800000000000000000e+01 7.636452016384735753e-02 3.426025353886012759e-02 1.269803524158635566e-01
9.900000000000000000e+01 7.354145185728000467e-02 4.146505174459878817e-02 1.426382477348278055e-01
1.000000000000000000e+02 9.121946192853071234e-02 4.194669833071978937e-02 1.776355669032820273e-01
1.100000000000000000e+02 1.510992089257837956e-01 7.118204953663603840e-02 2.477089347266718533e-01
1.200000000000000000e+02 1.482913940833330557e-01 6.265180066056549868e-02 3.047133045893031800e-01
1.300000000000000000e+02 1.666186663229922149e-01 7.803422229208781258e-02 2.611938833076588584e-01
1.400000000000000000e+02 1.415708007181495087e-01 7.054059007660262726e-02 2.402680401974419122e-01
1.500000000000000000e+02 1.156812575142258936e-01 4.879602510156132167e-02 2.391414017516057255e-01
1.600000000000000000e+02 1.088277330895304623e-01 5.281581972421846988e-02 1.982953032307455954e-01
1.700000000000000000e+02 6.073187287969772363e-02 2.738122936608345867e-02 1.223816362285706782e-01
1.800000000000000000e+02 4.331655199631885556e-02 2.113900700651413431e-02 7.576818947006738747e-02
1.900000000000000000e+02 3.540900463134639270e-02 1.715519299092117117e-02 5.811358009159821314e-02
2.000000000000000000e+02 3.612088695762518537e-02 1.914089684234450417e-02 6.027208656068325232e-02
2.100000000000000000e+02 4.649973900222643258e-02 2.349262839283385723e-02 8.033011332958493733e-02
2.200000000000000000e+02 5.818886266591762751e-02 2.789681680280171883e-02 1.023651593141895605e-01
2.300000000000000000e+02 6.054111386686868851e-02 2.969500958029483439e-02 1.128500352007205249e-01
2.400000000000000000e+02 6.563834425000021622e-02 3.262982776628051140e-02 1.074518955623724459e-01
2.500000000000000000e+02 4.492841574161938328e-02 2.256628807098103734e-02 7.661624790640937654e-02
2.600000000000000000e+02 7.388412355842903512e-02 3.742103320814775536e-02 1.329534891399994645e-01
2.700000000000000000e+02 1.274683464450941661e-01 5.403879863419822072e-02 2.466687077408175055e-01
2.800000000000000000e+02 1.273727279610832042e-01 5.406659502841718729e-02 2.323870638653935672e-01
2.900000000000000000e+02 6.690948791274409224e-02 3.194247646374948069e-02 1.170634230970997031e-01
3.000000000000000000e+02 3.935223245683542453e-02 2.063718677749384195e-02 6.272182131403156169e-02
3.100000000000000000e+02 3.347193804905331666e-02 1.569232589603441683e-02 5.418618388673644010e-02
3.200000000000000000e+02 3.293219013522832861e-02 1.654311353986952574e-02 5.409538106519479889e-02
3.300000000000000000e+02 3.341360637104033582e-02 1.632233663614401226e-02 5.327575881008967534e-02
3.400000000000000000e+02 3.327458635319180402e-02 1.658604434316112916e-02 5.353515051800159658e-02
3.500000000000000000e+02 3.199716030223664215e-02 1.585151889074612117e-02 5.391351372028303085e-02
3.600000000000000000e+02 3.171360065807149464e-02 1.528185281624882402e-02 5.235871628898884633e-02
3.700000000000000000e+02 3.101634518226674062e-02 1.475313627768318550e-02 4.979723523185280304e-02
3.800000000000000000e+02 3.503576573195209959e-02 1.747553167184323630e-02 5.796056518895728593e-02
3.900000000000000000e+02 3.975599953762394556e-02 1.919877848994511541e-02 6.384207850144817120e-02
4.000000000000000000e+02 3.734995359420928418e-02 1.952535335785338111e-02 5.970734873540547299e-02
4.100000000000000000e+02 3.444576914645193499e-02 1.641313392923157699e-02 5.750416103380855820e-02
4.200000000000000000e+02 3.901049033282055073e-02 1.941847660178678062e-02 6.481773821457102736e-02
4.300000000000000000e+02 3.808826533286840260e-02 1.879239053789001634e-02 6.232865265719946674e-02
4.400000000000000000e+02 3.497950229010193118e-02 1.786110582567468005e-02 5.716990290146813092e-02
4.500000000000000000e+02 3.243961686713450060e-02 1.617833208298172232e-02 5.256127835201033355e-02
4.600000000000000000e+02 2.836320945005225622e-02 1.438863356395604122e-02 4.789136484021377926e-02
4.700000000000000000e+02 2.954347591451346108e-02 1.527965554285805674e-02 4.976130681585066995e-02
4.800000000000000000e+02 3.950646137405296188e-02 2.172647553472628265e-02 6.119860730052689712e-02
4.900000000000000000e+02 3.105232878707992958e-02 1.504314715367198810e-02 4.841112466664892339e-02
5.000000000000000000e+02 2.573859624904441257e-02 1.260902239621904813e-02 4.132313231231742739e-02
5.100000000000000000e+02 2.628028793905759497e-02 1.328788658625244638e-02 4.118105319740569814e-02
5.200000000000000000e+02 2.587975074784224297e-02 1.250036992800445529e-02 4.182961768139551589e-02
5.300000000000000000e+02 2.997751400063981136e-02 1.360669007105037159e-02 4.895027584009396110e-02
5.400000000000000000e+02 3.466751721933276215e-02 1.652810638912998245e-02 5.431316021895142565e-02
5.500000000000000000e+02 3.092814066253167862e-02 1.505150896037718046e-02 5.122645051035042141e-02
5.600000000000000000e+02 3.194228592012767626e-02 1.603393600218033441e-02 5.459061246460236716e-02
5.700000000000000000e+02 3.392044754921842709e-02 1.658993452784508424e-02 5.509682147363403892e-02
5.800000000000000000e+02 3.222832317921292544e-02 1.626347815935661259e-02 5.294527299703143119e-02
5.900000000000000000e+02 3.021270760038468131e-02 1.533018959243344186e-02 4.817618143645623074e-02
6.000000000000000000e+02 3.128503619585126100e-02 1.544199650212267280e-02 5.147415844145302594e-02
6.100000000000000000e+02 2.827230322270951265e-02 1.393799113199686683e-02 4.478284949064155473e-02
6.200000000000000000e+02 3.454964867254062266e-02 1.761686177175622939e-02 5.861341886913404298e-02
6.300000000000000000e+02 1.396154935691347743e-01 6.529793329421346160e-02 2.166289537406297372e-01
6.400000000000000000e+02 1.600278096785065218e-01 7.612299340282172033e-02 2.510015981803561669e-01
6.500000000000000000e+02 9.733552184731997237e-02 4.874802447102054986e-02 1.584217263172852386e-01
6.600000000000000000e+02 1.072193341147452267e-01 5.248857720969144630e-02 1.783553845139811411e-01
6.700000000000000000e+02 8.718207302742310427e-02 4.363737519112634994e-02 1.431561044126359317e-01
6.800000000000000000e+02 7.392434387769065973e-02 3.752537514406170671e-02 1.241105002334449980e-01
6.900000000000000000e+02 6.735909469946968486e-02 3.259517624663540308e-02 1.093984572074264278e-01
7.000000000000000000e+02 4.756916558332121431e-02 2.274091356679231943e-02 7.849151469439055728e-02
7.100000000000000000e+02 4.136511486138363253e-02 2.111851068602008455e-02 6.633964085396175381e-02
7.200000000000000000e+02 6.183106754382095699e-02 3.103108547582588556e-02 1.026050315954073200e-01
7.300000000000000000e+02 5.012836438165296782e-02 2.490951753379858080e-02 8.107096294172275175e-02
7.400000000000000000e+02 2.445368500575769224e-02 1.296596796138846375e-02 3.922369775102119843e-02
7.500000000000000000e+02 2.375646013956182398e-02 1.255227465679928205e-02 4.057021226508133321e-02
7.600000000000000000e+02 2.651172019402504160e-02 1.244628735867852644e-02 4.518073998474202158e-02
7.700000000000000000e+02 3.417934972412207256e-02 1.613786170117192595e-02 5.471955267881595947e-02
7.800000000000000000e+02 4.832778157526819440e-02 2.376343362052603381e-02 7.798569095997687217e-02
7.900000000000000000e+02 1.048843396462463551e-01 5.124052530618071477e-02 1.812999700300716166e-01
8.000000000000000000e+02 1.986060380434625794e-01 9.925539955657354529e-02 3.180172795903635774e-01
8.100000000000000000e+02 1.589631757771550469e-01 7.849867469027721478e-02 2.573273294227768071e-01
8.200000000000000000e+02 1.225620374619632580e-01 5.859290029241847469e-02 2.064823719969446636e-01
8.300000000000000000e+02 1.269836599732600269e-01 6.694799430187790834e-02 2.139024416847182808e-01
8.400000000000000000e+02 3.304567903449286415e-01 2.155493018163482932e-01 4.462328845661375221e-01
8.500000000000000000e+02 3.773629569517582549e-01 2.187914330085586334e-01 5.352682724157470373e-01
8.600000000000000000e+02 2.129734387628141046e-01 1.066945191584436209e-01 3.416805599205960942e-01
8.700000000000000000e+02 1.530822453625264590e-01 7.176540987709317809e-02 2.423351409786475008e-01
8.800000000000000000e+02 8.825453976390273958e-02 4.684175178497303887e-02 1.429239326412566347e-01
8.900000000000000000e+02 5.831489203282973210e-02 2.927897114290129235e-02 9.577176659602801290e-02
9.000000000000000000e+02 5.733983582449276445e-02 2.915126920630039045e-02 9.800018114124353641e-02
9.100000000000000000e+02 7.518431328416609605e-02 3.672104769509514088e-02 1.229387867763839237e-01
9.200000000000000000e+02 6.636719578628215432e-02 3.259824414269702625e-02 1.080881316110064022e-01
9.300000000000000000e+02 4.729575823210540458e-02 2.279600700993201015e-02 7.703803227203470660e-02
9.400000000000000000e+02 3.943687070594820848e-02 1.913642953554740497e-02 6.418266488612044129e-02
9.500000000000000000e+02 3.539444787177003365e-02 1.791996887848940068e-02 5.799567606691954924e-02
9.600000000000000000e+02 4.368009978619855072e-02 2.153138635951588192e-02 6.920351146978089008e-02
9.700000000000000000e+02 5.081607846997646810e-02 2.633186854908427937e-02 8.196957638385396483e-02
9.800000000000000000e+02 5.478528048793328276e-02 2.659323227585343521e-02 8.962401065671141143e-02
9.900000000000000000e+02 6.137252993283189018e-02 3.042715966337144681e-02 1.017435969045078770e-01
1.000000000000000000e+03 8.596220179739150202e-02 4.282446620868219506e-02 1.403544331497488529e-01
1.100000000000000000e+03 7.456064875095128053e-02 3.716124781940358113e-02 1.233179072637299450e-01
1.200000000000000000e+03 5.522842971231946285e-02 2.764809911996872482e-02 9.028550217420190649e-02
1.300000000000000000e+03 4.348150608458085237e-02 2.189214670572691909e-02 7.067973813692950136e-02
1.400000000000000000e+03 3.444611594547758449e-02 1.675125648646031210e-02 5.659215261186961027e-02
1.500000000000000000e+03 3.890971697675603413e-02 1.906736924478561607e-02 6.326688942306829544e-02
1.600000000000000000e+03 3.761171168068946219e-02 1.858728769067964290e-02 6.124640411801599710e-02
1.700000000000000000e+03 2.777514228434611876e-02 1.370989033567412800e-02 4.554752015233631823e-02
1.800000000000000000e+03 2.596290033100291314e-02 1.321169078187861209e-02 4.238783219627686311e-02
1.900000000000000000e+03 2.645985806919846570e-02 1.310736000672915909e-02 4.318873357525927076e-02
2.000000000000000000e+03 2.652061737121276172e-02 1.320987091959146577e-02 4.343747430795954351e-02
2.100000000000000000e+03 2.658154286133775079e-02 1.333672524092285351e-02 4.378578968539040966e-02
2.200000000000000000e+03 2.655994862628495781e-02 1.307576898473309691e-02 4.417234730978703006e-02
2.300000000000000000e+03 2.678299183635210468e-02 1.344770832573892287e-02 4.385841069432683259e-02
2.400000000000000000e+03 2.682478687680069085e-02 1.324927611802142330e-02 4.422208159032856717e-02
2.500000000000000000e+03 2.685780842151462566e-02 1.332016492062936680e-02 4.427768899422063198e-02
2.600000000000000000e+03 2.696013719281667095e-02 1.343801023955650160e-02 4.457355583984030228e-02
2.700000000000000000e+03 2.734488459067213259e-02 1.338981509084240587e-02 4.504518681614568670e-02
2.800000000000000000e+03 2.707718784856221958e-02 1.355096673778027200e-02 4.472185197279398422e-02
2.900000000000000000e+03 2.733769641080325413e-02 1.355376313151477295e-02 4.504538346037974261e-02
3.000000000000000000e+03 2.810948951635248994e-02 1.383565934749522719e-02 4.603422883609233768e-02
3.100000000000000000e+03 2.766272802153321372e-02 1.374675030030592625e-02 4.584312652426856399e-02
3.200000000000000000e+03 2.831935718111504990e-02 1.424522308261760156e-02 4.672226353833694446e-02
3.300000000000000000e+03 3.196327689414536072e-02 1.586594334559407460e-02 5.250283803224879003e-02
3.400000000000000000e+03 3.115097087284004335e-02 1.566598857262996997e-02 5.100645166236513622e-02
3.500000000000000000e+03 3.009349224288954822e-02 1.489171828181676260e-02 4.937624485084871062e-02
3.600000000000000000e+03 4.139358998263911044e-02 2.157809211122591053e-02 6.398798540124413237e-02
3.700000000000000000e+03 4.242089063105106833e-02 2.261426234095964549e-02 6.520611246892027424e-02
3.800000000000000000e+03 3.074616403071582169e-02 1.531849026474059981e-02 5.047588086985882461e-02
3.900000000000000000e+03 2.899259924116198359e-02 1.442069609939370355e-02 4.796588284691007814e-02
4.000000000000000000e+03 3.012673544856703245e-02 1.463878813389138736e-02 4.979545168588316029e-02
4.100000000000000000e+03 2.894213764991131893e-02 1.444471370486567416e-02 4.735862568300130276e-02
4.200000000000000000e+03 2.840849811270709790e-02 1.417075920921453958e-02 4.688545932460864984e-02
4.300000000000000000e+03 2.864504588313249514e-02 1.433417424919248943e-02 4.649021037442861021e-02
4.400000000000000000e+03 2.868689162357227276e-02 1.428620694010124779e-02 4.736497172595829225e-02
4.500000000000000000e+03 2.881622029584952199e-02 1.441962830324449753e-02 4.733591486658074443e-02
4.600000000000000000e+03 2.938037020994740955e-02 1.449380958643612695e-02 4.818958458407261031e-02
4.700000000000000000e+03 3.584083139184776612e-02 1.712254617857759606e-02 6.479614877857406419e-02
4.800000000000000000e+03 7.390278224065838231e-02 3.458017716373033845e-02 1.106099365447130584e-01
4.900000000000000000e+03 8.811040964647516571e-02 4.919306329674142525e-02 1.201009003360537508e-01
5.000000000000000000e+03 4.757466275622597440e-02 2.169747238493532210e-02 9.150875187042310788e-02
5.100000000000000000e+03 3.166678150608480402e-02 1.568692689011348326e-02 5.397562397396667155e-02
5.200000000000000000e+03 3.000450976811316894e-02 1.465567369818236709e-02 4.949646523663085718e-02
5.300000000000000000e+03 3.003680103457076825e-02 1.500580416026272776e-02 4.922743348470946106e-02
5.400000000000000000e+03 3.031425724641508695e-02 1.513349896272878081e-02 5.004116951472570990e-02
5.500000000000000000e+03 3.047826586606305552e-02 1.495658021637779819e-02 5.076663460501597280e-02
5.600000000000000000e+03 3.086966750898106904e-02 1.548929474233404387e-02 5.122633297398976326e-02
5.700000000000000000e+03 3.113946844497016836e-02 1.569694053198772421e-02 5.117582450123812909e-02
5.800000000000000000e+03 3.175581042425036637e-02 1.565936365573382394e-02 5.244875075142926835e-02
5.900000000000000000e+03 3.247546210587758109e-02 1.625211858446984001e-02 5.347088302356391848e-02
6.000000000000000000e+03 3.295111030363514354e-02 1.642495960387768336e-02 5.412892128236212325e-02
6.100000000000000000e+03 3.409861549781563472e-02 1.695707391065184172e-02 5.537932570898119328e-02
6.200000000000000000e+03 3.351297062737761817e-02 1.693353604476799737e-02 5.520719289714717815e-02
6.300000000000000000e+03 3.339910762229688496e-02 1.682235761041234526e-02 5.472435456876519055e-02
6.400000000000000000e+03 3.360987444654086470e-02 1.672303557040132754e-02 5.569108711167582160e-02
6.500000000000000000e+03 3.411182349837434125e-02 1.692877304173712877e-02 5.635019337663551425e-02
6.600000000000000000e+03 3.435045270736947903e-02 1.736552976541819518e-02 5.635126948392299440e-02
6.700000000000000000e+03 3.509952742599072029e-02 1.765626220095531385e-02 5.680456378302045639e-02
6.800000000000000000e+03 3.502594966650199315e-02 1.739004866502792679e-02 5.783948943023323880e-02
6.900000000000000000e+03 3.552593480309784030e-02 1.743245562053239578e-02 5.792753747733043329e-02
7.000000000000000000e+03 3.673948101358171653e-02 1.838049636268923939e-02 6.155948759826195688e-02
7.100000000000000000e+03 4.245653994930161795e-02 2.055830948434077959e-02 7.802751913707681175e-02
7.200000000000000000e+03 6.586301110896519706e-02 2.871900371063848198e-02 1.182652693661562365e-01
7.300000000000000000e+03 8.881000948779688153e-02 4.185000001911085010e-02 1.321053370971903840e-01
7.400000000000000000e+03 7.264376195175420436e-02 3.102360037846249585e-02 1.246025315709554382e-01
7.500000000000000000e+03 4.685036809186103601e-02 2.265950662740201516e-02 8.758453315964645491e-02
7.600000000000000000e+03 3.959511984760993863e-02 1.943903319008971967e-02 6.575591196300206720e-02
7.700000000000000000e+03 3.880685469132623411e-02 1.910404103481268615e-02 6.364577008617286480e-02
7.800000000000000000e+03 3.905262713547443670e-02 1.935411202377008283e-02 6.370497651843015641e-02
7.900000000000000000e+03 3.933727068348460282e-02 1.931092899099034685e-02 6.386547734510308882e-02
8.000000000000000000e+03 3.954923771832872387e-02 1.967978055749696614e-02 6.495520886085881518e-02
8.100000000000000000e+03 4.031741364138640565e-02 2.056501945854858487e-02 6.681411736485208530e-02
8.200000000000000000e+03 4.284729142731559526e-02 2.135768712289749446e-02 7.436535495863962064e-02
8.300000000000000000e+03 5.330708835290900310e-02 2.515108686904594937e-02 1.498498084043745349e-01
8.400000000000000000e+03 1.093211135229205516e-01 3.584331232559834213e-02 2.956279219043670969e-01
8.500000000000000000e+03 2.172476145195188224e-01 6.123968970666571199e-02 3.224448481997341243e-01
8.600000000000000000e+03 1.803602771960124695e-01 4.834157445333022579e-02 3.178315333732777415e-01
8.700000000000000000e+03 7.143771525171860315e-02 3.037010858518272849e-02 2.579020036601646915e-01
8.800000000000000000e+03 4.895460804879721295e-02 2.449050083560105548e-02 9.478511464159711242e-02
8.900000000000000000e+03 4.379463369852686083e-02 2.200398582390087482e-02 7.425745196489544342e-02
9.000000000000000000e+03 4.332405306990166211e-02 2.155808090688330139e-02 7.189697547598228322e-02
9.100000000000000000e+03 4.390484063053951697e-02 2.188001649976292762e-02 7.094113014663734618e-02
9.200000000000000000e+03 4.404917659629731946e-02 2.196690258100850168e-02 7.141852843518142757e-02
9.300000000000000000e+03 4.433296437315281668e-02 2.212306265531289312e-02 7.306682161290414812e-02
9.400000000000000000e+03 4.660120243101718157e-02 2.300051653562999038e-02 7.809469733175898598e-02
9.500000000000000000e+03 5.192883524549469360e-02 2.536450695964626370e-02 9.342106219545785739e-02
9.600000000000000000e+03 6.641058597147155018e-02 3.115649994448059165e-02 1.267676069027420527e-01
9.700000000000000000e+03 8.594686327991507557e-02 3.820726285341986134e-02 1.453381910186099801e-01
9.800000000000000000e+03 8.319057008372304773e-02 3.778552443109473025e-02 1.445370704709540433e-01
9.900000000000000000e+03 6.453440942314167539e-02 3.059830644751066961e-02 1.246421349323358768e-01
1.000000000000000000e+04 5.289073120193241856e-02 2.538201462638177766e-02 9.327584492571561192e-02
1.010000000000000000e+04 4.843531163431411685e-02 2.408967766737849653e-02 8.040624657099872119e-02
1.020000000000000000e+04 4.722021319933443484e-02 2.376385511246174864e-02 7.842196134500271920e-02
1.030000000000000000e+04 4.719989774012069150e-02 2.340262781502837341e-02 7.761892142201839984e-02
1.040000000000000000e+04 4.701132633575267478e-02 2.336823433559069921e-02 7.751719326418048117e-02
1.050000000000000000e+04 4.845734866247093653e-02 2.444913033393645435e-02 8.047583941215949443e-02
1.060000000000000000e+04 5.161453766669062138e-02 2.508123898699987295e-02 9.002476926788526013e-02
1.070000000000000000e+04 6.036514869851649506e-02 2.869649645064112700e-02 1.534199671113392616e-01
1.080000000000000000e+04 8.827012133354383838e-02 3.556880563544814050e-02 2.992683442086987999e-01
1.090000000000000000e+04 1.625483048792397966e-01 4.685798748952049730e-02 3.370843758686063452e-01
1.100000000000000000e+04 1.716826211338542130e-01 5.016473104351706902e-02 3.397273975959130832e-01
1.110000000000000000e+04 1.003687677342378348e-01 3.756007176003904602e-02 3.200102854910233385e-01
1.120000000000000000e+04 6.457402040589932390e-02 2.992625546313633020e-02 2.097517376562985925e-01
1.130000000000000000e+04 5.298160634633638372e-02 2.596736841285070610e-02 9.754484295473157818e-02
1.140000000000000000e+04 5.012275783835818538e-02 2.503674281368479734e-02 8.517535850321029944e-02
1.150000000000000000e+04 4.998974194042640762e-02 2.439735279394753334e-02 8.177831449891920235e-02
1.160000000000000000e+04 4.900849568832228026e-02 2.428804207061409717e-02 8.132144727348580848e-02
1.170000000000000000e+04 4.889191421654060649e-02 2.403507500380869591e-02 8.073472854282497113e-02
1.180000000000000000e+04 4.921261085548743475e-02 2.460186349564066552e-02 8.060021366954776834e-02
1.190000000000000000e+04 5.024032760725560820e-02 2.491721791389349405e-02 8.192010166338282995e-02
1.200000000000000000e+04 5.064158180550420996e-02 2.491680368446182181e-02 8.272584040497175939e-02
1.210000000000000000e+04 5.137770780327672454e-02 2.578409240361098642e-02 8.363547636714774303e-02
1.220000000000000000e+04 5.183010024495511570e-02 2.587413770913725430e-02 8.493233162675978276e-02
1.230000000000000000e+04 5.194103000579273349e-02 2.552611490338275654e-02 8.530681195652511928e-02
1.240000000000000000e+04 5.065368713698616826e-02 2.559476537507466773e-02 8.317098712493779800e-02
1.250000000000000000e+04 4.911958263967860366e-02 2.451071748743103088e-02 8.112705761110589053e-02
1.260000000000000000e+04 4.931187744242015308e-02 2.453010304287056229e-02 8.089416312891134497e-02
1.270000000000000000e+04 4.903188261861612246e-02 2.461994276170623858e-02 8.057592755443240828e-02
1.280000000000000000e+04 4.891642555564117145e-02 2.433578018846147342e-02 8.059301178158687073e-02
1.290000000000000000e+04 4.995544002839724662e-02 2.471040261580019493e-02 8.026205080049347851e-02
1.300000000000000000e+04 5.019015561509351103e-02 2.467015476119331988e-02 8.112673652195094565e-02
1.310000000000000000e+04 5.012317327723554011e-02 2.498827667883233780e-02 8.240745613866277963e-02
1.320000000000000000e+04 5.164768542121642159e-02 2.552181301951714568e-02 8.492984462094289866e-02
1.330000000000000000e+04 5.288927989514371347e-02 2.647475200875236412e-02 8.676083676731478900e-02
1.340000000000000000e+04 5.279134103795617150e-02 2.627633627583882830e-02 8.685410649117553117e-02
1.350000000000000000e+04 5.282833415954586720e-02 2.601821579501919363e-02 8.732136872715887121e-02
1.360000000000000000e+04 5.166392767163470456e-02 2.582841689303054869e-02 8.571762979731113730e-02
1.370000000000000000e+04 5.126965362611509563e-02 2.529036172026500121e-02 8.280234397859723150e-02
1.380000000000000000e+04 4.948362468897324340e-02 2.435380179431776565e-02 8.050505322680946707e-02
1.390000000000000000e+04 4.765519601186141846e-02 2.388189603100072250e-02 7.855631052287695426e-02
1.400000000000000000e+04 4.740362889731260243e-02 2.384489230915608909e-02 7.824533854509205244e-02
1.410000000000000000e+04 4.749993332211611963e-02 2.372112864563657650e-02 7.835337154621312139e-02
1.420000000000000000e+04 4.703348288302788144e-02 2.339849758602509378e-02 7.785865917115331047e-02
1.430000000000000000e+04 4.806036089181064952e-02 2.363845645768475681e-02 7.862020139200610880e-02
1.440000000000000000e+04 4.929862600653078797e-02 2.496151610321390227e-02 8.002787126645402593e-02
1.450000000000000000e+04 4.969950707532504175e-02 2.488667227599428156e-02 8.145580099500995819e-02
1.460000000000000000e+04 4.961475186732111631e-02 2.507314467418533463e-02 8.141479503778555060e-02
1.470000000000000000e+04 4.925662701766930079e-02 2.442438410044652647e-02 8.015661235363491510e-02
1.480000000000000000e+04 4.789689546922312052e-02 2.386656121972835498e-02 7.861654111861407501e-02
1.490000000000000000e+04 4.739417762080348068e-02 2.338695551412988197e-02 7.786622452881264422e-02
1.500000000000000000e+04 4.674579388757073989e-02 2.317538870456975833e-02 7.670551210099435524e-02
1.510000000000000000e+04 4.573932389957364314e-02 2.278632108921684052e-02 7.488754950954114309e-02
1.520000000000000000e+04 4.489165247157363842e-02 2.241765496680950612e-02 7.410792664804877194e-02
1.530000000000000000e+04 4.502665528531100275e-02 2.198223319026502282e-02 7.357934108765044889e-02
1.540000000000000000e+04 4.510758255438601649e-02 2.276411803782703996e-02 7.335412608060844220e-02
1.550000000000000000e+04 4.516091899486102818e-02 2.261324466069243935e-02 7.498341480019467264e-02
1.560000000000000000e+04 4.668063778159924765e-02 2.328085333301763149e-02 7.702920835067707250e-02
1.570000000000000000e+04 4.979824351904220403e-02 2.475913704782594163e-02 8.143926508757434735e-02
1.580000000000000000e+04 4.748772924826282632e-02 2.356645371262986594e-02 7.805103879012885437e-02
1.590000000000000000e+04 4.639009447680647602e-02 2.315614075516318066e-02 7.594710391586695364e-02
1.600000000000000000e+04 4.620297782010999305e-02 2.294600132784962651e-02 7.543081747332770759e-02
1.610000000000000000e+04 4.501929695950852156e-02 2.274975402507229544e-02 7.363112953598641153e-02
1.620000000000000000e+04 4.466104131098094093e-02 2.233581717158693997e-02 7.146239137670899744e-02
1.630000000000000000e+04 4.317454906794616215e-02 2.129698927397270791e-02 7.084198140852530912e-02
1.640000000000000000e+04 4.246012985067972034e-02 2.131228950945522269e-02 7.037442700914568749e-02
1.650000000000000000e+04 4.231792967649020826e-02 2.131152243548407182e-02 7.010256571259454450e-02
1.660000000000000000e+04 4.474245534392248813e-02 2.250296411030724975e-02 7.281945236321273052e-02
1.670000000000000000e+04 4.487784152075126320e-02 2.222510923606091024e-02 7.282643868247860863e-02
1.680000000000000000e+04 4.270079991221222698e-02 2.119171637622522739e-02 6.964491682814397122e-02
1.690000000000000000e+04 4.211556705660343680e-02 2.096024425498213550e-02 6.949696135995959978e-02
1.700000000000000000e+04 4.252516474183894862e-02 2.114773129828750528e-02 6.947944074975435924e-02
1.710000000000000000e+04 4.218952454036897781e-02 2.118920727048373420e-02 6.890463873626347102e-02
1.720000000000000000e+04 4.218575636607770074e-02 2.135700593943670733e-02 6.845487746851849908e-02
1.730000000000000000e+04 4.145156924173251656e-02 2.083030732735860480e-02 6.827948267670506943e-02
1.740000000000000000e+04 4.118479508695018637e-02 2.061162239966932846e-02 6.683486865555879342e-02
1.750000000000000000e+04 4.113617677925970190e-02 2.050847754827052685e-02 6.689055355480572063e-02
1.760000000000000000e+04 4.032358942817748648e-02 1.972532087418958288e-02 6.566104221908371230e-02
1.770000000000000000e+04 3.933451553691334063e-02 1.979093570413428815e-02 6.502360207037767570e-02
1.780000000000000000e+04 3.941481444430181696e-02 1.965169430880433707e-02 6.498874892713145390e-02
1.790000000000000000e+04 3.958480718654747155e-02 1.953391279319976678e-02 6.495798870088397015e-02
1.800000000000000000e+04 3.925299812073382993e-02 1.941454630845129356e-02 6.459864071094299776e-02
1.810000000000000000e+04 3.903636347665719042e-02 1.938547901529414502e-02 6.418554758929247150e-02
1.820000000000000000e+04 3.865234286110594275e-02 1.921028887092988274e-02 6.300297942247361227e-02
1.830000000000000000e+04 3.847688700268468015e-02 1.914183517064719023e-02 6.357660638328073432e-02
1.840000000000000000e+04 3.882827627265313108e-02 1.948463084918361510e-02 6.373867044919734326e-02
1.850000000000000000e+04 3.838932279932031483e-02 1.916574490566159972e-02 6.318112091372762862e-02
1.860000000000000000e+04 3.829294585425960240e-02 1.916115106051584360e-02 6.324871461237632775e-02
1.870000000000000000e+04 3.792209768658753172e-02 1.895231106865430046e-02 6.222123772101362943e-02
1.880000000000000000e+04 3.787408239902619739e-02 1.904116038932354704e-02 6.185523660430870124e-02
1.890000000000000000e+04 3.775108855717342754e-02 1.879481788260392583e-02 6.157145451573232953e-02
1.900000000000000000e+04 3.744091694324346020e-02 1.898150330248482912e-02 6.146064201366577273e-02
1.910000000000000000e+04 3.794665861109650096e-02 1.897102296244564112e-02 6.224356860076240422e-02
1.920000000000000000e+04 4.175234957634795657e-02 2.116222540495917362e-02 6.825721535747640567e-02
1.930000000000000000e+04 3.965169707640212038e-02 1.998535239897030955e-02 6.505608884932338742e-02
1.940000000000000000e+04 3.916125158944740864e-02 1.996969603765902379e-02 6.422973120967019611e-02
1.950000000000000000e+04 3.801333689208091088e-02 1.942428908434060825e-02 6.166947005042933139e-02
1.960000000000000000e+04 3.710724387871339180e-02 1.856635686815988687e-02 6.049981452163154250e-02
1.970000000000000000e+04 3.675920615370365657e-02 1.806888589999642095e-02 6.014345043481058445e-02
1.980000000000000000e+04 3.640119858794411273e-02 1.767823344717205439e-02 5.905029098555487910e-02
1.990000000000000000e+04 3.589369556391520943e-02 1.807020332558189127e-02 5.866222604773168453e-02
2.000000000000000000e+04 3.569099498590423691e-02 1.766844005929780678e-02 5.828218435752557242e-02
2.010000000000000000e+04 3.529682803683402426e-02 1.745218328772607519e-02 5.797032805612700040e-02
2.020000000000000000e+04 3.576097273349981148e-02 1.794449660454825596e-02 5.806713929206718666e-02
2.030000000000000000e+04 3.760911707516041008e-02 1.853080337916567649e-02 6.136135985821368488e-02
2.040000000000000000e+04 1.480796005067235854e-01 1.149178312526548812e-01 1.817580142623211048e-01
2.050000000000000000e+04 5.432184064190963557e-01 5.113336318740844266e-01 5.748065652261277192e-01
2.060000000000000000e+04 4.561715036421714053e-01 4.222491085113409537e-01 4.888562205596000965e-01
2.070000000000000000e+04 7.100645639061570202e-02 4.246290170953089665e-02 1.002501102762587554e-01
2.080000000000000000e+04 3.612014485842022365e-02 1.786217908621062431e-02 5.895450562445091192e-02
2.090000000000000000e+04 3.454053590591059375e-02 1.734626074715497901e-02 5.655476942279773905e-02
2.100000000000000000e+04 3.433845022224005228e-02 1.688198266366725681e-02 5.592583654630849110e-02
2.110000000000000000e+04 3.406885606954541956e-02 1.706376563859684017e-02 5.605411145302970077e-02
2.120000000000000000e+04 3.384258269549503262e-02 1.698382247341767570e-02 5.512219828956192724e-02
2.130000000000000000e+04 3.376594452007301156e-02 1.647333821445760502e-02 5.535725491114053265e-02
2.140000000000000000e+04 3.526439361000330286e-02 1.729952268754433864e-02 5.772845118847396567e-02
2.150000000000000000e+04 3.718167159783889592e-02 1.851452926627352932e-02 6.168797804490401548e-02
2.160000000000000000e+04 3.552001026834711306e-02 1.788140947491375157e-02 5.828466327828592253e-02
2.170000000000000000e+04 3.414225322658973744e-02 1.681174542977539876e-02 5.591230095498005148e-02
2.180000000000000000e+04 3.329542082079865045e-02 1.641900117557790195e-02 5.479587203750036634e-02
2.190000000000000000e+04 3.312208195468459293e-02 1.644244742522485425e-02 5.472009623840270315e-02
2.200000000000000000e+04 3.275283472497517168e-02 1.671602998446384755e-02 5.402831374657802999e-02
2.210000000000000000e+04 3.277669633261230675e-02 1.651503142997264029e-02 5.401801356017799094e-02
2.220000000000000000e+04 3.309609591274707135e-02 1.636024109533823490e-02 5.385314819948747167e-02
2.230000000000000000e+04 3.324314163411004608e-02 1.639458732135630828e-02 5.420335012191406648e-02
2.240000000000000000e+04 3.261856881089866128e-02 1.635337602409149549e-02 5.319572794273701166e-02
2.250000000000000000e+04 3.220021230651091970e-02 1.616188832413913493e-02 5.268154698511358369e-02
2.260000000000000000e+04 3.204723026251612983e-02 1.587203257646942894e-02 5.232532276154604894e-02
2.270000000000000000e+04 3.208410093764270388e-02 1.590190871323396080e-02 5.257161617699081940e-02
2.280000000000000000e+04 3.193065921167917431e-02 1.590017306127893340e-02 5.257596921069078444e-02
2.290000000000000000e+04 3.184528398916480069e-02 1.579712579227267322e-02 5.172881949456203943e-02
2.300000000000000000e+04 3.164170782756724892e-02 1.564340292901417184e-02 5.201931323874194046e-02
2.310000000000000000e+04 3.186133302675879519e-02 1.554639672690694661e-02 5.169317328004304629e-02
2.320000000000000000e+04 3.156948957429712294e-02 1.543393568199778743e-02 5.178355043700493682e-02
2.330000000000000000e+04 3.140180688226227451e-02 1.558089667586031769e-02 5.130038633689690264e-02
2.340000000000000000e+04 3.154104589096329986e-02 1.577758995310350743e-02 5.159233579768639222e-02
2.350000000000000000e+04 3.144887449017076675e-02 1.577435076117580590e-02 5.132222326166958892e-02
2.360000000000000000e+04 3.120245028158948400e-02 1.561429345538807058e-02 5.117069152191851267e-02
2.370000000000000000e+04 3.156324831248692731e-02 1.569753861081752550e-02 5.186313460431490191e-02
2.380000000000000000e+04 3.208839031417089899e-02 1.601016255899286728e-02 5.230888439083650199e-02
2.390000000000000000e+04 3.178440840445279081e-02 1.579593195721602436e-02 5.185411003196269825e-02
2.400000000000000000e+04 3.202968172179352507e-02 1.599571746381085041e-02 5.272569655703694680e-02
2.410000000000000000e+04 3.115693540868230346e-02 1.523353005280765615e-02 5.119277907863412080e-02
2.420000000000000000e+04 3.079129326091998783e-02 1.553073095614393266e-02 5.081995024212930534e-02
2.430000000000000000e+04 3.035022557493905621e-02 1.504626373665059712e-02 4.953272115532590669e-02
2.440000000000000000e+04 2.996260214418560580e-02 1.491953687580651298e-02 4.919852171724422435e-02
2.450000000000000000e+04 2.996502264223658077e-02 1.476282829450478035e-02 4.880117179613883971e-02
2.460000000000000000e+04 2.975144018263698245e-02 1.481693084486201267e-02 4.852146102127243704e-02
2.470000000000000000e+04 2.952110553918970565e-02 1.460097808742453519e-02 4.838023233355048802e-02
2.480000000000000000e+04 2.929954536224063308e-02 1.447981325308580342e-02 4.806658868031338239e-02
2.490000000000000000e+04 2.920236524721703600e-02 1.461448470856073142e-02 4.739215951021032852e-02
2.500000000000000000e+04 2.956819380561734670e-02 1.490787022115678054e-02 4.736061969722658166e-02
2.510000000000000000e+04 2.883863820950415685e-02 1.443210156719349629e-02 4.742721172169739319e-02
2.520000000000000000e+04 2.910660904369275284e-02 1.453032225912489865e-02 4.730756094941111073e-02
2.530000000000000000e+04 2.851875405503991739e-02 1.400600446207305935e-02 4.698373617481591685e-02
2.540000000000000000e+04 2.855622157637867364e-02 1.458297598112624077e-02 4.695420723100331151e-02
2.550000000000000000e+04 2.899280464794902132e-02 1.455021942947067916e-02 4.719934504504379874e-02
2.560000000000000000e+04 2.881000048191247748e-02 1.446349295217084704e-02 4.723729000791729998e-02
2.570000000000000000e+04 2.856985669865801103e-02 1.449011200668186630e-02 4.722943712890075724e-02
2.580000000000000000e+04 2.822296296822109432e-02 1.400736384963403337e-02 4.573740677293490486e-02
2.590000000000000000e+04 2.807881455828573763e-02 1.404837589147622801e-02 4.578234822601306986e-02
2.600000000000000000e+04 2.802151709897638884e-02 1.391360227184034078e-02 4.584922510909458793e-02
2.610000000000000000e+04 2.800656936376516581e-02 1.381275527311017284e-02 4.582258356945589223e-02
2.620000000000000000e+04 2.804185695619546698e-02 1.429599469657494466e-02 4.595580916637839047e-02
2.630000000000000000e+04 2.790414568102105031e-02 1.405068027405124292e-02 4.620979086012565878e-02
2.640000000000000000e+04 2.825601211632602569e-02 1.406736200774400501e-02 4.567522176078647050e-02
2.650000000000000000e+04 2.776992971994780152e-02 1.385212058889060890e-02 4.550417647060559651e-02
2.660000000000000000e+04 2.779111570970678805e-02 1.387332165150934743e-02 4.532909487265951443e-02
2.670000000000000000e+04 2.782932693765536800e-02 1.372158186565684834e-02 4.547985470154663340e-02
2.680000000000000000e+04 2.748684954660245150e-02 1.369729941625901989e-02 4.508101600002573095e-02
2.690000000000000000e+04 2.745527670167430268e-02 1.379627909515135017e-02 4.504523496060697241e-02
2.700000000000000000e+04 2.749717398425467058e-02 1.368477742239895649e-02 4.437783616038170481e-02
2.710000000000000000e+04 2.747575154783768112e-02 1.321358860577079991e-02 4.481706440947377801e-02
2.720000000000000000e+04 2.701698493098484907e-02 1.356038353541758230e-02 4.399672242014358164e-02
2.730000000000000000e+04 2.682206560956257313e-02 1.356746897141124578e-02 4.398600182519359775e-02
2.740000000000000000e+04 2.661458005495200355e-02 1.334885301794482872e-02 4.337777267623482702e-02
2.750000000000000000e+04 2.646954034905201272e-02 1.322127389187740393e-02 4.339537382983662400e-02
2.760000000000000000e+04 2.683790080622215288e-02 1.320828309927872014e-02 4.327477843985416683e-02
2.770000000000000000e+04 2.757369855663399996e-02 1.384763147012674223e-02 4.483001090869814104e-02
2.780000000000000000e+04 5.135121348229432919e-02 2.977708233379096694e-02 7.411014578773846007e-02
2.790000000000000000e+04 5.127635104757535256e-01 4.860821664339302073e-01 5.386231612374038358e-01
2.800000000000000000e+04 7.215657903872180201e-01 6.983571629380949108e-01 7.440356100379696969e-01
2.810000000000000000e+04 2.433325489710463641e-01 2.177572447143324985e-01 2.698282355442540581e-01
2.820000000000000000e+04 2.990929811725683701e-02 1.512313106397220920e-02 4.889390968742170912e-02
2.830000000000000000e+04 2.549360670336534365e-02 1.289826021778305888e-02 4.195253501792527151e-02
2.840000000000000000e+04 2.497029485138738472e-02 1.249954066207307167e-02 4.083903968868071721e-02
2.850000000000000000e+04 2.459447136763159500e-02 1.249082937415845092e-02 4.040431213068657046e-02
2.860000000000000000e+04 2.491692358714283143e-02 1.251207984135421607e-02 4.055907304326043794e-02
2.870000000000000000e+04 2.532216946105365560e-02 1.282016470291444561e-02 4.148159146371527273e-02
2.880000000000000000e+04 2.868261609152417471e-02 1.433091821340969595e-02 4.651843773519327013e-02
2.890000000000000000e+04 2.661236937929114740e-02 1.337465192797635677e-02 4.296374342450550582e-02
2.900000000000000000e+04 2.413122620084978340e-02 1.212758119028329619e-02 3.925090259901330841e-02
2.910000000000000000e+04 2.425199590275660400e-02 1.217512550582970643e-02 3.997181367069193442e-02
2.920000000000000000e+04 2.423375081416266619e-02 1.200564753083639344e-02 3.961726379447757379e-02
2.930000000000000000e+04 2.415312125774053340e-02 1.177090155296169408e-02 3.946420274328654026e-02
2.940000000000000000e+04 2.410548295782281858e-02 1.200524401168452313e-02 3.903454319590531074e-02
2.950000000000000000e+04 2.401710469230829842e-02 1.178778582109153705e-02 3.900260180594119358e-02
2.960000000000000000e+04 2.380803649806565933e-02 1.180038445910139809e-02 3.900887454986876751e-02
2.970000000000000000e+04 2.344085095788423292e-02 1.189840566945682410e-02 3.849257481453737667e-02
2.980000000000000000e+04 2.432764939325739173e-02 1.222848283689145256e-02 3.957228450979641265e-02
2.990000000000000000e+04 2.740092029646828617e-02 1.381225530189127311e-02 4.490635553369623501e-02
3.000000000000000000e+04 2.487474491425529025e-02 1.245852270516247667e-02 4.072023092528553184e-02
3.010000000000000000e+04 2.403947317807454687e-02 1.196561581888564915e-02 3.990361376753695510e-02
3.020000000000000000e+04 2.513597570586278626e-02 1.262207215400584955e-02 4.027410602364848297e-02
3.030000000000000000e+04 2.331589046270611185e-02 1.146964904510376117e-02 3.800870637688667786e-02
3.040000000000000000e+04 2.866028555130965480e-02 1.425965409111499063e-02 4.692065621987001611e-02
3.050000000000000000e+04 3.732652497792796759e-02 1.837488178048378440e-02 6.119622770388882110e-02
3.060000000000000000e+04 3.003614614117785034e-02 1.497316388458407380e-02 4.893069650334735260e-02
3.070000000000000000e+04 3.748167391474685473e-02 1.874278675312434847e-02 6.136771194757269232e-02
3.080000000000000000e+04 2.823492505175383485e-02 1.407979252335829316e-02 4.610822554341661994e-02
3.090000000000000000e+04 3.985727970699719236e-02 2.071944874076324383e-02 6.161655213923621782e-02
3.100000000000000000e+04 6.250345475011191698e-02 4.078737658532437943e-02 8.436470222150817266e-02
3.110000000000000000e+04 3.791177272335401194e-02 1.857688474074681295e-02 6.135996285883361240e-02
3.120000000000000000e+04 2.293079038040785403e-02 1.129060723751805669e-02 3.721168014845052663e-02
3.130000000000000000e+04 2.253246494115969736e-02 1.118572577047151351e-02 3.693186490320805870e-02
3.140000000000000000e+04 2.299231163676121112e-02 1.152092886556383734e-02 3.759478606701308762e-02
3.150000000000000000e+04 2.217541562609423242e-02 1.101849428993966276e-02 3.606368519457114202e-02
3.160000000000000000e+04 2.168442643095840408e-02 1.079154630285555048e-02 3.534009746631513321e-02
3.170000000000000000e+04 2.148992177547922808e-02 1.064731527178727419e-02 3.533842182374993812e-02
3.180000000000000000e+04 2.156295831599281884e-02 1.053859229353176427e-02 3.510913673448212702e-02
3.190000000000000000e+04 2.155064520960255428e-02 1.078447094993936414e-02 3.516082167245766776e-02
3.200000000000000000e+04 2.155498071348596958e-02 1.080149245602698635e-02 3.520692554032126692e-02
3.210000000000000000e+04 2.153164842223646500e-02 1.072153156684036573e-02 3.509157042650567354e-02
3.220000000000000000e+04 2.134891076575803556e-02 1.054215120924543309e-02 3.485406626222899845e-02
3.230000000000000000e+04 2.129268409054050834e-02 1.062387979515844530e-02 3.498120062246735940e-02
3.240000000000000000e+04 2.137710432223877480e-02 1.063730785109967374e-02 3.503364474511280052e-02
3.250000000000000000e+04 2.125184944049988631e-02 1.041023059212353719e-02 3.460776893253303399e-02
3.260000000000000000e+04 2.124138284055651985e-02 1.072720081348319844e-02 3.452168216787732807e-02
3.270000000000000000e+04 2.099699565609812815e-02 1.065687280175451994e-02 3.410674110835384965e-02
3.280000000000000000e+04 2.095448810369313422e-02 1.060892739086120341e-02 3.447511711008613422e-02
3.290000000000000000e+04 2.100780655182415274e-02 1.046221302773400579e-02 3.414348662025946252e-02
3.300000000000000000e+04 2.409152904530533282e-02 1.227502230148726572e-02 3.885662462770703846e-02
3.310000000000000000e+04 3.859762781670621895e-02 2.282483780471477805e-02 5.538509214444352347e-02
3.320000000000000000e+04 2.820711113927269753e-02 1.458843803600589836e-02 4.447570371380380611e-02
3.330000000000000000e+04 2.087072119958510719e-02 1.038869783003305326e-02 3.355614383921684540e-02
3.340000000000000000e+04 2.024801038714930945e-02 1.005039251376500624e-02 3.318522888237340068e-02
3.350000000000000000e+04 2.018892041626810935e-02 9.773856687034091981e-03 3.304223432096495966e-02
3.360000000000000000e+04 2.008744276042032442e-02 9.892261828323877654e-03 3.299748561370081240e-02
3.370000000000000000e+04 2.002500155036904955e-02 9.876631414693394506e-03 3.294390603930381911e-02
3.380000000000000000e+04 1.999655833704429286e-02 1.017667439526295792e-02 3.252623196951272971e-02
3.390000000000000000e+04 1.990930634474465458e-02 9.933453762386454389e-03 3.211056411646149439e-02
3.400000000000000000e+04 1.956228586641250641e-02 9.774101465033911001e-03 3.208263051452112102e-02
3.410000000000000000e+04 1.966934684976629627e-02 9.803101479865980114e-03 3.205054206103671172e-02
3.420000000000000000e+04 1.963365625578173540e-02 9.883933588366294182e-03 3.212331033989985346e-02
3.430000000000000000e+04 1.975534069945301258e-02 9.915368153477280289e-03 3.200267448167423701e-02
3.440000000000000000e+04 1.976628723411778463e-02 9.692785264517110241e-03 3.211675021683858822e-02
3.450000000000000000e+04 1.955452507863536180e-02 9.896717150345053435e-03 3.166827868840466770e-02
3.460000000000000000e+04 1.946550993710480237e-02 9.593252586567945286e-03 3.131585022125185636e-02
3.470000000000000000e+04 1.922299160483631475e-02 9.693251572145419534e-03 3.133862299788200967e-02
3.480000000000000000e+04 1.905258903584398228e-02 9.559652770918069045e-03 3.110099968686988112e-02
3.490000000000000000e+04 1.923650937300684649e-02 9.504040953560520533e-03 3.119112632344678976e-02
3.500000000000000000e+04 1.915482924838653178e-02 9.487402800852284476e-03 3.102902416486796183e-02
3.510000000000000000e+04 1.892112598179480215e-02 9.533251386458663212e-03 3.046809264080701379e-02
3.520000000000000000e+04 1.901125122701247463e-02 9.445513721080184277e-03 3.085686569430840312e-02
3.530000000000000000e+04 1.915781953391270873e-02 9.563804008127212847e-03 3.144806020138555397e-02
3.540000000000000000e+04 2.040084728374203654e-02 9.983919092625770722e-03 3.312176002174599398e-02
3.550000000000000000e+04 1.910485248488792698e-02 9.723112377214617949e-03 3.107881404900833533e-02
3.560000000000000000e+04 1.827949263120024273e-02 9.119957016353581400e-03 2.986353459254459386e-02
3.570000000000000000e+04 1.838784569593990975e-02 9.220955213252331889e-03 3.030707402332631292e-02
3.580000000000000000e+04 1.843449591006585814e-02 9.231664765394768934e-03 3.029442327831370629e-02
3.590000000000000000e+04 1.844899617441854087e-02 9.482825059579589808e-03 3.012908082221112463e-02
3.600000000000000000e+04 1.841772608739870865e-02 9.271808047726894791e-03 3.013146697936588958e-02
3.610000000000000000e+04 1.818842002897805635e-02 9.084809685511101990e-03 2.984594095748427378e-02
3.620000000000000000e+04 1.805422464149650241e-02 9.033938712254590414e-03 2.981268476904348069e-02
3.630000000000000000e+04 1.812595058027216197e-02 9.013345690935307963e-03 2.943281910016520495e-02
3.640000000000000000e+04 1.790009813842206865e-02 8.925920095522494810e-03 2.944391360424087473e-02
3.650000000000000000e+04 1.781387878762056426e-02 8.982616460110288970e-03 2.905501322423759830e-02
3.660000000000000000e+04 1.794339803084548171e-02 9.080337348742981499e-03 2.915433975041110265e-02
3.670000000000000000e+04 1.800164050989002187e-02 8.910388812495253358e-03 2.928127780144367670e-02
3.680000000000000000e+04 1.812751134153446977e-02 8.972710240130306325e-03 2.932143714979018601e-02
3.690000000000000000e+04 1.778469837749302798e-02 8.820586404540642356e-03 2.921554037367307330e-02
3.700000000000000000e+04 2.355927538997507759e-02 1.172736854258262136e-02 3.853455282682528849e-02
3.710000000000000000e+04 3.244366376937535962e-02 1.657473644893978776e-02 5.288414256129338187e-02
3.720000000000000000e+04 2.432154265151703285e-02 1.201584311834676816e-02 3.990790163840527566e-02
3.730000000000000000e+04 3.150894596242738432e-02 1.562913918945614544e-02 5.205570166436344209e-02
3.740000000000000000e+04 2.329127909750918976e-02 1.157435960994592124e-02 3.833066727468460028e-02
3.750000000000000000e+04 1.794818195701665398e-02 8.917082113632280455e-03 2.908494376767713913e-02
3.760000000000000000e+04 3.623085448562734373e-02 2.212912507589694794e-02 5.041218971624617656e-02
3.770000000000000000e+04 4.280028636788636015e-02 2.866437181283710764e-02 5.713933158856208255e-02
3.780000000000000000e+04 2.006110686954712397e-02 1.017718073592848750e-02 3.210497951705945652e-02
3.790000000000000000e+04 1.740367219138577032e-02 8.560038295226321536e-03 2.831600381135111061e-02
3.800000000000000000e+04 1.718982863212805551e-02 8.616692894862542154e-03 2.804357796955832260e-02
3.810000000000000000e+04 1.727913572001417430e-02 8.466576552262060698e-03 2.818878214638828594e-02
3.820000000000000000e+04 1.994975311464496776e-02 9.720248521106896258e-03 3.239973490538844425e-02
3.830000000000000000e+04 2.221439331082255414e-02 1.115602675474718433e-02 3.617025202404182405e-02
3.840000000000000000e+04 1.962593950402053561e-02 9.960785687759923443e-03 3.204379388402961437e-02
3.850000000000000000e+04 1.831332209493403279e-02 9.101228051938905703e-03 2.979058205777077029e-02
3.860000000000000000e+04 1.713963043261357636e-02 8.587091020744501424e-03 2.768447173683825577e-02
3.870000000000000000e+04 1.652146601220353880e-02 8.299121183755879885e-03 2.717380723899749315e-02
3.880000000000000000e+04 1.653418125228335936e-02 8.221694588871963222e-03 2.682322045789028650e-02
3.890000000000000000e+04 1.657901351704250612e-02 8.377659822717263213e-03 2.704013699998765452e-02
3.900000000000000000e+04 1.659729218725980796e-02 8.381662364008345828e-03 2.718184892193721211e-02
3.910000000000000000e+04 1.828201121316415378e-02 9.092573679627792907e-03 2.978970593096903069e-02
3.920000000000000000e+04 3.796608580784659182e-02 2.274083158245649230e-02 5.369134719868873251e-02
3.930000000000000000e+04 4.070051783320820238e-02 2.553878049893428676e-02 5.546329505866147425e-02
3.940000000000000000e+04 1.911889410819590449e-02 9.638968970465441877e-03 3.179786087030860020e-02
3.950000000000000000e+04 1.612150266753099512e-02 8.034721460632488627e-03 2.617222520430618343e-02
3.960000000000000000e+04 1.603883290940589373e-02 8.076255496400572623e-03 2.614306939645314951e-02
3.970000000000000000e+04 1.593815066760836258e-02 8.082109583528906266e-03 2.624514026654340554e-02
3.980000000000000000e+04 1.621370722428362374e-02 8.026515473834547679e-03 2.613626107911081950e-02
3.990000000000000000e+04 1.598250033217887486e-02 8.024088142251974490e-03 2.613437025659408330e-02
4.000000000000000000e+04 1.600034585460589909e-02 7.967088433964777949e-03 2.598933026102507801e-02
4.010000000000000000e+04 1.593908218297263035e-02 8.022494422142893364e-03 2.619510135587373167e-02
4.020000000000000000e+04 1.622256233683042406e-02 8.123524910756556999e-03 2.635170128259487279e-02
4.030000000000000000e+04 1.625537920844310688e-02 8.075095766203426242e-03 2.664556327608815639e-02
4.040000000000000000e+04 1.608902004859542878e-02 7.852113027248837709e-03 2.601942532497719326e-02
4.050000000000000000e+04 1.568664763023592743e-02 7.704397799188730800e-03 2.568211254562439289e-02
4.060000000000000000e+04 1.579318113459603559e-02 8.017503165791365488e-03 2.608008448967483878e-02
4.070000000000000000e+04 1.586432052062550224e-02 7.965319765459400944e-03 2.593958215098116082e-02
4.080000000000000000e+04 1.585885029302790128e-02 8.020935711518495034e-03 2.579518941899647255e-02
4.090000000000000000e+04 1.576944031437457067e-02 7.943795174075427706e-03 2.571313714358836044e-02
4.100000000000000000e+04 3.286850022835079155e-02 2.038361279679285626e-02 4.555646334926530261e-02
4.110000000000000000e+04 4.354393987411489531e-02 3.086860209156738755e-02 5.602907821221830842e-02
4.120000000000000000e+04 1.959075389390370348e-02 1.004460450889490403e-02 3.117850376026128772e-02
4.130000000000000000e+04 1.556232726909843704e-02 7.702701083229381018e-03 2.521839298671320687e-02
4.140000000000000000e+04 1.556972267359476789e-02 7.841068269746337763e-03 2.535443154422933193e-02
4.150000000000000000e+04 1.548039519699184914e-02 7.727826875232796967e-03 2.533262684114262475e-02
4.160000000000000000e+04 1.555191102012345485e-02 7.804972978177758709e-03 2.535715187506399834e-02
4.170000000000000000e+04 1.543137482396581342e-02 7.841489804233763017e-03 2.505132476057162633e-02
4.180000000000000000e+04 1.555693523904566611e-02 7.882391359909179593e-03 2.517131678686659879e-02
4.190000000000000000e+04 1.543721007373775704e-02 7.644175033755888291e-03 2.509958194692220659e-02
4.200000000000000000e+04 1.542058226069152778e-02 7.662587716590341103e-03 2.530233720076979081e-02
4.210000000000000000e+04 1.558823458569265699e-02 7.620797767467161338e-03 2.528550963949865310e-02
4.220000000000000000e+04 1.564253639607897026e-02 7.801470717703159509e-03 2.515741339788500272e-02
4.230000000000000000e+04 1.539527466794107097e-02 7.529436837523600413e-03 2.510384710846372269e-02
4.240000000000000000e+04 1.510754122453581219e-02 7.508119386367602573e-03 2.485633361096747929e-02
4.250000000000000000e+04 1.505024127852463631e-02 7.578553573875397749e-03 2.465793982792061773e-02
4.260000000000000000e+04 1.483957182650212127e-02 7.457181294168792850e-03 2.442199616467519499e-02
4.270000000000000000e+04 1.469216742843422983e-02 7.367290865115204597e-03 2.402376928342097803e-02
4.280000000000000000e+04 1.476010970293032548e-02 7.347617929356715580e-03 2.407384269099767382e-02
4.290000000000000000e+04 1.467825398574806872e-02 7.420955718917599843e-03 2.392631143929729517e-02
4.300000000000000000e+04 1.457391095292200414e-02 7.230202369987265461e-03 2.377829278779513070e-02
4.310000000000000000e+04 1.459863027698622522e-02 7.352584446519482529e-03 2.392961144611263288e-02
4.320000000000000000e+04 1.460312499214343543e-02 7.363684686421983171e-03 2.365776478688653983e-02
4.330000000000000000e+04 1.465078839459850631e-02 7.265354901984689973e-03 2.375922807851722079e-02
4.340000000000000000e+04 1.457260424186531018e-02 7.255542321930248326e-03 2.358168976115462834e-02
4.350000000000000000e+04 1.426428247726586711e-02 7.210577035694245435e-03 2.349376471396902658e-02
4.360000000000000000e+04 1.428056791358965974e-02 7.167394509460188121e-03 2.334174539247695426e-02
4.370000000000000000e+04 1.436836728088061732e-02 7.161158192274805386e-03 2.375854096346954186e-02
4.380000000000000000e+04 1.456008177395431979e-02 7.211911141891202449e-03 2.365819633625669896e-02
4.390000000000000000e+04 1.481901831788623967e-02 7.463204404316283770e-03 2.428823461853411511e-02
4.400000000000000000e+04 1.473956934534199903e-02 7.336845278712345562e-03 2.441900788811923739e-02
4.410000000000000000e+04 1.476988201833113849e-02 7.421463929085106263e-03 2.391523088132748581e-02
4.420000000000000000e+04 1.951735549716056284e-02 9.686598430494578610e-03 3.195341018373258624e-02
4.430000000000000000e+04 2.025530040183223454e-02 1.006880219100267544e-02 3.344181000536625148e-02
4.440000000000000000e+04 1.483183990833275394e-02 7.426737206977990398e-03 2.426793490388227253e-02
4.450000000000000000e+04 1.418470708587744877e-02 7.126482105152319099e-03 2.298757334102476471e-02
4.460000000000000000e+04 1.403534902856538001e-02 6.979715341618592840e-03 2.287741846886328853e-02
4.470000000000000000e+04 1.401865368928097676e-02 7.094684832026109875e-03 2.290255755526309639e-02
4.480000000000000000e+04 1.406623230043558756e-02 7.042335746013507307e-03 2.296571500622796025e-02
4.490000000000000000e+04 1.431509134299576401e-02 7.125763928915903635e-03 2.339877308797829250e-02
4.500000000000000000e+04 1.416459233855507822e-02 7.070083880262536917e-03 2.293571138420700053e-02
4.510000000000000000e+04 1.404511794167451200e-02 7.134666206629485669e-03 2.286774113800702987e-02
4.520000000000000000e+04 1.422266596740275578e-02 7.053651589137152449e-03 2.306818947562631547e-02
4.530000000000000000e+04 2.111958800252462451e-02 1.044349420131161603e-02 3.472509013207921574e-02
4.540000000000000000e+04 4.598545842997130151e-02 2.295487083611770854e-02 7.475097694343200982e-02
4.550000000000000000e+04 4.574578753605412773e-02 2.284117214293971201e-02 7.461304760298523298e-02
4.560000000000000000e+04 2.244841524029863103e-02 1.143354251777779079e-02 3.668619231646738643e-02
4.570000000000000000e+04 1.408346556410280948e-02 7.039266187225811863e-03 2.280851404553551134e-02
4.580000000000000000e+04 1.380188380592469767e-02 6.928315135807273407e-03 2.250795243968350956e-02
4.590000000000000000e+04 1.388637589203480308e-02 7.005167096928241119e-03 2.264465026545437257e-02
4.600000000000000000e+04 1.417592606173300948e-02 7.096616606452036194e-03 2.318688965865629489e-02
4.610000000000000000e+04 1.385205635304129212e-02 6.916083875982734219e-03 2.274433933972301591e-02
4.620000000000000000e+04 1.386770800562047573e-02 6.887220288276990274e-03 2.256337825049650053e-02
4.630000000000000000e+04 1.575639117795064187e-02 7.738492483638195057e-03 2.702135294458678574e-02
4.640000000000000000e+04 2.558255487878588127e-02 1.130595016346707012e-02 4.677798405353471300e-02
4.650000000000000000e+04 3.428175807307345946e-02 1.651318740276863997e-02 5.349766963968057704e-02
4.660000000000000000e+04 2.140850479802739251e-02 1.018323260851307192e-02 3.602507940942216436e-02
4.670000000000000000e+04 1.409566763670748978e-02 7.129096352023005061e-03 2.298468862829947459e-02
4.680000000000000000e+04 1.394861983517576426e-02 6.939845757847091547e-03 2.259712054321005512e-02
4.690000000000000000e+04 1.438925574672950472e-02 7.288208403519136520e-03 2.349299598762587954e-02
4.700000000000000000e+04 3.271669072107710741e-02 1.624127582363071864e-02 5.359928670990987687e-02
4.710000000000000000e+04 1.017561812992304471e-01 4.938586751398786612e-02 1.655530195145582528e-01
4.720000000000000000e+04 9.914338084241561266e-02 4.842817059175674038e-02 1.658581612348293266e-01
4.730000000000000000e+04 1.121671998650687202e-01 5.804535611010049057e-02 1.856210363323317625e-01
4.740000000000000000e+04 5.625803169645809954e-02 2.874282172172066760e-02 9.405771940803202280e-02
4.750000000000000000e+04 1.398108305242893278e-02 6.971093553339274829e-03 2.265148904182933895e-02
4.760000000000000000e+04 1.373401683088146426e-02 6.866054920153437727e-03 2.223191389011774585e-02
4.770000000000000000e+04 1.375784402076116186e-02 7.032838100182029796e-03 2.239054560763917637e-02
4.780000000000000000e+04 1.371722148762411463e-02 6.835981293142360735e-03 2.221201174260667086e-02
4.790000000000000000e+04 1.373926407872046694e-02 6.735209394628710600e-03 2.221415776897715105e-02
4.800000000000000000e+04 1.581723832116437717e-02 7.962584498995202778e-03 2.544462607336613058e-02
4.810000000000000000e+04 1.987183900904655395e-02 1.025792837260828747e-02 3.055072272104271056e-02
4.820000000000000000e+04 1.466294293596912858e-02 7.447128218308446748e-03 2.384593073937470512e-02
4.830000000000000000e+04 1.359800694791813563e-02 6.781152839519627787e-03 2.224910722496797541e-02
4.840000000000000000e+04 3.010266230571487581e-02 1.924729563360079096e-02 4.123006042654140529e-02
4.850000000000000000e+04 6.806372797573005673e-02 5.656041153022289131e-02 7.931991763962455144e-02
4.860000000000000000e+04 4.191142912413076127e-02 3.039712379819869623e-02 5.306930487393871770e-02
4.870000000000000000e+04 1.360960763239545297e-02 6.784318528587005015e-03 2.245049585795316077e-02
4.880000000000000000e+04 1.369352229708270183e-02 6.880648316987188727e-03 2.232681913602329801e-02
4.890000000000000000e+04 1.572061786355479288e-02 7.889249650133697833e-03 2.569098974738719468e-02
4.900000000000000000e+04 2.263666949287209199e-02 1.127931200850948099e-02 3.717601083589773536e-02
4.910000000000000000e+04 1.880190628687407328e-02 9.435362054891757028e-03 3.052735328219050373e-02
4.920000000000000000e+04 2.784269178044406282e-02 1.396027518792197775e-02 4.510864096284179087e-02
4.930000000000000000e+04 2.547174252890173352e-02 1.268951291171387975e-02 4.061965861131841549e-02
4.940000000000000000e+04 1.381587873497023937e-02 6.948355465918277726e-03 2.270060786224950555e-02
4.950000000000000000e+04 1.480008880059024805e-02 7.524112887013970422e-03 2.423967623119831910e-02
4.960000000000000000e+04 4.069204591869916149e-02 2.769154496094719531e-02 5.381776998439060516e-02
4.970000000000000000e+04 5.178047854772228203e-02 4.001948040504769988e-02 6.367912215341668680e-02
4.980000000000000000e+04 2.014799992291558747e-02 1.031465567038428871e-02 3.116464962062115082e-02
4.990000000000000000e+04 1.346501900841565354e-02 6.722386494788023387e-03 2.214249369952236979e-02
5.000000000000000000e+04 1.347411929956811652e-02 6.717165798299384698e-03 2.199353708274556785e-02
5.010000000000000000e+04 1.348545546338527669e-02 6.721408160096106407e-03 2.202026718759860988e-02
5.020000000000000000e+04 1.345694076769228704e-02 6.813860276374057029e-03 2.193147573198283781e-02
5.030000000000000000e+04 1.331145587986717026e-02 6.818828631942466974e-03 2.164248336326179967e-02
5.040000000000000000e+04 1.336603308612427550e-02 6.755641602422981888e-03 2.168281487061756579e-02
5.050000000000000000e+04 1.338020872775927753e-02 6.799139606029031696e-03 2.170527348218460190e-02
5.060000000000000000e+04 1.337343753766821047e-02 6.546471145143999137e-03 2.165088537308751740e-02
5.070000000000000000e+04 1.341499798099705758e-02 6.705374385244169955e-03 2.200852193558079997e-02
5.080000000000000000e+04 1.329706065942954166e-02 6.553790166066321594e-03 2.181328546011544398e-02
5.090000000000000000e+04 1.329629711270742011e-02 6.680945068687117391e-03 2.164008213755537133e-02
5.100000000000000000e+04 1.348735430796510655e-02 6.689949838544446276e-03 2.182802810378162151e-02
5.110000000000000000e+04 1.349282454047046054e-02 6.733502774971956116e-03 2.191631648409695862e-02
5.120000000000000000e+04 1.355617876527825429e-02 6.713886850289352455e-03 2.202515169247037594e-02
5.130000000000000000e+04 1.377979262433069035e-02 6.794320595313696302e-03 2.193597836725599826e-02
5.140000000000000000e+04 1.351570772726394531e-02 6.634583476329718177e-03 2.193694794240880555e-02
5.150000000000000000e+04 1.355888011128811646e-02 6.881348076176944766e-03 2.192135878058888016e-02
5.160000000000000000e+04 1.333523672490735147e-02 6.676178339230694377e-03 2.168042834391802065e-02
5.170000000000000000e+04 1.333347432517054641e-02 6.762863133598901941e-03 2.154720029233086337e-02
5.180000000000000000e+04 1.324447959142057048e-02 6.561778821774597904e-03 2.169445923293325529e-02
5.190000000000000000e+04 1.333605112346732818e-02 6.618261342576908964e-03 2.185518453077149245e-02
5.200000000000000000e+04 1.337889040202479979e-02 6.706033045111357491e-03 2.163378154732223738e-02
5.210000000000000000e+04 1.338212695356524699e-02 6.774814298974705766e-03 2.166155296918943068e-02
5.220000000000000000e+04 1.334890524296883374e-02 6.704651688381877382e-03 2.174711933861624494e-02
5.230000000000000000e+04 1.327565885439191233e-02 6.747047824571996560e-03 2.181612106122104988e-02
5.240000000000000000e+04 1.460488493051576887e-02 7.379768875164876424e-03 2.382498626213193707e-02
5.250000000000000000e+04 1.594032106589089726e-02 8.133047633820332176e-03 2.577504949616442331e-02
5.260000000000000000e+04 1.406096782384537967e-02 6.946348855143507847e-03 2.281485798865537373e-02
5.270000000000000000e+04 1.383984805841165060e-02 6.849241379544869328e-03 2.261963330009918866e-02
5.280000000000000000e+04 1.406309286215205387e-02 6.883957866139299615e-03 2.274975848769654821e-02
5.290000000000000000e+04 1.412419368378094522e-02 7.019283455814487142e-03 2.319014467426995171e-02
5.300000000000000000e+04 1.434777313335058001e-02 7.188069603958680866e-03 2.316499939741048508e-02
5.310000000000000000e+04 1.437760542293928766e-02 7.125360851991720951e-03 2.346026676163662575e-02
5.320000000000000000e+04 1.453592721343482594e-02 7.121580451486425253e-03 2.373323571649505956e-02
5.330000000000000000e+04 1.455508501194319355e-02 7.366597079250618123e-03 2.345083741750043221e-02
5.340000000000000000e+04 1.444149830628745773e-02 7.179544980733449690e-03 2.372959586833637766e-02
5.350000000000000000e+04 1.440039005151998869e-02 7.039324346486356548e-03 2.339038003369224919e-02
5.360000000000000000e+04 1.427318811604762552e-02 6.889719160976137680e-03 2.332103921468849442e-02
5.370000000000000000e+04 1.434329390752569176e-02 7.075283426987609252e-03 2.313989395736695820e-02
5.380000000000000000e+04 1.395803100649124946e-02 6.980517183638813676e-03 2.313949154715593676e-02
5.390000000000000000e+04 1.389902591721318276e-02 6.805650325775547925e-03 2.301514081675736997e-02
5.400000000000000000e+04 1.400224894068130034e-02 6.909616185725521269e-03 2.286150345947737111e-02
5.410000000000000000e+04 1.467955621456860406e-02 7.342442737010175351e-03 2.372174772787338098e-02
5.420000000000000000e+04 1.848763497373127201e-02 9.426874536151919753e-03 2.882912956542388327e-02
5.430000000000000000e+04 1.617381154923601058e-02 8.092186887331766568e-03 2.618756439774164169e-02
5.440000000000000000e+04 1.448799877100440635e-02 7.190883564986012312e-03 2.346043825096996716e-02
5.450000000000000000e+04 1.427566142720309433e-02 7.107951383883034241e-03 2.364092490374172101e-02
5.460000000000000000e+04 1.595991075606703266e-02 8.009227075389395087e-03 2.601945400078131340e-02
5.470000000000000000e+04 2.932865672392307582e-02 1.687738634576907773e-02 4.271028197481413491e-02
5.480000000000000000e+04 2.953206964795608222e-02 1.724148233803805830e-02 4.217027374407186086e-02
5.490000000000000000e+04 1.708073441429611844e-02 8.566618436204221851e-03 2.784004664424039391e-02
5.500000000000000000e+04 2.689428639505357654e-02 1.357459634696590867e-02 4.364612509022444686e-02
5.510000000000000000e+04 1.540592238128248581e-01 7.683759700407373494e-02 2.504293380334884356e-01
5.520000000000000000e+04 1.927288734959590188e-01 9.662455709780998214e-02 3.132499366736823387e-01
5.530000000000000000e+04 5.894203575440155191e-02 2.925783402996419078e-02 9.562511317603915317e-02
5.540000000000000000e+04 2.126499748997039835e-02 1.057820512580859296e-02 3.472874158996430705e-02
5.550000000000000000e+04 2.136131414839222420e-01 1.041104385672093902e-01 3.412300546961144487e-01
5.560000000000000000e+04 4.740674163557983545e-01 2.314739610906907663e-01 7.810212155366152986e-01
5.570000000000000000e+04 4.025571497217174666e-01 1.935961585620290248e-01 6.701388716085896480e-01
5.580000000000000000e+04 1.274810220216416878e-01 6.520914724723080036e-02 2.078534710813765285e-01
5.590000000000000000e+04 3.957961689776337000e-01 3.726292626718331613e-01 4.176886710223872701e-01
5.600000000000000000e+04 3.994585615514364973e-01 3.793860526363511121e-01 4.208348191870795452e-01
5.610000000000000000e+04 8.276225962088450128e-02 6.383296854149658750e-02 1.042222042813190364e-01
5.620000000000000000e+04 2.021158706252520684e-02 1.020376861767976172e-02 3.279552247416831628e-02
5.630000000000000000e+04 1.899319428619303599e-02 9.417995975306238735e-03 3.147996155779574784e-02
5.640000000000000000e+04 2.016210711332001859e-02 1.016992236905199867e-02 3.278222902754948653e-02
5.650000000000000000e+04 2.973310508948070682e-02 1.695582266439442723e-02 4.314992044571831775e-02
5.660000000000000000e+04 2.275326238437398729e-02 1.159305499300255712e-02 3.564935926026346902e-02
5.670000000000000000e+04 1.738245759964529222e-02 8.729228273787369846e-03 2.843484914299641841e-02
5.680000000000000000e+04 1.763914725547407678e-02 8.757613786451271323e-03 2.897335108454666616e-02
5.690000000000000000e+04 2.508494441914010595e-02 1.257807121134132435e-02 4.075765016391010021e-02
5.700000000000000000e+04 2.506236871814486455e-02 1.262772851740017431e-02 4.094891027509937192e-02
5.710000000000000000e+04 1.920990148974279638e-02 9.524030125549936068e-03 3.137471508811996018e-02
5.720000000000000000e+04 1.970336116083491393e-02 9.812971398156318872e-03 3.225957635370817200e-02
5.730000000000000000e+04 2.033705638559298381e-02 1.016523697148161154e-02 3.399316246909458994e-02
5.740000000000000000e+04 2.091308192741692454e-02 1.024499445583454925e-02 3.555113200179972621e-02
5.750000000000000000e+04 2.220039547922694756e-02 1.115243759419968020e-02 3.729452933233837891e-02
5.760000000000000000e+04 2.302787411133205495e-02 1.111555743007403528e-02 3.933162694166521950e-02
5.770000000000000000e+04 2.457667593672573786e-02 1.204132211189791815e-02 4.200723921101285480e-02
5.780000000000000000e+04 2.625379880424080770e-02 1.282490104312306901e-02 4.543090753565620643e-02
5.790000000000000000e+04 2.722252630018218156e-02 1.300703605427128845e-02 4.746326278059614934e-02
5.800000000000000000e+04 2.830664328495711285e-02 1.368284253927489619e-02 5.031172701076946918e-02
5.810000000000000000e+04 2.989515432039220252e-02 1.450594482134538211e-02 5.293231873531053372e-02
5.820000000000000000e+04 3.160039645694633775e-02 1.532126470346500610e-02 5.633676059658218604e-02
5.830000000000000000e+04 3.276577978180882783e-02 1.570759670601874769e-02 5.987809314469976635e-02
5.840000000000000000e+04 3.484021175141877036e-02 1.667574439649729262e-02 6.407593687735906041e-02
5.850000000000000000e+04 3.644106352841094965e-02 1.725512531722864576e-02 6.810114173155129569e-02
5.860000000000000000e+04 3.813571648008162035e-02 1.797587040038756481e-02 7.170503919102584611e-02
5.870000000000000000e+04 4.018925156274402027e-02 1.866001915155986179e-02 7.446301922174013155e-02
5.880000000000000000e+04 4.210837466597841527e-02 1.895816128701532932e-02 7.791502343603366743e-02
5.890000000000000000e+04 4.339355154840817547e-02 1.969654021698177479e-02 8.162410542397739721e-02
5.900000000000000000e+04 4.585629174336857544e-02 2.063755000383372604e-02 8.501917476227736914e-02
5.910000000000000000e+04 4.717086212922168287e-02 2.143512813679059048e-02 8.926565087702721668e-02
5.920000000000000000e+04 4.871392988645875666e-02 2.209302620287003846e-02 9.170592460302205706e-02
5.930000000000000000e+04 5.058178150184697991e-02 2.296213165170137710e-02 9.436085731449414538e-02
5.940000000000000000e+04 5.290536629070316521e-02 2.370145999911624918e-02 9.743318999434688599e-02
5.950000000000000000e+04 5.511301166955361736e-02 2.540019810531806907e-02 1.009916214506876436e-01
5.960000000000000000e+04 5.718177839823115893e-02 2.564200882386123703e-02 1.020328090405599047e-01
5.970000000000000000e+04 5.808895820424132828e-02 2.669396249929619630e-02 1.044857329308324506e-01
5.980000000000000000e+04 6.061910656812147247e-02 2.775733022486355159e-02 1.067205528867626874e-01
5.990000000000000000e+04 6.249545483045105404e-02 2.920566078148438896e-02 1.103402725648262306e-01
6.000000000000000000e+04 6.405416619041699733e-02 2.981834559640218416e-02 1.111613013330889493e-01
6.010000000000000000e+04 6.387213354197275594e-02 3.021058998351163968e-02 1.105722832412843193e-01
6.020000000000000000e+04 6.481218375344892368e-02 3.125357394020119445e-02 1.110774183151057165e-01
6.030000000000000000e+04 6.696167570034350369e-02 3.218002288440272723e-02 1.139932372642652181e-01
6.040000000000000000e+04 7.045560595122882241e-02 3.403432864904697153e-02 1.163366301716341478e-01
6.050000000000000000e+04 7.205713804917357468e-02 3.563897716330283183e-02 1.196419991576989916e-01
6.060000000000000000e+04 7.491864221455099559e-02 3.604096962590934428e-02 1.241138132575275027e-01
6.070000000000000000e+04 7.811638747035441754e-02 3.870163049442704867e-02 1.274208140988989935e-01
6.080000000000000000e+04 8.105468488458696108e-02 3.976138392232343027e-02 1.313501914371213164e-01
6.090000000000000000e+04 8.238044629831325905e-02 4.127113187939975003e-02 1.339479298484789471e-01
6.100000000000000000e+04 8.264471408299733923e-02 4.195769291163744391e-02 1.350286931959324421e-01
6.110000000000000000e+04 8.241066562071577839e-02 4.089155680544280524e-02 1.378020163567376388e-01
6.120000000000000000e+04 8.432200147471219376e-02 4.195102611293492767e-02 1.393367135133715129e-01
6.130000000000000000e+04 8.637133605225974509e-02 4.361126244471651148e-02 1.404011818537069523e-01
6.140000000000000000e+04 8.610199463578403767e-02 4.389460565131077935e-02 1.409483839523205939e-01
6.150000000000000000e+04 8.502740346998907683e-02 4.250814356770779567e-02 1.431786783499793547e-01
6.160000000000000000e+04 8.324523778548185982e-02 3.832693043852580805e-02 1.474337007050384452e-01
6.170000000000000000e+04 8.879432061463657377e-02 4.400950603260029431e-02 1.489394091017383903e-01
6.180000000000000000e+04 8.869785499292506814e-02 4.396602119862356300e-02 1.500477822744218093e-01
6.190000000000000000e+04 8.814520812489824719e-02 4.349882582810148807e-02 1.494198309290553361e-01
6.200000000000000000e+04 8.607988980232136877e-02 4.241883433639238171e-02 1.485930909013361001e-01
6.210000000000000000e+04 8.433443121518567620e-02 4.126285528075289422e-02 1.475672815388713033e-01
6.220000000000000000e+04 8.470016031943339296e-02 4.131854195373590305e-02 1.468870586205690276e-01
6.230000000000000000e+04 8.438741031182049601e-02 4.085210353273105444e-02 1.455860983861923252e-01
6.240000000000000000e+04 8.241169000075480866e-02 3.911908072523038321e-02 1.442874734554120131e-01
6.250000000000000000e+04 4.736734390592879651e-02 1.365796604629382523e-02 1.038434031206243724e-01
