# North DC Val: 0.8186077500000001 VoltsSouth DC Val: 0.57141465 Volts
# SR785 Measurement - Timestamp: May 15 2020 - 21:09:44
# Parameter File: /home/controls/Git/cit_ctnlab/ctn_scripts/TransRINSpecLong.yml
#---------- Measurement Setup ------------
# Start Frequency (Hz): 0.000000
# Frequency Span (Hz): 800.000000
# Frequency Resolution: 800
# Number of Averages: 100
# Averaging Mode: RMS
# Window function: Hanning
#---------- Measurement Parameters ----------
# Measurement Group:  "FFT" "FFT"
# Measurements:  "FFT 1" "FFT 2"
# View:  "Log Magnitude" "Log Magnitude"
# Unit:  "Vrms/rtHz" "Vrms/rtHz"
#---------- Input Parameters ----------
# Input Source: Analog
# Input Mode: Single ended, Single ended
# Input Grounding: Float, Float
# Input Coupling: AC, AC
# Input Range: -36.0dBVpk, -36.0dBVpk
# Auto Range: Off, Off
# Auto Range Mode: Tracking, Tracking
# Anti-Aliasing Filter: On, On
#---------- Source Parameters ----------
# Source Type: Sine
# Source Amplitude: 500.0mVpk
# Source On: 0

#---------- Measurement Data ----------
# [Freq(Hz) Display 0(Vrms/rtHz) Display 1(Vrms/rtHz) ]
+0.0000000e+000    +1.5697563e-003    +3.3945296e-004
+1.0000000e+000    +1.0495526e-003    +2.8907115e-004
+2.0000000e+000    +4.7782942e-004    +1.6583211e-004
+3.0000000e+000    +3.4755075e-004    +8.9200141e-005
+4.0000000e+000    +1.8034891e-004    +5.4211781e-005
+5.0000000e+000    +1.1150458e-004    +3.6251397e-005
+6.0000000e+000    +7.8101206e-005    +2.8342047e-005
+7.0000000e+000    +6.0514361e-005    +2.0094369e-005
+8.0000000e+000    +4.6945053e-005    +1.3842282e-005
+9.0000000e+000    +4.0710096e-005    +1.0445839e-005
+1.0000000e+001    +4.0681676e-005    +8.9846808e-006
+1.1000000e+001    +3.6725494e-005    +7.3375891e-006
+1.2000000e+001    +2.8940936e-005    +5.7489083e-006
+1.3000000e+001    +2.4532021e-005    +4.5274110e-006
+1.4000000e+001    +2.3375380e-005    +4.1795088e-006
+1.5000000e+001    +2.1653275e-005    +3.6852448e-006
+1.6000000e+001    +1.8834116e-005    +3.0620379e-006
+1.7000000e+001    +1.7740456e-005    +2.5511242e-006
+1.8000000e+001    +1.4332659e-005    +2.3562945e-006
+1.9000000e+001    +1.1929297e-005    +1.9692854e-006
+2.0000000e+001    +1.3313928e-005    +1.6699335e-006
+2.1000000e+001    +1.1906189e-005    +1.4275116e-006
+2.2000000e+001    +1.0200863e-005    +1.3788872e-006
+2.3000000e+001    +9.3670824e-006    +1.1810869e-006
+2.4000000e+001    +8.6269411e-006    +1.0970056e-006
+2.5000000e+001    +8.0462032e-006    +9.5723601e-007
+2.6000000e+001    +8.3367659e-006    +8.6453929e-007
+2.7000000e+001    +8.4860703e-006    +8.0654235e-007
+2.8000000e+001    +7.4129052e-006    +7.3602462e-007
+2.9000000e+001    +6.9726998e-006    +6.9412442e-007
+3.0000000e+001    +6.8179893e-006    +6.3886762e-007
+3.1000000e+001    +5.9311515e-006    +5.6354475e-007
+3.2000000e+001    +5.4955931e-006    +5.3201694e-007
+3.3000000e+001    +5.7151501e-006    +5.0577466e-007
+3.4000000e+001    +5.5081518e-006    +4.8624094e-007
+3.5000000e+001    +5.3023828e-006    +4.3876062e-007
+3.6000000e+001    +5.1578036e-006    +3.7806888e-007
+3.7000000e+001    +4.4089074e-006    +3.3794666e-007
+3.8000000e+001    +3.6278273e-006    +3.3992046e-007
+3.9000000e+001    +3.4300635e-006    +2.9994607e-007
+4.0000000e+001    +3.1718437e-006    +2.6612813e-007
+4.1000000e+001    +3.1840386e-006    +2.7150378e-007
+4.2000000e+001    +3.1170098e-006    +2.7592989e-007
+4.3000000e+001    +2.8032719e-006    +2.3501737e-007
+4.4000000e+001    +2.4090507e-006    +2.2270510e-007
+4.5000000e+001    +2.3123534e-006    +2.2531093e-007
+4.6000000e+001    +2.3541404e-006    +2.1269014e-007
+4.7000000e+001    +2.6300895e-006    +2.0139825e-007
+4.8000000e+001    +2.5331437e-006    +1.8722019e-007
+4.9000000e+001    +2.3496550e-006    +1.8052324e-007
+5.0000000e+001    +2.2090903e-006    +1.7124533e-007
+5.1000000e+001    +1.8304665e-006    +1.5817425e-007
+5.2000000e+001    +1.7809915e-006    +1.4091965e-007
+5.3000000e+001    +1.7313266e-006    +1.2646662e-007
+5.4000000e+001    +2.0109510e-006    +1.2504900e-007
+5.5000000e+001    +2.1424828e-006    +1.2295602e-007
+5.6000000e+001    +2.0300224e-006    +1.1831258e-007
+5.7000000e+001    +1.8469441e-006    +1.1181598e-007
+5.8000000e+001    +1.6614092e-006    +1.1139665e-007
+5.9000000e+001    +1.6458712e-006    +1.1418187e-007
+6.0000000e+001    +1.6485280e-006    +1.2381396e-007
+6.1000000e+001    +1.5622529e-006    +9.7210645e-008
+6.2000000e+001    +1.3376435e-006    +9.0849596e-008
+6.3000000e+001    +1.2171118e-006    +9.0381583e-008
+6.4000000e+001    +1.0003657e-006    +8.7605351e-008
+6.5000000e+001    +9.0180959e-007    +7.9055404e-008
+6.6000000e+001    +8.8540725e-007    +7.6977535e-008
+6.7000000e+001    +1.0559538e-006    +7.4538271e-008
+6.8000000e+001    +1.1682913e-006    +7.6314151e-008
+6.9000000e+001    +1.1415768e-006    +7.3558915e-008
+7.0000000e+001    +1.1741500e-006    +7.3053457e-008
+7.1000000e+001    +1.1202070e-006    +7.0305248e-008
+7.2000000e+001    +1.0204863e-006    +6.8504278e-008
+7.3000000e+001    +1.0284963e-006    +6.4850809e-008
+7.4000000e+001    +1.0801557e-006    +6.0185769e-008
+7.5000000e+001    +1.0720505e-006    +6.1486560e-008
+7.6000000e+001    +9.5561040e-007    +6.7961430e-008
+7.7000000e+001    +7.8963365e-007    +5.8612869e-008
+7.8000000e+001    +6.5720138e-007    +5.4874352e-008
+7.9000000e+001    +6.0833923e-007    +5.5688339e-008
+8.0000000e+001    +5.5044097e-007    +5.6803859e-008
+8.1000000e+001    +4.8717504e-007    +6.0676030e-008
+8.2000000e+001    +4.9219989e-007    +6.1979868e-008
+8.3000000e+001    +5.7887360e-007    +6.0048016e-008
+8.4000000e+001    +6.5899405e-007    +5.1493782e-008
+8.5000000e+001    +6.7085796e-007    +5.0286541e-008
+8.6000000e+001    +5.5046752e-007    +5.4308767e-008
+8.7000000e+001    +4.9425830e-007    +5.1831741e-008
+8.8000000e+001    +4.7682292e-007    +4.9391058e-008
+8.9000000e+001    +4.6717886e-007    +4.7272255e-008
+9.0000000e+001    +4.4663858e-007    +4.5791335e-008
+9.1000000e+001    +4.4135183e-007    +4.4770250e-008
+9.2000000e+001    +4.2322813e-007    +4.8599858e-008
+9.3000000e+001    +3.5792419e-007    +4.5337885e-008
+9.4000000e+001    +3.4581220e-007    +4.4735756e-008
+9.5000000e+001    +3.3673845e-007    +4.6425299e-008
+9.6000000e+001    +3.4527270e-007    +4.3542624e-008
+9.7000000e+001    +3.4952251e-007    +4.2432994e-008
+9.8000000e+001    +3.9047202e-007    +4.2992841e-008
+9.9000000e+001    +3.5149793e-007    +4.1086661e-008
+1.0000000e+002    +3.2900419e-007    +4.2131980e-008
+1.0100000e+002    +3.0058794e-007    +4.1023196e-008
+1.0200000e+002    +2.5942708e-007    +4.4302389e-008
+1.0300000e+002    +2.3955698e-007    +4.3340151e-008
+1.0400000e+002    +2.3976591e-007    +4.2732687e-008
+1.0500000e+002    +2.5963709e-007    +4.3276859e-008
+1.0600000e+002    +2.6561582e-007    +4.3582084e-008
+1.0700000e+002    +2.6545430e-007    +4.5463452e-008
+1.0800000e+002    +2.5265717e-007    +4.0356515e-008
+1.0900000e+002    +2.5307725e-007    +3.6919069e-008
+1.1000000e+002    +2.4863439e-007    +4.0712330e-008
+1.1100000e+002    +2.4175245e-007    +3.9635161e-008
+1.1200000e+002    +2.3459869e-007    +3.8824989e-008
+1.1300000e+002    +2.2522782e-007    +3.7697209e-008
+1.1400000e+002    +2.1154847e-007    +4.0842256e-008
+1.1500000e+002    +2.0263838e-007    +4.2745590e-008
+1.1600000e+002    +2.0989953e-007    +3.9287336e-008
+1.1700000e+002    +2.0270846e-007    +3.9843112e-008
+1.1800000e+002    +1.9504375e-007    +3.9531812e-008
+1.1900000e+002    +6.5743666e-007    +3.8419508e-008
+1.2000000e+002    +1.2420910e-006    +3.9640646e-008
+1.2100000e+002    +6.4252907e-007    +4.0710898e-008
+1.2200000e+002    +1.9816834e-007    +4.0883847e-008
+1.2300000e+002    +2.0438976e-007    +4.1313839e-008
+1.2400000e+002    +2.0064650e-007    +4.0123808e-008
+1.2500000e+002    +1.7831556e-007    +4.1515595e-008
+1.2600000e+002    +1.7315946e-007    +4.1003290e-008
+1.2700000e+002    +1.7008637e-007    +3.7471978e-008
+1.2800000e+002    +1.7142837e-007    +3.6390055e-008
+1.2900000e+002    +1.7916119e-007    +3.9065469e-008
+1.3000000e+002    +1.8283615e-007    +3.8915680e-008
+1.3100000e+002    +1.8327088e-007    +3.9716625e-008
+1.3200000e+002    +1.6898755e-007    +4.0320018e-008
+1.3300000e+002    +1.6600399e-007    +4.1108684e-008
+1.3400000e+002    +1.6533534e-007    +3.9892136e-008
+1.3500000e+002    +1.8796725e-007    +3.8630539e-008
+1.3600000e+002    +2.1285764e-007    +3.8310073e-008
+1.3700000e+002    +2.3647669e-007    +3.6709849e-008
+1.3800000e+002    +2.6722145e-007    +3.5713711e-008
+1.3900000e+002    +3.5149483e-007    +3.4702627e-008
+1.4000000e+002    +4.2778362e-007    +3.4897493e-008
+1.4100000e+002    +5.6128221e-007    +3.6101532e-008
+1.4200000e+002    +7.7665692e-007    +3.7493997e-008
+1.4300000e+002    +1.2211502e-006    +3.7652743e-008
+1.4400000e+002    +1.5679099e-006    +3.7921254e-008
+1.4500000e+002    +1.5487880e-006    +3.6709608e-008
+1.4600000e+002    +1.1820832e-006    +3.4665344e-008
+1.4700000e+002    +7.0163588e-007    +3.4361548e-008
+1.4800000e+002    +5.4761739e-007    +3.6019497e-008
+1.4900000e+002    +4.1308306e-007    +3.8363954e-008
+1.5000000e+002    +2.8778163e-007    +3.7192802e-008
+1.5100000e+002    +2.4115860e-007    +3.3614079e-008
+1.5200000e+002    +2.1224923e-007    +3.3808732e-008
+1.5300000e+002    +1.7451863e-007    +3.4017024e-008
+1.5400000e+002    +1.6749979e-007    +3.4219234e-008
+1.5500000e+002    +1.8184096e-007    +3.4497635e-008
+1.5600000e+002    +2.0510622e-007    +3.4024083e-008
+1.5700000e+002    +1.9396550e-007    +3.2917978e-008
+1.5800000e+002    +1.8340675e-007    +3.2121999e-008
+1.5900000e+002    +1.6266681e-007    +3.3088323e-008
+1.6000000e+002    +1.3714150e-007    +3.4686249e-008
+1.6100000e+002    +1.3690364e-007    +3.4478248e-008
+1.6200000e+002    +1.2605724e-007    +3.2862115e-008
+1.6300000e+002    +1.1899746e-007    +3.3569194e-008
+1.6400000e+002    +1.1726311e-007    +3.3308229e-008
+1.6500000e+002    +1.1307129e-007    +3.4066549e-008
+1.6600000e+002    +1.1114034e-007    +3.4382833e-008
+1.6700000e+002    +1.0755675e-007    +3.5003751e-008
+1.6800000e+002    +1.0423875e-007    +3.4701714e-008
+1.6900000e+002    +8.8456581e-008    +3.3909853e-008
+1.7000000e+002    +8.6045404e-008    +3.6876084e-008
+1.7100000e+002    +7.9667359e-008    +3.6385181e-008
+1.7200000e+002    +8.3320259e-008    +3.3989846e-008
+1.7300000e+002    +8.2375792e-008    +3.4132668e-008
+1.7400000e+002    +7.8496754e-008    +3.6718518e-008
+1.7500000e+002    +7.7244820e-008    +3.6566320e-008
+1.7600000e+002    +7.0612835e-008    +3.2811531e-008
+1.7700000e+002    +7.7595971e-008    +3.2099013e-008
+1.7800000e+002    +8.4122924e-008    +3.5575912e-008
+1.7900000e+002    +2.6245192e-007    +5.3868181e-008
+1.8000000e+002    +5.0692495e-007    +9.8267456e-008
+1.8100000e+002    +2.6001936e-007    +6.0936536e-008
+1.8200000e+002    +7.8397697e-008    +3.6447116e-008
+1.8300000e+002    +7.8831604e-008    +3.5117196e-008
+1.8400000e+002    +7.8886764e-008    +3.4935063e-008
+1.8500000e+002    +7.8518816e-008    +3.5090025e-008
+1.8600000e+002    +7.6112734e-008    +3.3332373e-008
+1.8700000e+002    +7.7831899e-008    +3.5959630e-008
+1.8800000e+002    +7.4807190e-008    +3.5394624e-008
+1.8900000e+002    +8.2498346e-008    +3.3974100e-008
+1.9000000e+002    +7.7755878e-008    +3.4653588e-008
+1.9100000e+002    +7.0691335e-008    +3.5179134e-008
+1.9200000e+002    +7.0417727e-008    +3.6556045e-008
+1.9300000e+002    +7.9935205e-008    +3.4140424e-008
+1.9400000e+002    +8.0172349e-008    +3.2363008e-008
+1.9500000e+002    +7.7278834e-008    +3.2187454e-008
+1.9600000e+002    +7.0546420e-008    +3.2385756e-008
+1.9700000e+002    +6.9858643e-008    +3.3147959e-008
+1.9800000e+002    +7.1300434e-008    +3.3538171e-008
+1.9900000e+002    +7.4683513e-008    +3.3402237e-008
+2.0000000e+002    +7.6755654e-008    +3.2386041e-008
+2.0100000e+002    +7.4569044e-008    +3.2875612e-008
+2.0200000e+002    +7.2052622e-008    +3.4672844e-008
+2.0300000e+002    +7.2894736e-008    +3.4626659e-008
+2.0400000e+002    +7.5284682e-008    +3.5284973e-008
+2.0500000e+002    +7.9183536e-008    +3.6376154e-008
+2.0600000e+002    +7.0737379e-008    +3.4083197e-008
+2.0700000e+002    +6.9046379e-008    +3.3995928e-008
+2.0800000e+002    +6.8290547e-008    +3.5490551e-008
+2.0900000e+002    +6.6864089e-008    +3.7355150e-008
+2.1000000e+002    +7.1277661e-008    +3.6460563e-008
+2.1100000e+002    +7.2440116e-008    +3.2707653e-008
+2.1200000e+002    +7.9474979e-008    +3.5131542e-008
+2.1300000e+002    +8.5598757e-008    +3.6639946e-008
+2.1400000e+002    +9.3803180e-008    +3.9747423e-008
+2.1500000e+002    +9.5716032e-008    +3.9194447e-008
+2.1600000e+002    +1.0598659e-007    +3.6592990e-008
+2.1700000e+002    +1.5565446e-007    +3.3303110e-008
+2.1800000e+002    +1.3855039e-007    +3.4379362e-008
+2.1900000e+002    +1.0881680e-007    +3.6000952e-008
+2.2000000e+002    +1.1151327e-007    +3.5766412e-008
+2.2100000e+002    +1.1636787e-007    +3.7720977e-008
+2.2200000e+002    +1.1211520e-007    +3.4614953e-008
+2.2300000e+002    +1.0188070e-007    +3.4717949e-008
+2.2400000e+002    +9.0796746e-008    +3.5877324e-008
+2.2500000e+002    +8.4859309e-008    +3.8108368e-008
+2.2600000e+002    +8.1252594e-008    +3.9188421e-008
+2.2700000e+002    +7.3480614e-008    +3.6099749e-008
+2.2800000e+002    +7.6104214e-008    +3.7207055e-008
+2.2900000e+002    +7.9160763e-008    +3.8981749e-008
+2.3000000e+002    +7.9231718e-008    +3.9168892e-008
+2.3100000e+002    +7.7896956e-008    +3.6724806e-008
+2.3200000e+002    +8.0692764e-008    +3.7153089e-008
+2.3300000e+002    +8.6373376e-008    +4.1914568e-008
+2.3400000e+002    +7.8924018e-008    +3.9341163e-008
+2.3500000e+002    +8.0041033e-008    +3.7352322e-008
+2.3600000e+002    +8.4578765e-008    +3.8228812e-008
+2.3700000e+002    +8.6608317e-008    +3.7270265e-008
+2.3800000e+002    +8.3850431e-008    +3.9072464e-008
+2.3900000e+002    +1.7939267e-007    +4.0951058e-008
+2.4000000e+002    +3.2458590e-007    +3.8429295e-008
+2.4100000e+002    +1.7964318e-007    +3.9487304e-008
+2.4200000e+002    +9.1037819e-008    +4.1797104e-008
+2.4300000e+002    +9.6134585e-008    +4.0535923e-008
+2.4400000e+002    +1.0029468e-007    +3.8134360e-008
+2.4500000e+002    +9.1243656e-008    +3.5691720e-008
+2.4600000e+002    +9.8529448e-008    +3.8275850e-008
+2.4700000e+002    +1.0503572e-007    +4.0962252e-008
+2.4800000e+002    +9.9822067e-008    +4.1977479e-008
+2.4900000e+002    +1.0654289e-007    +4.5146837e-008
+2.5000000e+002    +1.2162715e-007    +4.2266436e-008
+2.5100000e+002    +1.3134887e-007    +3.8283289e-008
+2.5200000e+002    +1.4968245e-007    +4.0302581e-008
+2.5300000e+002    +1.7653524e-007    +4.2903810e-008
+2.5400000e+002    +1.9080304e-007    +4.2480540e-008
+2.5500000e+002    +2.1658626e-007    +4.0306432e-008
+2.5600000e+002    +2.2367036e-007    +4.0761261e-008
+2.5700000e+002    +2.7610659e-007    +3.8576623e-008
+2.5800000e+002    +3.2890017e-007    +3.9367695e-008
+2.5900000e+002    +3.2141224e-007    +4.2288949e-008
+2.6000000e+002    +3.4380719e-007    +4.1249251e-008
+2.6100000e+002    +4.3245700e-007    +4.2564391e-008
+2.6200000e+002    +5.0895216e-007    +4.5057305e-008
+2.6300000e+002    +5.8387673e-007    +4.3816417e-008
+2.6400000e+002    +6.4832869e-007    +4.1536886e-008
+2.6500000e+002    +7.4309634e-007    +4.2974953e-008
+2.6600000e+002    +8.5239651e-007    +4.5968349e-008
+2.6700000e+002    +9.1559076e-007    +4.3027079e-008
+2.6800000e+002    +1.0045019e-006    +4.2347168e-008
+2.6900000e+002    +1.1398485e-006    +4.4343754e-008
+2.7000000e+002    +1.6988088e-006    +4.3635708e-008
+2.7100000e+002    +2.3546522e-006    +4.6022535e-008
+2.7200000e+002    +3.8008875e-006    +4.9383900e-008
+2.7300000e+002    +4.8258703e-006    +4.4890058e-008
+2.7400000e+002    +4.2759343e-006    +4.2848733e-008
+2.7500000e+002    +3.5353532e-006    +4.2696058e-008
+2.7600000e+002    +2.9752575e-006    +4.5753541e-008
+2.7700000e+002    +2.7486644e-006    +4.4913474e-008
+2.7800000e+002    +2.0683988e-006    +4.4279048e-008
+2.7900000e+002    +1.7126113e-006    +4.7977270e-008
+2.8000000e+002    +1.5368086e-006    +4.7786745e-008
+2.8100000e+002    +1.4363867e-006    +4.5079471e-008
+2.8200000e+002    +1.4932888e-006    +4.7753179e-008
+2.8300000e+002    +1.0733650e-006    +4.3403865e-008
+2.8400000e+002    +9.0884015e-007    +4.6358473e-008
+2.8500000e+002    +8.4655971e-007    +4.5368708e-008
+2.8600000e+002    +6.4582144e-007    +5.0326477e-008
+2.8700000e+002    +5.4621404e-007    +5.0869239e-008
+2.8800000e+002    +4.8988591e-007    +5.0364012e-008
+2.8900000e+002    +4.4707377e-007    +5.0653991e-008
+2.9000000e+002    +4.4117547e-007    +5.3005028e-008
+2.9100000e+002    +3.8306499e-007    +5.2619484e-008
+2.9200000e+002    +3.2211884e-007    +5.2719180e-008
+2.9300000e+002    +2.6997856e-007    +5.1464902e-008
+2.9400000e+002    +2.0804815e-007    +5.4638079e-008
+2.9500000e+002    +2.2328683e-007    +5.3166012e-008
+2.9600000e+002    +2.4152931e-007    +5.1201749e-008
+2.9700000e+002    +2.2523622e-007    +5.1385964e-008
+2.9800000e+002    +2.0080650e-007    +5.0154757e-008
+2.9900000e+002    +2.2385117e-007    +5.4213210e-008
+3.0000000e+002    +2.4184590e-007    +5.3900777e-008
+3.0100000e+002    +1.6952798e-007    +4.7347626e-008
+3.0200000e+002    +1.4432096e-007    +5.5309869e-008
+3.0300000e+002    +1.4842641e-007    +5.5693778e-008
+3.0400000e+002    +1.4172745e-007    +5.2559201e-008
+3.0500000e+002    +1.3311852e-007    +5.2965586e-008
+3.0600000e+002    +1.1745072e-007    +5.5389176e-008
+3.0700000e+002    +1.1882890e-007    +5.4176436e-008
+3.0800000e+002    +1.1442874e-007    +5.4786216e-008
+3.0900000e+002    +1.2239140e-007    +5.3578383e-008
+3.1000000e+002    +1.1930187e-007    +5.1759518e-008
+3.1100000e+002    +1.1938823e-007    +5.4558591e-008
+3.1200000e+002    +1.1676514e-007    +5.5550629e-008
+3.1300000e+002    +9.8943133e-008    +5.5419772e-008
+3.1400000e+002    +1.0488533e-007    +5.5616539e-008
+3.1500000e+002    +1.0963192e-007    +5.3131817e-008
+3.1600000e+002    +9.9236445e-008    +5.0208367e-008
+3.1700000e+002    +1.0179550e-007    +5.5653498e-008
+3.1800000e+002    +9.9082499e-008    +5.3886815e-008
+3.1900000e+002    +9.9751510e-008    +5.0269044e-008
+3.2000000e+002    +1.0301373e-007    +5.5666391e-008
+3.2100000e+002    +1.0480130e-007    +5.3444953e-008
+3.2200000e+002    +9.1111012e-008    +6.0717817e-008
+3.2300000e+002    +8.8158430e-008    +5.6617623e-008
+3.2400000e+002    +9.0341700e-008    +5.2738748e-008
+3.2500000e+002    +9.4166722e-008    +5.0387960e-008
+3.2600000e+002    +9.1555357e-008    +5.4461275e-008
+3.2700000e+002    +9.1926033e-008    +5.4321649e-008
+3.2800000e+002    +9.0232561e-008    +5.6496532e-008
+3.2900000e+002    +9.1743026e-008    +5.7954324e-008
+3.3000000e+002    +1.0162866e-007    +5.7806190e-008
+3.3100000e+002    +1.0590283e-007    +5.6963810e-008
+3.3200000e+002    +9.5476722e-008    +5.3684435e-008
+3.3300000e+002    +9.4447536e-008    +5.7556282e-008
+3.3400000e+002    +9.6763394e-008    +5.8306124e-008
+3.3500000e+002    +1.0207721e-007    +6.3848120e-008
+3.3600000e+002    +9.2162409e-008    +6.4164226e-008
+3.3700000e+002    +8.8534016e-008    +6.4296032e-008
+3.3800000e+002    +9.3142454e-008    +6.1328386e-008
+3.3900000e+002    +1.0547337e-007    +5.6328432e-008
+3.4000000e+002    +1.0037896e-007    +6.0837998e-008
+3.4100000e+002    +1.0531830e-007    +6.2880538e-008
+3.4200000e+002    +1.3607806e-007    +6.0041948e-008
+3.4300000e+002    +1.3651443e-007    +6.0616102e-008
+3.4400000e+002    +1.3748041e-007    +6.2658074e-008
+3.4500000e+002    +1.5185660e-007    +6.3568464e-008
+3.4600000e+002    +1.7260975e-007    +6.2850724e-008
+3.4700000e+002    +1.8066979e-007    +5.8341278e-008
+3.4800000e+002    +1.8518418e-007    +6.4734635e-008
+3.4900000e+002    +2.3322646e-007    +6.3321451e-008
+3.5000000e+002    +2.2137158e-007    +6.3971200e-008
+3.5100000e+002    +1.9891277e-007    +6.2238797e-008
+3.5200000e+002    +2.2441742e-007    +6.2294376e-008
+3.5300000e+002    +2.3775759e-007    +6.1909269e-008
+3.5400000e+002    +2.0718922e-007    +5.8662636e-008
+3.5500000e+002    +1.8608465e-007    +6.2717334e-008
+3.5600000e+002    +1.7952232e-007    +6.6689296e-008
+3.5700000e+002    +1.6289736e-007    +6.2747986e-008
+3.5800000e+002    +1.4412856e-007    +6.2813605e-008
+3.5900000e+002    +1.3855815e-007    +6.6184668e-008
+3.6000000e+002    +1.5002287e-007    +6.6354637e-008
+3.6100000e+002    +1.1544917e-007    +6.8019730e-008
+3.6200000e+002    +1.0381581e-007    +5.7852603e-008
+3.6300000e+002    +9.2776958e-008    +5.9959078e-008
+3.6400000e+002    +8.8933369e-008    +6.8867244e-008
+3.6500000e+002    +8.5189129e-008    +6.7376192e-008
+3.6600000e+002    +9.0831243e-008    +6.9077920e-008
+3.6700000e+002    +8.7076963e-008    +6.6774291e-008
+3.6800000e+002    +7.6957079e-008    +6.7260892e-008
+3.6900000e+002    +7.9363538e-008    +6.6495687e-008
+3.7000000e+002    +8.3014541e-008    +7.4241214e-008
+3.7100000e+002    +8.0491724e-008    +7.4374277e-008
+3.7200000e+002    +8.9933955e-008    +6.8911412e-008
+3.7300000e+002    +8.5295540e-008    +6.8467578e-008
+3.7400000e+002    +8.1677101e-008    +7.0903077e-008
+3.7500000e+002    +8.5116667e-008    +6.7755643e-008
+3.7600000e+002    +8.0841303e-008    +7.4066570e-008
+3.7700000e+002    +8.5591708e-008    +7.4705248e-008
+3.7800000e+002    +8.7720757e-008    +6.7478503e-008
+3.7900000e+002    +8.6695373e-008    +6.1559177e-008
+3.8000000e+002    +9.3635556e-008    +6.8562215e-008
+3.8100000e+002    +8.9610367e-008    +6.8764486e-008
+3.8200000e+002    +9.3089902e-008    +7.0341692e-008
+3.8300000e+002    +9.5322640e-008    +6.6082649e-008
+3.8400000e+002    +9.0690435e-008    +6.9231376e-008
+3.8500000e+002    +8.3817575e-008    +7.2748975e-008
+3.8600000e+002    +8.2840636e-008    +6.9447815e-008
+3.8700000e+002    +9.7375150e-008    +6.5365505e-008
+3.8800000e+002    +1.1552765e-007    +7.7952400e-008
+3.8900000e+002    +1.0945211e-007    +7.9021824e-008
+3.9000000e+002    +1.0070462e-007    +7.0019674e-008
+3.9100000e+002    +9.9702675e-008    +7.0429479e-008
+3.9200000e+002    +9.3621267e-008    +7.0457943e-008
+3.9300000e+002    +9.6057455e-008    +7.2434389e-008
+3.9400000e+002    +9.0785782e-008    +6.9967648e-008
+3.9500000e+002    +8.0629796e-008    +7.1208433e-008
+3.9600000e+002    +8.1569645e-008    +7.8859827e-008
+3.9700000e+002    +7.3851623e-008    +7.6900740e-008
+3.9800000e+002    +6.8369026e-008    +7.4108215e-008
+3.9900000e+002    +7.1815208e-008    +7.5058203e-008
+4.0000000e+002    +7.3826250e-008    +7.3731634e-008
+4.0100000e+002    +6.9322269e-008    +7.2179631e-008
+4.0200000e+002    +7.3279679e-008    +7.4660555e-008
+4.0300000e+002    +8.3875200e-008    +7.3946957e-008
+4.0400000e+002    +8.4500243e-008    +7.9729745e-008
+4.0500000e+002    +8.9074383e-008    +7.9104986e-008
+4.0600000e+002    +9.1386632e-008    +6.9859489e-008
+4.0700000e+002    +8.5420467e-008    +7.7489972e-008
+4.0800000e+002    +7.8948972e-008    +8.3013717e-008
+4.0900000e+002    +8.2290008e-008    +7.9234241e-008
+4.1000000e+002    +7.9239548e-008    +7.8247382e-008
+4.1100000e+002    +7.8483652e-008    +8.4121908e-008
+4.1200000e+002    +8.3441655e-008    +7.9801211e-008
+4.1300000e+002    +7.8562969e-008    +7.3873927e-008
+4.1400000e+002    +7.4919143e-008    +8.1538040e-008
+4.1500000e+002    +7.9289329e-008    +8.1636308e-008
+4.1600000e+002    +6.6945113e-008    +7.8044891e-008
+4.1700000e+002    +6.4568674e-008    +7.8058605e-008
+4.1800000e+002    +6.9182285e-008    +9.1418741e-008
+4.1900000e+002    +7.9338534e-008    +8.8992849e-008
+4.2000000e+002    +1.0860398e-007    +8.5477978e-008
+4.2100000e+002    +8.5847425e-008    +7.8386080e-008
+4.2200000e+002    +7.2509266e-008    +8.3906613e-008
+4.2300000e+002    +7.3999431e-008    +8.2056602e-008
+4.2400000e+002    +6.9701350e-008    +7.7161495e-008
+4.2500000e+002    +6.5498199e-008    +7.8741387e-008
+4.2600000e+002    +6.8842297e-008    +8.6302094e-008
+4.2700000e+002    +7.1362464e-008    +9.0128992e-008
+4.2800000e+002    +6.9004315e-008    +8.4588706e-008
+4.2900000e+002    +7.2701866e-008    +8.2627253e-008
+4.3000000e+002    +7.0944736e-008    +8.9592262e-008
+4.3100000e+002    +6.7137968e-008    +8.1829064e-008
+4.3200000e+002    +6.1439593e-008    +7.7216754e-008
+4.3300000e+002    +6.3291004e-008    +8.3404835e-008
+4.3400000e+002    +7.7777486e-008    +8.5306688e-008
+4.3500000e+002    +7.7960962e-008    +8.4907960e-008
+4.3600000e+002    +7.0019595e-008    +8.5198948e-008
+4.3700000e+002    +8.7008438e-008    +8.1287126e-008
+4.3800000e+002    +8.9811891e-008    +8.8427157e-008
+4.3900000e+002    +9.7698027e-008    +9.0477499e-008
+4.4000000e+002    +1.1175351e-007    +9.3505591e-008
+4.4100000e+002    +1.2750688e-007    +9.5604385e-008
+4.4200000e+002    +1.4384858e-007    +9.2582397e-008
+4.4300000e+002    +1.5840749e-007    +8.8515165e-008
+4.4400000e+002    +1.6335875e-007    +8.9076728e-008
+4.4500000e+002    +1.5768751e-007    +9.5820447e-008
+4.4600000e+002    +1.3957981e-007    +8.7054303e-008
+4.4700000e+002    +1.2566231e-007    +8.8166566e-008
+4.4800000e+002    +1.1502935e-007    +9.2246339e-008
+4.4900000e+002    +1.0493245e-007    +9.1244964e-008
+4.5000000e+002    +9.1331863e-008    +8.4480206e-008
+4.5100000e+002    +7.6768885e-008    +8.7732310e-008
+4.5200000e+002    +7.4045104e-008    +9.6253082e-008
+4.5300000e+002    +7.4897265e-008    +9.5712252e-008
+4.5400000e+002    +7.1037420e-008    +8.2921261e-008
+4.5500000e+002    +7.2133439e-008    +8.6747647e-008
+4.5600000e+002    +7.1897730e-008    +8.9463491e-008
+4.5700000e+002    +6.6509344e-008    +8.4713896e-008
+4.5800000e+002    +6.2745023e-008    +8.4635246e-008
+4.5900000e+002    +5.8604567e-008    +9.4078466e-008
+4.6000000e+002    +6.2864387e-008    +9.6162132e-008
+4.6100000e+002    +6.4394584e-008    +9.5879379e-008
+4.6200000e+002    +6.1620312e-008    +9.1963784e-008
+4.6300000e+002    +5.9982249e-008    +9.2228007e-008
+4.6400000e+002    +5.6717671e-008    +9.8535395e-008
+4.6500000e+002    +5.3910309e-008    +1.0107326e-007
+4.6600000e+002    +6.1179620e-008    +1.0106528e-007
+4.6700000e+002    +6.4054554e-008    +9.5410492e-008
+4.6800000e+002    +5.8883717e-008    +9.6504088e-008
+4.6900000e+002    +6.0691889e-008    +9.7771000e-008
+4.7000000e+002    +6.2977342e-008    +9.9513471e-008
+4.7100000e+002    +7.4479857e-008    +1.0491574e-007
+4.7200000e+002    +8.3430109e-008    +1.0717140e-007
+4.7300000e+002    +7.6119591e-008    +1.0427401e-007
+4.7400000e+002    +7.6443882e-008    +1.0318659e-007
+4.7500000e+002    +8.4492818e-008    +1.0505602e-007
+4.7600000e+002    +9.3347623e-008    +1.0183876e-007
+4.7700000e+002    +9.7814912e-008    +1.0070196e-007
+4.7800000e+002    +1.0263259e-007    +1.0082266e-007
+4.7900000e+002    +1.5830872e-007    +1.0482547e-007
+4.8000000e+002    +2.4991473e-007    +1.0477990e-007
+4.8100000e+002    +1.5083764e-007    +1.0948324e-007
+4.8200000e+002    +1.1375967e-007    +1.0331934e-007
+4.8300000e+002    +1.1964727e-007    +9.5438260e-008
+4.8400000e+002    +1.2959077e-007    +9.5954576e-008
+4.8500000e+002    +1.3687644e-007    +9.1572545e-008
+4.8600000e+002    +1.5297128e-007    +1.0390396e-007
+4.8700000e+002    +1.5992472e-007    +1.0107970e-007
+4.8800000e+002    +1.7700299e-007    +1.0145518e-007
+4.8900000e+002    +1.8383093e-007    +1.0749984e-007
+4.9000000e+002    +1.8385072e-007    +1.0396386e-007
+4.9100000e+002    +1.9827911e-007    +1.1243127e-007
+4.9200000e+002    +2.0741318e-007    +1.0550082e-007
+4.9300000e+002    +1.9319185e-007    +1.0311274e-007
+4.9400000e+002    +2.0012440e-007    +1.0864907e-007
+4.9500000e+002    +1.9874882e-007    +1.0670234e-007
+4.9600000e+002    +1.9364950e-007    +9.8667471e-008
+4.9700000e+002    +1.7950556e-007    +9.9530517e-008
+4.9800000e+002    +1.8342428e-007    +1.0229599e-007
+4.9900000e+002    +1.8131902e-007    +1.0835588e-007
+5.0000000e+002    +1.6520522e-007    +1.1153176e-007
+5.0100000e+002    +1.3575557e-007    +1.1206277e-007
+5.0200000e+002    +1.3963729e-007    +1.0511314e-007
+5.0300000e+002    +1.4829560e-007    +1.1257950e-007
+5.0400000e+002    +1.7257905e-007    +1.2065328e-007
+5.0500000e+002    +2.2038552e-007    +1.1402201e-007
+5.0600000e+002    +2.5807844e-007    +1.1358319e-007
+5.0700000e+002    +2.8634784e-007    +1.1359566e-007
+5.0800000e+002    +3.5962356e-007    +1.1466921e-007
+5.0900000e+002    +3.8237667e-007    +1.1025625e-007
+5.1000000e+002    +4.3608600e-007    +1.0909817e-007
+5.1100000e+002    +4.3248218e-007    +1.1422664e-007
+5.1200000e+002    +3.7375091e-007    +1.1703364e-007
+5.1300000e+002    +3.1302756e-007    +1.1410956e-007
+5.1400000e+002    +2.4240390e-007    +1.1470661e-007
+5.1500000e+002    +2.2087703e-007    +1.1603258e-007
+5.1600000e+002    +2.1300680e-007    +1.1758905e-007
+5.1700000e+002    +1.8294499e-007    +1.1499058e-007
+5.1800000e+002    +1.6315458e-007    +1.1818275e-007
+5.1900000e+002    +1.5564865e-007    +1.0673901e-007
+5.2000000e+002    +1.4987980e-007    +1.0644643e-007
+5.2100000e+002    +1.4549833e-007    +1.0623043e-007
+5.2200000e+002    +1.3877282e-007    +1.0849529e-007
+5.2300000e+002    +1.3486226e-007    +1.1374543e-007
+5.2400000e+002    +1.2200607e-007    +1.1795317e-007
+5.2500000e+002    +1.2288692e-007    +1.2347986e-007
+5.2600000e+002    +1.4755774e-007    +1.1731359e-007
+5.2700000e+002    +2.2308296e-007    +1.1678411e-007
+5.2800000e+002    +3.8275221e-007    +1.1176713e-007
+5.2900000e+002    +5.2650518e-007    +1.1400637e-007
+5.3000000e+002    +6.2857072e-007    +1.1777278e-007
+5.3100000e+002    +7.5072541e-007    +1.1353905e-007
+5.3200000e+002    +8.0013882e-007    +1.1380902e-007
+5.3300000e+002    +8.7167069e-007    +1.1355975e-007
+5.3400000e+002    +9.1956821e-007    +1.1997021e-007
+5.3500000e+002    +9.2936921e-007    +1.2258816e-007
+5.3600000e+002    +8.7039967e-007    +1.2246763e-007
+5.3700000e+002    +7.9446448e-007    +1.1843190e-007
+5.3800000e+002    +7.1374063e-007    +1.1638653e-007
+5.3900000e+002    +7.0372897e-007    +1.1066400e-007
+5.4000000e+002    +7.1200225e-007    +1.1800473e-007
+5.4100000e+002    +7.7996663e-007    +1.2314449e-007
+5.4200000e+002    +8.3778195e-007    +1.3727738e-007
+5.4300000e+002    +9.5032863e-007    +1.2516151e-007
+5.4400000e+002    +1.5130572e-006    +1.2214653e-007
+5.4500000e+002    +2.2788267e-006    +1.1913787e-007
+5.4600000e+002    +2.8229622e-006    +1.2222314e-007
+5.4700000e+002    +3.1713771e-006    +1.1945930e-007
+5.4800000e+002    +3.0409171e-006    +1.2015622e-007
+5.4900000e+002    +2.6170433e-006    +1.2021468e-007
+5.5000000e+002    +2.2431027e-006    +1.3215954e-007
+5.5100000e+002    +1.7035793e-006    +1.2757437e-007
+5.5200000e+002    +1.3953369e-006    +1.2348461e-007
+5.5300000e+002    +1.2987980e-006    +1.2959163e-007
+5.5400000e+002    +1.0001219e-006    +1.2494991e-007
+5.5500000e+002    +7.3526456e-007    +1.1558653e-007
+5.5600000e+002    +6.0597336e-007    +1.2192639e-007
+5.5700000e+002    +5.1354209e-007    +1.2571115e-007
+5.5800000e+002    +5.2514093e-007    +1.2465790e-007
+5.5900000e+002    +5.3538923e-007    +1.2219898e-007
+5.6000000e+002    +5.1489712e-007    +1.2365881e-007
+5.6100000e+002    +4.5283755e-007    +1.2974654e-007
+5.6200000e+002    +3.9770646e-007    +1.3114669e-007
+5.6300000e+002    +3.9929779e-007    +1.2944558e-007
+5.6400000e+002    +3.5107828e-007    +1.2282217e-007
+5.6500000e+002    +3.3076918e-007    +1.2380009e-007
+5.6600000e+002    +3.5317646e-007    +1.2283836e-007
+5.6700000e+002    +3.6492082e-007    +1.1562258e-007
+5.6800000e+002    +3.5209933e-007    +1.3655460e-007
+5.6900000e+002    +3.7662127e-007    +1.4556416e-007
+5.7000000e+002    +4.0322365e-007    +1.3086131e-007
+5.7100000e+002    +4.8739867e-007    +1.4706976e-007
+5.7200000e+002    +5.1343329e-007    +1.4174768e-007
+5.7300000e+002    +5.5262154e-007    +1.2954540e-007
+5.7400000e+002    +6.4567541e-007    +1.3580105e-007
+5.7500000e+002    +7.5276330e-007    +1.3449819e-007
+5.7600000e+002    +8.2139258e-007    +1.2134598e-007
+5.7700000e+002    +8.2994490e-007    +1.3732985e-007
+5.7800000e+002    +7.6409145e-007    +1.4401974e-007
+5.7900000e+002    +6.7302625e-007    +1.2529418e-007
+5.8000000e+002    +5.6556672e-007    +1.2285265e-007
+5.8100000e+002    +5.2373423e-007    +1.3259601e-007
+5.8200000e+002    +4.5138361e-007    +1.3897592e-007
+5.8300000e+002    +3.6247815e-007    +1.4040968e-007
+5.8400000e+002    +3.1818649e-007    +1.4990383e-007
+5.8500000e+002    +3.3480595e-007    +1.5137984e-007
+5.8600000e+002    +3.0920009e-007    +1.4244695e-007
+5.8700000e+002    +2.7558565e-007    +1.5109008e-007
+5.8800000e+002    +2.5346264e-007    +1.4235205e-007
+5.8900000e+002    +2.2192522e-007    +1.3985517e-007
+5.9000000e+002    +1.7308344e-007    +1.3931202e-007
+5.9100000e+002    +1.6181444e-007    +1.3990262e-007
+5.9200000e+002    +1.6398033e-007    +1.3312670e-007
+5.9300000e+002    +1.6177091e-007    +1.3639637e-007
+5.9400000e+002    +1.7614472e-007    +1.3773817e-007
+5.9500000e+002    +1.6242356e-007    +1.4546175e-007
+5.9600000e+002    +1.4566329e-007    +1.4712596e-007
+5.9700000e+002    +1.3162403e-007    +1.3978624e-007
+5.9800000e+002    +1.3348178e-007    +1.3743619e-007
+5.9900000e+002    +1.3082368e-007    +1.4353635e-007
+6.0000000e+002    +1.3783317e-007    +1.5335233e-007
+6.0100000e+002    +1.5053338e-007    +1.5195350e-007
+6.0200000e+002    +1.7319311e-007    +1.4131382e-007
+6.0300000e+002    +2.6191822e-007    +1.2961668e-007
+6.0400000e+002    +2.6946680e-007    +1.3111602e-007
+6.0500000e+002    +3.0179862e-007    +1.3845793e-007
+6.0600000e+002    +3.2367200e-007    +1.4554067e-007
+6.0700000e+002    +2.3414295e-007    +1.4103357e-007
+6.0800000e+002    +1.3599785e-007    +1.3453527e-007
+6.0900000e+002    +8.8571937e-008    +1.5161487e-007
+6.1000000e+002    +7.5717985e-008    +1.6279294e-007
+6.1100000e+002    +6.6562670e-008    +1.4928855e-007
+6.1200000e+002    +6.1454166e-008    +1.5492743e-007
+6.1300000e+002    +5.8845131e-008    +1.5881761e-007
+6.1400000e+002    +7.1342804e-008    +1.6133704e-007
+6.1500000e+002    +6.1840112e-008    +1.5347496e-007
+6.1600000e+002    +5.6671357e-008    +1.5328584e-007
+6.1700000e+002    +5.4039202e-008    +1.3493573e-007
+6.1800000e+002    +5.5552885e-008    +1.2970352e-007
+6.1900000e+002    +5.7372301e-008    +1.4339695e-007
+6.2000000e+002    +5.4680989e-008    +1.5032576e-007
+6.2100000e+002    +5.1859690e-008    +1.4412049e-007
+6.2200000e+002    +5.2881504e-008    +1.5186410e-007
+6.2300000e+002    +4.9423878e-008    +1.4394290e-007
+6.2400000e+002    +4.9249397e-008    +1.4888259e-007
+6.2500000e+002    +5.2599788e-008    +1.5946200e-007
+6.2600000e+002    +5.2970762e-008    +1.5811365e-007
+6.2700000e+002    +5.4308412e-008    +1.4967819e-007
+6.2800000e+002    +5.4710295e-008    +1.4396518e-007
+6.2900000e+002    +5.2118271e-008    +1.4884418e-007
+6.3000000e+002    +5.5708949e-008    +1.4761430e-007
+6.3100000e+002    +6.1063119e-008    +1.3896555e-007
+6.3200000e+002    +5.9360243e-008    +1.4694724e-007
+6.3300000e+002    +6.2709418e-008    +1.4940973e-007
+6.3400000e+002    +6.6805605e-008    +1.5198238e-007
+6.3500000e+002    +6.9789415e-008    +1.5849882e-007
+6.3600000e+002    +7.8392709e-008    +1.5578526e-007
+6.3700000e+002    +7.9636834e-008    +1.7373688e-007
+6.3800000e+002    +7.5895102e-008    +1.5811885e-007
+6.3900000e+002    +8.0830738e-008    +1.5354777e-007
+6.4000000e+002    +7.8831000e-008    +1.5357897e-007
+6.4100000e+002    +7.7330782e-008    +1.6369917e-007
+6.4200000e+002    +7.7875754e-008    +1.6133988e-007
+6.4300000e+002    +8.1480763e-008    +1.5729032e-007
+6.4400000e+002    +1.0002778e-007    +1.5135623e-007
+6.4500000e+002    +1.4538639e-007    +1.4859876e-007
+6.4600000e+002    +1.6793493e-007    +1.5756619e-007
+6.4700000e+002    +1.6129418e-007    +1.5706959e-007
+6.4800000e+002    +1.7511884e-007    +1.6220115e-007
+6.4900000e+002    +1.8696404e-007    +1.6601201e-007
+6.5000000e+002    +1.9643510e-007    +1.6156501e-007
+6.5100000e+002    +2.2781538e-007    +1.4900590e-007
+6.5200000e+002    +2.5150882e-007    +1.6271629e-007
+6.5300000e+002    +2.0789014e-007    +1.6760042e-007
+6.5400000e+002    +1.8826964e-007    +1.5104861e-007
+6.5500000e+002    +1.5827153e-007    +1.6518364e-007
+6.5600000e+002    +1.2083385e-007    +1.7744449e-007
+6.5700000e+002    +1.0355659e-007    +1.8443522e-007
+6.5800000e+002    +9.0967774e-008    +1.6052213e-007
+6.5900000e+002    +8.1344446e-008    +1.6077031e-007
+6.6000000e+002    +7.7311086e-008    +1.7149050e-007
+6.6100000e+002    +7.3949799e-008    +1.6756215e-007
+6.6200000e+002    +7.7065906e-008    +1.6279688e-007
+6.6300000e+002    +7.8091432e-008    +1.5784774e-007
+6.6400000e+002    +7.4608764e-008    +1.6737185e-007
+6.6500000e+002    +7.5705266e-008    +1.5420601e-007
+6.6600000e+002    +7.9260957e-008    +1.6630409e-007
+6.6700000e+002    +8.4435968e-008    +1.7513999e-007
+6.6800000e+002    +1.0064415e-007    +1.6260002e-007
+6.6900000e+002    +1.0483939e-007    +1.5972256e-007
+6.7000000e+002    +1.0856417e-007    +1.7858967e-007
+6.7100000e+002    +1.0267678e-007    +1.7116393e-007
+6.7200000e+002    +1.0716269e-007    +1.6255754e-007
+6.7300000e+002    +9.9993301e-008    +1.5554272e-007
+6.7400000e+002    +8.6880611e-008    +1.5320963e-007
+6.7500000e+002    +8.8674689e-008    +1.6129738e-007
+6.7600000e+002    +8.3390546e-008    +1.7798695e-007
+6.7700000e+002    +8.4145832e-008    +1.7193449e-007
+6.7800000e+002    +8.4982666e-008    +1.7249532e-007
+6.7900000e+002    +9.0988550e-008    +1.7116695e-007
+6.8000000e+002    +8.7474540e-008    +1.6235634e-007
+6.8100000e+002    +8.9998757e-008    +1.7213755e-007
+6.8200000e+002    +9.3424319e-008    +1.8106735e-007
+6.8300000e+002    +9.7134787e-008    +1.6703643e-007
+6.8400000e+002    +1.2307056e-007    +1.6424684e-007
+6.8500000e+002    +1.4529272e-007    +1.6111967e-007
+6.8600000e+002    +1.5021506e-007    +1.5879721e-007
+6.8700000e+002    +1.8223710e-007    +1.7129140e-007
+6.8800000e+002    +2.1526952e-007    +1.7554389e-007
+6.8900000e+002    +2.4715513e-007    +1.8188109e-007
+6.9000000e+002    +2.3901788e-007    +1.8454217e-007
+6.9100000e+002    +2.0558103e-007    +1.8594045e-007
+6.9200000e+002    +2.0093111e-007    +1.8226793e-007
+6.9300000e+002    +2.2097599e-007    +1.6999134e-007
+6.9400000e+002    +1.9973170e-007    +1.7615787e-007
+6.9500000e+002    +1.8603113e-007    +1.9900736e-007
+6.9600000e+002    +2.1483955e-007    +1.8107590e-007
+6.9700000e+002    +2.1984464e-007    +1.7543137e-007
+6.9800000e+002    +1.7493646e-007    +1.8407816e-007
+6.9900000e+002    +1.8756441e-007    +1.8785275e-007
+7.0000000e+002    +1.8699791e-007    +1.7749906e-007
+7.0100000e+002    +1.9244834e-007    +1.6906624e-007
+7.0200000e+002    +3.0380036e-007    +1.6585388e-007
+7.0300000e+002    +2.8769063e-007    +1.6697776e-007
+7.0400000e+002    +2.2421104e-007    +1.7314026e-007
+7.0500000e+002    +2.3122315e-007    +1.8521651e-007
+7.0600000e+002    +2.1201934e-007    +1.8208969e-007
+7.0700000e+002    +2.0989377e-007    +1.8626187e-007
+7.0800000e+002    +2.0311617e-007    +1.9105124e-007
+7.0900000e+002    +2.2317556e-007    +1.7746554e-007
+7.1000000e+002    +2.1908392e-007    +1.7518096e-007
+7.1100000e+002    +2.1033763e-007    +1.8684727e-007
+7.1200000e+002    +2.2181074e-007    +1.8484494e-007
+7.1300000e+002    +2.2245729e-007    +1.8787605e-007
+7.1400000e+002    +2.4216129e-007    +1.8327069e-007
+7.1500000e+002    +2.1654749e-007    +1.8472767e-007
+7.1600000e+002    +1.8318819e-007    +1.7997407e-007
+7.1700000e+002    +1.5718726e-007    +1.7280165e-007
+7.1800000e+002    +1.4964647e-007    +1.8556723e-007
+7.1900000e+002    +1.5455552e-007    +1.7282689e-007
+7.2000000e+002    +1.5139645e-007    +1.7494818e-007
+7.2100000e+002    +1.2585119e-007    +1.8185175e-007
+7.2200000e+002    +1.1859572e-007    +1.7885046e-007
+7.2300000e+002    +1.1220128e-007    +1.9332107e-007
+7.2400000e+002    +9.9970691e-008    +2.0508685e-007
+7.2500000e+002    +9.5438779e-008    +1.9438870e-007
+7.2600000e+002    +9.2605781e-008    +1.8659040e-007
+7.2700000e+002    +8.7043887e-008    +1.6815468e-007
+7.2800000e+002    +8.8573202e-008    +1.8310998e-007
+7.2900000e+002    +8.4741899e-008    +1.8779623e-007
+7.3000000e+002    +8.3122892e-008    +1.8787027e-007
+7.3100000e+002    +7.9280710e-008    +1.9681333e-007
+7.3200000e+002    +7.9683801e-008    +1.7969546e-007
+7.3300000e+002    +7.3484330e-008    +1.6851121e-007
+7.3400000e+002    +7.6481328e-008    +1.7793731e-007
+7.3500000e+002    +7.6267746e-008    +1.7448166e-007
+7.3600000e+002    +7.0367022e-008    +1.8110454e-007
+7.3700000e+002    +7.3126323e-008    +1.8207371e-007
+7.3800000e+002    +7.4606554e-008    +1.8702296e-007
+7.3900000e+002    +7.3141422e-008    +1.9319376e-007
+7.4000000e+002    +6.8901734e-008    +2.0225272e-007
+7.4100000e+002    +6.5590527e-008    +2.0085810e-007
+7.4200000e+002    +5.9941826e-008    +2.0001062e-007
+7.4300000e+002    +5.7873439e-008    +1.9299743e-007
+7.4400000e+002    +5.6813903e-008    +1.9421526e-007
+7.4500000e+002    +5.8678740e-008    +1.9618399e-007
+7.4600000e+002    +6.0679298e-008    +1.8995898e-007
+7.4700000e+002    +5.9055360e-008    +2.0886777e-007
+7.4800000e+002    +6.3386004e-008    +1.9998558e-007
+7.4900000e+002    +6.6259339e-008    +1.9350455e-007
+7.5000000e+002    +6.5340821e-008    +1.9297053e-007
+7.5100000e+002    +5.8835830e-008    +1.8454602e-007
+7.5200000e+002    +5.4026746e-008    +2.0319112e-007
+7.5300000e+002    +5.2299697e-008    +2.0406551e-007
+7.5400000e+002    +4.9355062e-008    +1.9236066e-007
+7.5500000e+002    +5.4315684e-008    +1.9439489e-007
+7.5600000e+002    +5.8941350e-008    +1.8118628e-007
+7.5700000e+002    +5.7246709e-008    +1.8971323e-007
+7.5800000e+002    +5.1223566e-008    +1.9280873e-007
+7.5900000e+002    +5.1576961e-008    +1.8470921e-007
+7.6000000e+002    +5.4937590e-008    +1.8799098e-007
+7.6100000e+002    +5.5021918e-008    +1.9744468e-007
+7.6200000e+002    +5.3430870e-008    +1.9909346e-007
+7.6300000e+002    +5.3589268e-008    +1.9314434e-007
+7.6400000e+002    +5.4869712e-008    +1.8373387e-007
+7.6500000e+002    +5.6074139e-008    +2.1116301e-007
+7.6600000e+002    +5.8987251e-008    +2.0433725e-007
+7.6700000e+002    +6.2665364e-008    +2.0045911e-007
+7.6800000e+002    +5.4844172e-008    +1.9230154e-007
+7.6900000e+002    +5.1671734e-008    +1.9412700e-007
+7.7000000e+002    +5.0043038e-008    +2.0824973e-007
+7.7100000e+002    +5.1040491e-008    +2.1480416e-007
+7.7200000e+002    +4.7251344e-008    +1.9417602e-007
+7.7300000e+002    +4.5049834e-008    +2.0623598e-007
+7.7400000e+002    +4.5936460e-008    +2.1180877e-007
+7.7500000e+002    +4.3494602e-008    +2.0431123e-007
+7.7600000e+002    +4.1848487e-008    +2.0739861e-007
+7.7700000e+002    +4.6791808e-008    +2.0605604e-007
+7.7800000e+002    +4.9642836e-008    +1.9541909e-007
+7.7900000e+002    +5.1174602e-008    +1.9606040e-007
+7.8000000e+002    +5.7471663e-008    +2.0205208e-007
+7.8100000e+002    +5.4759152e-008    +2.1039723e-007
+7.8200000e+002    +5.3688325e-008    +2.0917116e-007
+7.8300000e+002    +5.2254240e-008    +1.8803867e-007
+7.8400000e+002    +5.1677972e-008    +2.0796206e-007
+7.8500000e+002    +5.4134574e-008    +2.2835380e-007
+7.8600000e+002    +5.4639401e-008    +2.1631509e-007
+7.8700000e+002    +5.1983740e-008    +2.1426334e-007
+7.8800000e+002    +4.9657718e-008    +2.2774560e-007
+7.8900000e+002    +5.0795400e-008    +2.2238720e-007
+7.9000000e+002    +5.0224138e-008    +1.9720160e-007
+7.9100000e+002    +5.3146113e-008    +2.0716305e-007
+7.9200000e+002    +5.4452304e-008    +2.1420384e-007
+7.9300000e+002    +5.1953155e-008    +2.0352023e-007
+7.9400000e+002    +5.6013466e-008    +2.0063702e-007
+7.9500000e+002    +5.5108679e-008    +1.9397487e-007
+7.9600000e+002    +5.3084644e-008    +1.8699934e-007
+7.9700000e+002    +5.5296145e-008    +1.8464696e-007
+7.9800000e+002    +5.6480655e-008    +2.0155089e-007
+7.9900000e+002    +6.0299534e-008    +2.1252090e-007
#
#
# North DC Val: 0.8151120900000001 VoltsSouth DC Val: 0.5709152700000001 Volts
# SR785 Measurement - Timestamp: May 15 2020 - 21:08:55
# Parameter File: /home/controls/Git/cit_ctnlab/ctn_scripts/TransRINSpecShort.yml
#---------- Measurement Setup ------------
# Start Frequency (Hz): 0.000000
# Frequency Span (Hz): 102400.000000
# Frequency Resolution: 800
# Number of Averages: 100
# Averaging Mode: RMS
# Window function: Hanning
#---------- Measurement Parameters ----------
# Measurement Group:  "FFT" "FFT"
# Measurements:  "FFT 1" "FFT 2"
# View:  "Log Magnitude" "Log Magnitude"
# Unit:  "Vrms/rtHz" "Vrms/rtHz"
#---------- Input Parameters ----------
# Input Source: Analog
# Input Mode: Single ended, Single ended
# Input Grounding: Float, Float
# Input Coupling: AC, AC
# Input Range: -36.0dBVpk, -36.0dBVpk
# Auto Range: Off, Off
# Auto Range Mode: Tracking, Tracking
# Anti-Aliasing Filter: On, On
#---------- Source Parameters ----------
# Source Type: Sine
# Source Amplitude: 500.0mVpk
# Source On: 0

#---------- Measurement Data ----------
# [Freq(Hz) Display 0(Vrms/rtHz) Display 1(Vrms/rtHz) ]
+8.9600000e+002    +2.1403761e-007    +2.6370986e-007
+1.0240000e+003    +1.3734009e-007    +3.1624234e-007
+1.1520000e+003    +9.4418198e-008    +3.3709580e-007
+1.2800000e+003    +6.5038201e-008    +3.9235090e-007
+1.4080000e+003    +6.6095780e-008    +4.2833869e-007
+1.5360000e+003    +8.0337834e-008    +4.4367081e-007
+1.6640000e+003    +8.6743363e-008    +4.1701028e-007
+1.7920000e+003    +9.6291984e-008    +4.2910690e-007
+1.9200000e+003    +1.1368138e-007    +4.7818082e-007
+2.0480000e+003    +1.2521346e-007    +4.8869384e-007
+2.1760000e+003    +1.3512712e-007    +5.0039301e-007
+2.3040000e+003    +1.5102208e-007    +5.0771592e-007
+2.4320000e+003    +1.5052181e-007    +5.0939661e-007
+2.5600000e+003    +1.6776042e-007    +5.0594406e-007
+2.6880000e+003    +1.7222281e-007    +4.6599445e-007
+2.8160000e+003    +1.8194122e-007    +4.9530519e-007
+2.9440000e+003    +2.0241423e-007    +5.0389178e-007
+3.0720000e+003    +2.2123623e-007    +5.1415708e-007
+3.2000000e+003    +2.2803661e-007    +5.2104713e-007
+3.3280000e+003    +2.1354796e-007    +5.2552565e-007
+3.4560000e+003    +2.2732115e-007    +5.1799140e-007
+3.5840000e+003    +2.6894097e-007    +5.5018478e-007
+3.7120000e+003    +2.8728755e-007    +5.3059586e-007
+3.8400000e+003    +2.8926607e-007    +4.7496383e-007
+3.9680000e+003    +2.8765430e-007    +4.5291611e-007
+4.0960000e+003    +3.1546310e-007    +4.5798726e-007
+4.2240000e+003    +3.3833240e-007    +4.6673998e-007
+4.3520000e+003    +3.4596107e-007    +4.5858300e-007
+4.4800000e+003    +3.3019734e-007    +4.5711514e-007
+4.6080000e+003    +3.4860844e-007    +4.7941882e-007
+4.7360000e+003    +4.0390424e-007    +4.4806200e-007
+4.8640000e+003    +3.8776466e-007    +4.2972454e-007
+4.9920000e+003    +4.1329943e-007    +4.5126666e-007
+5.1200000e+003    +4.0564595e-007    +4.4221670e-007
+5.2480000e+003    +3.8298759e-007    +4.4725149e-007
+5.3760000e+003    +4.3224577e-007    +4.4495920e-007
+5.5040000e+003    +4.7110078e-007    +4.5490862e-007
+5.6320000e+003    +4.6442992e-007    +4.3143118e-007
+5.7600000e+003    +4.2965706e-007    +3.9570807e-007
+5.8880000e+003    +4.5397607e-007    +4.0153247e-007
+6.0160000e+003    +5.0468356e-007    +4.3404867e-007
+6.1440000e+003    +5.1851549e-007    +4.2815296e-007
+6.2720000e+003    +5.2944364e-007    +4.5460357e-007
+6.4000000e+003    +5.1411530e-007    +4.8375148e-007
+6.5280000e+003    +5.5991512e-007    +4.6706398e-007
+6.6560000e+003    +5.8974882e-007    +4.4632728e-007
+6.7840000e+003    +5.8050421e-007    +4.6096775e-007
+6.9120000e+003    +6.0618100e-007    +4.5901018e-007
+7.0400000e+003    +6.3606308e-007    +5.0430077e-007
+7.1680000e+003    +6.1773062e-007    +4.9370999e-007
+7.2960000e+003    +6.4201856e-007    +4.9736730e-007
+7.4240000e+003    +6.6137085e-007    +5.5282425e-007
+7.5520000e+003    +6.9525942e-007    +5.8442771e-007
+7.6800000e+003    +6.6320115e-007    +5.9484597e-007
+7.8080000e+003    +6.7912646e-007    +5.5795624e-007
+7.9360000e+003    +6.9010679e-007    +5.7668120e-007
+8.0640000e+003    +6.9686968e-007    +6.3815531e-007
+8.1920000e+003    +6.6808610e-007    +7.0445486e-007
+8.3200000e+003    +7.0831572e-007    +6.9742464e-007
+8.4480000e+003    +7.8824337e-007    +7.3562387e-007
+8.5760000e+003    +8.0152722e-007    +7.7509628e-007
+8.7040000e+003    +8.2272300e-007    +7.6364188e-007
+8.8320000e+003    +8.1635051e-007    +8.1589354e-007
+8.9600000e+003    +8.8588860e-007    +9.0357776e-007
+9.0880000e+003    +8.8906518e-007    +9.1014334e-007
+9.2160000e+003    +7.6553408e-007    +8.8787505e-007
+9.3440000e+003    +7.7974914e-007    +8.6385421e-007
+9.4720000e+003    +9.0158778e-007    +9.5199954e-007
+9.6000000e+003    +8.5888342e-007    +1.0937534e-006
+9.7280000e+003    +9.0567647e-007    +1.1060301e-006
+9.8560000e+003    +9.6800056e-007    +1.1232651e-006
+9.9840000e+003    +9.0406695e-007    +1.2203969e-006
+1.0112000e+004    +8.8530129e-007    +1.1807304e-006
+1.0240000e+004    +9.0051338e-007    +1.2417814e-006
+1.0368000e+004    +8.5811615e-007    +1.3452005e-006
+1.0496000e+004    +9.2797842e-007    +1.3736015e-006
+1.0624000e+004    +9.4077126e-007    +1.3643067e-006
+1.0752000e+004    +8.7907512e-007    +1.3520430e-006
+1.0880000e+004    +9.3135708e-007    +1.4236549e-006
+1.1008000e+004    +9.6791018e-007    +1.5097168e-006
+1.1136000e+004    +8.9067828e-007    +1.6063639e-006
+1.1264000e+004    +8.9717770e-007    +1.6630427e-006
+1.1392000e+004    +9.6429312e-007    +1.4611885e-006
+1.1520000e+004    +1.0368299e-006    +1.4801874e-006
+1.1648000e+004    +9.6547012e-007    +1.6294691e-006
+1.1776000e+004    +9.3593411e-007    +1.6439983e-006
+1.1904000e+004    +1.0939096e-006    +1.6038807e-006
+1.2032000e+004    +1.1013115e-006    +1.6976564e-006
+1.2160000e+004    +1.0378230e-006    +1.6074259e-006
+1.2288000e+004    +1.0086994e-006    +1.4376679e-006
+1.2416000e+004    +9.4964122e-007    +1.3772546e-006
+1.2544000e+004    +1.0081702e-006    +1.3050003e-006
+1.2672000e+004    +9.8311489e-007    +1.4973604e-006
+1.2800000e+004    +9.8630539e-007    +1.4986219e-006
+1.2928000e+004    +9.6974622e-007    +1.4209454e-006
+1.3056000e+004    +1.0145117e-006    +1.3883317e-006
+1.3184000e+004    +1.0799826e-006    +1.3111948e-006
+1.3312000e+004    +1.0335247e-006    +1.2911670e-006
+1.3440000e+004    +1.0352419e-006    +1.2680198e-006
+1.3568000e+004    +1.0209178e-006    +1.2763097e-006
+1.3696000e+004    +9.8890996e-007    +1.2447573e-006
+1.3824000e+004    +9.8595456e-007    +1.3974435e-006
+1.3952000e+004    +9.9837962e-007    +1.3162519e-006
+1.4080000e+004    +9.7910117e-007    +1.2414911e-006
+1.4208000e+004    +9.7241070e-007    +1.2679614e-006
+1.4336000e+004    +9.6216741e-007    +1.2526131e-006
+1.4464000e+004    +9.1561992e-007    +1.3162721e-006
+1.4592000e+004    +8.7693792e-007    +1.2485309e-006
+1.4720000e+004    +9.6620818e-007    +1.1344260e-006
+1.4848000e+004    +8.9687438e-007    +1.1725024e-006
+1.4976000e+004    +9.4545067e-007    +1.1022842e-006
+1.5104000e+004    +1.0116374e-006    +1.0815371e-006
+1.5232000e+004    +9.6147141e-007    +1.1448391e-006
+1.5360000e+004    +9.5922974e-007    +1.0801569e-006
+1.5488000e+004    +9.0920946e-007    +1.0718234e-006
+1.5616000e+004    +9.9125043e-007    +1.1706192e-006
+1.5744000e+004    +9.9593706e-007    +1.0635717e-006
+1.5872000e+004    +9.2563084e-007    +1.1088438e-006
+1.6000000e+004    +8.6689948e-007    +1.0798664e-006
+1.6128000e+004    +8.8858604e-007    +1.0500344e-006
+1.6256000e+004    +9.0373351e-007    +1.0209682e-006
+1.6384000e+004    +8.4184182e-007    +1.0159229e-006
+1.6512000e+004    +8.5573197e-007    +1.1467122e-006
+1.6640000e+004    +8.7136254e-007    +1.0815513e-006
+1.6768000e+004    +9.2270750e-007    +9.7494535e-007
+1.6896000e+004    +9.0951596e-007    +9.5583709e-007
+1.7024000e+004    +8.5046793e-007    +1.0182546e-006
+1.7152000e+004    +8.2390540e-007    +1.0581404e-006
+1.7280000e+004    +8.6723077e-007    +1.0392152e-006
+1.7408000e+004    +9.2840236e-007    +9.2508526e-007
+1.7536000e+004    +8.8381341e-007    +1.0123931e-006
+1.7664000e+004    +8.5074248e-007    +9.9398812e-007
+1.7792000e+004    +8.3494166e-007    +9.1481098e-007
+1.7920000e+004    +7.7848819e-007    +9.5092770e-007
+1.8048000e+004    +8.1356774e-007    +1.0049818e-006
+1.8176000e+004    +8.3630778e-007    +9.9028125e-007
+1.8304000e+004    +7.8894124e-007    +9.7355485e-007
+1.8432000e+004    +7.7835148e-007    +9.4625551e-007
+1.8560000e+004    +7.6071296e-007    +9.7838222e-007
+1.8688000e+004    +7.6335436e-007    +9.7940108e-007
+1.8816000e+004    +7.4057135e-007    +1.0333011e-006
+1.8944000e+004    +8.0527701e-007    +9.5748828e-007
+1.9072000e+004    +7.9779750e-007    +9.4428356e-007
+1.9200000e+004    +7.4397639e-007    +8.7733179e-007
+1.9328000e+004    +7.6322948e-007    +1.0082177e-006
+1.9456000e+004    +7.9576000e-007    +1.0079311e-006
+1.9584000e+004    +8.1270889e-007    +9.3847478e-007
+1.9712000e+004    +7.6356139e-007    +9.8339558e-007
+1.9840000e+004    +7.2032140e-007    +1.0064338e-006
+1.9968000e+004    +7.5569318e-007    +9.8862120e-007
+2.0096000e+004    +7.3156684e-007    +9.8376267e-007
+2.0224000e+004    +7.1794551e-007    +9.1622326e-007
+2.0352000e+004    +7.6331918e-007    +9.5345149e-007
+2.0480000e+004    +7.7213360e-007    +9.2487198e-007
+2.0608000e+004    +7.7494991e-007    +9.7335385e-007
+2.0736000e+004    +7.6547946e-007    +9.0587338e-007
+2.0864000e+004    +7.4402703e-007    +8.6267039e-007
+2.0992000e+004    +7.1734354e-007    +9.4466930e-007
+2.1120000e+004    +7.1835558e-007    +9.3350593e-007
+2.1248000e+004    +7.6911977e-007    +9.4731377e-007
+2.1376000e+004    +7.3680161e-007    +1.0903303e-006
+2.1504000e+004    +7.2567008e-007    +1.0211162e-006
+2.1632000e+004    +7.0238508e-007    +8.5479479e-007
+2.1760000e+004    +6.9962272e-007    +8.2427096e-007
+2.1888000e+004    +6.8563946e-007    +8.8667878e-007
+2.2016000e+004    +6.5461313e-007    +8.9305195e-007
+2.2144000e+004    +6.7914436e-007    +7.6925403e-007
+2.2272000e+004    +6.8638593e-007    +7.8150191e-007
+2.2400000e+004    +6.2588902e-007    +8.7574574e-007
+2.2528000e+004    +6.6602439e-007    +8.7664910e-007
+2.2656000e+004    +6.8361743e-007    +8.8772396e-007
+2.2784000e+004    +6.3472640e-007    +8.5548680e-007
+2.2912000e+004    +6.3002790e-007    +8.2127445e-007
+2.3040000e+004    +6.5038773e-007    +8.2878842e-007
+2.3168000e+004    +6.5910189e-007    +8.3509661e-007
+2.3296000e+004    +6.2372260e-007    +8.3371691e-007
+2.3424000e+004    +6.1888198e-007    +8.2707493e-007
+2.3552000e+004    +6.7161415e-007    +8.3667976e-007
+2.3680000e+004    +7.1556258e-007    +8.0372064e-007
+2.3808000e+004    +7.5559194e-007    +8.2047950e-007
+2.3936000e+004    +7.1025249e-007    +8.1710556e-007
+2.4064000e+004    +7.4679411e-007    +8.1195878e-007
+2.4192000e+004    +7.2532362e-007    +8.3424339e-007
+2.4320000e+004    +6.6560989e-007    +7.7239139e-007
+2.4448000e+004    +6.2802229e-007    +8.5726390e-007
+2.4576000e+004    +6.5033987e-007    +8.5655921e-007
+2.4704000e+004    +6.3670586e-007    +8.6699748e-007
+2.4832000e+004    +6.1925380e-007    +8.2921986e-007
+2.4960000e+004    +5.8038825e-007    +8.0078127e-007
+2.5088000e+004    +5.9086426e-007    +8.0487484e-007
+2.5216000e+004    +5.7721331e-007    +8.2614463e-007
+2.5344000e+004    +5.6572509e-007    +8.5356339e-007
+2.5472000e+004    +6.4002461e-007    +7.3675955e-007
+2.5600000e+004    +6.3014068e-007    +7.4190444e-007
+2.5728000e+004    +6.1398930e-007    +8.8581857e-007
+2.5856000e+004    +5.9820195e-007    +9.4285286e-007
+2.5984000e+004    +5.8764812e-007    +8.4601618e-007
+2.6112000e+004    +6.0787653e-007    +8.0771832e-007
+2.6240000e+004    +5.9505760e-007    +7.6133631e-007
+2.6368000e+004    +6.0934934e-007    +7.7232693e-007
+2.6496000e+004    +6.1145107e-007    +7.7060406e-007
+2.6624000e+004    +5.6916048e-007    +7.5678417e-007
+2.6752000e+004    +5.5670245e-007    +8.4506553e-007
+2.6880000e+004    +5.5854343e-007    +8.2912067e-007
+2.7008000e+004    +5.8372353e-007    +7.8193960e-007
+2.7136000e+004    +5.6472470e-007    +7.5997832e-007
+2.7264000e+004    +5.7681035e-007    +7.9589194e-007
+2.7392000e+004    +5.9243757e-007    +8.0111460e-007
+2.7520000e+004    +5.4203508e-007    +8.1505726e-007
+2.7648000e+004    +5.3242832e-007    +7.8122048e-007
+2.7776000e+004    +5.9252153e-007    +8.2420394e-007
+2.7904000e+004    +5.8100989e-007    +8.6389406e-007
+2.8032000e+004    +5.4254889e-007    +7.4807434e-007
+2.8160000e+004    +5.4253996e-007    +7.5386913e-007
+2.8288000e+004    +5.6010697e-007    +7.8672593e-007
+2.8416000e+004    +5.3050383e-007    +7.8872557e-007
+2.8544000e+004    +5.1992362e-007    +7.9623982e-007
+2.8672000e+004    +5.6034071e-007    +7.8764037e-007
+2.8800000e+004    +5.3925106e-007    +7.5832213e-007
+2.8928000e+004    +4.9026096e-007    +7.9563858e-007
+2.9056000e+004    +5.4374163e-007    +7.7118636e-007
+2.9184000e+004    +5.5788092e-007    +7.1316094e-007
+2.9312000e+004    +5.3706896e-007    +7.6011099e-007
+2.9440000e+004    +5.5038777e-007    +7.7046360e-007
+2.9568000e+004    +5.4035644e-007    +7.6892638e-007
+2.9696000e+004    +5.3310509e-007    +7.6650298e-007
+2.9824000e+004    +5.0445527e-007    +7.6298568e-007
+2.9952000e+004    +5.2027877e-007    +7.6212081e-007
+3.0080000e+004    +5.2409376e-007    +7.7406298e-007
+3.0208000e+004    +5.0552870e-007    +7.7478830e-007
+3.0336000e+004    +5.1742359e-007    +7.9957766e-007
+3.0464000e+004    +5.2636125e-007    +7.8415781e-007
+3.0592000e+004    +5.1774805e-007    +8.0971887e-007
+3.0720000e+004    +5.1259684e-007    +7.8330589e-007
+3.0848000e+004    +4.6702706e-007    +8.1484967e-007
+3.0976000e+004    +4.6973258e-007    +8.3175297e-007
+3.1104000e+004    +5.0071566e-007    +7.9136606e-007
+3.1232000e+004    +5.0950285e-007    +7.6256356e-007
+3.1360000e+004    +4.7061377e-007    +8.1183845e-007
+3.1488000e+004    +5.0054030e-007    +8.0719792e-007
+3.1616000e+004    +5.0730188e-007    +7.5719311e-007
+3.1744000e+004    +4.7565845e-007    +7.6244385e-007
+3.1872000e+004    +4.8585775e-007    +7.4605407e-007
+3.2000000e+004    +4.7120321e-007    +8.1872923e-007
+3.2128000e+004    +4.9003705e-007    +8.4177253e-007
+3.2256000e+004    +5.0870352e-007    +8.1140178e-007
+3.2384000e+004    +4.7883333e-007    +8.6844852e-007
+3.2512000e+004    +4.5321161e-007    +8.3332611e-007
+3.2640000e+004    +5.3606686e-007    +7.8998141e-007
+3.2768000e+004    +5.2968903e-007    +8.2637689e-007
+3.2896000e+004    +4.9067773e-007    +8.1019022e-007
+3.3024000e+004    +5.0613744e-007    +8.9578197e-007
+3.3152000e+004    +5.1046936e-007    +9.0295987e-007
+3.3280000e+004    +5.1393357e-007    +7.9511807e-007
+3.3408000e+004    +4.7837983e-007    +8.7487985e-007
+3.3536000e+004    +4.7424680e-007    +7.8257005e-007
+3.3664000e+004    +4.8864445e-007    +7.7477978e-007
+3.3792000e+004    +4.9874370e-007    +7.7591881e-007
+3.3920000e+004    +4.9412375e-007    +8.1471370e-007
+3.4048000e+004    +4.6540029e-007    +8.3960151e-007
+3.4176000e+004    +5.0358813e-007    +8.4806402e-007
+3.4304000e+004    +5.3096943e-007    +8.3398055e-007
+3.4432000e+004    +5.2571437e-007    +8.9394860e-007
+3.4560000e+004    +5.0422329e-007    +8.6587210e-007
+3.4688000e+004    +4.7767702e-007    +8.6665489e-007
+3.4816000e+004    +4.6960108e-007    +8.2108784e-007
+3.4944000e+004    +4.7952096e-007    +7.7224382e-007
+3.5072000e+004    +4.6358625e-007    +7.0786012e-007
+3.5200000e+004    +4.6714655e-007    +7.4505868e-007
+3.5328000e+004    +4.9497464e-007    +7.7976711e-007
+3.5456000e+004    +4.7326890e-007    +7.7313462e-007
+3.5584000e+004    +4.6211147e-007    +8.5321767e-007
+3.5712000e+004    +4.7492316e-007    +8.7278352e-007
+3.5840000e+004    +4.3460901e-007    +8.0165307e-007
+3.5968000e+004    +4.9527853e-007    +8.0606077e-007
+3.6096000e+004    +5.0020572e-007    +7.9282887e-007
+3.6224000e+004    +4.4326038e-007    +7.9104638e-007
+3.6352000e+004    +4.9265299e-007    +8.5800781e-007
+3.6480000e+004    +4.9373602e-007    +8.9661148e-007
+3.6608000e+004    +4.7195761e-007    +9.0977665e-007
+3.6736000e+004    +4.3554815e-007    +8.7145827e-007
+3.6864000e+004    +4.3399865e-007    +8.3999430e-007
+3.6992000e+004    +4.4323312e-007    +8.4334886e-007
+3.7120000e+004    +4.3042388e-007    +7.8880095e-007
+3.7248000e+004    +4.3099939e-007    +8.9095897e-007
+3.7376000e+004    +4.4893557e-007    +8.5382396e-007
+3.7504000e+004    +4.7645659e-007    +8.1927686e-007
+3.7632000e+004    +4.6413527e-007    +8.6276606e-007
+3.7760000e+004    +4.5304594e-007    +8.5251725e-007
+3.7888000e+004    +4.3202940e-007    +8.5462216e-007
+3.8016000e+004    +4.2897688e-007    +9.2022168e-007
+3.8144000e+004    +4.1622761e-007    +8.7534204e-007
+3.8272000e+004    +4.3216698e-007    +7.5151712e-007
+3.8400000e+004    +4.6273445e-007    +8.0351856e-007
+3.8528000e+004    +4.7557435e-007    +8.7673959e-007
+3.8656000e+004    +4.7037048e-007    +8.7165154e-007
+3.8784000e+004    +4.4698345e-007    +9.0278741e-007
+3.8912000e+004    +4.3363093e-007    +8.3210278e-007
+3.9040000e+004    +4.3824258e-007    +8.7821076e-007
+3.9168000e+004    +4.5810995e-007    +8.5587106e-007
+3.9296000e+004    +4.6752677e-007    +7.9967072e-007
+3.9424000e+004    +4.5453268e-007    +8.1008346e-007
+3.9552000e+004    +4.4307740e-007    +8.7085948e-007
+3.9680000e+004    +4.2553458e-007    +8.9007898e-007
+3.9808000e+004    +4.4914657e-007    +9.2557292e-007
+3.9936000e+004    +4.4857538e-007    +8.7060613e-007
+4.0064000e+004    +4.5083235e-007    +8.4947214e-007
+4.0192000e+004    +4.5273563e-007    +8.1365795e-007
+4.0320000e+004    +4.3551276e-007    +9.1280231e-007
+4.0448000e+004    +4.4089751e-007    +8.8349032e-007
+4.0576000e+004    +4.3989129e-007    +7.9989553e-007
+4.0704000e+004    +4.4479069e-007    +9.0086445e-007
+4.0832000e+004    +4.4922203e-007    +8.0567412e-007
+4.0960000e+004    +4.3634270e-007    +8.1185090e-007
+4.1088000e+004    +4.4174936e-007    +8.8020317e-007
+4.1216000e+004    +4.5199857e-007    +9.2714635e-007
+4.1344000e+004    +4.4530671e-007    +8.5170325e-007
+4.1472000e+004    +4.0723327e-007    +8.1615514e-007
+4.1600000e+004    +4.0794393e-007    +8.7618145e-007
+4.1728000e+004    +4.2734797e-007    +9.7789143e-007
+4.1856000e+004    +4.4757570e-007    +9.4207468e-007
+4.1984000e+004    +4.3093692e-007    +9.2415229e-007
+4.2112000e+004    +4.0747210e-007    +9.2628966e-007
+4.2240000e+004    +4.0894489e-007    +8.9102355e-007
+4.2368000e+004    +4.0588830e-007    +8.6330238e-007
+4.2496000e+004    +4.4726377e-007    +8.8365624e-007
+4.2624000e+004    +4.4187306e-007    +9.6646602e-007
+4.2752000e+004    +4.3988308e-007    +9.8158114e-007
+4.2880000e+004    +4.2255255e-007    +9.6177871e-007
+4.3008000e+004    +4.0953483e-007    +9.6124552e-007
+4.3136000e+004    +4.0832930e-007    +9.5598091e-007
+4.3264000e+004    +4.5779672e-007    +9.6876613e-007
+4.3392000e+004    +4.3354763e-007    +8.7532567e-007
+4.3520000e+004    +4.1762976e-007    +9.0081403e-007
+4.3648000e+004    +4.0108480e-007    +9.4956619e-007
+4.3776000e+004    +4.3628953e-007    +9.2274905e-007
+4.3904000e+004    +4.5284204e-007    +9.7186626e-007
+4.4032000e+004    +4.3706962e-007    +1.0315667e-006
+4.4160000e+004    +3.9818752e-007    +9.0178281e-007
+4.4288000e+004    +4.0784855e-007    +9.4836901e-007
+4.4416000e+004    +4.1478188e-007    +9.5308621e-007
+4.4544000e+004    +4.2375120e-007    +9.3463717e-007
+4.4672000e+004    +4.0837728e-007    +9.9142790e-007
+4.4800000e+004    +3.9733024e-007    +9.9405906e-007
+4.4928000e+004    +4.1474911e-007    +9.8811222e-007
+4.5056000e+004    +4.0215943e-007    +9.0626435e-007
+4.5184000e+004    +3.9213728e-007    +8.7995681e-007
+4.5312000e+004    +4.0300279e-007    +9.2467400e-007
+4.5440000e+004    +3.9901335e-007    +9.0433701e-007
+4.5568000e+004    +3.9105853e-007    +8.7825509e-007
+4.5696000e+004    +3.9607667e-007    +8.8042742e-007
+4.5824000e+004    +4.0897450e-007    +9.2119819e-007
+4.5952000e+004    +4.3563904e-007    +9.7834572e-007
+4.6080000e+004    +4.3193788e-007    +1.0048924e-006
+4.6208000e+004    +4.3147998e-007    +1.0175918e-006
+4.6336000e+004    +4.3080212e-007    +1.0095115e-006
+4.6464000e+004    +4.4042531e-007    +1.0373958e-006
+4.6592000e+004    +4.3002851e-007    +1.1187271e-006
+4.6720000e+004    +4.2651502e-007    +1.0488822e-006
+4.6848000e+004    +4.0583083e-007    +9.4170963e-007
+4.6976000e+004    +4.0976559e-007    +9.3453355e-007
+4.7104000e+004    +4.0029994e-007    +9.5108226e-007
+4.7232000e+004    +4.0297979e-007    +9.4461643e-007
+4.7360000e+004    +4.1933347e-007    +9.8732926e-007
+4.7488000e+004    +4.2586549e-007    +9.3869119e-007
+4.7616000e+004    +4.2229050e-007    +9.6306258e-007
+4.7744000e+004    +4.6266942e-007    +1.0475379e-006
+4.7872000e+004    +4.4040112e-007    +1.0450473e-006
+4.8000000e+004    +4.1434311e-007    +1.0315453e-006
+4.8128000e+004    +4.6403898e-007    +1.0873176e-006
+4.8256000e+004    +4.1302636e-007    +1.0578651e-006
+4.8384000e+004    +3.9276813e-007    +9.4345035e-007
+4.8512000e+004    +4.1316108e-007    +9.9123633e-007
+4.8640000e+004    +4.4394028e-007    +9.9251588e-007
+4.8768000e+004    +4.3436333e-007    +9.6918848e-007
+4.8896000e+004    +4.3089767e-007    +9.9680130e-007
+4.9024000e+004    +4.3652719e-007    +1.1212049e-006
+4.9152000e+004    +4.1750184e-007    +1.1731926e-006
+4.9280000e+004    +4.3261895e-007    +1.0399377e-006
+4.9408000e+004    +4.2568226e-007    +1.0065985e-006
+4.9536000e+004    +4.4961678e-007    +9.8694773e-007
+4.9664000e+004    +4.5553790e-007    +9.9865156e-007
+4.9792000e+004    +4.5241416e-007    +9.8973226e-007
+4.9920000e+004    +4.2447158e-007    +9.2254032e-007
+5.0048000e+004    +3.9876986e-007    +9.7537793e-007
+5.0176000e+004    +4.4863893e-007    +1.0383234e-006
+5.0304000e+004    +4.5369504e-007    +1.0008854e-006
+5.0432000e+004    +4.4022806e-007    +9.7737404e-007
+5.0560000e+004    +4.1966604e-007    +1.0465446e-006
+5.0688000e+004    +3.9205378e-007    +1.0605352e-006
+5.0816000e+004    +3.8238551e-007    +1.0003569e-006
+5.0944000e+004    +4.0490596e-007    +1.0392426e-006
+5.1072000e+004    +3.9396059e-007    +1.0250185e-006
+5.1200000e+004    +3.7965123e-007    +1.0389323e-006
+5.1328000e+004    +4.3499330e-007    +1.0802613e-006
+5.1456000e+004    +4.1224664e-007    +1.1025105e-006
+5.1584000e+004    +3.9807912e-007    +1.2318750e-006
+5.1712000e+004    +4.1389478e-007    +1.0308886e-006
+5.1840000e+004    +4.2350376e-007    +1.0096401e-006
+5.1968000e+004    +4.2170066e-007    +1.0145841e-006
+5.2096000e+004    +3.9153971e-007    +1.0855570e-006
+5.2224000e+004    +3.8635628e-007    +1.0890681e-006
+5.2352000e+004    +4.0955237e-007    +1.0916887e-006
+5.2480000e+004    +4.0248543e-007    +1.0994823e-006
+5.2608000e+004    +3.8564767e-007    +1.1227065e-006
+5.2736000e+004    +4.1633683e-007    +1.0865098e-006
+5.2864000e+004    +3.8551093e-007    +1.1071869e-006
+5.2992000e+004    +3.8406012e-007    +1.1130116e-006
+5.3120000e+004    +3.8327451e-007    +1.1392241e-006
+5.3248000e+004    +3.7652080e-007    +1.1921088e-006
+5.3376000e+004    +3.8758205e-007    +1.1449258e-006
+5.3504000e+004    +3.4339448e-007    +1.1440060e-006
+5.3632000e+004    +3.4582888e-007    +1.2119845e-006
+5.3760000e+004    +3.6304931e-007    +1.1227584e-006
+5.3888000e+004    +3.6474898e-007    +1.0790770e-006
+5.4016000e+004    +3.6859569e-007    +1.2146354e-006
+5.4144000e+004    +3.6412916e-007    +1.1613225e-006
+5.4272000e+004    +3.6810553e-007    +1.1636992e-006
+5.4400000e+004    +3.7166308e-007    +1.1365455e-006
+5.4528000e+004    +3.4218522e-007    +1.1040646e-006
+5.4656000e+004    +3.4223706e-007    +1.0278642e-006
+5.4784000e+004    +3.3573468e-007    +1.0584889e-006
+5.4912000e+004    +3.5271106e-007    +1.1435928e-006
+5.5040000e+004    +4.2282682e-007    +1.1263662e-006
+5.5168000e+004    +5.7540109e-007    +1.1466481e-006
+5.5296000e+004    +4.1496864e-007    +1.2284631e-006
+5.5424000e+004    +4.2074473e-007    +1.2497378e-006
+5.5552000e+004    +8.8179343e-007    +1.2399436e-006
+5.5680000e+004    +7.4224664e-007    +1.2904683e-006
+5.5808000e+004    +3.8178854e-007    +1.2486612e-006
+5.5936000e+004    +3.7452727e-007    +1.2112168e-006
+5.6064000e+004    +3.6405001e-007    +1.1413738e-006
+5.6192000e+004    +3.6503303e-007    +1.2352041e-006
+5.6320000e+004    +3.8596028e-007    +1.2309475e-006
+5.6448000e+004    +3.6897995e-007    +1.1630273e-006
+5.6576000e+004    +3.7871658e-007    +1.1300899e-006
+5.6704000e+004    +3.6627719e-007    +1.2997039e-006
+5.6832000e+004    +3.4839110e-007    +1.2705171e-006
+5.6960000e+004    +3.5308341e-007    +1.1400562e-006
+5.7088000e+004    +3.6797783e-007    +1.1608751e-006
+5.7216000e+004    +3.6521061e-007    +1.1116011e-006
+5.7344000e+004    +3.6368047e-007    +1.1174455e-006
+5.7472000e+004    +3.5173227e-007    +1.1990543e-006
+5.7600000e+004    +3.3936743e-007    +1.1128565e-006
+5.7728000e+004    +3.0812714e-007    +1.1991477e-006
+5.7856000e+004    +3.3775265e-007    +1.3191396e-006
+5.7984000e+004    +3.6527678e-007    +1.2836541e-006
+5.8112000e+004    +3.5272151e-007    +1.2841334e-006
+5.8240000e+004    +3.7436121e-007    +1.2945354e-006
+5.8368000e+004    +3.5191266e-007    +1.2010188e-006
+5.8496000e+004    +3.5295898e-007    +1.3273235e-006
+5.8624000e+004    +3.5781298e-007    +1.3741189e-006
+5.8752000e+004    +3.7045513e-007    +1.2680574e-006
+5.8880000e+004    +3.4945688e-007    +1.2379792e-006
+5.9008000e+004    +3.3570484e-007    +1.2591864e-006
+5.9136000e+004    +3.6190670e-007    +1.3110537e-006
+5.9264000e+004    +3.5073268e-007    +1.3370077e-006
+5.9392000e+004    +3.3503539e-007    +1.2697669e-006
+5.9520000e+004    +3.4265102e-007    +1.2722761e-006
+5.9648000e+004    +3.2361444e-007    +1.2695355e-006
+5.9776000e+004    +3.3889157e-007    +1.2913031e-006
+5.9904000e+004    +3.3914506e-007    +1.2668787e-006
+6.0032000e+004    +3.2964383e-007    +1.2587593e-006
+6.0160000e+004    +3.3005779e-007    +1.2874737e-006
+6.0288000e+004    +3.4488963e-007    +1.3185690e-006
+6.0416000e+004    +3.5733481e-007    +1.2691341e-006
+6.0544000e+004    +3.4673226e-007    +1.0866171e-006
+6.0672000e+004    +3.2297834e-007    +1.1920184e-006
+6.0800000e+004    +3.2385756e-007    +1.4038917e-006
+6.0928000e+004    +3.5916818e-007    +1.3463324e-006
+6.1056000e+004    +3.6486634e-007    +1.3172898e-006
+6.1184000e+004    +3.4329119e-007    +1.4126759e-006
+6.1312000e+004    +3.3480006e-007    +1.3907194e-006
+6.1440000e+004    +3.1858431e-007    +1.3988542e-006
+6.1568000e+004    +3.5547487e-007    +1.4145229e-006
+6.1696000e+004    +3.6959099e-007    +1.4105618e-006
+6.1824000e+004    +3.7168431e-007    +1.3810084e-006
+6.1952000e+004    +3.6049170e-007    +1.2514721e-006
+6.2080000e+004    +3.6131155e-007    +1.2325528e-006
+6.2208000e+004    +3.5314622e-007    +1.2655677e-006
+6.2336000e+004    +3.4208904e-007    +1.3530721e-006
+6.2464000e+004    +3.3236881e-007    +1.5462088e-006
+6.2592000e+004    +3.4859926e-007    +1.4317072e-006
+6.2720000e+004    +3.5212329e-007    +1.4106502e-006
+6.2848000e+004    +3.1462739e-007    +1.4088469e-006
+6.2976000e+004    +3.1344473e-007    +1.3280669e-006
+6.3104000e+004    +3.3881417e-007    +1.2555005e-006
+6.3232000e+004    +3.5392992e-007    +1.3028027e-006
+6.3360000e+004    +3.4499797e-007    +1.4956877e-006
+6.3488000e+004    +3.5009785e-007    +1.4582331e-006
+6.3616000e+004    +3.5411728e-007    +1.4405057e-006
+6.3744000e+004    +3.5812664e-007    +1.3659164e-006
+6.3872000e+004    +3.4555487e-007    +1.3753989e-006
+6.4000000e+004    +3.2327813e-007    +1.2680866e-006
+6.4128000e+004    +3.2291379e-007    +1.3643366e-006
+6.4256000e+004    +3.2093726e-007    +1.3843559e-006
+6.4384000e+004    +3.4130156e-007    +1.3628664e-006
+6.4512000e+004    +3.4757079e-007    +1.4523210e-006
+6.4640000e+004    +3.3838293e-007    +1.6086831e-006
+6.4768000e+004    +3.4810699e-007    +1.5431305e-006
+6.4896000e+004    +3.2986071e-007    +1.3684098e-006
+6.5024000e+004    +3.3324324e-007    +1.2915611e-006
+6.5152000e+004    +3.4688000e-007    +1.2769840e-006
+6.5280000e+004    +3.3978426e-007    +1.4070413e-006
+6.5408000e+004    +3.2821080e-007    +1.4991074e-006
+6.5536000e+004    +3.3001467e-007    +1.5168680e-006
+6.5664000e+004    +3.4690399e-007    +1.4488236e-006
+6.5792000e+004    +3.4685257e-007    +1.5311293e-006
+6.5920000e+004    +3.4678021e-007    +1.4977435e-006
+6.6048000e+004    +3.4322750e-007    +1.3602130e-006
+6.6176000e+004    +3.4529583e-007    +1.4069610e-006
+6.6304000e+004    +3.3527201e-007    +1.5494853e-006
+6.6432000e+004    +3.4647044e-007    +1.4899445e-006
+6.6560000e+004    +3.3141663e-007    +1.3702169e-006
+6.6688000e+004    +3.3249765e-007    +1.4509775e-006
+6.6816000e+004    +3.4863791e-007    +1.4706136e-006
+6.6944000e+004    +3.5177086e-007    +1.4519958e-006
+6.7072000e+004    +3.4271875e-007    +1.4872608e-006
+6.7200000e+004    +3.5427908e-007    +1.5632480e-006
+6.7328000e+004    +3.5130037e-007    +1.5225612e-006
+6.7456000e+004    +3.2564822e-007    +1.5033072e-006
+6.7584000e+004    +3.2556994e-007    +1.4627535e-006
+6.7712000e+004    +3.2886658e-007    +1.2945610e-006
+6.7840000e+004    +3.1714501e-007    +1.4444715e-006
+6.7968000e+004    +3.2096932e-007    +1.5096704e-006
+6.8096000e+004    +3.1903375e-007    +1.4943089e-006
+6.8224000e+004    +3.1007551e-007    +1.5180409e-006
+6.8352000e+004    +3.1511971e-007    +1.5225244e-006
+6.8480000e+004    +3.3078192e-007    +1.5901879e-006
+6.8608000e+004    +3.2702053e-007    +1.5858411e-006
+6.8736000e+004    +3.2084776e-007    +1.5141258e-006
+6.8864000e+004    +3.3446278e-007    +1.5825572e-006
+6.8992000e+004    +3.4624074e-007    +1.4719269e-006
+6.9120000e+004    +3.3845836e-007    +1.3903162e-006
+6.9248000e+004    +3.1743207e-007    +1.4132530e-006
+6.9376000e+004    +3.2946218e-007    +1.5581741e-006
+6.9504000e+004    +3.3015274e-007    +1.7360645e-006
+6.9632000e+004    +3.3081241e-007    +1.5227049e-006
+6.9760000e+004    +3.4213073e-007    +1.5916552e-006
+6.9888000e+004    +3.4604804e-007    +1.7195582e-006
+7.0016000e+004    +3.5775525e-007    +1.7110982e-006
+7.0144000e+004    +5.5105289e-007    +1.7726126e-006
+7.0272000e+004    +8.1830774e-007    +2.0360046e-006
+7.0400000e+004    +4.5413810e-007    +1.7190259e-006
+7.0528000e+004    +3.4131057e-007    +1.7153136e-006
+7.0656000e+004    +3.7016807e-007    +1.5938883e-006
+7.0784000e+004    +4.8769948e-007    +1.5856723e-006
+7.0912000e+004    +3.8060656e-007    +1.5776994e-006
+7.1040000e+004    +3.5933778e-007    +1.6817222e-006
+7.1168000e+004    +3.7039982e-007    +1.7732452e-006
+7.1296000e+004    +3.3134458e-007    +1.6420627e-006
+7.1424000e+004    +3.2431907e-007    +1.5632257e-006
+7.1552000e+004    +3.0600080e-007    +1.7047018e-006
+7.1680000e+004    +3.6760389e-007    +1.7025620e-006
+7.1808000e+004    +3.8318950e-007    +1.6199754e-006
+7.1936000e+004    +3.7479055e-007    +1.6135547e-006
+7.2064000e+004    +3.6085166e-007    +1.6296069e-006
+7.2192000e+004    +3.5227140e-007    +1.5968486e-006
+7.2320000e+004    +3.6079103e-007    +1.5609293e-006
+7.2448000e+004    +3.3770817e-007    +1.6553041e-006
+7.2576000e+004    +3.2469532e-007    +1.8539514e-006
+7.2704000e+004    +3.2332818e-007    +1.7942004e-006
+7.2832000e+004    +3.2370826e-007    +1.6061857e-006
+7.2960000e+004    +3.5736579e-007    +1.6166190e-006
+7.3088000e+004    +3.6160006e-007    +1.7364857e-006
+7.3216000e+004    +3.3605812e-007    +1.7857614e-006
+7.3344000e+004    +3.6221397e-007    +1.7062711e-006
+7.3472000e+004    +3.5737560e-007    +1.6773868e-006
+7.3600000e+004    +3.3515093e-007    +1.7087721e-006
+7.3728000e+004    +3.3684088e-007    +1.6704910e-006
+7.3856000e+004    +3.6201678e-007    +1.7404617e-006
+7.3984000e+004    +3.7273909e-007    +1.6953188e-006
+7.4112000e+004    +3.5983683e-007    +1.7040712e-006
+7.4240000e+004    +3.6512040e-007    +1.7383304e-006
+7.4368000e+004    +3.6301742e-007    +1.7919325e-006
+7.4496000e+004    +3.7821334e-007    +1.6848364e-006
+7.4624000e+004    +3.7680408e-007    +1.7462730e-006
+7.4752000e+004    +3.7239505e-007    +1.7055106e-006
+7.4880000e+004    +3.4325953e-007    +1.6164593e-006
+7.5008000e+004    +3.4887188e-007    +1.6068595e-006
+7.5136000e+004    +3.4497864e-007    +1.6379787e-006
+7.5264000e+004    +3.4039030e-007    +1.8142397e-006
+7.5392000e+004    +3.2807532e-007    +1.7953532e-006
+7.5520000e+004    +3.3016616e-007    +1.7546334e-006
+7.5648000e+004    +3.5195592e-007    +1.7281474e-006
+7.5776000e+004    +3.7216003e-007    +1.7061437e-006
+7.5904000e+004    +3.5244975e-007    +1.6889167e-006
+7.6032000e+004    +3.3801459e-007    +1.7227501e-006
+7.6160000e+004    +3.5012323e-007    +1.7449430e-006
+7.6288000e+004    +3.3947700e-007    +2.4192000e-006
+7.6416000e+004    +3.2717639e-007    +9.6180720e-006
+7.6544000e+004    +3.4287908e-007    +9.7868842e-006
+7.6672000e+004    +3.4642630e-007    +2.5984925e-006
+7.6800000e+004    +3.4490100e-007    +1.7721028e-006
+7.6928000e+004    +3.5169944e-007    +1.9231843e-006
+7.7056000e+004    +3.6989465e-007    +1.8316929e-006
+7.7184000e+004    +3.5342745e-007    +1.8296729e-006
+7.7312000e+004    +3.3181641e-007    +1.7810268e-006
+7.7440000e+004    +3.6263498e-007    +1.8908771e-006
+7.7568000e+004    +5.1149829e-007    +1.7334893e-006
+7.7696000e+004    +8.2436685e-007    +1.6951103e-006
+7.7824000e+004    +5.1350941e-007    +1.8027606e-006
+7.7952000e+004    +3.4298563e-007    +1.6747736e-006
+7.8080000e+004    +3.3920242e-007    +1.7320720e-006
+7.8208000e+004    +3.6330809e-007    +1.7247297e-006
+7.8336000e+004    +3.7358885e-007    +1.6512271e-006
+7.8464000e+004    +3.5895252e-007    +1.6827214e-006
+7.8592000e+004    +3.5781849e-007    +1.7393137e-006
+7.8720000e+004    +3.3935925e-007    +1.7098249e-006
+7.8848000e+004    +3.5388757e-007    +1.6321621e-006
+7.8976000e+004    +3.5207034e-007    +1.7223283e-006
+7.9104000e+004    +3.3903001e-007    +1.7331544e-006
+7.9232000e+004    +3.5593143e-007    +1.8628682e-006
+7.9360000e+004    +4.5637844e-007    +1.8296648e-006
+7.9488000e+004    +6.1263040e-007    +1.7995233e-006
+7.9616000e+004    +4.6535635e-007    +1.7955721e-006
+7.9744000e+004    +3.7528181e-007    +1.7270339e-006
+7.9872000e+004    +3.4093227e-007    +1.8692360e-006
+8.0000000e+004    +3.2793596e-007    +1.7937533e-006
+8.0128000e+004    +3.5340378e-007    +1.8819110e-006
+8.0256000e+004    +3.6358904e-007    +1.9391014e-006
+8.0384000e+004    +3.6197741e-007    +1.8151183e-006
+8.0512000e+004    +3.5386969e-007    +1.7516729e-006
+8.0640000e+004    +3.5423278e-007    +1.8348551e-006
+8.0768000e+004    +3.5829771e-007    +1.7507385e-006
+8.0896000e+004    +3.6370602e-007    +1.7187372e-006
+8.1024000e+004    +3.6030056e-007    +1.8710573e-006
+8.1152000e+004    +3.4369435e-007    +1.9027480e-006
+8.1280000e+004    +3.7135675e-007    +1.8030061e-006
+8.1408000e+004    +3.6195954e-007    +1.7224190e-006
+8.1536000e+004    +3.6459602e-007    +1.7971362e-006
+8.1664000e+004    +3.6091149e-007    +1.8478670e-006
+8.1792000e+004    +3.4479802e-007    +1.8220289e-006
+8.1920000e+004    +3.7235827e-007    +1.8274102e-006
+8.2048000e+004    +3.5742033e-007    +1.6574010e-006
+8.2176000e+004    +3.5516433e-007    +1.9955589e-006
+8.2304000e+004    +3.6284567e-007    +1.9369629e-006
+8.2432000e+004    +3.6107556e-007    +1.9539334e-006
+8.2560000e+004    +3.4965149e-007    +1.8901424e-006
+8.2688000e+004    +3.4973019e-007    +1.7794904e-006
+8.2816000e+004    +3.5316560e-007    +1.8064658e-006
+8.2944000e+004    +3.5605612e-007    +1.7273677e-006
+8.3072000e+004    +3.5837718e-007    +1.9029424e-006
+8.3200000e+004    +3.5153460e-007    +1.9721003e-006
+8.3328000e+004    +3.6782998e-007    +1.9153956e-006
+8.3456000e+004    +3.5807079e-007    +1.7845050e-006
+8.3584000e+004    +3.5094956e-007    +1.8031842e-006
+8.3712000e+004    +3.4880560e-007    +1.9286547e-006
+8.3840000e+004    +3.6520299e-007    +1.7514730e-006
+8.3968000e+004    +3.6647350e-007    +1.8261908e-006
+8.4096000e+004    +3.5902073e-007    +1.9093254e-006
+8.4224000e+004    +3.4945037e-007    +1.8167791e-006
+8.4352000e+004    +3.5415189e-007    +1.9276956e-006
+8.4480000e+004    +3.8320633e-007    +1.8533002e-006
+8.4608000e+004    +3.7023838e-007    +1.6291918e-006
+8.4736000e+004    +3.6891473e-007    +1.7489517e-006
+8.4864000e+004    +3.6654632e-007    +1.9283138e-006
+8.4992000e+004    +3.5342433e-007    +1.9421591e-006
+8.5120000e+004    +3.5205295e-007    +1.9163845e-006
+8.5248000e+004    +3.6889367e-007    +1.8303741e-006
+8.5376000e+004    +3.6632022e-007    +1.7645986e-006
+8.5504000e+004    +3.5570326e-007    +1.7456060e-006
+8.5632000e+004    +3.5093606e-007    +1.7919010e-006
+8.5760000e+004    +3.4013550e-007    +1.7616561e-006
+8.5888000e+004    +3.5137407e-007    +1.9192335e-006
+8.6016000e+004    +3.5210550e-007    +1.9640427e-006
+8.6144000e+004    +3.5493198e-007    +1.8670290e-006
+8.6272000e+004    +3.4942926e-007    +1.9271497e-006
+8.6400000e+004    +3.6754901e-007    +1.9450270e-006
+8.6528000e+004    +3.7082299e-007    +1.9746485e-006
+8.6656000e+004    +3.6035081e-007    +1.9705897e-006
+8.6784000e+004    +3.7303508e-007    +1.9079928e-006
+8.6912000e+004    +3.4572562e-007    +1.9170936e-006
+8.7040000e+004    +3.4142974e-007    +1.9455226e-006
+8.7168000e+004    +3.6689502e-007    +1.9221352e-006
+8.7296000e+004    +3.5824067e-007    +1.9207196e-006
+8.7424000e+004    +3.3585340e-007    +1.7298958e-006
+8.7552000e+004    +3.3778531e-007    +1.6560931e-006
+8.7680000e+004    +3.6497210e-007    +1.7055424e-006
+8.7808000e+004    +5.5579181e-007    +1.6570007e-006
+8.7936000e+004    +7.0444327e-007    +1.7980973e-006
+8.8064000e+004    +3.8426427e-007    +1.8749462e-006
+8.8192000e+004    +3.3571405e-007    +1.8092030e-006
+8.8320000e+004    +3.4718863e-007    +1.9584159e-006
+8.8448000e+004    +3.3971040e-007    +1.8758275e-006
+8.8576000e+004    +3.1280013e-007    +1.8875520e-006
+8.8704000e+004    +3.2538588e-007    +1.8558924e-006
+8.8832000e+004    +3.3953665e-007    +1.9246058e-006
+8.8960000e+004    +3.4570778e-007    +1.8631014e-006
+8.9088000e+004    +3.3188491e-007    +1.8473436e-006
+8.9216000e+004    +3.3777454e-007    +1.9518557e-006
+8.9344000e+004    +3.4820181e-007    +1.9263607e-006
+8.9472000e+004    +3.3247576e-007    +1.9490953e-006
+8.9600000e+004    +3.2493321e-007    +1.8558598e-006
+8.9728000e+004    +3.3312509e-007    +1.9255147e-006
+8.9856000e+004    +3.2990852e-007    +1.9472686e-006
+8.9984000e+004    +3.4785597e-007    +1.9596571e-006
+9.0112000e+004    +3.2023786e-007    +1.8616025e-006
+9.0240000e+004    +3.1027645e-007    +1.9492879e-006
+9.0368000e+004    +3.2092774e-007    +1.9066335e-006
+9.0496000e+004    +3.1910943e-007    +1.8158818e-006
+9.0624000e+004    +3.2355936e-007    +1.8529319e-006
+9.0752000e+004    +2.9335203e-007    +1.9202682e-006
+9.0880000e+004    +2.9373138e-007    +1.9329455e-006
+9.1008000e+004    +3.0321954e-007    +1.9342872e-006
+9.1136000e+004    +3.0231533e-007    +1.8322561e-006
+9.1264000e+004    +3.0156875e-007    +1.6777791e-006
+9.1392000e+004    +3.2216022e-007    +1.6359513e-006
+9.1520000e+004    +3.1733171e-007    +1.6794231e-006
+9.1648000e+004    +3.0671322e-007    +1.7201133e-006
+9.1776000e+004    +3.0180294e-007    +1.7573442e-006
+9.1904000e+004    +3.1524254e-007    +1.7880490e-006
+9.2032000e+004    +3.2678793e-007    +1.7601287e-006
+9.2160000e+004    +3.1670206e-007    +1.8207551e-006
+9.2288000e+004    +3.1366713e-007    +1.7385519e-006
+9.2416000e+004    +3.1663703e-007    +1.8907505e-006
+9.2544000e+004    +3.1501349e-007    +1.9692466e-006
+9.2672000e+004    +3.1118327e-007    +1.9015221e-006
+9.2800000e+004    +3.1517402e-007    +1.8422332e-006
+9.2928000e+004    +3.2705498e-007    +1.9498530e-006
+9.3056000e+004    +3.1014292e-007    +1.9554573e-006
+9.3184000e+004    +3.0046124e-007    +1.9081519e-006
+9.3312000e+004    +3.0657384e-007    +1.8513722e-006
+9.3440000e+004    +3.0975090e-007    +1.8917326e-006
+9.3568000e+004    +3.1990155e-007    +1.9518770e-006
+9.3696000e+004    +3.0592017e-007    +1.7903317e-006
+9.3824000e+004    +2.9194533e-007    +1.7402612e-006
+9.3952000e+004    +2.9311187e-007    +1.9092856e-006
+9.4080000e+004    +2.8762082e-007    +1.8329946e-006
+9.4208000e+004    +3.1704718e-007    +1.8568727e-006
+9.4336000e+004    +3.8862646e-007    +1.7948979e-006
+9.4464000e+004    +9.2134184e-007    +1.8210070e-006
+9.4592000e+004    +7.9319284e-007    +1.8555827e-006
+9.4720000e+004    +3.4945037e-007    +1.9237227e-006
+9.4848000e+004    +4.0746227e-007    +1.8776428e-006
+9.4976000e+004    +3.0854082e-007    +1.7149125e-006
+9.5104000e+004    +2.7329980e-007    +1.8140146e-006
+9.5232000e+004    +2.7225903e-007    +1.8131245e-006
+9.5360000e+004    +2.7288212e-007    +2.0059122e-006
+9.5488000e+004    +2.9891342e-007    +1.7748347e-006
+9.5616000e+004    +3.0708082e-007    +1.7546084e-006
+9.5744000e+004    +3.1154974e-007    +1.7374508e-006
+9.5872000e+004    +3.0036460e-007    +1.6966037e-006
+9.6000000e+004    +3.1388487e-007    +1.7897381e-006
+9.6128000e+004    +2.9670565e-007    +1.8101806e-006
+9.6256000e+004    +2.7470685e-007    +1.7658720e-006
+9.6384000e+004    +2.9059032e-007    +1.9176957e-006
+9.6512000e+004    +3.1659462e-007    +1.9731986e-006
+9.6640000e+004    +3.3186413e-007    +1.9211498e-006
+9.6768000e+004    +3.2728201e-007    +1.8234718e-006
+9.6896000e+004    +2.8247823e-007    +1.7224909e-006
+9.7024000e+004    +2.8362248e-007    +1.7782833e-006
+9.7152000e+004    +2.7909107e-007    +1.8906301e-006
+9.7280000e+004    +3.0050413e-007    +1.9587405e-006
+9.7408000e+004    +3.3215869e-007    +1.8692544e-006
+9.7536000e+004    +3.5237159e-007    +1.8717334e-006
+9.7664000e+004    +4.0330644e-007    +1.9246270e-006
+9.7792000e+004    +4.6466505e-007    +1.8055774e-006
+9.7920000e+004    +5.5142090e-007    +1.8591127e-006
+9.8048000e+004    +6.8841086e-007    +1.8354496e-006
+9.8176000e+004    +8.9126814e-007    +1.7452514e-006
+9.8304000e+004    +1.0619661e-006    +1.7317220e-006
+9.8432000e+004    +1.2814489e-006    +1.7803072e-006
+9.8560000e+004    +1.4588464e-006    +1.7409988e-006
+9.8688000e+004    +1.4608981e-006    +1.8091752e-006
+9.8816000e+004    +1.3514123e-006    +1.7842131e-006
+9.8944000e+004    +1.0791221e-006    +1.7398312e-006
+9.9072000e+004    +8.7064149e-007    +1.9633526e-006
+9.9200000e+004    +1.0156931e-006    +1.9527324e-006
+9.9328000e+004    +1.2663447e-006    +1.7741937e-006
+9.9456000e+004    +1.2400824e-006    +1.7073430e-006
+9.9584000e+004    +9.8314615e-007    +1.7589348e-006
+9.9712000e+004    +9.9961142e-007    +1.6590250e-006
+9.9840000e+004    +1.2891018e-006    +1.6165125e-006
+9.9968000e+004    +1.2471772e-006    +1.6394829e-006
+1.0009600e+005    +1.1774744e-006    +1.6982866e-006
+1.0022400e+005    +1.3831223e-006    +1.7697539e-006
+1.0035200e+005    +1.4080983e-006    +1.9077036e-006
+1.0048000e+005    +1.3323843e-006    +1.8032931e-006
+1.0060800e+005    +1.4493645e-006    +1.7005443e-006
+1.0073600e+005    +1.3210731e-006    +1.8076463e-006
+1.0086400e+005    +1.3796292e-006    +1.8106398e-006
+1.0099200e+005    +1.3039361e-006    +1.8738677e-006
+1.0112000e+005    +1.3507967e-006    +1.8343435e-006
+1.0124800e+005    +1.2802058e-006    +1.9426218e-006
+1.0137600e+005    +1.3049544e-006    +1.8443097e-006
+1.0150400e+005    +1.2509212e-006    +1.8053079e-006
+1.0163200e+005    +1.2939230e-006    +1.6700142e-006
+1.0176000e+005    +1.2329765e-006    +1.7432808e-006
+1.0188800e+005    +1.2995226e-006    +1.7636844e-006
+1.0201600e+005    +1.1546007e-006    +1.6975390e-006
+1.0214400e+005    +1.3373748e-006    +1.6724656e-006
+1.0227200e+005    +1.2388399e-006    +1.8036317e-006
