# Comments from moku data file:% Moku:Phasemeter 
# 
# % Ch 1 - DC coupling, 50 Ohm impedance, 1 V range
# 
# % Ch 1 bandwidth = 1.0000000000e+04 (Hz)
# 
# % Acquisition rate: 1.2500000000e+05 Hz
# 
# % External 10 MHz clock
# 
# % Acquired 2020-05-14 T 08:02:35 -0700
# 
# % Time, Set frequency 1 (Hz), Frequency 1 (Hz), Phase 1 (cyc), I 1 (V), Q 1 (V)
# 
# #########################################################
# ASD calculated by mokuReadFreqNoise.py
# Frequency [Hz]         Freq ASD1 [Hz/rtHz]      Freq ASDlb1 [Hz/rtHz]    Freq ASDub1 [Hz/rtHz]    
# 
0.000000000000000000e+00 1.054351757996727628e+02 3.526228058978727375e+01 1.584994051130404102e+02
1.000000000000000056e-01 1.464267685708490774e+02 7.922650274669742032e+01 1.904404388918817119e+02
2.000000000000000111e-01 9.984185717728398402e+01 6.577854159594502903e+01 1.802421023258840478e+02
3.000000000000000444e-01 7.870842028016143388e+01 4.806809103490920165e+01 1.484345257662119195e+02
4.000000000000000222e-01 9.314629142205666312e+01 6.781042857850090400e+01 1.198852149596796153e+02
5.000000000000000000e-01 6.364885301050239974e+01 4.757162476796641215e+01 1.055537713046451955e+02
6.000000000000000888e-01 5.173178290337448004e+01 3.304539969390351928e+01 7.707823098295466480e+01
7.000000000000000666e-01 4.939756415805928924e+01 2.151235576920914383e+01 6.979638548616689775e+01
8.000000000000000444e-01 4.703477070436908036e+01 2.168856799401658364e+01 6.599617307246175812e+01
9.000000000000000222e-01 5.460515814725926020e+01 1.743964924201399569e+01 7.153007661859881239e+01
1.000000000000000000e+00 4.004794635088376964e+01 2.016356032435526657e+01 6.124238923528837830e+01
1.100000000000000089e+00 2.909911790197865500e+01 2.418949584072964853e+01 5.061262744783524425e+01
1.200000000000000178e+00 2.500538842238134407e+01 1.366771221631188560e+01 3.426155020832438680e+01
1.300000000000000044e+00 2.290099921530271843e+01 1.782675458904357058e+01 3.651309546917306648e+01
1.400000000000000133e+00 2.710310048366239499e+01 1.473591509336839955e+01 3.338663386635972330e+01
1.500000000000000000e+00 2.435812601817372425e+01 1.522888188150878896e+01 2.928093130183588855e+01
1.600000000000000089e+00 1.617429423773385011e+01 8.348069701668649145e+00 3.205433059768299842e+01
1.700000000000000178e+00 2.252181102892268783e+01 1.198947518772918919e+01 3.250168076737518419e+01
1.800000000000000044e+00 2.808709407884716214e+01 2.063197288481079639e+01 3.154309484980631240e+01
1.900000000000000133e+00 2.170916350610605861e+01 1.885149044431616261e+01 3.433471945983183815e+01
2.000000000000000000e+00 1.555434218323585682e+01 1.000936704641311437e+01 2.340656079768804076e+01
2.100000000000000089e+00 1.011483175556410785e+01 8.970445596095752094e+00 2.272286989894339371e+01
2.200000000000000178e+00 1.763610614340531058e+01 7.686995073794342659e+00 3.491310910902372200e+01
2.300000000000000266e+00 1.671548558883104008e+01 8.813445554764776091e+00 2.316640103646751569e+01
2.400000000000000355e+00 1.854279536272506590e+01 8.608962875127497583e+00 2.856349952096853784e+01
2.500000000000000000e+00 1.759646302164829024e+01 1.041314863145493419e+01 2.608697564176745232e+01
2.600000000000000089e+00 1.596642733221166566e+01 9.453294948971109335e+00 2.825440380773289206e+01
2.700000000000000178e+00 1.735339803729418406e+01 1.205937251830498447e+01 2.863006364621776356e+01
2.800000000000000266e+00 1.463808531923965361e+01 1.065590471820702945e+01 3.199802903353438666e+01
2.900000000000000355e+00 2.021556097373929006e+01 1.009542203634135049e+01 3.335652087691050127e+01
3.000000000000000000e+00 1.548111299780652317e+01 1.169839064410986929e+01 2.045242904601093770e+01
3.100000000000000089e+00 1.221455798336298493e+01 7.108343817091524741e+00 2.368338568810874634e+01
3.200000000000000178e+00 1.000691032958081728e+01 6.298953112636634266e+00 2.134949934061233634e+01
3.300000000000000266e+00 1.047934436765912025e+01 4.868756238543259229e+00 1.204330896408010965e+01
3.400000000000000355e+00 1.061954695840793228e+01 6.733146852419548800e+00 1.298852186746750803e+01
3.500000000000000000e+00 1.357551986792888243e+01 4.009155007828406170e+00 2.034988381022835924e+01
3.600000000000000089e+00 1.194143470567830789e+01 4.563958858392770601e+00 2.371584287954607362e+01
3.700000000000000178e+00 1.035647826274870553e+01 6.246300375707636299e+00 2.471150966510010605e+01
3.800000000000000266e+00 1.548197210516921096e+01 7.194096977184289088e+00 2.860142264819700486e+01
3.900000000000000355e+00 1.383625293913564391e+01 5.891950442600168536e+00 2.569396066947390977e+01
4.000000000000000000e+00 1.174462882426355925e+01 3.704392384779439329e+00 1.890522143248299969e+01
4.100000000000000533e+00 1.295754388095939369e+01 7.613162182162752423e+00 2.071785152857523116e+01
4.200000000000000178e+00 1.127593861109345674e+01 9.242125169440228660e+00 1.989718325463091730e+01
4.299999999999999822e+00 1.368805265241923053e+01 8.639817349068060537e+00 2.215308315133845340e+01
4.400000000000000355e+00 9.372655648743309698e+00 6.979223354558964587e+00 1.444890748631162403e+01
4.500000000000000000e+00 9.832708534242918574e+00 4.758942983838023721e+00 1.942187009090115524e+01
4.600000000000000533e+00 1.392748789530866205e+01 8.730198830375359265e+00 2.624475822409019443e+01
4.700000000000000178e+00 1.238932747975426629e+01 6.449699011006765126e+00 2.826816987790086344e+01
4.800000000000000711e+00 1.422885621218749463e+01 9.648675956138671239e+00 2.154935242337993273e+01
4.900000000000000355e+00 1.509257231492534501e+01 8.359563819127844297e+00 2.483832146715147005e+01
5.000000000000000000e+00 1.457456885164899063e+01 5.896994515489454969e+00 1.821034374205587980e+01
5.100000000000000533e+00 1.275627773636614393e+01 8.460950466421758520e+00 1.910020291857362551e+01
5.200000000000000178e+00 1.437037046062555667e+01 9.958474042072650079e+00 1.773143371471973495e+01
5.300000000000000711e+00 1.228123939081428695e+01 5.513098691714597877e+00 1.862365197973931430e+01
5.400000000000000355e+00 1.764049347818997404e+01 9.393954902189893374e+00 2.028121986135019483e+01
5.500000000000000000e+00 1.660267873390597515e+01 7.902050202203500184e+00 1.920508301478637136e+01
5.600000000000000533e+00 1.580914184585545890e+01 9.923295052427960172e+00 1.946017336945368470e+01
5.700000000000000178e+00 1.476022326035699805e+01 1.282593696612160805e+01 2.026451604678673846e+01
5.800000000000000711e+00 1.477572850880156530e+01 9.115485805341299042e+00 1.794068126075205072e+01
5.900000000000000355e+00 1.101405885684094699e+01 7.489191196528221184e+00 1.573055071004435490e+01
6.000000000000000000e+00 1.366828476763878797e+01 5.446040944975252707e+00 1.974354681654523702e+01
6.100000000000000533e+00 9.843812212343404866e+00 8.139370652513497006e+00 1.708163742255558759e+01
6.200000000000000178e+00 1.042630084347265473e+01 7.644029293930751479e+00 1.466377632808189979e+01
6.300000000000000711e+00 8.552774696061140602e+00 6.626392154143305291e+00 1.882790926388826236e+01
6.400000000000000355e+00 1.266388036877668277e+01 6.198101150710131790e+00 2.058830853929594085e+01
6.500000000000000000e+00 1.071261300403385874e+01 6.135348793422937597e+00 1.489948854387199617e+01
6.600000000000000533e+00 9.206943669184720846e+00 6.680249863227207818e+00 1.586867456978404078e+01
6.700000000000000178e+00 9.697667265194326092e+00 5.611541952529009336e+00 1.589764381098172841e+01
6.800000000000000711e+00 1.144386091867184696e+01 7.872074288080343152e+00 1.515583322008444789e+01
6.900000000000000355e+00 1.208138175592126906e+01 7.383272891673782645e+00 1.878440223083855543e+01
7.000000000000000000e+00 1.781511698590113824e+01 9.672746026059902746e+00 2.131905707374885850e+01
7.100000000000000533e+00 1.658654101477307208e+01 6.747958021990954514e+00 2.375626798058999256e+01
7.200000000000000178e+00 1.324520368124531089e+01 8.881739294583770317e+00 2.098981953873790829e+01
7.300000000000000711e+00 7.582817064081468494e+00 5.182758144193718053e+00 1.862424033586952632e+01
7.400000000000000355e+00 6.448914306373717764e+00 5.401186084180265468e+00 1.371970316953552427e+01
7.500000000000000000e+00 9.946829179033176871e+00 6.305894175570474935e+00 1.566571621370594158e+01
7.600000000000000533e+00 1.072712195029880355e+01 6.907832788117254985e+00 1.681313936549929267e+01
7.700000000000000178e+00 1.273461607383578276e+01 9.793956812696194447e+00 1.557578670588628178e+01
7.800000000000000711e+00 1.163622211121773375e+01 8.990535913883810792e+00 1.691644371606429686e+01
7.900000000000000355e+00 6.953069161757252203e+00 5.122988764154003505e+00 1.421726423452146371e+01
8.000000000000000000e+00 9.855562697712496600e+00 2.690206648945384416e+00 1.725439416043525043e+01
8.099999999999999645e+00 1.070074568782240121e+01 6.422751148451180114e+00 1.786775234817754665e+01
8.200000000000001066e+00 1.504058159071110090e+01 1.168705866444240193e+01 2.368156523555022019e+01
8.300000000000000711e+00 1.442856533271076813e+01 1.008469252853367593e+01 1.883185681434058978e+01
8.400000000000000355e+00 1.103447920704753038e+01 6.282422631923752832e+00 1.469991128194148189e+01
8.500000000000000000e+00 7.259825919551126105e+00 5.834441603247352504e+00 1.505923699014065242e+01
8.599999999999999645e+00 8.671661532067982847e+00 7.102162921961976849e+00 1.641913197816136361e+01
8.700000000000001066e+00 1.263186839204915302e+01 4.991863333921255474e+00 1.882014560040799367e+01
8.800000000000000711e+00 7.314397646718014734e+00 4.325734247717669234e+00 2.062410348311321329e+01
8.900000000000000355e+00 1.204897973159506108e+01 9.080895953723624459e+00 1.694620441246184939e+01
9.000000000000000000e+00 6.800064418039264424e+00 3.218751011707724707e+00 1.254826519774715443e+01
9.099999999999999645e+00 7.454469328426453600e+00 5.742762140952429206e+00 1.361700413278470201e+01
9.200000000000001066e+00 7.489389504258280539e+00 5.728384977430492242e+00 1.459307294382782771e+01
9.300000000000000711e+00 8.806040992841804638e+00 6.928843571955453307e+00 1.615853968785987149e+01
9.400000000000000355e+00 1.198304618356976015e+01 3.960643261374169555e+00 1.535487187691356858e+01
9.500000000000000000e+00 1.029194036376295784e+01 4.870471362991156461e+00 1.699550412541132971e+01
9.600000000000001421e+00 9.358487027291722882e+00 6.015952440612625018e+00 1.639090398227861911e+01
9.700000000000001066e+00 1.344903250305229214e+01 5.039522160701021214e+00 1.704275451256369678e+01
9.800000000000000711e+00 1.627151185794788901e+01 7.866739054498693484e+00 2.074080297548493945e+01
9.900000000000000355e+00 9.154594506596829717e+00 6.750668140969932729e+00 1.607033784405111732e+01
1.000000000000000000e+01 1.080244234477489584e+01 4.214646457745553576e+00 1.760302743399008563e+01
1.100000000000000000e+01 1.119139122598707203e+01 5.131951431216568160e+00 1.781847363006930607e+01
1.200000000000000000e+01 1.090657158837947094e+01 3.919016353966016997e+00 1.692684247673976827e+01
1.300000000000000000e+01 9.960068463262709670e+00 3.991130278066785220e+00 1.650810867881822830e+01
1.400000000000000000e+01 9.705924644250533362e+00 3.768395014900987494e+00 1.649419024470623185e+01
1.500000000000000000e+01 9.217937236478617180e+00 4.392479939950360901e+00 1.690384478392996215e+01
1.600000000000000000e+01 8.201921791489430902e+00 2.887604108217916909e+00 1.540297961763234724e+01
1.700000000000000000e+01 6.528916967410727246e+00 3.123191605591418174e+00 1.343836681464636129e+01
1.800000000000000000e+01 7.183294058966092521e+00 2.406878373181328801e+00 1.210139302090738944e+01
1.900000000000000000e+01 6.951606865645797662e+00 2.457397607843204490e+00 1.334144229059140052e+01
2.000000000000000000e+01 7.047874929933825250e+00 2.220859624700995294e+00 1.305127464038622698e+01
2.100000000000000000e+01 7.654421988787084352e+00 2.295348289404706144e+00 1.481734395105820923e+01
2.200000000000000000e+01 5.411222361811771187e+00 1.846782768606274994e+00 1.355400572109723001e+01
2.300000000000000000e+01 4.268226245135624985e+00 1.512314743023543295e+00 1.235656131592160278e+01
2.400000000000000000e+01 4.209153303212692876e+00 1.365209485158974667e+00 1.121874969019946455e+01
2.500000000000000000e+01 3.798943902199913847e+00 1.226401427502358921e+00 1.029955919449792212e+01
2.600000000000000000e+01 4.242997418676058174e+00 8.979607085949030676e-01 1.103957330155428984e+01
2.700000000000000000e+01 2.856872871700430139e+00 7.549112609465770118e-01 1.052486878329750830e+01
2.800000000000000000e+01 3.108081840400366946e+00 6.565163252529830906e-01 1.079276246878837675e+01
2.900000000000000000e+01 2.046097550605266324e+00 5.588788521159310241e-01 1.225394625879642341e+01
3.000000000000000000e+01 1.833260367860871209e+00 4.481893393417624716e-01 8.337039790247050774e+00
3.100000000000000000e+01 1.589869847167887373e+00 5.028161432367544981e-01 8.582506180481717095e+00
3.200000000000000000e+01 1.389797951421199107e+00 4.574168044613640127e-01 8.325103527877285359e+00
3.300000000000000000e+01 1.366709934681644478e+00 4.082806783016634800e-01 7.868909852841833974e+00
3.400000000000000000e+01 1.180936042113037487e+00 3.157718658177102178e-01 7.015962452891369772e+00
3.500000000000000000e+01 9.512441217587953579e-01 3.472428625064465924e-01 6.800381712474298013e+00
3.600000000000000000e+01 8.691992849417887745e-01 2.774589744657837698e-01 6.191394725077686623e+00
3.700000000000000000e+01 7.813762696606815217e-01 2.699255670663600060e-01 6.135168356987368732e+00
3.800000000000000000e+01 6.939961324617595073e-01 2.412129869823967654e-01 6.723951615076493304e+00
3.900000000000000000e+01 6.229027259234893865e-01 2.639773904343934996e-01 5.385699945769743202e+00
4.000000000000000000e+01 5.540023171436990745e-01 2.240558231288926894e-01 6.874339038939827340e+00
4.100000000000000000e+01 5.215062079924610572e-01 2.232438954945212273e-01 4.949813203381360438e+00
4.200000000000000000e+01 4.818677272827094904e-01 1.707818230767148004e-01 3.225355874601172790e+00
4.300000000000000000e+01 4.307814215492075105e-01 1.921730814077121652e-01 3.012068325494441368e+00
4.400000000000000000e+01 3.762481883223749990e-01 1.579087428684778915e-01 2.973207211386144522e+00
4.500000000000000000e+01 3.557102990301550527e-01 1.236203942835056024e-01 2.859658711855238789e+00
4.600000000000000000e+01 3.648351221916001363e-01 1.453782672456161440e-01 2.701937879120733133e+00
4.700000000000000000e+01 3.056677784313648338e-01 1.432614312027986614e-01 2.236539710696799688e+00
4.800000000000000000e+01 3.168283698642528345e-01 1.094753714126014549e-01 1.836779543255566249e+00
4.900000000000000000e+01 2.847197471754968068e-01 1.297474633657046406e-01 1.301457849523258936e+00
5.000000000000000000e+01 2.667817451969261011e-01 1.256844632676211437e-01 1.094286597928557425e+00
5.100000000000000000e+01 2.383325485793274523e-01 1.242646040812347280e-01 1.049576521919474814e+00
5.200000000000000000e+01 3.135509273251040341e-01 1.414969136425021368e-01 1.112579336381016804e+00
5.300000000000000000e+01 2.822658613828966101e-01 1.190957287634015344e-01 1.108617835717879752e+00
5.400000000000000000e+01 2.654044224401921337e-01 9.158012171993966388e-02 6.996169372098686168e-01
5.500000000000000000e+01 2.298794320081761766e-01 1.141287736045018542e-01 6.149802841459696134e-01
5.600000000000000000e+01 1.988498195650772737e-01 8.550800719413091666e-02 4.850071109394208935e-01
5.700000000000000000e+01 1.883362711918807886e-01 1.083974068817076669e-01 4.331834522491401773e-01
5.800000000000000000e+01 1.948344607363554637e-01 1.035209112558454769e-01 3.408395485249806067e-01
5.900000000000000000e+01 1.856648411477840321e-01 8.509523940998502123e-02 3.731065510831972354e-01
6.000000000000000000e+01 1.956464339684952924e-01 9.566130801733034594e-02 3.831548879611962888e-01
6.100000000000000000e+01 1.711174357295881243e-01 9.522471084628311710e-02 3.476964171300261364e-01
6.200000000000000000e+01 1.715218533785739241e-01 8.459842739345892204e-02 3.331069790301498523e-01
6.300000000000000000e+01 1.688353141784763589e-01 9.555956329463090315e-02 2.981166058709036060e-01
6.400000000000000000e+01 1.519184822928289214e-01 9.502744166121356029e-02 2.686973492379425843e-01
6.500000000000000000e+01 1.380571951190008306e-01 7.140264527204259748e-02 2.677492126493401514e-01
6.600000000000000000e+01 1.297857711871382991e-01 6.437208171808356250e-02 2.199637006825557461e-01
6.700000000000000000e+01 1.358684261666714410e-01 5.927607283860327619e-02 2.688327410325929701e-01
6.800000000000000000e+01 1.272990920619345712e-01 6.631997641079583061e-02 2.618191761370045612e-01
6.900000000000000000e+01 1.170967469498550295e-01 5.956827411727477761e-02 2.099613683850077572e-01
7.000000000000000000e+01 1.302203992959910239e-01 5.675329804962421509e-02 2.290157857046719037e-01
7.100000000000000000e+01 1.196619442544031020e-01 6.221477059642611246e-02 1.910681780094460047e-01
7.200000000000000000e+01 1.021284488272836827e-01 4.673982024132827123e-02 1.806327628310193945e-01
7.300000000000000000e+01 1.038048573451694351e-01 5.035618307726483917e-02 1.914174769108477892e-01
7.400000000000000000e+01 1.088750674692129661e-01 5.534816391249518935e-02 1.971192673620218438e-01
7.500000000000000000e+01 1.075910459263710733e-01 5.180298022987432638e-02 1.734315295768769916e-01
7.600000000000000000e+01 9.999776591731324160e-02 5.047656183905627203e-02 1.458049733205475373e-01
7.700000000000000000e+01 9.346791619344524404e-02 4.503474940919724445e-02 1.619524244753270947e-01
7.800000000000000000e+01 9.823162738601493027e-02 5.061643896635732026e-02 1.502263980972647073e-01
7.900000000000000000e+01 9.044728653028240306e-02 5.106055931182713892e-02 1.627909130588674480e-01
8.000000000000000000e+01 1.072121323259127706e-01 5.928570874011452468e-02 1.831585248492466622e-01
8.100000000000000000e+01 1.136625869663543537e-01 5.009742596689101268e-02 1.774952190327153956e-01
8.200000000000000000e+01 9.051040879452870724e-02 3.674830717182964168e-02 1.663627193358850065e-01
8.300000000000000000e+01 9.700517334989276763e-02 4.471431656386300191e-02 1.770032603966002205e-01
8.400000000000000000e+01 9.645331283342567508e-02 4.845312791224947596e-02 1.678279802501489171e-01
8.500000000000000000e+01 8.359723025160925580e-02 3.947740094326498972e-02 1.634942473711877287e-01
8.600000000000000000e+01 9.870560641984886530e-02 4.848852319143446415e-02 1.567854895828385831e-01
8.700000000000000000e+01 9.678084836943900982e-02 4.538993249343419023e-02 1.727450750621641051e-01
8.800000000000000000e+01 8.379521065185634165e-02 4.915818468441388034e-02 1.625705281802845292e-01
8.900000000000000000e+01 8.920793853648081861e-02 3.797543101175717556e-02 1.618394323383266220e-01
9.000000000000000000e+01 9.142000820957628393e-02 4.892639283456176602e-02 1.621537472947013614e-01
9.100000000000000000e+01 9.003030564854447304e-02 4.297357668735416608e-02 1.605008231832076027e-01
9.200000000000000000e+01 8.146053416275070291e-02 4.544742792780350621e-02 1.652346643067532372e-01
9.300000000000000000e+01 9.066333685078592497e-02 4.318994578393457046e-02 1.886731347539000736e-01
9.400000000000000000e+01 1.026516838747237592e-01 4.718550088363310940e-02 1.828374153929777923e-01
9.500000000000000000e+01 1.022113137774614405e-01 5.402284405298747594e-02 2.022244039255964854e-01
9.600000000000000000e+01 1.087617586344458293e-01 4.589402251091879992e-02 1.908179476963274557e-01
9.700000000000000000e+01 1.012852530171695353e-01 3.842224814413487677e-02 1.940185660808851631e-01
9.800000000000000000e+01 9.475672262233160448e-02 4.610571372614395008e-02 2.009922944396534406e-01
9.900000000000000000e+01 1.136516494948887346e-01 4.786105051532536792e-02 1.917034745183273658e-01
1.000000000000000000e+02 1.262129767579888151e-01 5.904813343591166358e-02 2.219559326890850337e-01
1.100000000000000000e+02 1.589429195324412181e-01 8.239458650457706645e-02 2.628972401597621800e-01
1.200000000000000000e+02 1.434296375742128427e-01 6.877748448056240915e-02 2.973830302276527782e-01
1.300000000000000000e+02 1.739753537825931007e-01 8.253066860255726944e-02 2.883170139258260378e-01
1.400000000000000000e+02 1.540726143580506691e-01 7.155585301212466498e-02 2.587547258089755164e-01
1.500000000000000000e+02 1.161268576471576330e-01 5.133681017505698635e-02 2.331580224788082079e-01
1.600000000000000000e+02 1.147953364240407170e-01 5.323139684791093618e-02 2.051823431109257301e-01
1.700000000000000000e+02 7.834756779351655098e-02 3.275062699813398315e-02 1.533633678788402233e-01
1.800000000000000000e+02 4.945060042522127219e-02 2.411886822851596821e-02 1.021571639070884274e-01
1.900000000000000000e+02 3.942962015072190574e-02 2.027956672476447300e-02 7.151452749272436960e-02
2.000000000000000000e+02 4.312977756272325797e-02 2.140829506212323444e-02 7.788861935479444998e-02
2.100000000000000000e+02 5.223917718189212411e-02 2.695422463317293654e-02 8.699041172061945659e-02
2.200000000000000000e+02 5.394859224073049464e-02 2.472687484522819584e-02 1.014454754253229091e-01
2.300000000000000000e+02 5.929951189187237376e-02 2.759405488712600094e-02 1.042954372474825669e-01
2.400000000000000000e+02 6.742131399220806232e-02 3.565242069077175641e-02 1.089711797886202260e-01
2.500000000000000000e+02 5.270452123389498394e-02 2.669708519377212916e-02 1.037274359169502447e-01
2.600000000000000000e+02 9.020797949316665398e-02 4.435971613284480503e-02 1.609647877877722344e-01
2.700000000000000000e+02 1.139505887740185630e-01 5.018352058533388782e-02 2.307545740908757137e-01
2.800000000000000000e+02 1.124418019730136636e-01 5.206166151106646212e-02 2.145339904384578888e-01
2.900000000000000000e+02 7.637233109318675162e-02 3.675800167318975936e-02 1.349126744374398168e-01
3.000000000000000000e+02 4.187429311710186980e-02 2.077180554074995258e-02 7.485762321377693873e-02
3.100000000000000000e+02 3.364616630612200093e-02 1.628105006774778138e-02 5.472481913950244525e-02
3.200000000000000000e+02 3.215454518781603321e-02 1.606444075920383796e-02 5.279256543510684602e-02
3.300000000000000000e+02 3.279666721200894669e-02 1.677526490553706701e-02 5.169906986182588871e-02
3.400000000000000000e+02 3.360415944815851180e-02 1.684795740792035396e-02 5.233150476002380175e-02
3.500000000000000000e+02 3.245484418966631396e-02 1.683163094800742970e-02 5.259019801840920938e-02
3.600000000000000000e+02 3.040579981200041554e-02 1.556968554981844922e-02 5.175083166882746971e-02
3.700000000000000000e+02 3.035486364565369993e-02 1.625661058836474007e-02 5.066230474714596838e-02
3.800000000000000000e+02 3.400917367516344270e-02 1.722553056218782686e-02 5.664203035059964253e-02
3.900000000000000000e+02 3.945861512927031217e-02 1.813308943608614443e-02 6.427558723464762980e-02
4.000000000000000000e+02 3.838898609722628946e-02 1.897182283264750580e-02 6.269075731399570417e-02
4.100000000000000000e+02 3.555662571378710030e-02 1.786330052538165000e-02 5.697281615879255107e-02
4.200000000000000000e+02 3.982216845318759663e-02 1.991460467843389134e-02 6.411942399079784138e-02
4.300000000000000000e+02 3.950726125480011341e-02 2.028046220502266461e-02 6.325684454885517616e-02
4.400000000000000000e+02 3.511395286641959268e-02 1.777670360241194805e-02 5.804781452257262719e-02
4.500000000000000000e+02 3.207570169787302833e-02 1.627941555859339570e-02 5.336326272309173391e-02
4.600000000000000000e+02 3.006028265935421773e-02 1.506602785347384114e-02 4.805089625875928055e-02
4.700000000000000000e+02 3.058853455350988085e-02 1.572034625017840886e-02 5.050761439082360887e-02
4.800000000000000000e+02 3.811428088197853226e-02 2.014998607539914000e-02 5.721541470284093739e-02
4.900000000000000000e+02 2.891714584065219543e-02 1.508743582209204001e-02 4.889495468550689172e-02
5.000000000000000000e+02 2.563443775010374945e-02 1.369315930807802305e-02 4.312695330686325268e-02
5.100000000000000000e+02 2.635965590565726713e-02 1.311930809920211667e-02 4.307433277566974361e-02
5.200000000000000000e+02 2.670637505721485186e-02 1.332831638451463692e-02 4.311221982972839040e-02
5.300000000000000000e+02 2.986843460913495008e-02 1.417177373328324178e-02 4.832499128750231826e-02
5.400000000000000000e+02 3.250731611759999362e-02 1.661130357010326408e-02 5.316871057544254181e-02
5.500000000000000000e+02 3.044666917813484974e-02 1.543575843007044708e-02 4.958957941578580331e-02
5.600000000000000000e+02 3.208197189957037038e-02 1.612786276985795145e-02 5.267079519592030024e-02
5.700000000000000000e+02 3.564299355083651311e-02 1.862748221220815459e-02 5.816288576190097037e-02
5.800000000000000000e+02 3.316545615340245334e-02 1.733038770816147656e-02 5.631875673554780776e-02
5.900000000000000000e+02 2.955706863151951955e-02 1.543449782192391796e-02 4.891905925058172289e-02
6.000000000000000000e+02 3.221676259184513141e-02 1.598581773769957790e-02 5.307755424361285806e-02
6.100000000000000000e+02 3.001468409300565507e-02 1.459347668004893316e-02 4.897450948824464551e-02
6.200000000000000000e+02 5.468996663081544113e-02 2.728293090750504718e-02 8.566502150781649116e-02
6.300000000000000000e+02 2.078585944771260685e-01 1.125838158312060661e-01 3.228073605298616422e-01
6.400000000000000000e+02 2.027632707196099504e-01 1.048304013056629153e-01 3.081621557294031422e-01
6.500000000000000000e+02 9.791006943149677122e-02 4.789371832390303813e-02 1.562583640037548405e-01
6.600000000000000000e+02 1.096570959859343303e-01 5.474230817425554396e-02 1.822684180893490435e-01
6.700000000000000000e+02 8.913187834265914877e-02 4.654561861503340309e-02 1.458211070366047524e-01
6.800000000000000000e+02 7.643004978708990704e-02 3.817603393538861883e-02 1.212482083032592611e-01
6.900000000000000000e+02 6.610690378029188130e-02 3.388869280900252967e-02 1.073659097671325197e-01
7.000000000000000000e+02 4.730632858766414123e-02 2.307944077081194520e-02 7.987825375899748614e-02
7.100000000000000000e+02 4.207815639470318531e-02 2.146100080466322585e-02 6.841117382175479489e-02
7.200000000000000000e+02 6.256706272304275729e-02 3.226012009330238295e-02 9.929113510103468321e-02
7.300000000000000000e+02 4.932540517348910775e-02 2.443808777548040281e-02 7.851728990378094297e-02
7.400000000000000000e+02 2.553139222220343271e-02 1.233813738634200775e-02 4.273343544906264141e-02
7.500000000000000000e+02 2.564428570564584661e-02 1.329826383887328274e-02 4.190952835077946942e-02
7.600000000000000000e+02 2.851468845009774364e-02 1.463910465688533780e-02 4.690113248708609184e-02
7.700000000000000000e+02 3.333684177225242073e-02 1.559523182667616088e-02 5.427023297322254580e-02
7.800000000000000000e+02 4.467042006159230999e-02 2.384732093287304441e-02 7.443443242274362659e-02
7.900000000000000000e+02 8.703978388997422877e-02 4.280189805130855951e-02 1.425062353154247785e-01
8.000000000000000000e+02 1.778278329587390794e-01 8.825589059167504580e-02 2.826707493380157254e-01
8.100000000000000000e+02 1.874246681014578864e-01 9.681089360557268431e-02 2.887176380601749748e-01
8.200000000000000000e+02 1.207446644032084265e-01 5.945407063272287185e-02 2.072829229943575768e-01
8.300000000000000000e+02 1.397969607499293110e-01 6.860799781001111763e-02 2.232178156791861656e-01
8.400000000000000000e+02 3.607943748065527423e-01 2.308809019799220319e-01 4.734258548024795621e-01
8.500000000000000000e+02 3.538433577753927195e-01 2.059424673674929152e-01 5.229884078169488859e-01
8.600000000000000000e+02 2.060105976268769012e-01 1.065017507251388856e-01 3.340987020030883881e-01
8.700000000000000000e+02 1.465846677454006597e-01 7.399000890624263249e-02 2.396524316638086460e-01
8.800000000000000000e+02 8.584386748235962872e-02 4.235365925008850035e-02 1.383861762298442266e-01
8.900000000000000000e+02 5.903582068672728889e-02 2.770330392656134011e-02 9.591082901437440744e-02
9.000000000000000000e+02 6.175014479864968792e-02 3.050311821568777934e-02 1.008592763913505053e-01
9.100000000000000000e+02 7.594176304923752618e-02 3.772994770413348742e-02 1.230277372894991172e-01
9.200000000000000000e+02 6.477198623637182850e-02 3.290070596816949133e-02 1.074502044301981346e-01
9.300000000000000000e+02 4.773413479177542051e-02 2.316602919031153854e-02 7.690510529052560496e-02
9.400000000000000000e+02 3.972658610040565030e-02 2.102625664076926762e-02 6.612526412329344794e-02
9.500000000000000000e+02 3.696351273397959630e-02 1.755982671783421628e-02 6.108480349298871931e-02
9.600000000000000000e+02 4.297699943709887282e-02 2.196153523015687350e-02 7.015655420562338929e-02
9.700000000000000000e+02 4.911844909648304530e-02 2.395138428810494879e-02 8.059087239445555939e-02
9.800000000000000000e+02 5.465772071271202126e-02 2.612923624289660227e-02 9.187082481093412911e-02
9.900000000000000000e+02 5.966424584494853939e-02 2.929347748287027681e-02 1.031027697922901748e-01
1.000000000000000000e+03 8.634575623511839271e-02 4.300020190875694648e-02 1.413599373193784314e-01
1.100000000000000000e+03 7.655224620639579369e-02 3.797363950356955759e-02 1.231402035551175944e-01
1.200000000000000000e+03 5.762277879876154946e-02 2.840591939003996036e-02 9.403469862148824965e-02
1.300000000000000000e+03 4.490710729252254951e-02 2.248423566095833145e-02 7.334566647647518256e-02
1.400000000000000000e+03 3.613410174942994352e-02 1.784044610245074172e-02 5.945241235786027922e-02
1.500000000000000000e+03 4.057256209797007601e-02 2.027961596209219494e-02 6.705270665949443487e-02
1.600000000000000000e+03 3.826744839096270223e-02 1.886523503537879121e-02 6.207708861396016992e-02
1.700000000000000000e+03 2.742297089956958686e-02 1.380216201131249064e-02 4.488872827073445149e-02
1.800000000000000000e+03 2.556603313233516209e-02 1.284467490486788759e-02 4.138455076128785132e-02
1.900000000000000000e+03 2.568042917374677159e-02 1.251911741385021773e-02 4.214585285048531166e-02
2.000000000000000000e+03 2.587472922513310222e-02 1.256288258305463153e-02 4.200287036037269467e-02
2.100000000000000000e+03 2.583243800011655877e-02 1.287820644572638430e-02 4.240995216220213443e-02
2.200000000000000000e+03 2.568195224119371178e-02 1.265282699220041281e-02 4.209472873134138121e-02
2.300000000000000000e+03 2.547556024392846896e-02 1.291526963819450424e-02 4.178467449702651104e-02
2.400000000000000000e+03 2.555565012766487093e-02 1.294524184827826850e-02 4.194431102948309453e-02
2.500000000000000000e+03 2.589473994352944550e-02 1.277193572615964272e-02 4.250543517027380314e-02
2.600000000000000000e+03 2.570190960738998054e-02 1.273601101645870960e-02 4.209008309114819352e-02
2.700000000000000000e+03 2.603940015455288512e-02 1.277982466675314788e-02 4.246173801489369626e-02
2.800000000000000000e+03 2.605405382800701081e-02 1.308730447525388932e-02 4.321254416797418174e-02
2.900000000000000000e+03 2.643026636114528816e-02 1.288314736834426585e-02 4.347633093422614142e-02
3.000000000000000000e+03 2.701073445475534601e-02 1.325117075740008324e-02 4.461868321786915254e-02
3.100000000000000000e+03 2.746746186026099296e-02 1.373845204084213345e-02 4.533855540542562623e-02
3.200000000000000000e+03 2.867309451461203668e-02 1.416777564041671149e-02 4.708217534266391502e-02
3.300000000000000000e+03 3.294756987654831604e-02 1.630548438546958884e-02 5.347563234779548896e-02
3.400000000000000000e+03 3.378471720786228871e-02 1.637098170774314507e-02 5.448816337077173888e-02
3.500000000000000000e+03 3.133936822486372425e-02 1.534168359137824504e-02 5.154976811503387407e-02
3.600000000000000000e+03 3.591293018373300366e-02 1.771932543547551780e-02 5.818106021750751866e-02
3.700000000000000000e+03 4.575080330360643821e-02 2.451897556863388838e-02 6.846613540230372941e-02
3.800000000000000000e+03 3.578229932031769256e-02 1.780677022455613365e-02 5.829089549878163634e-02
3.900000000000000000e+03 2.910415063668624416e-02 1.427646818040885675e-02 4.762935611556472215e-02
4.000000000000000000e+03 2.850030337701568023e-02 1.392455724971085503e-02 4.723436228422655397e-02
4.100000000000000000e+03 2.858485539971064235e-02 1.409682986669337675e-02 4.719741165546676581e-02
4.200000000000000000e+03 2.881490626799182095e-02 1.452454936509614374e-02 4.735270969394396456e-02
4.300000000000000000e+03 2.898128684762300497e-02 1.422111302753926998e-02 4.808003645669903237e-02
4.400000000000000000e+03 2.952170321073247991e-02 1.465966346677070875e-02 4.768612188153210224e-02
4.500000000000000000e+03 2.931301637176116776e-02 1.469359525214622084e-02 4.829219350541334721e-02
4.600000000000000000e+03 2.992092788293814962e-02 1.487674744134704838e-02 4.911315901205199480e-02
4.700000000000000000e+03 3.197072238658306420e-02 1.592689115082550344e-02 5.303871825650437882e-02
4.800000000000000000e+03 4.676720434747102390e-02 2.225282835473494855e-02 8.721080892787716476e-02
4.900000000000000000e+03 8.662887037174529792e-02 4.819429610209957637e-02 1.199111485234666402e-01
5.000000000000000000e+03 7.770845537817486215e-02 3.686017557265086619e-02 1.162943347869752619e-01
5.100000000000000000e+03 3.961112484626381353e-02 1.915788744968433682e-02 7.208007822395752495e-02
5.200000000000000000e+03 3.245885958600430721e-02 1.618009993930186532e-02 5.377783778327607789e-02
5.300000000000000000e+03 3.236717267184310853e-02 1.646873578324362097e-02 5.335560121614051077e-02
5.400000000000000000e+03 3.298049508710804850e-02 1.635293929517592226e-02 5.345904599794589623e-02
5.500000000000000000e+03 3.296846939164842921e-02 1.643130849672531230e-02 5.373973566552774084e-02
5.600000000000000000e+03 3.328722535850305725e-02 1.704921963327012471e-02 5.457000336911792954e-02
5.700000000000000000e+03 3.388453413618327387e-02 1.702768088655891646e-02 5.548745034545832927e-02
5.800000000000000000e+03 3.432385935031174312e-02 1.717457933428155961e-02 5.602390134376779990e-02
5.900000000000000000e+03 3.454495024351300625e-02 1.720364956481044288e-02 5.716430071923011419e-02
6.000000000000000000e+03 3.549339258554491672e-02 1.748077260533300453e-02 5.789297903441600890e-02
6.100000000000000000e+03 3.666311469761504571e-02 1.823821050627022142e-02 5.959645758947343386e-02
6.200000000000000000e+03 3.663184188199436475e-02 1.839293200272415149e-02 5.972305442335147652e-02
6.300000000000000000e+03 3.641489310521619366e-02 1.827276763025577691e-02 5.961939441018728608e-02
6.400000000000000000e+03 3.689065405067439019e-02 1.814902724947024815e-02 6.007259645363742517e-02
6.500000000000000000e+03 3.716042209606956748e-02 1.884575045182612651e-02 6.066738964448262911e-02
6.600000000000000000e+03 3.756048033717771656e-02 1.882316303347648240e-02 6.102550248922916643e-02
6.700000000000000000e+03 3.814251249680077060e-02 1.922138722005855768e-02 6.244549049415917819e-02
6.800000000000000000e+03 3.859929419597653982e-02 1.940545910706679977e-02 6.330530128381069155e-02
6.900000000000000000e+03 3.941987194971104114e-02 1.927515177955040418e-02 6.363854474165009378e-02
7.000000000000000000e+03 3.962949621672921113e-02 1.959642844298896056e-02 6.532021559729705995e-02
7.100000000000000000e+03 4.154376594107316717e-02 2.057310194323859129e-02 6.912675609647508934e-02
7.200000000000000000e+03 4.873611219703901515e-02 2.329485746420990877e-02 8.784006861356369322e-02
7.300000000000000000e+03 7.096594703453333597e-02 3.216499084257944813e-02 1.220286854344877076e-01
7.400000000000000000e+03 9.002538978409993509e-02 4.293838414551869043e-02 1.367679824681125034e-01
7.500000000000000000e+03 7.249129675594676026e-02 3.290165064164830844e-02 1.267448266445670713e-01
7.600000000000000000e+03 5.032018887501297361e-02 2.417790913397501948e-02 9.046756876496245270e-02
7.700000000000000000e+03 4.468153221859479801e-02 2.209347115531796329e-02 7.352518508152489085e-02
7.800000000000000000e+03 4.371139771273963026e-02 2.161941414959585653e-02 7.216417255280861698e-02
7.900000000000000000e+03 4.429123657802291197e-02 2.191048074327257150e-02 7.302529152280484714e-02
8.000000000000000000e+03 4.533928521088662761e-02 2.216840493246878194e-02 7.398824989749770709e-02
8.100000000000000000e+03 4.596243845863522137e-02 2.265217811329828940e-02 7.518507483363190413e-02
8.200000000000000000e+03 4.747739472382895426e-02 2.330269382422779992e-02 7.714938892056338871e-02
8.300000000000000000e+03 5.007880071121444121e-02 2.447652470067820246e-02 8.679252768615045022e-02
8.400000000000000000e+03 6.095612510451461213e-02 2.905380342683120190e-02 1.489537914301894139e-01
8.500000000000000000e+03 1.055769414801822764e-01 3.934928715946622857e-02 2.922921275339326885e-01
8.600000000000000000e+03 2.104704565559065155e-01 6.272521856461382717e-02 3.252129349833500216e-01
8.700000000000000000e+03 1.916964107601541178e-01 5.364196266730429652e-02 3.238488317534281569e-01
8.800000000000000000e+03 8.530051287732842713e-02 3.595385659656104987e-02 2.660149486507115690e-01
8.900000000000000000e+03 5.930914233406182900e-02 2.873180869463622111e-02 1.141907258799565172e-01
9.000000000000000000e+03 5.359424712886847603e-02 2.664119908005468940e-02 8.946823500153480713e-02
9.100000000000000000e+03 5.204688367873613192e-02 2.637843510409716360e-02 8.683425535027965159e-02
9.200000000000000000e+03 5.287485759886025732e-02 2.669466571592104751e-02 8.709959780454225309e-02
9.300000000000000000e+03 5.351519643759975603e-02 2.676790312558122165e-02 8.858039417811501559e-02
9.400000000000000000e+03 5.504320024789152721e-02 2.772546662698644956e-02 9.035053958447092359e-02
9.500000000000000000e+03 5.683404130796991527e-02 2.840208492742853780e-02 9.379846047224819905e-02
9.600000000000000000e+03 6.049488262057679810e-02 2.974004615780914337e-02 1.060309245773902453e-01
9.700000000000000000e+03 7.283424026949528174e-02 3.479210173025819308e-02 1.292129595487322979e-01
9.800000000000000000e+03 8.876741677840346845e-02 4.215341859976077382e-02 1.528021700021119367e-01
9.900000000000000000e+03 9.486335143964291783e-02 4.403483290955702983e-02 1.580974025947338990e-01
1.000000000000000000e+04 8.027441853291655827e-02 3.792268724011171876e-02 1.428294846925549366e-01
1.010000000000000000e+04 6.612236185096555252e-02 3.201931507781810571e-02 1.183670659932870017e-01
1.020000000000000000e+04 6.157591451395867665e-02 3.085056235945570630e-02 1.039307421180164642e-01
1.030000000000000000e+04 6.050861627618873972e-02 2.980117284478005224e-02 1.010209896055306866e-01
1.040000000000000000e+04 6.082925213964857775e-02 3.010602907184634774e-02 1.011718538241176690e-01
1.050000000000000000e+04 6.126853033419139838e-02 2.995986852823316962e-02 1.026098485818987827e-01
1.060000000000000000e+04 6.238727918399134681e-02 3.135228355023596258e-02 1.045753873357881808e-01
1.070000000000000000e+04 6.567637990715970153e-02 3.307972271764680894e-02 1.134538442279934001e-01
1.080000000000000000e+04 7.198306067358951899e-02 3.524328936639149062e-02 1.439620675807040395e-01
1.090000000000000000e+04 9.094247559053972307e-02 4.076513172750692582e-02 2.670494170414614565e-01
1.100000000000000000e+04 1.406527185855084849e-01 5.129247873541125519e-02 3.299963227082290396e-01
1.110000000000000000e+04 1.882263861603994393e-01 6.074958659838665398e-02 3.501288829692731919e-01
1.120000000000000000e+04 1.468162557921040279e-01 5.250485573005106432e-02 3.384052162297954691e-01
1.130000000000000000e+04 9.379650884090798280e-02 4.141970466727662448e-02 2.715749663958642590e-01
1.140000000000000000e+04 7.506460751367245721e-02 3.587129906083700442e-02 1.491506672584799742e-01
1.150000000000000000e+04 6.793020714152585293e-02 3.367314084288683396e-02 1.178996216809574810e-01
1.160000000000000000e+04 6.561938171393233432e-02 3.309149966819078387e-02 1.104568665413180745e-01
1.170000000000000000e+04 6.569333247858583080e-02 3.150886272046517222e-02 1.106565384954077969e-01
1.180000000000000000e+04 6.575937450471670831e-02 3.264003932899228744e-02 1.105755405398380076e-01
1.190000000000000000e+04 6.530405206071004942e-02 3.191099147236243355e-02 1.107809084870716582e-01
1.200000000000000000e+04 6.589493292167582228e-02 3.266835031474658174e-02 1.099379090077604038e-01
1.210000000000000000e+04 6.758493330119544340e-02 3.369661312037104672e-02 1.115250715111446023e-01
1.220000000000000000e+04 6.751554353616077975e-02 3.315953107231633945e-02 1.128876266679858242e-01
1.230000000000000000e+04 6.901191405463996675e-02 3.437453090171292691e-02 1.152941868644953849e-01
1.240000000000000000e+04 6.959543235025485164e-02 3.388149851241187283e-02 1.160043485781191430e-01
1.250000000000000000e+04 6.783637281205426306e-02 3.357886130469248109e-02 1.125911190797483502e-01
1.260000000000000000e+04 6.699180805327119292e-02 3.308616060045745794e-02 1.115062798323383925e-01
1.270000000000000000e+04 6.668219397413194249e-02 3.307786745824759650e-02 1.104706779814351864e-01
1.280000000000000000e+04 6.676247274151471400e-02 3.290526453778210014e-02 1.101187186564057952e-01
1.290000000000000000e+04 6.593712195314878344e-02 3.246428322732555771e-02 1.094715460363833576e-01
1.300000000000000000e+04 6.571998148368919657e-02 3.295285426751441704e-02 1.083109363188570345e-01
1.310000000000000000e+04 6.624140782341535194e-02 3.250931085654897024e-02 1.092701987297300670e-01
1.320000000000000000e+04 6.738207433804140056e-02 3.285527358941676274e-02 1.111192441495495037e-01
1.330000000000000000e+04 6.762790248366228052e-02 3.332477767218583464e-02 1.122298071627576832e-01
1.340000000000000000e+04 6.792062621596574312e-02 3.423161582862627866e-02 1.129239374853817646e-01
1.350000000000000000e+04 6.888617724045187352e-02 3.338248994815987136e-02 1.149761941805095833e-01
1.360000000000000000e+04 6.906513006882009087e-02 3.413194479760257860e-02 1.140581487159252755e-01
1.370000000000000000e+04 6.948847406548025463e-02 3.449993001104678658e-02 1.143741217387717751e-01
1.380000000000000000e+04 6.756871947034517878e-02 3.305631543552106644e-02 1.114662671732549182e-01
1.390000000000000000e+04 6.576080691246972976e-02 3.247737153886492284e-02 1.081106576447753986e-01
1.400000000000000000e+04 6.473774912279967042e-02 3.166085019994064470e-02 1.062364977796097232e-01
1.410000000000000000e+04 6.399185397628898153e-02 3.155056717343015377e-02 1.060714369718901567e-01
1.420000000000000000e+04 6.326974118775048617e-02 3.173937921912584059e-02 1.057284243818000791e-01
1.430000000000000000e+04 6.373549592743389669e-02 3.174929232848545252e-02 1.055778438882989112e-01
1.440000000000000000e+04 6.363692208154909935e-02 3.206957758482718163e-02 1.057362759407008135e-01
1.450000000000000000e+04 6.379937453714822071e-02 3.153192639815870918e-02 1.049938125152361235e-01
1.460000000000000000e+04 6.371438748338917324e-02 3.120551945190200988e-02 1.057687641502032955e-01
1.470000000000000000e+04 6.483554149623189933e-02 3.217798191568114335e-02 1.065372756442070218e-01
1.480000000000000000e+04 6.447913211110187226e-02 3.180120496138481162e-02 1.069922662372359140e-01
1.490000000000000000e+04 6.481828050907528782e-02 3.168704464318613384e-02 1.052499038689850286e-01
1.500000000000000000e+04 6.359050852413837551e-02 3.159008122537376034e-02 1.042397540994356858e-01
1.510000000000000000e+04 6.281742572601402286e-02 3.145744807475857330e-02 1.033416535603747938e-01
1.520000000000000000e+04 6.146389985002485151e-02 3.060932476902456303e-02 1.015610994309402021e-01
1.530000000000000000e+04 6.140242361822416395e-02 3.076269449614603760e-02 1.003566854436464401e-01
1.540000000000000000e+04 6.057927113083050319e-02 2.994023611876931237e-02 9.931072399231656578e-02
1.550000000000000000e+04 6.041295771603581027e-02 3.022716472015310116e-02 9.886577106948717109e-02
1.560000000000000000e+04 5.973368820343476909e-02 2.929115408747771931e-02 9.883138207550061505e-02
1.570000000000000000e+04 6.201147244766394562e-02 3.072489969592035602e-02 1.023637576204058514e-01
1.580000000000000000e+04 6.207311384587810982e-02 3.076044874816655228e-02 1.017147000603331741e-01
1.590000000000000000e+04 6.041114651544642056e-02 3.035014936038208169e-02 1.000250577314956563e-01
1.600000000000000000e+04 6.105221131579065957e-02 3.066533270509555834e-02 9.911309024512264532e-02
1.610000000000000000e+04 6.023423012481991107e-02 2.980711498911756477e-02 9.891509647636492764e-02
1.620000000000000000e+04 6.016342359318568866e-02 3.009431896316844615e-02 9.763118258172084896e-02
1.630000000000000000e+04 5.862669667575426402e-02 2.971379294542193794e-02 9.661664591127201718e-02
1.640000000000000000e+04 5.829504725152079292e-02 2.914672117935667231e-02 9.493004489207283736e-02
1.650000000000000000e+04 5.746912248959783198e-02 2.866138727785306345e-02 9.382893718740756284e-02
1.660000000000000000e+04 5.864621773378336789e-02 2.946995548655464633e-02 9.534686170944504935e-02
1.670000000000000000e+04 5.907901851869797744e-02 2.978179286807633094e-02 9.583062128264219215e-02
1.680000000000000000e+04 5.629026020950645554e-02 2.842626715771566503e-02 9.262769335830697837e-02
1.690000000000000000e+04 5.659971560443767535e-02 2.837139637591714128e-02 9.173202978055987333e-02
1.700000000000000000e+04 5.542837081351012496e-02 2.751521184604092257e-02 9.098590961226546425e-02
1.710000000000000000e+04 5.521425908270290173e-02 2.789397930041251361e-02 9.116448570505175653e-02
1.720000000000000000e+04 5.498793540649365291e-02 2.755075125731047680e-02 9.051661603065622175e-02
1.730000000000000000e+04 5.484920691432394746e-02 2.733203087393830388e-02 9.084063660619372260e-02
1.740000000000000000e+04 5.446229817593536277e-02 2.717963296101863144e-02 8.945493533211947013e-02
1.750000000000000000e+04 5.547194136491088307e-02 2.796426011221461727e-02 9.152069418185933281e-02
1.760000000000000000e+04 5.487577830889106556e-02 2.756942295300586140e-02 9.027068064736581965e-02
1.770000000000000000e+04 5.352188998280407034e-02 2.686338090537165879e-02 8.764251983389437228e-02
1.780000000000000000e+04 5.313745880338555105e-02 2.671572041989989793e-02 8.671412656737985392e-02
1.790000000000000000e+04 5.272125009870525653e-02 2.647512526328112820e-02 8.560825610735993407e-02
1.800000000000000000e+04 5.223735875420696534e-02 2.607316991911447918e-02 8.524248758506777768e-02
1.810000000000000000e+04 5.168896739627858866e-02 2.573846456355445914e-02 8.469975639887561414e-02
1.820000000000000000e+04 5.151894734579797602e-02 2.606157464570002524e-02 8.440275196581926986e-02
1.830000000000000000e+04 5.099812427229096640e-02 2.565290746250865547e-02 8.388584695993074603e-02
1.840000000000000000e+04 5.068406502871588420e-02 2.534502738999794974e-02 8.367308944913048885e-02
1.850000000000000000e+04 5.098985610979177296e-02 2.504150831680836131e-02 8.256367236945764965e-02
1.860000000000000000e+04 5.011988544522671951e-02 2.466624100653434098e-02 8.202409440230913618e-02
1.870000000000000000e+04 5.038882163777445855e-02 2.490676802356564176e-02 8.196028991056335256e-02
1.880000000000000000e+04 4.968645534167367289e-02 2.526594843240402913e-02 8.107795967761638467e-02
1.890000000000000000e+04 4.889530069238333387e-02 2.452940113962023133e-02 8.058076661586993650e-02
1.900000000000000000e+04 4.921108023020501904e-02 2.487545011545609294e-02 7.987889045414151012e-02
1.910000000000000000e+04 4.901446752823583608e-02 2.461362472046289482e-02 7.978582600228659172e-02
1.920000000000000000e+04 5.214353621627586255e-02 2.625808907923578642e-02 8.506343857215672988e-02
1.930000000000000000e+04 5.083040603443179928e-02 2.592758244790896102e-02 8.336197660960134592e-02
1.940000000000000000e+04 4.891949518337666142e-02 2.452192795424504301e-02 7.935939097427431588e-02
1.950000000000000000e+04 4.839288977810465853e-02 2.405884694095419482e-02 7.925204657582429757e-02
1.960000000000000000e+04 4.773877559818051619e-02 2.401564881336661073e-02 7.798049994652755945e-02
1.970000000000000000e+04 4.683654399151852138e-02 2.367922395059830765e-02 7.646156421950317528e-02
1.980000000000000000e+04 4.692219639845431750e-02 2.332704897508605657e-02 7.676416464501419068e-02
1.990000000000000000e+04 4.626163712869042766e-02 2.326948503514892491e-02 7.597674078184311897e-02
2.000000000000000000e+04 4.634827936261802506e-02 2.286763739926872194e-02 7.579614756362523798e-02
2.010000000000000000e+04 4.657201165586322827e-02 2.326683851941862072e-02 7.556464874856932967e-02
2.020000000000000000e+04 4.576513790575385821e-02 2.283674054705359460e-02 7.514627039941804143e-02
2.030000000000000000e+04 4.666052753673319287e-02 2.308346505345858918e-02 7.603443283968761013e-02
2.040000000000000000e+04 1.860161961828520893e-01 1.462887184543785191e-01 2.275283576737292257e-01
2.050000000000000000e+04 5.280949841797398792e-01 4.895525107453607139e-01 5.674155427419387276e-01
2.060000000000000000e+04 3.690105306146974629e-01 3.268740318482836194e-01 4.101221665106306036e-01
2.070000000000000000e+04 5.237460663677526163e-02 2.675673695693013901e-02 8.538368686999907309e-02
2.080000000000000000e+04 4.456484671287577748e-02 2.198855863932514670e-02 7.332866580846751636e-02
2.090000000000000000e+04 4.448527012275579201e-02 2.229889783020316471e-02 7.170910246721448611e-02
2.100000000000000000e+04 4.446999453308823208e-02 2.209111273949839957e-02 7.201450574786667780e-02
2.110000000000000000e+04 4.488885283699288464e-02 2.259353416862816544e-02 7.238653139793786717e-02
2.120000000000000000e+04 4.448153885195101076e-02 2.189407082463584037e-02 7.255499758267811017e-02
2.130000000000000000e+04 4.595740430043351865e-02 2.345062831634117315e-02 7.503576366891732963e-02
2.140000000000000000e+04 5.396374989154228974e-02 2.679862474321237711e-02 8.867338017558305807e-02
2.150000000000000000e+04 5.583378183161806507e-02 2.810690316724362772e-02 9.133380507676559790e-02
2.160000000000000000e+04 4.481172430770336002e-02 2.274511009500058620e-02 7.328196854178466169e-02
2.170000000000000000e+04 4.181435529446769772e-02 2.086050307062770753e-02 6.791346259562604237e-02
2.180000000000000000e+04 4.123127080025687508e-02 2.048533625775695102e-02 6.730773919620509915e-02
2.190000000000000000e+04 4.133652452420831513e-02 2.033739382531210560e-02 6.720501718381863276e-02
2.200000000000000000e+04 4.130641640057584191e-02 2.078091546946743418e-02 6.691028334074444750e-02
2.210000000000000000e+04 4.036706133165659377e-02 2.000422107015769127e-02 6.623302914384630868e-02
2.220000000000000000e+04 4.017294716788744752e-02 2.035164036128958576e-02 6.622616560587889223e-02
2.230000000000000000e+04 4.032439200151067410e-02 2.003886855123105173e-02 6.543798420016570805e-02
2.240000000000000000e+04 4.032326253420927265e-02 2.021643424014005555e-02 6.512021193790958062e-02
2.250000000000000000e+04 3.952033294089386806e-02 1.980843867804115213e-02 6.462505868972238943e-02
2.260000000000000000e+04 3.921465425917284447e-02 1.999932438190183889e-02 6.380897469103052888e-02
2.270000000000000000e+04 3.928272406944286615e-02 1.927209270839512142e-02 6.330179655824982876e-02
2.280000000000000000e+04 3.855354843673969994e-02 1.897180974000405029e-02 6.284252780328204724e-02
2.290000000000000000e+04 3.828035885985806713e-02 1.887997565224665275e-02 6.254022001468646785e-02
2.300000000000000000e+04 3.821158395592146734e-02 1.923225716327772034e-02 6.286374174771901246e-02
2.310000000000000000e+04 3.826840662763469209e-02 1.907576579602593761e-02 6.251296587340866850e-02
2.320000000000000000e+04 3.846709033412414741e-02 1.917681901254926491e-02 6.274245648511415918e-02
2.330000000000000000e+04 3.871733961420782688e-02 1.938338094625450744e-02 6.279043840776289687e-02
2.340000000000000000e+04 3.809618107898690709e-02 1.902366426332392085e-02 6.208576738646841980e-02
2.350000000000000000e+04 3.763460731184006813e-02 1.888479104162154448e-02 6.177801853180180797e-02
2.360000000000000000e+04 3.767454485858852398e-02 1.915272857204234139e-02 6.154857182908202856e-02
2.370000000000000000e+04 3.791687716739876313e-02 1.893283450159357825e-02 6.146372509432184578e-02
2.380000000000000000e+04 3.796913568858224092e-02 1.910924228689858673e-02 6.143806420396935586e-02
2.390000000000000000e+04 3.736076698628842951e-02 1.854675531881203390e-02 6.130487413583785017e-02
2.400000000000000000e+04 3.743266315400745753e-02 1.878663187868429701e-02 6.089497684681696027e-02
2.410000000000000000e+04 3.677706733552284918e-02 1.847789368240616154e-02 6.025049938085590834e-02
2.420000000000000000e+04 3.644115263993669834e-02 1.843544761180272024e-02 5.910406940686818017e-02
2.430000000000000000e+04 3.586906629060063884e-02 1.767122245423828272e-02 5.822712044306697227e-02
2.440000000000000000e+04 3.520358360481128795e-02 1.750860717240721245e-02 5.814507460186857379e-02
2.450000000000000000e+04 3.555879271936605163e-02 1.778644674907597922e-02 5.765261122254779214e-02
2.460000000000000000e+04 3.575126543664316342e-02 1.788715085954916545e-02 5.820466783686686213e-02
2.470000000000000000e+04 3.509381917441467547e-02 1.767163831385941061e-02 5.781850768003211904e-02
2.480000000000000000e+04 3.452912931402495056e-02 1.694022353468475905e-02 5.643133022476739397e-02
2.490000000000000000e+04 3.457186377663030996e-02 1.736244503679451601e-02 5.641322933270773859e-02
2.500000000000000000e+04 3.477410282061524360e-02 1.728117686104703107e-02 5.660164078047015546e-02
2.510000000000000000e+04 3.409515636029594038e-02 1.714622225316400281e-02 5.552936976281340475e-02
2.520000000000000000e+04 3.373564913687537858e-02 1.676364216308828120e-02 5.493662325808113672e-02
2.530000000000000000e+04 3.350196649224571055e-02 1.678480999730185344e-02 5.531826948420615758e-02
2.540000000000000000e+04 3.352223361837056853e-02 1.655408624665422393e-02 5.489491385613619323e-02
2.550000000000000000e+04 3.341405997100395375e-02 1.674907833845276292e-02 5.472916082884878020e-02
2.560000000000000000e+04 3.372871005429731867e-02 1.697888908988336165e-02 5.472019178721151261e-02
2.570000000000000000e+04 3.328127296921013639e-02 1.651539089068665422e-02 5.432951410267605752e-02
2.580000000000000000e+04 3.276092176732437605e-02 1.650557701489593909e-02 5.341800410579230357e-02
2.590000000000000000e+04 3.259355369126296781e-02 1.632053074248649219e-02 5.317027566852919329e-02
2.600000000000000000e+04 3.245080028010498968e-02 1.659841874509972171e-02 5.277732018622388610e-02
2.610000000000000000e+04 3.217658022087546699e-02 1.624851490637469961e-02 5.270367480615606448e-02
2.620000000000000000e+04 3.217553187039018381e-02 1.602034121621025153e-02 5.245450485467761936e-02
2.630000000000000000e+04 3.207724766281520867e-02 1.610784021356718998e-02 5.224157720178058267e-02
2.640000000000000000e+04 3.218863337680830106e-02 1.619689594519269082e-02 5.258817317996813956e-02
2.650000000000000000e+04 3.205386573564717595e-02 1.599574160133733838e-02 5.197813978771517046e-02
2.660000000000000000e+04 3.184793352984405940e-02 1.576002647903296944e-02 5.145075041162192747e-02
2.670000000000000000e+04 3.162679620069014375e-02 1.579364127625925915e-02 5.102510522780989710e-02
2.680000000000000000e+04 3.154258063272818990e-02 1.572667402552457849e-02 5.155960636411789644e-02
2.690000000000000000e+04 3.120880635794053004e-02 1.558295293121380459e-02 5.077824897363221457e-02
2.700000000000000000e+04 3.068799396845292571e-02 1.546294454144086540e-02 5.007382155971286386e-02
2.710000000000000000e+04 3.067396144083784151e-02 1.550077133637334757e-02 4.952072875840345806e-02
2.720000000000000000e+04 3.027081184797654478e-02 1.512027451765003173e-02 4.964143271189432743e-02
2.730000000000000000e+04 3.044506587676562223e-02 1.553322291626062224e-02 4.973114789715453454e-02
2.740000000000000000e+04 3.060530240830522039e-02 1.531717694181063474e-02 5.014679287628214660e-02
2.750000000000000000e+04 3.028917546488525334e-02 1.481314880832883783e-02 4.909599807251001369e-02
2.760000000000000000e+04 3.004956192988486249e-02 1.503236362044268505e-02 4.886627968237664682e-02
2.770000000000000000e+04 2.953810340302271548e-02 1.493076408553242231e-02 4.875591187104472840e-02
2.780000000000000000e+04 3.610592597206882526e-02 1.826753728413504571e-02 5.803533919774617883e-02
2.790000000000000000e+04 4.282674268245372229e-01 4.000522673900002157e-01 4.564093730453854247e-01
2.800000000000000000e+04 6.844450132269617182e-01 6.592837102643598346e-01 7.099108038817599775e-01
2.810000000000000000e+04 2.700265840493223379e-01 2.416975219367963335e-01 2.986173169218289680e-01
2.820000000000000000e+04 3.104411285414467037e-02 1.528889084718725554e-02 5.043650220454459071e-02
2.830000000000000000e+04 2.862629053350336517e-02 1.412009999252756762e-02 4.660840980210174261e-02
2.840000000000000000e+04 2.801035853199045425e-02 1.399830269746833548e-02 4.566813794486136724e-02
2.850000000000000000e+04 2.754700823082721628e-02 1.393344993123079786e-02 4.491269750018193896e-02
2.860000000000000000e+04 2.778460906272656530e-02 1.374806651297546568e-02 4.516383143638848241e-02
2.870000000000000000e+04 2.808366326715539679e-02 1.405827000194960832e-02 4.570548256751069682e-02
2.880000000000000000e+04 3.086721221422336972e-02 1.551532227494363189e-02 4.956298297562193589e-02
2.890000000000000000e+04 2.912949345880248841e-02 1.457700919144478031e-02 4.753229633913364643e-02
2.900000000000000000e+04 2.707962105316590734e-02 1.343489374946813843e-02 4.439238017787815183e-02
2.910000000000000000e+04 2.711563187530325464e-02 1.357611251520224153e-02 4.383750915292156797e-02
2.920000000000000000e+04 2.688281471953816656e-02 1.344347641212386736e-02 4.373426585043311415e-02
2.930000000000000000e+04 2.656701650630571843e-02 1.322695600231152575e-02 4.348773230178679811e-02
2.940000000000000000e+04 2.632417017609573959e-02 1.314404400061302408e-02 4.318188135840358988e-02
2.950000000000000000e+04 2.626112256125281985e-02 1.322250461745529473e-02 4.321429944486655794e-02
2.960000000000000000e+04 2.600156063722047078e-02 1.302906030297023426e-02 4.216923529744471405e-02
2.970000000000000000e+04 2.582735936689575795e-02 1.294880130361830695e-02 4.189307398565034896e-02
2.980000000000000000e+04 2.664208169367685355e-02 1.330301413795224701e-02 4.347956174998045958e-02
2.990000000000000000e+04 2.927290108007728903e-02 1.457703423376759122e-02 4.775109745053746080e-02
3.000000000000000000e+04 2.700048996793446426e-02 1.352176851149410226e-02 4.371603413180372849e-02
3.010000000000000000e+04 2.622066612546479492e-02 1.307105769747205805e-02 4.288734728929843171e-02
3.020000000000000000e+04 2.701687188632301631e-02 1.344848686716516341e-02 4.363524158751647120e-02
3.030000000000000000e+04 2.538848578680997364e-02 1.255110122098584101e-02 4.159863475691907148e-02
3.040000000000000000e+04 3.022590659936932184e-02 1.497385677935402989e-02 4.932630192184109252e-02
3.050000000000000000e+04 3.798625994964734826e-02 1.890340926991518344e-02 6.240566514424926436e-02
3.060000000000000000e+04 3.097654983280403312e-02 1.552974129778296984e-02 5.084639978132006466e-02
3.070000000000000000e+04 3.767415402100186134e-02 1.898149457296158249e-02 6.212040883915377620e-02
3.080000000000000000e+04 2.924662177001552052e-02 1.463143491645330259e-02 4.720620054338135058e-02
3.090000000000000000e+04 3.588730816287263176e-02 1.871642543231994901e-02 5.630230709678575585e-02
3.100000000000000000e+04 6.830922698707270202e-02 4.644734771195672962e-02 8.943910260290995062e-02
3.110000000000000000e+04 4.512117136909325060e-02 2.488927061689808970e-02 6.605207721349427852e-02
3.120000000000000000e+04 2.440362983401176203e-02 1.214016547259463841e-02 3.956155682629721587e-02
3.130000000000000000e+04 2.417026541453316454e-02 1.214311518347986618e-02 3.938408141817583558e-02
3.140000000000000000e+04 2.437279785525920534e-02 1.218804341374552132e-02 3.974510501634609394e-02
3.150000000000000000e+04 2.446938008942904641e-02 1.221870686943649087e-02 3.978394542701020609e-02
3.160000000000000000e+04 2.350195589926966366e-02 1.176567267138814259e-02 3.839370614675653715e-02
3.170000000000000000e+04 2.331435573658211316e-02 1.150349306600500013e-02 3.779038211906161210e-02
3.180000000000000000e+04 2.301942969102884970e-02 1.130584105141238700e-02 3.781027827212376374e-02
3.190000000000000000e+04 2.283753363397797442e-02 1.120686407010308347e-02 3.760777170763914684e-02
3.200000000000000000e+04 2.286256154997978740e-02 1.141116647274614468e-02 3.759654640158870131e-02
3.210000000000000000e+04 2.289540269333764991e-02 1.139340346546834602e-02 3.731106053969506647e-02
3.220000000000000000e+04 2.289639506327568325e-02 1.139521500957774158e-02 3.728141620523014316e-02
3.230000000000000000e+04 2.272691109457219971e-02 1.141407963321180996e-02 3.736139240585483606e-02
3.240000000000000000e+04 2.252127983664004365e-02 1.108679117081234552e-02 3.668925449760111757e-02
3.250000000000000000e+04 2.267395914091550890e-02 1.122431696221129829e-02 3.709784696681259208e-02
3.260000000000000000e+04 2.252364667928771769e-02 1.130385602593844338e-02 3.675238950411760519e-02
3.270000000000000000e+04 2.224697784580631499e-02 1.097196853735426733e-02 3.568778453263999478e-02
3.280000000000000000e+04 2.224107813287101720e-02 1.121265926638168736e-02 3.614169446244263478e-02
3.290000000000000000e+04 2.193143843296212897e-02 1.104316520826649668e-02 3.590112743395573042e-02
3.300000000000000000e+04 2.387895696816033642e-02 1.188691366833375188e-02 3.864998702594336227e-02
3.310000000000000000e+04 3.715601553101539195e-02 2.080208468216579454e-02 5.467097630851505685e-02
3.320000000000000000e+04 3.039741568123167925e-02 1.590096205259781612e-02 4.698081271594532760e-02
3.330000000000000000e+04 2.193871514226595348e-02 1.112102373493958039e-02 3.517718962737846622e-02
3.340000000000000000e+04 2.173809472809128465e-02 1.083861276294824025e-02 3.513517364194982534e-02
3.350000000000000000e+04 2.130180603347054530e-02 1.086092098660410878e-02 3.491908871004775067e-02
3.360000000000000000e+04 2.111531495662849825e-02 1.058388073636805024e-02 3.485863365557979876e-02
3.370000000000000000e+04 2.106647384607506987e-02 1.046374327699423935e-02 3.436689299709837914e-02
3.380000000000000000e+04 2.106635417929169155e-02 1.046190988385973381e-02 3.408692694341466239e-02
3.390000000000000000e+04 2.103388917600937033e-02 1.038462405010049001e-02 3.401928043725344075e-02
3.400000000000000000e+04 2.073001297186712055e-02 1.037300252905900416e-02 3.377854412221568264e-02
3.410000000000000000e+04 2.070599290083204383e-02 1.025259697277476276e-02 3.388384118675529660e-02
3.420000000000000000e+04 2.052536661367870482e-02 1.036767276603266924e-02 3.358314225223722055e-02
3.430000000000000000e+04 2.082897726060670834e-02 1.034721393793094045e-02 3.349460520670654445e-02
3.440000000000000000e+04 2.076433839467798845e-02 1.036281173034022708e-02 3.359524858509553569e-02
3.450000000000000000e+04 2.057761224504578434e-02 1.022270012189049893e-02 3.319343907267862520e-02
3.460000000000000000e+04 2.041430484291254996e-02 1.000364006687474994e-02 3.301147710834678034e-02
3.470000000000000000e+04 1.994351743347996114e-02 1.000462613662592148e-02 3.243740822484500463e-02
3.480000000000000000e+04 1.981573710198540964e-02 9.906103967356996026e-03 3.229758830842811151e-02
3.490000000000000000e+04 1.979267267893935339e-02 9.985461964938661256e-03 3.216000580671438125e-02
3.500000000000000000e+04 1.985398227055714185e-02 9.813609296720454678e-03 3.231918158079979952e-02
3.510000000000000000e+04 1.989448539183526904e-02 1.001176197533942998e-02 3.268882565406427965e-02
3.520000000000000000e+04 1.977039435932827563e-02 9.887188445323822836e-03 3.239222541850953624e-02
3.530000000000000000e+04 1.959918685575296263e-02 9.876484492083517641e-03 3.185642257368657276e-02
3.540000000000000000e+04 2.039798158118614688e-02 1.014647905183940942e-02 3.335644808546742862e-02
3.550000000000000000e+04 2.028458562603524529e-02 1.015110372404156268e-02 3.300417995090296208e-02
3.560000000000000000e+04 1.936079920311182742e-02 9.596882655246302685e-03 3.127227196311796464e-02
3.570000000000000000e+04 1.902770616848135921e-02 9.578566245640402280e-03 3.148508793133290851e-02
3.580000000000000000e+04 1.930523860807945372e-02 9.546263464102229881e-03 3.189555076866884553e-02
3.590000000000000000e+04 1.913265593723968358e-02 9.670292011803409415e-03 3.099112518757672283e-02
3.600000000000000000e+04 1.904297439807980941e-02 9.606337349604612136e-03 3.079826986093369204e-02
3.610000000000000000e+04 1.882298331450541276e-02 9.345154740542090804e-03 3.052578645056363768e-02
3.620000000000000000e+04 1.866141408861058532e-02 9.419821678199737786e-03 3.024742453022350244e-02
3.630000000000000000e+04 1.854442779543108433e-02 9.362231359609804113e-03 3.032989707149046782e-02
3.640000000000000000e+04 1.844025045276028937e-02 9.283792165022581450e-03 2.987540251900496976e-02
3.650000000000000000e+04 1.839246507848272746e-02 9.201944492347397322e-03 2.982852534038594322e-02
3.660000000000000000e+04 1.850904460516508698e-02 9.268599723706680282e-03 3.022307503690082470e-02
3.670000000000000000e+04 1.849127297596461078e-02 9.133076995365077208e-03 3.050638144448955882e-02
3.680000000000000000e+04 1.868968961775782645e-02 9.264892582258056272e-03 3.056849661810967164e-02
3.690000000000000000e+04 1.867380935136091213e-02 9.339467767610350885e-03 3.039335539497683980e-02
3.700000000000000000e+04 2.362702152936325961e-02 1.158776496893986277e-02 3.848737045323372824e-02
3.710000000000000000e+04 3.135293958425255934e-02 1.564957683290735951e-02 5.167975151571418263e-02
3.720000000000000000e+04 2.401448464923612233e-02 1.194306551209377981e-02 3.961917322784767881e-02
3.730000000000000000e+04 3.059862583444735232e-02 1.517642562373916655e-02 5.044558839029297803e-02
3.740000000000000000e+04 2.311486495404731917e-02 1.154177124625985901e-02 3.780605325297720781e-02
3.750000000000000000e+04 1.884140310385513245e-02 9.376379926809161325e-03 3.077309167952628141e-02
3.760000000000000000e+04 3.701708305140494204e-02 2.285621491238748471e-02 5.178586207685793169e-02
3.770000000000000000e+04 3.949848452017859501e-02 2.503748463008688072e-02 5.420262542275806200e-02
3.780000000000000000e+04 1.925853150961985560e-02 9.584503566023853949e-03 3.116212768306741987e-02
3.790000000000000000e+04 1.788524705216053973e-02 8.797186254705942343e-03 2.897881343971030893e-02
3.800000000000000000e+04 1.783482551614188130e-02 8.833806577716032601e-03 2.893969540509973987e-02
3.810000000000000000e+04 1.776048948664802132e-02 8.772459875661508394e-03 2.888582210036657466e-02
3.820000000000000000e+04 1.991196740108430729e-02 9.766579647319169680e-03 3.279359529953324026e-02
3.830000000000000000e+04 2.251200986002812807e-02 1.128557372497282149e-02 3.644259551798295638e-02
3.840000000000000000e+04 2.021161640858431738e-02 9.984633447390259958e-03 3.244675600772538304e-02
3.850000000000000000e+04 1.852877674824087578e-02 9.254193798257486989e-03 3.002449027640113552e-02
3.860000000000000000e+04 1.743768730453758645e-02 8.674249489569895236e-03 2.846396870681505015e-02
3.870000000000000000e+04 1.712371015107105876e-02 8.496333023711057433e-03 2.807628833725008682e-02
3.880000000000000000e+04 1.686977338437554638e-02 8.341045587610928722e-03 2.748142426728914650e-02
3.890000000000000000e+04 1.678252520802646364e-02 8.392794359504494178e-03 2.755138630293205160e-02
3.900000000000000000e+04 1.718082935902374986e-02 8.584674886666338045e-03 2.778733888043382477e-02
3.910000000000000000e+04 1.897460965487109130e-02 9.604893814092654164e-03 3.093524477739063860e-02
3.920000000000000000e+04 3.923684255041786501e-02 2.483981620581705851e-02 5.411750832882979145e-02
3.930000000000000000e+04 3.606086244808513752e-02 2.195442165222680209e-02 5.065477733269248273e-02
3.940000000000000000e+04 1.762328071492988077e-02 8.779509206435569604e-03 2.885183212878645459e-02
3.950000000000000000e+04 1.649747175562632159e-02 8.284701554321156902e-03 2.706732977710653645e-02
3.960000000000000000e+04 1.654597800552246381e-02 8.248866293351742734e-03 2.710423187748169094e-02
3.970000000000000000e+04 1.649454704498201987e-02 8.161922620285894103e-03 2.662014861744910546e-02
3.980000000000000000e+04 1.635157614811442658e-02 8.205920220739739215e-03 2.654884614763131437e-02
3.990000000000000000e+04 1.627039403908202980e-02 8.108221312791303800e-03 2.646816490230884458e-02
4.000000000000000000e+04 1.631631791169561516e-02 8.270709121991235910e-03 2.667296475076639389e-02
4.010000000000000000e+04 1.646862844298660131e-02 8.243613779360043844e-03 2.689999871092047662e-02
4.020000000000000000e+04 1.653179785482077058e-02 8.245132014162086936e-03 2.679362101194457738e-02
4.030000000000000000e+04 1.612722150397580614e-02 8.155381818717036616e-03 2.651002269198053304e-02
4.040000000000000000e+04 1.613249586619181983e-02 7.940885238818114547e-03 2.636978745816747141e-02
4.050000000000000000e+04 1.596944502734403901e-02 7.944073636157464660e-03 2.602003469900186425e-02
4.060000000000000000e+04 1.597017808771155484e-02 7.941331552172060937e-03 2.584287938876103641e-02
4.070000000000000000e+04 1.607356300417737971e-02 8.111167983628684436e-03 2.598951895486006913e-02
4.080000000000000000e+04 1.586340447533210810e-02 8.028427812862072230e-03 2.574836636684249211e-02
4.090000000000000000e+04 1.743840289414235606e-02 8.833615946228372956e-03 2.811107251240630572e-02
4.100000000000000000e+04 3.897458253517347565e-02 2.593650512858143228e-02 5.158329824948416908e-02
4.110000000000000000e+04 3.686636065455985156e-02 2.423919387906768586e-02 4.997339575572409820e-02
4.120000000000000000e+04 1.660123620711036890e-02 8.098733344637149001e-03 2.714435754189915145e-02
4.130000000000000000e+04 1.550067376255649491e-02 7.829440832808893039e-03 2.518006656707350022e-02
4.140000000000000000e+04 1.540525050965835252e-02 7.601704753500658496e-03 2.517797329215716931e-02
4.150000000000000000e+04 1.542106597777603491e-02 7.791093040648504331e-03 2.508858081166592119e-02
4.160000000000000000e+04 1.535461647116983380e-02 7.681338071288960206e-03 2.525348534328518066e-02
4.170000000000000000e+04 1.562522323326056770e-02 7.883994536221326094e-03 2.542733257326230262e-02
4.180000000000000000e+04 1.573151851144558369e-02 7.799171447849711884e-03 2.578552799825946373e-02
4.190000000000000000e+04 1.578464776690638796e-02 7.707557682554694485e-03 2.590713344174809529e-02
4.200000000000000000e+04 1.572679846362646724e-02 7.724265531307791290e-03 2.560436904353783141e-02
4.210000000000000000e+04 1.554332894189794541e-02 7.730250897339707022e-03 2.556567047393145178e-02
4.220000000000000000e+04 1.561509761233035795e-02 7.757646026795338504e-03 2.552822256437940404e-02
4.230000000000000000e+04 1.547343552500844190e-02 7.759411294796677433e-03 2.516036489150745917e-02
4.240000000000000000e+04 1.531719387927966101e-02 7.661706879133596548e-03 2.484977833031092737e-02
4.250000000000000000e+04 1.526399131295237514e-02 7.631375741282507737e-03 2.453820609508290326e-02
4.260000000000000000e+04 1.509057476203663067e-02 7.454224049378182712e-03 2.453974782983012540e-02
4.270000000000000000e+04 1.498481694071157611e-02 7.512795872994420740e-03 2.459950952532002216e-02
4.280000000000000000e+04 1.480351988999303176e-02 7.343375750366735837e-03 2.425802720651852595e-02
4.290000000000000000e+04 1.471172560482050459e-02 7.347384433282547200e-03 2.398239627161606602e-02
4.300000000000000000e+04 1.460713564952057300e-02 7.465948539433185649e-03 2.391937304175960344e-02
4.310000000000000000e+04 1.473987668552970316e-02 7.260549513699282587e-03 2.360951594765016773e-02
4.320000000000000000e+04 1.471070574059726334e-02 7.238858805194651330e-03 2.386293863401996521e-02
4.330000000000000000e+04 1.453062961988121383e-02 7.272241215466251213e-03 2.379763065963604735e-02
4.340000000000000000e+04 1.455835324204912337e-02 7.274427918079653943e-03 2.379630070081791698e-02
4.350000000000000000e+04 1.453173441055592187e-02 7.357957965658645100e-03 2.360563918521045926e-02
4.360000000000000000e+04 1.428506185129215303e-02 7.187816495167346879e-03 2.336211554876228835e-02
4.370000000000000000e+04 1.447271746154458333e-02 7.347343416430564614e-03 2.370217574165614516e-02
4.380000000000000000e+04 1.475196138093850216e-02 7.408025482955286380e-03 2.400295372830738017e-02
4.390000000000000000e+04 1.499954224052073293e-02 7.572554119427531670e-03 2.447105080406966962e-02
4.400000000000000000e+04 1.472096049810682310e-02 7.465318866338704201e-03 2.421554527502019910e-02
4.410000000000000000e+04 1.494643200807178711e-02 7.402725556851378133e-03 2.435618986223223384e-02
4.420000000000000000e+04 1.949935608536566140e-02 9.841742859218344588e-03 3.173535738334383460e-02
4.430000000000000000e+04 2.023371226764878600e-02 1.008481707810384050e-02 3.262732840161303854e-02
4.440000000000000000e+04 1.486334757549400386e-02 7.413305733984426431e-03 2.443709097618625495e-02
4.450000000000000000e+04 1.438435243179395952e-02 7.074823926178876697e-03 2.355729455146350279e-02
4.460000000000000000e+04 1.428449689198736661e-02 7.209878005712927820e-03 2.328952549266439381e-02
4.470000000000000000e+04 1.428043526482136033e-02 7.076928439532052806e-03 2.319301997719553851e-02
4.480000000000000000e+04 1.437726795814184104e-02 7.148842237601275330e-03 2.342225703042983068e-02
4.490000000000000000e+04 1.440384786295239271e-02 7.131229020677668992e-03 2.337249814668512088e-02
4.500000000000000000e+04 1.421606857716979123e-02 7.193066412016525628e-03 2.320083946381876205e-02
4.510000000000000000e+04 1.415711721523595958e-02 7.075509071183205823e-03 2.321640189517323871e-02
4.520000000000000000e+04 1.443277916651261421e-02 7.266594863757686387e-03 2.325655316524413707e-02
4.530000000000000000e+04 2.116291534679379943e-02 1.049778279738433455e-02 3.466869609969164268e-02
4.540000000000000000e+04 4.540178777150842560e-02 2.232313794614862804e-02 7.415020598971990007e-02
4.550000000000000000e+04 4.620644263398013263e-02 2.267669438787023317e-02 7.558927682670599224e-02
4.560000000000000000e+04 2.276384508385854294e-02 1.132320542979440084e-02 3.771617106394694469e-02
4.570000000000000000e+04 1.406657618783587783e-02 7.026290024016705431e-03 2.285973937657880331e-02
4.580000000000000000e+04 1.405161499024338428e-02 6.949001890056401634e-03 2.287158696290523402e-02
4.590000000000000000e+04 1.387424439046738324e-02 6.878990360396354010e-03 2.244620020651906522e-02
4.600000000000000000e+04 1.409949016848212680e-02 7.106505466840656350e-03 2.301409972486309283e-02
4.610000000000000000e+04 1.440209298784317707e-02 7.191449260300720146e-03 2.352527422213047600e-02
4.620000000000000000e+04 1.394865063256242078e-02 6.835191005009859724e-03 2.277332268151802813e-02
4.630000000000000000e+04 1.433066799065571377e-02 7.141675829447154296e-03 2.349200771961496709e-02
4.640000000000000000e+04 1.967104508224919515e-02 9.697184010705777596e-03 3.402839931598215101e-02
4.650000000000000000e+04 3.765912970505265467e-02 2.214862607578441805e-02 5.264722347197137858e-02
4.660000000000000000e+04 2.606724491043485581e-02 1.366149316895519383e-02 4.040688601023673110e-02
4.670000000000000000e+04 1.435951270622658899e-02 7.043281421244702509e-03 2.318155733333903193e-02
4.680000000000000000e+04 1.397930387442017017e-02 7.056249304186979973e-03 2.285791512747832599e-02
4.690000000000000000e+04 1.425923104368024066e-02 7.195487815179314219e-03 2.342548822116355747e-02
4.700000000000000000e+04 3.228957605518786161e-02 1.594114200458240233e-02 5.206315820825310747e-02
4.710000000000000000e+04 1.001027434638996766e-01 5.023671567269449162e-02 1.604246538753735241e-01
4.720000000000000000e+04 9.777906044373435579e-02 4.970386165078944513e-02 1.596536293115056737e-01
4.730000000000000000e+04 1.135498219271482007e-01 5.658497495248614173e-02 1.880393632909748147e-01
4.740000000000000000e+04 5.747224858575608608e-02 2.810904756655394771e-02 9.388047847514695288e-02
4.750000000000000000e+04 1.386121095864841293e-02 6.943840674071890921e-03 2.260419532902609163e-02
4.760000000000000000e+04 1.362561243595423327e-02 6.724912008556086819e-03 2.237872402913076639e-02
4.770000000000000000e+04 1.367136609295381555e-02 6.788499499786004171e-03 2.226661429214782037e-02
4.780000000000000000e+04 1.367696763959199736e-02 6.794863365595431477e-03 2.232730975804961965e-02
4.790000000000000000e+04 1.352019699672831095e-02 6.639999017879373057e-03 2.212250625632756346e-02
4.800000000000000000e+04 1.601138180397018718e-02 8.107782987612083270e-03 2.572882298800485690e-02
4.810000000000000000e+04 1.935604740943469571e-02 1.006830852649678865e-02 2.987269771595333148e-02
4.820000000000000000e+04 1.442868576969178265e-02 7.057096560700425007e-03 2.336900337660574589e-02
4.830000000000000000e+04 1.360841510936535229e-02 6.917079081681083361e-03 2.226631219881998122e-02
4.840000000000000000e+04 3.117166457105886510e-02 2.029107900668222428e-02 4.241735652363929493e-02
4.850000000000000000e+04 6.620884236358899610e-02 5.459058843726250637e-02 7.784014510681089294e-02
4.860000000000000000e+04 3.831143514270428374e-02 2.703444704830138684e-02 4.958766672777507184e-02
4.870000000000000000e+04 1.365351721132767628e-02 6.700402072916736285e-03 2.229817298669902262e-02
4.880000000000000000e+04 1.345536070258532974e-02 6.842340512703630993e-03 2.230943522944416751e-02
4.890000000000000000e+04 1.561218137184208765e-02 7.643626367049977804e-03 2.526413878640149796e-02
4.900000000000000000e+04 2.221108543978910291e-02 1.103405562269680652e-02 3.607949357298036175e-02
4.910000000000000000e+04 1.824891608929011047e-02 9.011547376001146845e-03 3.000255777043017019e-02
4.920000000000000000e+04 2.702723394188242395e-02 1.330649650108497832e-02 4.375472322524767005e-02
4.930000000000000000e+04 2.445926578163188161e-02 1.206579356069751793e-02 3.978346079202687430e-02
4.940000000000000000e+04 1.405376016293079060e-02 7.016891757754043467e-03 2.310625733299309301e-02
4.950000000000000000e+04 1.456158798903271073e-02 7.154927450801423262e-03 2.360700167968178206e-02
4.960000000000000000e+04 3.381058402472051500e-02 2.087647217580922837e-02 4.672266277796361528e-02
4.970000000000000000e+04 5.302262710652971139e-02 4.154240122583494760e-02 6.473710348951140781e-02
4.980000000000000000e+04 2.489270397116089342e-02 1.407510645075994021e-02 3.645107095853954843e-02
4.990000000000000000e+04 1.386939623005174933e-02 6.915916854598907516e-03 2.259030513141112306e-02
5.000000000000000000e+04 1.364170763506697935e-02 6.660304005847258145e-03 2.220111908881551924e-02
5.010000000000000000e+04 1.357752480155976528e-02 6.789560083810064831e-03 2.223590611781275928e-02
5.020000000000000000e+04 1.361817353599935332e-02 6.771713607117064472e-03 2.205392743127702893e-02
5.030000000000000000e+04 1.346147439153560880e-02 6.796193134212535902e-03 2.213709703137143811e-02
5.040000000000000000e+04 1.343783228546333204e-02 6.600383303952315171e-03 2.218738322251127826e-02
5.050000000000000000e+04 1.366999336172977642e-02 6.822526287351593673e-03 2.193826361052055376e-02
5.060000000000000000e+04 1.343597680871592634e-02 6.730175004780661677e-03 2.207848868632732164e-02
5.070000000000000000e+04 1.351996191021088631e-02 6.811732755513141661e-03 2.209646104441746056e-02
5.080000000000000000e+04 1.339556914363165298e-02 6.645509347951235497e-03 2.190114546369155771e-02
5.090000000000000000e+04 1.337309558142832019e-02 6.733688839226207451e-03 2.195267132428713186e-02
5.100000000000000000e+04 1.345211584448164320e-02 6.623655986372495828e-03 2.189672911325644955e-02
5.110000000000000000e+04 1.347516367827481833e-02 6.633494477139689066e-03 2.206633518094828356e-02
5.120000000000000000e+04 1.349275255190344851e-02 6.824712500821172000e-03 2.209077557531375496e-02
5.130000000000000000e+04 1.363828808515305836e-02 6.779740999661026078e-03 2.237407455744900783e-02
5.140000000000000000e+04 1.355535326234816838e-02 6.741005153563507830e-03 2.206518042178398642e-02
5.150000000000000000e+04 1.371758325828095412e-02 6.775793479784963935e-03 2.242648073479640292e-02
5.160000000000000000e+04 1.337689765113117893e-02 6.741477296439508417e-03 2.187970274015865052e-02
5.170000000000000000e+04 1.333776973596178042e-02 6.586762398078195753e-03 2.164177879025466419e-02
5.180000000000000000e+04 1.324480285347100043e-02 6.754100996070231365e-03 2.154096884593531547e-02
5.190000000000000000e+04 1.325104492498846258e-02 6.593497964023795066e-03 2.163551665940112445e-02
5.200000000000000000e+04 1.336387252915338664e-02 6.779059220691832470e-03 2.179235877622209480e-02
5.210000000000000000e+04 1.317331678401951166e-02 6.586990100009704543e-03 2.168297655277149835e-02
5.220000000000000000e+04 1.334105285851305660e-02 6.729530533043997891e-03 2.190594546358297715e-02
5.230000000000000000e+04 1.351496513391713984e-02 6.741693904114617365e-03 2.187208043246406317e-02
5.240000000000000000e+04 1.488092973262643802e-02 7.410247329487018413e-03 2.428801846443919693e-02
5.250000000000000000e+04 1.495643540032047178e-02 7.445558790593415945e-03 2.439414271522056046e-02
5.260000000000000000e+04 1.380482941351289343e-02 6.868479407581881691e-03 2.244526155546371776e-02
5.270000000000000000e+04 1.370909562743405710e-02 6.799992376891007481e-03 2.235989372460396932e-02
5.280000000000000000e+04 1.369248791606492155e-02 6.823308636561821634e-03 2.221793997909988702e-02
5.290000000000000000e+04 1.374157537162867988e-02 6.896079128223067851e-03 2.260047834814582490e-02
5.300000000000000000e+04 1.403341398414862176e-02 6.889128244553413549e-03 2.287597721409480658e-02
5.310000000000000000e+04 1.418012357614415603e-02 7.116062654903263819e-03 2.291061471429816504e-02
5.320000000000000000e+04 1.426761105179580325e-02 7.091583250902501294e-03 2.320971046634029422e-02
5.330000000000000000e+04 1.444957163707128248e-02 7.140253116978920525e-03 2.359023529524634927e-02
5.340000000000000000e+04 1.478713262386686413e-02 7.436125581313132206e-03 2.404466804707059563e-02
5.350000000000000000e+04 1.452722962331757031e-02 7.257749217763093987e-03 2.392677748149796974e-02
5.360000000000000000e+04 1.444514455930038729e-02 7.175110416422923222e-03 2.363351830409527593e-02
5.370000000000000000e+04 1.454317157766637537e-02 7.299578354078523588e-03 2.373861004036334488e-02
5.380000000000000000e+04 1.460236511743483699e-02 7.174087071153637668e-03 2.389180742465921853e-02
5.390000000000000000e+04 1.456018183171804876e-02 7.266106857397955192e-03 2.356824893744886157e-02
5.400000000000000000e+04 1.430631464151249470e-02 7.188009167811807397e-03 2.317962430068564242e-02
5.410000000000000000e+04 1.469546955811532919e-02 7.494242975631735908e-03 2.398363333613450984e-02
5.420000000000000000e+04 1.826202811862875572e-02 9.449752086826723393e-03 2.879626007175315264e-02
5.430000000000000000e+04 1.611988580768662985e-02 8.029885854361219419e-03 2.588628252715517372e-02
5.440000000000000000e+04 1.436399521796833181e-02 7.224813298771706228e-03 2.342343727333933215e-02
5.450000000000000000e+04 1.445209619336865377e-02 7.103503506936302558e-03 2.357573677212360455e-02
5.460000000000000000e+04 1.590675172574728541e-02 8.067916169892009812e-03 2.575509725184158341e-02
5.470000000000000000e+04 2.954346042369124237e-02 1.755381719597660581e-02 4.210916871192499356e-02
5.480000000000000000e+04 2.864896292878603770e-02 1.664130156394741031e-02 4.082125666041898360e-02
5.490000000000000000e+04 1.656610090364398630e-02 8.244000112532982524e-03 2.689143991956513546e-02
5.500000000000000000e+04 2.683290630423759357e-02 1.359447249150306548e-02 4.400695187186969698e-02
5.510000000000000000e+04 1.662394688427440426e-01 8.333430518232919082e-02 2.682574175760621404e-01
5.520000000000000000e+04 2.112896401893830378e-01 1.057998786646355827e-01 3.394550974618028016e-01
5.530000000000000000e+04 6.502906300979584275e-02 3.323980858890442092e-02 1.043523912985429569e-01
5.540000000000000000e+04 2.102513631130973129e-02 1.048091485690246308e-02 3.434051451698658108e-02
5.550000000000000000e+04 2.014329933632874325e-01 9.900193149712432916e-02 3.424959013404814678e-01
5.560000000000000000e+04 4.473215059430187823e-01 2.232266981131112993e-01 7.505589773776725204e-01
5.570000000000000000e+04 3.677144232329189744e-01 1.886213897258314787e-01 5.980059120597582822e-01
5.580000000000000000e+04 1.019245530974997732e-01 5.200653970909807633e-02 1.648302808468263547e-01
5.590000000000000000e+04 3.233750431826824534e-01 2.991284017103747472e-01 3.458059578824128621e-01
5.600000000000000000e+04 4.172190515028250668e-01 4.001260520007249855e-01 4.347530658736308284e-01
5.610000000000000000e+04 1.257176517817667483e-01 1.046458560160806045e-01 1.490183629634065365e-01
5.620000000000000000e+04 1.990220674647767349e-02 1.002934581095293355e-02 3.196805135129048708e-02
5.630000000000000000e+04 1.731865874284257284e-02 8.616029924137794810e-03 2.816006315184492112e-02
5.640000000000000000e+04 1.868787757812357883e-02 9.385178980561462853e-03 3.121857836840739170e-02
5.650000000000000000e+04 2.119802759673264370e-02 1.062483626853313184e-02 3.414729314015430700e-02
5.660000000000000000e+04 2.917869597829471709e-02 1.647215724219743341e-02 4.298309093584135737e-02
5.670000000000000000e+04 2.165939435727576995e-02 1.108171105690651699e-02 3.469672963740093319e-02
5.680000000000000000e+04 1.771809076993503124e-02 8.863799592493866800e-03 2.902943429695756597e-02
5.690000000000000000e+04 2.473805296207667523e-02 1.255426485257205883e-02 4.027748632609268187e-02
5.700000000000000000e+04 2.482628111659206799e-02 1.241815836398801713e-02 4.030184671983386840e-02
5.710000000000000000e+04 1.923049398942835997e-02 9.422665458724164764e-03 3.149764878294705750e-02
5.720000000000000000e+04 1.961401383691791997e-02 9.685356558008003519e-03 3.247486482911979278e-02
5.730000000000000000e+04 2.023956754779527439e-02 1.004162993463565169e-02 3.379287729530267015e-02
5.740000000000000000e+04 2.120141372884647504e-02 1.046053007949163810e-02 3.544170883064495098e-02
5.750000000000000000e+04 2.211452296644393981e-02 1.079991645542895812e-02 3.746448494118459482e-02
5.760000000000000000e+04 2.314834145585414546e-02 1.152761785500630749e-02 3.962389964899999673e-02
5.770000000000000000e+04 2.450875454274879794e-02 1.193887344329648721e-02 4.177134582930104589e-02
5.780000000000000000e+04 2.637512659231665627e-02 1.254878444433013551e-02 4.540344389295480204e-02
5.790000000000000000e+04 2.715836797144481618e-02 1.338833043430701086e-02 4.787682003657856011e-02
5.800000000000000000e+04 2.812375118676986238e-02 1.367276439515603507e-02 4.948095794309789047e-02
5.810000000000000000e+04 2.916950341263729526e-02 1.404223605354859225e-02 5.257502105832477513e-02
5.820000000000000000e+04 3.066175046731850137e-02 1.472665042388740346e-02 5.562868053378543926e-02
5.830000000000000000e+04 3.231060616580846978e-02 1.516026777889250762e-02 5.873146029710193949e-02
5.840000000000000000e+04 3.370289161051050197e-02 1.588011523250956389e-02 6.226260850892116616e-02
5.850000000000000000e+04 3.560191108060977577e-02 1.670435501716820148e-02 6.640379797561259123e-02
5.860000000000000000e+04 3.776965531102228352e-02 1.742157994945550681e-02 7.064448273568534054e-02
5.870000000000000000e+04 3.921528675294216199e-02 1.785934744378795541e-02 7.472643061528597141e-02
5.880000000000000000e+04 4.085768211559002300e-02 1.866452692575699610e-02 7.700869393603583524e-02
5.890000000000000000e+04 4.198493686954088422e-02 1.880450740678349039e-02 7.987325895372129891e-02
5.900000000000000000e+04 4.287909160082242765e-02 1.946622217757293036e-02 8.208791807267554197e-02
5.910000000000000000e+04 4.480125963043363885e-02 1.993623001505454365e-02 8.489354882513786005e-02
5.920000000000000000e+04 4.605062229126252044e-02 2.112882167703567654e-02 8.663063036957710517e-02
5.930000000000000000e+04 4.780603573581505839e-02 2.147069715077709953e-02 8.876433071235337313e-02
5.940000000000000000e+04 5.070570568567928094e-02 2.277930687344987062e-02 9.313035724180267205e-02
5.950000000000000000e+04 5.313162071475310833e-02 2.400158169272925690e-02 9.716645830643702575e-02
5.960000000000000000e+04 5.548221353817181511e-02 2.538482959282072418e-02 9.995183452769972055e-02
5.970000000000000000e+04 5.689642006479615766e-02 2.673902127015817184e-02 1.027070896292244101e-01
5.980000000000000000e+04 5.864040385077533973e-02 2.738058624032718366e-02 1.050195057577248819e-01
5.990000000000000000e+04 5.972795599256948418e-02 2.814064467104461856e-02 1.055035413640850600e-01
6.000000000000000000e+04 6.068517744976536371e-02 2.855742344066114144e-02 1.050137741360935711e-01
6.010000000000000000e+04 6.052858684607483053e-02 2.866616609175336172e-02 1.050006042186051869e-01
6.020000000000000000e+04 6.170270735732920342e-02 2.990672352233252757e-02 1.047412811434720592e-01
6.030000000000000000e+04 6.376275473369855118e-02 3.093607464623021261e-02 1.083924850209678770e-01
6.040000000000000000e+04 6.713084988255299534e-02 3.306331235051357398e-02 1.113292277320078599e-01
6.050000000000000000e+04 7.164666175363808287e-02 3.565107452047069914e-02 1.156031267739251467e-01
6.060000000000000000e+04 7.422610604428941938e-02 3.710619125006447278e-02 1.215893803594997324e-01
6.070000000000000000e+04 7.706090426299090634e-02 3.815788824834952242e-02 1.250542671396721039e-01
6.080000000000000000e+04 8.088887861857342598e-02 4.072034259273789314e-02 1.301410998083092074e-01
6.090000000000000000e+04 8.200964671381447135e-02 4.100438633327965765e-02 1.317453989523875713e-01
6.100000000000000000e+04 8.336473151245485380e-02 4.161482187489239093e-02 1.347396204644717987e-01
6.110000000000000000e+04 8.146654930203227341e-02 4.004153761317915533e-02 1.378956660060959571e-01
6.120000000000000000e+04 8.349307026042522561e-02 4.094348262920469161e-02 1.392972488025911171e-01
6.130000000000000000e+04 8.591300858322881151e-02 4.343347810868201236e-02 1.407377565820984167e-01
6.140000000000000000e+04 8.862139719711552288e-02 4.438238662309999111e-02 1.438803334508129139e-01
6.150000000000000000e+04 8.964834148732264696e-02 4.425528860651287838e-02 1.472044605007350460e-01
6.160000000000000000e+04 8.735324872455152434e-02 4.143848259796677203e-02 1.534543507861149958e-01
6.170000000000000000e+04 9.234642619638169792e-02 4.542452583347936917e-02 1.517908046788845333e-01
6.180000000000000000e+04 9.184315020127509221e-02 4.562289017163587840e-02 1.508502226558062209e-01
6.190000000000000000e+04 8.942386892091426509e-02 4.481351763616878148e-02 1.496977850216199002e-01
6.200000000000000000e+04 8.645712217709047853e-02 4.248602360540684741e-02 1.485992210361093691e-01
6.210000000000000000e+04 8.477927751589142691e-02 4.083692552602114639e-02 1.450540791571610366e-01
6.220000000000000000e+04 8.399598278508113580e-02 4.154612142617946507e-02 1.446982271915075169e-01
6.230000000000000000e+04 8.445596253587792090e-02 4.024113024044388698e-02 1.445069120573467814e-01
6.240000000000000000e+04 8.273957059406866765e-02 3.889085124115079783e-02 1.446505661898686845e-01
6.250000000000000000e+04 4.663911474182996092e-02 1.355915423845641815e-02 1.034896812623214563e-01
