# Comments from moku data file:% Moku:Phasemeter 
# 
# % Ch 1 - DC coupling, 50 Ohm impedance, 1 V range
# 
# % Ch 1 bandwidth = 1.0000000000e+04 (Hz)
# 
# % Acquisition rate: 1.2500000000e+05 Hz
# 
# % External 10 MHz clock
# 
# % Acquired 2020-05-15 T 09:37:55 -0700
# 
# % Time, Set frequency 1 (Hz), Frequency 1 (Hz), Phase 1 (cyc), I 1 (V), Q 1 (V)
# 
# #########################################################
# ASD calculated by mokuReadFreqNoise.py
# Frequency [Hz]         Freq ASD1 [Hz/rtHz]      Freq ASDlb1 [Hz/rtHz]    Freq ASDub1 [Hz/rtHz]    
# 
0.000000000000000000e+00 1.513947327812626042e+02 3.921237641545258867e+01 4.955745225161619487e+02
1.000000000000000056e-01 2.880362692105078395e+02 1.696388359250975384e+02 4.432764972164292772e+02
2.000000000000000111e-01 1.522543598720167779e+02 1.030148952631366228e+02 2.425223835206184617e+02
3.000000000000000444e-01 1.129788322580685218e+02 6.512316185028241478e+01 1.322185700086586735e+02
4.000000000000000222e-01 6.487291430543071158e+01 3.071331451084844844e+01 9.609094735249692576e+01
5.000000000000000000e-01 4.550623026701964591e+01 2.033627972738898038e+01 1.034686276217012448e+02
6.000000000000000888e-01 6.344128917947600144e+01 2.753302148274418926e+01 8.597211277132477392e+01
7.000000000000000666e-01 4.022440111021665388e+01 1.968681692451698240e+01 7.392724555154431698e+01
8.000000000000000444e-01 4.431405814024122236e+01 2.611523995626032146e+01 5.705433159457249559e+01
9.000000000000000222e-01 2.569634408554430749e+01 1.630525266648995597e+01 4.464314259722228684e+01
1.000000000000000000e+00 2.426181677077947541e+01 1.585411999079487977e+01 5.232406789779238210e+01
1.100000000000000089e+00 2.561111842571362018e+01 1.594238126814894585e+01 4.744263918193402674e+01
1.200000000000000178e+00 1.813383593315379727e+01 1.245523145570586010e+01 3.479452128101279129e+01
1.300000000000000044e+00 1.297999789753118982e+01 8.983480720606882741e+00 3.556123220210898950e+01
1.400000000000000133e+00 1.776843405231931072e+01 1.124254525342292865e+01 3.644621907253083037e+01
1.500000000000000000e+00 2.679702709300674712e+01 1.195821418933658187e+01 4.059003366024428772e+01
1.600000000000000089e+00 2.683615047407138832e+01 1.055003632519804135e+01 3.892075640949803983e+01
1.700000000000000178e+00 2.332035652923296709e+01 9.332935244012157128e+00 3.957634261795306685e+01
1.800000000000000044e+00 2.363684507719228378e+01 1.452423483542928118e+01 5.198064227519063252e+01
1.900000000000000133e+00 2.860238921323311345e+01 1.572188436884873219e+01 3.885557465860195236e+01
2.000000000000000000e+00 1.743820632036234741e+01 1.060571268564690506e+01 3.212276064863048219e+01
2.100000000000000089e+00 1.551698037071026448e+01 1.071212447079212815e+01 3.236208803325848748e+01
2.200000000000000178e+00 2.215360122765681439e+01 1.258175364342995728e+01 2.851221831213991820e+01
2.300000000000000266e+00 1.816046225405532866e+01 9.660405085161931638e+00 2.483824533876187601e+01
2.400000000000000355e+00 1.582692225401852681e+01 7.151154378859125416e+00 2.782885759301490936e+01
2.500000000000000000e+00 1.760918348994491467e+01 7.026802455879647802e+00 2.488869575743173002e+01
2.600000000000000089e+00 1.907803325826233021e+01 1.320909327639172659e+01 2.681059385901513892e+01
2.700000000000000178e+00 1.980309130019985631e+01 1.706126883078445999e+01 3.690130774021260152e+01
2.800000000000000266e+00 1.709138112431900680e+01 1.171150649592180848e+01 3.198292575322682652e+01
2.900000000000000355e+00 2.816856270508810312e+01 1.291280423684523271e+01 3.031640172663957244e+01
3.000000000000000000e+00 1.853744665734396335e+01 8.662588329880941629e+00 2.567303882881561705e+01
3.100000000000000089e+00 2.161421092954326539e+01 9.865644554126463461e+00 3.489607960200491732e+01
3.200000000000000178e+00 2.455472204542898140e+01 1.171858192627086481e+01 3.532445375903497364e+01
3.300000000000000266e+00 1.915406395229588910e+01 9.612532738750809713e+00 3.606302900242721421e+01
3.400000000000000355e+00 1.925241539958575743e+01 1.004259629944055199e+01 3.223457821085567332e+01
3.500000000000000000e+00 2.700691875029394140e+01 1.988344745103033873e+01 4.583633343262649618e+01
3.600000000000000089e+00 2.734326937732573271e+01 1.936289112390421252e+01 4.693879711562253476e+01
3.700000000000000178e+00 2.289816658079932310e+01 1.819819995012270653e+01 4.156176597719956334e+01
3.800000000000000266e+00 1.872369309686484229e+01 1.126936782638460066e+01 2.876070263427550699e+01
3.900000000000000355e+00 1.264663976244724708e+01 4.899113888972262743e+00 2.280548405536470113e+01
4.000000000000000000e+00 1.717217010336795013e+01 6.913122763193102926e+00 3.073496353658181590e+01
4.100000000000000533e+00 1.886312374994528440e+01 7.016745951553995830e+00 3.320333180830392905e+01
4.200000000000000178e+00 1.195600388478604259e+01 8.308073257389334998e+00 2.242233561147950383e+01
4.299999999999999822e+00 1.199138539826410721e+01 6.815286819260089501e+00 2.298291887892226981e+01
4.400000000000000355e+00 1.257804862057634665e+01 7.550421567802099609e+00 1.976176685040660175e+01
4.500000000000000000e+00 1.230953788797229542e+01 7.602144346312782908e+00 1.473804945982347725e+01
4.600000000000000533e+00 1.296553971785976245e+01 8.659615937996248292e+00 2.240482522169111945e+01
4.700000000000000178e+00 1.230492637621174090e+01 9.522907436998918840e+00 2.161956382529268694e+01
4.800000000000000711e+00 1.447541259953326254e+01 6.143725921874682250e+00 2.329280706087986630e+01
4.900000000000000355e+00 1.000912001251598049e+01 6.542603825412001584e+00 2.613876713168310317e+01
5.000000000000000000e+00 1.420129044253255834e+01 7.750593282403326789e+00 1.906946367861638336e+01
5.100000000000000533e+00 1.520776750138782418e+01 1.171608311118756696e+01 2.028367660141829276e+01
5.200000000000000178e+00 1.838057380264771723e+01 1.207384246271333339e+01 2.700393750921562841e+01
5.300000000000000711e+00 1.836999585307221849e+01 1.009832111739027383e+01 2.854669858605376120e+01
5.400000000000000355e+00 1.488366516190034616e+01 8.977641346966086289e+00 2.383259965130682900e+01
5.500000000000000000e+00 1.150993514321698541e+01 9.536177014486348469e+00 2.272681507512529464e+01
5.600000000000000533e+00 1.450638753796513036e+01 8.412213708473485596e+00 2.066065219598556979e+01
5.700000000000000178e+00 1.579547936621462156e+01 6.687974557856511737e+00 2.536867157269882966e+01
5.800000000000000711e+00 9.270992339111497671e+00 4.889033092623870758e+00 1.771540166135659433e+01
5.900000000000000355e+00 1.124025451977703582e+01 6.449549167033907793e+00 2.223589822875220889e+01
6.000000000000000000e+00 9.512547523067182098e+00 4.250907383713523835e+00 1.679176350629769843e+01
6.100000000000000533e+00 1.073708663318029544e+01 5.912908664426380412e+00 2.140133721852389925e+01
6.200000000000000178e+00 1.355170302521863768e+01 1.043854567610490136e+01 1.897295974677327379e+01
6.300000000000000711e+00 1.440095022285615123e+01 8.723713488262179183e+00 1.988606594249636927e+01
6.400000000000000355e+00 1.250451336475111930e+01 8.711950106852496489e+00 1.512749220436125519e+01
6.500000000000000000e+00 1.906762502346594701e+01 5.987126331117644362e+00 2.877780202754593120e+01
6.600000000000000533e+00 1.617283473092975044e+01 1.028368952397838498e+01 1.989686599656210575e+01
6.700000000000000178e+00 1.267906242541749151e+01 8.244433275183386201e+00 2.419008272280743199e+01
6.800000000000000711e+00 1.514212249661670207e+01 7.799188901303049093e+00 1.725730176140665506e+01
6.900000000000000355e+00 1.465308323304547500e+01 6.829825882604303899e+00 1.890538916150094906e+01
7.000000000000000000e+00 9.237908222713432593e+00 8.310713574203738574e+00 1.651428450398424630e+01
7.100000000000000533e+00 9.731601819069691572e+00 6.990457334530526978e+00 2.320926235621654143e+01
7.200000000000000178e+00 1.518092087924160793e+01 7.158683158375215960e+00 2.217514021462735485e+01
7.300000000000000711e+00 1.824226670081512935e+01 8.332945111290797513e+00 2.999635047317855552e+01
7.400000000000000355e+00 1.517844270920154237e+01 6.958117774938353151e+00 2.983877056865314259e+01
7.500000000000000000e+00 1.077445862662494314e+01 8.093306072602242551e+00 2.051586581830190070e+01
7.600000000000000533e+00 1.231802182079976049e+01 6.064326442182667698e+00 1.739995013315463623e+01
7.700000000000000178e+00 1.317369239176913531e+01 6.726036884980416630e+00 2.089474858297630533e+01
7.800000000000000711e+00 1.763243037169195659e+01 6.881030856107869909e+00 2.290457223769146111e+01
7.900000000000000355e+00 1.586819076182627697e+01 1.403203883759250736e+01 2.492476735255076292e+01
8.000000000000000000e+00 1.010755249530823363e+01 6.702206354504685493e+00 1.930196191211862100e+01
8.099999999999999645e+00 8.281866105071934214e+00 6.581764185771816322e+00 1.800869934438313535e+01
8.200000000000001066e+00 1.155318767572403438e+01 9.226648180869982951e+00 1.560795216517574602e+01
8.300000000000000711e+00 1.132129037331238486e+01 6.160915084238245853e+00 2.001540960233472433e+01
8.400000000000000355e+00 1.685990216693970467e+01 7.182438668120030734e+00 2.188124217751091294e+01
8.500000000000000000e+00 1.341817180805882437e+01 5.979672727665295007e+00 2.239683401822589559e+01
8.599999999999999645e+00 1.214628999126261810e+01 8.595279376780005975e+00 2.230608891358320989e+01
8.700000000000001066e+00 1.834782673777726814e+01 8.845617202323891703e+00 2.134336616718978163e+01
8.800000000000000711e+00 1.528264721468882925e+01 9.291349171642593774e+00 2.243363362680939588e+01
8.900000000000000355e+00 1.406029248851252333e+01 1.151554007412275382e+01 2.130548199066013737e+01
9.000000000000000000e+00 1.351039385136167859e+01 6.262058741348739410e+00 2.359464142116436847e+01
9.099999999999999645e+00 1.354243424428587161e+01 6.648886957235557560e+00 2.231833877094571505e+01
9.200000000000001066e+00 1.297378132458880096e+01 4.955885530591912946e+00 1.933920915437777310e+01
9.300000000000000711e+00 9.350939892214798377e+00 5.333632845279279167e+00 1.729215101958002165e+01
9.400000000000000355e+00 1.074032122935032163e+01 7.255510980318192971e+00 2.075883571473755751e+01
9.500000000000000000e+00 1.266433696260505215e+01 9.809175102413014713e+00 1.633247925819892643e+01
9.600000000000001421e+00 1.317529354365105831e+01 1.046752124682677376e+01 1.697066381274457569e+01
9.700000000000001066e+00 1.008981018618654879e+01 5.772974316194335209e+00 1.383722431293179866e+01
9.800000000000000711e+00 9.041269987213478743e+00 7.046036450293478026e+00 1.799776482492908869e+01
9.900000000000000355e+00 1.598697459576380986e+01 1.262767608878021264e+01 2.394959217032013044e+01
1.000000000000000000e+01 1.237920528984708568e+01 6.818458233059617513e+00 2.215097566284427444e+01
1.100000000000000000e+01 1.151694969646500155e+01 5.535755320167679017e+00 1.822054994453189281e+01
1.200000000000000000e+01 1.025967240967302629e+01 4.767976218134872823e+00 1.870570579482172846e+01
1.300000000000000000e+01 9.262343567517005383e+00 3.847245488708668670e+00 1.786612603077109185e+01
1.400000000000000000e+01 9.980524425852513204e+00 3.315207124439516928e+00 1.897842624269795309e+01
1.500000000000000000e+01 1.040590469519243655e+01 3.814065595608634229e+00 1.651976387011638181e+01
1.600000000000000000e+01 7.392202803042683179e+00 2.968150661008957414e+00 1.470325040399090888e+01
1.700000000000000000e+01 7.193925033116380874e+00 2.624892564290337571e+00 1.557306208027512184e+01
1.800000000000000000e+01 6.309791919004125837e+00 2.197699274951387949e+00 1.254858932206856892e+01
1.900000000000000000e+01 6.641772920727782470e+00 2.292127951600023916e+00 1.252920631668203200e+01
2.000000000000000000e+01 6.322879026668373648e+00 1.841130290282396942e+00 1.328527541989860516e+01
2.100000000000000000e+01 6.277497078854687551e+00 1.519059824732100772e+00 1.167389393592593549e+01
2.200000000000000000e+01 4.758357263580507812e+00 1.508391825660834851e+00 1.207632023954429279e+01
2.300000000000000000e+01 3.946023345737651677e+00 1.244537316434627838e+00 1.067805969975036184e+01
2.400000000000000000e+01 3.319721645244375630e+00 9.858570126837546965e-01 1.030301934764128724e+01
2.500000000000000000e+01 2.690710326785832773e+00 8.215829059930496170e-01 9.317468764350460120e+00
2.600000000000000000e+01 2.237472596461669738e+00 7.382699177105932486e-01 1.028416304307513940e+01
2.700000000000000000e+01 2.156767225968060586e+00 6.172404750154986131e-01 9.327834499144948666e+00
2.800000000000000000e+01 1.939916302745958276e+00 6.643301418698426275e-01 8.688482861836060778e+00
2.900000000000000000e+01 1.498407052640823078e+00 5.020176473571227316e-01 7.870738463480053682e+00
3.000000000000000000e+01 1.324807046278063005e+00 3.550042617441427906e-01 7.382122986988498781e+00
3.100000000000000000e+01 9.826778974614106543e-01 3.660673668822744808e-01 6.210033385763443547e+00
3.200000000000000000e+01 9.868561351633294843e-01 4.097213472092496866e-01 6.342552088662610998e+00
3.300000000000000000e+01 9.056830923584536785e-01 3.655504470912617765e-01 5.248090544545170211e+00
3.400000000000000000e+01 7.575833845781758669e-01 3.022728684313782943e-01 5.459282138359005110e+00
3.500000000000000000e+01 6.533859559382261262e-01 2.971893040960740806e-01 4.056357316975759630e+00
3.600000000000000000e+01 6.337409684037415003e-01 2.130122800599952015e-01 3.058636589080078849e+00
3.700000000000000000e+01 6.030682091432919556e-01 2.228505740643289823e-01 2.186519807075075761e+00
3.800000000000000000e+01 5.003118226344575037e-01 1.840893968139960535e-01 2.105174891521343294e+00
3.900000000000000000e+01 4.532943018736111385e-01 1.768627208021399388e-01 2.111530825489625673e+00
4.000000000000000000e+01 4.219236393893139869e-01 1.768171039578562975e-01 1.546198194804023540e+00
4.100000000000000000e+01 4.221012638494043845e-01 1.647668203150994548e-01 1.818717690249430197e+00
4.200000000000000000e+01 3.177404660944223025e-01 1.596131185396500451e-01 1.363254057786394524e+00
4.300000000000000000e+01 3.316612011297037643e-01 1.003198076209339956e-01 1.080040847104100532e+00
4.400000000000000000e+01 3.201479005661203026e-01 1.676958918092966155e-01 1.004017890248412037e+00
4.500000000000000000e+01 3.142481933324043908e-01 1.278056996731138928e-01 8.400623693483513232e-01
4.600000000000000000e+01 2.792041113926696516e-01 1.297192854088904945e-01 7.431939807884571092e-01
4.700000000000000000e+01 3.161128680992121298e-01 1.608778354008261191e-01 7.318305486704883567e-01
4.800000000000000000e+01 2.750908855130413389e-01 1.278281034151385886e-01 5.955119080893378491e-01
4.900000000000000000e+01 2.470979222589254343e-01 1.106210862677655116e-01 6.329486840719548146e-01
5.000000000000000000e+01 2.375028931362350715e-01 1.160238327790660551e-01 5.508569929837716650e-01
5.100000000000000000e+01 2.477939776857709941e-01 1.057550882659296781e-01 4.702155414024559721e-01
5.200000000000000000e+01 2.244809470663301498e-01 1.076182917080907298e-01 4.169885373958197028e-01
5.300000000000000000e+01 2.258962651250832621e-01 9.549076094624420197e-02 4.225818069553854417e-01
5.400000000000000000e+01 2.250741942911620996e-01 9.454606151985309181e-02 4.070833627533306243e-01
5.500000000000000000e+01 2.382120225212185638e-01 1.056018283629714255e-01 4.726674022653453711e-01
5.600000000000000000e+01 2.141422202319161472e-01 1.099492473144819960e-01 4.424384236346831645e-01
5.700000000000000000e+01 2.019264443398621212e-01 9.788668496587780987e-02 3.809657312667927287e-01
5.800000000000000000e+01 1.919828123177184931e-01 9.182052131725058908e-02 3.336653751016649960e-01
5.900000000000000000e+01 1.811419020553582393e-01 8.665442407453767537e-02 3.698592560896981629e-01
6.000000000000000000e+01 1.894488613118082976e-01 8.956376490418690994e-02 3.220301138865533930e-01
6.100000000000000000e+01 1.776777212096058156e-01 9.419326647394965502e-02 3.290432480359324341e-01
6.200000000000000000e+01 1.653321314399261999e-01 9.220972547550340681e-02 2.769065999431287728e-01
6.300000000000000000e+01 1.623146830126948881e-01 7.926865184342153647e-02 3.053710149367102611e-01
6.400000000000000000e+01 1.712626377311281811e-01 6.994942163232290011e-02 2.922042442404351181e-01
6.500000000000000000e+01 1.513142884406711575e-01 8.250437935421378599e-02 2.622681356499290128e-01
6.600000000000000000e+01 1.230620118402392937e-01 6.610313734954163800e-02 2.338507598995343273e-01
6.700000000000000000e+01 1.184209026214827765e-01 5.970085458546676993e-02 2.180916398385046306e-01
6.800000000000000000e+01 1.260395101245593286e-01 5.481746357144337556e-02 2.217265137785951190e-01
6.900000000000000000e+01 1.185082052111136874e-01 6.009672390988169549e-02 2.176270589044965176e-01
7.000000000000000000e+01 1.231919727525376818e-01 5.019919655964602545e-02 2.108367021998482638e-01
7.100000000000000000e+01 1.181854023155067546e-01 6.552260668072687477e-02 1.927417730520193939e-01
7.200000000000000000e+01 1.099573171819570871e-01 5.119043445084398014e-02 1.883541272383921494e-01
7.300000000000000000e+01 9.845861832199651054e-02 4.310098272316357365e-02 1.620137268965421429e-01
7.400000000000000000e+01 1.003992383545534162e-01 4.555371492422663482e-02 1.740082984803675292e-01
7.500000000000000000e+01 1.020112513204606136e-01 4.992068829480306863e-02 1.919775182929772950e-01
7.600000000000000000e+01 9.606492882990337601e-02 4.781716603087553946e-02 1.675506707803933737e-01
7.700000000000000000e+01 8.111950271272048985e-02 4.213903547242782432e-02 1.680983840052225342e-01
7.800000000000000000e+01 8.805203075070518193e-02 5.110407926785958538e-02 1.549000969687172324e-01
7.900000000000000000e+01 8.836273462682558977e-02 4.974403806204046735e-02 1.428680839432935612e-01
8.000000000000000000e+01 9.288603154080961322e-02 4.745198790590948734e-02 1.507374666287194798e-01
8.100000000000000000e+01 8.606592696225735806e-02 4.421124657534154095e-02 1.595674603623912502e-01
8.200000000000000000e+01 8.564766331938696020e-02 4.126518627241349685e-02 1.440845566718362281e-01
8.300000000000000000e+01 8.782219212879625869e-02 4.677926022286776897e-02 1.405473824905998370e-01
8.400000000000000000e+01 9.246118328205632508e-02 5.264447281212168012e-02 1.500986763983802874e-01
8.500000000000000000e+01 9.328732329602017204e-02 3.783041565620431229e-02 1.531252874561535304e-01
8.600000000000000000e+01 9.180111366654164495e-02 4.172362212920336516e-02 1.660284933423016862e-01
8.700000000000000000e+01 8.918201227401714726e-02 3.953149861092914580e-02 1.439357757348391775e-01
8.800000000000000000e+01 7.558181451810772056e-02 3.883690294309632973e-02 1.476306862124304176e-01
8.900000000000000000e+01 7.900017557692944059e-02 3.877476798829462140e-02 1.384204461726324664e-01
9.000000000000000000e+01 8.095187262814818041e-02 4.008930725394990735e-02 1.574351883567790544e-01
9.100000000000000000e+01 8.297508552871049603e-02 3.564339209178171708e-02 1.473274274328683076e-01
9.200000000000000000e+01 8.227986825500853418e-02 4.520398936743439539e-02 1.660481197967872968e-01
9.300000000000000000e+01 8.542821673654467374e-02 4.468286520446195648e-02 1.512969443869367769e-01
9.400000000000000000e+01 8.691300348384717323e-02 3.991321486309449412e-02 1.774497095592307006e-01
9.500000000000000000e+01 8.065443499501903646e-02 3.882208174871000506e-02 1.760917961475783888e-01
9.600000000000000000e+01 9.098733507644851670e-02 4.871068607715425824e-02 1.728161584197419887e-01
9.700000000000000000e+01 9.908887545780170614e-02 4.316230385172656336e-02 2.029972347178743974e-01
9.800000000000000000e+01 8.931752957695775208e-02 3.474851187575245942e-02 1.885871112553334505e-01
9.900000000000000000e+01 9.662342171483274955e-02 4.172323928509728830e-02 1.892369714151539983e-01
1.000000000000000000e+02 1.120257913744904382e-01 5.133042339583143709e-02 2.083799547226797555e-01
1.100000000000000000e+02 1.531872142364416878e-01 7.855630074253443229e-02 2.658219404583135881e-01
1.200000000000000000e+02 1.479026106195834300e-01 6.513561528599787209e-02 2.909689439566465752e-01
1.300000000000000000e+02 1.697627670827271951e-01 8.586189789885766144e-02 2.883907891807331869e-01
1.400000000000000000e+02 1.475654664161561991e-01 6.938750212209952861e-02 2.686142073695847454e-01
1.500000000000000000e+02 1.149695022732785260e-01 5.023261887731472058e-02 2.325456018951780335e-01
1.600000000000000000e+02 1.163653801607289762e-01 5.470038713527577978e-02 2.000751925412687093e-01
1.700000000000000000e+02 7.812101147511828214e-02 3.606090927303751137e-02 1.589124498734039159e-01
1.800000000000000000e+02 4.857783860485026528e-02 2.418191332243567124e-02 1.061324711454911529e-01
1.900000000000000000e+02 3.874132516477794830e-02 1.904535730044850522e-02 6.714751951297326382e-02
2.000000000000000000e+02 4.137246050596388169e-02 2.008233005101970822e-02 7.166167079927206196e-02
2.100000000000000000e+02 5.068059106810485909e-02 2.526572427176962746e-02 8.526256815224175778e-02
2.200000000000000000e+02 5.545892612877362932e-02 2.600821210908693323e-02 9.710131570391962452e-02
2.300000000000000000e+02 5.735721534175201169e-02 2.677744247057617030e-02 1.016210615508215398e-01
2.400000000000000000e+02 6.568470949624076460e-02 3.123117441949741294e-02 1.081925591601320957e-01
2.500000000000000000e+02 5.140704226956829132e-02 2.640392441700452689e-02 9.337161384667581887e-02
2.600000000000000000e+02 8.404978222884017247e-02 4.162905280299378230e-02 1.468841256436855536e-01
2.700000000000000000e+02 1.120420671238467336e-01 5.154569755250207330e-02 2.220402776167829662e-01
2.800000000000000000e+02 1.126073260930264414e-01 5.179967325408747769e-02 2.138669839139097362e-01
2.900000000000000000e+02 7.278756187719244430e-02 3.420427447105355012e-02 1.345521041647778915e-01
3.000000000000000000e+02 4.316421992186965373e-02 2.116602933525056282e-02 7.169312518110664001e-02
3.100000000000000000e+02 3.407454018954133440e-02 1.638208566494530130e-02 5.709732432212837050e-02
3.200000000000000000e+02 3.456350442629192027e-02 1.809744223915550621e-02 5.435022671056236043e-02
3.300000000000000000e+02 3.345169935959813740e-02 1.747863657780417829e-02 5.316726127237540733e-02
3.400000000000000000e+02 3.426225586005807872e-02 1.647559929569795273e-02 5.506039648027657996e-02
3.500000000000000000e+02 3.278989317768331996e-02 1.688788717560492716e-02 5.346239112763545576e-02
3.600000000000000000e+02 2.997898551635504519e-02 1.516411092383331688e-02 4.800298351930370327e-02
3.700000000000000000e+02 2.968849459111836189e-02 1.531708086029117365e-02 4.997444938852643043e-02
3.800000000000000000e+02 3.480431577268051913e-02 1.797724179559711394e-02 5.782616749251716370e-02
3.900000000000000000e+02 4.027755496111183608e-02 1.935532761809738433e-02 6.456193224050482682e-02
4.000000000000000000e+02 3.810183788066848903e-02 1.868222460501563209e-02 6.129143901596793842e-02
4.100000000000000000e+02 3.659547229114970546e-02 1.731653783179335632e-02 5.825906685563619208e-02
4.200000000000000000e+02 3.893445083969631487e-02 2.069544698310255698e-02 6.423650444734274600e-02
4.300000000000000000e+02 3.906655204929847247e-02 1.918250326326356378e-02 6.340711935197879123e-02
4.400000000000000000e+02 3.426584235520121341e-02 1.685687208353279024e-02 5.914284961996250922e-02
4.500000000000000000e+02 3.219825015648881961e-02 1.639771186898216285e-02 5.307333226214326627e-02
4.600000000000000000e+02 2.895916949284019215e-02 1.482617236992696610e-02 4.624818513026782846e-02
4.700000000000000000e+02 3.082709552882051396e-02 1.478059265607217440e-02 5.028431174882566634e-02
4.800000000000000000e+02 3.877992860163206185e-02 2.088446395295812108e-02 6.112135837893886009e-02
4.900000000000000000e+02 3.082027850758828000e-02 1.586631789140422258e-02 4.906433416427100763e-02
5.000000000000000000e+02 2.706256544174391598e-02 1.335007157467369039e-02 4.449599892811186008e-02
5.100000000000000000e+02 2.655501748217793320e-02 1.354906074859790754e-02 4.314596803946683240e-02
5.200000000000000000e+02 2.689653041798899594e-02 1.377801217801052566e-02 4.404484795912994716e-02
5.300000000000000000e+02 2.953755738669072012e-02 1.403744773244373217e-02 4.848829014806897014e-02
5.400000000000000000e+02 3.200773931824150986e-02 1.585674017236202854e-02 5.346516150352208924e-02
5.500000000000000000e+02 3.092585759653554076e-02 1.513591107071421242e-02 4.940086257767591083e-02
5.600000000000000000e+02 3.312751532109766556e-02 1.583479633485851759e-02 5.272780193409613153e-02
5.700000000000000000e+02 3.507003824472734732e-02 1.677024812257303307e-02 5.617691533444287705e-02
5.800000000000000000e+02 3.305341104915563571e-02 1.658773674595980310e-02 5.500081922835699938e-02
5.900000000000000000e+02 2.993744876188337775e-02 1.465389160422074337e-02 4.946507409396717903e-02
6.000000000000000000e+02 3.189174006162038416e-02 1.648732756777119071e-02 5.175555900282072241e-02
6.100000000000000000e+02 2.878748335466851591e-02 1.477267745730306836e-02 4.701273188996085012e-02
6.200000000000000000e+02 4.720804594142403998e-02 2.382463850519525583e-02 7.471759961241475345e-02
6.300000000000000000e+02 1.636475681655712722e-01 8.622503422813096452e-02 2.733198707356017665e-01
6.400000000000000000e+02 1.626637044033877599e-01 8.174819154289186818e-02 2.660240347386730875e-01
6.500000000000000000e+02 9.221869499089713207e-02 4.428970735677051351e-02 1.507004763077818832e-01
6.600000000000000000e+02 1.086860898795965619e-01 5.571649502060375264e-02 1.761369188004884012e-01
6.700000000000000000e+02 8.671941384580222900e-02 4.613704807655788498e-02 1.424415694557508161e-01
6.800000000000000000e+02 7.698615591382455825e-02 3.711149177673672001e-02 1.249954856490965299e-01
6.900000000000000000e+02 7.081797433824327248e-02 3.662689843425703806e-02 1.132625293006384037e-01
7.000000000000000000e+02 4.834087627053527958e-02 2.506611492011916881e-02 7.853557186909936039e-02
7.100000000000000000e+02 4.036414229622185129e-02 1.977332648776904470e-02 6.621975251288761410e-02
7.200000000000000000e+02 6.039715387359422677e-02 3.013656126068133684e-02 9.895017675964265513e-02
7.300000000000000000e+02 4.837409066453612905e-02 2.433433387745754378e-02 7.804911186475294027e-02
7.400000000000000000e+02 2.587917705967806431e-02 1.222054414796550428e-02 4.190358670501592026e-02
7.500000000000000000e+02 2.515339620598357195e-02 1.188407140643160838e-02 4.093422671250006306e-02
7.600000000000000000e+02 2.738480856629458421e-02 1.409146749981891530e-02 4.449682151164487814e-02
7.700000000000000000e+02 3.130293610555215378e-02 1.515385231100340076e-02 5.287872151271146015e-02
7.800000000000000000e+02 4.521679725216179446e-02 2.267204212597555973e-02 7.268598105081375271e-02
7.900000000000000000e+02 8.650629529506689841e-02 4.181737433972992912e-02 1.434751037705256915e-01
8.000000000000000000e+02 1.780540762713872238e-01 8.873827515733047344e-02 2.895937009971681353e-01
8.100000000000000000e+02 1.884679253094730944e-01 9.993457463108401662e-02 2.938359699687795312e-01
8.200000000000000000e+02 1.272165277427572960e-01 6.033557502462655320e-02 2.130166744453585448e-01
8.300000000000000000e+02 1.368936974740128099e-01 6.448438153138522089e-02 2.207708895386625292e-01
8.400000000000000000e+02 3.539020265215369609e-01 2.339808733727504753e-01 4.671347405170964695e-01
8.500000000000000000e+02 3.554882063970893902e-01 2.106828017261832831e-01 5.121650643885237164e-01
8.600000000000000000e+02 1.991145371288970956e-01 9.699731893381573211e-02 3.263992700621373144e-01
8.700000000000000000e+02 1.430538924053762206e-01 7.028380252794269589e-02 2.388629867798915118e-01
8.800000000000000000e+02 8.765401791022292555e-02 4.326489133326540809e-02 1.434532746793537317e-01
8.900000000000000000e+02 5.693217495280698814e-02 2.911192517998081528e-02 9.306032773804746860e-02
9.000000000000000000e+02 5.929274299021006916e-02 3.086627655938850925e-02 9.940249192988108440e-02
9.100000000000000000e+02 7.421567546643981217e-02 3.629926468479647422e-02 1.251486305831063239e-01
9.200000000000000000e+02 6.559460037376407815e-02 3.181945231453610357e-02 1.033553822465846511e-01
9.300000000000000000e+02 4.799820032287743787e-02 2.347531415514361036e-02 7.668904791669847731e-02
9.400000000000000000e+02 3.760996417329014185e-02 1.936306088560415042e-02 6.106607683327848479e-02
9.500000000000000000e+02 3.458556220478589682e-02 1.764690972030439134e-02 5.723957194249090080e-02
9.600000000000000000e+02 4.230898705374319668e-02 1.980342743501185138e-02 6.974612215429633333e-02
9.700000000000000000e+02 4.950116021008013623e-02 2.291030405879308784e-02 7.913633525751942455e-02
9.800000000000000000e+02 5.470074702589984572e-02 2.756524829823476380e-02 8.951030382350720627e-02
9.900000000000000000e+02 6.282889701671869054e-02 3.196777521932828853e-02 1.003486008893512554e-01
1.000000000000000000e+03 8.741583506900645062e-02 4.353654467404846629e-02 1.394570472559037155e-01
1.100000000000000000e+03 7.479044538907454742e-02 3.778773360662530251e-02 1.223761598235235393e-01
1.200000000000000000e+03 5.592608534884867255e-02 2.742966336242116596e-02 9.197643733547915257e-02
1.300000000000000000e+03 4.349137167251777153e-02 2.193424957426100969e-02 7.054035747218063979e-02
1.400000000000000000e+03 3.426709266166093337e-02 1.717434479447299892e-02 5.595531223179223829e-02
1.500000000000000000e+03 3.870066639344670739e-02 1.934079161463378785e-02 6.389908983706271695e-02
1.600000000000000000e+03 3.707063315226125089e-02 1.842212274848227180e-02 6.087955789899052172e-02
1.700000000000000000e+03 2.610510677575812732e-02 1.295157056354549925e-02 4.284094880662082244e-02
1.800000000000000000e+03 2.408435350202134742e-02 1.188755383367707391e-02 3.975368598906624945e-02
1.900000000000000000e+03 2.453759788267723466e-02 1.218714183874568778e-02 4.027367974612361401e-02
2.000000000000000000e+03 2.458219772272132730e-02 1.205785884071084411e-02 4.069344913644035167e-02
2.100000000000000000e+03 2.516509585699972310e-02 1.218683626139176017e-02 4.185870343764636764e-02
2.200000000000000000e+03 2.540267003420830852e-02 1.282998926075327485e-02 4.201835578073016830e-02
2.300000000000000000e+03 2.574534814523683768e-02 1.276220067194371900e-02 4.293038955555276287e-02
2.400000000000000000e+03 2.629538165820939979e-02 1.302044146458352335e-02 4.333434564944572270e-02
2.500000000000000000e+03 2.715347687354040598e-02 1.357901901138593333e-02 4.458138372164095059e-02
2.600000000000000000e+03 2.806246821360399227e-02 1.391829409200519285e-02 4.613151895398466540e-02
2.700000000000000000e+03 2.872809269342234406e-02 1.447351155465140260e-02 4.733289534004879451e-02
2.800000000000000000e+03 2.970269242730859405e-02 1.488547698280874923e-02 4.880173876602048044e-02
2.900000000000000000e+03 3.073227930615164347e-02 1.508807128591086247e-02 5.019153130269624064e-02
3.000000000000000000e+03 3.197373732831326754e-02 1.605632803114639268e-02 5.276046215667076072e-02
3.100000000000000000e+03 3.346182674794667689e-02 1.667943565535535272e-02 5.501987844640289504e-02
3.200000000000000000e+03 3.549906732214747757e-02 1.724618760029258957e-02 5.823235338861415533e-02
3.300000000000000000e+03 3.981149357365355163e-02 1.984596233458585379e-02 6.565084562655743028e-02
3.400000000000000000e+03 4.048896079503473688e-02 2.009594446572860599e-02 6.570340442822629468e-02
3.500000000000000000e+03 4.011236077922015336e-02 1.984882713036557889e-02 6.634023913055929478e-02
3.600000000000000000e+03 4.888973953424145119e-02 2.472273912887011302e-02 7.903280655335089000e-02
3.700000000000000000e+03 5.619642049424269925e-02 2.858792621904941711e-02 8.997590717239058178e-02
3.800000000000000000e+03 4.962192100800327105e-02 2.460273310523957216e-02 8.145210774117382646e-02
3.900000000000000000e+03 4.804070186103580331e-02 2.390918394779148470e-02 7.939170657888475202e-02
4.000000000000000000e+03 5.050698463375058456e-02 2.463993594208424218e-02 8.361107066119781439e-02
4.100000000000000000e+03 5.268740975210552818e-02 2.611073076841590249e-02 8.900248868159910121e-02
4.200000000000000000e+03 5.713273344961801448e-02 2.757934706236312566e-02 9.586921359946555532e-02
4.300000000000000000e+03 6.128629214727517732e-02 2.998138611789078270e-02 1.046999853244264811e-01
4.400000000000000000e+03 6.526228668183524373e-02 3.130457451775692929e-02 1.144719836509656974e-01
4.500000000000000000e+03 7.081890388452276308e-02 3.366392042257709133e-02 1.240991097074770066e-01
4.600000000000000000e+03 7.578102565432762172e-02 3.520788851366558891e-02 1.381440004772608310e-01
4.700000000000000000e+03 8.476570039138871249e-02 3.762850068755721478e-02 1.573766795923183526e-01
4.800000000000000000e+03 1.056968992029837934e-01 4.943027144358538849e-02 1.885530936372707134e-01
4.900000000000000000e+03 1.271545659951845153e-01 6.551305467966421492e-02 2.239477417715546315e-01
5.000000000000000000e+03 1.222978993549581755e-01 5.556767641658475615e-02 2.375151156373072059e-01
5.100000000000000000e+03 1.107312048725104525e-01 4.351124056689189418e-02 2.551974347618767847e-01
5.200000000000000000e+03 1.095861400549237585e-01 3.951854037307075962e-02 2.830323621821960733e-01
5.300000000000000000e+03 1.037768492896625760e-01 3.909237651959324156e-02 2.975859840831346359e-01
5.400000000000000000e+03 1.012023021789574401e-01 3.928640639993466466e-02 2.970159219063073230e-01
5.500000000000000000e+03 9.372529341172294859e-02 3.725332236279894210e-02 2.748149091197617522e-01
5.600000000000000000e+03 8.708905446021425467e-02 3.598418729100515134e-02 2.358251315925855851e-01
5.700000000000000000e+03 8.301015644064477228e-02 3.462598508371262512e-02 2.008729679459068662e-01
5.800000000000000000e+03 7.766823665236773089e-02 3.421956732181723193e-02 1.781698408105503173e-01
5.900000000000000000e+03 7.352111041333211916e-02 3.257434043625118125e-02 1.577508015780708650e-01
6.000000000000000000e+03 7.133571860720186453e-02 3.225832204021384514e-02 1.465843184780583619e-01
6.100000000000000000e+03 6.808780137614735273e-02 3.105097447274381139e-02 1.369396554890747464e-01
6.200000000000000000e+03 6.667190180971080404e-02 3.078326281075436863e-02 1.303888326924662333e-01
6.300000000000000000e+03 6.463491748530442171e-02 3.048415335037386528e-02 1.243635976560599765e-01
6.400000000000000000e+03 6.251446616689651514e-02 2.903495135415438619e-02 1.195341477958321436e-01
6.500000000000000000e+03 6.206215805945061031e-02 2.970903210769800656e-02 1.156018633401805773e-01
6.600000000000000000e+03 6.100730059011656020e-02 2.857389503544161338e-02 1.140518367495880342e-01
6.700000000000000000e+03 6.107832377059408541e-02 2.894789102115805091e-02 1.119511964450638497e-01
6.800000000000000000e+03 5.946784531492860237e-02 2.862676609984360354e-02 1.092189818253031103e-01
6.900000000000000000e+03 5.970546117011225201e-02 2.864475113998525904e-02 1.082932605294444628e-01
7.000000000000000000e+03 5.968601648044535163e-02 2.834710410481662557e-02 1.072968492198820151e-01
7.100000000000000000e+03 6.170437565436460298e-02 2.894704669138612255e-02 1.123692885947058240e-01
7.200000000000000000e+03 7.127408031942834843e-02 3.299899078966231358e-02 1.295474376827726315e-01
7.300000000000000000e+03 9.472504429254244296e-02 4.557813244678932119e-02 1.530821315436607100e-01
7.400000000000000000e+03 9.836053102741194876e-02 4.821586320947159748e-02 1.564969673900222513e-01
7.500000000000000000e+03 7.826764039887380842e-02 3.647423577591092647e-02 1.387141946124975656e-01
7.600000000000000000e+03 6.382302200870026976e-02 3.064148013178371460e-02 1.138275839105873100e-01
7.700000000000000000e+03 5.924460943305687871e-02 2.858317280128623572e-02 1.061591089400522464e-01
7.800000000000000000e+03 5.962292155468216365e-02 2.831311464770891115e-02 1.063694462003005187e-01
7.900000000000000000e+03 6.014827867962972696e-02 2.858106270328157617e-02 1.062197587619173877e-01
8.000000000000000000e+03 6.008298672883714830e-02 2.886419219207528308e-02 1.056104456234626954e-01
8.100000000000000000e+03 5.991533197291293994e-02 2.861464228841741064e-02 1.057896508159107962e-01
8.200000000000000000e+03 6.209236549166237407e-02 2.952419327457472473e-02 1.098753610145805221e-01
8.300000000000000000e+03 6.736670050259137288e-02 3.227787306213527468e-02 1.273897289046965475e-01
8.400000000000000000e+03 8.836395150911222074e-02 3.883790183705235904e-02 2.275526665589570618e-01
8.500000000000000000e+03 1.668342321125102778e-01 5.772056309101826488e-02 3.109620249204562703e-01
8.600000000000000000e+03 2.179209958149993243e-01 7.725283520202845533e-02 3.288295507177176336e-01
8.700000000000000000e+03 1.522199120844194564e-01 5.377673346534698334e-02 3.078462386444781318e-01
8.800000000000000000e+03 8.579790848106162715e-02 3.800723018927518182e-02 2.075717516181438127e-01
8.900000000000000000e+03 6.917337144682385308e-02 3.319448000953441336e-02 1.283143060938783664e-01
9.000000000000000000e+03 6.661548252561998174e-02 3.177164034900334388e-02 1.186819669759490159e-01
9.100000000000000000e+03 6.623485821226217374e-02 3.140803644011010837e-02 1.181725776633524433e-01
9.200000000000000000e+03 6.718941480054668736e-02 3.191292627382716351e-02 1.201891725972152325e-01
9.300000000000000000e+03 6.766061027481332091e-02 3.226402384800745177e-02 1.206906666321771460e-01
9.400000000000000000e+03 6.866694522718452820e-02 3.185596140895870926e-02 1.250907347017520266e-01
9.500000000000000000e+03 7.251530481989106047e-02 3.396581962904923757e-02 1.323121684334987724e-01
9.600000000000000000e+03 8.051081405538945690e-02 3.692972654226332058e-02 1.486968738016619107e-01
9.700000000000000000e+03 9.594061827655336883e-02 4.513602626519210709e-02 1.688638848914226775e-01
9.800000000000000000e+03 1.089689462532601322e-01 5.207248162176437295e-02 1.824980812725872648e-01
9.900000000000000000e+03 1.044277061462873663e-01 4.817779078068544496e-02 1.814593913371785605e-01
1.000000000000000000e+04 9.132284367275847470e-02 4.103157434390891645e-02 1.704439730643471373e-01
1.010000000000000000e+04 8.138031183746900765e-02 3.741883075101322398e-02 1.596587692893906008e-01
1.020000000000000000e+04 7.725419749212870946e-02 3.514328499095806940e-02 1.583315711323895203e-01
1.030000000000000000e+04 7.677734490742450790e-02 3.489280477449668155e-02 1.620418604421939024e-01
1.040000000000000000e+04 7.743108836979907539e-02 3.560606188704934505e-02 1.654581948331639574e-01
1.050000000000000000e+04 7.644536039256502602e-02 3.574937090872024048e-02 1.703523122392689437e-01
1.060000000000000000e+04 7.814255390149756064e-02 3.566717564302096521e-02 1.804347536260701712e-01
1.070000000000000000e+04 8.334758474139808415e-02 3.648892476765663861e-02 2.032157815620500574e-01
1.080000000000000000e+04 9.930172628349082098e-02 4.097798827522151910e-02 2.754762908180694025e-01
1.090000000000000000e+04 1.469498575829334130e-01 5.151367736005757481e-02 3.331452568685381865e-01
1.100000000000000000e+04 2.026580651733931593e-01 6.660742034577636639e-02 3.607506094039414912e-01
1.110000000000000000e+04 2.010441228290100746e-01 6.421500152998343980e-02 3.607008148510575385e-01
1.120000000000000000e+04 1.378033465273643954e-01 5.045485225025868325e-02 3.298106072885379492e-01
1.130000000000000000e+04 9.273821998450586246e-02 4.054850223611849991e-02 2.613276397970520915e-01
1.140000000000000000e+04 7.771781452992823636e-02 3.558596746885007989e-02 1.797417671272920070e-01
1.150000000000000000e+04 7.232282956697488885e-02 3.428141251419680735e-02 1.475801471497120709e-01
1.160000000000000000e+04 7.011043080960593921e-02 3.292089398123507898e-02 1.362449703505269061e-01
1.170000000000000000e+04 6.801876070490231463e-02 3.194069176722489495e-02 1.338728483699865301e-01
1.180000000000000000e+04 6.840124651467675843e-02 3.324444585687613696e-02 1.294154869493644444e-01
1.190000000000000000e+04 6.662466494119888283e-02 3.236481553424964269e-02 1.273016048403913802e-01
1.200000000000000000e+04 6.703906858027117166e-02 3.179126289991448390e-02 1.259888203162399523e-01
1.210000000000000000e+04 6.730191491392503722e-02 3.284604448377455299e-02 1.245464135851478554e-01
1.220000000000000000e+04 6.675687314919964699e-02 3.197091272818743807e-02 1.229698132362419399e-01
1.230000000000000000e+04 6.712419328987287437e-02 3.263665512719447770e-02 1.233320622543579853e-01
1.240000000000000000e+04 6.638629599295714501e-02 3.242466547039193209e-02 1.204131165580490936e-01
1.250000000000000000e+04 6.554179989239307391e-02 3.160125612533130207e-02 1.177842378513915128e-01
1.260000000000000000e+04 6.440572613551467929e-02 3.069788370648286746e-02 1.156517541777252467e-01
1.270000000000000000e+04 6.347495527074890898e-02 3.085095221190977191e-02 1.143010699016081683e-01
1.280000000000000000e+04 6.286711827842844658e-02 3.035662440986033883e-02 1.122764028364816175e-01
1.290000000000000000e+04 6.247458482308908961e-02 3.046792013021483100e-02 1.133825471155420067e-01
1.300000000000000000e+04 6.218867126842868992e-02 3.039282792640668127e-02 1.116806315753171019e-01
1.310000000000000000e+04 6.187944504523191364e-02 3.005229788705272506e-02 1.095959036797991837e-01
1.320000000000000000e+04 6.266927237639766113e-02 3.078489406385372107e-02 1.107982208392341711e-01
1.330000000000000000e+04 6.374581355096618773e-02 3.155874369749554070e-02 1.128686645779049119e-01
1.340000000000000000e+04 6.475520924796947242e-02 3.138746284410134230e-02 1.127964134379193656e-01
1.350000000000000000e+04 6.468955966205551522e-02 3.229089420486313394e-02 1.133517682438104218e-01
1.360000000000000000e+04 6.465677133060425408e-02 3.128323935134098843e-02 1.120251520193014799e-01
1.370000000000000000e+04 6.355087986659586907e-02 3.111318622710395818e-02 1.106920261604212169e-01
1.380000000000000000e+04 6.353881162038993446e-02 3.150686305970944179e-02 1.099257286432128999e-01
1.390000000000000000e+04 6.101825703549301066e-02 2.952362796607151119e-02 1.070156799929737473e-01
1.400000000000000000e+04 5.921792357597906870e-02 2.934706385370972753e-02 1.041923974217818238e-01
1.410000000000000000e+04 5.881317671268230379e-02 2.877506012069843550e-02 1.033721447158030826e-01
1.420000000000000000e+04 5.885059788761921873e-02 2.878683272260051246e-02 1.042189972244680629e-01
1.430000000000000000e+04 5.905951446952616146e-02 2.843939205975783147e-02 1.028813205317555407e-01
1.440000000000000000e+04 5.863787514118039279e-02 2.869409054715412952e-02 1.040960297716644056e-01
1.450000000000000000e+04 6.048464210827466520e-02 2.996042107645271665e-02 1.049516394988650320e-01
1.460000000000000000e+04 6.039630329005794829e-02 2.993568568875286731e-02 1.063118733916709607e-01
1.470000000000000000e+04 6.121318958820026745e-02 2.929561001674166332e-02 1.073554378734724868e-01
1.480000000000000000e+04 6.060457454938546207e-02 2.939920096826411852e-02 1.061306422004809208e-01
1.490000000000000000e+04 5.966127378217667143e-02 2.853540880856967124e-02 1.057485116099045053e-01
1.500000000000000000e+04 5.893198418739546696e-02 2.871918407158761608e-02 1.050292692396816718e-01
1.510000000000000000e+04 5.828528895987565572e-02 2.789740922706972562e-02 1.031445012045037468e-01
1.520000000000000000e+04 5.730280788008295517e-02 2.733141332991113892e-02 1.031755411270561251e-01
1.530000000000000000e+04 5.711585731314255954e-02 2.810650277177579454e-02 1.033687646759460510e-01
1.540000000000000000e+04 5.725704027230046206e-02 2.759099824767730080e-02 1.023189349145609273e-01
1.550000000000000000e+04 5.710654972381504907e-02 2.794078532296355444e-02 1.037068169727013572e-01
1.560000000000000000e+04 5.721078903532455379e-02 2.802066101203172857e-02 1.054427906474789678e-01
1.570000000000000000e+04 6.006014558224544858e-02 2.903557718576815078e-02 1.087153858043610755e-01
1.580000000000000000e+04 5.872090200822056849e-02 2.871072060201720899e-02 1.077573406501563386e-01
1.590000000000000000e+04 5.872788697420933124e-02 2.800025974725053532e-02 1.071104500956822220e-01
1.600000000000000000e+04 5.847035929922207026e-02 2.838554689765016362e-02 1.078157595338374852e-01
1.610000000000000000e+04 5.788206749153153308e-02 2.818379434001022296e-02 1.077585910867354807e-01
1.620000000000000000e+04 5.717913007269029985e-02 2.747449155287547823e-02 1.054974399146601793e-01
1.630000000000000000e+04 5.529876022808567770e-02 2.679628514383902357e-02 1.045690386685845380e-01
1.640000000000000000e+04 5.434158215555252164e-02 2.614327530213749265e-02 1.017349756331959454e-01
1.650000000000000000e+04 5.344202354177230579e-02 2.582828879211541279e-02 1.003939826618734515e-01
1.660000000000000000e+04 5.497546336637359338e-02 2.644437364545126554e-02 9.963282062656053650e-02
1.670000000000000000e+04 5.541768838263139152e-02 2.728857324755892128e-02 1.026433766929639169e-01
1.680000000000000000e+04 5.252149157852302463e-02 2.513325455682589860e-02 9.749687158724108793e-02
1.690000000000000000e+04 5.198449260497547270e-02 2.485708116476441701e-02 9.530666649435662330e-02
1.700000000000000000e+04 5.187935135852802387e-02 2.491477301747260786e-02 9.545525233107456098e-02
1.710000000000000000e+04 5.133328606330512384e-02 2.473578632721596879e-02 9.468813189918372231e-02
1.720000000000000000e+04 5.089206713641295649e-02 2.461075079718550926e-02 9.440807124951500207e-02
1.730000000000000000e+04 5.025613325876247123e-02 2.442704396931934599e-02 9.331418722189058212e-02
1.740000000000000000e+04 4.967054670994726362e-02 2.402874858697013477e-02 9.157101225572403247e-02
1.750000000000000000e+04 4.934321562156710611e-02 2.378838560772337379e-02 9.125404699567514488e-02
1.760000000000000000e+04 4.949949042576074626e-02 2.382620645443440585e-02 8.969677398452226280e-02
1.770000000000000000e+04 4.832245470167968737e-02 2.328443000007255834e-02 8.682985614604940561e-02
1.780000000000000000e+04 4.756125233200415858e-02 2.288724348859968311e-02 8.522558905050457712e-02
1.790000000000000000e+04 4.702460627914400310e-02 2.241459898887092003e-02 8.383338571555429275e-02
1.800000000000000000e+04 4.664073259967412705e-02 2.220720577310229468e-02 8.230458062699902433e-02
1.810000000000000000e+04 4.627846850269096146e-02 2.258583496203031213e-02 8.202597258638774647e-02
1.820000000000000000e+04 4.610717511004844976e-02 2.257333637211158747e-02 8.144242002911174227e-02
1.830000000000000000e+04 4.540770501889357380e-02 2.215580295067864566e-02 8.085573981538758670e-02
1.840000000000000000e+04 4.510910623672946540e-02 2.224642157605216664e-02 7.909615763699773261e-02
1.850000000000000000e+04 4.454417869115340906e-02 2.211586450624891328e-02 7.770692527787559367e-02
1.860000000000000000e+04 4.411511513603919021e-02 2.141259709230948494e-02 7.787561126617129070e-02
1.870000000000000000e+04 4.381294093633607278e-02 2.143662580261468734e-02 7.736111489929536900e-02
1.880000000000000000e+04 4.325828674689486536e-02 2.096883564429632280e-02 7.590516770447777728e-02
1.890000000000000000e+04 4.370036792920001939e-02 2.142517727894679633e-02 7.535643545539638666e-02
1.900000000000000000e+04 4.355614896959563581e-02 2.091601858314560275e-02 7.625030284334731456e-02
1.910000000000000000e+04 4.359657629685997904e-02 2.093661250474431260e-02 7.562936140769158100e-02
1.920000000000000000e+04 4.632559558316127341e-02 2.281196527205180818e-02 7.911066449532526412e-02
1.930000000000000000e+04 4.586346305432032616e-02 2.262346633446558897e-02 7.720481642228699259e-02
1.940000000000000000e+04 4.298847041216479620e-02 2.094339533722032812e-02 7.430567480083889731e-02
1.950000000000000000e+04 4.212084327569064895e-02 2.074791397793704015e-02 7.297126862659894520e-02
1.960000000000000000e+04 4.165229231172791480e-02 2.008886761162640214e-02 7.222733191236467565e-02
1.970000000000000000e+04 4.117498333414225387e-02 1.986535707298817122e-02 7.095883406509771729e-02
1.980000000000000000e+04 4.076510015983311752e-02 1.985899811955264826e-02 7.092030621165244797e-02
1.990000000000000000e+04 4.010246960853971337e-02 1.936544934275996263e-02 6.983405111861901160e-02
2.000000000000000000e+04 4.028192166512065825e-02 1.993246886933963333e-02 6.979743619009229350e-02
2.010000000000000000e+04 3.989236957123162147e-02 1.972325726207437013e-02 6.937903104476973726e-02
2.020000000000000000e+04 4.009684820879129419e-02 1.969662857835806011e-02 7.040871500856053788e-02
2.030000000000000000e+04 4.222415688845813225e-02 2.064630111100623430e-02 7.189305922867905707e-02
2.040000000000000000e+04 1.783129816030341874e-01 1.421021081813107767e-01 2.171131720856367686e-01
2.050000000000000000e+04 5.456831489722958617e-01 5.099802921803651135e-01 5.797956153481018671e-01
2.060000000000000000e+04 4.011760077947313374e-01 3.630007007758698778e-01 4.377419763502466976e-01
2.070000000000000000e+04 5.439161626811475636e-02 2.788110034432840847e-02 8.698535468652873748e-02
2.080000000000000000e+04 3.960039663308900088e-02 1.937399732856443652e-02 6.784960442083977361e-02
2.090000000000000000e+04 3.857162932802174482e-02 1.904424046797854875e-02 6.683419522039547866e-02
2.100000000000000000e+04 3.819169768962886458e-02 1.909047750072030356e-02 6.639442899987132995e-02
2.110000000000000000e+04 3.858022235659856747e-02 1.895112732033188072e-02 6.666172778226114870e-02
2.120000000000000000e+04 3.839289600567539346e-02 1.883172618998388975e-02 6.640803196813314935e-02
2.130000000000000000e+04 3.909026240021930276e-02 1.899545956882279368e-02 6.739995730859356382e-02
2.140000000000000000e+04 4.022651043061924170e-02 1.987211880649814369e-02 7.079415064655170120e-02
2.150000000000000000e+04 4.134748841459632424e-02 1.974239325621248223e-02 7.188704737165921288e-02
2.160000000000000000e+04 3.801070541939947922e-02 1.882294420231865953e-02 6.567472083123644666e-02
2.170000000000000000e+04 3.647369984705144119e-02 1.767586179757717549e-02 6.343179217950498106e-02
2.180000000000000000e+04 3.654348344701767448e-02 1.750634308118580174e-02 6.265149217814819371e-02
2.190000000000000000e+04 3.611533037466566759e-02 1.746616403422678737e-02 6.219957387597590398e-02
2.200000000000000000e+04 3.600188251939055034e-02 1.765592057592236738e-02 6.208345711495669161e-02
2.210000000000000000e+04 3.637953186005532524e-02 1.772892882539496215e-02 6.191613449961851784e-02
2.220000000000000000e+04 3.628846412443461483e-02 1.774984588788828740e-02 6.187447150951856656e-02
2.230000000000000000e+04 3.579844702625961661e-02 1.785725694620775295e-02 6.119200826914628077e-02
2.240000000000000000e+04 3.504003885814605673e-02 1.707359937681394990e-02 6.100215449048877747e-02
2.250000000000000000e+04 3.567362615955261412e-02 1.733599816864416637e-02 6.049364819278538197e-02
2.260000000000000000e+04 3.543655627380950385e-02 1.740566982091275305e-02 6.046645407279207379e-02
2.270000000000000000e+04 3.511145497045525810e-02 1.760039553377781146e-02 5.978990979116982629e-02
2.280000000000000000e+04 3.464920244135701044e-02 1.684683675711163078e-02 5.925590555227820688e-02
2.290000000000000000e+04 3.450371562747091975e-02 1.693206262333343468e-02 5.854753409724993557e-02
2.300000000000000000e+04 3.433831499319726921e-02 1.712528593329393223e-02 5.879882398314675851e-02
2.310000000000000000e+04 3.429616358893361472e-02 1.696018104557089554e-02 5.835914986758587025e-02
2.320000000000000000e+04 3.411890508787183279e-02 1.713890636101000897e-02 5.789224316978959506e-02
2.330000000000000000e+04 3.417877152878132097e-02 1.662512035854587372e-02 5.780774190337732016e-02
2.340000000000000000e+04 3.445070703738929013e-02 1.698864794635109032e-02 5.788834880032424357e-02
2.350000000000000000e+04 3.401143774659502045e-02 1.684543445079383570e-02 5.773116199083130895e-02
2.360000000000000000e+04 3.282464910468871344e-02 1.631873155892678284e-02 5.594312764532034105e-02
2.370000000000000000e+04 3.347349622530356589e-02 1.665278125617360855e-02 5.575759618167773490e-02
2.380000000000000000e+04 3.400837906823343804e-02 1.700647230985717628e-02 5.661555082228442171e-02
2.390000000000000000e+04 3.346071377180982048e-02 1.653723521061494298e-02 5.586698209957668970e-02
2.400000000000000000e+04 3.354948808747141437e-02 1.685069990343844235e-02 5.543782447499949473e-02
2.410000000000000000e+04 3.286672976978348426e-02 1.608994040672815512e-02 5.475403654493225802e-02
2.420000000000000000e+04 3.261279416483865712e-02 1.592016616999247444e-02 5.452238292425364702e-02
2.430000000000000000e+04 3.179451348535301120e-02 1.571006159170424202e-02 5.308963743647533012e-02
2.440000000000000000e+04 3.106729543776727553e-02 1.538675896112838039e-02 5.185288519925884687e-02
2.450000000000000000e+04 3.094049667311950247e-02 1.519605367041896617e-02 5.192226412933292901e-02
2.460000000000000000e+04 3.084604752989577800e-02 1.528392249871555163e-02 5.148994985572460242e-02
2.470000000000000000e+04 3.072458049689101578e-02 1.521139176132108028e-02 5.086930984632869607e-02
2.480000000000000000e+04 3.055051797826990184e-02 1.519117765490486487e-02 5.067006104397726168e-02
2.490000000000000000e+04 3.030629175339194861e-02 1.496638048992078064e-02 5.068349669996519841e-02
2.500000000000000000e+04 3.013782462964153391e-02 1.481328078773527443e-02 5.020176295105387848e-02
2.510000000000000000e+04 3.016512068738874328e-02 1.479946656932150731e-02 4.967554692348891826e-02
2.520000000000000000e+04 2.983809832905307338e-02 1.491031368359612558e-02 4.971833385296113572e-02
2.530000000000000000e+04 2.982390225962103930e-02 1.469562161328849710e-02 4.976782376099048166e-02
2.540000000000000000e+04 2.945653017845598770e-02 1.466382782455218255e-02 4.876565269713493272e-02
2.550000000000000000e+04 2.953280653361304783e-02 1.438514546754358220e-02 4.910270472325638236e-02
2.560000000000000000e+04 2.967324623229324748e-02 1.471836980428478311e-02 5.002296825748901721e-02
2.570000000000000000e+04 2.983852564219004536e-02 1.477153506056400924e-02 4.995997208769679954e-02
2.580000000000000000e+04 2.957079430874696296e-02 1.464056171277637944e-02 4.838181526735282206e-02
2.590000000000000000e+04 2.899065829647071157e-02 1.454513658877839774e-02 4.808808469563998628e-02
2.600000000000000000e+04 2.899317067121477340e-02 1.435097231645265231e-02 4.838026340048294516e-02
2.610000000000000000e+04 2.888036244527425467e-02 1.418591414954245046e-02 4.730272066670024311e-02
2.620000000000000000e+04 2.829817885851070372e-02 1.431217768149112626e-02 4.723077952602791618e-02
2.630000000000000000e+04 2.873550447292234911e-02 1.418330134001004501e-02 4.756188221713076453e-02
2.640000000000000000e+04 2.849604225245332481e-02 1.402333497406571018e-02 4.725897796105223841e-02
2.650000000000000000e+04 2.854362053341876967e-02 1.420692698509389180e-02 4.682863256430545157e-02
2.660000000000000000e+04 2.815875540730371565e-02 1.419616139656969082e-02 4.624873055337720001e-02
2.670000000000000000e+04 2.818454015779249533e-02 1.418435735073232673e-02 4.679303167515933004e-02
2.680000000000000000e+04 2.831066890503155728e-02 1.393835880620460099e-02 4.639113858765241127e-02
2.690000000000000000e+04 2.781418358543455427e-02 1.367048977433264582e-02 4.541753751480556017e-02
2.700000000000000000e+04 2.697456359815180241e-02 1.338160640152526691e-02 4.512206844591110100e-02
2.710000000000000000e+04 2.721379775832897044e-02 1.360649511559081613e-02 4.522392537130875967e-02
2.720000000000000000e+04 2.758988904814741946e-02 1.357408663686142380e-02 4.523637035479784185e-02
2.730000000000000000e+04 2.732713776342617085e-02 1.358739884885822730e-02 4.476133440028808724e-02
2.740000000000000000e+04 2.723031070764895742e-02 1.323313706786285494e-02 4.496524212174038415e-02
2.750000000000000000e+04 2.717230985852955860e-02 1.350032328659021494e-02 4.454527707451096108e-02
2.760000000000000000e+04 2.651197704936437624e-02 1.324893812586297979e-02 4.378131235377748925e-02
2.770000000000000000e+04 2.731923635841441295e-02 1.351575186636136058e-02 4.442859023471817242e-02
2.780000000000000000e+04 3.802579516459407560e-02 1.995779572288421816e-02 5.933676806627583705e-02
2.790000000000000000e+04 4.575872569538681489e-01 4.313820407904352949e-01 4.833761288946939461e-01
2.800000000000000000e+04 7.051805391542266266e-01 6.819452969537344034e-01 7.285980627948164257e-01
2.810000000000000000e+04 2.661237039482309830e-01 2.405180379737357765e-01 2.925895619359886179e-01
2.820000000000000000e+04 2.907072911766556828e-02 1.458283244228513256e-02 4.771124960279132105e-02
2.830000000000000000e+04 2.570406547535827174e-02 1.275962413540383464e-02 4.239268202347106634e-02
2.840000000000000000e+04 2.475561363571406742e-02 1.250213993897334418e-02 4.132824564083925623e-02
2.850000000000000000e+04 2.477338883546779599e-02 1.197460657413565964e-02 4.118060394133585961e-02
2.860000000000000000e+04 2.475381196793448313e-02 1.214254217120812676e-02 4.108568479913229932e-02
2.870000000000000000e+04 2.522493154664265033e-02 1.245329145665007367e-02 4.110647442640445043e-02
2.880000000000000000e+04 2.852501954458695060e-02 1.410000287436092778e-02 4.559916682585745534e-02
2.890000000000000000e+04 2.628569042549589244e-02 1.300496600419666186e-02 4.313922281236830247e-02
2.900000000000000000e+04 2.425642743750554275e-02 1.183095602254671981e-02 3.973947027020455908e-02
2.910000000000000000e+04 2.418983771429216931e-02 1.195052308805969257e-02 3.922789901230734622e-02
2.920000000000000000e+04 2.401929746774820670e-02 1.180532276205914152e-02 3.942578114652152410e-02
2.930000000000000000e+04 2.417491024242350572e-02 1.208192993331265626e-02 3.962529721534641114e-02
2.940000000000000000e+04 2.397093975316609560e-02 1.216593789315964513e-02 3.921612528280045418e-02
2.950000000000000000e+04 2.366747403600125838e-02 1.162801724754974723e-02 3.864031868880458964e-02
2.960000000000000000e+04 2.349574750609648502e-02 1.165526410187793689e-02 3.853216320378422682e-02
2.970000000000000000e+04 2.332019815455391859e-02 1.142787183420500112e-02 3.806639492277137660e-02
2.980000000000000000e+04 2.447082808774281998e-02 1.193341019946436363e-02 4.018073060233848248e-02
2.990000000000000000e+04 2.781757501358589346e-02 1.395930750796892973e-02 4.566777366912720681e-02
3.000000000000000000e+04 2.479869690126419030e-02 1.249589537403695237e-02 4.025436648448303678e-02
3.010000000000000000e+04 2.425258420743757123e-02 1.198942470912340262e-02 3.915059447124337455e-02
3.020000000000000000e+04 2.471775199141343013e-02 1.247517659157654397e-02 4.034825912932831632e-02
3.030000000000000000e+04 2.305546197648638412e-02 1.141190513429401858e-02 3.767737726412004329e-02
3.040000000000000000e+04 2.829857244706010175e-02 1.436742571816790326e-02 4.613185746294656830e-02
3.050000000000000000e+04 3.655728075184366821e-02 1.796390120356065184e-02 5.968987907659985270e-02
3.060000000000000000e+04 2.947059740544547696e-02 1.455603307319124247e-02 4.810548986432238577e-02
3.070000000000000000e+04 3.699745206506156042e-02 1.824073346319856140e-02 5.959365092781061801e-02
3.080000000000000000e+04 2.704835037837727621e-02 1.359336578460535253e-02 4.449767258215801130e-02
3.090000000000000000e+04 3.493252408037151452e-02 1.806966410452908248e-02 5.414891592063836995e-02
3.100000000000000000e+04 6.351096321661146848e-02 4.300343589523215188e-02 8.376034302210169646e-02
3.110000000000000000e+04 4.077660194877048144e-02 2.187016111099701621e-02 6.212592224607361990e-02
3.120000000000000000e+04 2.240984362888491163e-02 1.107359620739423005e-02 3.689120393647673385e-02
3.130000000000000000e+04 2.219673015899053733e-02 1.093506356844407487e-02 3.641188316506425993e-02
3.140000000000000000e+04 2.275996026982945661e-02 1.115337768434137775e-02 3.693785748468936259e-02
3.150000000000000000e+04 2.225135148224191214e-02 1.119604539729787511e-02 3.658065595204991471e-02
3.160000000000000000e+04 2.142211034831576974e-02 1.048237765885960335e-02 3.489807111645602811e-02
3.170000000000000000e+04 2.130840993960267035e-02 1.063227377085053729e-02 3.478771683273800680e-02
3.180000000000000000e+04 2.138167210662338114e-02 1.057188112815892790e-02 3.508979323811520223e-02
3.190000000000000000e+04 2.156168199747088288e-02 1.065244968317612291e-02 3.512952544080655964e-02
3.200000000000000000e+04 2.124263029248068049e-02 1.056726255423415424e-02 3.500077841115870059e-02
3.210000000000000000e+04 2.115248501474768089e-02 1.044916007502785446e-02 3.473190703070003216e-02
3.220000000000000000e+04 2.107389134716082524e-02 1.044861632522774489e-02 3.451174467006177388e-02
3.230000000000000000e+04 2.088967629792178732e-02 1.051161141511072240e-02 3.419899774164183309e-02
3.240000000000000000e+04 2.087892740634165328e-02 1.049691148637379653e-02 3.408662909368983390e-02
3.250000000000000000e+04 2.103754064232634183e-02 1.059824870499542944e-02 3.436545809269396512e-02
3.260000000000000000e+04 2.101449414256489900e-02 1.032524902329946814e-02 3.457529746611557459e-02
3.270000000000000000e+04 2.086325358946127320e-02 1.024661093548182370e-02 3.385967137182782638e-02
3.280000000000000000e+04 2.055737783677530697e-02 1.030170903876148451e-02 3.413002955358036133e-02
3.290000000000000000e+04 2.051431641279664181e-02 1.020300422014487618e-02 3.408008872070567019e-02
3.300000000000000000e+04 2.307989583446555179e-02 1.169269444710597551e-02 3.794469544588344179e-02
3.310000000000000000e+04 3.769159293416583095e-02 2.174778730842354471e-02 5.489151819851421227e-02
3.320000000000000000e+04 2.858211118992716113e-02 1.493328225015609113e-02 4.514242061099914965e-02
3.330000000000000000e+04 2.064501891797075606e-02 1.036003407425872304e-02 3.429436596094594808e-02
3.340000000000000000e+04 2.062532266463737440e-02 1.025992824823998388e-02 3.416940308175713675e-02
3.350000000000000000e+04 2.054445366185164712e-02 1.041045204981133274e-02 3.374138845354680838e-02
3.360000000000000000e+04 2.028490565795686498e-02 1.019491618739680819e-02 3.310698981439461064e-02
3.370000000000000000e+04 1.985300671135135572e-02 9.890309268330416820e-03 3.297096487629350842e-02
3.380000000000000000e+04 1.995364076077728657e-02 9.889370967362798998e-03 3.263811730239792042e-02
3.390000000000000000e+04 1.960539575767167308e-02 9.844020663029359047e-03 3.226659764790861668e-02
3.400000000000000000e+04 1.965252358643746269e-02 9.893395431483160973e-03 3.195747470167933230e-02
3.410000000000000000e+04 1.955627481773043394e-02 9.738354862053643160e-03 3.193831062892975997e-02
3.420000000000000000e+04 1.952416601383078279e-02 9.732863290324536565e-03 3.168414882148295336e-02
3.430000000000000000e+04 1.941511310197932202e-02 9.527848167962215536e-03 3.183838655826872616e-02
3.440000000000000000e+04 1.942241841051758552e-02 9.722651897944070351e-03 3.160673589642667980e-02
3.450000000000000000e+04 1.918630429482475960e-02 9.488978344688887151e-03 3.147385697683741795e-02
3.460000000000000000e+04 1.904085922775682060e-02 9.670997825075404453e-03 3.114980550697292461e-02
3.470000000000000000e+04 1.874517201407903746e-02 9.315885994531949293e-03 3.084581895037376634e-02
3.480000000000000000e+04 1.872187017846812726e-02 9.240030690683706180e-03 3.081488626041040818e-02
3.490000000000000000e+04 1.874246251778170433e-02 9.271145964591585159e-03 3.069368133785375929e-02
3.500000000000000000e+04 1.886686161172262607e-02 9.157101833107960179e-03 3.076183557076081140e-02
3.510000000000000000e+04 1.845078300380328939e-02 9.276273903322480863e-03 3.041786428621013130e-02
3.520000000000000000e+04 1.844562357125869440e-02 9.140302477701768222e-03 3.050237300364666559e-02
3.530000000000000000e+04 1.867858130039851475e-02 9.428890349833995640e-03 3.066835156420079714e-02
3.540000000000000000e+04 1.990234664871633544e-02 9.958387892641905673e-03 3.224980358560844418e-02
3.550000000000000000e+04 1.937096401705297108e-02 9.720833945427335282e-03 3.175366995257253300e-02
3.560000000000000000e+04 1.827566299256050408e-02 9.112731255663487559e-03 2.987334859970661866e-02
3.570000000000000000e+04 1.839642098783150770e-02 9.174492324516845057e-03 3.007956091861917897e-02
3.580000000000000000e+04 1.831856030479922862e-02 9.244315175026537879e-03 3.040201965855048385e-02
3.590000000000000000e+04 1.821031527920972948e-02 9.100539750570745684e-03 2.986406180939076699e-02
3.600000000000000000e+04 1.791458108268971852e-02 8.961123211209334402e-03 2.930682896516676253e-02
3.610000000000000000e+04 1.791678621767858401e-02 8.734637486032809442e-03 2.952245732632553799e-02
3.620000000000000000e+04 1.786011761357068905e-02 8.987414291128072164e-03 2.944606496537009732e-02
3.630000000000000000e+04 1.783855740205560897e-02 9.018631507425128868e-03 2.912434273709704063e-02
3.640000000000000000e+04 1.776089591436101969e-02 8.973613874928855136e-03 2.893148224968172810e-02
3.650000000000000000e+04 1.753669987104813227e-02 8.879091211444412740e-03 2.903089478943244109e-02
3.660000000000000000e+04 1.767410279654161795e-02 8.739902354158108136e-03 2.899167501936568761e-02
3.670000000000000000e+04 1.757416483159190621e-02 8.851648602066697000e-03 2.905023604384948319e-02
3.680000000000000000e+04 1.742419044990879337e-02 8.955349107541249812e-03 2.900282103581132420e-02
3.690000000000000000e+04 1.761500192419141256e-02 8.755273991956901217e-03 2.874808702520691844e-02
3.700000000000000000e+04 2.263122713882094808e-02 1.118994005519516853e-02 3.642566667613317960e-02
3.710000000000000000e+04 3.076353435725921043e-02 1.509381696334072438e-02 4.974953361074148372e-02
3.720000000000000000e+04 2.368013264159544648e-02 1.158589887376038942e-02 3.899238595931042717e-02
3.730000000000000000e+04 3.219231662115074749e-02 1.614074108200895183e-02 5.281991965415430701e-02
3.740000000000000000e+04 2.335075205634947956e-02 1.166120649208175243e-02 3.832359934421055575e-02
3.750000000000000000e+04 1.792033966625285191e-02 8.932166271896519252e-03 2.899786931536574297e-02
3.760000000000000000e+04 3.609762358568268520e-02 2.217003339066444742e-02 5.020218253223934085e-02
3.770000000000000000e+04 4.087260122879575464e-02 2.683652843537678509e-02 5.520054564430683375e-02
3.780000000000000000e+04 1.921123001583815992e-02 9.569792792273162582e-03 3.127499644425966313e-02
3.790000000000000000e+04 1.722108175305287273e-02 8.470099696624473415e-03 2.803066802173745375e-02
3.800000000000000000e+04 1.703505893001224653e-02 8.593522362953701088e-03 2.815424302325456735e-02
3.810000000000000000e+04 1.718108083487903878e-02 8.696609319769177393e-03 2.793018488669342728e-02
3.820000000000000000e+04 1.963865009819459884e-02 9.623100257791136411e-03 3.178919830229547105e-02
3.830000000000000000e+04 2.174265256693919124e-02 1.092421249064335839e-02 3.578248694373024896e-02
3.840000000000000000e+04 1.918712718796278943e-02 9.597176681017968378e-03 3.151445234517707972e-02
3.850000000000000000e+04 1.786910254869530576e-02 8.915268350428086352e-03 2.904699526660238507e-02
3.860000000000000000e+04 1.661492191211295932e-02 8.317347078702705052e-03 2.732523520155447083e-02
3.870000000000000000e+04 1.638723653057199206e-02 7.857456632635848731e-03 2.684981543492579587e-02
3.880000000000000000e+04 1.610070728176556457e-02 7.933431556100432533e-03 2.657328580869626478e-02
3.890000000000000000e+04 1.623676956159444962e-02 8.142010904087750717e-03 2.673200943333265550e-02
3.900000000000000000e+04 1.633931030468439155e-02 8.072510409943287404e-03 2.697375109432613785e-02
3.910000000000000000e+04 1.859146793070494408e-02 9.319864648607720237e-03 3.014428401965715126e-02
3.920000000000000000e+04 4.028619015072155973e-02 2.587654537966622634e-02 5.484300147783596757e-02
3.930000000000000000e+04 3.839769544882008778e-02 2.395203293656644056e-02 5.324005208279948553e-02
3.940000000000000000e+04 1.793095972688090595e-02 8.938052653807732062e-03 2.924700005220654334e-02
3.950000000000000000e+04 1.587529744923677974e-02 7.906087714938983893e-03 2.622166062421144028e-02
3.960000000000000000e+04 1.585306712725541994e-02 7.955534744026604432e-03 2.581883259648164175e-02
3.970000000000000000e+04 1.595114696170828530e-02 7.886093397094251847e-03 2.603359995379722625e-02
3.980000000000000000e+04 1.586836954197167610e-02 7.836745618298191288e-03 2.609659202381531262e-02
3.990000000000000000e+04 1.590008175173543425e-02 7.878288773627461355e-03 2.581165940501752021e-02
4.000000000000000000e+04 1.559884731164885158e-02 7.759379473706359137e-03 2.553373373315574388e-02
4.010000000000000000e+04 1.557305912628942704e-02 7.723648612462009552e-03 2.553846544743602204e-02
4.020000000000000000e+04 1.550816154718061626e-02 7.807055763781395145e-03 2.547795418717082455e-02
4.030000000000000000e+04 1.587575606081473995e-02 7.967221697759381549e-03 2.582176554257456860e-02
4.040000000000000000e+04 1.599240110430264622e-02 7.847485880521507667e-03 2.576895712859694765e-02
4.050000000000000000e+04 1.564163198585422770e-02 7.877635912583681385e-03 2.553841170870228480e-02
4.060000000000000000e+04 1.559948461355999128e-02 7.772332808429528034e-03 2.570555109159427393e-02
4.070000000000000000e+04 1.566465928247183850e-02 7.913580434306930617e-03 2.555665529919555826e-02
4.080000000000000000e+04 1.546281911657092396e-02 7.700153000110655788e-03 2.557060960964658083e-02
4.090000000000000000e+04 1.635020151349370066e-02 8.071333638995644572e-03 2.669379578103807729e-02
4.100000000000000000e+04 3.746969945377718464e-02 2.464368151936047538e-02 5.029008112463713431e-02
4.110000000000000000e+04 3.904556051817446166e-02 2.657839130443152148e-02 5.176474759219051869e-02
4.120000000000000000e+04 1.668123617618588739e-02 8.456644073943871132e-03 2.723221884678589735e-02
4.130000000000000000e+04 1.520039801436715715e-02 7.581967937171031104e-03 2.482305322584121843e-02
4.140000000000000000e+04 1.515043930797973538e-02 7.458884776701611707e-03 2.482660846244299363e-02
4.150000000000000000e+04 1.493393144045618466e-02 7.488776019248923575e-03 2.462165113041702227e-02
4.160000000000000000e+04 1.501298331350986795e-02 7.367651952997633300e-03 2.452847848206225756e-02
4.170000000000000000e+04 1.515891520575222279e-02 7.403112386131123490e-03 2.462261971989998521e-02
4.180000000000000000e+04 1.524657850375657139e-02 7.627426368743230045e-03 2.493771576748130339e-02
4.190000000000000000e+04 1.520901181699396525e-02 7.601216984929565906e-03 2.469651919232713697e-02
4.200000000000000000e+04 1.522431967788154435e-02 7.655941319793141062e-03 2.481617326331655993e-02
4.210000000000000000e+04 1.532194171452014829e-02 7.543835476003918177e-03 2.489197252645562047e-02
4.220000000000000000e+04 1.521401101566524638e-02 7.574668513045215365e-03 2.511107403024755852e-02
4.230000000000000000e+04 1.509559379823348715e-02 7.533498848505427829e-03 2.472895042396016513e-02
4.240000000000000000e+04 1.519584456236182032e-02 7.592534528694507186e-03 2.476808045151782101e-02
4.250000000000000000e+04 1.510518085327526398e-02 7.486322861638201008e-03 2.445072766636348024e-02
4.260000000000000000e+04 1.481132219681964741e-02 7.397796308823135353e-03 2.419679210587779086e-02
4.270000000000000000e+04 1.456910369859233320e-02 7.285300681221951874e-03 2.395495676996898735e-02
4.280000000000000000e+04 1.441311412344704369e-02 7.237389852473692653e-03 2.367641463662812848e-02
4.290000000000000000e+04 1.434138830484626981e-02 7.163444008454356721e-03 2.347160085869173796e-02
4.300000000000000000e+04 1.429161647535028348e-02 7.018310554464702276e-03 2.333063178969086923e-02
4.310000000000000000e+04 1.433599290665301881e-02 7.086865873363230178e-03 2.350508991615485321e-02
4.320000000000000000e+04 1.440977427996742617e-02 7.275065789189575499e-03 2.329082788575327981e-02
4.330000000000000000e+04 1.425032137419762063e-02 7.124409280601954816e-03 2.346568213574317871e-02
4.340000000000000000e+04 1.422931423074939687e-02 7.055871917895834879e-03 2.309512274647798624e-02
4.350000000000000000e+04 1.412907013663119125e-02 7.089887738047079627e-03 2.303018908047260033e-02
4.360000000000000000e+04 1.402624611695748626e-02 7.051686516846714450e-03 2.304496358903016656e-02
4.370000000000000000e+04 1.410549469373622092e-02 6.980965733846693048e-03 2.329082382026264816e-02
4.380000000000000000e+04 1.430481155839205196e-02 7.074955201383402968e-03 2.311987726645352292e-02
4.390000000000000000e+04 1.443259907179509673e-02 7.391917764732172137e-03 2.353141161978112780e-02
4.400000000000000000e+04 1.444105059793858274e-02 7.170387079125710612e-03 2.361084749226044846e-02
4.410000000000000000e+04 1.450658233172183800e-02 7.365352196579764976e-03 2.374555908973864649e-02
4.420000000000000000e+04 1.928215028924320715e-02 9.552611417032681740e-03 3.134782601717051032e-02
4.430000000000000000e+04 2.020980870778671043e-02 1.000736081998771648e-02 3.269169575851200299e-02
4.440000000000000000e+04 1.456727128768727300e-02 7.262405715884026960e-03 2.375257236919216600e-02
4.450000000000000000e+04 1.388699212763757837e-02 6.949043354932103039e-03 2.276038949729763602e-02
4.460000000000000000e+04 1.388235837443058465e-02 6.942977470675571784e-03 2.261891429743745005e-02
4.470000000000000000e+04 1.382692689658991322e-02 6.933289504424637942e-03 2.240143069703285500e-02
4.480000000000000000e+04 1.392521661172156297e-02 6.984191985202886123e-03 2.259430769338926018e-02
4.490000000000000000e+04 1.403034430484379966e-02 7.136780810275337832e-03 2.278833251663738360e-02
4.500000000000000000e+04 1.396661808362573316e-02 6.947294311897199599e-03 2.272272067921714614e-02
4.510000000000000000e+04 1.391966320903544052e-02 6.945606959464451467e-03 2.273880943797887411e-02
4.520000000000000000e+04 1.385602137051286306e-02 6.994109433941465316e-03 2.262778166974164368e-02
4.530000000000000000e+04 2.082145237586843431e-02 1.055747600253540731e-02 3.381097647244853122e-02
4.540000000000000000e+04 4.481899986830815974e-02 2.254112035101326142e-02 7.354716194466888457e-02
4.550000000000000000e+04 4.510049305350501136e-02 2.236265453595989369e-02 7.339338890799765314e-02
4.560000000000000000e+04 2.222967721425545690e-02 1.127013772416429749e-02 3.625652842216032373e-02
4.570000000000000000e+04 1.376586591341920351e-02 6.972789329720631944e-03 2.249470133284160386e-02
4.580000000000000000e+04 1.369895480376090956e-02 6.856679437117494183e-03 2.219780651672408067e-02
4.590000000000000000e+04 1.351361780313737812e-02 6.867939746742668557e-03 2.213107827441547146e-02
4.600000000000000000e+04 1.392202726013942911e-02 6.899821363217505110e-03 2.284287935760807159e-02
4.610000000000000000e+04 1.409210467851679249e-02 6.910354040827660325e-03 2.287206881552285298e-02
4.620000000000000000e+04 1.360527930383646431e-02 6.887060898715472237e-03 2.226894939256885905e-02
4.630000000000000000e+04 1.446612985966319771e-02 7.044318218790374640e-03 2.364587616558214492e-02
4.640000000000000000e+04 2.217167376195910630e-02 1.044324852197067027e-02 3.836937808640455971e-02
4.650000000000000000e+04 3.873812600448865717e-02 2.056684676434483022e-02 5.544238077202000292e-02
4.660000000000000000e+04 2.484741315478075988e-02 1.254023214839622945e-02 3.895183760081368657e-02
4.670000000000000000e+04 1.397680928716908341e-02 7.102132372786095112e-03 2.282972152763555404e-02
4.680000000000000000e+04 1.366425467427684511e-02 6.776885844576902192e-03 2.227805019969624281e-02
4.690000000000000000e+04 1.397524442645966744e-02 6.890844908890722369e-03 2.303368691322393857e-02
4.700000000000000000e+04 3.154824270786141249e-02 1.591916688201492139e-02 5.164018406044094261e-02
4.710000000000000000e+04 9.592735757121316487e-02 4.907447528489283090e-02 1.598760152651143573e-01
4.720000000000000000e+04 9.571259104849169641e-02 4.847574801921240156e-02 1.581797160827142501e-01
4.730000000000000000e+04 1.116147279688234906e-01 5.500423082320043261e-02 1.818728145395945017e-01
4.740000000000000000e+04 5.600581993894122174e-02 2.806827729920923983e-02 9.169090766304244244e-02
4.750000000000000000e+04 1.367204324921528907e-02 6.876818942241974368e-03 2.227777720718824780e-02
4.760000000000000000e+04 1.333034155569811328e-02 6.758070422639816076e-03 2.177142634382548195e-02
4.770000000000000000e+04 1.342640795578274766e-02 6.725372869232777197e-03 2.181567990776665106e-02
4.780000000000000000e+04 1.327727674275377273e-02 6.572048068049935951e-03 2.177185093634656163e-02
4.790000000000000000e+04 1.316183784596084393e-02 6.487554099150951749e-03 2.168927552105244169e-02
4.800000000000000000e+04 1.555576070730472181e-02 7.782122041326543574e-03 2.504710528042401047e-02
4.810000000000000000e+04 1.944891344720165935e-02 1.025957388377319104e-02 2.961213353150474875e-02
4.820000000000000000e+04 1.429758054722701441e-02 7.133961280016876301e-03 2.316521932189419264e-02
4.830000000000000000e+04 1.348898294690456350e-02 6.640307751047072431e-03 2.185228412763397937e-02
4.840000000000000000e+04 2.623390678293268871e-02 1.535517769333286271e-02 3.745671904835779636e-02
4.850000000000000000e+04 5.529020393956875917e-02 4.419477392641964902e-02 6.671269130246380852e-02
4.860000000000000000e+04 3.286361936041731768e-02 2.237995366047377047e-02 4.394681445437904899e-02
4.870000000000000000e+04 1.326091667690013423e-02 6.751389533024916741e-03 2.190565791491110720e-02
4.880000000000000000e+04 1.339135133575104775e-02 6.687229991816498985e-03 2.181610292339088500e-02
4.890000000000000000e+04 1.519299608624499233e-02 7.577859999105196302e-03 2.500602739064884672e-02
4.900000000000000000e+04 2.153329609282118515e-02 1.067357543644735333e-02 3.534258470404802455e-02
4.910000000000000000e+04 1.813741587644268974e-02 9.106330973899651182e-03 2.979555357787768213e-02
4.920000000000000000e+04 2.705940670651548613e-02 1.355616997350953153e-02 4.419145524485106058e-02
4.930000000000000000e+04 2.480615235869176177e-02 1.236010606156554524e-02 4.020604990084343522e-02
4.940000000000000000e+04 1.393063636012721422e-02 6.959326430513753173e-03 2.276261856364561464e-02
4.950000000000000000e+04 1.443806772628292677e-02 7.278945176091080292e-03 2.362840474225390980e-02
4.960000000000000000e+04 3.716156399348050782e-02 2.412917347124168832e-02 5.046279727331277887e-02
4.970000000000000000e+04 5.146088137006447905e-02 3.969547894908852931e-02 6.324201508700157126e-02
4.980000000000000000e+04 2.148465757330722189e-02 1.136346081018888531e-02 3.229729059600538327e-02
4.990000000000000000e+04 1.350815836946005037e-02 6.810811624856893606e-03 2.209288949844048430e-02
5.000000000000000000e+04 1.344405205123459270e-02 6.632169787499920567e-03 2.200335260297184639e-02
5.010000000000000000e+04 1.340070748527412078e-02 6.705485776913726673e-03 2.180649844286997388e-02
5.020000000000000000e+04 1.338719698829786940e-02 6.718031957403176012e-03 2.194668009920621929e-02
5.030000000000000000e+04 1.318912606989327239e-02 6.580516303754791081e-03 2.187792268190977274e-02
5.040000000000000000e+04 1.308198805779264839e-02 6.547265307258171192e-03 2.154706923403324967e-02
5.050000000000000000e+04 1.334831022919027999e-02 6.635668918682897065e-03 2.171005907358081535e-02
5.060000000000000000e+04 1.325731133918037555e-02 6.607843953843033601e-03 2.161905307498641210e-02
5.070000000000000000e+04 1.339608183749642877e-02 6.612765786282354813e-03 2.196702786296659063e-02
5.080000000000000000e+04 1.347869545093705740e-02 6.700349949829238240e-03 2.164655613651336741e-02
5.090000000000000000e+04 1.332804688592379577e-02 6.816249032724827975e-03 2.153748084690327788e-02
5.100000000000000000e+04 1.320231334978372480e-02 6.675780242341893163e-03 2.155849107941595899e-02
5.110000000000000000e+04 1.326878043868717078e-02 6.667083452311446841e-03 2.171412406422374916e-02
5.120000000000000000e+04 1.336642978154490950e-02 6.597999045139538166e-03 2.180722306887531228e-02
5.130000000000000000e+04 1.333618265911709622e-02 6.728213906528239877e-03 2.180454501630497977e-02
5.140000000000000000e+04 1.317620528697416651e-02 6.638704253819805931e-03 2.140717166454765563e-02
5.150000000000000000e+04 1.318018297178741825e-02 6.522706144010148935e-03 2.143212196211511170e-02
5.160000000000000000e+04 1.314918562066016289e-02 6.477392464427189633e-03 2.151220025725783871e-02
5.170000000000000000e+04 1.339518682833488496e-02 6.589941186041980634e-03 2.155146076402642344e-02
5.180000000000000000e+04 1.321374156297746606e-02 6.619528265841168047e-03 2.153429953209464245e-02
5.190000000000000000e+04 1.319319000431028871e-02 6.682986697019249744e-03 2.158565493237640451e-02
5.200000000000000000e+04 1.304049452078928292e-02 6.444069433437372117e-03 2.133528970355317786e-02
5.210000000000000000e+04 1.303902970113602830e-02 6.500863142306499004e-03 2.138888887411179510e-02
5.220000000000000000e+04 1.334713573775757160e-02 6.700559060303846147e-03 2.140392838249232862e-02
5.230000000000000000e+04 1.420177494781144946e-02 7.245948049879413419e-03 2.308013917389837438e-02
5.240000000000000000e+04 1.560611286614882638e-02 7.808518145860706729e-03 2.486548599269987336e-02
5.250000000000000000e+04 1.375749912328182514e-02 6.885950844356380010e-03 2.218475940002986521e-02
5.260000000000000000e+04 1.345511822871830500e-02 6.718681224072172928e-03 2.186819966918972930e-02
5.270000000000000000e+04 1.344472518015429365e-02 6.629886373804860095e-03 2.188890266411621863e-02
5.280000000000000000e+04 1.349062460446739595e-02 6.608630845531681015e-03 2.225362851990216051e-02
5.290000000000000000e+04 1.366286825139135033e-02 6.848434320408143192e-03 2.237694996286550969e-02
5.300000000000000000e+04 1.383245374549588180e-02 6.881595369073893742e-03 2.265363903802636303e-02
5.310000000000000000e+04 1.393556950306999546e-02 7.068405441706547901e-03 2.277507442003041255e-02
5.320000000000000000e+04 1.422274054780781581e-02 7.142441646330240437e-03 2.327550696680974474e-02
5.330000000000000000e+04 1.424535205301361192e-02 7.127272591892982144e-03 2.346045442912943549e-02
5.340000000000000000e+04 1.435375985993299353e-02 7.194895107091831693e-03 2.359740207112993177e-02
5.350000000000000000e+04 1.446858045110298654e-02 7.198432238244990844e-03 2.353353196171944356e-02
5.360000000000000000e+04 1.427422633207100708e-02 7.157678153502203787e-03 2.346487517677499357e-02
5.370000000000000000e+04 1.430280758099903432e-02 7.087206500575177204e-03 2.319869650802196606e-02
5.380000000000000000e+04 1.412712619297971581e-02 7.094155803715306539e-03 2.317119690645504451e-02
5.390000000000000000e+04 1.398023155607252925e-02 6.864165918399213646e-03 2.285583952520096537e-02
5.400000000000000000e+04 1.394916894100219074e-02 6.889280227918272159e-03 2.279636334869929171e-02
5.410000000000000000e+04 1.455367869371224435e-02 7.176366185527255880e-03 2.378230348113969175e-02
5.420000000000000000e+04 1.797880404599917423e-02 9.160482759004344791e-03 2.857234098421237989e-02
5.430000000000000000e+04 1.603482228393824857e-02 8.101249406246638363e-03 2.581561252945954038e-02
5.440000000000000000e+04 1.443153731822119021e-02 7.175500539007464984e-03 2.349108043929446638e-02
5.450000000000000000e+04 1.448679009678870838e-02 7.254012177989943751e-03 2.344950202193109290e-02
5.460000000000000000e+04 1.549651860198205874e-02 7.906969352088984507e-03 2.563599044071836197e-02
5.470000000000000000e+04 2.779636614355599292e-02 1.607307676355244561e-02 4.050407852073768800e-02
5.480000000000000000e+04 2.724880018738527407e-02 1.570445301309508421e-02 3.956223159756147578e-02
5.490000000000000000e+04 1.663943665864407381e-02 8.302303845915473546e-03 2.716521831152597308e-02
5.500000000000000000e+04 2.649905895900474609e-02 1.308549365849536426e-02 4.413911994584313048e-02
5.510000000000000000e+04 1.609350595048177901e-01 7.941050034537260049e-02 2.698616611733056780e-01
5.520000000000000000e+04 2.035536311988457026e-01 9.945530132935129219e-02 3.436396407639369932e-01
5.530000000000000000e+04 6.252019986781587324e-02 3.030603137813978748e-02 1.064741912115683975e-01
5.540000000000000000e+04 2.045112228778031213e-02 1.014989839487994393e-02 3.367785806535648907e-02
5.550000000000000000e+04 1.769776217309665112e-01 8.690338857004566153e-02 2.915948202917708065e-01
5.560000000000000000e+04 4.083283763900437124e-01 2.074019648786522563e-01 6.455238960531394232e-01
5.570000000000000000e+04 3.477643583392834303e-01 1.775574452418468008e-01 5.469766566746241399e-01
5.580000000000000000e+04 1.005479050021744064e-01 5.147044064509005007e-02 1.621256672018080991e-01
5.590000000000000000e+04 3.491355743024155411e-01 3.245833430646753448e-01 3.714168931840121091e-01
5.600000000000000000e+04 4.199292263821639559e-01 4.023062939290633633e-01 4.387410226457125195e-01
5.610000000000000000e+04 1.147903578830139631e-01 9.432081976456081762e-02 1.374943155776566228e-01
5.620000000000000000e+04 2.044343588665849948e-02 1.040377961495763705e-02 3.316971249312690440e-02
5.630000000000000000e+04 1.940663034582602517e-02 9.418954623923706318e-03 3.181496546518005480e-02
5.640000000000000000e+04 2.345324300632782577e-02 1.229175938292811389e-02 3.648842403344305235e-02
5.650000000000000000e+04 2.834600709147822722e-02 1.589358838458325082e-02 4.145701872881842054e-02
5.660000000000000000e+04 1.872176393075440995e-02 9.286904648987811747e-03 3.000069554772930719e-02
5.670000000000000000e+04 1.671739375626911037e-02 8.472124281875667920e-03 2.755153369391627471e-02
5.680000000000000000e+04 1.745679494699640608e-02 8.703966081616779787e-03 2.858554588754292150e-02
5.690000000000000000e+04 2.433987080988973123e-02 1.206254028306753996e-02 3.994109028178795956e-02
5.700000000000000000e+04 2.439854993813143219e-02 1.217109658855133371e-02 4.023464789357573956e-02
5.710000000000000000e+04 1.880591580227312237e-02 9.233980583001275000e-03 3.087902931695174144e-02
5.720000000000000000e+04 1.934289486471742897e-02 9.597170614836895292e-03 3.195726958986069843e-02
5.730000000000000000e+04 2.011089581671611851e-02 1.003488058346004019e-02 3.378966498720435696e-02
5.740000000000000000e+04 2.080784176252036682e-02 1.033245040061026021e-02 3.509215262700257632e-02
5.750000000000000000e+04 2.206556879520191194e-02 1.073870460607035879e-02 3.711145590451710857e-02
5.760000000000000000e+04 2.293249311073180044e-02 1.118392717749725103e-02 3.947223730855206614e-02
5.770000000000000000e+04 2.431633939860066221e-02 1.171850275048654660e-02 4.195545508335141172e-02
5.780000000000000000e+04 2.623381554885161407e-02 1.263198848317580864e-02 4.527620120812873156e-02
5.790000000000000000e+04 2.709284444672383288e-02 1.299517264094130452e-02 4.771068035452177836e-02
5.800000000000000000e+04 2.831517176184198542e-02 1.351561973534930357e-02 4.993716059866365464e-02
5.810000000000000000e+04 2.954191963375736932e-02 1.402309475161036753e-02 5.346684966263035022e-02
5.820000000000000000e+04 3.120896360345607606e-02 1.464634017361599212e-02 5.627967047796281902e-02
5.830000000000000000e+04 3.298352375550330645e-02 1.539730852382258097e-02 5.977208439283797359e-02
5.840000000000000000e+04 3.378413806949586567e-02 1.605533876455593131e-02 6.270390492715986752e-02
5.850000000000000000e+04 3.590974932920886625e-02 1.668055089826089507e-02 6.659033995750499035e-02
5.860000000000000000e+04 3.801377895423155989e-02 1.795119679610533009e-02 7.094588755670067082e-02
5.870000000000000000e+04 4.016643501625976470e-02 1.819516048904912600e-02 7.431200612426729080e-02
5.880000000000000000e+04 4.157420566198633677e-02 1.910915850629754317e-02 7.861325295835860927e-02
5.890000000000000000e+04 4.389799522200178716e-02 1.990203323027094073e-02 8.200152385469876293e-02
5.900000000000000000e+04 4.585726081417372535e-02 2.082316511306843074e-02 8.513370174944887014e-02
5.910000000000000000e+04 4.703070726845094696e-02 2.126857676109471240e-02 8.617411998082297186e-02
5.920000000000000000e+04 4.812997412114748685e-02 2.190955096787641082e-02 8.786084692697829213e-02
5.930000000000000000e+04 4.964781303403241475e-02 2.274755620933224115e-02 9.205865140567616456e-02
5.940000000000000000e+04 5.239064023572771039e-02 2.374246124543356873e-02 9.613651156665763142e-02
5.950000000000000000e+04 5.530613639372967960e-02 2.491220655498246200e-02 9.869420631410942557e-02
5.960000000000000000e+04 5.803583078579041543e-02 2.647480050892786485e-02 1.020622268756983253e-01
5.970000000000000000e+04 5.926729312634140823e-02 2.705545470331868763e-02 1.049223410651272115e-01
5.980000000000000000e+04 6.074196576479756748e-02 2.847981150469394013e-02 1.059007070477172574e-01
5.990000000000000000e+04 6.181039279032281286e-02 2.939833475550014674e-02 1.072248822087636805e-01
6.000000000000000000e+04 6.174531843638346451e-02 2.981702118623377751e-02 1.064722456858503835e-01
6.010000000000000000e+04 6.248718895835244508e-02 2.972218478512214310e-02 1.060646581798215388e-01
6.020000000000000000e+04 6.338583325658095347e-02 3.065591149403028987e-02 1.073782364228509228e-01
6.030000000000000000e+04 6.609112769165366441e-02 3.240072350229877829e-02 1.096776444032804276e-01
6.040000000000000000e+04 6.842452102146590054e-02 3.388633443333907702e-02 1.125250766600632835e-01
6.050000000000000000e+04 7.189520665448226322e-02 3.605886390763347882e-02 1.175777006970862432e-01
6.060000000000000000e+04 7.395147858369488514e-02 3.657687466126734871e-02 1.211908416393277510e-01
6.070000000000000000e+04 7.657150742946662592e-02 3.816595345377008647e-02 1.249694144225981379e-01
6.080000000000000000e+04 7.869152081137009702e-02 3.888955179884901608e-02 1.288620183638788663e-01
6.090000000000000000e+04 8.185909651881977112e-02 4.029457160878476690e-02 1.306248458259238188e-01
6.100000000000000000e+04 8.257192675135385795e-02 4.108344599364214395e-02 1.331331602796865521e-01
6.110000000000000000e+04 8.187575325877050059e-02 4.033641499425029420e-02 1.353515859277865385e-01
6.120000000000000000e+04 8.262505242180620546e-02 4.021996206557069270e-02 1.378952096982119790e-01
6.130000000000000000e+04 8.539213411884394311e-02 4.204037633750626335e-02 1.384453542069125909e-01
6.140000000000000000e+04 8.609542715964133008e-02 4.275055617967802452e-02 1.415837463362684678e-01
6.150000000000000000e+04 8.751391731775658156e-02 4.305657271449612328e-02 1.448440203271889049e-01
6.160000000000000000e+04 8.684206096647960338e-02 4.044028561511930214e-02 1.498722125242732683e-01
6.170000000000000000e+04 8.990331744166064898e-02 4.466836629488740024e-02 1.478890535701246900e-01
6.180000000000000000e+04 8.984507742357550342e-02 4.456816564729308011e-02 1.473930969330007335e-01
6.190000000000000000e+04 8.711788921772913030e-02 4.307896418779473546e-02 1.464515449527094282e-01
6.200000000000000000e+04 8.322066176491582645e-02 4.079123990059028981e-02 1.432934357878376530e-01
6.210000000000000000e+04 8.136667838524740126e-02 3.983091839888026203e-02 1.410627805496424692e-01
6.220000000000000000e+04 8.266341690914690010e-02 4.012469953399238481e-02 1.422808036334589354e-01
6.230000000000000000e+04 8.192972828794393980e-02 3.913103106448667656e-02 1.430520324667805543e-01
6.240000000000000000e+04 8.082111212711333426e-02 3.760917507140856819e-02 1.411986407560531787e-01
6.250000000000000000e+04 4.629848685523003243e-02 1.376814919815817946e-02 1.010563846313152631e-01
