# Comments from moku data file:% Moku:Phasemeter 
# 
# % Ch 1 - DC coupling, 50 Ohm impedance, 1 V range
# 
# % Ch 1 bandwidth = 1.0000000000e+04 (Hz)
# 
# % Acquisition rate: 1.2500000000e+05 Hz
# 
# % External 10 MHz clock
# 
# % Acquired 2020-05-16 T 11:15:00 -0700
# 
# % Time, Set frequency 1 (Hz), Frequency 1 (Hz), Phase 1 (cyc), I 1 (V), Q 1 (V)
# 
# #########################################################
# ASD calculated by mokuReadFreqNoise.py
# Frequency [Hz]         Freq ASD1 [Hz/rtHz]      Freq ASDlb1 [Hz/rtHz]    Freq ASDub1 [Hz/rtHz]    
# 
0.000000000000000000e+00 1.051529629247190769e+02 4.297768092966060038e+01 2.709327497830471998e+02
1.000000000000000056e-01 2.551261561289195186e+02 1.642144788235804356e+02 3.154125112726619591e+02
2.000000000000000111e-01 1.596014010470079825e+02 1.061096667526275041e+02 2.681834874056186777e+02
3.000000000000000444e-01 1.474174286860125846e+02 1.194838969415577736e+02 2.024969366569574731e+02
4.000000000000000222e-01 1.158136013312592496e+02 7.379320708980240795e+01 1.837224463889564277e+02
5.000000000000000000e-01 6.647722197314642756e+01 1.602913543725833634e+01 1.355353179660066871e+02
6.000000000000000888e-01 3.877828903482497225e+01 2.142898223979434036e+01 6.157761216948495075e+01
7.000000000000000666e-01 5.246568529092413513e+01 3.677684943498370984e+01 7.806553402940272690e+01
8.000000000000000444e-01 3.784254111580625590e+01 2.847964773451352372e+01 6.255376030320892511e+01
9.000000000000000222e-01 4.059315508725176613e+01 2.169168710343160100e+01 6.557043732537084679e+01
1.000000000000000000e+00 4.019579326578863743e+01 2.552361010341986258e+01 5.668665212505808881e+01
1.100000000000000089e+00 3.175436835619575859e+01 2.125200712855570373e+01 4.260437411388512885e+01
1.200000000000000178e+00 3.674929156130693997e+01 2.630125579401098435e+01 6.060070789693618565e+01
1.300000000000000044e+00 3.980443666459216701e+01 2.050009913195547995e+01 6.325709791195500742e+01
1.400000000000000133e+00 3.252744005661492821e+01 2.470474784184791517e+01 3.910873794734986575e+01
1.500000000000000000e+00 2.966764768044684075e+01 1.977730299456336027e+01 4.200753001565811928e+01
1.600000000000000089e+00 3.019607584108932130e+01 1.560479448968785654e+01 4.444998524978987575e+01
1.700000000000000178e+00 2.843394206021754300e+01 2.041663988433359123e+01 5.420569068935153467e+01
1.800000000000000044e+00 3.202973231142917143e+01 2.430293085048029766e+01 4.044293544186603384e+01
1.900000000000000133e+00 2.198435063450659044e+01 1.018749800488930290e+01 4.616834060819898156e+01
2.000000000000000000e+00 2.285119196257068808e+01 1.109190809785446596e+01 3.273265416613982381e+01
2.100000000000000089e+00 1.941051801877526728e+01 1.113489059135974912e+01 2.708999021541959706e+01
2.200000000000000178e+00 1.579985225125812320e+01 6.432896505557721412e+00 2.477214104455575239e+01
2.300000000000000266e+00 1.673199353963603286e+01 7.982356160991585625e+00 2.414808765035573046e+01
2.400000000000000355e+00 1.696576922749271787e+01 7.432945011598353524e+00 2.691347019796513962e+01
2.500000000000000000e+00 1.148447410996035423e+01 6.335805757560089901e+00 2.117184809565204517e+01
2.600000000000000089e+00 1.673735633728770011e+01 1.484094865327395141e+01 2.415629736674345551e+01
2.700000000000000178e+00 1.631065880896573006e+01 1.041238032671581948e+01 2.823408942388709875e+01
2.800000000000000266e+00 1.938414992029430195e+01 1.144077005087520149e+01 2.896262691263655853e+01
2.900000000000000355e+00 1.183422562776383913e+01 9.710945338516191683e+00 2.971929058748096608e+01
3.000000000000000000e+00 1.668732730300446576e+01 9.878103856895640078e+00 2.344442189150152700e+01
3.100000000000000089e+00 1.765778346594558812e+01 1.054593822236935452e+01 2.200786835529837404e+01
3.200000000000000178e+00 1.183585423255146551e+01 6.669687159530542253e+00 2.414081539248567765e+01
3.300000000000000266e+00 1.863033967599611884e+01 7.428796965293248178e+00 2.629697555000322495e+01
3.400000000000000355e+00 1.777035052206147725e+01 1.206646325324046742e+01 2.695977423939845607e+01
3.500000000000000000e+00 1.885544819650510817e+01 1.250901876128048684e+01 2.263019404537047308e+01
3.600000000000000089e+00 1.529176680103699582e+01 1.165685062774715419e+01 2.156615632487704914e+01
3.700000000000000178e+00 1.816546046055503894e+01 9.975408553516107446e+00 2.313366988002482572e+01
3.800000000000000266e+00 1.621732477205901546e+01 1.411861673977093012e+01 2.647405794681713687e+01
3.900000000000000355e+00 1.277004839226246879e+01 6.838075966838360387e+00 1.612557225782534687e+01
4.000000000000000000e+00 1.518005743267288921e+01 1.171278286974141203e+01 1.956773985890273693e+01
4.100000000000000533e+00 1.213016300429995553e+01 9.865525952154932554e+00 2.293958962617810471e+01
4.200000000000000178e+00 1.426664991571246688e+01 8.128824097430678464e+00 1.767728839596648172e+01
4.299999999999999822e+00 1.261830727257215123e+01 9.471838729001644808e+00 2.381195365255461738e+01
4.400000000000000355e+00 2.000752792099284605e+01 1.012447469410789225e+01 3.194523340459127780e+01
4.500000000000000000e+00 1.765266697304697274e+01 9.463186127946439541e+00 2.620455312188741814e+01
4.600000000000000533e+00 1.227907020495705659e+01 7.505136289569757757e+00 2.475880873075574939e+01
4.700000000000000178e+00 1.340292701660289332e+01 6.458162932035179438e+00 3.063730536758912848e+01
4.800000000000000711e+00 1.726943261285253683e+01 9.941029843906955321e+00 2.545637678469115173e+01
4.900000000000000355e+00 1.227199883373051392e+01 6.372995715373125591e+00 1.979180324509419009e+01
5.000000000000000000e+00 1.285488760140792053e+01 4.786747337566453986e+00 2.017479322741842651e+01
5.100000000000000533e+00 1.859737201361975423e+01 1.187728464754730773e+01 2.755301624230274982e+01
5.200000000000000178e+00 2.164643358664300621e+01 1.523396097172848407e+01 2.711933291345219743e+01
5.300000000000000711e+00 2.291776940528840711e+01 1.580722370657809606e+01 3.421717701174968340e+01
5.400000000000000355e+00 1.797535499646145141e+01 1.240959816996510234e+01 3.570101650529950632e+01
5.500000000000000000e+00 2.200363925670184528e+01 1.845542950684589556e+01 2.609530342731959252e+01
5.600000000000000533e+00 2.019833981541282952e+01 1.465860518873772733e+01 2.751989544373435592e+01
5.700000000000000178e+00 1.794429754897729623e+01 1.039107956951886536e+01 2.188472744019503580e+01
5.800000000000000711e+00 1.995901668954348551e+01 9.941322018964498852e+00 2.442224571849563475e+01
5.900000000000000355e+00 2.188408794135260038e+01 1.374684804423785600e+01 2.581717239444188650e+01
6.000000000000000000e+00 1.925229727030882998e+01 8.758335353420681813e+00 2.144942606501703963e+01
6.100000000000000533e+00 1.871570836876239596e+01 1.442685980925985945e+01 2.743127874079483419e+01
6.200000000000000178e+00 1.894601375818920275e+01 1.306194439547745390e+01 2.745226918742081779e+01
6.300000000000000711e+00 1.523001513660842754e+01 1.127000119339693640e+01 2.696015255711152747e+01
6.400000000000000355e+00 1.274628670184125845e+01 5.369099167327571642e+00 1.844831569771427482e+01
6.500000000000000000e+00 1.388719631940136701e+01 6.836833931774068063e+00 2.395419217111211196e+01
6.600000000000000533e+00 2.018931831198056415e+01 1.440698703244375345e+01 2.489726657082035288e+01
6.700000000000000178e+00 2.669554762835363348e+01 8.055395672134400442e+00 3.992934092951214353e+01
6.800000000000000711e+00 2.713484770276759761e+01 1.590980741638838047e+01 4.409788627384240556e+01
6.900000000000000355e+00 3.326479793259128570e+01 2.059560233798824669e+01 5.436971272855357284e+01
7.000000000000000000e+00 3.411435558206897412e+01 2.829823828860746815e+01 5.280353810074089438e+01
7.100000000000000533e+00 3.685051040446103343e+01 3.076102647901130638e+01 4.761126555693533646e+01
7.200000000000000178e+00 1.829910803773580952e+01 7.466377488357523795e+00 4.509237549996417016e+01
7.300000000000000711e+00 2.788569001219669730e+01 2.121380669600550206e+01 4.350632307490919004e+01
7.400000000000000355e+00 2.459224419122653771e+01 1.724026346709486290e+01 3.629274314122478273e+01
7.500000000000000000e+00 1.671335912315876016e+01 9.009607775492094461e+00 2.711997230994895602e+01
7.600000000000000533e+00 1.712818732472174688e+01 8.376290750397902940e+00 2.058185683993257342e+01
7.700000000000000178e+00 1.854241702608454645e+01 7.627549030461219459e+00 2.687893038561468728e+01
7.800000000000000711e+00 2.006355538855550336e+01 6.362222673948997098e+00 2.736867792529806209e+01
7.900000000000000355e+00 1.022023768482739214e+01 4.290554854364025061e+00 2.051092223116736335e+01
8.000000000000000000e+00 1.435485176026718257e+01 7.732009842227983931e+00 1.881558918506904732e+01
8.099999999999999645e+00 1.550132457216414217e+01 7.022564191783811971e+00 2.475186998793267890e+01
8.200000000000001066e+00 9.813695731264033384e+00 5.763140324840702711e+00 1.805456878437800228e+01
8.300000000000000711e+00 8.333130210125355930e+00 3.755257579351110930e+00 1.982108469196706935e+01
8.400000000000000355e+00 1.511974887012179991e+01 8.526296038224838725e+00 1.984702208496680598e+01
8.500000000000000000e+00 1.737090292502863420e+01 1.110358354266783287e+01 2.277361093640127621e+01
8.599999999999999645e+00 1.626472582539727796e+01 7.960484923564084880e+00 2.564807041113635577e+01
8.700000000000001066e+00 1.655264465088647086e+01 5.055458741599419881e+00 1.954811299527390744e+01
8.800000000000000711e+00 1.591353397738454589e+01 8.797246610321982629e+00 2.533076437255667557e+01
8.900000000000000355e+00 9.950274712505473573e+00 6.123182210381794555e+00 2.409784345509281067e+01
9.000000000000000000e+00 1.032741419527206794e+01 9.362725997852290760e+00 2.036335298435121643e+01
9.099999999999999645e+00 1.364674383127215407e+01 4.435723009399109351e+00 2.349825210349635896e+01
9.200000000000001066e+00 1.557936188408910283e+01 6.348754572008580510e+00 2.020460599052585948e+01
9.300000000000000711e+00 1.131108647996867056e+01 6.929473931362300831e+00 1.903695318015473248e+01
9.400000000000000355e+00 9.584093888731981536e+00 5.285309888727129035e+00 2.059074130205112496e+01
9.500000000000000000e+00 1.358556120320724148e+01 6.980681513672922556e+00 2.116481688945831152e+01
9.600000000000001421e+00 1.145134979331715108e+01 6.557624325015945388e+00 1.734777882470706700e+01
9.700000000000001066e+00 1.185450672477393752e+01 6.599436937203976505e+00 1.418653082390863496e+01
9.800000000000000711e+00 7.657955943751381334e+00 4.140633267206554891e+00 1.202627533965773488e+01
9.900000000000000355e+00 6.619759711518601542e+00 3.889864455619979733e+00 9.133946023220595123e+00
1.000000000000000000e+01 9.289190763376236504e+00 3.947967075201913811e+00 1.724156596754808390e+01
1.100000000000000000e+01 1.139386380320411263e+01 4.680827343602363300e+00 1.813869362539369590e+01
1.200000000000000000e+01 8.822807171667246706e+00 3.621949689061552569e+00 1.550081059736054279e+01
1.300000000000000000e+01 8.075928648511824903e+00 3.520528838925478521e+00 1.806998997111254113e+01
1.400000000000000000e+01 1.022855956126522337e+01 3.099819584267241801e+00 2.174740371167573016e+01
1.500000000000000000e+01 7.964825024446885671e+00 2.987830036799369537e+00 1.765833446858901112e+01
1.600000000000000000e+01 5.677338305744227043e+00 1.772940782207399035e+00 1.327214851976288301e+01
1.700000000000000000e+01 4.534310407379833485e+00 1.553367665700023048e+00 1.111639894790035576e+01
1.800000000000000000e+01 3.888911534344206000e+00 1.261339840688954661e+00 1.093765286184851249e+01
1.900000000000000000e+01 3.147462812887382722e+00 1.257513787371901115e+00 1.062007538560662390e+01
2.000000000000000000e+01 2.689636746120152910e+00 1.136571222961954231e+00 1.047294000659053381e+01
2.100000000000000000e+01 2.828979330791641100e+00 1.271138038485199351e+00 8.802254998487835991e+00
2.200000000000000000e+01 2.322393878878403317e+00 1.073228885778534814e+00 7.674829750092949432e+00
2.300000000000000000e+01 1.870891833652832403e+00 7.758763138389107583e-01 6.508782853230138166e+00
2.400000000000000000e+01 1.734783094926777069e+00 7.111547342909724234e-01 5.263897868365552846e+00
2.500000000000000000e+01 1.437862425922123100e+00 6.506878146572758759e-01 4.605191486441936100e+00
2.600000000000000000e+01 1.197518979736942990e+00 5.790774032256102988e-01 5.370376221183800425e+00
2.700000000000000000e+01 1.110974302573897843e+00 4.381646579872646163e-01 4.102563226480212322e+00
2.800000000000000000e+01 9.681197562360900344e-01 3.964705366519715724e-01 4.030862628332886111e+00
2.900000000000000000e+01 8.080272329451868574e-01 3.514165130188943720e-01 2.908055566598619190e+00
3.000000000000000000e+01 7.951996772936860136e-01 3.736581622264113500e-01 2.329868145597929097e+00
3.100000000000000000e+01 7.036398213684111891e-01 3.040766310623012614e-01 1.841392529873960182e+00
3.200000000000000000e+01 5.219083460149186449e-01 2.538551588557125260e-01 1.704576218683398814e+00
3.300000000000000000e+01 4.630655000760227624e-01 2.026928799511353296e-01 1.654218232638279051e+00
3.400000000000000000e+01 4.814137111158539595e-01 2.278379803491593636e-01 1.295294313494514737e+00
3.500000000000000000e+01 4.947120264386283828e-01 2.566435636766265516e-01 1.073453249979759550e+00
3.600000000000000000e+01 4.186216382188212015e-01 1.849068196097739813e-01 1.045308540615509374e+00
3.700000000000000000e+01 3.453756789487161805e-01 1.744481036545379449e-01 9.493776066595019936e-01
3.800000000000000000e+01 3.794289177933520274e-01 1.672320479918420200e-01 7.535124556714840605e-01
3.900000000000000000e+01 3.201158027147935070e-01 1.745558894532207028e-01 7.150277056736453751e-01
4.000000000000000000e+01 2.839506151269510226e-01 1.152158220956726181e-01 5.907418988516865976e-01
4.100000000000000000e+01 2.971867092208995142e-01 1.251534609703588152e-01 5.712615489339490926e-01
4.200000000000000000e+01 2.851050415871159704e-01 1.515160239978371459e-01 5.989933494471378905e-01
4.300000000000000000e+01 2.709640068555084214e-01 1.315902695869862471e-01 5.266129578608957917e-01
4.400000000000000000e+01 2.590753785661897290e-01 1.276100206217948285e-01 5.173785909999994992e-01
4.500000000000000000e+01 2.272962797363278775e-01 1.015095592667792784e-01 4.614826544224672200e-01
4.600000000000000000e+01 2.165368627275505164e-01 9.922188042843083089e-02 3.847136312896507482e-01
4.700000000000000000e+01 2.154558141416102468e-01 1.060578109883613673e-01 4.439855642524802581e-01
4.800000000000000000e+01 2.281369391458543117e-01 1.252349676658742750e-01 4.465493786605453930e-01
4.900000000000000000e+01 2.539989648233072494e-01 1.144962103805359233e-01 4.274413808909147128e-01
5.000000000000000000e+01 2.614138428841540351e-01 1.182550774954779366e-01 4.150952342390574756e-01
5.100000000000000000e+01 2.357955886039602988e-01 1.241293119506812342e-01 3.794648164717377425e-01
5.200000000000000000e+01 2.306761571914744402e-01 1.188138919221903567e-01 4.224157896974237714e-01
5.300000000000000000e+01 2.109601562080670178e-01 1.243528261013554653e-01 4.330543172957310172e-01
5.400000000000000000e+01 1.988697172241138678e-01 9.234434247900361048e-02 3.419310272842414067e-01
5.500000000000000000e+01 2.044363862454237346e-01 1.129179355827512055e-01 3.697159126780759641e-01
5.600000000000000000e+01 2.197528308214866111e-01 9.907221135866882411e-02 3.860808514643598865e-01
5.700000000000000000e+01 1.861236240680365916e-01 1.017162539380375291e-01 3.284558377480193414e-01
5.800000000000000000e+01 1.542126164446882275e-01 8.494672353652246710e-02 3.101571613417635209e-01
5.900000000000000000e+01 1.937895577319382057e-01 1.040135626619494297e-01 2.863425426721596945e-01
6.000000000000000000e+01 2.027777547723306761e-01 1.184612601973319412e-01 3.123109256330202643e-01
6.100000000000000000e+01 1.692198432759416393e-01 9.280956566653580930e-02 2.716275909734132687e-01
6.200000000000000000e+01 1.741020041959837894e-01 9.370800867079830121e-02 2.923454454899022115e-01
6.300000000000000000e+01 1.705631733260451477e-01 9.829536731837079655e-02 2.904383032530055142e-01
6.400000000000000000e+01 1.493037499021202530e-01 8.510340952715148011e-02 2.295548111706826322e-01
6.500000000000000000e+01 1.186884967796931201e-01 6.074853879080205354e-02 2.227966046005058487e-01
6.600000000000000000e+01 1.424511388129951206e-01 7.173416954655340017e-02 2.283247626361643579e-01
6.700000000000000000e+01 1.315401105024475992e-01 6.836805602614481892e-02 2.252395196699668034e-01
6.800000000000000000e+01 1.103806958619346357e-01 6.136350570276585814e-02 1.963468552796659994e-01
6.900000000000000000e+01 1.104730288489802342e-01 6.374464923460609889e-02 1.720295250758978600e-01
7.000000000000000000e+01 1.032004488340265286e-01 5.515027742204274552e-02 1.713604684631073183e-01
7.100000000000000000e+01 1.128687467997086802e-01 4.799536663971093464e-02 1.761770779753812910e-01
7.200000000000000000e+01 1.049074320830770957e-01 5.254874540474858274e-02 1.861705258848359024e-01
7.300000000000000000e+01 9.931347433193427054e-02 4.488890750748642661e-02 1.540887136711043826e-01
7.400000000000000000e+01 8.991908136087378711e-02 4.537082535704469594e-02 1.564486864246250886e-01
7.500000000000000000e+01 9.331208513996600007e-02 5.355464151745441270e-02 1.512431426719038630e-01
7.600000000000000000e+01 8.182014090849884513e-02 4.245625599647723930e-02 1.346839539711152667e-01
7.700000000000000000e+01 8.278920524398515612e-02 3.646200879054323218e-02 1.363773056666699734e-01
7.800000000000000000e+01 8.798394525815393663e-02 4.396384861550966389e-02 1.455063314991990597e-01
7.900000000000000000e+01 8.676001040441309875e-02 4.722110621284750231e-02 1.441635385066778741e-01
8.000000000000000000e+01 8.871253554606188529e-02 4.732196779951745869e-02 1.418833195964458727e-01
8.100000000000000000e+01 7.837762949001447765e-02 3.651321960909035408e-02 1.315686791106846498e-01
8.200000000000000000e+01 8.779571887493327342e-02 4.523152553940258669e-02 1.393521584897870758e-01
8.300000000000000000e+01 8.673879583834945284e-02 4.220418632565195449e-02 1.258185758807404409e-01
8.400000000000000000e+01 7.258196995400061080e-02 3.258770406389552288e-02 1.334340764509089894e-01
8.500000000000000000e+01 7.846106819754777861e-02 3.788342663690974499e-02 1.398698964089717112e-01
8.600000000000000000e+01 8.235602541015132894e-02 3.793656703478257702e-02 1.466520966510642121e-01
8.700000000000000000e+01 8.137609164599883538e-02 3.503574042835253671e-02 1.389660687895701296e-01
8.800000000000000000e+01 7.267751811752616586e-02 3.921053451130371292e-02 1.322677520783956673e-01
8.900000000000000000e+01 7.473506501605707564e-02 4.106074424824616986e-02 1.330195734923982076e-01
9.000000000000000000e+01 7.661787249518510479e-02 3.306743701151255987e-02 1.459082752801663663e-01
9.100000000000000000e+01 6.966737579145979020e-02 4.011706089562241256e-02 1.209805232404849162e-01
9.200000000000000000e+01 6.647370740439662029e-02 2.977908701729407512e-02 1.226036996699819276e-01
9.300000000000000000e+01 6.691656652265559613e-02 3.425649310207493081e-02 1.193092581304201205e-01
9.400000000000000000e+01 6.576930709331942071e-02 3.353926402956658448e-02 1.352197233462281156e-01
9.500000000000000000e+01 7.116652266866776988e-02 3.224218226552244548e-02 1.267735187722411616e-01
9.600000000000000000e+01 7.267783847503928030e-02 4.341520758954766496e-02 1.488977396268820752e-01
9.700000000000000000e+01 6.897141098836628847e-02 4.193989806424435612e-02 1.353298366060423641e-01
9.800000000000000000e+01 7.714216918159190473e-02 4.113308790182843705e-02 1.253943574916210890e-01
9.900000000000000000e+01 7.621716733536475219e-02 4.069713172472970431e-02 1.232174860387544035e-01
1.000000000000000000e+02 9.887407637657276427e-02 4.755004079871368722e-02 1.840542744855270529e-01
1.100000000000000000e+02 1.666948704086868571e-01 8.169497741580714067e-02 2.805955464130906463e-01
1.200000000000000000e+02 1.554982832732314246e-01 6.612136084931202751e-02 3.233540326999366776e-01
1.300000000000000000e+02 1.700493488881433535e-01 8.448206205134919933e-02 2.862926882615401958e-01
1.400000000000000000e+02 1.596271533777815221e-01 7.796403396690600174e-02 2.720096611501356954e-01
1.500000000000000000e+02 1.276479325281902610e-01 5.191603182067729833e-02 2.787363191958386888e-01
1.600000000000000000e+02 1.307037086285942895e-01 6.166034242788909908e-02 2.210809182358533798e-01
1.700000000000000000e+02 6.372319853200886230e-02 2.891933565160958661e-02 1.276039357973063615e-01
1.800000000000000000e+02 4.363254521752634590e-02 2.087391025415646223e-02 7.647884470861730788e-02
1.900000000000000000e+02 3.701152749092569832e-02 1.837892180971235565e-02 6.313979111578822689e-02
2.000000000000000000e+02 3.879778011726393167e-02 1.875833542914652138e-02 6.623033278567458382e-02
2.100000000000000000e+02 5.144410042404615885e-02 2.552901858367478266e-02 9.027401603224881332e-02
2.200000000000000000e+02 6.739874844654976382e-02 3.123425579124934279e-02 1.206990341166188918e-01
2.300000000000000000e+02 6.887919754393856397e-02 3.147680190064903322e-02 1.261350658127750046e-01
2.400000000000000000e+02 7.246527212913791982e-02 3.683995688573667854e-02 1.181765346913489639e-01
2.500000000000000000e+02 5.064534187252785202e-02 2.566747428820951443e-02 8.323287114123766040e-02
2.600000000000000000e+02 8.979471641184630371e-02 4.004909292321068293e-02 1.545103438888896508e-01
2.700000000000000000e+02 1.474342242740117881e-01 5.620964869863299962e-02 2.872393907185061268e-01
2.800000000000000000e+02 1.354897895971211852e-01 5.889999761026688124e-02 2.594561039063257857e-01
2.900000000000000000e+02 6.931312844700288078e-02 3.280666867346957588e-02 1.258206705862716934e-01
3.000000000000000000e+02 3.922036971569592412e-02 1.946461787625278217e-02 6.565493760106003163e-02
3.100000000000000000e+02 3.253153853901431108e-02 1.604786815006785730e-02 5.227554275007683521e-02
3.200000000000000000e+02 3.127938065289868896e-02 1.497337872664888068e-02 5.225123056396656362e-02
3.300000000000000000e+02 3.271171358668282375e-02 1.559748866935274474e-02 5.340765692558748640e-02
3.400000000000000000e+02 3.231519031513013784e-02 1.607517777043174570e-02 5.386887156466225318e-02
3.500000000000000000e+02 3.183554517163589281e-02 1.554501566664095481e-02 5.208966180373004323e-02
3.600000000000000000e+02 3.126319722625893471e-02 1.578451652845777597e-02 5.212777047673544661e-02
3.700000000000000000e+02 2.974479299497191989e-02 1.574394928327003257e-02 4.959093649784775126e-02
3.800000000000000000e+02 3.457964743185838047e-02 1.675729978762298747e-02 5.605487785373382964e-02
3.900000000000000000e+02 3.979421695640826540e-02 2.072057170358671332e-02 6.556878144290392840e-02
4.000000000000000000e+02 3.905544149577808849e-02 2.020848389889410082e-02 6.453127483950898968e-02
4.100000000000000000e+02 3.735356512119129141e-02 1.794974814551396347e-02 6.151498778855248734e-02
4.200000000000000000e+02 4.069860735569506144e-02 2.006760236963074651e-02 6.627728513392948384e-02
4.300000000000000000e+02 3.838506105495460841e-02 1.882828221853180550e-02 6.409575582846725739e-02
4.400000000000000000e+02 3.610096320666156960e-02 1.666282081778260385e-02 5.824241974470183159e-02
4.500000000000000000e+02 3.261680972056656136e-02 1.780076112768624527e-02 5.333857198218163592e-02
4.600000000000000000e+02 2.969812842939427780e-02 1.460303783458746438e-02 4.857129041863322144e-02
4.700000000000000000e+02 3.265622673714497354e-02 1.719963253506791648e-02 5.307583993121626348e-02
4.800000000000000000e+02 4.189672756754363181e-02 2.192919886205334928e-02 6.448822641175079584e-02
4.900000000000000000e+02 3.218485134062926828e-02 1.643716385700450325e-02 5.004091926474146107e-02
5.000000000000000000e+02 2.722979229221885594e-02 1.354929380190869614e-02 4.341180883310041122e-02
5.100000000000000000e+02 2.710525070765018585e-02 1.376037121088532177e-02 4.395308789446614184e-02
5.200000000000000000e+02 2.751326508205082996e-02 1.373594227051607580e-02 4.473183441552639611e-02
5.300000000000000000e+02 3.026766431008841990e-02 1.594422187873254307e-02 4.919410111863455060e-02
5.400000000000000000e+02 3.362681455908396455e-02 1.627372922141156683e-02 5.489553916815544110e-02
5.500000000000000000e+02 3.207582114198405387e-02 1.605795507575402334e-02 5.275075592908944760e-02
5.600000000000000000e+02 3.344953674507925717e-02 1.562483597054098103e-02 5.485107393735876025e-02
5.700000000000000000e+02 3.384020515448000338e-02 1.728643383561770386e-02 5.637305936523481081e-02
5.800000000000000000e+02 3.204787137696028798e-02 1.563827780868468770e-02 5.553849470774916558e-02
5.900000000000000000e+02 3.098927835388071844e-02 1.531584326235411499e-02 4.993698531670715673e-02
6.000000000000000000e+02 3.241621952817300839e-02 1.642104466968240598e-02 5.277744188222766031e-02
6.100000000000000000e+02 3.045969423007235943e-02 1.551069175402270198e-02 4.832832016149367360e-02
6.200000000000000000e+02 3.790024181661660885e-02 1.781479643328317750e-02 6.228278827941564899e-02
6.300000000000000000e+02 1.436265275083618009e-01 7.166339797971563175e-02 2.341116408415895300e-01
6.400000000000000000e+02 1.646201717656853303e-01 8.414119084855908870e-02 2.654682250354458706e-01
6.500000000000000000e+02 9.477238674699033083e-02 4.551271909087401674e-02 1.611308219907239547e-01
6.600000000000000000e+02 1.087045971135755379e-01 5.308375389301202285e-02 1.748953411761977605e-01
6.700000000000000000e+02 8.774559179677185461e-02 4.358478858010717688e-02 1.392016431137123866e-01
6.800000000000000000e+02 7.557103030545542222e-02 3.886852029985944645e-02 1.235483116329219450e-01
6.900000000000000000e+02 6.703368092872223627e-02 3.389288601528188394e-02 1.095351798320712694e-01
7.000000000000000000e+02 4.623175834449213401e-02 2.334394849429397012e-02 7.688992216619267017e-02
7.100000000000000000e+02 3.950508003312135780e-02 1.979436986070870139e-02 6.556320547857229231e-02
7.200000000000000000e+02 5.949853844398882152e-02 2.962340067599617335e-02 1.010773520168114503e-01
7.300000000000000000e+02 4.840758337946100137e-02 2.327565428398962327e-02 7.810905251503541535e-02
7.400000000000000000e+02 2.605139050132180417e-02 1.277320052247204671e-02 4.157758470768863762e-02
7.500000000000000000e+02 2.529639390818312975e-02 1.254213006000843428e-02 4.238879154600141280e-02
7.600000000000000000e+02 2.804647265993721189e-02 1.383644494946945601e-02 4.543846057377864261e-02
7.700000000000000000e+02 3.289351403120178291e-02 1.611904938997670012e-02 5.322789879251669382e-02
7.800000000000000000e+02 4.751196477767228449e-02 2.318796117389925610e-02 7.652742826351406624e-02
7.900000000000000000e+02 8.319067678071769001e-02 4.382230144534272898e-02 1.394462242618809411e-01
8.000000000000000000e+02 1.831236503941338356e-01 9.265339747286759076e-02 2.798059855251191497e-01
8.100000000000000000e+02 2.030287203407214747e-01 1.021138454624270497e-01 3.099818649972308493e-01
8.200000000000000000e+02 1.274530469563718849e-01 6.124235916633374160e-02 2.066400468434187732e-01
8.300000000000000000e+02 1.248187480397775634e-01 6.168055033430679124e-02 2.069244663196424527e-01
8.400000000000000000e+02 3.331571213369668438e-01 2.127831394567422096e-01 4.468809495603475179e-01
8.500000000000000000e+02 3.619745446121010457e-01 2.251230299140515034e-01 5.104168677468777782e-01
8.600000000000000000e+02 2.003758851089874060e-01 9.362476809788755627e-02 3.310206106607217480e-01
8.700000000000000000e+02 1.507382681680243808e-01 7.666204257788862553e-02 2.403746207025596604e-01
8.800000000000000000e+02 8.957261115874354251e-02 4.617521193663506190e-02 1.438049172932831521e-01
8.900000000000000000e+02 5.758965289750583166e-02 2.856569694551487279e-02 9.418265648845969285e-02
9.000000000000000000e+02 5.836766503482469087e-02 2.898760002398481986e-02 9.550018118257014299e-02
9.100000000000000000e+02 7.088832077521159403e-02 3.605646374670429255e-02 1.201921511070172810e-01
9.200000000000000000e+02 6.234226068770781781e-02 3.016205604634484075e-02 1.011419848710424785e-01
9.300000000000000000e+02 4.619889749107151250e-02 2.333135100661044500e-02 7.497287549649118976e-02
9.400000000000000000e+02 3.854853059697921358e-02 1.857048939735777421e-02 6.441992436652804743e-02
9.500000000000000000e+02 3.531478719757823181e-02 1.808238116698108328e-02 5.785340238493194565e-02
9.600000000000000000e+02 4.283388095037344440e-02 2.093772815739820131e-02 7.158572517607222907e-02
9.700000000000000000e+02 4.895992193703367634e-02 2.378517730137591144e-02 7.984060053413573332e-02
9.800000000000000000e+02 5.570555719535452699e-02 2.700622285812736764e-02 8.838539928334676610e-02
9.900000000000000000e+02 6.194448040301078068e-02 3.117414046733081937e-02 9.954399954113432591e-02
1.000000000000000000e+03 8.587387212251169910e-02 4.333968038009329560e-02 1.392564605129970878e-01
1.100000000000000000e+03 7.481670927983667674e-02 3.688543162611043758e-02 1.205132727291160916e-01
1.200000000000000000e+03 5.535639242946920752e-02 2.726792874113418905e-02 9.055756625414641825e-02
1.300000000000000000e+03 4.252890174375404536e-02 2.106754879691602467e-02 7.028526516397973212e-02
1.400000000000000000e+03 3.375605178654129263e-02 1.683225394594550436e-02 5.574331522365631730e-02
1.500000000000000000e+03 3.851693456130583781e-02 1.941493877651033831e-02 6.290853009045134503e-02
1.600000000000000000e+03 3.706744417781550338e-02 1.848630952870521788e-02 6.074474974825190554e-02
1.700000000000000000e+03 2.656646475575987973e-02 1.322228113124640156e-02 4.371623216918163468e-02
1.800000000000000000e+03 2.478669589167439152e-02 1.238756753975888726e-02 4.085111101316002413e-02
1.900000000000000000e+03 2.503395936744023248e-02 1.243825722912793655e-02 4.139123511083060009e-02
2.000000000000000000e+03 2.508789422545149722e-02 1.261817432100187202e-02 4.139755903187190833e-02
2.100000000000000000e+03 2.607993984873008958e-02 1.302677372747488953e-02 4.249822930976369928e-02
2.200000000000000000e+03 2.630910954975902369e-02 1.301976503265101469e-02 4.344398423576537743e-02
2.300000000000000000e+03 2.665175842238792780e-02 1.321659201072929862e-02 4.359922815212441405e-02
2.400000000000000000e+03 2.716767641653706697e-02 1.350240547642921063e-02 4.473216398157527085e-02
2.500000000000000000e+03 2.794900782034324266e-02 1.379298413422345125e-02 4.601770854691210333e-02
2.600000000000000000e+03 2.858722955691019377e-02 1.409795228158457550e-02 4.690731463944419061e-02
2.700000000000000000e+03 2.962071916006048244e-02 1.444063891822029537e-02 4.858918055125932556e-02
2.800000000000000000e+03 3.000327733078859971e-02 1.520718471450714822e-02 5.013665628726331203e-02
2.900000000000000000e+03 3.153899235843221627e-02 1.551542735552343538e-02 5.174225833423197474e-02
3.000000000000000000e+03 3.312024841029603817e-02 1.634608071657831646e-02 5.446178298103958315e-02
3.100000000000000000e+03 3.400430781072381198e-02 1.702585112070642559e-02 5.621015095265441408e-02
3.200000000000000000e+03 3.549844611947462758e-02 1.780962620955518078e-02 5.882591613080043885e-02
3.300000000000000000e+03 3.966514294860119805e-02 1.975874820012268190e-02 6.516952123277669484e-02
3.400000000000000000e+03 4.033358467632057465e-02 1.994821026155713453e-02 6.705793255414300991e-02
3.500000000000000000e+03 4.083752963117039808e-02 2.034539123203491645e-02 6.758058141254981444e-02
3.600000000000000000e+03 4.833518226828941583e-02 2.454140283246342494e-02 7.992147727648937772e-02
3.700000000000000000e+03 5.523613267038977870e-02 2.835101246675401573e-02 8.927566901406258637e-02
3.800000000000000000e+03 5.030851287247160852e-02 2.474910785841414121e-02 8.472188701666881483e-02
3.900000000000000000e+03 5.008991001089291295e-02 2.430709333080690801e-02 8.370763621846594171e-02
4.000000000000000000e+03 5.195332632581788068e-02 2.587575158061781663e-02 8.874014555592876774e-02
4.100000000000000000e+03 5.648114343455696434e-02 2.747128564156324504e-02 9.641339629103726216e-02
4.200000000000000000e+03 5.946187248338831444e-02 2.973315181507166921e-02 1.027307424396215196e-01
4.300000000000000000e+03 6.402214143598339291e-02 3.084697190498358194e-02 1.118189880528616120e-01
4.400000000000000000e+03 7.004796845185665144e-02 3.461040753646768553e-02 1.241507299907156775e-01
4.500000000000000000e+03 7.508177968055734786e-02 3.647871166950884814e-02 1.348804969311641067e-01
4.600000000000000000e+03 8.142422551313489854e-02 3.821717373567053849e-02 1.494371840528995743e-01
4.700000000000000000e+03 9.251113527874098297e-02 4.373855800281161582e-02 1.699083746424119856e-01
4.800000000000000000e+03 1.136390298414547556e-01 5.450630660449126696e-02 2.067646684410872626e-01
4.900000000000000000e+03 1.335572544192250577e-01 6.698795309726184033e-02 2.396910608515428476e-01
5.000000000000000000e+03 1.296260804239162123e-01 6.188032536022481517e-02 2.473882638474755868e-01
5.100000000000000000e+03 1.289601232900378369e-01 5.795359230866856809e-02 2.648521054780003103e-01
5.200000000000000000e+03 1.369825532714269434e-01 6.017723072949741209e-02 3.167402842719172495e-01
5.300000000000000000e+03 1.496146785870020868e-01 6.216044812327475161e-02 3.885506180572335100e-01
5.400000000000000000e+03 1.633257144294281427e-01 6.388955434213001994e-02 4.869940931452951260e-01
5.500000000000000000e+03 1.807907819751541079e-01 6.715067438053179405e-02 6.413186524089948826e-01
5.600000000000000000e+03 1.968663057041901421e-01 6.953972964744972729e-02 7.921400070188506781e-01
5.700000000000000000e+03 2.124522688547529070e-01 6.988690758565249683e-02 8.844693314287029873e-01
5.800000000000000000e+03 2.122517821127681004e-01 6.848957710796897691e-02 9.411152455377208570e-01
5.900000000000000000e+03 2.051951716355453759e-01 6.781381007520728699e-02 8.331398980885669214e-01
6.000000000000000000e+03 1.936295066382161534e-01 6.486416463100212748e-02 6.015442352205123688e-01
6.100000000000000000e+03 1.773071144025225865e-01 6.412489619820083142e-02 4.467063487162093449e-01
6.200000000000000000e+03 1.666134870516447208e-01 6.145081820653552906e-02 3.729058844182149279e-01
6.300000000000000000e+03 1.599332163312214283e-01 6.087600614857676534e-02 3.310976496888352605e-01
6.400000000000000000e+03 1.511833332394674212e-01 5.934511050302077040e-02 3.042687231365852618e-01
6.500000000000000000e+03 1.468977429775778498e-01 5.860448715345108195e-02 2.887275498162978904e-01
6.600000000000000000e+03 1.431596910539579826e-01 5.713192430239850961e-02 2.790812914670585676e-01
6.700000000000000000e+03 1.380252430395322583e-01 5.619761609812660985e-02 2.691100159889389110e-01
6.800000000000000000e+03 1.361313182040878589e-01 5.649551192065193489e-02 2.614696406521293537e-01
6.900000000000000000e+03 1.351210565485462811e-01 5.595097430013631912e-02 2.558884176341890138e-01
7.000000000000000000e+03 1.325810508134394605e-01 5.527897090398854740e-02 2.490144562306879639e-01
7.100000000000000000e+03 1.286961136159187058e-01 5.556188752632710420e-02 2.444813001090188898e-01
7.200000000000000000e+03 1.374133675701989243e-01 6.159625039601516333e-02 2.493324115886159376e-01
7.300000000000000000e+03 1.462390584281000883e-01 6.979637767542762328e-02 2.591114642510751742e-01
7.400000000000000000e+03 1.467426125643428725e-01 6.940806439992780463e-02 2.552696282811593997e-01
7.500000000000000000e+03 1.341680265765720914e-01 6.069792137710122715e-02 2.365271909450728238e-01
7.600000000000000000e+03 1.251491921001457452e-01 5.492337416932341343e-02 2.275305889281876992e-01
7.700000000000000000e+03 1.218585303113828566e-01 5.379550220932644011e-02 2.219366738529982563e-01
7.800000000000000000e+03 1.207769954415861546e-01 5.367954932399625345e-02 2.191093321534061389e-01
7.900000000000000000e+03 1.191511556379923620e-01 5.442366365922879368e-02 2.144008610662129777e-01
8.000000000000000000e+03 1.193477434249795577e-01 5.514049586675577597e-02 2.161364927998058738e-01
8.100000000000000000e+03 1.210131208663767360e-01 5.428338826271827955e-02 2.139635217740748219e-01
8.200000000000000000e+03 1.202445548895587357e-01 5.539791593764475941e-02 2.138510035308315294e-01
8.300000000000000000e+03 1.303980022785180826e-01 5.914510589635715854e-02 2.347057001481273608e-01
8.400000000000000000e+03 1.565954975303155139e-01 6.975043478303157019e-02 2.913285949369053274e-01
8.500000000000000000e+03 2.090124483873073147e-01 9.248048459708597957e-02 3.535089701065458612e-01
8.600000000000000000e+03 2.288788537383203148e-01 1.049816572502799139e-01 3.678377957307505941e-01
8.700000000000000000e+03 1.849471143230053127e-01 8.135602763992813569e-02 3.324737389849989899e-01
8.800000000000000000e+03 1.437203333329293564e-01 6.345650455878036611e-02 2.610292569705424670e-01
8.900000000000000000e+03 1.298521383795490369e-01 5.889199925569506278e-02 2.241967902623798747e-01
9.000000000000000000e+03 1.254153719011847912e-01 5.750217035924955894e-02 2.179211247402405016e-01
9.100000000000000000e+03 1.253918934626622739e-01 5.858959362606393217e-02 2.188032650901741427e-01
9.200000000000000000e+03 1.282272637940603810e-01 5.879478174646760036e-02 2.232393075767714619e-01
9.300000000000000000e+03 1.308443859116442121e-01 5.811834466784304709e-02 2.287711622931557220e-01
9.400000000000000000e+03 1.344063318438205035e-01 6.022287030760044291e-02 2.338323822150928932e-01
9.500000000000000000e+03 1.378332615233052449e-01 6.350299630459710354e-02 2.411899310895327109e-01
9.600000000000000000e+03 1.468376846701241190e-01 6.714389538015856640e-02 2.556648213544711057e-01
9.700000000000000000e+03 1.564191264572716289e-01 7.247787036788451431e-02 2.762100700997848213e-01
9.800000000000000000e+03 1.662040087316527526e-01 7.810088216499022629e-02 2.936665710890792313e-01
9.900000000000000000e+03 1.672023818544653706e-01 7.889270751786256475e-02 2.986696623095055347e-01
1.000000000000000000e+04 1.646892561153457391e-01 7.224621465550357113e-02 3.009228304730721115e-01
1.010000000000000000e+04 1.682673356471648674e-01 7.013548356937850115e-02 3.117169041031930266e-01
1.020000000000000000e+04 1.723436143567635970e-01 6.997715175565182022e-02 3.248809448795775268e-01
1.030000000000000000e+04 1.766451685027295437e-01 7.044219081713339048e-02 3.400175949059907610e-01
1.040000000000000000e+04 1.854309311439515384e-01 7.182360511795178593e-02 3.597764263194898060e-01
1.050000000000000000e+04 1.937560385554280840e-01 7.292399149872112740e-02 3.885314693244857343e-01
1.060000000000000000e+04 2.049890842503391819e-01 7.493871521896389165e-02 4.171335195205297386e-01
1.070000000000000000e+04 2.262334474231394166e-01 8.226009988832477804e-02 4.519453066915772865e-01
1.080000000000000000e+04 2.577226645334994570e-01 9.737226868573269078e-02 4.928020942247502423e-01
1.090000000000000000e+04 2.918996114717981594e-01 1.130329317254295390e-01 5.542126667901536852e-01
1.100000000000000000e+04 3.180014034745501927e-01 1.291851413673188731e-01 5.891364410266126672e-01
1.110000000000000000e+04 3.248489720173360906e-01 1.327380734407956897e-01 6.192873772004918731e-01
1.120000000000000000e+04 3.067812225483070865e-01 1.124959199838420354e-01 6.127871792669308260e-01
1.130000000000000000e+04 2.820882491620932964e-01 9.155602838446783021e-02 6.060263039331145185e-01
1.140000000000000000e+04 2.734476003042552450e-01 8.519580266474088837e-02 6.140600653794512365e-01
1.150000000000000000e+04 2.731690165251195457e-01 8.055372538924487902e-02 6.279447893808478565e-01
1.160000000000000000e+04 2.740315456202294664e-01 7.933072341571137387e-02 6.461731182524581563e-01
1.170000000000000000e+04 2.679098627969074831e-01 7.863542308968696215e-02 6.337608234646194827e-01
1.180000000000000000e+04 2.679421748647891066e-01 7.849934765070576415e-02 6.258408730308172574e-01
1.190000000000000000e+04 2.619346220432131056e-01 7.783463628196765627e-02 6.045345968501600886e-01
1.200000000000000000e+04 2.513618896146940784e-01 7.699821441549617451e-02 5.865915223760029829e-01
1.210000000000000000e+04 2.447608189611410745e-01 7.716145359757191347e-02 5.535790694456084182e-01
1.220000000000000000e+04 2.390032516931237527e-01 7.548709436032233211e-02 5.374554340034880529e-01
1.230000000000000000e+04 2.342496058734037101e-01 7.618348231899660372e-02 5.172630234105821678e-01
1.240000000000000000e+04 2.270162752539512663e-01 7.669922455473428269e-02 4.985287583854944304e-01
1.250000000000000000e+04 2.196581035269664917e-01 7.394055916824950059e-02 4.753619815496327727e-01
1.260000000000000000e+04 2.122022507659101775e-01 7.144015878695819666e-02 4.486672622391815746e-01
1.270000000000000000e+04 2.047768923966304666e-01 7.028727215041301324e-02 4.357764888132082404e-01
1.280000000000000000e+04 2.016164821377282035e-01 7.052036489555711662e-02 4.243565792684672600e-01
1.290000000000000000e+04 1.966888710028844023e-01 7.027807045257525309e-02 4.104429829250560990e-01
1.300000000000000000e+04 1.936898214932258888e-01 6.913915271447601540e-02 3.959384425764965743e-01
1.310000000000000000e+04 1.877020668745241483e-01 6.801014347378693536e-02 3.826584919864798873e-01
1.320000000000000000e+04 1.853400505935769438e-01 6.930876953328189705e-02 3.716489652548680134e-01
1.330000000000000000e+04 1.840745458683444857e-01 7.074976461980037046e-02 3.655059255873362445e-01
1.340000000000000000e+04 1.799921204436967237e-01 6.885354268966700775e-02 3.530341666139443224e-01
1.350000000000000000e+04 1.781627534924746792e-01 6.998526284589198787e-02 3.473143911184763954e-01
1.360000000000000000e+04 1.771194013055661098e-01 6.938908624542577952e-02 3.412943958650488385e-01
1.370000000000000000e+04 1.736930625037532983e-01 6.867420128183916728e-02 3.335644006004244710e-01
1.380000000000000000e+04 1.712937104906045171e-01 6.765121771838106257e-02 3.274263991120538453e-01
1.390000000000000000e+04 1.692876172339577157e-01 6.582410256812476490e-02 3.202278050155136224e-01
1.400000000000000000e+04 1.648429351046895586e-01 6.448411705730247578e-02 3.144195503924104296e-01
1.410000000000000000e+04 1.645668214639673388e-01 6.384385385381638467e-02 3.090281919976161640e-01
1.420000000000000000e+04 1.639588337787886430e-01 6.429725884925256707e-02 3.083510985352895806e-01
1.430000000000000000e+04 1.623146329378009622e-01 6.595091031450911467e-02 3.034886584565834045e-01
1.440000000000000000e+04 1.600700924672661396e-01 6.321744357166876604e-02 2.958987451028862736e-01
1.450000000000000000e+04 1.584787826356791884e-01 6.444538796242685330e-02 2.957676544757367743e-01
1.460000000000000000e+04 1.587683706223526892e-01 6.371419572464694092e-02 2.958643745437066763e-01
1.470000000000000000e+04 1.574722302056541512e-01 6.398478419325957789e-02 2.964092587225193309e-01
1.480000000000000000e+04 1.602209904092268267e-01 6.374931370029328359e-02 2.934594656650843514e-01
1.490000000000000000e+04 1.602501364786415305e-01 6.349013415066796784e-02 2.937651439241476536e-01
1.500000000000000000e+04 1.593517227906554312e-01 6.247300595905027482e-02 2.930767263590617899e-01
1.510000000000000000e+04 1.606039959680525542e-01 6.134073744734955952e-02 2.954434299611806147e-01
1.520000000000000000e+04 1.613687088548404758e-01 6.199279392923022491e-02 2.976568990792728964e-01
1.530000000000000000e+04 1.619259260639214770e-01 6.203126454287018893e-02 3.027056171927516304e-01
1.540000000000000000e+04 1.638630884967712531e-01 6.172807816563656569e-02 3.052251464749765053e-01
1.550000000000000000e+04 1.644337238219070185e-01 6.341605189608187643e-02 3.052163690431193843e-01
1.560000000000000000e+04 1.677232863627966530e-01 6.338355239865174628e-02 3.122911415713134353e-01
1.570000000000000000e+04 1.676029902616119616e-01 6.367194211688538552e-02 3.129981274652998691e-01
1.580000000000000000e+04 1.702592866387988291e-01 6.415166573534238081e-02 3.189417810741046466e-01
1.590000000000000000e+04 1.739385128252348700e-01 6.317068077434107032e-02 3.310512502884738750e-01
1.600000000000000000e+04 1.762051877451654702e-01 6.265050044456313416e-02 3.325802085397936425e-01
1.610000000000000000e+04 1.760155479593157324e-01 6.339759578895629022e-02 3.388016402851107278e-01
1.620000000000000000e+04 1.766743327795547713e-01 6.353619422052625421e-02 3.440000849551527740e-01
1.630000000000000000e+04 1.807375738557766842e-01 6.354944700037877536e-02 3.496188018728056401e-01
1.640000000000000000e+04 1.839511581656158856e-01 6.235416322467284694e-02 3.554510506565356498e-01
1.650000000000000000e+04 1.841260314071184734e-01 6.183998027383888485e-02 3.622775614380085440e-01
1.660000000000000000e+04 1.915615880788414382e-01 6.370826450432649779e-02 3.792142048466530246e-01
1.670000000000000000e+04 1.946901165920399690e-01 6.454768503960180148e-02 3.854006896133583271e-01
1.680000000000000000e+04 1.927764019083333391e-01 6.360695641033925485e-02 3.856840886353765097e-01
1.690000000000000000e+04 1.965590632652091663e-01 6.309836825320025433e-02 3.951050465709269877e-01
1.700000000000000000e+04 2.003240688350891308e-01 6.239101593655831807e-02 3.929943044240860051e-01
1.710000000000000000e+04 1.943887328526752445e-01 6.260659610728362690e-02 4.006287169418893956e-01
1.720000000000000000e+04 1.984509743453505837e-01 6.230096971993619170e-02 4.091826725610095972e-01
1.730000000000000000e+04 2.030841795659641125e-01 6.155346307000292283e-02 4.115456358391444969e-01
1.740000000000000000e+04 2.004428108890329296e-01 6.151217468156695845e-02 4.157641323705032477e-01
1.750000000000000000e+04 2.053815901086087636e-01 6.132269574209113505e-02 4.250812756244566892e-01
1.760000000000000000e+04 2.050682430133414780e-01 6.023975343563166274e-02 4.286594130366024324e-01
1.770000000000000000e+04 1.966727960592838109e-01 5.917283550441194279e-02 4.156411277468082810e-01
1.780000000000000000e+04 1.957073614910722903e-01 5.890590020831582702e-02 4.079888782203703324e-01
1.790000000000000000e+04 1.923419312275823634e-01 5.791922100395162365e-02 4.040481486840642456e-01
1.800000000000000000e+04 1.895451996482932777e-01 5.788400020160430065e-02 3.991290919419347438e-01
1.810000000000000000e+04 1.870599795651799180e-01 5.903718249075576296e-02 3.924207442747223995e-01
1.820000000000000000e+04 1.851090070180888281e-01 5.773410900851336930e-02 3.822053224303993968e-01
1.830000000000000000e+04 1.811164711688930951e-01 5.697991251754724179e-02 3.807385113155856149e-01
1.840000000000000000e+04 1.793719910637164017e-01 5.611282200914529533e-02 3.722640380916718006e-01
1.850000000000000000e+04 1.721221932219977879e-01 5.626980972349680810e-02 3.661253594709608650e-01
1.860000000000000000e+04 1.690928137728902325e-01 5.655247944775257385e-02 3.519073441074723196e-01
1.870000000000000000e+04 1.685430731612889421e-01 5.559935297717855801e-02 3.461372686994365067e-01
1.880000000000000000e+04 1.661061482326100791e-01 5.435693240207926935e-02 3.392103485411803176e-01
1.890000000000000000e+04 1.625861625238730623e-01 5.389701377218937550e-02 3.356972655255291982e-01
1.900000000000000000e+04 1.594498412456343550e-01 5.375443901225150645e-02 3.303174907635984536e-01
1.910000000000000000e+04 1.563880808495433927e-01 5.382404498493424672e-02 3.185309689487774709e-01
1.920000000000000000e+04 1.539704850399378766e-01 5.460697188544130776e-02 3.099829120910299052e-01
1.930000000000000000e+04 1.508234895464659608e-01 5.186395203124770370e-02 3.043416866093554551e-01
1.940000000000000000e+04 1.487244155733385420e-01 5.146846892174816029e-02 2.971612037177879806e-01
1.950000000000000000e+04 1.480625953867271138e-01 5.133961999514707886e-02 2.937304474639401142e-01
1.960000000000000000e+04 1.473710527082109367e-01 5.037353752428906650e-02 2.882290595659645627e-01
1.970000000000000000e+04 1.444658894881369060e-01 5.092286797073238003e-02 2.798503520738010453e-01
1.980000000000000000e+04 1.414705757188423896e-01 5.038950905144080894e-02 2.726824312865075428e-01
1.990000000000000000e+04 1.404699711741379253e-01 4.920045049194358977e-02 2.689740348046887330e-01
2.000000000000000000e+04 1.387015013950916587e-01 4.933039780689991299e-02 2.652763544520156391e-01
2.010000000000000000e+04 1.377311359567112703e-01 4.927595650843208386e-02 2.653757635955754091e-01
2.020000000000000000e+04 1.332671284006984869e-01 4.765437831405483493e-02 2.600514480018878971e-01
2.030000000000000000e+04 1.316759435587634419e-01 4.812912920015179064e-02 2.565229655498709183e-01
2.040000000000000000e+04 2.479175900795508591e-01 1.569154845603250858e-01 3.739070582372776563e-01
2.050000000000000000e+04 5.768903099151042602e-01 4.647885495061957473e-01 6.930296218383743545e-01
2.060000000000000000e+04 3.721927906593053836e-01 2.665363816579640610e-01 4.936614937495297784e-01
2.070000000000000000e+04 1.304048428769973567e-01 4.914323702623442369e-02 2.464090005465757460e-01
2.080000000000000000e+04 1.280329761642008679e-01 4.496292984431084216e-02 2.433983546633739226e-01
2.090000000000000000e+04 1.286018750196258886e-01 4.684036359593075211e-02 2.452224621047296993e-01
2.100000000000000000e+04 1.283091281978377407e-01 4.585950311540846341e-02 2.428782847347736584e-01
2.110000000000000000e+04 1.284690309053935497e-01 4.497506303751133694e-02 2.420461121867598375e-01
2.120000000000000000e+04 1.283681029294098386e-01 4.572790576031580262e-02 2.443703489087751812e-01
2.130000000000000000e+04 1.311340840806854702e-01 4.640339719826372389e-02 2.502950080090601825e-01
2.140000000000000000e+04 1.451684352147589452e-01 4.807220449429852605e-02 2.797485563932940456e-01
2.150000000000000000e+04 1.491518813039423574e-01 5.061875375693831308e-02 2.883403179422233120e-01
2.160000000000000000e+04 1.288185768067061365e-01 4.549053824988043282e-02 2.497694975736209355e-01
2.170000000000000000e+04 1.224967070362277394e-01 4.482905970963486919e-02 2.347338018909977397e-01
2.180000000000000000e+04 1.213958485949386545e-01 4.425015692247642046e-02 2.326696043826441407e-01
2.190000000000000000e+04 1.209388767131956699e-01 4.335939574183146628e-02 2.324968159804283174e-01
2.200000000000000000e+04 1.200449724677633001e-01 4.238476435041251683e-02 2.296751468873329816e-01
2.210000000000000000e+04 1.214957793877422948e-01 4.241605179605537762e-02 2.313189030409837643e-01
2.220000000000000000e+04 1.206993360516116220e-01 4.289336874015171885e-02 2.315563390007465694e-01
2.230000000000000000e+04 1.189246847184688843e-01 4.251501902408470757e-02 2.286482102695787666e-01
2.240000000000000000e+04 1.200264798884876360e-01 4.260342200319371803e-02 2.288222202074952083e-01
2.250000000000000000e+04 1.193419502174660612e-01 4.178965242907604211e-02 2.315563941382206559e-01
2.260000000000000000e+04 1.185940662207268792e-01 4.249097917957821852e-02 2.310433491395671723e-01
2.270000000000000000e+04 1.193893544333285289e-01 4.296585649397882678e-02 2.311831805966936271e-01
2.280000000000000000e+04 1.184878195494675213e-01 4.147359168409237712e-02 2.260083278053426903e-01
2.290000000000000000e+04 1.171889925015052875e-01 4.017331594779961074e-02 2.254046981802634020e-01
2.300000000000000000e+04 1.172025396899414179e-01 4.126952825197860442e-02 2.276620944086915899e-01
2.310000000000000000e+04 1.159778323039056952e-01 4.055267303497077369e-02 2.249872513126289497e-01
2.320000000000000000e+04 1.147846453379413323e-01 4.046385396881777008e-02 2.229418318988658776e-01
2.330000000000000000e+04 1.152410379448032818e-01 4.139775250690243269e-02 2.253834228221794633e-01
2.340000000000000000e+04 1.137276345124847016e-01 4.074002044338214529e-02 2.223521805105460325e-01
2.350000000000000000e+04 1.123330295252891048e-01 4.000650927017773695e-02 2.210438852979924873e-01
2.360000000000000000e+04 1.120876233390216553e-01 4.030692085784365331e-02 2.200139665336222350e-01
2.370000000000000000e+04 1.105805973565216760e-01 4.009679495344354444e-02 2.156144145656324895e-01
2.380000000000000000e+04 1.101358045684123904e-01 3.948843805240666305e-02 2.157648998070222091e-01
2.390000000000000000e+04 1.066949143021309332e-01 3.839306512363701435e-02 2.115609726136966351e-01
2.400000000000000000e+04 1.046127141038360464e-01 3.862008135239175521e-02 2.063673121345578343e-01
2.410000000000000000e+04 1.040060039696282246e-01 3.864519682394042255e-02 2.042402438109223173e-01
2.420000000000000000e+04 1.040186659583113987e-01 3.825299307789557790e-02 2.025862230568922506e-01
2.430000000000000000e+04 1.012063874408509617e-01 3.821846116977414137e-02 2.001480619751547785e-01
2.440000000000000000e+04 9.992677020632770302e-02 3.636156907099365176e-02 1.958756858755333896e-01
2.450000000000000000e+04 9.767111396827930780e-02 3.634664020439212773e-02 1.915770230189583756e-01
2.460000000000000000e+04 9.722463912245986328e-02 3.648122104383148129e-02 1.881669074356061289e-01
2.470000000000000000e+04 9.373415864795901775e-02 3.591990622110943776e-02 1.866241045310723934e-01
2.480000000000000000e+04 9.275472723260302921e-02 3.519469211852976898e-02 1.800905438073120424e-01
2.490000000000000000e+04 9.279865633581510509e-02 3.465529670684696500e-02 1.777678594494762898e-01
2.500000000000000000e+04 9.176304651182197458e-02 3.538669498182386852e-02 1.772141691456525225e-01
2.510000000000000000e+04 8.970164506794475745e-02 3.418766704598677486e-02 1.729854485903162264e-01
2.520000000000000000e+04 8.952448605321383646e-02 3.399469074271693758e-02 1.715653673940203128e-01
2.530000000000000000e+04 8.646816383797438499e-02 3.323606209390113364e-02 1.667664912772299779e-01
2.540000000000000000e+04 8.556881881616690277e-02 3.343685939517197780e-02 1.648939582872019083e-01
2.550000000000000000e+04 8.497175490244315843e-02 3.304853672809250631e-02 1.607004420931145705e-01
2.560000000000000000e+04 8.369655759748839685e-02 3.215871446467533090e-02 1.588515795325372848e-01
2.570000000000000000e+04 8.168836348187027974e-02 3.189904551807506983e-02 1.551859377002402507e-01
2.580000000000000000e+04 8.057508507520937113e-02 3.301131952616172954e-02 1.528202275129340593e-01
2.590000000000000000e+04 7.918732971363881545e-02 3.183566385128394627e-02 1.507274957328274545e-01
2.600000000000000000e+04 7.795900747382193685e-02 3.157477475529188449e-02 1.461144932489669701e-01
2.610000000000000000e+04 7.794313457517618171e-02 3.099683981010891917e-02 1.449457905524201562e-01
2.620000000000000000e+04 7.557152644648743034e-02 3.094468537177648762e-02 1.444723564918396486e-01
2.630000000000000000e+04 7.607890759585109186e-02 3.077811107115107497e-02 1.420796072521419151e-01
2.640000000000000000e+04 7.503833394612183239e-02 3.050315372676393882e-02 1.415057641881277140e-01
2.650000000000000000e+04 7.453722464529338732e-02 3.015103301828132507e-02 1.378899245320436562e-01
2.660000000000000000e+04 7.323828742946607295e-02 3.005114284358106902e-02 1.380169067347836453e-01
2.670000000000000000e+04 7.265969911520771263e-02 2.976335945658082488e-02 1.356327959348272438e-01
2.680000000000000000e+04 7.058422543089046264e-02 2.918047698403316084e-02 1.328939876049135549e-01
2.690000000000000000e+04 6.957432580483333129e-02 2.840102505467844568e-02 1.311433020770311209e-01
2.700000000000000000e+04 6.949847759747758424e-02 2.810645080301814314e-02 1.295601002159910142e-01
2.710000000000000000e+04 6.887116622410434374e-02 2.846586154922977480e-02 1.297954238187040421e-01
2.720000000000000000e+04 6.776286694726091353e-02 2.822739041423023149e-02 1.269612774930198862e-01
2.730000000000000000e+04 6.684248011105498044e-02 2.794051854624444650e-02 1.240899503341608562e-01
2.740000000000000000e+04 6.504189419490756519e-02 2.773055938298039230e-02 1.230224208133292446e-01
2.750000000000000000e+04 6.473811833397195847e-02 2.697837824110398477e-02 1.204681108182928811e-01
2.760000000000000000e+04 6.383615040257270556e-02 2.680610371487399113e-02 1.193514083471169801e-01
2.770000000000000000e+04 6.247450852235467839e-02 2.652130872475121429e-02 1.138849021800231315e-01
2.780000000000000000e+04 6.257744896006398050e-02 2.747694983952756256e-02 1.146054842964471104e-01
2.790000000000000000e+04 4.239014907322956049e-01 3.689355187338139164e-01 4.768591383988352583e-01
2.800000000000000000e+04 7.206814219742976313e-01 6.669589564026506823e-01 7.709121183328735416e-01
2.810000000000000000e+04 3.093754666131400821e-01 2.559785075035104773e-01 3.636012348274325623e-01
2.820000000000000000e+04 5.903872580015205596e-02 2.557122302207978301e-02 1.074542974070645251e-01
2.830000000000000000e+04 5.746854859849859914e-02 2.520801736605593479e-02 1.057038060112891892e-01
2.840000000000000000e+04 5.641542127083537528e-02 2.469082913815763558e-02 1.035223718999078030e-01
2.850000000000000000e+04 5.563145487196109740e-02 2.406502429235836751e-02 1.027632502546071830e-01
2.860000000000000000e+04 5.498752529721713522e-02 2.417814225849471144e-02 9.997931859081331252e-02
2.870000000000000000e+04 5.496142560230359020e-02 2.380710848851396236e-02 1.006316016052663104e-01
2.880000000000000000e+04 5.561115089280108809e-02 2.523738189386647707e-02 1.000488873780915750e-01
2.890000000000000000e+04 5.406909377667519501e-02 2.438177493498161486e-02 9.857244422575521525e-02
2.900000000000000000e+04 5.303590759279839389e-02 2.322136412675139885e-02 9.551312901160430302e-02
2.910000000000000000e+04 5.170645305186663543e-02 2.237799505624701521e-02 9.436026493986388042e-02
2.920000000000000000e+04 5.057985609138476030e-02 2.248798758000888909e-02 9.260020962471653128e-02
2.930000000000000000e+04 5.016565582410818791e-02 2.238800966409695142e-02 9.115819779120193367e-02
2.940000000000000000e+04 4.931334518498450142e-02 2.284713760069400149e-02 8.928790981396345083e-02
2.950000000000000000e+04 4.873273846592659359e-02 2.192832735409198930e-02 8.890865824675452112e-02
2.960000000000000000e+04 4.745168978826017764e-02 2.108773087579037669e-02 8.752638641685989151e-02
2.970000000000000000e+04 4.742452682617643439e-02 2.113999314086783404e-02 8.598923907642749831e-02
2.980000000000000000e+04 4.685034876446853708e-02 2.121292886041914114e-02 8.533484864477186571e-02
2.990000000000000000e+04 4.825300358357258179e-02 2.267303682273676124e-02 8.501467352457206528e-02
3.000000000000000000e+04 4.617346036148411992e-02 2.163126622434636062e-02 8.188575183082555387e-02
3.010000000000000000e+04 4.563753229201791134e-02 2.093048160732134330e-02 8.080487746589302966e-02
3.020000000000000000e+04 4.528241201159986101e-02 2.087951761179225943e-02 8.100545541630030377e-02
3.030000000000000000e+04 4.355875253467018926e-02 1.958722255816175428e-02 7.799992744852422832e-02
3.040000000000000000e+04 4.609389246967062620e-02 2.217997699775623929e-02 8.019716533889512111e-02
3.050000000000000000e+04 5.132604612278455353e-02 2.570214437499283855e-02 8.696857132830211612e-02
3.060000000000000000e+04 4.594404070854065519e-02 2.236131885273444711e-02 7.999109260638008478e-02
3.070000000000000000e+04 5.088565600976631409e-02 2.490667483033479415e-02 8.528860259692319645e-02
3.080000000000000000e+04 4.426560520384094366e-02 2.106421555610061419e-02 7.657872063254317352e-02
3.090000000000000000e+04 4.696770875271779472e-02 2.354734200171498815e-02 7.865615574702806978e-02
3.100000000000000000e+04 7.441957647271910115e-02 4.408312026919285198e-02 1.082932016183067031e-01
3.110000000000000000e+04 5.481588290685868864e-02 2.913916000647907151e-02 8.790981186839193218e-02
3.120000000000000000e+04 3.835670091370822765e-02 1.840440866543649467e-02 6.807582776704612648e-02
3.130000000000000000e+04 3.836236528282178926e-02 1.756792672713248724e-02 6.747523479042417949e-02
3.140000000000000000e+04 3.800582375234572846e-02 1.789828931195298553e-02 6.688482991050188897e-02
3.150000000000000000e+04 3.735470412033421034e-02 1.776782131856136440e-02 6.606175494523475189e-02
3.160000000000000000e+04 3.669154950509784935e-02 1.718771777405740317e-02 6.450646072174043288e-02
3.170000000000000000e+04 3.615269337772934050e-02 1.701125148464542949e-02 6.389986827300554728e-02
3.180000000000000000e+04 3.589332041706959353e-02 1.704892257715949488e-02 6.348960831727780418e-02
3.190000000000000000e+04 3.602567266066040302e-02 1.708950150607572993e-02 6.253131228945320308e-02
3.200000000000000000e+04 3.562421050898349068e-02 1.695943988175480782e-02 6.243917788256090479e-02
3.210000000000000000e+04 3.493584392780945541e-02 1.666066342494157762e-02 6.137085660523958902e-02
3.220000000000000000e+04 3.532706058946401273e-02 1.690526498247506629e-02 6.135357257041758328e-02
3.230000000000000000e+04 3.545428998835423867e-02 1.667861668002786762e-02 6.127402987568582315e-02
3.240000000000000000e+04 3.513043062020131807e-02 1.690352555516762278e-02 6.049870931750360448e-02
3.250000000000000000e+04 3.494716189106283899e-02 1.651891123226305325e-02 6.088110517967453006e-02
3.260000000000000000e+04 3.461557108982628306e-02 1.679545364623967474e-02 6.034133347765008315e-02
3.270000000000000000e+04 3.430478558569882014e-02 1.650984729802719778e-02 5.972013935476407770e-02
3.280000000000000000e+04 3.412688704665557682e-02 1.644390231459420121e-02 5.968200598539069590e-02
3.290000000000000000e+04 3.420196967085736839e-02 1.597635997886624401e-02 5.993758514804807536e-02
3.300000000000000000e+04 3.608580206737236479e-02 1.731464783644111674e-02 6.195465153631864869e-02
3.310000000000000000e+04 4.553913867066802790e-02 2.408116424522465521e-02 7.370508176723343519e-02
3.320000000000000000e+04 3.897561209019020229e-02 1.958973148988579771e-02 6.531834249214690802e-02
3.330000000000000000e+04 3.407048123495527020e-02 1.606381165271322103e-02 5.934493206977532742e-02
3.340000000000000000e+04 3.382397214707912048e-02 1.594187574183629497e-02 5.937620517625687849e-02
3.350000000000000000e+04 3.357438699900588963e-02 1.601195407002662524e-02 5.929792677629053266e-02
3.360000000000000000e+04 3.381379274629835174e-02 1.594373970619857375e-02 5.941825458435597701e-02
3.370000000000000000e+04 3.340138031478161879e-02 1.584616179814991865e-02 5.928932661610127053e-02
3.380000000000000000e+04 3.356029788276018722e-02 1.560892129440927256e-02 5.855079935754265580e-02
3.390000000000000000e+04 3.286202875350443392e-02 1.560921798906057117e-02 5.820466724847456197e-02
3.400000000000000000e+04 3.218958677746441843e-02 1.505039330381592079e-02 5.740639504587155550e-02
3.410000000000000000e+04 3.200063474528215546e-02 1.475217442058698696e-02 5.679500766948571144e-02
3.420000000000000000e+04 3.184631627680103300e-02 1.506843662248246243e-02 5.598461266152365834e-02
3.430000000000000000e+04 3.145049666906622743e-02 1.502312841372602063e-02 5.563424847118689232e-02
3.440000000000000000e+04 3.189143406378049106e-02 1.496914877424336023e-02 5.544058183827521580e-02
3.450000000000000000e+04 3.144403761269021214e-02 1.505641178541378480e-02 5.553263089097695837e-02
3.460000000000000000e+04 3.166835282682945590e-02 1.460983009113873618e-02 5.569183171029476465e-02
3.470000000000000000e+04 3.102323361902120658e-02 1.473261306793708335e-02 5.488739407529524827e-02
3.480000000000000000e+04 3.089384701552359141e-02 1.454319657865348753e-02 5.371039789299199285e-02
3.490000000000000000e+04 3.109357654554384398e-02 1.475701003060272271e-02 5.464006669092699026e-02
3.500000000000000000e+04 3.064106509285326185e-02 1.414575265409071143e-02 5.379509315941572584e-02
3.510000000000000000e+04 3.051874253093543252e-02 1.442549626938113144e-02 5.393956740465873784e-02
3.520000000000000000e+04 3.071355772517150168e-02 1.443049681074369886e-02 5.438292929928339320e-02
3.530000000000000000e+04 3.087788889600968922e-02 1.454787894901052488e-02 5.452212824514759970e-02
3.540000000000000000e+04 3.111801420832415593e-02 1.499245447947547029e-02 5.575423696063864371e-02
3.550000000000000000e+04 3.160792909239992093e-02 1.523173219097974200e-02 5.543873822371846866e-02
3.560000000000000000e+04 3.054635619870517058e-02 1.424067975205277684e-02 5.462212511972707601e-02
3.570000000000000000e+04 3.066236863130981580e-02 1.450637622599272938e-02 5.447490289594959095e-02
3.580000000000000000e+04 3.030073740704610288e-02 1.475161215381423988e-02 5.441886483196328034e-02
3.590000000000000000e+04 3.039362333645765496e-02 1.448699878790763590e-02 5.376993881277534332e-02
3.600000000000000000e+04 3.028620386542619364e-02 1.414669130419205813e-02 5.399680406402426747e-02
3.610000000000000000e+04 2.986669364121373460e-02 1.411634480198180504e-02 5.427610008382290074e-02
3.620000000000000000e+04 2.948822716804501420e-02 1.402954116987666089e-02 5.369513912649288151e-02
3.630000000000000000e+04 2.977927416450064022e-02 1.399855834265234696e-02 5.251684839015480916e-02
3.640000000000000000e+04 2.932948891359086346e-02 1.378189350859010225e-02 5.284513071298835296e-02
3.650000000000000000e+04 2.970480185409641802e-02 1.396702386316841724e-02 5.349573307670654060e-02
3.660000000000000000e+04 3.003562068930839407e-02 1.402944124492209316e-02 5.525786246394544937e-02
3.670000000000000000e+04 3.063833878403753735e-02 1.446567646954585729e-02 5.601110013921761083e-02
3.680000000000000000e+04 3.044507417484155695e-02 1.425989060454950670e-02 5.579669076641283199e-02
3.690000000000000000e+04 3.061014037179202521e-02 1.400669725484215630e-02 5.550649125920160271e-02
3.700000000000000000e+04 3.384864357639980059e-02 1.649125994213715418e-02 5.947892589444953027e-02
3.710000000000000000e+04 4.076769466230100586e-02 2.032934073670985761e-02 6.834980652520199207e-02
3.720000000000000000e+04 3.479100038693308528e-02 1.680129186912809186e-02 6.049994384896864585e-02
3.730000000000000000e+04 4.070674500059726086e-02 1.935126343878636537e-02 6.867525812243252537e-02
3.740000000000000000e+04 3.425042697433472449e-02 1.649396538906969592e-02 6.037368668469979271e-02
3.750000000000000000e+04 3.083529994713682734e-02 1.436131743536241991e-02 5.570557743166210107e-02
3.760000000000000000e+04 4.329269116002768675e-02 2.356063058813262848e-02 6.968419988035816359e-02
3.770000000000000000e+04 4.795532465158322544e-02 2.713386665430723987e-02 7.497701797832044546e-02
3.780000000000000000e+04 3.216307010711435405e-02 1.521291940824686870e-02 5.786580333852404945e-02
3.790000000000000000e+04 3.015822535954938710e-02 1.381131932021508087e-02 5.582369209031151636e-02
3.800000000000000000e+04 3.019676269724314369e-02 1.404033439235181577e-02 5.562562526750956110e-02
3.810000000000000000e+04 3.021494676826208189e-02 1.412514978411882026e-02 5.625854894202522022e-02
3.820000000000000000e+04 3.207088924481403536e-02 1.536960834111599297e-02 5.762219469135922839e-02
3.830000000000000000e+04 3.342745641311949123e-02 1.607182386747456684e-02 6.014158469738921375e-02
3.840000000000000000e+04 3.175345589014197389e-02 1.478780926840936490e-02 5.794009724276763529e-02
3.850000000000000000e+04 3.049411741343629328e-02 1.434943565673515650e-02 5.617219053396815820e-02
3.860000000000000000e+04 2.998813515418084774e-02 1.363145625323174820e-02 5.595623333489816581e-02
3.870000000000000000e+04 2.982412387304545290e-02 1.379072722098628398e-02 5.530563344361403427e-02
3.880000000000000000e+04 2.955192169953713144e-02 1.381966807906115889e-02 5.564857497947426485e-02
3.890000000000000000e+04 2.953736801228997594e-02 1.363677023200567280e-02 5.577633357643787398e-02
3.900000000000000000e+04 3.017456648153210574e-02 1.361585420761167453e-02 5.649238269630094122e-02
3.910000000000000000e+04 3.161449328748992121e-02 1.440868355292930676e-02 5.855562541714833674e-02
3.920000000000000000e+04 4.881338074187516196e-02 2.754906050208718107e-02 7.502356917898475586e-02
3.930000000000000000e+04 4.451278999237755912e-02 2.431051506499366105e-02 7.134990294091507479e-02
3.940000000000000000e+04 2.998645122284572181e-02 1.410341125509839699e-02 5.641324827224017402e-02
3.950000000000000000e+04 2.970292808636132778e-02 1.340207362617266106e-02 5.618309123553592160e-02
3.960000000000000000e+04 2.930495491755716331e-02 1.353520212203596085e-02 5.575925291780041426e-02
3.970000000000000000e+04 2.966048038963311692e-02 1.362331617078566155e-02 5.607667510872197530e-02
3.980000000000000000e+04 2.938900448198773427e-02 1.327570879788403553e-02 5.628260623377807914e-02
3.990000000000000000e+04 2.954503641526831648e-02 1.357565260279427338e-02 5.577152295969926843e-02
4.000000000000000000e+04 2.975771825154730627e-02 1.316259592241696315e-02 5.582749183870224646e-02
4.010000000000000000e+04 2.948180133063789052e-02 1.340952294905285030e-02 5.639841620753213713e-02
4.020000000000000000e+04 2.930832293918232689e-02 1.338418798589125283e-02 5.653915659767738688e-02
4.030000000000000000e+04 2.947366595701825936e-02 1.340572136204878743e-02 5.675911039294997962e-02
4.040000000000000000e+04 2.944316841781481273e-02 1.327282989501465948e-02 5.619685636850785260e-02
4.050000000000000000e+04 2.963108567480722544e-02 1.318441557485172666e-02 5.630462582072379152e-02
4.060000000000000000e+04 2.958439607392374798e-02 1.333271619697251088e-02 5.712060183032345584e-02
4.070000000000000000e+04 2.942108167019408943e-02 1.310740053154691755e-02 5.669780951749039954e-02
4.080000000000000000e+04 2.915297484114880155e-02 1.324363031528575166e-02 5.579374136448868315e-02
4.090000000000000000e+04 3.107716060957505660e-02 1.446843387208632779e-02 5.709579686383608327e-02
4.100000000000000000e+04 4.776180356702015850e-02 2.766286151591807602e-02 7.420676096058258231e-02
4.110000000000000000e+04 4.135138477713295319e-02 2.260811973594872848e-02 6.767478453492491164e-02
4.120000000000000000e+04 2.906110972103106288e-02 1.309501449646195519e-02 5.553566548129032499e-02
4.130000000000000000e+04 2.872774569724294985e-02 1.295520827315757052e-02 5.449997528027374083e-02
4.140000000000000000e+04 2.844161366217779971e-02 1.276854077310529689e-02 5.453471594249154064e-02
4.150000000000000000e+04 2.861414893934140918e-02 1.294297465437612912e-02 5.559312734390180893e-02
4.160000000000000000e+04 2.852841795215169465e-02 1.309534708548198111e-02 5.548941153449048203e-02
4.170000000000000000e+04 2.848212757478146839e-02 1.260909127998727230e-02 5.514777204570657509e-02
4.180000000000000000e+04 2.833567732336595563e-02 1.291481796712918434e-02 5.521916949709764627e-02
4.190000000000000000e+04 2.900501699892385488e-02 1.317855670543248946e-02 5.541576464772091093e-02
4.200000000000000000e+04 2.875829433689124082e-02 1.310570175991250877e-02 5.501510996051109381e-02
4.210000000000000000e+04 2.878003813784360196e-02 1.296159522476610960e-02 5.459094472768966089e-02
4.220000000000000000e+04 2.881903181023006896e-02 1.328008974612129335e-02 5.528586291880543263e-02
4.230000000000000000e+04 2.863368101776080782e-02 1.304982266881594619e-02 5.454089416491829378e-02
4.240000000000000000e+04 2.842355945641268644e-02 1.268669465474695467e-02 5.452880926238651282e-02
4.250000000000000000e+04 2.783893227352579949e-02 1.262203338781402867e-02 5.389834663772673229e-02
4.260000000000000000e+04 2.789412921164419884e-02 1.257310321959757837e-02 5.388748025259121333e-02
4.270000000000000000e+04 2.774719402867906887e-02 1.278343359785506957e-02 5.309508330974260087e-02
4.280000000000000000e+04 2.775224783599758091e-02 1.258932444232892592e-02 5.363604612034696822e-02
4.290000000000000000e+04 2.788863153199095182e-02 1.266979153863022865e-02 5.372144440504247886e-02
4.300000000000000000e+04 2.762135331252539572e-02 1.213579984993861868e-02 5.371328097297296128e-02
4.310000000000000000e+04 2.739954933608312534e-02 1.211769116970112109e-02 5.321197829204366014e-02
4.320000000000000000e+04 2.751985621143594393e-02 1.231840750456023037e-02 5.316479643117788534e-02
4.330000000000000000e+04 2.771695194557143721e-02 1.241336830403345567e-02 5.378194528269873015e-02
4.340000000000000000e+04 2.741465832923773577e-02 1.230137178594034250e-02 5.301156728820115988e-02
4.350000000000000000e+04 2.728690585501225910e-02 1.209680306047259193e-02 5.299339978708080684e-02
4.360000000000000000e+04 2.739678353470567651e-02 1.226746028598669006e-02 5.260336917732435363e-02
4.370000000000000000e+04 2.701520120764239891e-02 1.212322599551543881e-02 5.196677642993525331e-02
4.380000000000000000e+04 2.708671282496620189e-02 1.207328133155011196e-02 5.189875354706900007e-02
4.390000000000000000e+04 2.738685356049920527e-02 1.235545701800482704e-02 5.217078718384281916e-02
4.400000000000000000e+04 2.696476075700566730e-02 1.215605860538459745e-02 5.141816679283653380e-02
4.410000000000000000e+04 2.718577968726226465e-02 1.235355809633524767e-02 5.247293057265334237e-02
4.420000000000000000e+04 3.064818177226658752e-02 1.423519217148370292e-02 5.571387643510775783e-02
4.430000000000000000e+04 3.084865565359635325e-02 1.479666499707462703e-02 5.557234479147500628e-02
4.440000000000000000e+04 2.699006944103482519e-02 1.222250105359511639e-02 5.153552195967617960e-02
4.450000000000000000e+04 2.644759763130759278e-02 1.180978762466690021e-02 5.060109754621095607e-02
4.460000000000000000e+04 2.615953983503378072e-02 1.206643236091644276e-02 5.021299086939037815e-02
4.470000000000000000e+04 2.621220073328514588e-02 1.195695761301964789e-02 5.052557544047642929e-02
4.480000000000000000e+04 2.647804767660318429e-02 1.187731244361451936e-02 5.033547473775188547e-02
4.490000000000000000e+04 2.633354723824156418e-02 1.211235923703092056e-02 5.020211318021598756e-02
4.500000000000000000e+04 2.616156649808968129e-02 1.183061239508174066e-02 5.056789356676567870e-02
4.510000000000000000e+04 2.608301246443143692e-02 1.182172070709302213e-02 4.980180591012757507e-02
4.520000000000000000e+04 2.568349338948509863e-02 1.163467539799364209e-02 4.893648915622868245e-02
4.530000000000000000e+04 3.081768303600742470e-02 1.455456401577071880e-02 5.422997836138812588e-02
4.540000000000000000e+04 4.985857446997932207e-02 2.495940512604022735e-02 8.278614212483240142e-02
4.550000000000000000e+04 5.019849008598407242e-02 2.489322911566163934e-02 8.387656643200952500e-02
4.560000000000000000e+04 3.206202982530652335e-02 1.572444507097809155e-02 5.574226296900282318e-02
4.570000000000000000e+04 2.529995865091176632e-02 1.165494139187530157e-02 4.896847863734927336e-02
4.580000000000000000e+04 2.513450064502856587e-02 1.147876145214793767e-02 4.875764964972134630e-02
4.590000000000000000e+04 2.487059295037526152e-02 1.124673299227808843e-02 4.776913442071105409e-02
4.600000000000000000e+04 2.486782339832304192e-02 1.107107505680196904e-02 4.780072565826241210e-02
4.610000000000000000e+04 2.504812446865570599e-02 1.151096801909852994e-02 4.780514586188620157e-02
4.620000000000000000e+04 2.488917562728138605e-02 1.123112883170945993e-02 4.753388686253952333e-02
4.630000000000000000e+04 2.459517745730364566e-02 1.123427283809387729e-02 4.707725232604412224e-02
4.640000000000000000e+04 2.894275078142789087e-02 1.405949762589079992e-02 5.176831732530924601e-02
4.650000000000000000e+04 4.699536962442252969e-02 2.658343413822468818e-02 7.053553640331607089e-02
4.660000000000000000e+04 3.620151588444160684e-02 1.895224586454031038e-02 5.912114252259450392e-02
4.670000000000000000e+04 2.455907520724376000e-02 1.139275491972867142e-02 4.587975737088954842e-02
4.680000000000000000e+04 2.440365889309040540e-02 1.118706442416916164e-02 4.576629014488187153e-02
4.690000000000000000e+04 2.461774608757295868e-02 1.128425052513742921e-02 4.571048767517567335e-02
4.700000000000000000e+04 3.962389425095866335e-02 1.949762655563408442e-02 6.568664643816317372e-02
4.710000000000000000e+04 1.039456786161157137e-01 5.180508716886936260e-02 1.712842787386234522e-01
4.720000000000000000e+04 1.034006650510501391e-01 5.160387028907697377e-02 1.687090305043716931e-01
4.730000000000000000e+04 1.164237925045166350e-01 5.897508438967127148e-02 1.929203818234227763e-01
4.740000000000000000e+04 6.154601276460796438e-02 3.069095130202677962e-02 1.026844124683713999e-01
4.750000000000000000e+04 2.394753738497071988e-02 1.101700353749391660e-02 4.515826640239348905e-02
4.760000000000000000e+04 2.375452891884074352e-02 1.091332227231326009e-02 4.426218816760036506e-02
4.770000000000000000e+04 2.350060539553160133e-02 1.096426446042239079e-02 4.371782270808347026e-02
4.780000000000000000e+04 2.316553489682049785e-02 1.071735883798443506e-02 4.360603734539785642e-02
4.790000000000000000e+04 2.318016014364961824e-02 1.064488198082760156e-02 4.364244465317295568e-02
4.800000000000000000e+04 2.469122659722365956e-02 1.190895830623067871e-02 4.462941936205615245e-02
4.810000000000000000e+04 2.715152110860034884e-02 1.329474816950597382e-02 4.754963260585359786e-02
4.820000000000000000e+04 2.384024123125154035e-02 1.114096958979184093e-02 4.331252714678980598e-02
4.830000000000000000e+04 2.296944197783871641e-02 1.061058869921734267e-02 4.250540927462324176e-02
4.840000000000000000e+04 3.342471534230723879e-02 1.807493250095073070e-02 5.401018411230072008e-02
4.850000000000000000e+04 5.993262050612854774e-02 4.169759421529153215e-02 8.041915628467913302e-02
4.860000000000000000e+04 3.666924425650829045e-02 2.095674691148457711e-02 5.704097320910592184e-02
4.870000000000000000e+04 2.227081056074250651e-02 1.026442186685546515e-02 4.203678693355005630e-02
4.880000000000000000e+04 2.235756046290053589e-02 1.043916899191315965e-02 4.123035091141018238e-02
4.890000000000000000e+04 2.378454019466962402e-02 1.118949293360106678e-02 4.271512036909967669e-02
4.900000000000000000e+04 2.910488371825988713e-02 1.425713052036095378e-02 4.956310956674165463e-02
4.910000000000000000e+04 2.596805616249563825e-02 1.242769051391886224e-02 4.557580503120108040e-02
4.920000000000000000e+04 3.347594542727486133e-02 1.638366490785004431e-02 5.554863282251238515e-02
4.930000000000000000e+04 3.086307934242209228e-02 1.557244020514197275e-02 5.211661765667304630e-02
4.940000000000000000e+04 2.217899554551065050e-02 1.037073810158049489e-02 4.052046317864304442e-02
4.950000000000000000e+04 2.286404441560313874e-02 1.091981701993018257e-02 4.130041031595433482e-02
4.960000000000000000e+04 4.219543817845876343e-02 2.466867851908820936e-02 6.262799913839511845e-02
4.970000000000000000e+04 5.366366897112263834e-02 3.622588471874400168e-02 7.324361648888834397e-02
4.980000000000000000e+04 2.680055440309780240e-02 1.345158712256166837e-02 4.484402488807221615e-02
4.990000000000000000e+04 2.152942370113945444e-02 1.020759616463060709e-02 3.923167265356555800e-02
5.000000000000000000e+04 2.154487907903430977e-02 1.010219770142350114e-02 3.854611195222563264e-02
5.010000000000000000e+04 2.119425878880532715e-02 1.006676339701896399e-02 3.862305901362788479e-02
5.020000000000000000e+04 2.105534616384846514e-02 1.000837759453105172e-02 3.818605143575781041e-02
5.030000000000000000e+04 2.128053756422363871e-02 9.996810281947534835e-03 3.825444867357544881e-02
5.040000000000000000e+04 2.123479088260447206e-02 1.000674450967008362e-02 3.810501521176309914e-02
5.050000000000000000e+04 2.116658333646967774e-02 1.009795718602667959e-02 3.788880579331514037e-02
5.060000000000000000e+04 2.092088784194439874e-02 1.014034601467033933e-02 3.756159757762241730e-02
5.070000000000000000e+04 2.073398972813201430e-02 9.799651735032367805e-03 3.755385526486176156e-02
5.080000000000000000e+04 2.058197099755629950e-02 9.930095766046465738e-03 3.740434784817624203e-02
5.090000000000000000e+04 2.076026580228019364e-02 9.791608710040769492e-03 3.678920794540839478e-02
5.100000000000000000e+04 2.054131153066023410e-02 9.827411130627702537e-03 3.684579398116421406e-02
5.110000000000000000e+04 2.062226959088982528e-02 9.724876918878024371e-03 3.662876736182973242e-02
5.120000000000000000e+04 2.046551014944876859e-02 9.707896845533799807e-03 3.590867962829454030e-02
5.130000000000000000e+04 2.040037030001293564e-02 9.618573007526000709e-03 3.617848558037781853e-02
5.140000000000000000e+04 2.028629559665200144e-02 9.607571225067969983e-03 3.568701620874765307e-02
5.150000000000000000e+04 2.014908607913878241e-02 9.559519095272838926e-03 3.556405388542484974e-02
5.160000000000000000e+04 2.030802414879612217e-02 9.722656657167573491e-03 3.572656434389442220e-02
5.170000000000000000e+04 1.981912172588166932e-02 9.557833919371564943e-03 3.576066709536257493e-02
5.180000000000000000e+04 1.962840959264370091e-02 9.424663971232597609e-03 3.520212214439805837e-02
5.190000000000000000e+04 1.955077423277416099e-02 9.509139941938034302e-03 3.498117113403459433e-02
5.200000000000000000e+04 1.946092685732277519e-02 9.297820641717826490e-03 3.444754491321788681e-02
5.210000000000000000e+04 1.929364474459890205e-02 9.281786504717337571e-03 3.398574356215582071e-02
5.220000000000000000e+04 1.934500340162133986e-02 9.233316625812365563e-03 3.432980453827682438e-02
5.230000000000000000e+04 1.947885686262059921e-02 9.583180900011253195e-03 3.408098275602802069e-02
5.240000000000000000e+04 2.018433287089005726e-02 9.664899566549860210e-03 3.478246516112006720e-02
5.250000000000000000e+04 2.089314955805902929e-02 1.015342375374882894e-02 3.566623367847675946e-02
5.260000000000000000e+04 1.957687758679586137e-02 9.564666274224276413e-03 3.365365755559111827e-02
5.270000000000000000e+04 1.916395467550696674e-02 9.209625731772853180e-03 3.328399007049803043e-02
5.280000000000000000e+04 1.909876193996128818e-02 9.288207525281318155e-03 3.356855104401585549e-02
5.290000000000000000e+04 1.929082547294916003e-02 9.424147827994782886e-03 3.359201484289207201e-02
5.300000000000000000e+04 1.933989221458081581e-02 9.357489278943628697e-03 3.337221999408180456e-02
5.310000000000000000e+04 1.947973290226508170e-02 9.408297176343250259e-03 3.356567711410873150e-02
5.320000000000000000e+04 1.951768671614921916e-02 9.481399007378278274e-03 3.329287495105951594e-02
5.330000000000000000e+04 1.958695637649685017e-02 9.562050728175291656e-03 3.298023641901275116e-02
5.340000000000000000e+04 1.964437383955564345e-02 9.601850362195957569e-03 3.325843664434965929e-02
5.350000000000000000e+04 1.940458635397987464e-02 9.498345449502792678e-03 3.332674369383629293e-02
5.360000000000000000e+04 1.926471215068219223e-02 9.278581260383089377e-03 3.296641133694509090e-02
5.370000000000000000e+04 1.926287150218517971e-02 9.375007685052417009e-03 3.304190245685668242e-02
5.380000000000000000e+04 1.897708149637925001e-02 9.203855508769393304e-03 3.242531687111334382e-02
5.390000000000000000e+04 1.861283956238616102e-02 9.245129916142517251e-03 3.203343575587592335e-02
5.400000000000000000e+04 1.864145632621589180e-02 9.210239387775771835e-03 3.166612978200955553e-02
5.410000000000000000e+04 1.916137823214435557e-02 9.194667117183115759e-03 3.233632130108653885e-02
5.420000000000000000e+04 2.163636289440522970e-02 1.073775083977558491e-02 3.587491675477479103e-02
5.430000000000000000e+04 2.006564283002192084e-02 9.865825125475477173e-03 3.364455563481284772e-02
5.440000000000000000e+04 1.864526106525500257e-02 9.149158545552602342e-03 3.172737931934228872e-02
5.450000000000000000e+04 1.862524746017349755e-02 9.200556286853329643e-03 3.130754046147691400e-02
5.460000000000000000e+04 1.985583432233537990e-02 9.856981668134470395e-03 3.312491895523972385e-02
5.470000000000000000e+04 3.083945047602941469e-02 1.684712014349776243e-02 4.691204978304516077e-02
5.480000000000000000e+04 2.968058801142111139e-02 1.627179267628586085e-02 4.502469903899194298e-02
5.490000000000000000e+04 2.013969493619736234e-02 9.895911775964385051e-03 3.375503122278945140e-02
5.500000000000000000e+04 2.982486736100311772e-02 1.475050497235605960e-02 4.904409893999270298e-02
5.510000000000000000e+04 1.594604407930934054e-01 7.775046782675190671e-02 2.707610315614337182e-01
5.520000000000000000e+04 2.007455018543485570e-01 9.855409502307115044e-02 3.401560448231537026e-01
5.530000000000000000e+04 6.320977330572073727e-02 3.126761327777993760e-02 1.060597971145105928e-01
5.540000000000000000e+04 2.394647279422074809e-02 1.184399637206214918e-02 3.944547594686145797e-02
5.550000000000000000e+04 2.057366186101134975e-01 9.716484884211989970e-02 3.470280364716030186e-01
5.560000000000000000e+04 4.628598101752178784e-01 2.347698299921793796e-01 7.458885164401175549e-01
5.570000000000000000e+04 3.802477699044267134e-01 1.891924144639750838e-01 6.086770338810912895e-01
5.580000000000000000e+04 1.016659890998196231e-01 5.038639605422350759e-02 1.653710429467422360e-01
5.590000000000000000e+04 3.041547649077288584e-01 2.771927708095656695e-01 3.302896618697949149e-01
5.600000000000000000e+04 4.462843512678419944e-01 4.277410570883686813e-01 4.649371156903056024e-01
5.610000000000000000e+04 1.595048752979895401e-01 1.357615361364017392e-01 1.852287995869472681e-01
5.620000000000000000e+04 2.240440312313170257e-02 1.127326141424554208e-02 3.680131325181434931e-02
5.630000000000000000e+04 2.151700629802733369e-02 1.063920527416090979e-02 3.579784228518832073e-02
5.640000000000000000e+04 2.225472632068587614e-02 1.106984492909288825e-02 3.685390097992673891e-02
5.650000000000000000e+04 3.013986294676266817e-02 1.635387764049620746e-02 4.511244293152825297e-02
5.660000000000000000e+04 2.434678217141823808e-02 1.224647706367408204e-02 3.852693671022942162e-02
5.670000000000000000e+04 1.944800989021742282e-02 9.670926582530339766e-03 3.236012265750268235e-02
5.680000000000000000e+04 1.993911462237055524e-02 9.935164564792589234e-03 3.304838784048328565e-02
5.690000000000000000e+04 2.579029056453545007e-02 1.295809583093919699e-02 4.258658533973967708e-02
5.700000000000000000e+04 2.586460041054345488e-02 1.294335986918622276e-02 4.268360226378570266e-02
5.710000000000000000e+04 2.075604515240530093e-02 1.044395654189569922e-02 3.449769680401208044e-02
5.720000000000000000e+04 2.108092964401195660e-02 1.042723448236767755e-02 3.549808783824113384e-02
5.730000000000000000e+04 2.188186069817346646e-02 1.081676302035692455e-02 3.646998841208301534e-02
5.740000000000000000e+04 2.273472970396290399e-02 1.111709823958470511e-02 3.788581760426262823e-02
5.750000000000000000e+04 2.331092395887928229e-02 1.181962937484364561e-02 3.899445767328547224e-02
5.760000000000000000e+04 2.430097019736332173e-02 1.195313859634375940e-02 4.110054444834600196e-02
5.770000000000000000e+04 2.535779112565795732e-02 1.256153011153357188e-02 4.301693982431986640e-02
5.780000000000000000e+04 2.689523664836860131e-02 1.310720876313837754e-02 4.569645289533287580e-02
5.790000000000000000e+04 2.785585245617673567e-02 1.340994609116548733e-02 4.741966828997826178e-02
5.800000000000000000e+04 2.847120107058048050e-02 1.392299781115857553e-02 4.920147123201745742e-02
5.810000000000000000e+04 2.960285697911225686e-02 1.435442361292453041e-02 5.188377604420301575e-02
5.820000000000000000e+04 3.145783051976649980e-02 1.496509746661116996e-02 5.527857154599206957e-02
5.830000000000000000e+04 3.286946079419970912e-02 1.563022077357443390e-02 5.881535110225189628e-02
5.840000000000000000e+04 3.435919064711751014e-02 1.640101972046689727e-02 6.139909374880700432e-02
5.850000000000000000e+04 3.557269263557290978e-02 1.699249619279803725e-02 6.493154954914769073e-02
5.860000000000000000e+04 3.709926603794479888e-02 1.731228091860449389e-02 6.892230739369030468e-02
5.870000000000000000e+04 3.873398762804495382e-02 1.799335419986506854e-02 7.216080461081515740e-02
5.880000000000000000e+04 4.068338863367657043e-02 1.869425323729547242e-02 7.600948502199555978e-02
5.890000000000000000e+04 4.226146462908639267e-02 1.952006970604641331e-02 7.889068282885616790e-02
5.900000000000000000e+04 4.460972163518267530e-02 2.039146697872919536e-02 8.300771238534906948e-02
5.910000000000000000e+04 4.593041838073473604e-02 2.106656884680102940e-02 8.668680089613053918e-02
5.920000000000000000e+04 4.721998145522175727e-02 2.167038495906044998e-02 8.934854968028946298e-02
5.930000000000000000e+04 4.901354890654228275e-02 2.232983943264457011e-02 9.167118756488039366e-02
5.940000000000000000e+04 4.996734735170496600e-02 2.313333165809029410e-02 9.330447791305404581e-02
5.950000000000000000e+04 5.275572044858928278e-02 2.395432280904378694e-02 9.683303810771050346e-02
5.960000000000000000e+04 5.498671852886623246e-02 2.494509897281110139e-02 9.956544848080413346e-02
5.970000000000000000e+04 5.716714305650507505e-02 2.602540873056785262e-02 1.022883399998465587e-01
5.980000000000000000e+04 5.858191295164830170e-02 2.717421639262705690e-02 1.060698594299032543e-01
5.990000000000000000e+04 6.038418381063069551e-02 2.836662144223544429e-02 1.065012798161378005e-01
6.000000000000000000e+04 6.144033781606069583e-02 2.922246193697639396e-02 1.078958410080663316e-01
6.010000000000000000e+04 6.215135208440977083e-02 2.896474090870777146e-02 1.081865618396356254e-01
6.020000000000000000e+04 6.297716590831199668e-02 3.000118329914549381e-02 1.090829459302860016e-01
6.030000000000000000e+04 6.515290244453962598e-02 3.157050126818605057e-02 1.100833512398824154e-01
6.040000000000000000e+04 6.845196939158156024e-02 3.288658206486141933e-02 1.137128065056105253e-01
6.050000000000000000e+04 7.117518746732655333e-02 3.494806696930260331e-02 1.195690435853433292e-01
6.060000000000000000e+04 7.332493389674088480e-02 3.630884700113723440e-02 1.221908245980812963e-01
6.070000000000000000e+04 7.682709411995201909e-02 3.703908552985199498e-02 1.253664420120170764e-01
6.080000000000000000e+04 7.926494920094483143e-02 3.941035326007365225e-02 1.289696023693297222e-01
6.090000000000000000e+04 8.198774828638143164e-02 4.066432144483059924e-02 1.328026548871483747e-01
6.100000000000000000e+04 8.352989505644051182e-02 4.074004440017008760e-02 1.349773940934206051e-01
6.110000000000000000e+04 8.165318239176615200e-02 4.032769583851213147e-02 1.358229413224582571e-01
6.120000000000000000e+04 8.273435875508718118e-02 4.049141666147910296e-02 1.364287494209173168e-01
6.130000000000000000e+04 8.452270211480367168e-02 4.183993000844691418e-02 1.392207448212882948e-01
6.140000000000000000e+04 8.713633510070016575e-02 4.317212407668162555e-02 1.407651541266825568e-01
6.150000000000000000e+04 8.761944007646121912e-02 4.343291426176432157e-02 1.453977801868412134e-01
6.160000000000000000e+04 8.547680884638238219e-02 4.015972721064945544e-02 1.514327746372626238e-01
6.170000000000000000e+04 9.093781891375569970e-02 4.408899773552332757e-02 1.507420034127101571e-01
6.180000000000000000e+04 9.017976635810927288e-02 4.530571791970505746e-02 1.508406129474586244e-01
6.190000000000000000e+04 8.917172164825393210e-02 4.403302106312732833e-02 1.506440397429057720e-01
6.200000000000000000e+04 8.724093482584022174e-02 4.283460378804736929e-02 1.483983057686510398e-01
6.210000000000000000e+04 8.479387238926092141e-02 4.166758802533347683e-02 1.475629204817433537e-01
6.220000000000000000e+04 8.464810510572720603e-02 4.169604939708886765e-02 1.469207917260325069e-01
6.230000000000000000e+04 8.456077345651678845e-02 4.082319585194897626e-02 1.458545421151627997e-01
6.240000000000000000e+04 8.207293580989165338e-02 3.934308815854337116e-02 1.464809940836613866e-01
6.250000000000000000e+04 4.663816918565005798e-02 1.356543962418285329e-02 1.048686431650907303e-01
