# Comments from moku data file:% Moku:Phasemeter 
# 
# % Ch 1 - DC coupling, 50 Ohm impedance, 1 V range
# 
# % Ch 1 bandwidth = 1.0000000000e+04 (Hz)
# 
# % Acquisition rate: 1.2500000000e+05 Hz
# 
# % External 10 MHz clock
# 
# % Acquired 2020-05-17 T 20:32:57 -0700
# 
# % Time, Set frequency 1 (Hz), Frequency 1 (Hz), Phase 1 (cyc), I 1 (V), Q 1 (V)
# 
# #########################################################
# ASD calculated by mokuReadFreqNoise.py
# Frequency [Hz]         Freq ASD1 [Hz/rtHz]      Freq ASDlb1 [Hz/rtHz]    Freq ASDub1 [Hz/rtHz]    
# 
0.000000000000000000e+00 1.747979176141417668e+02 2.432216301791025970e+01 3.023587665610390331e+02
1.000000000000000056e-01 2.458199415148336584e+02 9.664797813622462286e+01 3.002652528702387258e+02
2.000000000000000111e-01 1.391029806449633952e+02 1.057977922449975381e+02 1.791046082762416063e+02
3.000000000000000444e-01 1.017853840102451954e+02 6.316902375071462217e+01 1.515628233921926267e+02
4.000000000000000222e-01 8.059577578878197812e+01 3.553793270758863088e+01 1.514087569800335586e+02
5.000000000000000000e-01 7.397631357216472736e+01 4.296612924312765358e+01 1.186729498883481710e+02
6.000000000000000888e-01 4.942205671249343624e+01 4.323135523455281515e+01 7.210096935680915919e+01
7.000000000000000666e-01 3.329526018028448675e+01 2.377802120989361256e+01 8.107394353939781695e+01
8.000000000000000444e-01 4.397595205445821165e+01 1.576143647101880063e+01 7.022576046303061048e+01
9.000000000000000222e-01 3.574752317463253348e+01 2.117557726839388721e+01 5.612697385204511136e+01
1.000000000000000000e+00 3.927454127279318641e+01 9.899549144072159024e+00 5.144189956087620175e+01
1.100000000000000089e+00 2.430187789732353210e+01 1.594843898222509893e+01 3.902915721406264282e+01
1.200000000000000178e+00 2.185681008538638892e+01 1.198807857835925894e+01 3.846408973122780139e+01
1.300000000000000044e+00 1.565615801405756535e+01 8.630536681053090575e+00 3.145304976959973686e+01
1.400000000000000133e+00 2.423969433577449095e+01 1.464791083406478478e+01 3.362151457069982996e+01
1.500000000000000000e+00 2.896960096441776855e+01 1.518293313906338327e+01 3.926724315573758162e+01
1.600000000000000089e+00 2.523263376619957299e+01 1.185241623660174959e+01 3.394553194072048541e+01
1.700000000000000178e+00 1.210324395482057369e+01 6.259302927910247227e+00 3.391799092550314754e+01
1.800000000000000044e+00 2.531167102420560511e+01 1.368008063227196480e+01 3.395451020674808973e+01
1.900000000000000133e+00 1.827164296251445208e+01 1.461276628450497839e+01 2.957616792175436515e+01
2.000000000000000000e+00 1.954505092058980154e+01 1.337860531925071861e+01 2.790003708768902868e+01
2.100000000000000089e+00 1.660474099217035260e+01 1.320049681433542688e+01 2.434904853083972043e+01
2.200000000000000178e+00 1.737650500809573728e+01 7.250309911828235698e+00 2.811689535135773710e+01
2.300000000000000266e+00 1.547988358365136996e+01 7.958989281543058958e+00 2.310084712046637279e+01
2.400000000000000355e+00 1.668780160753453856e+01 6.153676059883123273e+00 1.998473703718930139e+01
2.500000000000000000e+00 1.669921317425154683e+01 1.117890701787965746e+01 2.722434638615539981e+01
2.600000000000000089e+00 1.354480711524599101e+01 7.000530199421659105e+00 2.606837701069202495e+01
2.700000000000000178e+00 1.689441533470447609e+01 9.356063011781309058e+00 2.935456713384121841e+01
2.800000000000000266e+00 1.199900525281215558e+01 5.778657083452443111e+00 2.915329574266166190e+01
2.900000000000000355e+00 1.408138810659939999e+01 7.822247350393661591e+00 1.847535307496782764e+01
3.000000000000000000e+00 1.616971387109921210e+01 8.522082440095847033e+00 3.066269311213380888e+01
3.100000000000000089e+00 2.598718626028133016e+01 1.105477869805167224e+01 3.331695617673464227e+01
3.200000000000000178e+00 2.016305998756115159e+01 8.439913480189106920e+00 3.121822914591239595e+01
3.300000000000000266e+00 1.457181992589630326e+01 1.011491380655015604e+01 3.873686776650144026e+01
3.400000000000000355e+00 3.397542470559965722e+01 1.406283710423070410e+01 4.207460118366191182e+01
3.500000000000000000e+00 3.187165555683352736e+01 1.599493435848269129e+01 5.543208155640937207e+01
3.600000000000000089e+00 3.056250132086608318e+01 1.689351629075403594e+01 4.361708819340229581e+01
3.700000000000000178e+00 1.885696268976604628e+01 6.304195303301018072e+00 2.792603311972191449e+01
3.800000000000000266e+00 1.774955967102282628e+01 1.048543103823918443e+01 2.824068583703529711e+01
3.900000000000000355e+00 1.643514612272807085e+01 1.274564790327318065e+01 2.370857821808555244e+01
4.000000000000000000e+00 1.538699686069586647e+01 1.048914984086505520e+01 2.125031726547411992e+01
4.100000000000000533e+00 1.365176583767026486e+01 1.041233240039911578e+01 2.267561101593559769e+01
4.200000000000000178e+00 8.789773596796692345e+00 6.588052720797403339e+00 1.971921625064107531e+01
4.299999999999999822e+00 1.245499683549981640e+01 8.543918067173828845e+00 1.563005634670634869e+01
4.400000000000000355e+00 1.076393498824201167e+01 4.988876275063643284e+00 1.937428642269772183e+01
4.500000000000000000e+00 1.805861702510236455e+01 9.379286117413176527e+00 2.063553612760960121e+01
4.600000000000000533e+00 1.133559842292312858e+01 8.891446919948680971e+00 2.209296343604234636e+01
4.700000000000000178e+00 1.180912973534092636e+01 6.669898188573847975e+00 2.017446013211910127e+01
4.800000000000000711e+00 1.106449920424787159e+01 7.860205618660677018e+00 1.445440485288112065e+01
4.900000000000000355e+00 9.048632525361876233e+00 3.843861559062657030e+00 1.691469870877853765e+01
5.000000000000000000e+00 9.695315465762153195e+00 4.507379458414826345e+00 1.534324709347637139e+01
5.100000000000000533e+00 9.916159063093093806e+00 6.856505548654475035e+00 1.254100149832060751e+01
5.200000000000000178e+00 6.709936896266304629e+00 2.583151990444739532e+00 2.111898982577500661e+01
5.300000000000000711e+00 1.471960278945956091e+01 7.386894339020867228e+00 1.679185291976104821e+01
5.400000000000000355e+00 1.568701286386295735e+01 1.115830201578764758e+01 1.809619183860470670e+01
5.500000000000000000e+00 1.547296225466993569e+01 9.041099828092310275e+00 2.229411223893321647e+01
5.600000000000000533e+00 1.521050989011170707e+01 6.863367836837415581e+00 2.042786335678349730e+01
5.700000000000000178e+00 1.122008750998688065e+01 8.543546636512724390e+00 1.559378638021662944e+01
5.800000000000000711e+00 1.260230651299201021e+01 9.471959700110661018e+00 1.630990751143314910e+01
5.900000000000000355e+00 7.374044064688985323e+00 6.027759586391967517e+00 1.985564862467099090e+01
6.000000000000000000e+00 9.437195757642784955e+00 7.383354493963357079e+00 1.724665644438087142e+01
6.100000000000000533e+00 6.127111233543280022e+00 4.201995269784040588e+00 1.583736633697198215e+01
6.200000000000000178e+00 6.880809422561861233e+00 3.476092063446918790e+00 1.382207790815879811e+01
6.300000000000000711e+00 6.588926273086451957e+00 2.653378578022000056e+00 1.163986157245754249e+01
6.400000000000000355e+00 7.534786098740616112e+00 4.806061451813489427e+00 1.284473139838250866e+01
6.500000000000000000e+00 6.390437995097314250e+00 3.969328254928676802e+00 1.141392747264188223e+01
6.600000000000000533e+00 9.920944665141837149e+00 3.619298904887863877e+00 1.156531566074655437e+01
6.700000000000000178e+00 8.246768995525933121e+00 5.802824141228587251e+00 1.371197170889430694e+01
6.800000000000000711e+00 8.786496541056532550e+00 3.265585847201174285e+00 1.650487123995321781e+01
6.900000000000000355e+00 1.611945941025147633e+01 1.107770784361671268e+01 1.737795850923792074e+01
7.000000000000000000e+00 1.449499710289533283e+01 1.162202987271963828e+01 1.648227431099304852e+01
7.100000000000000533e+00 1.071050518635004778e+01 6.068723695161430953e+00 1.821886756342378533e+01
7.200000000000000178e+00 1.298906651598347750e+01 8.223128890871402419e+00 2.793025729037000460e+01
7.300000000000000711e+00 9.204400739987042002e+00 3.662371440045336435e+00 1.690634055674478731e+01
7.400000000000000355e+00 7.098184928541094507e+00 4.423055023404526942e+00 1.351391034566120730e+01
7.500000000000000000e+00 6.732995647281798668e+00 3.642258673716269435e+00 1.396789710046542865e+01
7.600000000000000533e+00 7.164415345752416009e+00 4.110350994122470070e+00 1.124147230482123661e+01
7.700000000000000178e+00 7.451917239243847746e+00 4.108930311648963496e+00 1.242170348293139170e+01
7.800000000000000711e+00 9.901862960027234095e+00 5.870656144095820039e+00 1.329332552619534624e+01
7.900000000000000355e+00 7.543737549895348948e+00 4.237799053034484231e+00 1.743295242188901284e+01
8.000000000000000000e+00 1.139535723480138785e+01 3.527435402104251327e+00 1.188653388946331013e+01
8.099999999999999645e+00 6.375381402847654755e+00 5.506195718187977484e+00 1.738778576630403805e+01
8.200000000000001066e+00 1.005102923101634715e+01 3.252563228875026358e+00 2.057816103954453268e+01
8.300000000000000711e+00 8.070042659393473983e+00 4.054282711942336803e+00 1.901929254414812931e+01
8.400000000000000355e+00 7.172082241344417852e+00 2.953306471987950044e+00 1.209926744800906029e+01
8.500000000000000000e+00 6.487022105306630593e+00 4.485981945712002705e+00 1.303748377280680870e+01
8.599999999999999645e+00 8.892670450562562223e+00 5.825028130734956733e+00 1.634035173253279538e+01
8.700000000000001066e+00 1.348114028402607723e+01 8.733083058995383396e+00 2.045360018126707047e+01
8.800000000000000711e+00 1.657038794929798797e+01 1.005463632037885802e+01 2.030222792072294524e+01
8.900000000000000355e+00 1.341750256257798846e+01 7.720488698268827221e+00 1.967436131099461960e+01
9.000000000000000000e+00 1.346245799712227331e+01 5.389664979233054432e+00 1.963075592608587883e+01
9.099999999999999645e+00 9.791919945341657439e+00 5.349497196413404154e+00 1.481030095274076785e+01
9.200000000000001066e+00 9.536403649362522827e+00 3.854253082972418643e+00 1.116874274038746506e+01
9.300000000000000711e+00 9.930141296881037860e+00 4.214667438423106205e+00 1.728577078411754187e+01
9.400000000000000355e+00 1.265543412721119232e+01 5.816652342787881125e+00 1.665512447618702296e+01
9.500000000000000000e+00 9.959048681749704812e+00 6.013805425144259864e+00 1.371728180945873810e+01
9.600000000000001421e+00 7.291710223814748204e+00 4.975356496031218434e+00 1.390651318558350980e+01
9.700000000000001066e+00 1.349399716582677478e+01 2.662320231916336155e+00 1.504319376830972743e+01
9.800000000000000711e+00 1.174560653129365306e+01 8.301770289108159062e+00 1.835928860129588003e+01
9.900000000000000355e+00 1.180494819579597277e+01 6.337790569001783503e+00 2.192740593574202990e+01
1.000000000000000000e+01 1.134689478953597508e+01 4.958595633077680809e+00 1.943026801285428462e+01
1.100000000000000000e+01 9.015172027669200006e+00 4.368097414666741507e+00 1.919274800560645033e+01
1.200000000000000000e+01 7.445023757742286641e+00 3.134272955865391008e+00 1.313570037178149619e+01
1.300000000000000000e+01 5.213820666346120625e+00 2.557582037906874106e+00 1.313280723822997409e+01
1.400000000000000000e+01 4.944726998963799858e+00 2.400803695432974116e+00 1.163850077989654785e+01
1.500000000000000000e+01 4.383145922510256476e+00 2.021382788521314033e+00 1.078950162557388026e+01
1.600000000000000000e+01 4.900579769629608506e+00 1.837587526048099162e+00 9.802970478715417713e+00
1.700000000000000000e+01 4.168293859342824703e+00 2.126475969381524056e+00 1.090058025877878123e+01
1.800000000000000000e+01 3.836151750279575001e+00 1.736032368367621981e+00 1.043855921761891281e+01
1.900000000000000000e+01 2.960943354567980190e+00 1.221383578868116881e+00 9.163006838669334186e+00
2.000000000000000000e+01 2.466512258337143049e+00 9.281443891051631701e-01 9.799032061804457072e+00
2.100000000000000000e+01 2.003723567220429658e+00 8.846957398054606792e-01 9.100803291223405367e+00
2.200000000000000000e+01 1.697113401003310651e+00 7.199487098318508860e-01 7.044102787887215555e+00
2.300000000000000000e+01 1.454034035900544586e+00 6.472008651431486737e-01 6.197588342599551936e+00
2.400000000000000000e+01 1.367725878194623990e+00 6.314678275646081751e-01 5.144498314326481747e+00
2.500000000000000000e+01 1.117653973364872710e+00 5.918664374619154733e-01 4.801197069460640954e+00
2.600000000000000000e+01 1.017844354689697806e+00 4.404685477872429256e-01 4.067047051086537302e+00
2.700000000000000000e+01 1.033975885299070141e+00 4.562708749924216933e-01 3.349327996338179680e+00
2.800000000000000000e+01 7.943389984357348554e-01 3.630832617622790637e-01 3.311802092609437143e+00
2.900000000000000000e+01 7.663865643601622812e-01 3.584287848020986655e-01 2.967476555103255365e+00
3.000000000000000000e+01 6.815215541109768127e-01 3.075369035762146597e-01 2.091308597603272812e+00
3.100000000000000000e+01 6.934917623272319753e-01 3.086584068647904577e-01 1.837206601700200670e+00
3.200000000000000000e+01 5.844245929565589082e-01 2.372026528622859232e-01 1.644978584408127720e+00
3.300000000000000000e+01 5.096139094632531341e-01 2.244317190003281559e-01 1.405010600607507598e+00
3.400000000000000000e+01 5.458136416296305304e-01 2.315765347313402389e-01 1.106813247651538878e+00
3.500000000000000000e+01 4.683802695293277640e-01 1.950739686499928238e-01 1.158841621175732417e+00
3.600000000000000000e+01 4.420670031181772597e-01 2.290332044391432675e-01 8.502186392154079675e-01
3.700000000000000000e+01 4.208363996084106273e-01 1.873952814905459063e-01 9.059312772245943224e-01
3.800000000000000000e+01 3.702215794294830831e-01 1.689605116665166828e-01 7.476013947787801817e-01
3.900000000000000000e+01 3.369956469103405072e-01 1.831076428966445790e-01 6.048375750526099326e-01
4.000000000000000000e+01 3.444969991128302711e-01 1.479343257029710201e-01 6.429887364354225365e-01
4.100000000000000000e+01 3.379057228243941280e-01 1.516799757414665217e-01 5.636853671822168454e-01
4.200000000000000000e+01 2.822705027294523106e-01 1.153629078844741335e-01 5.339981336594369354e-01
4.300000000000000000e+01 2.658032212799197880e-01 1.287811680762967204e-01 4.763368704423942557e-01
4.400000000000000000e+01 2.796986750156807977e-01 1.404729278745141252e-01 4.838784041008462045e-01
4.500000000000000000e+01 2.744149937525393601e-01 1.263050326041206539e-01 4.888846017208388073e-01
4.600000000000000000e+01 2.384224326102576119e-01 1.287490586641767132e-01 4.005493974318435901e-01
4.700000000000000000e+01 2.097118068735400465e-01 1.081345678749488920e-01 3.908526457144896882e-01
4.800000000000000000e+01 2.042190596959229665e-01 1.225161185148029575e-01 3.721016712241677626e-01
4.900000000000000000e+01 2.313985147809517195e-01 1.016491485518985077e-01 3.939535374602205486e-01
5.000000000000000000e+01 2.211967051314345234e-01 1.089225296715372326e-01 3.565234659478851986e-01
5.100000000000000000e+01 1.894014511718449534e-01 1.232886914641784654e-01 3.430195305183962318e-01
5.200000000000000000e+01 1.864391974765626792e-01 8.897720023795137323e-02 3.589888412702700871e-01
5.300000000000000000e+01 2.246680149849946684e-01 9.119618814934589424e-02 3.549653336260141234e-01
5.400000000000000000e+01 1.799787699028851384e-01 8.375128781940635592e-02 2.851415313305151744e-01
5.500000000000000000e+01 1.919001514213215520e-01 8.506233760452819315e-02 2.882355307319654503e-01
5.600000000000000000e+01 2.005791360219840724e-01 9.655904111198000683e-02 3.171100858133326095e-01
5.700000000000000000e+01 1.676628386342371158e-01 8.243654680020504055e-02 3.000349833931664767e-01
5.800000000000000000e+01 1.477773620179870517e-01 7.059394128763386844e-02 2.727099391278551832e-01
5.900000000000000000e+01 1.623356240930007299e-01 8.496288253263253876e-02 2.888670311785332401e-01
6.000000000000000000e+01 1.729674209393234907e-01 7.982286210005926086e-02 2.737431401939944831e-01
6.100000000000000000e+01 1.680694369274410849e-01 9.265534485608273307e-02 3.046337953009440880e-01
6.200000000000000000e+01 1.688879479624729174e-01 8.874977822254044579e-02 2.804355803690962712e-01
6.300000000000000000e+01 1.444167094103741833e-01 7.455191072524132434e-02 2.568465803426999150e-01
6.400000000000000000e+01 1.280614760928832918e-01 6.389940665851066848e-02 2.200062890958527362e-01
6.500000000000000000e+01 1.267714958962354310e-01 6.206390986498452195e-02 2.125904452140505163e-01
6.600000000000000000e+01 1.381136670239005437e-01 7.335862538605784910e-02 2.131614421509198942e-01
6.700000000000000000e+01 1.300717268459323783e-01 6.904067833664716269e-02 2.053623992931996323e-01
6.800000000000000000e+01 1.202333785545162542e-01 4.632379891014228729e-02 2.029441394436015678e-01
6.900000000000000000e+01 1.051579154327804966e-01 6.056406977991111301e-02 1.778070382380813330e-01
7.000000000000000000e+01 1.040882433180109062e-01 5.164808487829211647e-02 1.606472519164664770e-01
7.100000000000000000e+01 1.021191279171485555e-01 5.908323908519103052e-02 1.875369531769190967e-01
7.200000000000000000e+01 9.494932290329725910e-02 4.670038720413973582e-02 1.818101681375710044e-01
7.300000000000000000e+01 8.710419135367912513e-02 4.238963532107070664e-02 1.753863297561220613e-01
7.400000000000000000e+01 9.105900950763269608e-02 4.779273029797690558e-02 1.521676414268552935e-01
7.500000000000000000e+01 9.565194941654134309e-02 4.296216795583138182e-02 1.570445989186801949e-01
7.600000000000000000e+01 8.562708339525887391e-02 4.115445821215204386e-02 1.391922960675869014e-01
7.700000000000000000e+01 8.031367219446054750e-02 4.004853071428780137e-02 1.402813260114552374e-01
7.800000000000000000e+01 8.555824468490226542e-02 3.946831104528249201e-02 1.421875424449334235e-01
7.900000000000000000e+01 7.824353954595768268e-02 4.731545651805516700e-02 1.271583032974078209e-01
8.000000000000000000e+01 8.591020382346077622e-02 3.664833609525782604e-02 1.357456641541426035e-01
8.100000000000000000e+01 7.851184442185249468e-02 3.872549785754425544e-02 1.271375200190755506e-01
8.200000000000000000e+01 7.748111916355635009e-02 3.369761089224421885e-02 1.228890269811405977e-01
8.300000000000000000e+01 7.823763267649987141e-02 3.468437337432096756e-02 1.183356647442839332e-01
8.400000000000000000e+01 7.638190350095684644e-02 3.680985390970821503e-02 1.309022306024038296e-01
8.500000000000000000e+01 7.621981605014185868e-02 3.123548253668183283e-02 1.243875294747191218e-01
8.600000000000000000e+01 8.800710074322559695e-02 4.140051530255484113e-02 1.468489790984539023e-01
8.700000000000000000e+01 7.756679645183760241e-02 3.937645499814838856e-02 1.117403407180010133e-01
8.800000000000000000e+01 5.893332612432095746e-02 3.374993150867568181e-02 1.096464823557452284e-01
8.900000000000000000e+01 6.720180640781713011e-02 2.969526756968720801e-02 1.079730489826270512e-01
9.000000000000000000e+01 6.231414176966693086e-02 3.407334231764089227e-02 1.044767320019760748e-01
9.100000000000000000e+01 6.816796928186587279e-02 3.644750084919010091e-02 1.134623006400709566e-01
9.200000000000000000e+01 7.071564407576801103e-02 3.379401845085336364e-02 1.098422024720388662e-01
9.300000000000000000e+01 6.311018152345562737e-02 3.381403689176148974e-02 1.099488479723513407e-01
9.400000000000000000e+01 6.566653790125337453e-02 3.295855632409225994e-02 1.053230679417725552e-01
9.500000000000000000e+01 5.695915263437948545e-02 3.277851571759563681e-02 1.067461878902272454e-01
9.600000000000000000e+01 6.372832647672632689e-02 2.844869705106259708e-02 1.353964544443203022e-01
9.700000000000000000e+01 6.609523885178665570e-02 3.187238159073992050e-02 1.351113448066454115e-01
9.800000000000000000e+01 7.813798885958207763e-02 2.787312088802361074e-02 1.345079705278922344e-01
9.900000000000000000e+01 7.188050226297244827e-02 3.454081244532667544e-02 1.437838489733945790e-01
1.000000000000000000e+02 8.310061268596305450e-02 3.710127109164611248e-02 1.520940752251291328e-01
1.100000000000000000e+02 1.339701117792440610e-01 6.840870242321063499e-02 2.247087491843884066e-01
1.200000000000000000e+02 1.338711394850633785e-01 6.190393221492955511e-02 2.649916203741560783e-01
1.300000000000000000e+02 1.430115947870523319e-01 7.189659456925266701e-02 2.403457430610135559e-01
1.400000000000000000e+02 1.389464722494384297e-01 6.752701300114105631e-02 2.319047050682410682e-01
1.500000000000000000e+02 1.104686335389572505e-01 4.867128110679483366e-02 2.364900598127319120e-01
1.600000000000000000e+02 1.146019494872062144e-01 5.315333397133068655e-02 1.966380231665196265e-01
1.700000000000000000e+02 5.812730624539350077e-02 2.931462017368152359e-02 1.161527782765006678e-01
1.800000000000000000e+02 4.438403592395175068e-02 2.340825626649212232e-02 7.481538620349346969e-02
1.900000000000000000e+02 3.481349663491208751e-02 1.723243189061858180e-02 5.815218171008192799e-02
2.000000000000000000e+02 3.526270869602946695e-02 1.768319751212471189e-02 6.034542741026575896e-02
2.100000000000000000e+02 4.417813533578627411e-02 2.231195207045651510e-02 7.457760553546990967e-02
2.200000000000000000e+02 5.408103330114680946e-02 2.605734429750009018e-02 9.710224432835720676e-02
2.300000000000000000e+02 5.923661300040315020e-02 2.891383294022938089e-02 1.047097673018151653e-01
2.400000000000000000e+02 6.726820802503320762e-02 3.403030114393092859e-02 1.055419183036851311e-01
2.500000000000000000e+02 4.798092025725169546e-02 2.336346450733269367e-02 7.875785909147847708e-02
2.600000000000000000e+02 8.540411373758054203e-02 3.775273085706185028e-02 1.475855614612497924e-01
2.700000000000000000e+02 1.426344522145062133e-01 6.102993424308350567e-02 2.703744970317453755e-01
2.800000000000000000e+02 1.394307752587502780e-01 6.021586767530111989e-02 2.518919951121423306e-01
2.900000000000000000e+02 7.558266110565617368e-02 3.487593156816284901e-02 1.279174577999024898e-01
3.000000000000000000e+02 4.159722518191608792e-02 2.051937367923628228e-02 6.923909041853019974e-02
3.100000000000000000e+02 3.268713072725277363e-02 1.591856840887049401e-02 5.500631360863823122e-02
3.200000000000000000e+02 3.246250974264503625e-02 1.667216458929317302e-02 5.368576599602738891e-02
3.300000000000000000e+02 3.282382370182607839e-02 1.592091937348101213e-02 5.407198853980057368e-02
3.400000000000000000e+02 3.445176762471586357e-02 1.707074340141238877e-02 5.529698945999268062e-02
3.500000000000000000e+02 3.327457310876162644e-02 1.670630998493518107e-02 5.388800412860404038e-02
3.600000000000000000e+02 3.098469101573947393e-02 1.545829252845899726e-02 5.132900781994832046e-02
3.700000000000000000e+02 3.045026150853068908e-02 1.462184431641462730e-02 4.978423299839987437e-02
3.800000000000000000e+02 3.410933251535246125e-02 1.718098522711057966e-02 5.561352891286788780e-02
3.900000000000000000e+02 3.858662184861102323e-02 2.039010364923436389e-02 6.320382161064654059e-02
4.000000000000000000e+02 3.743701753518693248e-02 1.888583693035155928e-02 6.021653462759322950e-02
4.100000000000000000e+02 3.644625956209549683e-02 1.814697807490432691e-02 5.979191085093906594e-02
4.200000000000000000e+02 4.108950287963009096e-02 2.002420337179842622e-02 6.619460267621510297e-02
4.300000000000000000e+02 3.861486103829579741e-02 1.889018502878705638e-02 6.236261189999575683e-02
4.400000000000000000e+02 3.533849266017117380e-02 1.715324889560517971e-02 5.619735872566824358e-02
4.500000000000000000e+02 3.178625535573396943e-02 1.578011503440665542e-02 5.132877667790566173e-02
4.600000000000000000e+02 2.853679769841375655e-02 1.504438217623279769e-02 4.691903996540766619e-02
4.700000000000000000e+02 3.256903405076624902e-02 1.658279734243289436e-02 5.185179838726867996e-02
4.800000000000000000e+02 4.530960344714810017e-02 2.497817885848187952e-02 6.756207520910220699e-02
4.900000000000000000e+02 3.075671841394117534e-02 1.612853115874885238e-02 5.010004806950243278e-02
5.000000000000000000e+02 2.502321673015240125e-02 1.232621363876607729e-02 4.210695750676512333e-02
5.100000000000000000e+02 2.566761322050528996e-02 1.272105827742946171e-02 4.202627959220838622e-02
5.200000000000000000e+02 2.586473162636047582e-02 1.296099695844339823e-02 4.236419426339319005e-02
5.300000000000000000e+02 3.016436811579698007e-02 1.550126123320641480e-02 4.891196510948617182e-02
5.400000000000000000e+02 3.653361647561537140e-02 1.846178570120440496e-02 5.696997328575461456e-02
5.500000000000000000e+02 3.214709003180574870e-02 1.555280519754043654e-02 5.227163249321643140e-02
5.600000000000000000e+02 3.283465662633573701e-02 1.636288772508685471e-02 5.226086991775386742e-02
5.700000000000000000e+02 3.385193918825551290e-02 1.723697957137767731e-02 5.580356425564895334e-02
5.800000000000000000e+02 3.264541856673944253e-02 1.629100682019089114e-02 5.475584685324113438e-02
5.900000000000000000e+02 3.011708969884926979e-02 1.471763523728948295e-02 4.979914473794198881e-02
6.000000000000000000e+02 3.392663177461708451e-02 1.736909646485848210e-02 5.392359675448931550e-02
6.100000000000000000e+02 2.784636992293981761e-02 1.318706324840917231e-02 4.529289146954464801e-02
6.200000000000000000e+02 3.329582377878791827e-02 1.685395350583304003e-02 5.577176999185521483e-02
6.300000000000000000e+02 1.173359272982527901e-01 6.097523778856842741e-02 1.891082685054819301e-01
6.400000000000000000e+02 1.390388061917322282e-01 7.001149020386457367e-02 2.168560031915964248e-01
6.500000000000000000e+02 9.453789627835604281e-02 4.571239669618250290e-02 1.535334153428413173e-01
6.600000000000000000e+02 1.035500073897134554e-01 5.458654227450790430e-02 1.753505857447632266e-01
6.700000000000000000e+02 8.681519074837300287e-02 4.111940223081901602e-02 1.406876456294960942e-01
6.800000000000000000e+02 7.335693345451507752e-02 3.509223140747530501e-02 1.188266795651939517e-01
6.900000000000000000e+02 6.539861261649572433e-02 3.386655270242718702e-02 1.068680464135126074e-01
7.000000000000000000e+02 4.592151699793343977e-02 2.172990489307390777e-02 7.451505878628336688e-02
7.100000000000000000e+02 4.107551258032310360e-02 2.077829222126816033e-02 6.655834521183359720e-02
7.200000000000000000e+02 6.271556584873103080e-02 3.115644536127983727e-02 9.717929418753405713e-02
7.300000000000000000e+02 4.716928376875645368e-02 2.455108110994924653e-02 7.839555485675409052e-02
7.400000000000000000e+02 2.413396345548632360e-02 1.253300902071007028e-02 3.912392271415981310e-02
7.500000000000000000e+02 2.370168068095137789e-02 1.155053811024021361e-02 3.888257746389927466e-02
7.600000000000000000e+02 2.715234798850222828e-02 1.338971224002709348e-02 4.418937673025879337e-02
7.700000000000000000e+02 3.309472132654880244e-02 1.683028235471368053e-02 5.365312623527472569e-02
7.800000000000000000e+02 4.502858549266873511e-02 2.280770421769286876e-02 7.359833081557778933e-02
7.900000000000000000e+02 8.203030815653095109e-02 4.120853934475635083e-02 1.335478166128482858e-01
8.000000000000000000e+02 1.691426545895541311e-01 9.000993238610348335e-02 2.649449784311244671e-01
8.100000000000000000e+02 1.809662102288291385e-01 9.688024918377309558e-02 2.813056726087382886e-01
8.200000000000000000e+02 1.240920459814548182e-01 6.425555182947442767e-02 2.000664866668934450e-01
8.300000000000000000e+02 1.284906910053971174e-01 6.233775937536246287e-02 2.034067896323380753e-01
8.400000000000000000e+02 3.168894813053730330e-01 2.073539185208716773e-01 4.351927585468945425e-01
8.500000000000000000e+02 3.690988527162184507e-01 2.148359952905170567e-01 5.314153217503144733e-01
8.600000000000000000e+02 2.057137767622769509e-01 1.091562891743939334e-01 3.337868517664180912e-01
8.700000000000000000e+02 1.450028814267741162e-01 7.741234505092722817e-02 2.333481105672670641e-01
8.800000000000000000e+02 8.480620946556248485e-02 4.259730607819908060e-02 1.444025767530774940e-01
8.900000000000000000e+02 5.670682191502614961e-02 3.007970344777411223e-02 9.525791188373837481e-02
9.000000000000000000e+02 6.119969408108599795e-02 3.087543306173092666e-02 9.809270395869335024e-02
9.100000000000000000e+02 7.438572697237487430e-02 3.799982167143033801e-02 1.195310028974699290e-01
9.200000000000000000e+02 6.298420278672089978e-02 3.122164555712453327e-02 1.035097775267416614e-01
9.300000000000000000e+02 4.555241387556847182e-02 2.197509163411950558e-02 7.313789561842277964e-02
9.400000000000000000e+02 3.642372642864876581e-02 1.832651627206150283e-02 5.930582172145829750e-02
9.500000000000000000e+02 3.473478816638267408e-02 1.728844200339745008e-02 5.655034995662213543e-02
9.600000000000000000e+02 4.288999564032831835e-02 2.121154554908973380e-02 7.036756030687935093e-02
9.700000000000000000e+02 4.782271789411374902e-02 2.533420705487103575e-02 7.768621886944963861e-02
9.800000000000000000e+02 5.254136779610483338e-02 2.560393035517971247e-02 8.435705208810086175e-02
9.900000000000000000e+02 6.077634612433536337e-02 3.090876994263080935e-02 9.777376847035544605e-02
1.000000000000000000e+03 8.295152731355887044e-02 4.119773927742395592e-02 1.369774678295087589e-01
1.100000000000000000e+03 7.339048931724258262e-02 3.642921509837342142e-02 1.192069135289755000e-01
1.200000000000000000e+03 5.425418421367542848e-02 2.765981046785052910e-02 8.822417196408752216e-02
1.300000000000000000e+03 4.185549315817593125e-02 2.079887911215333451e-02 6.900076075501804240e-02
1.400000000000000000e+03 3.333965778154082682e-02 1.664209204289407787e-02 5.479461653610561561e-02
1.500000000000000000e+03 3.680906052563883563e-02 1.837496539783419966e-02 6.040304002643193809e-02
1.600000000000000000e+03 3.532627867923666259e-02 1.762999630443341445e-02 5.798611608636506515e-02
1.700000000000000000e+03 2.569543353981805153e-02 1.271024700571941023e-02 4.249553364088464597e-02
1.800000000000000000e+03 2.384645835474911643e-02 1.164695247037641351e-02 3.948020903690818012e-02
1.900000000000000000e+03 2.414294932876299982e-02 1.196458569588408280e-02 4.007575831981813330e-02
2.000000000000000000e+03 2.431446547326961832e-02 1.214024031348661520e-02 4.050932396832386539e-02
2.100000000000000000e+03 2.515436005422733851e-02 1.234267389763669086e-02 4.166295718342457460e-02
2.200000000000000000e+03 2.541804449721896814e-02 1.250356290008354521e-02 4.224864167593388176e-02
2.300000000000000000e+03 2.564614418355510780e-02 1.305834369135735855e-02 4.318408645162145204e-02
2.400000000000000000e+03 2.673294259744783685e-02 1.307684761072269372e-02 4.430041077623646933e-02
2.500000000000000000e+03 2.712306421035527021e-02 1.341539788589671267e-02 4.540226042818877594e-02
2.600000000000000000e+03 2.797965896777374062e-02 1.391745039107718067e-02 4.560103877503998010e-02
2.700000000000000000e+03 2.866253519968036886e-02 1.407947133296103687e-02 4.749176572747151187e-02
2.800000000000000000e+03 2.948335705290777708e-02 1.469945535568466591e-02 4.874718763991398723e-02
2.900000000000000000e+03 3.079423637451628518e-02 1.525713689981083622e-02 5.044284532526994297e-02
3.000000000000000000e+03 3.187003891727756971e-02 1.598064273012449882e-02 5.238199634967392188e-02
3.100000000000000000e+03 3.327155114625691273e-02 1.643099765287418454e-02 5.464295885380723861e-02
3.200000000000000000e+03 3.464100349470164431e-02 1.675154396283832364e-02 5.692364057020217472e-02
3.300000000000000000e+03 3.910509359116830230e-02 1.951870302076683106e-02 6.396106303864483589e-02
3.400000000000000000e+03 3.854446610882187457e-02 1.904102325273658233e-02 6.384752512595184837e-02
3.500000000000000000e+03 3.747159978877795394e-02 1.873023978195365730e-02 6.123685346460952528e-02
3.600000000000000000e+03 4.304392562616228546e-02 2.172963527387759830e-02 7.045856465885121100e-02
3.700000000000000000e+03 5.134186919289661366e-02 2.594324555921012285e-02 8.079920511158224239e-02
3.800000000000000000e+03 4.425946209800366016e-02 2.213448937975745490e-02 7.221272994260713451e-02
3.900000000000000000e+03 4.078347281166976035e-02 2.049306074951496096e-02 6.722199428350528194e-02
4.000000000000000000e+03 4.218252174812953809e-02 2.101193127869672300e-02 6.953865415819437956e-02
4.100000000000000000e+03 4.199528814533989851e-02 2.095232371667858293e-02 6.855605233759357042e-02
4.200000000000000000e+03 4.197735061951515800e-02 2.088474396848674988e-02 6.935705020940148569e-02
4.300000000000000000e+03 4.228077653044354234e-02 2.081489500855888269e-02 6.959745511836741561e-02
4.400000000000000000e+03 4.292634824845629332e-02 2.155193810442253624e-02 7.031388643385010073e-02
4.500000000000000000e+03 4.338180245941562763e-02 2.145075019126153199e-02 7.078340855176511182e-02
4.600000000000000000e+03 4.347405701192908617e-02 2.178019075748875710e-02 7.203172211223650423e-02
4.700000000000000000e+03 4.482179895214263854e-02 2.197932153422920906e-02 7.459344434373166299e-02
4.800000000000000000e+03 5.904203405242164360e-02 2.838058636982033686e-02 1.015761695267289183e-01
4.900000000000000000e+03 9.155767008154382103e-02 5.036953678741437623e-02 1.323521021124497155e-01
5.000000000000000000e+03 7.895947059184554861e-02 3.907901217142463468e-02 1.246533410599620778e-01
5.100000000000000000e+03 4.926914771865414933e-02 2.433492051818699972e-02 8.533918471604637346e-02
5.200000000000000000e+03 4.312742194218301128e-02 2.104990690704810347e-02 7.193876049263699113e-02
5.300000000000000000e+03 4.240499483044230661e-02 2.100073667375892961e-02 7.069492210484719374e-02
5.400000000000000000e+03 4.192626539171703109e-02 2.078326448699123127e-02 6.986139652612724515e-02
5.500000000000000000e+03 4.195017750138295420e-02 2.056595011784879273e-02 6.936719484885550679e-02
5.600000000000000000e+03 4.167304064173135009e-02 2.082175940496490407e-02 6.995897683553493895e-02
5.700000000000000000e+03 4.146335287164960165e-02 2.050380831702284037e-02 6.844705320777438873e-02
5.800000000000000000e+03 4.194249728554214074e-02 2.061040783503961804e-02 6.817521867179870965e-02
5.900000000000000000e+03 4.120096547135818077e-02 2.061628281558160886e-02 6.874404988325250043e-02
6.000000000000000000e+03 4.118403196333144528e-02 2.042461202932929418e-02 6.840859702422154298e-02
6.100000000000000000e+03 4.179692509842319881e-02 2.046893903176123103e-02 6.940365711751529665e-02
6.200000000000000000e+03 4.180636236374511705e-02 2.120401212404219096e-02 6.968554826196256269e-02
6.300000000000000000e+03 4.139710756988315005e-02 2.074177147154690481e-02 6.820741698927725027e-02
6.400000000000000000e+03 4.118221792028591705e-02 2.028055303366785994e-02 6.748951024610766458e-02
6.500000000000000000e+03 4.071193785426355238e-02 2.042537353764083824e-02 6.753346706904427010e-02
6.600000000000000000e+03 4.108432838115280705e-02 2.020761831307172143e-02 6.708871079723267850e-02
6.700000000000000000e+03 4.069975984604418118e-02 2.021761591836866018e-02 6.749379229586567608e-02
6.800000000000000000e+03 4.116015584147392214e-02 2.048788574696516762e-02 6.739225091594013006e-02
6.900000000000000000e+03 4.148399362738660473e-02 2.008142425767042716e-02 6.838076923471297919e-02
7.000000000000000000e+03 4.118598027930429201e-02 2.067824072277177003e-02 6.808719213248320967e-02
7.100000000000000000e+03 4.241075922619612359e-02 2.093395549832099620e-02 7.110209711837812974e-02
7.200000000000000000e+03 5.038232055892118144e-02 2.405405649191837483e-02 9.376374963354525138e-02
7.300000000000000000e+03 7.767299419381361314e-02 3.376456456759450997e-02 1.327580781980182145e-01
7.400000000000000000e+03 9.495484426073799722e-02 4.512798879128396973e-02 1.440915037324545511e-01
7.500000000000000000e+03 7.283217620802522052e-02 3.227220425075488092e-02 1.290343572746072975e-01
7.600000000000000000e+03 4.931909316426227180e-02 2.374552038576386789e-02 8.929026658346352063e-02
7.700000000000000000e+03 4.413066817964874516e-02 2.167681595314028056e-02 7.254399403450206840e-02
7.800000000000000000e+03 4.319312503842372142e-02 2.164413042117143207e-02 7.064217714619726307e-02
7.900000000000000000e+03 4.310942559551045328e-02 2.079216455419065357e-02 7.092499780078194427e-02
8.000000000000000000e+03 4.331395117069573170e-02 2.149230406924764261e-02 7.185887041107236195e-02
8.100000000000000000e+03 4.385760674070672549e-02 2.179769555067043868e-02 7.213565642400295019e-02
8.200000000000000000e+03 4.556471636165549538e-02 2.241461402373770215e-02 7.422713902820111953e-02
8.300000000000000000e+03 4.835953903039285490e-02 2.410118440251397473e-02 8.474448753698461678e-02
8.400000000000000000e+03 6.000615413387357794e-02 2.742974425186469126e-02 1.783025009967487973e-01
8.500000000000000000e+03 1.260888160108486478e-01 4.106718252414298664e-02 3.225543397084276731e-01
8.600000000000000000e+03 2.403082303286572519e-01 6.564931840572280075e-02 3.581604167279273665e-01
8.700000000000000000e+03 1.975167136167958470e-01 5.183106374771542790e-02 3.554752763270698779e-01
8.800000000000000000e+03 7.683165962491778078e-02 3.283094295299221477e-02 2.784922999292189227e-01
8.900000000000000000e+03 5.391279508020781208e-02 2.633967274842846304e-02 1.033919956545582691e-01
9.000000000000000000e+03 4.877010136197772877e-02 2.394590842799875288e-02 8.173647297912672860e-02
9.100000000000000000e+03 4.772491510719716057e-02 2.368506820818472650e-02 7.950808749715472523e-02
9.200000000000000000e+03 4.760237801449603706e-02 2.376557194493019581e-02 7.816728470860716260e-02
9.300000000000000000e+03 4.846442663474165302e-02 2.377205100073559799e-02 7.941764772366800840e-02
9.400000000000000000e+03 4.857222575069729265e-02 2.412987312238098342e-02 8.076507062905385892e-02
9.500000000000000000e+03 5.051161022973862935e-02 2.505204424786864822e-02 8.399347071223448036e-02
9.600000000000000000e+03 5.597307528523127323e-02 2.702639328843933764e-02 1.008613579779917419e-01
9.700000000000000000e+03 7.166594962093879306e-02 3.309153062719547705e-02 1.417934281738178481e-01
9.800000000000000000e+03 9.596060693857541568e-02 4.259303857148821065e-02 1.646768615587755613e-01
9.900000000000000000e+03 9.825282974649558743e-02 4.269071433543063232e-02 1.668684388707674660e-01
1.000000000000000000e+04 7.449268104713549499e-02 3.383391237432077647e-02 1.474309284380474205e-01
1.010000000000000000e+04 5.951280205331094947e-02 2.853642437482434985e-02 1.072470048400278458e-01
1.020000000000000000e+04 5.356328930642166586e-02 2.631737480936188756e-02 9.135023288322305368e-02
1.030000000000000000e+04 5.176229095953908954e-02 2.539419017745618221e-02 8.612642123416611173e-02
1.040000000000000000e+04 5.178749288595457106e-02 2.591053332591009353e-02 8.596875546051530037e-02
1.050000000000000000e+04 5.302875941951323141e-02 2.607752829627579816e-02 8.740791221422446189e-02
1.060000000000000000e+04 5.475201400357265769e-02 2.723633024164357624e-02 8.975171889939247138e-02
1.070000000000000000e+04 5.699203405711849441e-02 2.773557500627024316e-02 9.877309256761061806e-02
1.080000000000000000e+04 6.435407744558395426e-02 3.108933912587691015e-02 1.423045683978290954e-01
1.090000000000000000e+04 8.649683070869079726e-02 3.675085512122602815e-02 3.264297853258767423e-01
1.100000000000000000e+04 1.727143682271088110e-01 5.013893237721296636e-02 3.941931264473791940e-01
1.110000000000000000e+04 2.197214545909528527e-01 5.735394283561798257e-02 4.102473393077714081e-01
1.120000000000000000e+04 1.396705761532149870e-01 4.613827812720096289e-02 3.928656724822697233e-01
1.130000000000000000e+04 8.001183181713995840e-02 3.555855924520626848e-02 2.954614467852509918e-01
1.140000000000000000e+04 6.394239478578121749e-02 3.083147198994249175e-02 1.244876185070481062e-01
1.150000000000000000e+04 5.855916513883225455e-02 2.874461240407947052e-02 9.899231229299174095e-02
1.160000000000000000e+04 5.692126745233521551e-02 2.833659063375324610e-02 9.419161492748422126e-02
1.170000000000000000e+04 5.665163270283991165e-02 2.792157614599181589e-02 9.248239390620255351e-02
1.180000000000000000e+04 5.724370029415463967e-02 2.882783501579512173e-02 9.367304230027689860e-02
1.190000000000000000e+04 5.748004014188373006e-02 2.857581171431805567e-02 9.456336509603158191e-02
1.200000000000000000e+04 5.775750072616589459e-02 2.892560938975423379e-02 9.492647516451785394e-02
1.210000000000000000e+04 5.919917560620417685e-02 2.959483662142411639e-02 9.640327401564559306e-02
1.220000000000000000e+04 6.022411908584788393e-02 2.981407254969788145e-02 9.919934845872509233e-02
1.230000000000000000e+04 6.411927794729491148e-02 3.201954022902970404e-02 1.055331580632626748e-01
1.240000000000000000e+04 6.192246722399799563e-02 3.042389002416761440e-02 1.016871749863268864e-01
1.250000000000000000e+04 5.961139816145987619e-02 2.938521496486015683e-02 9.747815100468559812e-02
1.260000000000000000e+04 5.878332320028781255e-02 2.927174622917611685e-02 9.636260382491737553e-02
1.270000000000000000e+04 5.820674500959061720e-02 2.947322381629790752e-02 9.562127818898270848e-02
1.280000000000000000e+04 5.829105009781191532e-02 2.901089090054180530e-02 9.582875516435915286e-02
1.290000000000000000e+04 5.794959027816863617e-02 2.835912602485802028e-02 9.595090142267247157e-02
1.300000000000000000e+04 5.847973724111425048e-02 2.910342380827609515e-02 9.626363249614683371e-02
1.310000000000000000e+04 5.948026656913150273e-02 2.933194256206052286e-02 9.704903038773877999e-02
1.320000000000000000e+04 6.001601696677744818e-02 3.025244147454089760e-02 9.803517421148445765e-02
1.330000000000000000e+04 6.121132298296775437e-02 3.070836356058757183e-02 1.008822743586999249e-01
1.340000000000000000e+04 6.326661125418253651e-02 3.181242417689597590e-02 1.039659894489933789e-01
1.350000000000000000e+04 6.574811984863387915e-02 3.314847428060559847e-02 1.082692620423836988e-01
1.360000000000000000e+04 6.641887072222435462e-02 3.303747484057648065e-02 1.086681304939401405e-01
1.370000000000000000e+04 6.538192966713209098e-02 3.243351265958016594e-02 1.081755889895448103e-01
1.380000000000000000e+04 6.265879573350148501e-02 3.128968783794354447e-02 1.030495297378555414e-01
1.390000000000000000e+04 5.970545074435839455e-02 2.955200056037615014e-02 9.858996654051244146e-02
1.400000000000000000e+04 5.937304403383570489e-02 2.910371066515716337e-02 9.767671444463266184e-02
1.410000000000000000e+04 5.900212982866591405e-02 2.903874100330348929e-02 9.709945117996023056e-02
1.420000000000000000e+04 5.881801754158013512e-02 2.928012346432929194e-02 9.669568117514558414e-02
1.430000000000000000e+04 5.905106538836746299e-02 2.978157037554600775e-02 9.756227232280027806e-02
1.440000000000000000e+04 5.950621505474047029e-02 2.949322173496000607e-02 9.776042148768447626e-02
1.450000000000000000e+04 6.036496281814258957e-02 2.944899913694629806e-02 9.929429793748480171e-02
1.460000000000000000e+04 6.158839667337031448e-02 3.095069010767588849e-02 1.016173116098763318e-01
1.470000000000000000e+04 6.277695949103402617e-02 3.089879929062364777e-02 1.035970121539469407e-01
1.480000000000000000e+04 6.373907271686678200e-02 3.144524987020960033e-02 1.040130837576570960e-01
1.490000000000000000e+04 6.240844461472646459e-02 3.120619665201875698e-02 1.020225010685657935e-01
1.500000000000000000e+04 6.057219354241510922e-02 2.958649567147645168e-02 9.979395438836506649e-02
1.510000000000000000e+04 5.967756212528357862e-02 2.948600807652606778e-02 9.822949750439577410e-02
1.520000000000000000e+04 5.815543518635616499e-02 2.929105408126108853e-02 9.608314812389988357e-02
1.530000000000000000e+04 5.844183933403848674e-02 2.958690344006052048e-02 9.524594759054066939e-02
1.540000000000000000e+04 5.802467696127017183e-02 2.933340508535291907e-02 9.487405936262399697e-02
1.550000000000000000e+04 5.857489948016707942e-02 2.903716747747005569e-02 9.588002636772893772e-02
1.560000000000000000e+04 5.977282140441957103e-02 2.953935922399580569e-02 9.715666406345999095e-02
1.570000000000000000e+04 6.411688279562555159e-02 3.139884566685264417e-02 1.029661785805413843e-01
1.580000000000000000e+04 6.206510896369564489e-02 3.058578035486427329e-02 1.004769454958442526e-01
1.590000000000000000e+04 6.122085754262296398e-02 3.014118617026394914e-02 9.984935633522833143e-02
1.600000000000000000e+04 6.133566242302237320e-02 3.024250739869510651e-02 1.001371976363748806e-01
1.610000000000000000e+04 6.110801433204886973e-02 3.039500040604879369e-02 9.961434074846217679e-02
1.620000000000000000e+04 5.971193618225862504e-02 3.008775926699669076e-02 9.761183414279470116e-02
1.630000000000000000e+04 5.892872453736138633e-02 2.902717525330980944e-02 9.641120540454224674e-02
1.640000000000000000e+04 5.753659337574137944e-02 2.825420703208398471e-02 9.459515563015336026e-02
1.650000000000000000e+04 5.636074929091504371e-02 2.849185055754931487e-02 9.322114510107211427e-02
1.660000000000000000e+04 5.814938693309562590e-02 2.892584064094255725e-02 9.497225590258132066e-02
1.670000000000000000e+04 6.571900504008762467e-02 3.352206912564435759e-02 1.059738164457300208e-01
1.680000000000000000e+04 5.942244636469463243e-02 2.958762955104809328e-02 9.632579399836319056e-02
1.690000000000000000e+04 5.522247735614763814e-02 2.755449707871106615e-02 9.156614150073297265e-02
1.700000000000000000e+04 5.599003356026629324e-02 2.749410181618371779e-02 9.146518931173044931e-02
1.710000000000000000e+04 5.677579499098228677e-02 2.827090091273295677e-02 9.407056427350554695e-02
1.720000000000000000e+04 5.806108168747802639e-02 2.908969352890175900e-02 9.430494993402770143e-02
1.730000000000000000e+04 5.678222830472827443e-02 2.882661251022764284e-02 9.268270334438374891e-02
1.740000000000000000e+04 5.621694962045649391e-02 2.804325176174950196e-02 9.222132256324287736e-02
1.750000000000000000e+04 5.620046757766491985e-02 2.832111665772926029e-02 9.183759733225158040e-02
1.760000000000000000e+04 5.535406531642746153e-02 2.788314415827822940e-02 9.023136421863582612e-02
1.770000000000000000e+04 5.471499307535793166e-02 2.744191045747790270e-02 8.932664755647684585e-02
1.780000000000000000e+04 5.437037314196094956e-02 2.687304783076290005e-02 8.919016166555455982e-02
1.790000000000000000e+04 5.438538162086934552e-02 2.685391772923783824e-02 8.880401408850405187e-02
1.800000000000000000e+04 5.410415823346875069e-02 2.673300450917779486e-02 8.887122593371719892e-02
1.810000000000000000e+04 5.407257997245949049e-02 2.711013174761132960e-02 8.968176537255011238e-02
1.820000000000000000e+04 5.434770849652947877e-02 2.712839783935828974e-02 8.793043145535553440e-02
1.830000000000000000e+04 5.366354050287544530e-02 2.681257065434248729e-02 8.792860765951997226e-02
1.840000000000000000e+04 5.415170843504469450e-02 2.683988795467585203e-02 8.772291179090084545e-02
1.850000000000000000e+04 5.468670041874253845e-02 2.749216179958093378e-02 8.889680026660182199e-02
1.860000000000000000e+04 5.409464846415977524e-02 2.720741548955081524e-02 8.788535605939591655e-02
1.870000000000000000e+04 5.320323491680613998e-02 2.651760929201951028e-02 8.686622801091349599e-02
1.880000000000000000e+04 5.334185680060263973e-02 2.648706251199602069e-02 8.640016118447368942e-02
1.890000000000000000e+04 5.358533249307462915e-02 2.663372058164318809e-02 8.751170958629170271e-02
1.900000000000000000e+04 5.328903289081566436e-02 2.659271799297491592e-02 8.672700830122892501e-02
1.910000000000000000e+04 5.509804109469461364e-02 2.756475585820841040e-02 9.053981737924941819e-02
1.920000000000000000e+04 6.818542509533719043e-02 3.507024589739665688e-02 1.077869596232649552e-01
1.930000000000000000e+04 6.301883645162047187e-02 3.126322004377828090e-02 1.012519862902565571e-01
1.940000000000000000e+04 5.559611536092448625e-02 2.815288401717740488e-02 9.050914044715872853e-02
1.950000000000000000e+04 5.423574935880992598e-02 2.680678329022451178e-02 8.828898977407385884e-02
1.960000000000000000e+04 5.311052586992726088e-02 2.600401243338702761e-02 8.725399518702338375e-02
1.970000000000000000e+04 5.284649131546968054e-02 2.637224521941386804e-02 8.641641567167557270e-02
1.980000000000000000e+04 5.350246311075725070e-02 2.665682307794720735e-02 8.618170127606529507e-02
1.990000000000000000e+04 5.280050863651263027e-02 2.661764616748175591e-02 8.522293656709258036e-02
2.000000000000000000e+04 5.215248634573733943e-02 2.621988411545896763e-02 8.465241757947328249e-02
2.010000000000000000e+04 5.222695088880999204e-02 2.565156757178863739e-02 8.436678314348503016e-02
2.020000000000000000e+04 5.292238910747559116e-02 2.626503307857323832e-02 8.605224851409234987e-02
2.030000000000000000e+04 5.620043640629782816e-02 2.859243660729283640e-02 9.226960458461641590e-02
2.040000000000000000e+04 1.478532654292502302e-01 9.928138267838736153e-02 1.989879185617678958e-01
2.050000000000000000e+04 9.799183831200400929e-01 9.256910639325917067e-01 1.036784917717556542e+00
2.060000000000000000e+04 1.158023197026152973e+00 1.108804052422623032e+00 1.206711009362522402e+00
2.070000000000000000e+04 3.094884713546222632e-01 2.541824255790102738e-01 3.613063790172132417e-01
2.080000000000000000e+04 5.972876078658528182e-02 3.067173422992627851e-02 9.738227563166342027e-02
2.090000000000000000e+04 5.312941192231833420e-02 2.659671924862303666e-02 8.659175724207668345e-02
2.100000000000000000e+04 5.183748630223678627e-02 2.624903964889028704e-02 8.441251075444744512e-02
2.110000000000000000e+04 5.212928851071940012e-02 2.581050450356473652e-02 8.574663506714073902e-02
2.120000000000000000e+04 5.184308591137812283e-02 2.537551202498750103e-02 8.377531810018030989e-02
2.130000000000000000e+04 5.163153022936448067e-02 2.580215290291024144e-02 8.385204819271521726e-02
2.140000000000000000e+04 5.334609094214189801e-02 2.689461070826113659e-02 8.682320218769411235e-02
2.150000000000000000e+04 5.506163880305675606e-02 2.752601249611582451e-02 9.098076026861369459e-02
2.160000000000000000e+04 5.234682112461563896e-02 2.628149569954189163e-02 8.509139289226502756e-02
2.170000000000000000e+04 5.058675558686505369e-02 2.515634050554585444e-02 8.348626924848091824e-02
2.180000000000000000e+04 5.085922557254721199e-02 2.542894693110335155e-02 8.254515549856845935e-02
2.190000000000000000e+04 4.983586573589279117e-02 2.551084409353338717e-02 8.161793181872085967e-02
2.200000000000000000e+04 4.969791072042051977e-02 2.516723639664088588e-02 8.099835358550737385e-02
2.210000000000000000e+04 4.947921196159064255e-02 2.493631281440743946e-02 8.068381947500831430e-02
2.220000000000000000e+04 5.011625176219652172e-02 2.497498809258983168e-02 8.164615934282108689e-02
2.230000000000000000e+04 5.067284795190194618e-02 2.513840533652486955e-02 8.154967396493657816e-02
2.240000000000000000e+04 4.949909617374054216e-02 2.467541200919667541e-02 8.107305222775985920e-02
2.250000000000000000e+04 4.922660401944693037e-02 2.462922344375749126e-02 8.109553237249379765e-02
2.260000000000000000e+04 4.947328181475271758e-02 2.489253213104426765e-02 8.011619608806608284e-02
2.270000000000000000e+04 4.933447503161078607e-02 2.501118769494346458e-02 8.037931151128852036e-02
2.280000000000000000e+04 4.889839420632048628e-02 2.442565056604028076e-02 7.973328252730982335e-02
2.290000000000000000e+04 4.937857366301532519e-02 2.461486094799711019e-02 8.066724487359121232e-02
2.300000000000000000e+04 4.952274389208956296e-02 2.469488333795502935e-02 8.089225450698897535e-02
2.310000000000000000e+04 4.915478421666092529e-02 2.453962004366608274e-02 8.113527442657288147e-02
2.320000000000000000e+04 4.975644361839764301e-02 2.486259619032766058e-02 8.133248467907941426e-02
2.330000000000000000e+04 5.032050295795457290e-02 2.542482561360154270e-02 8.204813537538782620e-02
2.340000000000000000e+04 5.035058352554289823e-02 2.498097597038644382e-02 8.240797511570563394e-02
2.350000000000000000e+04 4.997751970998275117e-02 2.511025996719037923e-02 8.171383456915512489e-02
2.360000000000000000e+04 4.973029480366183974e-02 2.480512865083117288e-02 8.033869001265871168e-02
2.370000000000000000e+04 4.990474449425828102e-02 2.498820804258026357e-02 8.140512055779396128e-02
2.380000000000000000e+04 5.071428769243856854e-02 2.525646090387095866e-02 8.278721013687778685e-02
2.390000000000000000e+04 4.988378110587141090e-02 2.515914697313535731e-02 8.087408508223921377e-02
2.400000000000000000e+04 5.095296563683580221e-02 2.495278054303452092e-02 8.224195937997745565e-02
2.410000000000000000e+04 4.924777398030360381e-02 2.483294843536877627e-02 8.042864299851058829e-02
2.420000000000000000e+04 4.937563106638516441e-02 2.487644485000009911e-02 8.013288266216823941e-02
2.430000000000000000e+04 4.851857081915068176e-02 2.385996192824730786e-02 7.878691193434880780e-02
2.440000000000000000e+04 4.777154296138336892e-02 2.384885390438012953e-02 7.772682071355230260e-02
2.450000000000000000e+04 4.758874158301183710e-02 2.390291421536337030e-02 7.862015828587735899e-02
2.460000000000000000e+04 4.885917061840164971e-02 2.405692250893408032e-02 7.933824545140345796e-02
2.470000000000000000e+04 4.798753442394880497e-02 2.414290508864258902e-02 7.771331279068996456e-02
2.480000000000000000e+04 4.772826860274510113e-02 2.360577372125825107e-02 7.773690553239813450e-02
2.490000000000000000e+04 4.761356077100842299e-02 2.349898433571905379e-02 7.787680174891557783e-02
2.500000000000000000e+04 4.718074809796707347e-02 2.347304777701223616e-02 7.697186868166878970e-02
2.510000000000000000e+04 4.716682252470040526e-02 2.365905372487003486e-02 7.629184379837052055e-02
2.520000000000000000e+04 4.732092517548766586e-02 2.355483165475567506e-02 7.755615219091194223e-02
2.530000000000000000e+04 4.738218593823109032e-02 2.418979887930084241e-02 7.695364408744156948e-02
2.540000000000000000e+04 4.746420108780498304e-02 2.359852859087541513e-02 7.678699933205859751e-02
2.550000000000000000e+04 4.777920007733633262e-02 2.360480139248710002e-02 7.741893170580714523e-02
2.560000000000000000e+04 4.799513718510931698e-02 2.381302880987353626e-02 7.714025232829836709e-02
2.570000000000000000e+04 4.722793320818775842e-02 2.355817987442151290e-02 7.771971688243678456e-02
2.580000000000000000e+04 4.663486418875131129e-02 2.301698261341984103e-02 7.626485120892699532e-02
2.590000000000000000e+04 4.653812538461928744e-02 2.352792303492151973e-02 7.579269409373579069e-02
2.600000000000000000e+04 4.658989870292241237e-02 2.289305599455240814e-02 7.646051520804783563e-02
2.610000000000000000e+04 4.728974103465460876e-02 2.373456132473238805e-02 7.719945468633751529e-02
2.620000000000000000e+04 4.747290176083655139e-02 2.336724021688621131e-02 7.676385081472235361e-02
2.630000000000000000e+04 4.700228901483120836e-02 2.363744001806366429e-02 7.588707970255499646e-02
2.640000000000000000e+04 4.652949958220936599e-02 2.317655913864435924e-02 7.570403695091779128e-02
2.650000000000000000e+04 4.662916988783583072e-02 2.302940091460033492e-02 7.544678636571033881e-02
2.660000000000000000e+04 4.609083982561984483e-02 2.328099078871199989e-02 7.503362480361200348e-02
2.670000000000000000e+04 4.611800801602062433e-02 2.268451080651895033e-02 7.509632259848844638e-02
2.680000000000000000e+04 4.530224204133061205e-02 2.276053927633209586e-02 7.407032143125576173e-02
2.690000000000000000e+04 4.525526032215137356e-02 2.298586613203571979e-02 7.445522859369710367e-02
2.700000000000000000e+04 4.539850988215154287e-02 2.242206552059559932e-02 7.413028834766381692e-02
2.710000000000000000e+04 4.643990939736572510e-02 2.311776701710779522e-02 7.623331614994668937e-02
2.720000000000000000e+04 4.617416650585800392e-02 2.317200178096221960e-02 7.531826957689914670e-02
2.730000000000000000e+04 4.559908792513679698e-02 2.291378979578650998e-02 7.479356328288487565e-02
2.740000000000000000e+04 4.544746791449862100e-02 2.246737249818532914e-02 7.422519687329155735e-02
2.750000000000000000e+04 4.530140365670880936e-02 2.250802816931853426e-02 7.309259107270602018e-02
2.760000000000000000e+04 4.568232463160584039e-02 2.286653027027867394e-02 7.439880409669899497e-02
2.770000000000000000e+04 5.457293821243474480e-02 2.791695445113995255e-02 8.718360782210134163e-02
2.780000000000000000e+04 2.239391085672519099e-01 1.788617653849678135e-01 2.652066365332991227e-01
2.790000000000000000e+04 1.357265255880413024e+00 1.310308154778450529e+00 1.401832581202620664e+00
2.800000000000000000e+04 1.515701414860009866e+00 1.472821517595984009e+00 1.559939838705810544e+00
2.810000000000000000e+04 3.676486033799484798e-01 3.215275326500949271e-01 4.147805056706412308e-01
2.820000000000000000e+04 6.060886833176637456e-02 3.167760371472595760e-02 9.451250568328958823e-02
2.830000000000000000e+04 4.471039595809032929e-02 2.261111852582712092e-02 7.338077993099842433e-02
2.840000000000000000e+04 4.296707049694960950e-02 2.148366421694859751e-02 6.998570301970163943e-02
2.850000000000000000e+04 4.306444213203029087e-02 2.093467658950508639e-02 6.942168397461750962e-02
2.860000000000000000e+04 4.228000423425397336e-02 2.118122728068342828e-02 6.951482861200797281e-02
2.870000000000000000e+04 4.338218848684714801e-02 2.168708576346602482e-02 7.025679317288499592e-02
2.880000000000000000e+04 5.193679155470495162e-02 2.634062594840430593e-02 8.251316910579778452e-02
2.890000000000000000e+04 4.662125300975121511e-02 2.336113713707713146e-02 7.530152606701080720e-02
2.900000000000000000e+04 4.191581880432152657e-02 2.099026362089876502e-02 6.828241552066963149e-02
2.910000000000000000e+04 4.178702784093372286e-02 2.062308805925181995e-02 6.830161217330053824e-02
2.920000000000000000e+04 4.140808015060146174e-02 2.042120759951394568e-02 6.785406109153935272e-02
2.930000000000000000e+04 4.209554136874385510e-02 2.078169275157243368e-02 6.848437763308712345e-02
2.940000000000000000e+04 4.127086110972374988e-02 2.072479999933597716e-02 6.769077716111027154e-02
2.950000000000000000e+04 4.106431416541465179e-02 2.024628848338179410e-02 6.740659295387405048e-02
2.960000000000000000e+04 4.139810173215106165e-02 2.062023787675456438e-02 6.693972770929507154e-02
2.970000000000000000e+04 4.087644867404112425e-02 2.067573449322212056e-02 6.684478098216058151e-02
2.980000000000000000e+04 4.354141740771257096e-02 2.196074259543905755e-02 7.135323767415442664e-02
2.990000000000000000e+04 5.328082148620649078e-02 2.679193086101608681e-02 8.727765744641534373e-02
3.000000000000000000e+04 4.523148107682920666e-02 2.284996094951737347e-02 7.383862379974724666e-02
3.010000000000000000e+04 4.343947828682979267e-02 2.180428531375692286e-02 7.205767118985970110e-02
3.020000000000000000e+04 4.589315846302648161e-02 2.306150699190115047e-02 7.445237063925057297e-02
3.030000000000000000e+04 4.137061880775260575e-02 2.089267316421603016e-02 6.719290162211277728e-02
3.040000000000000000e+04 5.705270322733758254e-02 2.831082566929126951e-02 9.250508613552284320e-02
3.050000000000000000e+04 7.881695523011099380e-02 4.017498704993328895e-02 1.288999901601507736e-01
3.060000000000000000e+04 5.995669363814337682e-02 3.037510006535705520e-02 9.883893015098343948e-02
3.070000000000000000e+04 8.028384911776793864e-02 4.026097333771541664e-02 1.315873218780328480e-01
3.080000000000000000e+04 5.585046330364396017e-02 2.735328023000926229e-02 9.051292948371202074e-02
3.090000000000000000e+04 7.322416803815515185e-02 3.898966119417882764e-02 1.123315334087259670e-01
3.100000000000000000e+04 1.391638913949681811e-01 9.842110983952538639e-02 1.773019828748781945e-01
3.110000000000000000e+04 8.913279736065833625e-02 4.467846872856329199e-02 1.323659894920131141e-01
3.120000000000000000e+04 4.038264980044624364e-02 2.007226076570493845e-02 6.630421977938667777e-02
3.130000000000000000e+04 3.963731226893395937e-02 2.009347959160284053e-02 6.499713540279238033e-02
3.140000000000000000e+04 4.137473325429516513e-02 2.081406999272033057e-02 6.722841599523723954e-02
3.150000000000000000e+04 3.981976171831685951e-02 1.990983243371706457e-02 6.524460092392941890e-02
3.160000000000000000e+04 3.884749230740690285e-02 1.942331130854167698e-02 6.282229274133881158e-02
3.170000000000000000e+04 3.873226848804885852e-02 1.918509272978788024e-02 6.246686672041384253e-02
3.180000000000000000e+04 3.883065547065265438e-02 1.914000365847962071e-02 6.284440219436350505e-02
3.190000000000000000e+04 3.844864369003468674e-02 1.887595944337606968e-02 6.322176639793677944e-02
3.200000000000000000e+04 3.873433287820717691e-02 1.916036359112049947e-02 6.341687577015527044e-02
3.210000000000000000e+04 3.829058396456223173e-02 1.927973744716542093e-02 6.235172491534795441e-02
3.220000000000000000e+04 3.797816106760600052e-02 1.932078315357960846e-02 6.297646041478417722e-02
3.230000000000000000e+04 3.824816187553621571e-02 1.913438649975351610e-02 6.205967265422340784e-02
3.240000000000000000e+04 3.809342092213974240e-02 1.895407486716076118e-02 6.220771333793156943e-02
3.250000000000000000e+04 3.836130429429158301e-02 1.882473637535298644e-02 6.224265800950670030e-02
3.260000000000000000e+04 3.838573104353865811e-02 1.895283907801016687e-02 6.245823406234866926e-02
3.270000000000000000e+04 3.770085042642606216e-02 1.848681990093798203e-02 6.101518299242268684e-02
3.280000000000000000e+04 3.781508712458837157e-02 1.887241567330257344e-02 6.120909266137576632e-02
3.290000000000000000e+04 3.775871396824414389e-02 1.903541304957375932e-02 6.167714211846517247e-02
3.300000000000000000e+04 4.340132681586788416e-02 2.192556075098492721e-02 6.968779054068534318e-02
3.310000000000000000e+04 7.736813814767919129e-02 4.749422646082993027e-02 1.080134224900857476e-01
3.320000000000000000e+04 5.848798213581066913e-02 3.085799625974425600e-02 8.924034983206577398e-02
3.330000000000000000e+04 3.790315444575761972e-02 1.888716602653312329e-02 6.123244836201902075e-02
3.340000000000000000e+04 3.732301110695250557e-02 1.903542070946238202e-02 6.085501800717807441e-02
3.350000000000000000e+04 3.699102945076085391e-02 1.840408889668916984e-02 6.014839326279089460e-02
3.360000000000000000e+04 3.675917707834065740e-02 1.799423251612305985e-02 6.034711496252601753e-02
3.370000000000000000e+04 3.661655937478854039e-02 1.837636583213034247e-02 5.923329409418632424e-02
3.380000000000000000e+04 3.631734003982366871e-02 1.803308108111975616e-02 5.919320707358170786e-02
3.390000000000000000e+04 3.610786684749461156e-02 1.818487021118876668e-02 5.894837506149704781e-02
3.400000000000000000e+04 3.589478028800445475e-02 1.815751027613490831e-02 5.850117295566738956e-02
3.410000000000000000e+04 3.617782560598347547e-02 1.805090244267537614e-02 5.908869274485869377e-02
3.420000000000000000e+04 3.599619240057648495e-02 1.788051361369948078e-02 5.878121563709609587e-02
3.430000000000000000e+04 3.606320348102366735e-02 1.813027405198026215e-02 5.886502774997107168e-02
3.440000000000000000e+04 3.612124823908891003e-02 1.802914641393022280e-02 5.874621166399470601e-02
3.450000000000000000e+04 3.618129059552072785e-02 1.768225922135703565e-02 5.857968932335694962e-02
3.460000000000000000e+04 3.556902398815907362e-02 1.782344893033564748e-02 5.820319682971627356e-02
3.470000000000000000e+04 3.516158643806915202e-02 1.726517961177934102e-02 5.780936800899046102e-02
3.480000000000000000e+04 3.521372044274086871e-02 1.749706117500305150e-02 5.715230958140567197e-02
3.490000000000000000e+04 3.492156916954901325e-02 1.736977658601186400e-02 5.713389371831911756e-02
3.500000000000000000e+04 3.513634960977012750e-02 1.733970589536215287e-02 5.726645065483434993e-02
3.510000000000000000e+04 3.486947350853532301e-02 1.747891825469296764e-02 5.707545212243458205e-02
3.520000000000000000e+04 3.502409640113805789e-02 1.779574901414804691e-02 5.732660322500190975e-02
3.530000000000000000e+04 3.762408764576077869e-02 1.848535175878396331e-02 6.081800477083247614e-02
3.540000000000000000e+04 3.755251980781870030e-02 1.901156761308527010e-02 6.088899331197578785e-02
3.550000000000000000e+04 3.450512569835174903e-02 1.733403584565327074e-02 5.657813647293804399e-02
3.560000000000000000e+04 3.454814761682990787e-02 1.727221243021032429e-02 5.691693890715547599e-02
3.570000000000000000e+04 3.508050681968994527e-02 1.708220222879633030e-02 5.665638742432769354e-02
3.580000000000000000e+04 3.447595779291789952e-02 1.723275372169294148e-02 5.652228189128048752e-02
3.590000000000000000e+04 3.438147785585347199e-02 1.679864938107817479e-02 5.601495893597237263e-02
3.600000000000000000e+04 3.438562663032632832e-02 1.707339762929368718e-02 5.584412056802955104e-02
3.610000000000000000e+04 3.480804703385628057e-02 1.701546345793432738e-02 5.609555876852978518e-02
3.620000000000000000e+04 3.424007014211568473e-02 1.702813051318963211e-02 5.579311963975233657e-02
3.630000000000000000e+04 3.451137526277450740e-02 1.735265103019708460e-02 5.588687364074498842e-02
3.640000000000000000e+04 3.390972107395257007e-02 1.730647237699885210e-02 5.516380588979464400e-02
3.650000000000000000e+04 3.305430438336209864e-02 1.639493785493812555e-02 5.449383619542900320e-02
3.660000000000000000e+04 3.399828922735218667e-02 1.693746699732951930e-02 5.577499192618537438e-02
3.670000000000000000e+04 3.416669988949826847e-02 1.709616154756012432e-02 5.543958216895821661e-02
3.680000000000000000e+04 3.385909365136950677e-02 1.685048440750886237e-02 5.534676607021526279e-02
3.690000000000000000e+04 3.385666294353369132e-02 1.720521791017252944e-02 5.525459657762921140e-02
3.700000000000000000e+04 4.866272157402948967e-02 2.457860415694038819e-02 7.957395727731085555e-02
3.710000000000000000e+04 6.967144949955045297e-02 3.457281224380142487e-02 1.158950660477611194e-01
3.720000000000000000e+04 5.215891021883871381e-02 2.583265923364004221e-02 8.470043894283987851e-02
3.730000000000000000e+04 7.214137691673767894e-02 3.604879886823367935e-02 1.182180415109897881e-01
3.740000000000000000e+04 5.023858674637882160e-02 2.527725031029461056e-02 8.157267786948170507e-02
3.750000000000000000e+04 3.533655382762949937e-02 1.764529875702730219e-02 5.679796266335960381e-02
3.760000000000000000e+04 8.138376272705609427e-02 5.362787052610680505e-02 1.089921770543436225e-01
3.770000000000000000e+04 9.011759567827823392e-02 6.320290260583187603e-02 1.168624258365250634e-01
3.780000000000000000e+04 3.750231135362279422e-02 1.891188936779795646e-02 6.082131485532964177e-02
3.790000000000000000e+04 3.292860493621510565e-02 1.649196606650944405e-02 5.390040534093318986e-02
3.800000000000000000e+04 3.256067410248791177e-02 1.647654909068040768e-02 5.282550602256039923e-02
3.810000000000000000e+04 3.358384131276896667e-02 1.666135108546406771e-02 5.346484219898665208e-02
3.820000000000000000e+04 3.988817221532480611e-02 1.997212100115774297e-02 6.540536116718070891e-02
3.830000000000000000e+04 4.655303705938097086e-02 2.306927662675046717e-02 7.545808681452355338e-02
3.840000000000000000e+04 3.986082095903672323e-02 2.000925892003621587e-02 6.511901956827728655e-02
3.850000000000000000e+04 3.532721784960506789e-02 1.781736861023216351e-02 5.720922896764624177e-02
3.860000000000000000e+04 3.241094651258220882e-02 1.656927803929074752e-02 5.306984026099607205e-02
3.870000000000000000e+04 3.191483103220239120e-02 1.586907464463027315e-02 5.236701078146630689e-02
3.880000000000000000e+04 3.149261601886605560e-02 1.582624650804710306e-02 5.133806081449017455e-02
3.890000000000000000e+04 3.166393972175018251e-02 1.609409330243318989e-02 5.176930539963234962e-02
3.900000000000000000e+04 3.243360481445502902e-02 1.622531624309635906e-02 5.239209605655954088e-02
3.910000000000000000e+04 3.670940505464512227e-02 1.860455400788500746e-02 6.006560649271049795e-02
3.920000000000000000e+04 8.487446206594789766e-02 5.551150520552430856e-02 1.131730797922437248e-01
3.930000000000000000e+04 8.235152485512693687e-02 5.322099361716026156e-02 1.130805254263989867e-01
3.940000000000000000e+04 3.638346405511529852e-02 1.789045677609028134e-02 6.031770431363643603e-02
3.950000000000000000e+04 3.120857581345993018e-02 1.586446053476962825e-02 5.084408493206386825e-02
3.960000000000000000e+04 3.114644379483882952e-02 1.545472642903810562e-02 5.070715058037651712e-02
3.970000000000000000e+04 3.112316244047411834e-02 1.538826515401497085e-02 5.086844356357918956e-02
3.980000000000000000e+04 3.134986471050033030e-02 1.530602229540958294e-02 5.094386026318460658e-02
3.990000000000000000e+04 3.133475234411747801e-02 1.548867552590376881e-02 5.099356570964382745e-02
4.000000000000000000e+04 3.101488363637670831e-02 1.541751695235883332e-02 5.034973606502125137e-02
4.010000000000000000e+04 3.139568003670346191e-02 1.540333176426883499e-02 5.091225310482612454e-02
4.020000000000000000e+04 3.181797849008126400e-02 1.558985356392285186e-02 5.200916167404410345e-02
4.030000000000000000e+04 3.208705636818520723e-02 1.586503546004275692e-02 5.220555390373663590e-02
4.040000000000000000e+04 3.098926191654464979e-02 1.551849539412577215e-02 5.098984832993475741e-02
4.050000000000000000e+04 3.076885035009737507e-02 1.513192088824811751e-02 5.074915066959333199e-02
4.060000000000000000e+04 3.062938043710788927e-02 1.549422076791766648e-02 5.033263789748125550e-02
4.070000000000000000e+04 3.050302074102277314e-02 1.500475054470017978e-02 4.992296285726379595e-02
4.080000000000000000e+04 3.104330445623700377e-02 1.530393941639431737e-02 5.041628022487848471e-02
4.090000000000000000e+04 3.074207350556845686e-02 1.550617324111214917e-02 4.977273621915430379e-02
4.100000000000000000e+04 4.047139242456681413e-02 2.022278059083272225e-02 6.420927447411861611e-02
4.110000000000000000e+04 9.067097228357494376e-02 6.590405713101328555e-02 1.163246969811497639e-01
4.120000000000000000e+04 6.744980714440329539e-02 4.258018958491963796e-02 9.259675215976563567e-02
4.130000000000000000e+04 3.105604271429808147e-02 1.547924509062680205e-02 5.049807867789610216e-02
4.140000000000000000e+04 3.070386571182827373e-02 1.519636301052149779e-02 5.031073219493013143e-02
4.150000000000000000e+04 3.062835467593917962e-02 1.520139111551107453e-02 4.997963591914713483e-02
4.160000000000000000e+04 3.043883524164880949e-02 1.515821574905127506e-02 5.001475136966759827e-02
4.170000000000000000e+04 3.028524353000068906e-02 1.512125583490967450e-02 4.950574557963078465e-02
4.180000000000000000e+04 3.032644055323454463e-02 1.503960643681055351e-02 4.929810039191320076e-02
4.190000000000000000e+04 3.009966754336057537e-02 1.523060724567736578e-02 4.986438972940678699e-02
4.200000000000000000e+04 3.036242848551352902e-02 1.515133679973785022e-02 4.964947208220488878e-02
4.210000000000000000e+04 3.066240219477254364e-02 1.522737065652310547e-02 4.957295277991454613e-02
4.220000000000000000e+04 3.003475370672701455e-02 1.508104607974789999e-02 4.919245973495792179e-02
4.230000000000000000e+04 3.023913362798007556e-02 1.497223199380516914e-02 4.921249754814573107e-02
4.240000000000000000e+04 2.985335611139711826e-02 1.525356449694999748e-02 4.899979730060867456e-02
4.250000000000000000e+04 2.949085736492271931e-02 1.529002803120357162e-02 4.799845126118056082e-02
4.260000000000000000e+04 2.968753775991899227e-02 1.487634728808660822e-02 4.813478415817382117e-02
4.270000000000000000e+04 2.961792489773979603e-02 1.487779217462824842e-02 4.828592080884625687e-02
4.280000000000000000e+04 2.933868718671355305e-02 1.451994113166374216e-02 4.823469996603632626e-02
4.290000000000000000e+04 2.891997147731730985e-02 1.434225699741327291e-02 4.720865366258583662e-02
4.300000000000000000e+04 2.910347481399302647e-02 1.458876036907857422e-02 4.701827868820088879e-02
4.310000000000000000e+04 2.887372963416069346e-02 1.419400782569706435e-02 4.703329432329208387e-02
4.320000000000000000e+04 2.893365526928472903e-02 1.444982059056088355e-02 4.737429873466939001e-02
4.330000000000000000e+04 2.897979126383659274e-02 1.439354783997434141e-02 4.706443741707062867e-02
4.340000000000000000e+04 2.895313404329299262e-02 1.439921708522826430e-02 4.702441209586936260e-02
4.350000000000000000e+04 2.871052612381490635e-02 1.427750621762437569e-02 4.648408202405660689e-02
4.360000000000000000e+04 2.868521878450110488e-02 1.427787849931915973e-02 4.675187268317111677e-02
4.370000000000000000e+04 2.891470017366345666e-02 1.445052779998026206e-02 4.714954280674821946e-02
4.380000000000000000e+04 2.875576142692517351e-02 1.448348004442553613e-02 4.705964623957285820e-02
4.390000000000000000e+04 2.983814137097752159e-02 1.492495006117743397e-02 4.831391501228565061e-02
4.400000000000000000e+04 2.971304172093895690e-02 1.483311619848581495e-02 4.822096325096520558e-02
4.410000000000000000e+04 2.977681251331775608e-02 1.497709963727226166e-02 4.896862303999884036e-02
4.420000000000000000e+04 4.232081509340444164e-02 2.129897129710196443e-02 6.918585689886289081e-02
4.430000000000000000e+04 4.385007240032715720e-02 2.176054061595562514e-02 7.134167428715423864e-02
4.440000000000000000e+04 3.023675475059757825e-02 1.515843474808583474e-02 4.945296615400319312e-02
4.450000000000000000e+04 2.857959581969762505e-02 1.423871513128780256e-02 4.661286501785760067e-02
4.460000000000000000e+04 2.833865057942805757e-02 1.419349090035242240e-02 4.592235545497871940e-02
4.470000000000000000e+04 2.839140256599306106e-02 1.414975170143028746e-02 4.622607946964770592e-02
4.480000000000000000e+04 2.842019722892284023e-02 1.415683095211356379e-02 4.639421081678052339e-02
4.490000000000000000e+04 2.869680386089535143e-02 1.441451601901090097e-02 4.685018218036379745e-02
4.500000000000000000e+04 2.853033319468261525e-02 1.423943544207434929e-02 4.682219804916383510e-02
4.510000000000000000e+04 2.881277048193436885e-02 1.433312317023111536e-02 4.659352336818062268e-02
4.520000000000000000e+04 2.868018896046704846e-02 1.457833865983686021e-02 4.634878856830757649e-02
4.530000000000000000e+04 4.617249329584092316e-02 2.275379306696043852e-02 7.584630883659278233e-02
4.540000000000000000e+04 1.056455313795539586e-01 5.312131983752803321e-02 1.740070104061841871e-01
4.550000000000000000e+04 1.089921942834325280e-01 5.390637378107115268e-02 1.781837744004130253e-01
4.560000000000000000e+04 5.137927644368502078e-02 2.531600027278550769e-02 8.393152364466727189e-02
4.570000000000000000e+04 2.836854778046039166e-02 1.406789383048350807e-02 4.612629502202836990e-02
4.580000000000000000e+04 2.808591254672880219e-02 1.398076681327524613e-02 4.526034112955768657e-02
4.590000000000000000e+04 2.782234893212206031e-02 1.398616906279764351e-02 4.492697850019900657e-02
4.600000000000000000e+04 2.888378691248034633e-02 1.450187087703254038e-02 4.689108715260308091e-02
4.610000000000000000e+04 2.921468470188446492e-02 1.452430901383914771e-02 4.735702077885647898e-02
4.620000000000000000e+04 2.789767340835782108e-02 1.410893088085474201e-02 4.601054007107152621e-02
4.630000000000000000e+04 3.088929696800801761e-02 1.523278290604836681e-02 5.268817364112138996e-02
4.640000000000000000e+04 4.480016473552315276e-02 2.122892913614658067e-02 8.857579309140656276e-02
4.650000000000000000e+04 6.977152096500009726e-02 3.619834002341694446e-02 1.065449752249720550e-01
4.660000000000000000e+04 4.626620143361360321e-02 2.319062149017865615e-02 7.397968888125543152e-02
4.670000000000000000e+04 2.877773757954645018e-02 1.419697402385849960e-02 4.682966990801358531e-02
4.680000000000000000e+04 2.847565801960014534e-02 1.410675949246938989e-02 4.613760410630504682e-02
4.690000000000000000e+04 2.954628149373666329e-02 1.492878320372978407e-02 4.832227324194665607e-02
4.700000000000000000e+04 7.357333176571791145e-02 3.718912203920782950e-02 1.210730874506228683e-01
4.710000000000000000e+04 2.325139630440827554e-01 1.176443962903776091e-01 3.859218158267770371e-01
4.720000000000000000e+04 2.256883512366542055e-01 1.103103448437481038e-01 3.712418687059961808e-01
4.730000000000000000e+04 2.503847866632432639e-01 1.303751398514706450e-01 4.178144216794605348e-01
4.740000000000000000e+04 1.254505328213335602e-01 6.533361825240947829e-02 2.092045890560018384e-01
4.750000000000000000e+04 2.827207025950642313e-02 1.421717056706848538e-02 4.616595787289914932e-02
4.760000000000000000e+04 2.800080138219778955e-02 1.380563057607630401e-02 4.594774918814735487e-02
4.770000000000000000e+04 2.806672853648354421e-02 1.381533055178641757e-02 4.558170056290668237e-02
4.780000000000000000e+04 2.783511941679358420e-02 1.411034149852538437e-02 4.504569567471044395e-02
4.790000000000000000e+04 2.716633885906335685e-02 1.362143948716114383e-02 4.455734192086437812e-02
4.800000000000000000e+04 3.311867224949403832e-02 1.666310554635336283e-02 5.344293752452883989e-02
4.810000000000000000e+04 4.289267533976039853e-02 2.266850777914542273e-02 6.461789798459638412e-02
4.820000000000000000e+04 3.022789343033375001e-02 1.527096785607017990e-02 4.896060580087503028e-02
4.830000000000000000e+04 2.738949007095874827e-02 1.371746629527834625e-02 4.496707389856078457e-02
4.840000000000000000e+04 4.723333138940242343e-02 2.642734152029407174e-02 6.912005060546534685e-02
4.850000000000000000e+04 1.153123261699130764e-01 9.185359067327389382e-02 1.391077533283069934e-01
4.860000000000000000e+04 7.954293303518725211e-02 5.686203636217079110e-02 1.028645866715005852e-01
4.870000000000000000e+04 2.833307639191052357e-02 1.388704688070092376e-02 4.619557035413070223e-02
4.880000000000000000e+04 2.846023645585011447e-02 1.414861738334488236e-02 4.585959148010359393e-02
4.890000000000000000e+04 3.284006987099435948e-02 1.640536104792867170e-02 5.350264350529550239e-02
4.900000000000000000e+04 4.845032782044003672e-02 2.417569130497989813e-02 7.893491925797350983e-02
4.910000000000000000e+04 3.948464675512729227e-02 2.002840756603149058e-02 6.489169926671665978e-02
4.920000000000000000e+04 6.122929617586814893e-02 3.072327913583787831e-02 9.880252850120309349e-02
4.930000000000000000e+04 5.470802782659036495e-02 2.782360736525933340e-02 8.911922736132231460e-02
4.940000000000000000e+04 2.902857986490660694e-02 1.470560750034008088e-02 4.769896552903860748e-02
4.950000000000000000e+04 3.023732530353351322e-02 1.493708556440596739e-02 4.978490078634754262e-02
4.960000000000000000e+04 7.500359449113948307e-02 4.829515687816571951e-02 1.033639513289020401e-01
4.970000000000000000e+04 1.100898945187033934e-01 8.575847727413281330e-02 1.348825816982582859e-01
4.980000000000000000e+04 4.775174939026704396e-02 2.603619363231692019e-02 7.209999685655582580e-02
4.990000000000000000e+04 2.824692694421672423e-02 1.408782515539231360e-02 4.626567237583094350e-02
5.000000000000000000e+04 2.785473818145104211e-02 1.408237516803406697e-02 4.543777602223453282e-02
5.010000000000000000e+04 2.813760536277630508e-02 1.413030119670118448e-02 4.564517154623626283e-02
5.020000000000000000e+04 2.843081361092036213e-02 1.402896614125845147e-02 4.598856193348980353e-02
5.030000000000000000e+04 2.792450331602250313e-02 1.422299069032766788e-02 4.554370580246457079e-02
5.040000000000000000e+04 2.787318047978304403e-02 1.387197127881987201e-02 4.575565362124967700e-02
5.050000000000000000e+04 2.836733390989700995e-02 1.395195546376942243e-02 4.573292209359933191e-02
5.060000000000000000e+04 2.809877790169203887e-02 1.389851402455181441e-02 4.606575704987295877e-02
5.070000000000000000e+04 2.804192525167967243e-02 1.390390570845612649e-02 4.605054717299995187e-02
5.080000000000000000e+04 2.789052418733917876e-02 1.377319390574562735e-02 4.596700888075294644e-02
5.090000000000000000e+04 2.815373838874816320e-02 1.403009583568992462e-02 4.593933109974255441e-02
5.100000000000000000e+04 2.822112680470929141e-02 1.399440770105719010e-02 4.553030374121502105e-02
5.110000000000000000e+04 2.761642348002625938e-02 1.345518110433751614e-02 4.547728922518142619e-02
5.120000000000000000e+04 2.784794596104436110e-02 1.387641053764205636e-02 4.529925057623305357e-02
5.130000000000000000e+04 2.817223338898804108e-02 1.387874447617109402e-02 4.584298158340769508e-02
5.140000000000000000e+04 2.786581778520455868e-02 1.390096350546472098e-02 4.528010183236220315e-02
5.150000000000000000e+04 2.768813995577760340e-02 1.402722917658879610e-02 4.520199341520553943e-02
5.160000000000000000e+04 2.753319893828025389e-02 1.368041269103597440e-02 4.512877798600192086e-02
5.170000000000000000e+04 2.750423703768517872e-02 1.390641531532074010e-02 4.524481389680653359e-02
5.180000000000000000e+04 2.766937956279184180e-02 1.384221755712827448e-02 4.530014917722578749e-02
5.190000000000000000e+04 2.778236720278860414e-02 1.377564283170985837e-02 4.519645739602130147e-02
5.200000000000000000e+04 2.746634655993868482e-02 1.368962783895213454e-02 4.506789640682078851e-02
5.210000000000000000e+04 2.752973349747532203e-02 1.393907025910427928e-02 4.503369613153166556e-02
5.220000000000000000e+04 2.782142268160855622e-02 1.397486119371579502e-02 4.543838647817836918e-02
5.230000000000000000e+04 3.228011260523402232e-02 1.599433867267547119e-02 5.160921260038957986e-02
5.240000000000000000e+04 3.173236029830232147e-02 1.603438509577609361e-02 5.129411664651976205e-02
5.250000000000000000e+04 2.828635997413481498e-02 1.405737241019414802e-02 4.587219102770326296e-02
5.260000000000000000e+04 2.872556188261918622e-02 1.411733450997344763e-02 4.717712883229956827e-02
5.270000000000000000e+04 2.901265442784065757e-02 1.425483687159134587e-02 4.745830330081728110e-02
5.280000000000000000e+04 2.926207186347747069e-02 1.471477589350885136e-02 4.778787670749153060e-02
5.290000000000000000e+04 2.958133441316734835e-02 1.478484886590725363e-02 4.838069690157031921e-02
5.300000000000000000e+04 2.956664773203301552e-02 1.499780828312386426e-02 4.801004764949751841e-02
5.310000000000000000e+04 2.915531945290995505e-02 1.487124800791620079e-02 4.747075170778158187e-02
5.320000000000000000e+04 2.945280721863496182e-02 1.465096417223884021e-02 4.825037645397012992e-02
5.330000000000000000e+04 2.971501990593003462e-02 1.478858165683699481e-02 4.819656185174837210e-02
5.340000000000000000e+04 2.923974979692194401e-02 1.468811892140874792e-02 4.767336923342958138e-02
5.350000000000000000e+04 2.898093166150323211e-02 1.441404549216642773e-02 4.787825860403848582e-02
5.360000000000000000e+04 2.860466427771177558e-02 1.441475240244504720e-02 4.676396965724213817e-02
5.370000000000000000e+04 2.859388050596413725e-02 1.429546198223517577e-02 4.674706352749028598e-02
5.380000000000000000e+04 2.863348703622743685e-02 1.418177612818951987e-02 4.718948579895936718e-02
5.390000000000000000e+04 2.907302379055487496e-02 1.457583450059854804e-02 4.722806929349811222e-02
5.400000000000000000e+04 2.894233269919075507e-02 1.408402667189862650e-02 4.728439250639262376e-02
5.410000000000000000e+04 3.016765780401761687e-02 1.503661102777217526e-02 4.989976970463833733e-02
5.420000000000000000e+04 4.077866610136719056e-02 2.125215661795735664e-02 6.320520383081586202e-02
5.430000000000000000e+04 3.455839420500040476e-02 1.738212682443855336e-02 5.541434207414159402e-02
5.440000000000000000e+04 2.971165362467664828e-02 1.501391262060245389e-02 4.797866490066148015e-02
5.450000000000000000e+04 2.997003576224871110e-02 1.509848347563825383e-02 4.896068664748984278e-02
5.460000000000000000e+04 3.368624987320755632e-02 1.695329266407143848e-02 5.449656101683866133e-02
5.470000000000000000e+04 7.099899878941236253e-02 4.331771486358702156e-02 9.970223859813341638e-02
5.480000000000000000e+04 6.928120023699781138e-02 4.338438074460838206e-02 9.589540976950526596e-02
5.490000000000000000e+04 3.602329937107505431e-02 1.805021309677776881e-02 5.892227914987911014e-02
5.500000000000000000e+04 5.638251868184548932e-02 2.836648384104798956e-02 9.284126877061621430e-02
5.510000000000000000e+04 3.336633014984580203e-01 1.681477831378853927e-01 5.517315903368202878e-01
5.520000000000000000e+04 4.222581659154348577e-01 2.104372996989949396e-01 6.924088271361391600e-01
5.530000000000000000e+04 1.306711840810505509e-01 6.485264630116610585e-02 2.140731957205025404e-01
5.540000000000000000e+04 4.560978450495962316e-02 2.280356452630060565e-02 7.445676621172322984e-02
5.550000000000000000e+04 4.406222658810304837e-01 2.154768902483954474e-01 7.039700584105460512e-01
5.560000000000000000e+04 9.592434078007429088e-01 4.752142340908754314e-01 1.566974531777911350e+00
5.570000000000000000e+04 7.729935553607513166e-01 3.765862898693516647e-01 1.288379083053911911e+00
5.580000000000000000e+04 4.063323754733894067e-01 2.470001964292194985e-01 5.773226785305105579e-01
5.590000000000000000e+04 9.503916313838846053e-01 9.117343105381626733e-01 9.889454094357946756e-01
5.600000000000000000e+04 6.044028729731554250e-01 5.583838434031953568e-01 6.565179559409832777e-01
5.610000000000000000e+04 4.997268325680990358e-02 2.482701863803144990e-02 8.172246368601368549e-02
5.620000000000000000e+04 3.611909736875212884e-02 1.817140410292426497e-02 5.876580586197254624e-02
5.630000000000000000e+04 3.837676642674933691e-02 1.905194039962319549e-02 6.316913589355066527e-02
5.640000000000000000e+04 4.046253959637267222e-02 2.004371488303380994e-02 6.642971828627948494e-02
5.650000000000000000e+04 6.003437817067786703e-02 3.393747956323468068e-02 8.780437843381506957e-02
5.660000000000000000e+04 5.541927506009159538e-02 2.984368567092326313e-02 8.278126209288921844e-02
5.670000000000000000e+04 3.630061540717582913e-02 1.831166126167060870e-02 5.874588283841803565e-02
5.680000000000000000e+04 3.609766783235743293e-02 1.798558703493580851e-02 6.004943669286041258e-02
5.690000000000000000e+04 5.389860311432332490e-02 2.735354666907213045e-02 8.776917021132918384e-02
5.700000000000000000e+04 5.364600614907554660e-02 2.714278078465809027e-02 8.708274752885150627e-02
5.710000000000000000e+04 3.925154008429675156e-02 1.924555886425830670e-02 6.434265702640191986e-02
5.720000000000000000e+04 3.996910972448265015e-02 1.982843909583534986e-02 6.581233339516766312e-02
5.730000000000000000e+04 4.129778053008675148e-02 2.052770113295502089e-02 6.803596268126387014e-02
5.740000000000000000e+04 4.248139616183901901e-02 2.107507899777867622e-02 7.082638724082937487e-02
5.750000000000000000e+04 4.414408070917708038e-02 2.148002460003921657e-02 7.348335633696356783e-02
5.760000000000000000e+04 4.602460913324647046e-02 2.270732164198794797e-02 7.703350014170552706e-02
5.770000000000000000e+04 4.837721525242984211e-02 2.383843889828740972e-02 8.152182301658958408e-02
5.780000000000000000e+04 5.252747784838710660e-02 2.598438312466634648e-02 8.850642723024483571e-02
5.790000000000000000e+04 5.411988358086156081e-02 2.573483892973847664e-02 9.336833752709310097e-02
5.800000000000000000e+04 5.574661736606512791e-02 2.652606217243341433e-02 9.783841573006310521e-02
5.810000000000000000e+04 5.948512968126704048e-02 2.823908202333975243e-02 1.028865785139280453e-01
5.820000000000000000e+04 6.115398539976708847e-02 2.950860219304153598e-02 1.088384237271634997e-01
5.830000000000000000e+04 6.360607346847518828e-02 3.072625638024467296e-02 1.148155218528372490e-01
5.840000000000000000e+04 6.668205335215378338e-02 3.149488165238988058e-02 1.221090364540334261e-01
5.850000000000000000e+04 6.906005294524289462e-02 3.224065293910270691e-02 1.293032975343877122e-01
5.860000000000000000e+04 7.247705427700319725e-02 3.426920521105746020e-02 1.363635726273267068e-01
5.870000000000000000e+04 7.624595214081975048e-02 3.462162903283962784e-02 1.436584837097008849e-01
5.880000000000000000e+04 8.030067788034417342e-02 3.762595241949379110e-02 1.530910589745330674e-01
5.890000000000000000e+04 8.384161559789808649e-02 3.844603972898896771e-02 1.622885984823801142e-01
5.900000000000000000e+04 9.021634067834349846e-02 3.953645410561759665e-02 1.702185075622230648e-01
5.910000000000000000e+04 9.189906961014226994e-02 4.150234099643447527e-02 1.757436726159705975e-01
5.920000000000000000e+04 9.577440357271786719e-02 4.300797143974430248e-02 1.830651205391195802e-01
5.930000000000000000e+04 9.957375566664314337e-02 4.409017338312753997e-02 1.886340673446055549e-01
5.940000000000000000e+04 1.012636233519686318e-01 4.549773239349965553e-02 1.936221250243417846e-01
5.950000000000000000e+04 1.054629716690556329e-01 4.661125226555778295e-02 1.997387073077058761e-01
5.960000000000000000e+04 1.106095089892778910e-01 4.961694839648081445e-02 2.055849410433254476e-01
5.970000000000000000e+04 1.158130234873495784e-01 5.276129468674770756e-02 2.128782331580173492e-01
5.980000000000000000e+04 1.198015555759090606e-01 5.508745154384556142e-02 2.186473977224973886e-01
5.990000000000000000e+04 1.231743766082167291e-01 5.619524166203935384e-02 2.201125466747732573e-01
6.000000000000000000e+04 1.262851101063324211e-01 5.907872051582486322e-02 2.235362879007044279e-01
6.010000000000000000e+04 1.289259282854014754e-01 6.094177899033307449e-02 2.258239078834521074e-01
6.020000000000000000e+04 1.301348074686894118e-01 6.096900308216823133e-02 2.276315828986372747e-01
6.030000000000000000e+04 1.335745386140845259e-01 6.390829599517156012e-02 2.321548312741308351e-01
6.040000000000000000e+04 1.410695341884485587e-01 6.793153556047677732e-02 2.407723084419070014e-01
6.050000000000000000e+04 1.477130125546517458e-01 7.179715684930607078e-02 2.479262675249097325e-01
6.060000000000000000e+04 1.504685544042755341e-01 7.575767928440151067e-02 2.522356076520691492e-01
6.070000000000000000e+04 1.578432354071607202e-01 7.647995047865528695e-02 2.620088632025325825e-01
6.080000000000000000e+04 1.660689258369069665e-01 8.341108673661706829e-02 2.723813433187078359e-01
6.090000000000000000e+04 1.739855552139022987e-01 8.776369917566921586e-02 2.798782387706143515e-01
6.100000000000000000e+04 1.746392352133274706e-01 8.832024384514192139e-02 2.830747492477730387e-01
6.110000000000000000e+04 1.726128138699077885e-01 8.592150385405254720e-02 2.850599240982195637e-01
6.120000000000000000e+04 1.740350122063604732e-01 8.637626041728913018e-02 2.886436155852710184e-01
6.130000000000000000e+04 1.771020498158440426e-01 8.774083325048680215e-02 2.881980235067787000e-01
6.140000000000000000e+04 1.824991443091459609e-01 8.962170425018770037e-02 2.983341594200240032e-01
6.150000000000000000e+04 1.850566919945924871e-01 8.875246934146391320e-02 3.097497794054707709e-01
6.160000000000000000e+04 1.811329210694662961e-01 8.423482287366372556e-02 3.200535891346691364e-01
6.170000000000000000e+04 1.895843446253691889e-01 9.443359495133533954e-02 3.156442922051798106e-01
6.180000000000000000e+04 1.910367070846058501e-01 9.507878462282917664e-02 3.214927101996996606e-01
6.190000000000000000e+04 1.897817435715537238e-01 9.092226673878482657e-02 3.243741296544443431e-01
6.200000000000000000e+04 1.836264305914890593e-01 9.037343166319608545e-02 3.171962714868033495e-01
6.210000000000000000e+04 1.808153603139273924e-01 8.812022216375396677e-02 3.137594451148995045e-01
6.220000000000000000e+04 1.812979408708826623e-01 8.648034759705805485e-02 3.142392213468826467e-01
6.230000000000000000e+04 1.810498997487224315e-01 8.718554344484552576e-02 3.154947416551301398e-01
6.240000000000000000e+04 1.751744160001519335e-01 8.197459572795612326e-02 3.157669023949563614e-01
6.250000000000000000e+04 9.938435484199521774e-02 2.951869504537725855e-02 2.240222260869766391e-01
